7.67698e+02,6.66000e+02,6.61000e+02,5.00000e+00,1.47490e-10,0.00000e+00,1.48517e-10,0.00000e+00,1.02685e-12,0.00000e+00
7.67949e+02,6.71000e+02,6.69000e+02,2.00000e+00,5.52078e-11,7.54520e-03,5.58081e-11,7.54520e-03,1.14114e-12,7.54520e-03
7.68199e+02,6.81000e+02,6.78000e+02,3.00000e+00,2.36696e-11,1.50904e-02,2.38692e-11,1.50904e-02,1.26725e-12,1.50904e-02
7.68450e+02,6.81000e+02,6.93000e+02,-1.20000e+01,6.75079e-12,2.26356e-02,6.70374e-12,2.26356e-02,9.14617e-13,2.26356e-02
7.68701e+02,6.70000e+02,6.86000e+02,-1.60000e+01,3.84223e-12,3.01808e-02,3.86900e-12,3.01808e-02,9.92815e-14,3.01808e-02
7.68951e+02,6.75000e+02,6.81000e+02,-6.00000e+00,2.92927e-12,3.77260e-02,2.82604e-12,3.77260e-02,1.81354e-13,3.77260e-02
7.69202e+02,7.05000e+02,6.97000e+02,8.00000e+00,2.58558e-12,4.52712e-02,1.98259e-12,4.52712e-02,6.42775e-13,4.52712e-02
7.69453e+02,6.99000e+02,7.03000e+02,-4.00000e+00,1.04905e-12,5.28164e-02,8.12541e-13,5.28164e-02,7.95034e-13,5.28164e-02
7.69703e+02,6.88000e+02,6.84000e+02,4.00000e+00,1.26307e-12,6.03616e-02,9.86029e-13,6.03616e-02,1.25418e-12,6.03616e-02
7.69954e+02,6.88000e+02,6.88000e+02,0.00000e+00,1.15181e-12,6.79068e-02,1.14183e-12,6.79068e-02,1.91887e-12,6.79068e-02
7.70205e+02,6.92000e+02,6.90000e+02,2.00000e+00,1.93190e-12,7.54520e-02,9.03283e-13,7.54520e-02,1.87099e-12,7.54520e-02
7.70455e+02,7.06000e+02,7.16000e+02,-1.00000e+01,1.64281e-12,8.29972e-02,1.20474e-12,8.29972e-02,1.40011e-12,8.29972e-02
7.70706e+02,7.13000e+02,7.25000e+02,-1.20000e+01,1.64931e-12,9.05424e-02,2.53405e-12,9.05424e-02,1.81062e-12,9.05424e-02
7.70957e+02,6.78000e+02,7.01000e+02,-2.30000e+01,4.05047e-13,9.80876e-02,2.16589e-12,9.80876e-02,2.05282e-12,9.80876e-02
7.71207e+02,7.04000e+02,7.04000e+02,0.00000e+00,5.65601e-13,1.05633e-01,2.02695e-12,1.05633e-01,2.30242e-12,1.05633e-01
7.71458e+02,7.20000e+02,7.13000e+02,7.00000e+00,1.58975e-12,1.13178e-01,1.52751e-12,1.13178e-01,2.89302e-12,1.13178e-01
7.71708e+02,7.12000e+02,6.98000e+02,1.40000e+01,1.82506e-12,1.20723e-01,1.51463e-12,1.20723e-01,2.76495e-12,1.20723e-01
7.71959e+02,7.21000e+02,7.10000e+02,1.10000e+01,3.14207e-12,1.28268e-01,2.15583e-12,1.28268e-01,3.87881e-12,1.28268e-01
7.72210e+02,7.30000e+02,7.10000e+02,2.00000e+01,4.36170e-12,1.35814e-01,2.94772e-12,1.35814e-01,6.33274e-12,1.35814e-01
7.72460e+02,7.31000e+02,7.16000e+02,1.50000e+01,6.70633e-12,1.43359e-01,5.87220e-12,1.43359e-01,1.19509e-11,1.43359e-01
7.72711e+02,7.26000e+02,7.19000e+02,7.00000e+00,7.66286e-12,1.50904e-01,8.67508e-12,1.50904e-01,1.55196e-11,1.50904e-01
7.72961e+02,7.31000e+02,7.22000e+02,9.00000e+00,4.83759e-12,1.58449e-01,4.90228e-12,1.58449e-01,9.56461e-12,1.58449e-01
7.73212e+02,7.34000e+02,7.37000e+02,-3.00000e+00,2.01737e-12,1.65994e-01,2.25483e-13,1.65994e-01,2.13073e-12,1.65994e-01
7.73462e+02,7.24000e+02,7.46000e+02,-2.20000e+01,2.54081e-12,1.73540e-01,1.70535e-12,1.73540e-01,3.38317e-12,1.73540e-01
7.73713e+02,7.58000e+02,7.33000e+02,2.50000e+01,2.02321e-12,1.81085e-01,1.31390e-12,1.81085e-01,3.23019e-12,1.81085e-01
7.73963e+02,7.62000e+02,7.73000e+02,-1.10000e+01,1.02436e-12,1.88630e-01,1.45889e-12,1.88630e-01,2.45806e-12,1.88630e-01
7.74214e+02,7.57000e+02,7.79000e+02,-2.20000e+01,6.81075e-13,1.96175e-01,7.37714e-13,1.96175e-01,1.28223e-12,1.96175e-01
7.74465e+02,7.63000e+02,7.92000e+02,-2.90000e+01,4.65769e-13,2.03720e-01,4.66537e-13,2.03720e-01,4.09514e-13,2.03720e-01
7.74715e+02,7.41000e+02,7.74000e+02,-3.30000e+01,5.10507e-13,2.11266e-01,4.78253e-13,2.11266e-01,4.59260e-14,2.11266e-01
7.74965e+02,7.40000e+02,7.57000e+02,-1.70000e+01,5.44983e-13,2.18811e-01,6.90029e-13,2.18811e-01,5.72158e-13,2.18811e-01
7.75216e+02,7.45000e+02,7.58000e+02,-1.30000e+01,9.26549e-13,2.26356e-01,1.06322e-12,2.26356e-01,8.39572e-13,2.26356e-01
7.75466e+02,7.83000e+02,8.04000e+02,-2.10000e+01,8.15819e-13,2.33901e-01,3.30667e-13,2.33901e-01,8.37335e-13,2.33901e-01
7.75717e+02,7.92000e+02,8.01000e+02,-9.00000e+00,7.50406e-13,2.41446e-01,8.51934e-13,2.41446e-01,1.52177e-12,2.41446e-01
7.75967e+02,7.56000e+02,7.93000e+02,-3.70000e+01,4.68973e-13,2.48992e-01,1.17338e-12,2.48992e-01,1.56482e-12,2.48992e-01
7.76218e+02,7.99000e+02,7.63000e+02,3.60000e+01,4.15203e-13,2.56537e-01,1.15631e-12,2.56537e-01,1.32510e-12,2.56537e-01
7.76468e+02,8.21000e+02,7.69000e+02,5.20000e+01,4.66969e-13,2.64082e-01,6.92086e-13,2.64082e-01,1.12591e-12,2.64082e-01
7.76719e+02,7.99000e+02,7.74000e+02,2.50000e+01,6.75612e-13,2.71627e-01,4.89964e-13,2.71627e-01,5.37237e-13,2.71627e-01
7.76969e+02,7.87000e+02,7.84000e+02,3.00000e+00,7.51219e-13,2.79172e-01,9.09281e-13,2.79172e-01,2.34510e-13,2.79172e-01
7.77219e+02,8.16000e+02,7.74000e+02,4.20000e+01,6.21549e-13,2.86718e-01,8.92833e-13,2.86718e-01,4.36486e-13,2.86718e-01
7.77470e+02,8.49000e+02,7.69000e+02,8.00000e+01,7.20650e-13,2.94263e-01,1.43153e-12,2.94263e-01,7.50121e-13,2.94263e-01
7.77720e+02,8.65000e+02,7.95000e+02,7.00000e+01,5.04684e-13,3.01808e-01,1.31126e-12,3.01808e-01,8.07115e-13,3.01808e-01
7.77971e+02,8.76000e+02,8.29000e+02,4.70000e+01,1.02313e-12,3.09353e-01,1.76831e-12,3.09353e-01,1.00702e-12,3.09353e-01
7.78221e+02,8.63000e+02,8.54000e+02,9.00000e+00,2.93665e-12,3.16898e-01,2.93072e-12,3.16898e-01,7.18026e-13,3.16898e-01
7.78471e+02,8.37000e+02,8.63000e+02,-2.60000e+01,4.54477e-12,3.24444e-01,4.11798e-12,3.24444e-01,4.34636e-13,3.24444e-01
7.78722e+02,8.28000e+02,8.23000e+02,5.00000e+00,4.82359e-12,3.31989e-01,3.80620e-12,3.31989e-01,1.01799e-12,3.31989e-01
7.78972e+02,8.11000e+02,8.09000e+02,2.00000e+00,3.05526e-12,3.39534e-01,1.94587e-12,3.39534e-01,1.21513e-12,3.39534e-01
7.79222e+02,8.80000e+02,8.61000e+02,1.90000e+01,8.13677e-13,3.47079e-01,9.49025e-13,3.47079e-01,8.39064e-13,3.47079e-01
7.79473e+02,8.85000e+02,9.05000e+02,-2.00000e+01,6.04821e-13,3.54624e-01,1.04958e-12,3.54624e-01,5.23991e-13,3.54624e-01
7.79723e+02,8.59000e+02,9.18000e+02,-5.90000e+01,1.96789e-13,3.62169e-01,1.56054e-13,3.62169e-01,4.55595e-14,3.62169e-01
7.79973e+02,8.53000e+02,9.32000e+02,-7.90000e+01,4.34047e-13,3.69715e-01,4.33914e-13,3.69715e-01,4.20548e-13,3.69715e-01
7.80224e+02,8.37000e+02,8.96000e+02,-5.90000e+01,3.77357e-13,3.77260e-01,5.95944e-13,3.77260e-01,7.67175e-13,3.77260e-01
7.80474e+02,8.34000e+02,8.58000e+02,-2.40000e+01,6.73176e-13,3.84805e-01,4.79741e-13,3.84805e-01,6.56422e-13,3.84805e-01
7.80724e+02,8.50000e+02,8.42000e+02,8.00000e+00,7.60572e-13,3.92350e-01,6.51519e-13,3.92350e-01,1.37513e-13,3.92350e-01
7.80974e+02,8.68000e+02,8.87000e+02,-1.90000e+01,1.02058e-12,3.99895e-01,1.03423e-12,3.99895e-01,4.87857e-13,3.99895e-01
7.81225e+02,8.80000e+02,9.02000e+02,-2.20000e+01,1.04903e-12,4.07441e-01,1.03953e-12,4.07441e-01,7.63691e-13,4.07441e-01
7.81475e+02,9.23000e+02,8.73000e+02,5.00000e+01,6.00369e-13,4.14986e-01,9.50139e-13,4.14986e-01,9.68429e-13,4.14986e-01
7.81725e+02,9.90000e+02,8.60000e+02,1.30000e+02,3.28622e-13,4.22531e-01,4.96267e-13,4.22531e-01,7.87262e-13,4.22531e-01
7.81975e+02,9.39000e+02,8.60000e+02,7.90000e+01,4.47918e-13,4.30076e-01,6.78893e-13,4.30076e-01,1.00470e-12,4.30076e-01
7.82226e+02,9.24000e+02,8.88000e+02,3.60000e+01,6.95335e-13,4.37621e-01,4.49800e-13,4.37621e-01,7.79550e-13,4.37621e-01
7.82476e+02,8.91000e+02,8.88000e+02,3.00000e+00,7.81368e-13,4.45167e-01,1.08465e-12,4.45167e-01,1.25303e-12,4.45167e-01
7.82726e+02,9.08000e+02,8.62000e+02,4.60000e+01,1.99752e-12,4.52712e-01,2.63067e-12,4.52712e-01,3.96813e-12,4.52712e-01
7.82976e+02,1.00600e+03,8.94000e+02,1.12000e+02,3.70034e-12,4.60257e-01,4.22836e-12,4.60257e-01,6.80012e-12,4.60257e-01
7.83226e+02,1.00600e+03,9.74000e+02,3.20000e+01,4.60128e-12,4.67802e-01,4.88671e-12,4.67802e-01,8.44560e-12,4.67802e-01
7.83477e+02,9.74000e+02,9.71000e+02,3.00000e+00,4.90032e-12,4.75347e-01,4.93494e-12,4.75347e-01,8.69689e-12,4.75347e-01
7.83727e+02,8.78000e+02,9.52000e+02,-7.40000e+01,4.28721e-12,4.82893e-01,4.02688e-12,4.82893e-01,7.08427e-12,4.82893e-01
7.83977e+02,8.48000e+02,9.15000e+02,-6.70000e+01,2.62103e-12,4.90438e-01,2.97782e-12,4.90438e-01,4.28505e-12,4.90438e-01
7.84227e+02,8.88000e+02,9.01000e+02,-1.30000e+01,1.93398e-12,4.97983e-01,2.76746e-12,4.97983e-01,4.20001e-12,4.97983e-01
7.84477e+02,9.13000e+02,9.94000e+02,-8.10000e+01,2.13273e-12,5.05528e-01,2.08403e-12,5.05528e-01,3.86634e-12,5.05528e-01
7.84727e+02,8.81000e+02,1.02500e+03,-1.44000e+02,1.32943e-12,5.13073e-01,9.54781e-13,5.13073e-01,1.95972e-12,5.13073e-01
7.84978e+02,8.58000e+02,1.10900e+03,-2.51000e+02,7.35511e-13,5.20619e-01,5.02619e-13,5.20619e-01,7.87626e-13,5.20619e-01
7.85228e+02,8.58000e+02,1.02000e+03,-1.62000e+02,3.90895e-13,5.28164e-01,5.95408e-13,5.28164e-01,4.30646e-13,5.28164e-01
7.85478e+02,8.97000e+02,8.92000e+02,5.00000e+00,2.13906e-13,5.35709e-01,6.12378e-13,5.35709e-01,4.96339e-13,5.35709e-01
7.85728e+02,9.34000e+02,8.63000e+02,7.10000e+01,5.67136e-13,5.43254e-01,6.56754e-13,5.43254e-01,4.76209e-13,5.43254e-01
7.85978e+02,9.67000e+02,8.44000e+02,1.23000e+02,6.82510e-13,5.50799e-01,6.81057e-13,5.50799e-01,6.46748e-13,5.50799e-01
7.86228e+02,8.84000e+02,8.41000e+02,4.30000e+01,5.83373e-13,5.58345e-01,5.23710e-13,5.58345e-01,7.21853e-13,5.58345e-01
7.86478e+02,8.68000e+02,8.36000e+02,3.20000e+01,3.93336e-13,5.65890e-01,4.92146e-13,5.65890e-01,8.33554e-13,5.65890e-01
7.86728e+02,9.91000e+02,8.27000e+02,1.64000e+02,2.68329e-13,5.73435e-01,2.73995e-13,5.73435e-01,5.39399e-13,5.73435e-01
7.86978e+02,1.16300e+03,8.98000e+02,2.65000e+02,1.30809e-13,5.80980e-01,1.33119e-13,5.80980e-01,2.62717e-13,5.80980e-01
7.87228e+02,1.21200e+03,1.08400e+03,1.28000e+02,2.60904e-13,5.88525e-01,2.84669e-13,5.88525e-01,3.93461e-13,5.88525e-01
7.87478e+02,1.12500e+03,1.22000e+03,-9.50000e+01,5.74686e-13,5.96071e-01,3.47861e-13,5.96071e-01,6.49906e-13,5.96071e-01
7.87728e+02,9.90000e+02,1.19800e+03,-2.08000e+02,6.82985e-13,6.03616e-01,3.04052e-13,6.03616e-01,5.99669e-13,6.03616e-01
7.87978e+02,9.20000e+02,1.10000e+03,-1.80000e+02,4.99481e-13,6.11161e-01,3.06811e-13,6.11161e-01,1.93456e-13,6.11161e-01
7.88228e+02,9.38000e+02,1.03500e+03,-9.70000e+01,1.50622e-13,6.18706e-01,2.51022e-14,6.18706e-01,1.41287e-13,6.18706e-01
7.88478e+02,1.01300e+03,1.09300e+03,-8.00000e+01,1.66536e-13,6.26251e-01,1.03775e-13,6.26251e-01,8.95951e-14,6.26251e-01
7.88728e+02,9.99000e+02,1.25400e+03,-2.55000e+02,1.55456e-13,6.33797e-01,1.75141e-13,6.33797e-01,3.05207e-13,6.33797e-01
7.88978e+02,9.31000e+02,1.28300e+03,-3.52000e+02,1.13655e-13,6.41342e-01,3.77158e-13,6.41342e-01,4.69789e-13,6.41342e-01
7.89228e+02,9.16000e+02,1.15900e+03,-2.43000e+02,3.28429e-13,6.48887e-01,3.73825e-13,6.48887e-01,6.54064e-13,6.48887e-01
7.89478e+02,9.73000e+02,9.89000e+02,-1.60000e+01,2.09847e-13,6.56432e-01,5.14492e-13,6.56432e-01,7.22740e-13,6.56432e-01
7.89728e+02,9.96000e+02,8.65000e+02,1.31000e+02,1.22982e-13,6.63977e-01,5.66180e-13,6.63977e-01,6.84588e-13,6.63977e-01
7.89978e+02,9.94000e+02,8.79000e+02,1.15000e+02,8.36451e-14,6.71523e-01,3.78711e-13,6.71523e-01,4.61765e-13,6.71523e-01
7.90228e+02,9.27000e+02,9.09000e+02,1.80000e+01,4.54686e-13,6.79068e-01,3.16525e-13,6.79068e-01,4.00491e-13,6.79068e-01
7.90478e+02,9.69000e+02,9.21000e+02,4.80000e+01,6.18680e-13,6.86613e-01,1.33011e-13,6.86613e-01,4.88657e-13,6.86613e-01
7.90728e+02,1.19000e+03,8.77000e+02,3.13000e+02,3.86219e-13,6.94158e-01,1.64466e-13,6.94158e-01,2.56842e-13,6.94158e-01
7.90978e+02,1.37300e+03,8.76000e+02,4.97000e+02,2.13388e-13,7.01703e-01,2.71112e-13,7.01703e-01,3.13287e-13,7.01703e-01
7.91228e+02,1.36600e+03,9.92000e+02,3.74000e+02,1.89551e-13,7.09249e-01,2.68168e-13,7.09249e-01,2.95374e-13,7.09249e-01
7.91478e+02,1.24500e+03,1.09700e+03,1.48000e+02,1.34271e-13,7.16794e-01,1.01197e-13,7.16794e-01,7.53448e-14,7.16794e-01
7.91728e+02,1.08300e+03,1.12300e+03,-4.00000e+01,6.93653e-14,7.24339e-01,1.22876e-13,7.24339e-01,9.89161e-14,7.24339e-01
7.91977e+02,9.76000e+02,1.00000e+03,-2.40000e+01,2.55967e-13,7.31884e-01,8.85901e-14,7.31884e-01,1.85273e-13,7.31884e-01
7.92227e+02,1.06600e+03,1.00200e+03,6.40000e+01,2.27976e-13,7.39429e-01,2.15728e-13,7.39429e-01,3.62343e-13,7.39429e-01
7.92477e+02,1.20000e+03,1.17900e+03,2.10000e+01,3.53853e-13,7.46975e-01,4.45778e-13,7.46975e-01,5.36593e-13,7.46975e-01
7.92727e+02,1.23700e+03,1.46300e+03,-2.26000e+02,3.37551e-13,7.54520e-01,6.26640e-13,7.54520e-01,4.00069e-13,7.54520e-01
7.92977e+02,1.11700e+03,1.59500e+03,-4.78000e+02,5.77165e-13,7.62065e-01,6.94603e-13,7.62065e-01,2.36454e-13,7.62065e-01
7.93227e+02,9.57000e+02,1.46300e+03,-5.06000e+02,5.68950e-13,7.69610e-01,7.03674e-13,7.69610e-01,3.25579e-13,7.69610e-01
7.93476e+02,9.33000e+02,1.22200e+03,-2.89000e+02,4.40095e-13,7.77155e-01,6.37005e-13,7.77155e-01,5.48313e-13,7.77155e-01
7.93726e+02,1.04900e+03,1.01600e+03,3.30000e+01,4.12714e-13,7.84701e-01,6.01097e-13,7.84701e-01,6.28293e-13,7.84701e-01
7.93976e+02,1.07400e+03,1.07700e+03,-3.00000e+00,2.41905e-13,7.92246e-01,2.66662e-13,7.92246e-01,4.96402e-13,7.92246e-01
7.94226e+02,9.86000e+02,1.22900e+03,-2.43000e+02,2.79137e-13,7.99791e-01,2.56349e-13,7.99791e-01,5.34346e-13,7.99791e-01
7.94476e+02,1.05800e+03,1.19500e+03,-1.37000e+02,2.98430e-13,8.07336e-01,2.88605e-13,8.07336e-01,5.67570e-13,8.07336e-01
7.94725e+02,1.38200e+03,1.05400e+03,3.28000e+02,2.39638e-13,8.14881e-01,1.42299e-13,8.14881e-01,3.81325e-13,8.14881e-01
7.94975e+02,1.60000e+03,1.00700e+03,5.93000e+02,3.99416e-13,8.22427e-01,2.44568e-13,8.22427e-01,1.57782e-13,8.22427e-01
7.95225e+02,1.65500e+03,1.10400e+03,5.51000e+02,3.83286e-13,8.29972e-01,3.19961e-13,8.29972e-01,9.45714e-14,8.29972e-01
7.95475e+02,1.44600e+03,1.22400e+03,2.22000e+02,2.88731e-13,8.37517e-01,4.83120e-13,8.37517e-01,2.43679e-13,8.37517e-01
7.95724e+02,1.26900e+03,1.20100e+03,6.80000e+01,1.04925e-13,8.45062e-01,3.50405e-13,8.45062e-01,2.85665e-13,8.45062e-01
7.95974e+02,1.19300e+03,1.04700e+03,1.46000e+02,3.80949e-13,8.52607e-01,2.51712e-13,8.52607e-01,1.42517e-13,8.52607e-01
7.96224e+02,1.37700e+03,1.07600e+03,3.01000e+02,3.81439e-13,8.60153e-01,2.69870e-13,8.60153e-01,1.45898e-13,8.60153e-01
7.96474e+02,1.61100e+03,1.38600e+03,2.25000e+02,3.10899e-13,8.67698e-01,1.59451e-13,8.67698e-01,2.16020e-13,8.67698e-01
7.96723e+02,1.62200e+03,1.80900e+03,-1.87000e+02,2.45176e-13,8.75243e-01,2.16162e-13,8.75243e-01,3.52923e-13,8.75243e-01
7.96973e+02,1.39600e+03,2.08000e+03,-6.84000e+02,1.40437e-13,8.82788e-01,2.69599e-13,8.82788e-01,4.10000e-13,8.82788e-01
7.97223e+02,1.15900e+03,1.79900e+03,-6.40000e+02,6.12163e-14,8.90333e-01,1.33077e-13,8.90333e-01,1.34785e-13,8.90333e-01
7.97472e+02,1.11300e+03,1.40000e+03,-2.87000e+02,1.18414e-13,8.97879e-01,2.58628e-13,8.97879e-01,2.25761e-13,8.97879e-01
7.97722e+02,1.14900e+03,1.18400e+03,-3.50000e+01,2.20369e-13,9.05424e-01,2.56595e-13,9.05424e-01,3.60103e-13,9.05424e-01
7.97972e+02,1.18100e+03,1.34100e+03,-1.60000e+02,1.33760e-13,9.12969e-01,3.49833e-13,9.12969e-01,4.07701e-13,9.12969e-01
7.98221e+02,1.12400e+03,1.52100e+03,-3.97000e+02,1.39623e-13,9.20514e-01,4.34719e-13,9.20514e-01,3.02243e-13,9.20514e-01
7.98471e+02,1.17600e+03,1.54500e+03,-3.69000e+02,1.02346e-13,9.28059e-01,3.56447e-13,9.28059e-01,2.54106e-13,9.28059e-01
7.98721e+02,1.59400e+03,1.41300e+03,1.81000e+02,9.38907e-14,9.35605e-01,2.31840e-13,9.35605e-01,2.42921e-13,9.35605e-01
7.98970e+02,1.99800e+03,1.26400e+03,7.34000e+02,3.60188e-14,9.43150e-01,1.06552e-13,9.43150e-01,1.31117e-13,9.43150e-01
7.99220e+02,2.18000e+03,1.31400e+03,8.66000e+02,1.29183e-13,9.50695e-01,2.50445e-13,9.50695e-01,1.50975e-13,9.50695e-01
7.99469e+02,1.91400e+03,1.44000e+03,4.74000e+02,2.28897e-13,9.58240e-01,4.17226e-13,9.58240e-01,2.76835e-13,9.58240e-01
7.99719e+02,1.62700e+03,1.46900e+03,1.58000e+02,1.46450e-13,9.65785e-01,1.98688e-13,9.65785e-01,1.71432e-13,9.65785e-01
7.99969e+02,1.54900e+03,1.31800e+03,2.31000e+02,2.31751e-13,9.73331e-01,2.53407e-13,9.73331e-01,3.33362e-13,9.73331e-01
8.00218e+02,1.89800e+03,1.33800e+03,5.60000e+02,1.74457e-13,9.80876e-01,3.54095e-13,9.80876e-01,3.20473e-13,9.80876e-01
8.00468e+02,2.25700e+03,1.78300e+03,4.74000e+02,2.15791e-13,9.88421e-01,3.02541e-13,9.88421e-01,2.22343e-13,9.88421e-01
8.00717e+02,2.14400e+03,2.18600e+03,-4.20000e+01,1.51186e-13,9.95966e-01,1.57210e-13,9.95966e-01,7.53211e-14,9.95966e-01
8.00967e+02,1.78600e+03,2.44800e+03,-6.62000e+02,1.23199e-13,1.00351e+00,2.80718e-13,1.00351e+00,1.70609e-13,1.00351e+00
8.01216e+02,1.53100e+03,2.22000e+03,-6.89000e+02,1.05916e-13,1.01106e+00,2.40100e-13,1.01106e+00,2.86036e-13,1.01106e+00
8.01466e+02,1.61500e+03,1.91200e+03,-2.97000e+02,1.20127e-13,1.01860e+00,1.27504e-13,1.01860e+00,1.62793e-13,1.01860e+00
8.01715e+02,1.80900e+03,1.93400e+03,-1.25000e+02,1.70926e-13,1.02615e+00,7.83060e-14,1.02615e+00,1.88672e-13,1.02615e+00
8.01965e+02,1.80300e+03,2.20400e+03,-4.01000e+02,1.19605e-13,1.03369e+00,9.47915e-14,1.03369e+00,6.49148e-14,1.03369e+00
8.02215e+02,1.74700e+03,2.73300e+03,-9.86000e+02,8.40383e-14,1.04124e+00,1.61061e-13,1.04124e+00,8.07269e-14,1.04124e+00
8.02464e+02,2.00900e+03,2.73600e+03,-7.27000e+02,9.29103e-14,1.04878e+00,2.18777e-13,1.04878e+00,1.33892e-13,1.04878e+00
8.02713e+02,2.57800e+03,2.24800e+03,3.30000e+02,7.63944e-14,1.05633e+00,3.03188e-13,1.05633e+00,2.32971e-13,1.05633e+00
8.02963e+02,2.90500e+03,1.93200e+03,9.73000e+02,1.44912e-13,1.06387e+00,3.90777e-13,1.06387e+00,2.98204e-13,1.06387e+00
8.03212e+02,3.06500e+03,2.02700e+03,1.03800e+03,1.00935e-13,1.07142e+00,4.02901e-13,1.07142e+00,3.76908e-13,1.07142e+00
8.03462e+02,2.83600e+03,2.34500e+03,4.91000e+02,5.27548e-14,1.07896e+00,3.55433e-13,1.07896e+00,3.81156e-13,1.07896e+00
8.03711e+02,2.37300e+03,2.24400e+03,1.29000e+02,8.71174e-14,1.08651e+00,2.06131e-13,1.08651e+00,1.21380e-13,1.08651e+00
8.03961e+02,2.38900e+03,2.06300e+03,3.26000e+02,9.22610e-14,1.09405e+00,1.68130e-13,1.09405e+00,8.65848e-14,1.09405e+00
8.04210e+02,2.72300e+03,1.99600e+03,7.27000e+02,1.09483e-13,1.10160e+00,2.93476e-13,1.10160e+00,2.95825e-13,1.10160e+00
8.04460e+02,3.05000e+03,2.41400e+03,6.36000e+02,4.15669e-14,1.10914e+00,3.28883e-13,1.10914e+00,3.26717e-13,1.10914e+00
8.04709e+02,3.01400e+03,3.03700e+03,-2.30000e+01,1.86461e-13,1.11669e+00,3.19260e-13,1.11669e+00,2.10973e-13,1.11669e+00
8.04958e+02,2.57100e+03,3.42900e+03,-8.58000e+02,1.68835e-13,1.12423e+00,2.99531e-13,1.12423e+00,1.45931e-13,1.12423e+00
8.05208e+02,2.04400e+03,3.35600e+03,-1.31200e+03,5.87151e-14,1.13178e+00,2.92649e-13,1.13178e+00,2.36276e-13,1.13178e+00
8.05457e+02,1.97500e+03,2.64200e+03,-6.67000e+02,6.90405e-14,1.13932e+00,1.64783e-13,1.13932e+00,2.01565e-13,1.13932e+00
8.05707e+02,2.09600e+03,2.32700e+03,-2.31000e+02,1.13705e-13,1.14687e+00,1.56378e-13,1.14687e+00,9.20011e-14,1.14687e+00
8.05956e+02,2.23500e+03,2.73800e+03,-5.03000e+02,1.79796e-13,1.15442e+00,1.45563e-13,1.15442e+00,5.67536e-14,1.15442e+00
8.06205e+02,2.01000e+03,2.84000e+03,-8.30000e+02,1.87507e-13,1.16196e+00,1.89619e-13,1.16196e+00,1.15841e-13,1.16196e+00
8.06455e+02,2.17700e+03,3.20600e+03,-1.02900e+03,8.18817e-14,1.16951e+00,5.17456e-14,1.16951e+00,6.88122e-14,1.16951e+00
8.06704e+02,2.65700e+03,2.79100e+03,-1.34000e+02,1.09905e-13,1.17705e+00,4.53148e-14,1.17705e+00,1.01188e-13,1.17705e+00
8.06953e+02,3.45600e+03,2.42300e+03,1.03300e+03,1.10795e-13,1.18460e+00,9.35398e-14,1.18460e+00,2.00692e-13,1.18460e+00
8.07203e+02,3.86400e+03,2.48300e+03,1.38100e+03,9.19100e-14,1.19214e+00,9.13861e-14,1.19214e+00,1.32705e-13,1.19214e+00
8.07452e+02,3.67900e+03,2.86500e+03,8.14000e+02,9.34324e-14,1.19969e+00,1.15088e-13,1.19969e+00,1.50099e-13,1.19969e+00
8.07701e+02,2.98200e+03,2.77300e+03,2.09000e+02,9.47425e-14,1.20723e+00,2.06567e-13,1.20723e+00,1.12563e-13,1.20723e+00
8.07951e+02,2.95400e+03,2.39300e+03,5.61000e+02,9.13920e-14,1.21478e+00,2.01354e-13,1.21478e+00,1.17719e-13,1.21478e+00
8.08200e+02,3.34700e+03,2.31200e+03,1.03500e+03,1.01996e-13,1.22232e+00,1.80266e-13,1.22232e+00,7.98913e-14,1.22232e+00
8.08449e+02,3.97800e+03,2.72900e+03,1.24900e+03,8.51680e-14,1.22987e+00,1.60929e-13,1.22987e+00,1.02592e-13,1.22987e+00
8.08698e+02,4.09400e+03,3.28400e+03,8.10000e+02,1.01904e-13,1.23741e+00,4.31767e-14,1.23741e+00,1.26784e-13,1.23741e+00
8.08948e+02,3.56300e+03,3.79300e+03,-2.30000e+02,6.46096e-14,1.24496e+00,3.70880e-14,1.24496e+00,9.54664e-14,1.24496e+00
8.09197e+02,2.75000e+03,3.84900e+03,-1.09900e+03,6.82090e-14,1.25250e+00,1.05848e-13,1.25250e+00,1.46788e-13,1.25250e+00
8.09446e+02,2.41400e+03,3.39100e+03,-9.77000e+02,1.61017e-13,1.26005e+00,1.68460e-13,1.26005e+00,1.64116e-13,1.26005e+00
8.09695e+02,2.36600e+03,2.66400e+03,-2.98000e+02,1.57918e-13,1.26759e+00,1.37167e-13,1.26759e+00,9.00446e-14,1.26759e+00
8.09945e+02,2.76400e+03,3.24800e+03,-4.84000e+02,1.79056e-13,1.27514e+00,7.77795e-14,1.27514e+00,1.08260e-13,1.27514e+00
8.10194e+02,2.74700e+03,3.79500e+03,-1.04800e+03,2.21626e-13,1.28268e+00,1.54253e-13,1.28268e+00,1.36187e-13,1.28268e+00
8.10443e+02,2.55000e+03,3.71500e+03,-1.16500e+03,2.63552e-13,1.29023e+00,2.43019e-13,1.29023e+00,7.65581e-14,1.29023e+00
8.10692e+02,2.52200e+03,3.43500e+03,-9.13000e+02,2.28836e-13,1.29777e+00,2.62861e-13,1.29777e+00,2.57609e-13,1.29777e+00
8.10941e+02,2.89900e+03,2.77100e+03,1.28000e+02,3.36135e-13,1.30532e+00,2.83565e-13,1.30532e+00,2.46028e-13,1.30532e+00
8.11191e+02,3.29400e+03,2.37100e+03,9.23000e+02,2.84378e-13,1.31286e+00,2.06038e-13,1.31286e+00,2.58686e-13,1.31286e+00
8.11440e+02,3.31300e+03,2.36100e+03,9.52000e+02,2.76487e-13,-1.32041e+00,1.82745e-13,-1.32041e+00,9.37421e-14,-1.32041e+00
8.11689e+02,2.90800e+03,2.54800e+03,3.60000e+02,2.84378e-13,-1.31286e+00,2.06038e-13,-1.31286e+00,2.58686e-13,-1.31286e+00
8.11938e+02,2.76500e+03,2.68600e+03,7.90000e+01,3.36135e-13,-1.30532e+00,2.83565e-13,-1.30532e+00,2.46028e-13,-1.30532e+00
8.12187e+02,2.78900e+03,2.43700e+03,3.52000e+02,2.28836e-13,-1.29777e+00,2.62861e-13,-1.29777e+00,2.57609e-13,-1.29777e+00
8.12436e+02,3.18100e+03,2.26000e+03,9.21000e+02,2.63552e-13,-1.29023e+00,2.43019e-13,-1.29023e+00,7.65581e-14,-1.29023e+00
8.12685e+02,3.52400e+03,2.27100e+03,1.25300e+03,2.21626e-13,-1.28268e+00,1.54253e-13,-1.28268e+00,1.36187e-13,-1.28268e+00
8.12935e+02,3.64600e+03,2.56200e+03,1.08400e+03,1.79056e-13,-1.27514e+00,7.77795e-14,-1.27514e+00,1.08260e-13,-1.27514e+00
8.13184e+02,3.27800e+03,3.01000e+03,2.68000e+02,1.57918e-13,-1.26759e+00,1.37167e-13,-1.26759e+00,9.00446e-14,-1.26759e+00
8.13433e+02,2.89700e+03,3.22800e+03,-3.31000e+02,1.61017e-13,-1.26005e+00,1.68460e-13,-1.26005e+00,1.64116e-13,-1.26005e+00
8.13682e+02,2.53800e+03,2.83000e+03,-2.92000e+02,6.82090e-14,-1.25250e+00,1.05848e-13,-1.25250e+00,1.46788e-13,-1.25250e+00
8.13931e+02,2.55300e+03,2.58200e+03,-2.90000e+01,6.46096e-14,-1.24496e+00,3.70880e-14,-1.24496e+00,9.54664e-14,-1.24496e+00
8.14180e+02,2.62600e+03,2.78900e+03,-1.63000e+02,1.01904e-13,-1.23741e+00,4.31767e-14,-1.23741e+00,1.26784e-13,-1.23741e+00
8.14429e+02,2.64100e+03,3.54700e+03,-9.06000e+02,8.51680e-14,-1.22987e+00,1.60929e-13,-1.22987e+00,1.02592e-13,-1.22987e+00
8.14678e+02,2.44800e+03,3.91500e+03,-1.46700e+03,1.01996e-13,-1.22232e+00,1.80266e-13,-1.22232e+00,7.98913e-14,-1.22232e+00
8.14927e+02,2.08900e+03,3.71400e+03,-1.62500e+03,9.13920e-14,-1.21478e+00,2.01354e-13,-1.21478e+00,1.17719e-13,-1.21478e+00
8.15176e+02,2.12200e+03,3.44300e+03,-1.32100e+03,9.47425e-14,-1.20723e+00,2.06567e-13,-1.20723e+00,1.12563e-13,-1.20723e+00
8.15425e+02,2.41500e+03,2.71300e+03,-2.98000e+02,9.34324e-14,-1.19969e+00,1.15088e-13,-1.19969e+00,1.50099e-13,-1.19969e+00
8.15674e+02,2.65300e+03,2.59100e+03,6.20000e+01,9.19100e-14,-1.19214e+00,9.13861e-14,-1.19214e+00,1.32705e-13,-1.19214e+00
8.15923e+02,2.54100e+03,2.78600e+03,-2.45000e+02,1.10795e-13,-1.18460e+00,9.35398e-14,-1.18460e+00,2.00692e-13,-1.18460e+00
8.16172e+02,2.41500e+03,2.99600e+03,-5.81000e+02,1.09905e-13,-1.17705e+00,4.53148e-14,-1.17705e+00,1.01188e-13,-1.17705e+00
8.16421e+02,2.46900e+03,2.80500e+03,-3.36000e+02,8.18817e-14,-1.16951e+00,5.17456e-14,-1.16951e+00,6.88122e-14,-1.16951e+00
8.16670e+02,3.04300e+03,2.46600e+03,5.77000e+02,1.87507e-13,-1.16196e+00,1.89619e-13,-1.16196e+00,1.15841e-13,-1.16196e+00
8.16919e+02,3.94200e+03,2.42600e+03,1.51600e+03,1.79796e-13,-1.15442e+00,1.45563e-13,-1.15442e+00,5.67536e-14,-1.15442e+00
8.17168e+02,3.81900e+03,2.67900e+03,1.14000e+03,1.13705e-13,-1.14687e+00,1.56378e-13,-1.14687e+00,9.20011e-14,-1.14687e+00
8.17417e+02,3.00200e+03,2.77400e+03,2.28000e+02,6.90405e-14,-1.13932e+00,1.64783e-13,-1.13932e+00,2.01565e-13,-1.13932e+00
8.17666e+02,2.53100e+03,2.65400e+03,-1.23000e+02,5.87151e-14,-1.13178e+00,2.92649e-13,-1.13178e+00,2.36276e-13,-1.13178e+00
8.17915e+02,2.59000e+03,2.43300e+03,1.57000e+02,1.68835e-13,-1.12423e+00,2.99531e-13,-1.12423e+00,1.45931e-13,-1.12423e+00
8.18164e+02,2.75900e+03,2.27900e+03,4.80000e+02,1.86461e-13,-1.11669e+00,3.19260e-13,-1.11669e+00,2.10973e-13,-1.11669e+00
8.18413e+02,3.10800e+03,2.57200e+03,5.36000e+02,4.15669e-14,-1.10914e+00,3.28883e-13,-1.10914e+00,3.26717e-13,-1.10914e+00
8.18662e+02,3.37400e+03,3.25000e+03,1.24000e+02,1.09483e-13,-1.10160e+00,2.93476e-13,-1.10160e+00,2.95825e-13,-1.10160e+00
8.18911e+02,2.86100e+03,3.42000e+03,-5.59000e+02,9.22610e-14,-1.09405e+00,1.68130e-13,-1.09405e+00,8.65848e-14,-1.09405e+00
8.19160e+02,2.21400e+03,3.16500e+03,-9.51000e+02,8.71174e-14,-1.08651e+00,2.06131e-13,-1.08651e+00,1.21380e-13,-1.08651e+00
8.19408e+02,2.15500e+03,2.93000e+03,-7.75000e+02,5.27548e-14,-1.07896e+00,3.55433e-13,-1.07896e+00,3.81156e-13,-1.07896e+00
8.19657e+02,2.22500e+03,2.40800e+03,-1.83000e+02,1.00935e-13,-1.07142e+00,4.02901e-13,-1.07142e+00,3.76908e-13,-1.07142e+00
8.19906e+02,2.21200e+03,2.22700e+03,-1.50000e+01,1.44912e-13,-1.06387e+00,3.90777e-13,-1.06387e+00,2.98204e-13,-1.06387e+00
8.20155e+02,2.19200e+03,2.47600e+03,-2.84000e+02,7.63944e-14,-1.05633e+00,3.03188e-13,-1.05633e+00,2.32971e-13,-1.05633e+00
8.20404e+02,2.08700e+03,2.54300e+03,-4.56000e+02,9.29103e-14,-1.04878e+00,2.18777e-13,-1.04878e+00,1.33892e-13,-1.04878e+00
8.20653e+02,2.14100e+03,2.39000e+03,-2.49000e+02,8.40383e-14,-1.04124e+00,1.61061e-13,-1.04124e+00,8.07269e-14,-1.04124e+00
8.20901e+02,2.57900e+03,2.12800e+03,4.51000e+02,1.19605e-13,-1.03369e+00,9.47915e-14,-1.03369e+00,6.49148e-14,-1.03369e+00
8.21150e+02,2.85600e+03,1.96500e+03,8.91000e+02,1.70926e-13,-1.02615e+00,7.83060e-14,-1.02615e+00,1.88672e-13,-1.02615e+00
8.21399e+02,2.84900e+03,1.90400e+03,9.45000e+02,1.20127e-13,-1.01860e+00,1.27504e-13,-1.01860e+00,1.62793e-13,-1.01860e+00
8.21648e+02,2.43300e+03,2.08800e+03,3.45000e+02,1.05916e-13,-1.01106e+00,2.40100e-13,-1.01106e+00,2.86036e-13,-1.01106e+00
8.21897e+02,2.11800e+03,2.08400e+03,3.40000e+01,1.23199e-13,-1.00351e+00,2.80718e-13,-1.00351e+00,1.70609e-13,-1.00351e+00
8.22145e+02,2.17300e+03,2.00800e+03,1.65000e+02,1.51186e-13,-9.95966e-01,1.57210e-13,-9.95966e-01,7.53211e-14,-9.95966e-01
8.22394e+02,2.44400e+03,2.08500e+03,3.59000e+02,2.15791e-13,-9.88421e-01,3.02541e-13,-9.88421e-01,2.22343e-13,-9.88421e-01
8.22643e+02,2.53500e+03,2.44200e+03,9.30000e+01,1.74457e-13,-9.80876e-01,3.54095e-13,-9.80876e-01,3.20473e-13,-9.80876e-01
8.22892e+02,2.40100e+03,2.94300e+03,-5.42000e+02,2.31751e-13,-9.73331e-01,2.53407e-13,-9.73331e-01,3.33362e-13,-9.73331e-01
8.23140e+02,2.09800e+03,3.50900e+03,-1.41100e+03,1.46450e-13,-9.65785e-01,1.98688e-13,-9.65785e-01,1.71432e-13,-9.65785e-01
8.23389e+02,1.83700e+03,3.12400e+03,-1.28700e+03,2.28897e-13,-9.58240e-01,4.17226e-13,-9.58240e-01,2.76835e-13,-9.58240e-01
8.23638e+02,1.76100e+03,2.40400e+03,-6.43000e+02,1.29183e-13,-9.50695e-01,2.50445e-13,-9.50695e-01,1.50975e-13,-9.50695e-01
8.23887e+02,1.83600e+03,1.93600e+03,-1.00000e+02,3.60188e-14,-9.43150e-01,1.06552e-13,-9.43150e-01,1.31117e-13,-9.43150e-01
8.24135e+02,1.74500e+03,1.88800e+03,-1.43000e+02,9.38907e-14,-9.35605e-01,2.31840e-13,-9.35605e-01,2.42921e-13,-9.35605e-01
8.24384e+02,1.65300e+03,2.08800e+03,-4.35000e+02,1.02346e-13,-9.28059e-01,3.56447e-13,-9.28059e-01,2.54106e-13,-9.28059e-01
8.24633e+02,1.69700e+03,2.11500e+03,-4.18000e+02,1.39623e-13,-9.20514e-01,4.34719e-13,-9.20514e-01,3.02243e-13,-9.20514e-01
8.24881e+02,1.88200e+03,1.94900e+03,-6.70000e+01,1.33760e-13,-9.12969e-01,3.49833e-13,-9.12969e-01,4.07701e-13,-9.12969e-01
8.25130e+02,2.15400e+03,1.70800e+03,4.46000e+02,2.20369e-13,-9.05424e-01,2.56595e-13,-9.05424e-01,3.60103e-13,-9.05424e-01
8.25379e+02,2.30500e+03,1.62500e+03,6.80000e+02,1.18414e-13,-8.97879e-01,2.58628e-13,-8.97879e-01,2.25761e-13,-8.97879e-01
8.25627e+02,2.16100e+03,1.73100e+03,4.30000e+02,6.12163e-14,-8.90333e-01,1.33077e-13,-8.90333e-01,1.34785e-13,-8.90333e-01
8.25876e+02,1.85100e+03,1.70200e+03,1.49000e+02,1.40437e-13,-8.82788e-01,2.69599e-13,-8.82788e-01,4.10000e-13,-8.82788e-01
8.26125e+02,1.69300e+03,1.65000e+03,4.30000e+01,2.45176e-13,-8.75243e-01,2.16162e-13,-8.75243e-01,3.52923e-13,-8.75243e-01
8.26373e+02,1.93300e+03,1.60500e+03,3.28000e+02,3.10899e-13,-8.67698e-01,1.59451e-13,-8.67698e-01,2.16020e-13,-8.67698e-01
8.26622e+02,2.03600e+03,1.52700e+03,5.09000e+02,3.81439e-13,-8.60153e-01,2.69870e-13,-8.60153e-01,1.45898e-13,-8.60153e-01
8.26870e+02,1.89700e+03,1.65800e+03,2.39000e+02,3.80949e-13,-8.52607e-01,2.51712e-13,-8.52607e-01,1.42517e-13,-8.52607e-01
8.27119e+02,1.75600e+03,1.91000e+03,-1.54000e+02,1.04925e-13,-8.45062e-01,3.50405e-13,-8.45062e-01,2.85665e-13,-8.45062e-01
8.27368e+02,1.50900e+03,2.01600e+03,-5.07000e+02,2.88731e-13,-8.37517e-01,4.83120e-13,-8.37517e-01,2.43679e-13,-8.37517e-01
8.27616e+02,1.33500e+03,1.92600e+03,-5.91000e+02,3.83286e-13,-8.29972e-01,3.19961e-13,-8.29972e-01,9.45714e-14,-8.29972e-01
8.27865e+02,1.30300e+03,1.76100e+03,-4.58000e+02,3.99416e-13,-8.22427e-01,2.44568e-13,-8.22427e-01,1.57782e-13,-8.22427e-01
8.28113e+02,1.38500e+03,1.51700e+03,-1.32000e+02,2.39638e-13,-8.14881e-01,1.42299e-13,-8.14881e-01,3.81325e-13,-8.14881e-01
8.28362e+02,1.30600e+03,1.40600e+03,-1.00000e+02,2.98430e-13,-8.07336e-01,2.88605e-13,-8.07336e-01,5.67570e-13,-8.07336e-01
8.28610e+02,1.26100e+03,1.55500e+03,-2.94000e+02,2.79137e-13,-7.99791e-01,2.56349e-13,-7.99791e-01,5.34346e-13,-7.99791e-01
8.28859e+02,1.14500e+03,1.53600e+03,-3.91000e+02,2.41905e-13,-7.92246e-01,2.66662e-13,-7.92246e-01,4.96402e-13,-7.92246e-01
8.29108e+02,1.20300e+03,1.32400e+03,-1.21000e+02,4.12714e-13,-7.84701e-01,6.01097e-13,-7.84701e-01,6.28293e-13,-7.84701e-01
8.29356e+02,1.30400e+03,1.16500e+03,1.39000e+02,4.40095e-13,-7.77155e-01,6.37005e-13,-7.77155e-01,5.48313e-13,-7.77155e-01
8.29605e+02,1.36100e+03,1.08500e+03,2.76000e+02,5.68950e-13,-7.69610e-01,7.03674e-13,-7.69610e-01,3.25579e-13,-7.69610e-01
8.29853e+02,1.34400e+03,1.07400e+03,2.70000e+02,5.77165e-13,-7.62065e-01,6.94603e-13,-7.62065e-01,2.36454e-13,-7.62065e-01
8.30101e+02,1.28300e+03,1.11000e+03,1.73000e+02,3.37551e-13,-7.54520e-01,6.26640e-13,-7.54520e-01,4.00069e-13,-7.54520e-01
8.30350e+02,1.17000e+03,1.08500e+03,8.50000e+01,3.53853e-13,-7.46975e-01,4.45778e-13,-7.46975e-01,5.36593e-13,-7.46975e-01
8.30598e+02,1.12900e+03,1.03200e+03,9.70000e+01,2.27976e-13,-7.39429e-01,2.15728e-13,-7.39429e-01,3.62343e-13,-7.39429e-01
8.30847e+02,1.17300e+03,1.01100e+03,1.62000e+02,2.55967e-13,-7.31884e-01,8.85901e-14,-7.31884e-01,1.85273e-13,-7.31884e-01
8.31095e+02,1.21600e+03,1.06500e+03,1.51000e+02,6.93653e-14,-7.24339e-01,1.22876e-13,-7.24339e-01,9.89161e-14,-7.24339e-01
8.31344e+02,1.18900e+03,1.21600e+03,-2.70000e+01,1.34271e-13,-7.16794e-01,1.01197e-13,-7.16794e-01,7.53448e-14,-7.16794e-01
8.31592e+02,1.05400e+03,1.25000e+03,-1.96000e+02,1.89551e-13,-7.09249e-01,2.68168e-13,-7.09249e-01,2.95374e-13,-7.09249e-01
8.31841e+02,9.44000e+02,1.23900e+03,-2.95000e+02,2.13388e-13,-7.01703e-01,2.71112e-13,-7.01703e-01,3.13287e-13,-7.01703e-01
8.32089e+02,8.87000e+02,1.12900e+03,-2.42000e+02,3.86219e-13,-6.94158e-01,1.64466e-13,-6.94158e-01,2.56842e-13,-6.94158e-01
8.32337e+02,9.02000e+02,9.46000e+02,-4.40000e+01,6.18680e-13,-6.86613e-01,1.33011e-13,-6.86613e-01,4.88657e-13,-6.86613e-01
8.32586e+02,8.93000e+02,9.35000e+02,-4.20000e+01,4.54686e-13,-6.79068e-01,3.16525e-13,-6.79068e-01,4.00491e-13,-6.79068e-01
8.32834e+02,8.71000e+02,9.73000e+02,-1.02000e+02,8.36451e-14,-6.71523e-01,3.78711e-13,-6.71523e-01,4.61765e-13,-6.71523e-01
8.33083e+02,8.30000e+02,9.79000e+02,-1.49000e+02,1.22982e-13,-6.63977e-01,5.66180e-13,-6.63977e-01,6.84588e-13,-6.63977e-01
8.33331e+02,8.22000e+02,9.77000e+02,-1.55000e+02,2.09847e-13,-6.56432e-01,5.14492e-13,-6.56432e-01,7.22740e-13,-6.56432e-01
8.33579e+02,8.41000e+02,9.06000e+02,-6.50000e+01,3.28429e-13,-6.48887e-01,3.73825e-13,-6.48887e-01,6.54064e-13,-6.48887e-01
8.33828e+02,8.93000e+02,8.27000e+02,6.60000e+01,1.13655e-13,-6.41342e-01,3.77158e-13,-6.41342e-01,4.69789e-13,-6.41342e-01
8.34076e+02,9.01000e+02,7.85000e+02,1.16000e+02,1.55456e-13,-6.33797e-01,1.75141e-13,-6.33797e-01,3.05207e-13,-6.33797e-01
8.34324e+02,8.62000e+02,7.72000e+02,9.00000e+01,1.66536e-13,-6.26251e-01,1.03775e-13,-6.26251e-01,8.95951e-14,-6.26251e-01
8.34573e+02,8.09000e+02,7.87000e+02,2.20000e+01,1.50622e-13,-6.18706e-01,2.51022e-14,-6.18706e-01,1.41287e-13,-6.18706e-01
8.34821e+02,7.88000e+02,7.71000e+02,1.70000e+01,4.99481e-13,-6.11161e-01,3.06811e-13,-6.11161e-01,1.93456e-13,-6.11161e-01
8.35069e+02,8.25000e+02,7.44000e+02,8.10000e+01,6.82985e-13,-6.03616e-01,3.04052e-13,-6.03616e-01,5.99669e-13,-6.03616e-01
8.35318e+02,8.39000e+02,7.46000e+02,9.30000e+01,5.74686e-13,-5.96071e-01,3.47861e-13,-5.96071e-01,6.49906e-13,-5.96071e-01
8.35566e+02,8.71000e+02,7.84000e+02,8.70000e+01,2.60904e-13,-5.88525e-01,2.84669e-13,-5.88525e-01,3.93461e-13,-5.88525e-01
8.35814e+02,8.04000e+02,8.15000e+02,-1.10000e+01,1.30809e-13,-5.80980e-01,1.33119e-13,-5.80980e-01,2.62717e-13,-5.80980e-01
8.36062e+02,7.82000e+02,8.62000e+02,-8.00000e+01,2.68329e-13,-5.73435e-01,2.73995e-13,-5.73435e-01,5.39399e-13,-5.73435e-01
8.36311e+02,7.42000e+02,7.73000e+02,-3.10000e+01,3.93336e-13,-5.65890e-01,4.92146e-13,-5.65890e-01,8.33554e-13,-5.65890e-01
8.36559e+02,7.22000e+02,7.35000e+02,-1.30000e+01,5.83373e-13,-5.58345e-01,5.23710e-13,-5.58345e-01,7.21853e-13,-5.58345e-01
8.36807e+02,7.21000e+02,7.29000e+02,-8.00000e+00,6.82510e-13,-5.50799e-01,6.81057e-13,-5.50799e-01,6.46748e-13,-5.50799e-01
8.37055e+02,7.40000e+02,7.47000e+02,-7.00000e+00,5.67136e-13,-5.43254e-01,6.56754e-13,-5.43254e-01,4.76209e-13,-5.43254e-01
8.37304e+02,7.06000e+02,7.49000e+02,-4.30000e+01,2.13906e-13,-5.35709e-01,6.12378e-13,-5.35709e-01,4.96339e-13,-5.35709e-01
8.37552e+02,7.03000e+02,7.22000e+02,-1.90000e+01,3.90895e-13,-5.28164e-01,5.95408e-13,-5.28164e-01,4.30646e-13,-5.28164e-01
8.37800e+02,6.99000e+02,7.21000e+02,-2.20000e+01,7.35511e-13,-5.20619e-01,5.02619e-13,-5.20619e-01,7.87626e-13,-5.20619e-01
8.38048e+02,7.09000e+02,7.28000e+02,-1.90000e+01,1.32943e-12,-5.13073e-01,9.54781e-13,-5.13073e-01,1.95972e-12,-5.13073e-01
8.38296e+02,7.16000e+02,6.97000e+02,1.90000e+01,2.13273e-12,-5.05528e-01,2.08403e-12,-5.05528e-01,3.86634e-12,-5.05528e-01
8.38545e+02,7.16000e+02,6.89000e+02,2.70000e+01,1.93398e-12,-4.97983e-01,2.76746e-12,-4.97983e-01,4.20001e-12,-4.97983e-01
8.38793e+02,7.08000e+02,6.86000e+02,2.20000e+01,2.62103e-12,-4.90438e-01,2.97782e-12,-4.90438e-01,4.28505e-12,-4.90438e-01
8.39041e+02,7.07000e+02,6.89000e+02,1.80000e+01,4.28721e-12,-4.82893e-01,4.02688e-12,-4.82893e-01,7.08427e-12,-4.82893e-01
8.39289e+02,6.98000e+02,6.88000e+02,1.00000e+01,4.90032e-12,-4.75347e-01,4.93494e-12,-4.75347e-01,8.69689e-12,-4.75347e-01
8.39537e+02,7.06000e+02,6.92000e+02,1.40000e+01,4.60128e-12,-4.67802e-01,4.88671e-12,-4.67802e-01,8.44560e-12,-4.67802e-01
8.39785e+02,7.12000e+02,6.77000e+02,3.50000e+01,3.70034e-12,-4.60257e-01,4.22836e-12,-4.60257e-01,6.80012e-12,-4.60257e-01
8.40033e+02,7.18000e+02,6.98000e+02,2.00000e+01,1.99752e-12,-4.52712e-01,2.63067e-12,-4.52712e-01,3.96813e-12,-4.52712e-01
8.40281e+02,7.10000e+02,7.03000e+02,7.00000e+00,7.81368e-13,-4.45167e-01,1.08465e-12,-4.45167e-01,1.25303e-12,-4.45167e-01
8.40530e+02,6.78000e+02,6.91000e+02,-1.30000e+01,6.95335e-13,-4.37621e-01,4.49800e-13,-4.37621e-01,7.79550e-13,-4.37621e-01
8.40778e+02,6.92000e+02,6.91000e+02,1.00000e+00,4.47918e-13,-4.30076e-01,6.78893e-13,-4.30076e-01,1.00470e-12,-4.30076e-01
8.41026e+02,6.93000e+02,6.98000e+02,-5.00000e+00,3.28622e-13,-4.22531e-01,4.96267e-13,-4.22531e-01,7.87262e-13,-4.22531e-01
8.41274e+02,6.88000e+02,6.76000e+02,1.20000e+01,6.00369e-13,-4.14986e-01,9.50139e-13,-4.14986e-01,9.68429e-13,-4.14986e-01
8.41522e+02,6.84000e+02,6.76000e+02,8.00000e+00,1.04903e-12,-4.07441e-01,1.03953e-12,-4.07441e-01,7.63691e-13,-4.07441e-01
8.41770e+02,6.65000e+02,6.84000e+02,-1.90000e+01,1.02058e-12,-3.99895e-01,1.03423e-12,-3.99895e-01,4.87857e-13,-3.99895e-01
8.42018e+02,6.71000e+02,6.94000e+02,-2.30000e+01,7.60572e-13,-3.92350e-01,6.51519e-13,-3.92350e-01,1.37513e-13,-3.92350e-01
8.42266e+02,6.69000e+02,6.75000e+02,-6.00000e+00,6.73176e-13,-3.84805e-01,4.79741e-13,-3.84805e-01,6.56422e-13,-3.84805e-01
8.42514e+02,6.69000e+02,6.62000e+02,7.00000e+00,3.77357e-13,-3.77260e-01,5.95944e-13,-3.77260e-01,7.67175e-13,-3.77260e-01
8.42762e+02,6.74000e+02,6.81000e+02,-7.00000e+00,4.34047e-13,-3.69715e-01,4.33914e-13,-3.69715e-01,4.20548e-13,-3.69715e-01
8.43010e+02,6.86000e+02,6.71000e+02,1.50000e+01,1.96789e-13,-3.62169e-01,1.56054e-13,-3.62169e-01,4.55595e-14,-3.62169e-01
8.43258e+02,6.77000e+02,6.68000e+02,9.00000e+00,6.04821e-13,-3.54624e-01,1.04958e-12,-3.54624e-01,5.23991e-13,-3.54624e-01
8.43506e+02,6.68000e+02,6.66000e+02,2.00000e+00,8.13677e-13,-3.47079e-01,9.49025e-13,-3.47079e-01,8.39064e-13,-3.47079e-01
8.43754e+02,6.86000e+02,6.71000e+02,1.50000e+01,3.05526e-12,-3.39534e-01,1.94587e-12,-3.39534e-01,1.21513e-12,-3.39534e-01
8.44002e+02,6.65000e+02,6.63000e+02,2.00000e+00,4.82359e-12,-3.31989e-01,3.80620e-12,-3.31989e-01,1.01799e-12,-3.31989e-01
8.44250e+02,6.72000e+02,6.76000e+02,-4.00000e+00,4.54477e-12,-3.24444e-01,4.11798e-12,-3.24444e-01,4.34636e-13,-3.24444e-01
8.44498e+02,6.82000e+02,6.76000e+02,6.00000e+00,2.93665e-12,-3.16898e-01,2.93072e-12,-3.16898e-01,7.18026e-13,-3.16898e-01
8.44746e+02,6.75000e+02,6.77000e+02,-2.00000e+00,1.02313e-12,-3.09353e-01,1.76831e-12,-3.09353e-01,1.00702e-12,-3.09353e-01
8.44994e+02,6.70000e+02,6.73000e+02,-3.00000e+00,5.04684e-13,-3.01808e-01,1.31126e-12,-3.01808e-01,8.07115e-13,-3.01808e-01
8.45242e+02,6.53000e+02,6.82000e+02,-2.90000e+01,7.20650e-13,-2.94263e-01,1.43153e-12,-2.94263e-01,7.50121e-13,-2.94263e-01
8.45490e+02,6.67000e+02,6.76000e+02,-9.00000e+00,6.21549e-13,-2.86718e-01,8.92833e-13,-2.86718e-01,4.36486e-13,-2.86718e-01
8.45738e+02,6.68000e+02,6.57000e+02,1.10000e+01,7.51219e-13,-2.79172e-01,9.09281e-13,-2.79172e-01,2.34510e-13,-2.79172e-01
8.45985e+02,6.69000e+02,6.66000e+02,3.00000e+00,6.75612e-13,-2.71627e-01,4.89964e-13,-2.71627e-01,5.37237e-13,-2.71627e-01
8.46233e+02,6.73000e+02,6.63000e+02,1.00000e+01,4.66969e-13,-2.64082e-01,6.92086e-13,-2.64082e-01,1.12591e-12,-2.64082e-01
8.46481e+02,6.79000e+02,6.76000e+02,3.00000e+00,4.15203e-13,-2.56537e-01,1.15631e-12,-2.56537e-01,1.32510e-12,-2.56537e-01
8.46729e+02,6.66000e+02,6.77000e+02,-1.10000e+01,4.68973e-13,-2.48992e-01,1.17338e-12,-2.48992e-01,1.56482e-12,-2.48992e-01
8.46977e+02,6.68000e+02,6.77000e+02,-9.00000e+00,7.50406e-13,-2.41446e-01,8.51934e-13,-2.41446e-01,1.52177e-12,-2.41446e-01
8.47225e+02,6.73000e+02,6.86000e+02,-1.30000e+01,8.15819e-13,-2.33901e-01,3.30667e-13,-2.33901e-01,8.37335e-13,-2.33901e-01
8.47473e+02,6.73000e+02,6.68000e+02,5.00000e+00,9.26549e-13,-2.26356e-01,1.06322e-12,-2.26356e-01,8.39572e-13,-2.26356e-01
8.47720e+02,6.36000e+02,6.68000e+02,-3.20000e+01,5.44983e-13,-2.18811e-01,6.90029e-13,-2.18811e-01,5.72158e-13,-2.18811e-01
8.47968e+02,6.67000e+02,6.78000e+02,-1.10000e+01,5.10507e-13,-2.11266e-01,4.78253e-13,-2.11266e-01,4.59260e-14,-2.11266e-01
8.48216e+02,6.69000e+02,6.71000e+02,-2.00000e+00,4.65769e-13,-2.03720e-01,4.66537e-13,-2.03720e-01,4.09514e-13,-2.03720e-01
8.48464e+02,6.57000e+02,6.69000e+02,-1.20000e+01,6.81075e-13,-1.96175e-01,7.37714e-13,-1.96175e-01,1.28223e-12,-1.96175e-01
8.48712e+02,6.69000e+02,6.74000e+02,-5.00000e+00,1.02436e-12,-1.88630e-01,1.45889e-12,-1.88630e-01,2.45806e-12,-1.88630e-01
8.48960e+02,6.52000e+02,6.70000e+02,-1.80000e+01,2.02321e-12,-1.81085e-01,1.31390e-12,-1.81085e-01,3.23019e-12,-1.81085e-01
8.49207e+02,6.78000e+02,6.74000e+02,4.00000e+00,2.54081e-12,-1.73540e-01,1.70535e-12,-1.73540e-01,3.38317e-12,-1.73540e-01
8.49455e+02,6.55000e+02,6.59000e+02,-4.00000e+00,2.01737e-12,-1.65994e-01,2.25483e-13,-1.65994e-01,2.13073e-12,-1.65994e-01
8.49703e+02,6.61000e+02,6.64000e+02,-3.00000e+00,4.83759e-12,-1.58449e-01,4.90228e-12,-1.58449e-01,9.56461e-12,-1.58449e-01
8.49951e+02,6.82000e+02,6.71000e+02,1.10000e+01,7.66286e-12,-1.50904e-01,8.67508e-12,-1.50904e-01,1.55196e-11,-1.50904e-01
8.50198e+02,6.60000e+02,6.70000e+02,-1.00000e+01,6.70633e-12,-1.43359e-01,5.87220e-12,-1.43359e-01,1.19509e-11,-1.43359e-01
8.50446e+02,6.75000e+02,6.66000e+02,9.00000e+00,4.36170e-12,-1.35814e-01,2.94772e-12,-1.35814e-01,6.33274e-12,-1.35814e-01
8.50694e+02,6.64000e+02,6.60000e+02,4.00000e+00,3.14207e-12,-1.28268e-01,2.15583e-12,-1.28268e-01,3.87881e-12,-1.28268e-01
8.50941e+02,6.64000e+02,6.82000e+02,-1.80000e+01,1.82506e-12,-1.20723e-01,1.51463e-12,-1.20723e-01,2.76495e-12,-1.20723e-01
8.51189e+02,6.66000e+02,6.86000e+02,-2.00000e+01,1.58975e-12,-1.13178e-01,1.52751e-12,-1.13178e-01,2.89302e-12,-1.13178e-01
8.51437e+02,6.62000e+02,6.66000e+02,-4.00000e+00,5.65601e-13,-1.05633e-01,2.02695e-12,-1.05633e-01,2.30242e-12,-1.05633e-01
8.51685e+02,6.57000e+02,6.67000e+02,-1.00000e+01,4.05047e-13,-9.80876e-02,2.16589e-12,-9.80876e-02,2.05282e-12,-9.80876e-02
8.51932e+02,6.67000e+02,6.60000e+02,7.00000e+00,1.64931e-12,-9.05424e-02,2.53405e-12,-9.05424e-02,1.81062e-12,-9.05424e-02
8.52180e+02,6.63000e+02,6.69000e+02,-6.00000e+00,1.64281e-12,-8.29972e-02,1.20474e-12,-8.29972e-02,1.40011e-12,-8.29972e-02
8.52428e+02,6.57000e+02,6.56000e+02,1.00000e+00,1.93190e-12,-7.54520e-02,9.03283e-13,-7.54520e-02,1.87099e-12,-7.54520e-02
8.52675e+02,6.70000e+02,6.58000e+02,1.20000e+01,1.15181e-12,-6.79068e-02,1.14183e-12,-6.79068e-02,1.91887e-12,-6.79068e-02
8.52923e+02,6.69000e+02,6.81000e+02,-1.20000e+01,1.26307e-12,-6.03616e-02,9.86029e-13,-6.03616e-02,1.25418e-12,-6.03616e-02
8.53170e+02,6.80000e+02,6.77000e+02,3.00000e+00,1.04905e-12,-5.28164e-02,8.12541e-13,-5.28164e-02,7.95034e-13,-5.28164e-02
8.53418e+02,6.56000e+02,6.57000e+02,-1.00000e+00,2.58558e-12,-4.52712e-02,1.98259e-12,-4.52712e-02,6.42775e-13,-4.52712e-02
8.53666e+02,6.71000e+02,6.67000e+02,4.00000e+00,2.92927e-12,-3.77260e-02,2.82604e-12,-3.77260e-02,1.81354e-13,-3.77260e-02
8.53913e+02,6.75000e+02,6.71000e+02,4.00000e+00,3.84223e-12,-3.01808e-02,3.86900e-12,-3.01808e-02,9.92815e-14,-3.01808e-02
8.54161e+02,6.70000e+02,6.76000e+02,-6.00000e+00,6.75079e-12,-2.26356e-02,6.70374e-12,-2.26356e-02,9.14617e-13,-2.26356e-02
8.54409e+02,6.46000e+02,6.70000e+02,-2.40000e+01,2.36696e-11,-1.50904e-02,2.38692e-11,-1.50904e-02,1.26725e-12,-1.50904e-02
8.54656e+02,6.62000e+02,6.64000e+02,-2.00000e+00,5.52078e-11,-7.54520e-03,5.58081e-11,-7.54520e-03,1.14114e-12,-7.54520e-03
