7.67698e+02,6.98000e+02,7.48000e+02,-5.00000e+01,5.34576e-10,0.00000e+00,5.41409e-10,0.00000e+00,6.83346e-12,0.00000e+00
7.67949e+02,7.40000e+02,7.43000e+02,-3.00000e+00,3.21398e-10,7.54520e-03,3.23909e-10,7.54520e-03,7.26269e-12,7.54520e-03
7.68199e+02,7.84000e+02,7.17000e+02,6.70000e+01,1.05805e-10,1.50904e-02,1.05045e-10,1.50904e-02,8.68956e-12,1.50904e-02
7.68450e+02,7.82000e+02,7.38000e+02,4.40000e+01,2.85729e-11,2.26356e-02,3.15633e-11,2.26356e-02,4.96678e-12,2.26356e-02
7.68701e+02,7.44000e+02,7.53000e+02,-9.00000e+00,1.28624e-11,3.01808e-02,1.29832e-11,3.01808e-02,3.20225e-13,3.01808e-02
7.68951e+02,7.06000e+02,7.65000e+02,-5.90000e+01,1.16110e-11,3.77260e-02,9.49271e-12,3.77260e-02,2.74140e-12,3.77260e-02
7.69202e+02,7.54000e+02,7.44000e+02,1.00000e+01,1.21398e-11,4.52712e-02,1.33994e-11,4.52712e-02,1.44312e-12,4.52712e-02
7.69453e+02,7.85000e+02,7.47000e+02,3.80000e+01,8.68449e-12,5.28164e-02,1.26014e-11,5.28164e-02,5.03887e-12,5.28164e-02
7.69703e+02,8.12000e+02,7.43000e+02,6.90000e+01,2.63777e-12,6.03616e-02,8.40468e-12,6.03616e-02,8.41310e-12,6.03616e-02
7.69954e+02,7.66000e+02,8.01000e+02,-3.50000e+01,4.84681e-12,6.79068e-02,7.91135e-12,6.79068e-02,1.03805e-11,6.79068e-02
7.70205e+02,7.50000e+02,8.27000e+02,-7.70000e+01,8.24738e-12,7.54520e-02,8.37049e-12,7.54520e-02,8.00958e-12,7.54520e-02
7.70455e+02,7.79000e+02,8.14000e+02,-3.50000e+01,9.75073e-12,8.29972e-02,6.63640e-12,8.29972e-02,3.48474e-12,8.29972e-02
7.70706e+02,8.40000e+02,7.65000e+02,7.50000e+01,8.33205e-12,9.05424e-02,8.36344e-12,9.05424e-02,1.91891e-12,9.05424e-02
7.70957e+02,8.13000e+02,7.78000e+02,3.50000e+01,5.52496e-12,9.80876e-02,8.77054e-12,9.80876e-02,3.26389e-12,9.80876e-02
7.71207e+02,7.57000e+02,8.57000e+02,-1.00000e+02,2.08369e-12,1.05633e-01,8.21072e-12,1.05633e-01,6.12937e-12,1.05633e-01
7.71458e+02,7.57000e+02,9.10000e+02,-1.53000e+02,1.50372e-12,1.13178e-01,7.75348e-12,1.13178e-01,6.52282e-12,1.13178e-01
7.71708e+02,8.02000e+02,8.57000e+02,-5.50000e+01,1.32998e-13,1.20723e-01,2.29700e-12,1.20723e-01,2.38674e-12,1.20723e-01
7.71959e+02,8.97000e+02,8.22000e+02,7.50000e+01,3.03620e-12,1.28268e-01,5.86175e-12,1.28268e-01,3.69275e-12,1.28268e-01
7.72210e+02,9.31000e+02,8.33000e+02,9.80000e+01,7.33052e-12,1.35814e-01,8.06706e-12,1.35814e-01,6.48975e-12,1.35814e-01
7.72460e+02,8.31000e+02,9.24000e+02,-9.30000e+01,8.24357e-12,1.43359e-01,5.15202e-12,1.43359e-01,6.71026e-12,1.43359e-01
7.72711e+02,8.04000e+02,1.01600e+03,-2.12000e+02,9.07400e-12,1.50904e-01,3.37279e-12,1.50904e-01,6.04947e-12,1.50904e-01
7.72961e+02,8.82000e+02,9.45000e+02,-6.30000e+01,1.20261e-11,1.58449e-01,7.51906e-12,1.58449e-01,5.88941e-12,1.58449e-01
7.73212e+02,9.60000e+02,8.52000e+02,1.08000e+02,1.11401e-11,1.65994e-01,6.80709e-12,1.65994e-01,4.73077e-12,1.65994e-01
7.73462e+02,9.97000e+02,8.31000e+02,1.66000e+02,6.40617e-12,1.73540e-01,4.08943e-12,1.73540e-01,2.33979e-12,1.73540e-01
7.73713e+02,8.68000e+02,9.29000e+02,-6.10000e+01,2.49693e-12,1.81085e-01,1.26689e-12,1.81085e-01,1.42779e-12,1.81085e-01
7.73963e+02,8.24000e+02,9.64000e+02,-1.40000e+02,1.52961e-12,1.88630e-01,1.70253e-12,1.88630e-01,2.59142e-12,1.88630e-01
7.74214e+02,8.98000e+02,9.20000e+02,-2.20000e+01,5.04168e-12,1.96175e-01,5.17465e-12,1.96175e-01,4.84015e-12,1.96175e-01
7.74465e+02,1.00400e+03,8.73000e+02,1.31000e+02,5.84573e-12,2.03720e-01,9.83727e-12,2.03720e-01,5.14112e-12,2.03720e-01
7.74715e+02,9.74000e+02,8.73000e+02,1.01000e+02,3.05206e-12,2.11266e-01,7.24741e-12,2.11266e-01,4.32557e-12,2.11266e-01
7.74965e+02,9.27000e+02,9.76000e+02,-4.90000e+01,1.28644e-12,2.18811e-01,1.03968e-12,2.18811e-01,2.18242e-12,2.18811e-01
7.75216e+02,8.57000e+02,1.09800e+03,-2.41000e+02,4.37115e-12,2.26356e-01,1.70623e-12,2.26356e-01,2.78172e-12,2.26356e-01
7.75466e+02,8.87000e+02,1.09300e+03,-2.06000e+02,4.64605e-12,2.33901e-01,3.23409e-12,2.33901e-01,1.57620e-12,2.33901e-01
7.75717e+02,9.69000e+02,9.90000e+02,-2.10000e+01,6.34700e-12,2.41446e-01,5.20756e-12,2.41446e-01,1.30472e-12,2.41446e-01
7.75967e+02,1.09300e+03,9.49000e+02,1.44000e+02,4.30009e-12,2.48992e-01,4.75884e-12,2.48992e-01,1.62840e-12,2.48992e-01
7.76218e+02,1.07800e+03,1.02400e+03,5.40000e+01,4.47306e-12,2.56537e-01,4.63853e-12,2.56537e-01,4.39795e-12,2.56537e-01
7.76468e+02,9.85000e+02,1.15300e+03,-1.68000e+02,7.25959e-12,2.64082e-01,3.47149e-12,2.64082e-01,1.00993e-11,2.64082e-01
7.76719e+02,9.55000e+02,1.12300e+03,-1.68000e+02,6.14579e-12,2.71627e-01,2.92274e-12,2.71627e-01,8.99281e-12,2.71627e-01
7.76969e+02,1.01200e+03,1.05200e+03,-4.00000e+01,1.35229e-12,2.79172e-01,2.36759e-12,2.79172e-01,2.77724e-12,2.79172e-01
7.77219e+02,1.15300e+03,1.03800e+03,1.15000e+02,2.10533e-12,2.86718e-01,3.75389e-12,2.86718e-01,4.41619e-12,2.86718e-01
7.77470e+02,1.24400e+03,1.16000e+03,8.40000e+01,3.71569e-12,2.94263e-01,3.01499e-12,2.94263e-01,2.32099e-12,2.94263e-01
7.77720e+02,1.12800e+03,1.46300e+03,-3.35000e+02,2.94719e-12,3.01808e-01,3.72730e-12,3.01808e-01,2.85242e-12,3.01808e-01
7.77971e+02,1.06300e+03,1.58100e+03,-5.18000e+02,2.21704e-12,3.09353e-01,4.25107e-12,3.09353e-01,5.57898e-12,3.09353e-01
7.78221e+02,1.29600e+03,1.42100e+03,-1.25000e+02,2.51846e-12,3.16898e-01,4.10070e-12,3.16898e-01,3.92440e-12,3.16898e-01
7.78471e+02,1.56900e+03,1.19300e+03,3.76000e+02,3.49853e-12,3.24444e-01,4.61960e-12,3.24444e-01,1.12108e-12,3.24444e-01
7.78722e+02,1.53600e+03,1.18700e+03,3.49000e+02,2.29769e-12,3.31989e-01,2.40037e-12,3.31989e-01,3.16346e-12,3.31989e-01
7.78972e+02,1.33800e+03,1.40900e+03,-7.10000e+01,3.94062e-12,3.39534e-01,3.18730e-12,3.39534e-01,4.24300e-12,3.39534e-01
7.79222e+02,1.23200e+03,1.63200e+03,-4.00000e+02,5.60864e-12,3.47079e-01,6.52578e-12,3.47079e-01,4.70434e-12,3.47079e-01
7.79473e+02,1.30600e+03,1.58100e+03,-2.75000e+02,4.35984e-12,3.54624e-01,6.16354e-12,3.54624e-01,4.19095e-12,3.54624e-01
7.79723e+02,1.58000e+03,1.33300e+03,2.47000e+02,1.14543e-12,3.62169e-01,4.66227e-12,3.62169e-01,3.65114e-12,3.62169e-01
7.79973e+02,1.64700e+03,1.22900e+03,4.18000e+02,7.08672e-13,3.69715e-01,5.47461e-12,3.69715e-01,6.15982e-12,3.69715e-01
7.80224e+02,1.54200e+03,1.40800e+03,1.34000e+02,1.19997e-12,3.77260e-01,4.95429e-12,3.77260e-01,5.47053e-12,3.77260e-01
7.80474e+02,1.38800e+03,1.75000e+03,-3.62000e+02,1.38661e-12,3.84805e-01,3.60605e-12,3.84805e-01,4.92689e-12,3.84805e-01
7.80724e+02,1.35800e+03,1.80300e+03,-4.45000e+02,2.43623e-12,3.92350e-01,3.93478e-12,3.92350e-01,5.47942e-12,3.92350e-01
7.80974e+02,1.62000e+03,1.76000e+03,-1.40000e+02,1.83907e-12,3.99895e-01,3.25244e-12,3.99895e-01,3.08247e-12,3.99895e-01
7.81225e+02,1.98700e+03,1.51900e+03,4.68000e+02,1.61136e-12,4.07441e-01,3.94865e-12,4.07441e-01,2.49618e-12,4.07441e-01
7.81475e+02,2.04100e+03,1.61000e+03,4.31000e+02,3.17179e-12,4.14986e-01,4.67862e-12,4.14986e-01,2.18035e-12,4.14986e-01
7.81725e+02,1.76400e+03,1.87600e+03,-1.12000e+02,3.65305e-12,4.22531e-01,5.99906e-12,4.22531e-01,3.67199e-12,4.22531e-01
7.81975e+02,1.68900e+03,1.97700e+03,-2.88000e+02,3.14478e-12,4.30076e-01,6.29114e-12,4.30076e-01,4.68460e-12,4.30076e-01
7.82226e+02,1.80000e+03,1.91100e+03,-1.11000e+02,3.72454e-12,4.37621e-01,4.08004e-12,4.37621e-01,4.46490e-12,4.37621e-01
7.82476e+02,1.98100e+03,1.66600e+03,3.15000e+02,7.14335e-12,4.45167e-01,3.86345e-12,4.45167e-01,1.06350e-11,4.45167e-01
7.82726e+02,2.12600e+03,1.82700e+03,2.99000e+02,1.98767e-11,4.52712e-01,1.99840e-11,4.52712e-01,3.98207e-11,4.52712e-01
7.82976e+02,1.82900e+03,2.20700e+03,-3.78000e+02,3.13397e-11,4.60257e-01,3.04682e-11,4.60257e-01,6.18080e-11,4.60257e-01
7.83226e+02,1.73200e+03,2.51800e+03,-7.86000e+02,3.64822e-11,4.67802e-01,3.22135e-11,4.67802e-01,6.86580e-11,4.67802e-01
7.83477e+02,2.22900e+03,2.28700e+03,-5.80000e+01,3.79526e-11,4.75347e-01,3.40175e-11,4.75347e-01,7.17447e-11,4.75347e-01
7.83727e+02,2.74800e+03,1.85900e+03,8.89000e+02,3.27618e-11,4.82893e-01,3.00465e-11,4.82893e-01,6.26634e-11,4.82893e-01
7.83977e+02,2.88200e+03,1.96500e+03,9.17000e+02,2.37490e-11,4.90438e-01,2.31916e-11,4.90438e-01,4.69308e-11,4.90438e-01
7.84227e+02,2.52600e+03,2.44000e+03,8.60000e+01,1.91268e-11,4.97983e-01,1.87244e-11,4.97983e-01,3.78335e-11,4.97983e-01
7.84477e+02,2.24100e+03,2.85200e+03,-6.11000e+02,1.44754e-11,5.05528e-01,1.42871e-11,5.05528e-01,2.87523e-11,5.05528e-01
7.84727e+02,2.19200e+03,2.62200e+03,-4.30000e+02,7.37541e-12,5.13073e-01,9.75845e-12,5.13073e-01,1.71328e-11,5.13073e-01
7.84978e+02,2.70800e+03,2.27800e+03,4.30000e+02,3.43988e-12,5.20619e-01,5.96743e-12,5.20619e-01,9.26936e-12,5.20619e-01
7.85228e+02,2.88000e+03,2.04200e+03,8.38000e+02,2.70418e-12,5.28164e-01,2.81262e-12,5.28164e-01,4.52063e-12,5.28164e-01
7.85478e+02,2.56800e+03,2.40100e+03,1.67000e+02,2.69700e-12,5.35709e-01,1.82108e-12,5.35709e-01,3.06921e-12,5.35709e-01
7.85728e+02,2.17000e+03,3.22000e+03,-1.05000e+03,2.07590e-12,5.43254e-01,1.89583e-12,5.43254e-01,1.56916e-12,5.43254e-01
7.85978e+02,2.39300e+03,3.74700e+03,-1.35400e+03,5.44947e-13,5.50799e-01,1.93950e-12,5.50799e-01,1.39545e-12,5.50799e-01
7.86228e+02,2.97200e+03,3.05000e+03,-7.80000e+01,4.82259e-13,5.58345e-01,8.61725e-13,5.58345e-01,1.34200e-12,5.58345e-01
7.86478e+02,3.77400e+03,2.48500e+03,1.28900e+03,6.54373e-13,5.65890e-01,1.35871e-12,5.65890e-01,8.42378e-13,5.65890e-01
7.86728e+02,3.67300e+03,2.69500e+03,9.78000e+02,5.00656e-13,5.73435e-01,2.40478e-12,5.73435e-01,2.33605e-12,5.73435e-01
7.86978e+02,2.85900e+03,3.32000e+03,-4.61000e+02,1.35822e-12,5.80980e-01,1.97973e-12,5.80980e-01,1.29505e-12,5.80980e-01
7.87228e+02,2.38200e+03,3.60400e+03,-1.22200e+03,2.48612e-12,5.88525e-01,1.74702e-12,5.88525e-01,1.82226e-12,5.88525e-01
7.87478e+02,2.93200e+03,3.22900e+03,-2.97000e+02,2.66284e-12,5.96071e-01,2.24346e-12,5.96071e-01,3.15717e-12,5.96071e-01
7.87728e+02,3.99600e+03,2.74500e+03,1.25100e+03,1.77320e-12,6.03616e-01,1.73392e-12,6.03616e-01,2.41393e-12,6.03616e-01
7.87978e+02,4.36200e+03,3.02000e+03,1.34200e+03,1.18000e-12,6.11161e-01,1.18048e-12,6.11161e-01,6.96057e-13,6.11161e-01
7.88228e+02,3.94500e+03,4.38200e+03,-4.37000e+02,1.47252e-12,6.18706e-01,1.06823e-12,6.18706e-01,1.36361e-12,6.18706e-01
7.88478e+02,3.20800e+03,5.07800e+03,-1.87000e+03,2.64753e-13,6.26251e-01,1.40734e-12,6.26251e-01,1.20289e-12,6.26251e-01
7.88728e+02,3.40000e+03,5.11600e+03,-1.71600e+03,8.47691e-13,6.33797e-01,1.09859e-12,6.33797e-01,9.75426e-13,6.33797e-01
7.88978e+02,4.51400e+03,4.12000e+03,3.94000e+02,1.43314e-12,6.41342e-01,1.38666e-12,6.41342e-01,1.48657e-12,6.41342e-01
7.89228e+02,5.17200e+03,3.44100e+03,1.73100e+03,2.55200e-12,6.48887e-01,2.48423e-12,6.48887e-01,3.75227e-12,6.48887e-01
7.89478e+02,4.61300e+03,4.07700e+03,5.36000e+02,2.77630e-12,6.56432e-01,2.60674e-12,6.56432e-01,4.65518e-12,6.56432e-01
7.89728e+02,3.92500e+03,5.35800e+03,-1.43300e+03,1.78056e-12,6.63977e-01,2.34271e-12,6.63977e-01,3.44436e-12,6.63977e-01
7.89978e+02,3.88400e+03,6.22000e+03,-2.33600e+03,1.80551e-12,6.71523e-01,2.51612e-12,6.71523e-01,2.53230e-12,6.71523e-01
7.90228e+02,4.84400e+03,5.09800e+03,-2.54000e+02,1.84672e-12,6.79068e-01,3.76382e-12,6.79068e-01,2.44406e-12,6.79068e-01
7.90478e+02,5.59000e+03,3.61700e+03,1.97300e+03,1.57764e-12,6.86613e-01,4.19604e-12,6.86613e-01,2.72054e-12,6.86613e-01
7.90728e+02,5.28600e+03,3.54900e+03,1.73700e+03,1.92346e-12,6.94158e-01,3.12234e-12,6.94158e-01,3.07204e-12,6.94158e-01
7.90978e+02,4.24200e+03,4.50900e+03,-2.67000e+02,2.21470e-12,7.01703e-01,2.07592e-12,7.01703e-01,3.35710e-12,7.01703e-01
7.91228e+02,3.63600e+03,5.33000e+03,-1.69400e+03,1.67048e-12,7.09249e-01,5.90845e-13,7.09249e-01,1.94909e-12,7.09249e-01
7.91478e+02,4.28400e+03,5.42200e+03,-1.13800e+03,4.68594e-13,7.16794e-01,5.03123e-13,7.16794e-01,3.84814e-13,7.16794e-01
7.91728e+02,5.67100e+03,4.32300e+03,1.34800e+03,1.18201e-12,7.24339e-01,7.40866e-13,7.24339e-01,4.41243e-13,7.24339e-01
7.91977e+02,6.23700e+03,3.74400e+03,2.49300e+03,1.90149e-12,7.31884e-01,4.33670e-13,7.31884e-01,1.65982e-12,7.31884e-01
7.92227e+02,5.46400e+03,4.73600e+03,7.28000e+02,1.50659e-12,7.39429e-01,6.09923e-13,7.39429e-01,2.11106e-12,7.39429e-01
7.92477e+02,4.29000e+03,6.45200e+03,-2.16200e+03,7.16711e-13,7.46975e-01,8.42649e-13,7.46975e-01,1.33303e-12,7.46975e-01
7.92727e+02,3.97900e+03,6.94300e+03,-2.96400e+03,7.11152e-13,7.54520e-01,4.28484e-13,7.54520e-01,8.13351e-13,7.54520e-01
7.92977e+02,4.90900e+03,5.63000e+03,-7.21000e+02,8.35851e-13,7.62065e-01,6.11316e-13,7.62065e-01,1.44616e-12,7.62065e-01
7.93227e+02,6.52600e+03,4.24300e+03,2.28300e+03,1.71430e-12,7.69610e-01,1.07582e-12,7.69610e-01,2.75323e-12,7.69610e-01
7.93476e+02,6.75100e+03,4.51900e+03,2.23200e+03,1.90168e-12,7.77155e-01,7.11314e-13,7.77155e-01,2.56577e-12,7.77155e-01
7.93726e+02,5.53400e+03,6.52300e+03,-9.89000e+02,1.30935e-12,7.84701e-01,1.71257e-12,7.84701e-01,2.16898e-12,7.84701e-01
7.93976e+02,5.06000e+03,7.84000e+03,-2.78000e+03,1.17307e-12,7.92246e-01,2.40064e-12,7.92246e-01,1.23894e-12,7.92246e-01
7.94226e+02,6.54700e+03,7.59300e+03,-1.04600e+03,2.03244e-12,7.99791e-01,1.66141e-12,7.99791e-01,5.74358e-13,7.99791e-01
7.94476e+02,8.28900e+03,5.61800e+03,2.67100e+03,1.82788e-12,8.07336e-01,7.55814e-13,8.07336e-01,1.25373e-12,8.07336e-01
7.94725e+02,8.28600e+03,5.22200e+03,3.06400e+03,1.18240e-12,8.14881e-01,5.54259e-13,8.14881e-01,1.28778e-12,8.14881e-01
7.94975e+02,6.48900e+03,7.51400e+03,-1.02500e+03,1.03568e-12,8.22427e-01,1.16618e-12,8.22427e-01,1.70996e-12,8.22427e-01
7.95225e+02,5.07000e+03,9.22700e+03,-4.15700e+03,7.59577e-13,8.29972e-01,2.53488e-12,8.29972e-01,2.30196e-12,8.29972e-01
7.95475e+02,5.67600e+03,8.62700e+03,-2.95100e+03,7.68077e-13,8.37517e-01,3.39777e-12,8.37517e-01,2.65240e-12,8.37517e-01
7.95724e+02,7.62800e+03,6.63800e+03,9.90000e+02,1.30627e-12,8.45062e-01,2.97848e-12,8.45062e-01,2.39990e-12,8.45062e-01
7.95974e+02,9.13700e+03,5.77500e+03,3.36200e+03,9.56393e-13,8.52607e-01,2.30994e-12,8.52607e-01,1.64951e-12,8.52607e-01
7.96224e+02,7.74600e+03,6.35300e+03,1.39300e+03,1.54951e-12,8.60153e-01,2.58733e-12,8.60153e-01,1.26062e-12,8.60153e-01
7.96474e+02,5.92900e+03,7.72300e+03,-1.79400e+03,1.47976e-12,8.67698e-01,2.69230e-12,8.67698e-01,1.46304e-12,8.67698e-01
7.96723e+02,5.60400e+03,8.30000e+03,-2.69600e+03,1.04991e-12,8.75243e-01,2.17749e-12,8.75243e-01,1.51500e-12,8.75243e-01
7.96973e+02,6.99100e+03,6.98700e+03,4.00000e+00,7.47688e-13,8.82788e-01,1.37294e-12,8.82788e-01,6.42272e-13,8.82788e-01
7.97223e+02,8.56300e+03,5.47700e+03,3.08600e+03,7.28124e-13,8.90333e-01,1.28186e-12,8.90333e-01,1.76858e-12,8.90333e-01
7.97472e+02,8.50000e+03,6.17800e+03,2.32200e+03,8.50738e-13,8.97879e-01,1.72036e-12,8.97879e-01,2.49498e-12,8.97879e-01
7.97722e+02,7.31600e+03,8.32100e+03,-1.00500e+03,4.25043e-13,9.05424e-01,2.41247e-12,9.05424e-01,2.54168e-12,9.05424e-01
7.97972e+02,6.48100e+03,9.75300e+03,-3.27200e+03,1.15506e-12,9.12969e-01,3.02615e-12,9.12969e-01,1.90250e-12,9.12969e-01
7.98221e+02,8.21800e+03,9.02300e+03,-8.05000e+02,2.90005e-12,9.20514e-01,3.37652e-12,9.20514e-01,1.13128e-12,9.20514e-01
7.98471e+02,1.15180e+04,7.50400e+03,4.01400e+03,3.82998e-12,9.28059e-01,3.72918e-12,9.28059e-01,1.50527e-12,9.28059e-01
7.98721e+02,1.06580e+04,6.67500e+03,3.98300e+03,3.31995e-12,9.35605e-01,3.61815e-12,9.35605e-01,1.06869e-12,9.35605e-01
7.98970e+02,8.55000e+03,8.93000e+03,-3.80000e+02,2.38226e-12,9.43150e-01,2.86401e-12,9.43150e-01,7.50483e-13,9.43150e-01
7.99220e+02,7.20800e+03,1.10480e+04,-3.84000e+03,1.45427e-12,9.50695e-01,1.93240e-12,9.50695e-01,1.04655e-12,9.50695e-01
7.99469e+02,7.36000e+03,1.01860e+04,-2.82600e+03,9.30189e-13,9.58240e-01,1.81820e-12,9.58240e-01,1.19275e-12,9.58240e-01
7.99719e+02,9.92700e+03,8.05500e+03,1.87200e+03,1.02630e-12,9.65785e-01,1.30655e-12,9.65785e-01,7.30690e-13,9.65785e-01
7.99969e+02,1.12500e+04,6.56800e+03,4.68200e+03,1.36752e-12,9.73331e-01,1.01621e-12,9.73331e-01,1.85340e-12,9.73331e-01
8.00218e+02,8.46900e+03,7.01000e+03,1.45900e+03,1.41266e-12,9.80876e-01,2.10773e-12,9.80876e-01,3.33197e-12,9.80876e-01
8.00468e+02,6.54700e+03,9.29800e+03,-2.75100e+03,6.26907e-13,9.88421e-01,2.93785e-12,9.88421e-01,3.47991e-12,9.88421e-01
8.00717e+02,6.54500e+03,9.31000e+03,-2.76500e+03,4.13221e-13,9.95966e-01,3.07699e-12,9.95966e-01,2.70684e-12,9.95966e-01
8.00967e+02,8.62900e+03,8.04900e+03,5.80000e+02,1.21490e-12,1.00351e+00,2.45897e-12,1.00351e+00,1.24410e-12,1.00351e+00
8.01216e+02,1.13850e+04,6.49300e+03,4.89200e+03,9.32661e-13,1.01106e+00,1.48231e-12,1.01106e+00,5.99942e-13,1.01106e+00
8.01466e+02,1.09180e+04,7.47300e+03,3.44500e+03,9.62936e-13,1.01860e+00,9.06312e-13,1.01860e+00,6.36897e-13,1.01860e+00
8.01715e+02,8.96100e+03,1.07250e+04,-1.76400e+03,1.90246e-12,1.02615e+00,5.34151e-13,1.02615e+00,1.37137e-12,1.02615e+00
8.01965e+02,7.52300e+03,1.18950e+04,-4.37200e+03,2.33536e-12,1.03369e+00,4.95117e-13,1.03369e+00,2.23336e-12,1.03369e+00
8.02215e+02,9.96300e+03,1.14260e+04,-1.46300e+03,1.74258e-12,1.04124e+00,1.28186e-12,1.04124e+00,1.98109e-12,1.04124e+00
8.02464e+02,1.37820e+04,8.81100e+03,4.97100e+03,5.92124e-13,1.04878e+00,1.49499e-12,1.04878e+00,1.36580e-12,1.04878e+00
8.02713e+02,1.34630e+04,8.17000e+03,5.29300e+03,1.12024e-13,1.05633e+00,1.18925e-12,1.05633e+00,1.07724e-12,1.05633e+00
8.02963e+02,9.91700e+03,1.05340e+04,-6.17000e+02,2.63683e-13,1.06387e+00,5.77027e-13,1.06387e+00,5.07162e-13,1.06387e+00
8.03212e+02,9.03300e+03,1.36730e+04,-4.64000e+03,4.86105e-13,1.07142e+00,1.36293e-13,1.07142e+00,3.55853e-13,1.07142e+00
8.03462e+02,1.17560e+04,1.36930e+04,-1.93700e+03,8.38263e-13,1.07896e+00,7.65637e-13,1.07896e+00,6.96744e-13,1.07896e+00
8.03711e+02,1.49810e+04,1.06540e+04,4.32700e+03,5.91928e-13,1.08651e+00,1.62655e-12,1.08651e+00,1.81096e-12,1.08651e+00
8.03961e+02,1.54660e+04,9.46600e+03,6.00000e+03,2.39208e-13,1.09405e+00,2.08334e-12,1.09405e+00,2.18067e-12,1.09405e+00
8.04210e+02,1.40810e+04,1.24150e+04,1.66600e+03,5.42606e-13,1.10160e+00,1.53098e-12,1.10160e+00,1.02883e-12,1.10160e+00
8.04460e+02,9.94900e+03,1.40350e+04,-4.08600e+03,1.29195e-12,1.10914e+00,1.31096e-12,1.10914e+00,1.11531e-13,1.10914e+00
8.04709e+02,8.19600e+03,1.43960e+04,-6.20000e+03,1.28003e-12,1.11669e+00,9.51498e-13,1.11669e+00,5.10294e-13,1.11669e+00
8.04958e+02,1.11030e+04,1.23940e+04,-1.29100e+03,8.07776e-13,1.12423e+00,5.48263e-13,1.12423e+00,6.59179e-13,1.12423e+00
8.05208e+02,1.35220e+04,9.51400e+03,4.00800e+03,3.43576e-13,1.13178e+00,3.25362e-13,1.13178e+00,4.63012e-13,1.13178e+00
8.05457e+02,1.43170e+04,1.09840e+04,3.33300e+03,3.99789e-13,1.13932e+00,5.85377e-13,1.13932e+00,9.19670e-13,1.13932e+00
8.05707e+02,1.14680e+04,1.48080e+04,-3.34000e+03,4.07120e-13,1.14687e+00,6.15922e-13,1.14687e+00,1.00001e-12,1.14687e+00
8.05956e+02,8.86700e+03,1.53130e+04,-6.44600e+03,4.79121e-13,1.15442e+00,3.70054e-13,1.15442e+00,7.65588e-13,1.15442e+00
8.06205e+02,1.02140e+04,1.48490e+04,-4.63500e+03,7.09863e-13,1.16196e+00,5.35543e-13,1.16196e+00,2.45593e-13,1.16196e+00
8.06455e+02,1.37440e+04,1.07500e+04,2.99400e+03,9.45615e-13,1.16951e+00,1.02796e-12,1.16951e+00,1.25554e-13,1.16951e+00
8.06704e+02,1.47010e+04,8.28600e+03,6.41500e+03,8.38983e-13,1.17705e+00,1.18451e-12,1.17705e+00,4.60184e-13,1.17705e+00
8.06953e+02,1.33840e+04,1.09560e+04,2.42800e+03,2.52742e-13,1.18460e+00,2.54358e-13,1.18460e+00,4.39011e-13,1.18460e+00
8.07203e+02,1.06250e+04,1.48580e+04,-4.23300e+03,3.96403e-13,1.19214e+00,6.62071e-13,1.19214e+00,5.51837e-13,1.19214e+00
8.07452e+02,9.85700e+03,1.51000e+04,-5.24300e+03,3.28380e-13,1.19969e+00,5.50443e-13,1.19969e+00,7.30439e-13,1.19969e+00
8.07701e+02,1.21780e+04,1.24630e+04,-2.85000e+02,3.23461e-13,1.20723e+00,1.15606e-12,1.20723e+00,1.47340e-12,1.20723e+00
8.07951e+02,1.48800e+04,9.68200e+03,5.19800e+03,6.70270e-13,1.21478e+00,9.86232e-13,1.21478e+00,1.65463e-12,1.21478e+00
8.08200e+02,1.55160e+04,1.06950e+04,4.82100e+03,7.84783e-13,1.22232e+00,5.84898e-13,1.22232e+00,1.31278e-12,1.22232e+00
8.08449e+02,1.28240e+04,1.31680e+04,-3.44000e+02,6.54337e-13,1.22987e+00,6.21039e-13,1.22987e+00,8.67919e-13,1.22987e+00
8.08698e+02,9.57000e+03,1.39900e+04,-4.42000e+03,5.63228e-13,1.23741e+00,6.03622e-13,1.23741e+00,6.38606e-13,1.23741e+00
8.08948e+02,1.01050e+04,1.38190e+04,-3.71400e+03,5.38907e-13,1.24496e+00,7.87436e-13,1.24496e+00,9.09744e-13,1.24496e+00
8.09197e+02,1.23940e+04,1.07050e+04,1.68900e+03,7.31625e-13,1.25250e+00,9.16046e-13,1.25250e+00,9.95838e-13,1.25250e+00
8.09446e+02,1.34070e+04,8.89400e+03,4.51300e+03,7.18001e-13,1.26005e+00,5.01194e-13,1.26005e+00,5.91414e-13,1.26005e+00
8.09695e+02,1.17830e+04,9.15000e+03,2.63300e+03,3.29397e-13,1.26759e+00,3.50310e-13,1.26759e+00,3.95592e-13,1.26759e+00
8.09945e+02,9.34100e+03,1.18070e+04,-2.46600e+03,2.45375e-13,1.27514e+00,7.71545e-13,1.27514e+00,6.49673e-13,1.27514e+00
8.10194e+02,8.92800e+03,1.39270e+04,-4.99900e+03,1.48261e-13,1.28268e+00,7.65909e-13,1.28268e+00,6.91940e-13,1.28268e+00
8.10443e+02,1.14720e+04,1.29980e+04,-1.52600e+03,1.99905e-13,1.29023e+00,7.87610e-13,1.29023e+00,6.99021e-13,1.29023e+00
8.10692e+02,1.52340e+04,1.04420e+04,4.79200e+03,8.75096e-14,1.29777e+00,9.65374e-13,1.29777e+00,8.88899e-13,1.29777e+00
8.10941e+02,1.57830e+04,9.87800e+03,5.90500e+03,1.49725e-13,1.30532e+00,7.83654e-13,1.30532e+00,7.02417e-13,1.30532e+00
8.11191e+02,1.52800e+04,1.33860e+04,1.89400e+03,3.38588e-13,1.31286e+00,3.50172e-13,1.31286e+00,3.99717e-13,1.31286e+00
8.11440e+02,1.28260e+04,1.52760e+04,-2.45000e+03,5.89362e-13,-1.32041e+00,3.10443e-13,-1.32041e+00,2.78919e-13,-1.32041e+00
8.11689e+02,1.21620e+04,1.55890e+04,-3.42700e+03,3.38588e-13,-1.31286e+00,3.50172e-13,-1.31286e+00,3.99717e-13,-1.31286e+00
8.11938e+02,1.50690e+04,1.46030e+04,4.66000e+02,1.49725e-13,-1.30532e+00,7.83654e-13,-1.30532e+00,7.02417e-13,-1.30532e+00
8.12187e+02,1.57290e+04,1.15280e+04,4.20100e+03,8.75096e-14,-1.29777e+00,9.65374e-13,-1.29777e+00,8.88899e-13,-1.29777e+00
8.12436e+02,1.52990e+04,1.11640e+04,4.13500e+03,1.99905e-13,-1.29023e+00,7.87610e-13,-1.29023e+00,6.99021e-13,-1.29023e+00
8.12685e+02,1.27850e+04,1.40290e+04,-1.24400e+03,1.48261e-13,-1.28268e+00,7.65909e-13,-1.28268e+00,6.91940e-13,-1.28268e+00
8.12935e+02,9.56900e+03,1.55250e+04,-5.95600e+03,2.45375e-13,-1.27514e+00,7.71545e-13,-1.27514e+00,6.49673e-13,-1.27514e+00
8.13184e+02,1.11600e+04,1.52860e+04,-4.12600e+03,3.29397e-13,-1.26759e+00,3.50310e-13,-1.26759e+00,3.95592e-13,-1.26759e+00
8.13433e+02,1.48000e+04,1.32850e+04,1.51500e+03,7.18001e-13,-1.26005e+00,5.01194e-13,-1.26005e+00,5.91414e-13,-1.26005e+00
8.13682e+02,1.54970e+04,9.63800e+03,5.85900e+03,7.31625e-13,-1.25250e+00,9.16046e-13,-1.25250e+00,9.95838e-13,-1.25250e+00
8.13931e+02,1.41070e+04,1.03200e+04,3.78700e+03,5.38907e-13,-1.24496e+00,7.87436e-13,-1.24496e+00,9.09744e-13,-1.24496e+00
8.14180e+02,1.09440e+04,1.52250e+04,-4.28100e+03,5.63228e-13,-1.23741e+00,6.03622e-13,-1.23741e+00,6.38606e-13,-1.23741e+00
8.14429e+02,9.96100e+03,1.58160e+04,-5.85500e+03,6.54337e-13,-1.22987e+00,6.21039e-13,-1.22987e+00,8.67919e-13,-1.22987e+00
8.14678e+02,1.27790e+04,1.57860e+04,-3.00700e+03,7.84783e-13,-1.22232e+00,5.84898e-13,-1.22232e+00,1.31278e-12,-1.22232e+00
8.14927e+02,1.51780e+04,1.52730e+04,-9.50000e+01,6.70270e-13,-1.21478e+00,9.86232e-13,-1.21478e+00,1.65463e-12,-1.21478e+00
8.15176e+02,1.50880e+04,1.04040e+04,4.68400e+03,3.23461e-13,-1.20723e+00,1.15606e-12,-1.20723e+00,1.47340e-12,-1.20723e+00
8.15425e+02,1.30970e+04,1.13870e+04,1.71000e+03,3.28380e-13,-1.19969e+00,5.50443e-13,-1.19969e+00,7.30439e-13,-1.19969e+00
8.15674e+02,1.04140e+04,1.37530e+04,-3.33900e+03,3.96403e-13,-1.19214e+00,6.62071e-13,-1.19214e+00,5.51837e-13,-1.19214e+00
8.15923e+02,1.00370e+04,1.42670e+04,-4.23000e+03,2.52742e-13,-1.18460e+00,2.54358e-13,-1.18460e+00,4.39011e-13,-1.18460e+00
8.16172e+02,1.30090e+04,1.35540e+04,-5.45000e+02,8.38983e-13,-1.17705e+00,1.18451e-12,-1.17705e+00,4.60184e-13,-1.17705e+00
8.16421e+02,1.52820e+04,1.13940e+04,3.88800e+03,9.45615e-13,-1.16951e+00,1.02796e-12,-1.16951e+00,1.25554e-13,-1.16951e+00
8.16670e+02,1.53680e+04,1.17520e+04,3.61600e+03,7.09863e-13,-1.16196e+00,5.35543e-13,-1.16196e+00,2.45593e-13,-1.16196e+00
8.16919e+02,1.31490e+04,1.45610e+04,-1.41200e+03,4.79121e-13,-1.15442e+00,3.70054e-13,-1.15442e+00,7.65588e-13,-1.15442e+00
8.17168e+02,9.89000e+03,1.51680e+04,-5.27800e+03,4.07120e-13,-1.14687e+00,6.15922e-13,-1.14687e+00,1.00001e-12,-1.14687e+00
8.17417e+02,1.02680e+04,1.41990e+04,-3.93100e+03,3.99789e-13,-1.13932e+00,5.85377e-13,-1.13932e+00,9.19670e-13,-1.13932e+00
8.17666e+02,1.29190e+04,1.18940e+04,1.02500e+03,3.43576e-13,-1.13178e+00,3.25362e-13,-1.13178e+00,4.63012e-13,-1.13178e+00
8.17915e+02,1.48940e+04,1.17090e+04,3.18500e+03,8.07776e-13,-1.12423e+00,5.48263e-13,-1.12423e+00,6.59179e-13,-1.12423e+00
8.18164e+02,1.37480e+04,1.36870e+04,6.10000e+01,1.28003e-12,-1.11669e+00,9.51498e-13,-1.11669e+00,5.10294e-13,-1.11669e+00
8.18413e+02,1.11800e+04,1.53650e+04,-4.18500e+03,1.29195e-12,-1.10914e+00,1.31096e-12,-1.10914e+00,1.11531e-13,-1.10914e+00
8.18662e+02,1.05090e+04,1.56020e+04,-5.09300e+03,5.42606e-13,-1.10160e+00,1.53098e-12,-1.10160e+00,1.02883e-12,-1.10160e+00
8.18911e+02,1.28420e+04,1.43180e+04,-1.47600e+03,2.39208e-13,-1.09405e+00,2.08334e-12,-1.09405e+00,2.18067e-12,-1.09405e+00
8.19160e+02,1.48480e+04,1.12710e+04,3.57700e+03,5.91928e-13,-1.08651e+00,1.62655e-12,-1.08651e+00,1.81096e-12,-1.08651e+00
8.19408e+02,1.55090e+04,1.01960e+04,5.31300e+03,8.38263e-13,-1.07896e+00,7.65637e-13,-1.07896e+00,6.96744e-13,-1.07896e+00
8.19657e+02,1.34150e+04,1.24160e+04,9.99000e+02,4.86105e-13,-1.07142e+00,1.36293e-13,-1.07142e+00,3.55853e-13,-1.07142e+00
8.19906e+02,9.33800e+03,1.39940e+04,-4.65600e+03,2.63683e-13,-1.06387e+00,5.77027e-13,-1.06387e+00,5.07162e-13,-1.06387e+00
8.20155e+02,9.06000e+03,1.36770e+04,-4.61700e+03,1.12024e-13,-1.05633e+00,1.18925e-12,-1.05633e+00,1.07724e-12,-1.05633e+00
8.20404e+02,1.14130e+04,1.09870e+04,4.26000e+02,5.92124e-13,-1.04878e+00,1.49499e-12,-1.04878e+00,1.36580e-12,-1.04878e+00
8.20653e+02,1.30640e+04,8.22800e+03,4.83600e+03,1.74258e-12,-1.04124e+00,1.28186e-12,-1.04124e+00,1.98109e-12,-1.04124e+00
8.20901e+02,1.26890e+04,8.17700e+03,4.51200e+03,2.33536e-12,-1.03369e+00,4.95117e-13,-1.03369e+00,2.23336e-12,-1.03369e+00
8.21150e+02,1.03590e+04,9.37800e+03,9.81000e+02,1.90246e-12,-1.02615e+00,5.34151e-13,-1.02615e+00,1.37137e-12,-1.02615e+00
8.21399e+02,8.32800e+03,1.15290e+04,-3.20100e+03,9.62936e-13,-1.01860e+00,9.06312e-13,-1.01860e+00,6.36897e-13,-1.01860e+00
8.21648e+02,8.20800e+03,1.11740e+04,-2.96600e+03,9.32661e-13,-1.01106e+00,1.48231e-12,-1.01106e+00,5.99942e-13,-1.01106e+00
8.21897e+02,1.04050e+04,8.92700e+03,1.47800e+03,1.21490e-12,-1.00351e+00,2.45897e-12,-1.00351e+00,1.24410e-12,-1.00351e+00
8.22145e+02,1.14810e+04,7.43300e+03,4.04800e+03,4.13221e-13,-9.95966e-01,3.07699e-12,-9.95966e-01,2.70684e-12,-9.95966e-01
8.22394e+02,1.04010e+04,8.94500e+03,1.45600e+03,6.26907e-13,-9.88421e-01,2.93785e-12,-9.88421e-01,3.47991e-12,-9.88421e-01
8.22643e+02,7.83300e+03,1.10380e+04,-3.20500e+03,1.41266e-12,-9.80876e-01,2.10773e-12,-9.80876e-01,3.33197e-12,-9.80876e-01
8.22892e+02,6.32300e+03,1.10370e+04,-4.71400e+03,1.36752e-12,-9.73331e-01,1.01621e-12,-9.73331e-01,1.85340e-12,-9.73331e-01
8.23140e+02,7.63700e+03,9.15700e+03,-1.52000e+03,1.02630e-12,-9.65785e-01,1.30655e-12,-9.65785e-01,7.30690e-13,-9.65785e-01
8.23389e+02,9.23400e+03,7.18500e+03,2.04900e+03,9.30189e-13,-9.58240e-01,1.81820e-12,-9.58240e-01,1.19275e-12,-9.58240e-01
8.23638e+02,9.24200e+03,6.86500e+03,2.37700e+03,1.45427e-12,-9.50695e-01,1.93240e-12,-9.50695e-01,1.04655e-12,-9.50695e-01
8.23887e+02,8.05900e+03,7.82600e+03,2.33000e+02,2.38226e-12,-9.43150e-01,2.86401e-12,-9.43150e-01,7.50483e-13,-9.43150e-01
8.24135e+02,6.44000e+03,9.66200e+03,-3.22200e+03,3.31995e-12,-9.35605e-01,3.61815e-12,-9.35605e-01,1.06869e-12,-9.35605e-01
8.24384e+02,5.51900e+03,1.03180e+04,-4.79900e+03,3.82998e-12,-9.28059e-01,3.72918e-12,-9.28059e-01,1.50527e-12,-9.28059e-01
8.24633e+02,6.83700e+03,8.85900e+03,-2.02200e+03,2.90005e-12,-9.20514e-01,3.37652e-12,-9.20514e-01,1.13128e-12,-9.20514e-01
8.24881e+02,7.80300e+03,6.77100e+03,1.03200e+03,1.15506e-12,-9.12969e-01,3.02615e-12,-9.12969e-01,1.90250e-12,-9.12969e-01
8.25130e+02,6.90300e+03,5.93800e+03,9.65000e+02,4.25043e-13,-9.05424e-01,2.41247e-12,-9.05424e-01,2.54168e-12,-9.05424e-01
8.25379e+02,5.86000e+03,6.32800e+03,-4.68000e+02,8.50738e-13,-8.97879e-01,1.72036e-12,-8.97879e-01,2.49498e-12,-8.97879e-01
8.25627e+02,4.45400e+03,7.02200e+03,-2.56800e+03,7.28124e-13,-8.90333e-01,1.28186e-12,-8.90333e-01,1.76858e-12,-8.90333e-01
8.25876e+02,4.60300e+03,6.55900e+03,-1.95600e+03,7.47688e-13,-8.82788e-01,1.37294e-12,-8.82788e-01,6.42272e-13,-8.82788e-01
8.26125e+02,5.55200e+03,5.39300e+03,1.59000e+02,1.04991e-12,-8.75243e-01,2.17749e-12,-8.75243e-01,1.51500e-12,-8.75243e-01
8.26373e+02,6.24500e+03,4.39500e+03,1.85000e+03,1.47976e-12,-8.67698e-01,2.69230e-12,-8.67698e-01,1.46304e-12,-8.67698e-01
8.26622e+02,6.02600e+03,4.53100e+03,1.49500e+03,1.54951e-12,-8.60153e-01,2.58733e-12,-8.60153e-01,1.26062e-12,-8.60153e-01
8.26870e+02,4.69400e+03,6.10100e+03,-1.40700e+03,9.56393e-13,-8.52607e-01,2.30994e-12,-8.52607e-01,1.64951e-12,-8.52607e-01
8.27119e+02,3.87200e+03,6.58800e+03,-2.71600e+03,1.30627e-12,-8.45062e-01,2.97848e-12,-8.45062e-01,2.39990e-12,-8.45062e-01
8.27368e+02,4.46200e+03,6.84100e+03,-2.37900e+03,7.68077e-13,-8.37517e-01,3.39777e-12,-8.37517e-01,2.65240e-12,-8.37517e-01
8.27616e+02,5.57700e+03,5.20200e+03,3.75000e+02,7.59577e-13,-8.29972e-01,2.53488e-12,-8.29972e-01,2.30196e-12,-8.29972e-01
8.27865e+02,6.35600e+03,3.94700e+03,2.40900e+03,1.03568e-12,-8.22427e-01,1.16618e-12,-8.22427e-01,1.70996e-12,-8.22427e-01
8.28113e+02,5.41900e+03,4.12400e+03,1.29500e+03,1.18240e-12,-8.14881e-01,5.54259e-13,-8.14881e-01,1.28778e-12,-8.14881e-01
8.28362e+02,4.05600e+03,4.90900e+03,-8.53000e+02,1.82788e-12,-8.07336e-01,7.55814e-13,-8.07336e-01,1.25373e-12,-8.07336e-01
8.28610e+02,3.44000e+03,5.06600e+03,-1.62600e+03,2.03244e-12,-7.99791e-01,1.66141e-12,-7.99791e-01,5.74358e-13,-7.99791e-01
8.28859e+02,3.24600e+03,3.85000e+03,-6.04000e+02,1.17307e-12,-7.92246e-01,2.40064e-12,-7.92246e-01,1.23894e-12,-7.92246e-01
8.29108e+02,3.43600e+03,3.02100e+03,4.15000e+02,1.30935e-12,-7.84701e-01,1.71257e-12,-7.84701e-01,2.16898e-12,-7.84701e-01
8.29356e+02,3.33500e+03,2.84300e+03,4.92000e+02,1.90168e-12,-7.77155e-01,7.11314e-13,-7.77155e-01,2.56577e-12,-7.77155e-01
8.29605e+02,3.32000e+03,3.45000e+03,-1.30000e+02,1.71430e-12,-7.69610e-01,1.07582e-12,-7.69610e-01,2.75323e-12,-7.69610e-01
8.29853e+02,2.85600e+03,4.46800e+03,-1.61200e+03,8.35851e-13,-7.62065e-01,6.11316e-13,-7.62065e-01,1.44616e-12,-7.62065e-01
8.30101e+02,2.97100e+03,4.68200e+03,-1.71100e+03,7.11152e-13,-7.54520e-01,4.28484e-13,-7.54520e-01,8.13351e-13,-7.54520e-01
8.30350e+02,3.87900e+03,3.98600e+03,-1.07000e+02,7.16711e-13,-7.46975e-01,8.42649e-13,-7.46975e-01,1.33303e-12,-7.46975e-01
8.30598e+02,4.37800e+03,3.10300e+03,1.27500e+03,1.50659e-12,-7.39429e-01,6.09923e-13,-7.39429e-01,2.11106e-12,-7.39429e-01
8.30847e+02,4.31700e+03,2.90600e+03,1.41100e+03,1.90149e-12,-7.31884e-01,4.33670e-13,-7.31884e-01,1.65982e-12,-7.31884e-01
8.31095e+02,3.43600e+03,3.40600e+03,3.00000e+01,1.18201e-12,-7.24339e-01,7.40866e-13,-7.24339e-01,4.41243e-13,-7.24339e-01
8.31344e+02,2.71900e+03,4.04000e+03,-1.32100e+03,4.68594e-13,-7.16794e-01,5.03123e-13,-7.16794e-01,3.84814e-13,-7.16794e-01
8.31592e+02,2.51000e+03,3.71400e+03,-1.20400e+03,1.67048e-12,-7.09249e-01,5.90845e-13,-7.09249e-01,1.94909e-12,-7.09249e-01
8.31841e+02,2.75700e+03,2.79000e+03,-3.30000e+01,2.21470e-12,-7.01703e-01,2.07592e-12,-7.01703e-01,3.35710e-12,-7.01703e-01
8.32089e+02,2.88200e+03,2.16800e+03,7.14000e+02,1.92346e-12,-6.94158e-01,3.12234e-12,-6.94158e-01,3.07204e-12,-6.94158e-01
8.32337e+02,2.56800e+03,2.03700e+03,5.31000e+02,1.57764e-12,-6.86613e-01,4.19604e-12,-6.86613e-01,2.72054e-12,-6.86613e-01
8.32586e+02,2.15700e+03,2.50300e+03,-3.46000e+02,1.84672e-12,-6.79068e-01,3.76382e-12,-6.79068e-01,2.44406e-12,-6.79068e-01
8.32834e+02,1.70300e+03,2.75700e+03,-1.05400e+03,1.80551e-12,-6.71523e-01,2.51612e-12,-6.71523e-01,2.53230e-12,-6.71523e-01
8.33083e+02,1.89900e+03,2.66200e+03,-7.63000e+02,1.78056e-12,-6.63977e-01,2.34271e-12,-6.63977e-01,3.44436e-12,-6.63977e-01
8.33331e+02,2.31500e+03,1.99300e+03,3.22000e+02,2.77630e-12,-6.56432e-01,2.60674e-12,-6.56432e-01,4.65518e-12,-6.56432e-01
8.33579e+02,2.47400e+03,1.59600e+03,8.78000e+02,2.55200e-12,-6.48887e-01,2.48423e-12,-6.48887e-01,3.75227e-12,-6.48887e-01
8.33828e+02,2.25800e+03,1.75100e+03,5.07000e+02,1.43314e-12,-6.41342e-01,1.38666e-12,-6.41342e-01,1.48657e-12,-6.41342e-01
8.34076e+02,1.70500e+03,2.06400e+03,-3.59000e+02,8.47691e-13,-6.33797e-01,1.09859e-12,-6.33797e-01,9.75426e-13,-6.33797e-01
8.34324e+02,1.32200e+03,2.06500e+03,-7.43000e+02,2.64753e-13,-6.26251e-01,1.40734e-12,-6.26251e-01,1.20289e-12,-6.26251e-01
8.34573e+02,1.41800e+03,1.94100e+03,-5.23000e+02,1.47252e-12,-6.18706e-01,1.06823e-12,-6.18706e-01,1.36361e-12,-6.18706e-01
8.34821e+02,1.63700e+03,1.57600e+03,6.10000e+01,1.18000e-12,-6.11161e-01,1.18048e-12,-6.11161e-01,6.96057e-13,-6.11161e-01
8.35069e+02,1.62900e+03,1.27300e+03,3.56000e+02,1.77320e-12,-6.03616e-01,1.73392e-12,-6.03616e-01,2.41393e-12,-6.03616e-01
8.35318e+02,1.41000e+03,1.24900e+03,1.61000e+02,2.66284e-12,-5.96071e-01,2.24346e-12,-5.96071e-01,3.15717e-12,-5.96071e-01
8.35566e+02,1.17000e+03,1.35500e+03,-1.85000e+02,2.48612e-12,-5.88525e-01,1.74702e-12,-5.88525e-01,1.82226e-12,-5.88525e-01
8.35814e+02,1.04600e+03,1.39700e+03,-3.51000e+02,1.35822e-12,-5.80980e-01,1.97973e-12,-5.80980e-01,1.29505e-12,-5.80980e-01
8.36062e+02,1.10800e+03,1.32600e+03,-2.18000e+02,5.00656e-13,-5.73435e-01,2.40478e-12,-5.73435e-01,2.33605e-12,-5.73435e-01
8.36311e+02,1.27100e+03,1.17000e+03,1.01000e+02,6.54373e-13,-5.65890e-01,1.35871e-12,-5.65890e-01,8.42378e-13,-5.65890e-01
8.36559e+02,1.34500e+03,1.06200e+03,2.83000e+02,4.82259e-13,-5.58345e-01,8.61725e-13,-5.58345e-01,1.34200e-12,-5.58345e-01
8.36807e+02,1.29800e+03,1.12400e+03,1.74000e+02,5.44947e-13,-5.50799e-01,1.93950e-12,-5.50799e-01,1.39545e-12,-5.50799e-01
8.37055e+02,1.08000e+03,1.19600e+03,-1.16000e+02,2.07590e-12,-5.43254e-01,1.89583e-12,-5.43254e-01,1.56916e-12,-5.43254e-01
8.37304e+02,9.76000e+02,1.19300e+03,-2.17000e+02,2.69700e-12,-5.35709e-01,1.82108e-12,-5.35709e-01,3.06921e-12,-5.35709e-01
8.37552e+02,9.84000e+02,1.13300e+03,-1.49000e+02,2.70418e-12,-5.28164e-01,2.81262e-12,-5.28164e-01,4.52063e-12,-5.28164e-01
8.37800e+02,1.08200e+03,1.01400e+03,6.80000e+01,3.43988e-12,-5.20619e-01,5.96743e-12,-5.20619e-01,9.26936e-12,-5.20619e-01
8.38048e+02,1.06200e+03,8.99000e+02,1.63000e+02,7.37541e-12,-5.13073e-01,9.75845e-12,-5.13073e-01,1.71328e-11,-5.13073e-01
8.38296e+02,9.86000e+02,9.22000e+02,6.40000e+01,1.44754e-11,-5.05528e-01,1.42871e-11,-5.05528e-01,2.87523e-11,-5.05528e-01
8.38545e+02,8.82000e+02,9.82000e+02,-1.00000e+02,1.91268e-11,-4.97983e-01,1.87244e-11,-4.97983e-01,3.78335e-11,-4.97983e-01
8.38793e+02,8.62000e+02,9.84000e+02,-1.22000e+02,2.37490e-11,-4.90438e-01,2.31916e-11,-4.90438e-01,4.69308e-11,-4.90438e-01
8.39041e+02,8.96000e+02,9.53000e+02,-5.70000e+01,3.27618e-11,-4.82893e-01,3.00465e-11,-4.82893e-01,6.26634e-11,-4.82893e-01
8.39289e+02,9.35000e+02,8.59000e+02,7.60000e+01,3.79526e-11,-4.75347e-01,3.40175e-11,-4.75347e-01,7.17447e-11,-4.75347e-01
8.39537e+02,9.08000e+02,8.21000e+02,8.70000e+01,3.64822e-11,-4.67802e-01,3.22135e-11,-4.67802e-01,6.86580e-11,-4.67802e-01
8.39785e+02,8.55000e+02,8.55000e+02,0.00000e+00,3.13397e-11,-4.60257e-01,3.04682e-11,-4.60257e-01,6.18080e-11,-4.60257e-01
8.40033e+02,8.20000e+02,9.13000e+02,-9.30000e+01,1.98767e-11,-4.52712e-01,1.99840e-11,-4.52712e-01,3.98207e-11,-4.52712e-01
8.40281e+02,8.35000e+02,9.08000e+02,-7.30000e+01,7.14335e-12,-4.45167e-01,3.86345e-12,-4.45167e-01,1.06350e-11,-4.45167e-01
8.40530e+02,8.34000e+02,8.85000e+02,-5.10000e+01,3.72454e-12,-4.37621e-01,4.08004e-12,-4.37621e-01,4.46490e-12,-4.37621e-01
8.40778e+02,8.72000e+02,8.21000e+02,5.10000e+01,3.14478e-12,-4.30076e-01,6.29114e-12,-4.30076e-01,4.68460e-12,-4.30076e-01
8.41026e+02,8.56000e+02,7.70000e+02,8.60000e+01,3.65305e-12,-4.22531e-01,5.99906e-12,-4.22531e-01,3.67199e-12,-4.22531e-01
8.41274e+02,8.01000e+02,7.86000e+02,1.50000e+01,3.17179e-12,-4.14986e-01,4.67862e-12,-4.14986e-01,2.18035e-12,-4.14986e-01
8.41522e+02,7.73000e+02,8.07000e+02,-3.40000e+01,1.61136e-12,-4.07441e-01,3.94865e-12,-4.07441e-01,2.49618e-12,-4.07441e-01
8.41770e+02,7.55000e+02,8.05000e+02,-5.00000e+01,1.83907e-12,-3.99895e-01,3.25244e-12,-3.99895e-01,3.08247e-12,-3.99895e-01
8.42018e+02,7.60000e+02,7.80000e+02,-2.00000e+01,2.43623e-12,-3.92350e-01,3.93478e-12,-3.92350e-01,5.47942e-12,-3.92350e-01
8.42266e+02,7.68000e+02,7.44000e+02,2.40000e+01,1.38661e-12,-3.84805e-01,3.60605e-12,-3.84805e-01,4.92689e-12,-3.84805e-01
8.42514e+02,7.70000e+02,7.44000e+02,2.60000e+01,1.19997e-12,-3.77260e-01,4.95429e-12,-3.77260e-01,5.47053e-12,-3.77260e-01
8.42762e+02,7.74000e+02,7.34000e+02,4.00000e+01,7.08672e-13,-3.69715e-01,5.47461e-12,-3.69715e-01,6.15982e-12,-3.69715e-01
8.43010e+02,7.43000e+02,7.78000e+02,-3.50000e+01,1.14543e-12,-3.62169e-01,4.66227e-12,-3.62169e-01,3.65114e-12,-3.62169e-01
8.43258e+02,7.25000e+02,7.66000e+02,-4.10000e+01,4.35984e-12,-3.54624e-01,6.16354e-12,-3.54624e-01,4.19095e-12,-3.54624e-01
8.43506e+02,7.35000e+02,7.35000e+02,0.00000e+00,5.60864e-12,-3.47079e-01,6.52578e-12,-3.47079e-01,4.70434e-12,-3.47079e-01
8.43754e+02,7.25000e+02,7.29000e+02,-4.00000e+00,3.94062e-12,-3.39534e-01,3.18730e-12,-3.39534e-01,4.24300e-12,-3.39534e-01
8.44002e+02,7.30000e+02,6.99000e+02,3.10000e+01,2.29769e-12,-3.31989e-01,2.40037e-12,-3.31989e-01,3.16346e-12,-3.31989e-01
8.44250e+02,7.16000e+02,7.07000e+02,9.00000e+00,3.49853e-12,-3.24444e-01,4.61960e-12,-3.24444e-01,1.12108e-12,-3.24444e-01
8.44498e+02,7.01000e+02,7.21000e+02,-2.00000e+01,2.51846e-12,-3.16898e-01,4.10070e-12,-3.16898e-01,3.92440e-12,-3.16898e-01
8.44746e+02,7.01000e+02,7.46000e+02,-4.50000e+01,2.21704e-12,-3.09353e-01,4.25107e-12,-3.09353e-01,5.57898e-12,-3.09353e-01
8.44994e+02,7.24000e+02,7.20000e+02,4.00000e+00,2.94719e-12,-3.01808e-01,3.72730e-12,-3.01808e-01,2.85242e-12,-3.01808e-01
8.45242e+02,6.98000e+02,7.11000e+02,-1.30000e+01,3.71569e-12,-2.94263e-01,3.01499e-12,-2.94263e-01,2.32099e-12,-2.94263e-01
8.45490e+02,7.18000e+02,6.98000e+02,2.00000e+01,2.10533e-12,-2.86718e-01,3.75389e-12,-2.86718e-01,4.41619e-12,-2.86718e-01
8.45738e+02,6.96000e+02,7.04000e+02,-8.00000e+00,1.35229e-12,-2.79172e-01,2.36759e-12,-2.79172e-01,2.77724e-12,-2.79172e-01
8.45985e+02,7.02000e+02,7.09000e+02,-7.00000e+00,6.14579e-12,-2.71627e-01,2.92274e-12,-2.71627e-01,8.99281e-12,-2.71627e-01
8.46233e+02,6.93000e+02,6.84000e+02,9.00000e+00,7.25959e-12,-2.64082e-01,3.47149e-12,-2.64082e-01,1.00993e-11,-2.64082e-01
8.46481e+02,6.94000e+02,6.89000e+02,5.00000e+00,4.47306e-12,-2.56537e-01,4.63853e-12,-2.56537e-01,4.39795e-12,-2.56537e-01
8.46729e+02,6.98000e+02,6.84000e+02,1.40000e+01,4.30009e-12,-2.48992e-01,4.75884e-12,-2.48992e-01,1.62840e-12,-2.48992e-01
8.46977e+02,6.92000e+02,6.87000e+02,5.00000e+00,6.34700e-12,-2.41446e-01,5.20756e-12,-2.41446e-01,1.30472e-12,-2.41446e-01
8.47225e+02,7.06000e+02,6.74000e+02,3.20000e+01,4.64605e-12,-2.33901e-01,3.23409e-12,-2.33901e-01,1.57620e-12,-2.33901e-01
8.47473e+02,6.85000e+02,6.62000e+02,2.30000e+01,4.37115e-12,-2.26356e-01,1.70623e-12,-2.26356e-01,2.78172e-12,-2.26356e-01
8.47720e+02,6.70000e+02,6.90000e+02,-2.00000e+01,1.28644e-12,-2.18811e-01,1.03968e-12,-2.18811e-01,2.18242e-12,-2.18811e-01
8.47968e+02,6.81000e+02,6.77000e+02,4.00000e+00,3.05206e-12,-2.11266e-01,7.24741e-12,-2.11266e-01,4.32557e-12,-2.11266e-01
8.48216e+02,6.96000e+02,6.80000e+02,1.60000e+01,5.84573e-12,-2.03720e-01,9.83727e-12,-2.03720e-01,5.14112e-12,-2.03720e-01
8.48464e+02,6.89000e+02,6.95000e+02,-6.00000e+00,5.04168e-12,-1.96175e-01,5.17465e-12,-1.96175e-01,4.84015e-12,-1.96175e-01
8.48712e+02,7.02000e+02,6.92000e+02,1.00000e+01,1.52961e-12,-1.88630e-01,1.70253e-12,-1.88630e-01,2.59142e-12,-1.88630e-01
8.48960e+02,6.70000e+02,6.97000e+02,-2.70000e+01,2.49693e-12,-1.81085e-01,1.26689e-12,-1.81085e-01,1.42779e-12,-1.81085e-01
8.49207e+02,6.82000e+02,6.86000e+02,-4.00000e+00,6.40617e-12,-1.73540e-01,4.08943e-12,-1.73540e-01,2.33979e-12,-1.73540e-01
8.49455e+02,6.79000e+02,6.87000e+02,-8.00000e+00,1.11401e-11,-1.65994e-01,6.80709e-12,-1.65994e-01,4.73077e-12,-1.65994e-01
8.49703e+02,6.86000e+02,6.86000e+02,0.00000e+00,1.20261e-11,-1.58449e-01,7.51906e-12,-1.58449e-01,5.88941e-12,-1.58449e-01
8.49951e+02,6.89000e+02,6.64000e+02,2.50000e+01,9.07400e-12,-1.50904e-01,3.37279e-12,-1.50904e-01,6.04947e-12,-1.50904e-01
8.50198e+02,6.97000e+02,6.98000e+02,-1.00000e+00,8.24357e-12,-1.43359e-01,5.15202e-12,-1.43359e-01,6.71026e-12,-1.43359e-01
8.50446e+02,6.79000e+02,6.73000e+02,6.00000e+00,7.33052e-12,-1.35814e-01,8.06706e-12,-1.35814e-01,6.48975e-12,-1.35814e-01
8.50694e+02,6.69000e+02,6.88000e+02,-1.90000e+01,3.03620e-12,-1.28268e-01,5.86175e-12,-1.28268e-01,3.69275e-12,-1.28268e-01
8.50941e+02,6.90000e+02,6.85000e+02,5.00000e+00,1.32998e-13,-1.20723e-01,2.29700e-12,-1.20723e-01,2.38674e-12,-1.20723e-01
8.51189e+02,6.88000e+02,6.83000e+02,5.00000e+00,1.50372e-12,-1.13178e-01,7.75348e-12,-1.13178e-01,6.52282e-12,-1.13178e-01
8.51437e+02,6.87000e+02,6.76000e+02,1.10000e+01,2.08369e-12,-1.05633e-01,8.21072e-12,-1.05633e-01,6.12937e-12,-1.05633e-01
8.51685e+02,6.80000e+02,6.58000e+02,2.20000e+01,5.52496e-12,-9.80876e-02,8.77054e-12,-9.80876e-02,3.26389e-12,-9.80876e-02
8.51932e+02,6.84000e+02,6.69000e+02,1.50000e+01,8.33205e-12,-9.05424e-02,8.36344e-12,-9.05424e-02,1.91891e-12,-9.05424e-02
8.52180e+02,6.84000e+02,6.87000e+02,-3.00000e+00,9.75073e-12,-8.29972e-02,6.63640e-12,-8.29972e-02,3.48474e-12,-8.29972e-02
8.52428e+02,6.64000e+02,6.77000e+02,-1.30000e+01,8.24738e-12,-7.54520e-02,8.37049e-12,-7.54520e-02,8.00958e-12,-7.54520e-02
8.52675e+02,6.65000e+02,6.66000e+02,-1.00000e+00,4.84681e-12,-6.79068e-02,7.91135e-12,-6.79068e-02,1.03805e-11,-6.79068e-02
8.52923e+02,6.73000e+02,6.69000e+02,4.00000e+00,2.63777e-12,-6.03616e-02,8.40468e-12,-6.03616e-02,8.41310e-12,-6.03616e-02
8.53170e+02,6.80000e+02,6.64000e+02,1.60000e+01,8.68449e-12,-5.28164e-02,1.26014e-11,-5.28164e-02,5.03887e-12,-5.28164e-02
8.53418e+02,6.75000e+02,6.62000e+02,1.30000e+01,1.21398e-11,-4.52712e-02,1.33994e-11,-4.52712e-02,1.44312e-12,-4.52712e-02
8.53666e+02,6.68000e+02,6.75000e+02,-7.00000e+00,1.16110e-11,-3.77260e-02,9.49271e-12,-3.77260e-02,2.74140e-12,-3.77260e-02
8.53913e+02,6.86000e+02,6.88000e+02,-2.00000e+00,1.28624e-11,-3.01808e-02,1.29832e-11,-3.01808e-02,3.20225e-13,-3.01808e-02
8.54161e+02,6.88000e+02,6.83000e+02,5.00000e+00,2.85729e-11,-2.26356e-02,3.15633e-11,-2.26356e-02,4.96678e-12,-2.26356e-02
8.54409e+02,6.72000e+02,6.83000e+02,-1.10000e+01,1.05805e-10,-1.50904e-02,1.05045e-10,-1.50904e-02,8.68956e-12,-1.50904e-02
8.54656e+02,6.64000e+02,6.85000e+02,-2.10000e+01,3.21398e-10,-7.54520e-03,3.23909e-10,-7.54520e-03,7.26269e-12,-7.54520e-03
