7.67698e+02,6.72000e+02,6.65000e+02,7.00000e+00,9.39729e-11,0.00000e+00,9.46529e-11,0.00000e+00,6.80052e-13,0.00000e+00
7.67949e+02,6.77000e+02,6.73000e+02,4.00000e+00,1.73092e-11,7.54520e-03,1.78804e-11,7.54520e-03,6.27910e-13,7.54520e-03
7.68199e+02,6.76000e+02,6.76000e+02,0.00000e+00,8.04356e-12,1.50904e-02,8.07526e-12,1.50904e-02,4.53890e-13,1.50904e-02
7.68450e+02,6.71000e+02,6.68000e+02,3.00000e+00,1.50840e-12,2.26356e-02,1.12037e-12,2.26356e-02,5.46437e-13,2.26356e-02
7.68701e+02,6.73000e+02,6.86000e+02,-1.30000e+01,3.90202e-12,3.01808e-02,4.36542e-12,3.01808e-02,4.96957e-13,3.01808e-02
7.68951e+02,6.76000e+02,6.74000e+02,2.00000e+00,2.40339e-12,3.77260e-02,2.67966e-12,3.77260e-02,5.01212e-13,3.77260e-02
7.69202e+02,6.90000e+02,6.80000e+02,1.00000e+01,2.22322e-12,4.52712e-02,2.03948e-12,4.52712e-02,2.93805e-13,4.52712e-02
7.69453e+02,6.78000e+02,6.89000e+02,-1.10000e+01,5.65169e-13,5.28164e-02,6.97673e-13,5.28164e-02,5.35748e-13,5.28164e-02
7.69703e+02,6.76000e+02,6.75000e+02,1.00000e+00,1.89037e-13,6.03616e-02,6.13064e-13,6.03616e-02,6.67712e-13,6.03616e-02
7.69954e+02,6.83000e+02,6.95000e+02,-1.20000e+01,2.67141e-13,6.79068e-02,6.58650e-13,6.79068e-02,5.39046e-13,6.79068e-02
7.70205e+02,6.75000e+02,6.81000e+02,-6.00000e+00,6.11930e-13,7.54520e-02,7.06449e-13,7.54520e-02,2.01743e-13,7.54520e-02
7.70455e+02,6.99000e+02,6.79000e+02,2.00000e+01,3.76696e-13,8.29972e-02,8.39016e-13,8.29972e-02,5.78587e-13,8.29972e-02
7.70706e+02,6.88000e+02,6.86000e+02,2.00000e+00,4.05510e-13,9.05424e-02,1.09756e-12,9.05424e-02,7.62318e-13,9.05424e-02
7.70957e+02,6.88000e+02,7.07000e+02,-1.90000e+01,4.94357e-13,9.80876e-02,5.82302e-13,9.80876e-02,5.15333e-13,9.80876e-02
7.71207e+02,6.92000e+02,7.00000e+02,-8.00000e+00,3.87768e-13,1.05633e-01,1.56756e-13,1.05633e-01,2.48603e-13,1.05633e-01
7.71458e+02,6.99000e+02,6.92000e+02,7.00000e+00,7.76032e-13,1.13178e-01,7.15307e-13,1.13178e-01,1.82978e-13,1.13178e-01
7.71708e+02,6.94000e+02,6.93000e+02,1.00000e+00,5.64486e-13,1.20723e-01,7.17745e-13,1.20723e-01,2.28546e-13,1.20723e-01
7.71959e+02,7.06000e+02,7.07000e+02,-1.00000e+00,3.79634e-13,1.28268e-01,2.22288e-13,1.28268e-01,1.78723e-13,1.28268e-01
7.72210e+02,6.97000e+02,7.04000e+02,-7.00000e+00,4.09367e-13,1.35814e-01,3.00917e-13,1.35814e-01,3.17571e-13,1.35814e-01
7.72460e+02,6.94000e+02,6.88000e+02,6.00000e+00,3.84739e-13,1.43359e-01,6.52118e-13,1.43359e-01,5.52004e-13,1.43359e-01
7.72711e+02,7.08000e+02,7.04000e+02,4.00000e+00,5.79270e-13,1.50904e-01,4.96793e-13,1.50904e-01,5.03938e-13,1.50904e-01
7.72961e+02,7.05000e+02,7.14000e+02,-9.00000e+00,5.14925e-13,1.58449e-01,3.74593e-13,1.58449e-01,1.99247e-13,1.58449e-01
7.73212e+02,7.22000e+02,7.25000e+02,-3.00000e+00,2.66266e-13,1.65994e-01,3.27679e-13,1.65994e-01,7.28890e-14,1.65994e-01
7.73462e+02,7.15000e+02,7.14000e+02,1.00000e+00,4.26020e-14,1.73540e-01,2.97885e-13,1.73540e-01,2.79564e-13,1.73540e-01
7.73713e+02,7.17000e+02,7.42000e+02,-2.50000e+01,2.35645e-13,1.81085e-01,1.07760e-13,1.81085e-01,2.75979e-13,1.81085e-01
7.73963e+02,7.05000e+02,7.12000e+02,-7.00000e+00,1.64912e-13,1.88630e-01,5.08723e-13,1.88630e-01,4.17610e-13,1.88630e-01
7.74214e+02,7.27000e+02,7.09000e+02,1.80000e+01,2.34534e-13,1.96175e-01,3.62857e-13,1.96175e-01,3.15348e-13,1.96175e-01
7.74465e+02,7.32000e+02,7.24000e+02,8.00000e+00,3.15734e-13,2.03720e-01,3.53892e-13,2.03720e-01,8.05519e-14,2.03720e-01
7.74715e+02,7.30000e+02,7.35000e+02,-5.00000e+00,4.63779e-13,2.11266e-01,2.76182e-13,2.11266e-01,1.93178e-13,2.11266e-01
7.74965e+02,7.14000e+02,7.31000e+02,-1.70000e+01,2.90520e-13,2.18811e-01,2.70903e-13,2.18811e-01,1.53059e-13,2.18811e-01
7.75216e+02,7.32000e+02,7.34000e+02,-2.00000e+00,3.88847e-13,2.26356e-01,3.54690e-13,2.26356e-01,2.13379e-13,2.26356e-01
7.75466e+02,7.32000e+02,7.24000e+02,8.00000e+00,1.58387e-13,2.33901e-01,3.54855e-13,2.33901e-01,2.13253e-13,2.33901e-01
7.75717e+02,7.33000e+02,7.35000e+02,-2.00000e+00,1.35844e-13,2.41446e-01,1.73127e-13,2.41446e-01,4.68066e-14,2.41446e-01
7.75967e+02,7.36000e+02,7.48000e+02,-1.20000e+01,2.49862e-13,2.48992e-01,2.50513e-13,2.48992e-01,8.46916e-14,2.48992e-01
7.76218e+02,7.72000e+02,7.65000e+02,7.00000e+00,1.61810e-13,2.56537e-01,3.67702e-13,2.56537e-01,3.37970e-13,2.56537e-01
7.76468e+02,7.68000e+02,7.62000e+02,6.00000e+00,3.26689e-14,2.64082e-01,4.02867e-13,2.64082e-01,4.16354e-13,2.64082e-01
7.76719e+02,7.62000e+02,7.43000e+02,1.90000e+01,1.30821e-13,2.71627e-01,4.17930e-13,2.71627e-01,2.87829e-13,2.71627e-01
7.76969e+02,7.50000e+02,7.61000e+02,-1.10000e+01,1.71047e-13,2.79172e-01,4.47460e-13,2.79172e-01,2.76738e-13,2.79172e-01
7.77219e+02,7.71000e+02,7.58000e+02,1.30000e+01,1.03190e-13,2.86718e-01,2.26477e-13,2.86718e-01,2.69180e-13,2.86718e-01
7.77470e+02,7.57000e+02,7.88000e+02,-3.10000e+01,7.89061e-14,2.94263e-01,1.81619e-13,2.94263e-01,1.58904e-13,2.94263e-01
7.77720e+02,7.86000e+02,7.88000e+02,-2.00000e+00,3.02463e-13,3.01808e-01,2.69523e-13,3.01808e-01,9.55259e-14,3.01808e-01
7.77971e+02,7.79000e+02,7.62000e+02,1.70000e+01,3.20724e-13,3.09353e-01,2.16943e-13,3.09353e-01,1.04464e-13,3.09353e-01
7.78221e+02,7.91000e+02,7.94000e+02,-3.00000e+00,2.65684e-13,3.16898e-01,2.61514e-13,3.16898e-01,1.32858e-13,3.16898e-01
7.78471e+02,7.98000e+02,7.99000e+02,-1.00000e+00,2.82940e-13,3.24444e-01,2.84208e-13,3.24444e-01,9.20071e-14,3.24444e-01
7.78722e+02,7.77000e+02,7.59000e+02,1.80000e+01,2.83430e-13,3.31989e-01,4.52246e-13,3.31989e-01,1.69676e-13,3.31989e-01
7.78972e+02,7.65000e+02,7.43000e+02,2.20000e+01,3.55065e-13,3.39534e-01,5.68036e-13,3.39534e-01,2.31576e-13,3.39534e-01
7.79222e+02,7.89000e+02,7.71000e+02,1.80000e+01,1.53708e-13,3.47079e-01,2.71804e-13,3.47079e-01,1.68307e-13,3.47079e-01
7.79473e+02,7.77000e+02,7.61000e+02,1.60000e+01,1.87287e-13,3.54624e-01,1.51195e-13,3.54624e-01,9.38975e-14,3.54624e-01
7.79723e+02,7.76000e+02,7.86000e+02,-1.00000e+01,4.88616e-14,3.62169e-01,1.19580e-13,3.62169e-01,7.19897e-14,3.62169e-01
7.79973e+02,7.58000e+02,7.64000e+02,-6.00000e+00,8.92953e-14,3.69715e-01,1.19293e-13,3.69715e-01,1.04691e-13,3.69715e-01
7.80224e+02,7.63000e+02,7.75000e+02,-1.20000e+01,2.45444e-13,3.77260e-01,2.38907e-13,3.77260e-01,1.53147e-13,3.77260e-01
7.80474e+02,7.82000e+02,7.70000e+02,1.20000e+01,8.27871e-14,3.84805e-01,1.68851e-13,3.84805e-01,2.42869e-13,3.84805e-01
7.80724e+02,7.92000e+02,7.91000e+02,1.00000e+00,4.25271e-14,3.92350e-01,2.02999e-13,3.92350e-01,1.60575e-13,3.92350e-01
7.80974e+02,7.72000e+02,7.79000e+02,-7.00000e+00,1.89147e-13,3.99895e-01,2.23622e-13,3.99895e-01,5.00851e-14,3.99895e-01
7.81225e+02,8.00000e+02,7.83000e+02,1.70000e+01,3.76779e-13,4.07441e-01,3.20186e-13,4.07441e-01,5.78325e-14,4.07441e-01
7.81475e+02,7.90000e+02,7.80000e+02,1.00000e+01,2.55701e-13,4.14986e-01,1.06350e-13,4.14986e-01,1.53610e-13,4.14986e-01
7.81725e+02,7.76000e+02,7.68000e+02,8.00000e+00,2.21757e-13,4.22531e-01,1.47716e-13,4.22531e-01,9.06614e-14,4.22531e-01
7.81975e+02,7.56000e+02,7.71000e+02,-1.50000e+01,9.69013e-14,4.30076e-01,6.59302e-14,4.30076e-01,7.82627e-14,4.30076e-01
7.82226e+02,8.05000e+02,7.64000e+02,4.10000e+01,1.75242e-13,4.37621e-01,6.11430e-14,4.37621e-01,1.50357e-13,4.37621e-01
7.82476e+02,8.10000e+02,7.87000e+02,2.30000e+01,3.23582e-13,4.45167e-01,8.90753e-14,4.45167e-01,2.46347e-13,4.45167e-01
7.82726e+02,7.80000e+02,7.75000e+02,5.00000e+00,1.43984e-13,4.52712e-01,5.80557e-14,4.52712e-01,1.42180e-13,4.52712e-01
7.82976e+02,7.68000e+02,7.63000e+02,5.00000e+00,6.85751e-14,4.60257e-01,2.29311e-13,4.60257e-01,2.70778e-13,4.60257e-01
7.83226e+02,7.77000e+02,7.76000e+02,1.00000e+00,1.19380e-14,4.67802e-01,1.50264e-13,4.67802e-01,1.48750e-13,4.67802e-01
7.83477e+02,7.73000e+02,7.55000e+02,1.80000e+01,6.86651e-14,4.75347e-01,9.42630e-14,4.75347e-01,1.20396e-13,4.75347e-01
7.83727e+02,7.86000e+02,7.67000e+02,1.90000e+01,1.67518e-13,4.82893e-01,1.29734e-13,4.82893e-01,2.69764e-13,4.82893e-01
7.83977e+02,7.61000e+02,7.60000e+02,1.00000e+00,2.36368e-13,4.90438e-01,2.43442e-13,4.90438e-01,4.63132e-13,4.90438e-01
7.84227e+02,7.49000e+02,7.64000e+02,-1.50000e+01,3.90943e-13,4.97983e-01,2.22225e-13,4.97983e-01,5.63447e-13,4.97983e-01
7.84477e+02,7.59000e+02,7.64000e+02,-5.00000e+00,3.43053e-13,5.05528e-01,2.21971e-13,5.05528e-01,5.35878e-13,5.05528e-01
7.84727e+02,7.74000e+02,7.69000e+02,5.00000e+00,1.83971e-13,5.13073e-01,1.42413e-13,5.13073e-01,3.26382e-13,5.13073e-01
7.84978e+02,7.68000e+02,7.53000e+02,1.50000e+01,9.65228e-14,5.20619e-01,1.56879e-13,5.20619e-01,1.94029e-13,5.20619e-01
7.85228e+02,7.62000e+02,7.49000e+02,1.30000e+01,4.65907e-14,5.28164e-01,8.26916e-14,5.28164e-01,7.71704e-14,5.28164e-01
7.85478e+02,7.41000e+02,7.35000e+02,6.00000e+00,1.07971e-13,5.35709e-01,1.33073e-13,5.35709e-01,9.76233e-14,5.35709e-01
7.85728e+02,7.36000e+02,7.12000e+02,2.40000e+01,4.75140e-14,5.43254e-01,3.21830e-14,5.43254e-01,3.49554e-14,5.43254e-01
7.85978e+02,7.21000e+02,7.55000e+02,-3.40000e+01,1.14913e-13,5.50799e-01,7.25466e-14,5.50799e-01,1.47440e-13,5.50799e-01
7.86228e+02,7.36000e+02,7.39000e+02,-3.00000e+00,7.90426e-14,5.58345e-01,4.48766e-14,5.58345e-01,6.73877e-14,5.58345e-01
7.86478e+02,7.33000e+02,7.17000e+02,1.60000e+01,7.95836e-14,5.65890e-01,6.99469e-14,5.65890e-01,1.37105e-13,5.65890e-01
7.86728e+02,7.38000e+02,7.26000e+02,1.20000e+01,7.99000e-14,5.73435e-01,1.35615e-13,5.73435e-01,6.23537e-14,5.73435e-01
7.86978e+02,7.10000e+02,7.26000e+02,-1.60000e+01,5.01884e-14,5.80980e-01,4.88420e-14,5.80980e-01,1.75251e-15,5.80980e-01
7.87228e+02,7.40000e+02,7.29000e+02,1.10000e+01,5.40114e-14,5.88525e-01,1.31689e-13,5.88525e-01,7.78999e-14,5.88525e-01
7.87478e+02,7.20000e+02,7.18000e+02,2.00000e+00,1.14384e-13,5.96071e-01,4.40806e-14,5.96071e-01,7.23387e-14,5.96071e-01
7.87728e+02,7.17000e+02,7.07000e+02,1.00000e+01,1.32676e-13,6.03616e-01,5.77215e-14,6.03616e-01,1.90382e-13,6.03616e-01
7.87978e+02,7.24000e+02,7.14000e+02,1.00000e+01,1.77019e-13,6.11161e-01,1.18871e-13,6.11161e-01,8.67305e-14,6.11161e-01
7.88228e+02,7.21000e+02,7.24000e+02,-3.00000e+00,6.69668e-14,6.18706e-01,1.19334e-13,6.18706e-01,1.48959e-13,6.18706e-01
7.88478e+02,7.27000e+02,7.29000e+02,-2.00000e+00,7.78922e-14,6.26251e-01,1.03425e-13,6.26251e-01,1.62005e-13,6.26251e-01
7.88728e+02,7.05000e+02,7.14000e+02,-9.00000e+00,1.14312e-13,6.33797e-01,1.36540e-13,6.33797e-01,6.98922e-14,6.33797e-01
7.88978e+02,6.98000e+02,7.13000e+02,-1.50000e+01,7.22969e-14,6.41342e-01,9.55420e-14,6.41342e-01,7.74455e-14,6.41342e-01
7.89228e+02,7.24000e+02,7.08000e+02,1.60000e+01,6.89104e-14,6.48887e-01,1.27949e-13,6.48887e-01,1.12116e-13,6.48887e-01
7.89478e+02,7.37000e+02,7.17000e+02,2.00000e+01,2.37048e-13,6.56432e-01,2.02008e-13,6.56432e-01,6.13240e-14,6.56432e-01
7.89728e+02,7.35000e+02,7.12000e+02,2.30000e+01,2.01923e-13,6.63977e-01,2.07435e-13,6.63977e-01,8.38252e-14,6.63977e-01
7.89978e+02,7.27000e+02,7.13000e+02,1.40000e+01,2.04301e-13,6.71523e-01,1.23204e-13,6.71523e-01,8.72965e-14,6.71523e-01
7.90228e+02,7.34000e+02,7.32000e+02,2.00000e+00,2.30761e-13,6.79068e-01,1.30767e-13,6.79068e-01,1.49957e-13,6.79068e-01
7.90478e+02,7.18000e+02,7.10000e+02,8.00000e+00,1.61752e-13,6.86613e-01,5.94836e-14,6.86613e-01,1.54104e-13,6.86613e-01
7.90728e+02,7.21000e+02,7.20000e+02,1.00000e+00,1.21111e-13,6.94158e-01,4.37359e-14,6.94158e-01,1.13184e-13,6.94158e-01
7.90978e+02,7.22000e+02,7.04000e+02,1.80000e+01,1.23916e-13,7.01703e-01,1.80960e-14,7.01703e-01,1.05896e-13,7.01703e-01
7.91228e+02,7.38000e+02,7.35000e+02,3.00000e+00,1.19878e-13,7.09249e-01,1.02471e-13,7.09249e-01,3.74307e-14,7.09249e-01
7.91478e+02,7.35000e+02,7.26000e+02,9.00000e+00,1.20273e-13,7.16794e-01,8.55638e-14,7.16794e-01,1.43186e-13,7.16794e-01
7.91728e+02,7.19000e+02,7.23000e+02,-4.00000e+00,6.62640e-14,7.24339e-01,6.85039e-14,7.24339e-01,1.29014e-13,7.24339e-01
7.91977e+02,7.24000e+02,7.13000e+02,1.10000e+01,6.28927e-14,7.31884e-01,1.22418e-13,7.31884e-01,8.49425e-14,7.31884e-01
7.92227e+02,7.26000e+02,7.13000e+02,1.30000e+01,9.85950e-15,7.39429e-01,7.18452e-14,7.39429e-01,6.21189e-14,7.39429e-01
7.92477e+02,7.23000e+02,7.25000e+02,-2.00000e+00,8.01426e-14,7.46975e-01,1.27265e-13,7.46975e-01,1.70431e-13,7.46975e-01
7.92727e+02,7.01000e+02,7.23000e+02,-2.20000e+01,8.69829e-14,7.54520e-01,2.92668e-14,7.54520e-01,8.56520e-14,7.54520e-01
7.92977e+02,7.26000e+02,7.14000e+02,1.20000e+01,2.71086e-14,7.62065e-01,1.06888e-13,7.62065e-01,1.28875e-13,7.62065e-01
7.93227e+02,7.42000e+02,7.41000e+02,1.00000e+00,6.34787e-14,7.69610e-01,2.43150e-13,7.69610e-01,2.01030e-13,7.69610e-01
7.93476e+02,7.24000e+02,7.33000e+02,-9.00000e+00,1.35023e-13,7.77155e-01,1.64583e-13,7.77155e-01,1.15613e-13,7.77155e-01
7.93726e+02,7.32000e+02,7.38000e+02,-6.00000e+00,1.25240e-13,7.84701e-01,1.88543e-13,7.84701e-01,8.10466e-14,7.84701e-01
7.93976e+02,7.31000e+02,7.37000e+02,-6.00000e+00,2.44463e-14,7.92246e-01,6.14287e-14,7.92246e-01,8.34531e-14,7.92246e-01
7.94226e+02,7.47000e+02,7.28000e+02,1.90000e+01,9.55273e-14,7.99791e-01,8.79343e-15,7.99791e-01,1.04206e-13,7.99791e-01
7.94476e+02,7.28000e+02,7.28000e+02,0.00000e+00,1.55580e-13,8.07336e-01,2.00104e-14,8.07336e-01,1.63048e-13,8.07336e-01
7.94725e+02,7.16000e+02,7.35000e+02,-1.90000e+01,8.00379e-14,8.14881e-01,6.80354e-14,8.14881e-01,9.09932e-14,8.14881e-01
7.94975e+02,7.27000e+02,7.41000e+02,-1.40000e+01,5.92618e-14,8.22427e-01,8.27441e-14,8.22427e-01,7.91347e-14,8.22427e-01
7.95225e+02,7.25000e+02,7.39000e+02,-1.40000e+01,5.40022e-14,8.29972e-01,1.21324e-13,8.29972e-01,7.10776e-14,8.29972e-01
7.95475e+02,7.37000e+02,7.34000e+02,3.00000e+00,1.11003e-13,8.37517e-01,1.88576e-13,8.37517e-01,7.93040e-14,8.37517e-01
7.95724e+02,7.28000e+02,7.55000e+02,-2.70000e+01,6.54463e-14,8.45062e-01,5.57402e-14,8.45062e-01,1.17801e-14,8.45062e-01
7.95974e+02,7.24000e+02,7.42000e+02,-1.80000e+01,8.90582e-14,8.52607e-01,1.14137e-13,8.52607e-01,5.63534e-14,8.52607e-01
7.96224e+02,7.62000e+02,7.36000e+02,2.60000e+01,5.21516e-14,8.60153e-01,2.53329e-14,8.60153e-01,7.58868e-14,8.60153e-01
7.96474e+02,7.32000e+02,7.38000e+02,-6.00000e+00,8.78112e-14,8.67698e-01,2.37718e-14,8.67698e-01,8.16147e-14,8.67698e-01
7.96723e+02,7.33000e+02,7.20000e+02,1.30000e+01,1.33005e-13,8.75243e-01,1.98384e-14,8.75243e-01,1.14115e-13,8.75243e-01
7.96973e+02,7.44000e+02,7.25000e+02,1.90000e+01,7.33031e-14,8.82788e-01,7.19562e-14,8.82788e-01,4.09505e-14,8.82788e-01
7.97223e+02,7.48000e+02,7.41000e+02,7.00000e+00,5.72962e-14,8.90333e-01,5.70372e-14,8.90333e-01,6.71915e-14,8.90333e-01
7.97472e+02,7.68000e+02,7.48000e+02,2.00000e+01,1.65670e-13,8.97879e-01,7.41740e-14,8.97879e-01,1.41117e-13,8.97879e-01
7.97722e+02,7.64000e+02,7.62000e+02,2.00000e+00,8.32867e-14,9.05424e-01,5.87097e-14,9.05424e-01,2.46489e-14,9.05424e-01
7.97972e+02,7.55000e+02,7.76000e+02,-2.10000e+01,1.03055e-13,9.12969e-01,1.40820e-13,9.12969e-01,1.18640e-13,9.12969e-01
7.98221e+02,7.88000e+02,7.87000e+02,1.00000e+00,1.15872e-13,9.20514e-01,9.92206e-14,9.20514e-01,2.64340e-14,9.20514e-01
7.98471e+02,7.87000e+02,7.99000e+02,-1.20000e+01,8.52465e-14,9.28059e-01,1.18657e-13,9.28059e-01,7.16747e-14,9.28059e-01
7.98721e+02,8.16000e+02,7.98000e+02,1.80000e+01,8.43206e-14,9.35605e-01,5.37515e-14,9.35605e-01,6.83754e-14,9.35605e-01
7.98970e+02,7.99000e+02,7.90000e+02,9.00000e+00,2.05451e-14,9.43150e-01,2.28791e-14,9.43150e-01,4.02857e-14,9.43150e-01
7.99220e+02,8.43000e+02,8.35000e+02,8.00000e+00,6.73650e-14,9.50695e-01,8.57139e-14,9.50695e-01,1.18017e-13,9.50695e-01
7.99469e+02,8.62000e+02,8.21000e+02,4.10000e+01,5.07245e-14,9.58240e-01,1.00159e-13,9.58240e-01,5.22809e-14,9.58240e-01
7.99719e+02,8.29000e+02,8.28000e+02,1.00000e+00,1.86332e-14,9.65785e-01,3.56066e-14,9.65785e-01,2.67114e-14,9.65785e-01
7.99969e+02,8.48000e+02,8.55000e+02,-7.00000e+00,5.33543e-14,9.73331e-01,8.03202e-14,9.73331e-01,2.87926e-14,9.73331e-01
8.00218e+02,8.46000e+02,8.60000e+02,-1.40000e+01,5.74220e-14,9.80876e-01,7.78336e-14,9.80876e-01,3.33313e-14,9.80876e-01
8.00468e+02,8.78000e+02,8.72000e+02,6.00000e+00,9.42240e-14,9.88421e-01,7.28191e-14,9.88421e-01,5.52467e-14,9.88421e-01
8.00717e+02,9.01000e+02,8.96000e+02,5.00000e+00,3.89341e-14,9.95966e-01,8.53214e-14,9.95966e-01,1.14273e-13,9.95966e-01
8.00967e+02,8.87000e+02,9.32000e+02,-4.50000e+01,5.61612e-14,1.00351e+00,4.55620e-14,1.00351e+00,2.15759e-14,1.00351e+00
8.01216e+02,9.23000e+02,9.22000e+02,1.00000e+00,6.98561e-14,1.01106e+00,1.87592e-14,1.01106e+00,5.39374e-14,1.01106e+00
8.01466e+02,9.55000e+02,1.00000e+03,-4.50000e+01,6.31245e-14,1.01860e+00,5.04973e-14,1.01860e+00,2.17499e-14,1.01860e+00
8.01715e+02,1.02900e+03,1.05100e+03,-2.20000e+01,3.08275e-14,1.02615e+00,1.61613e-13,1.02615e+00,1.85919e-13,1.02615e+00
8.01965e+02,1.05300e+03,1.14900e+03,-9.60000e+01,1.50964e-13,1.03369e+00,9.33882e-14,1.03369e+00,2.32629e-13,1.03369e+00
8.02215e+02,1.04200e+03,1.15300e+03,-1.11000e+02,4.82034e-14,1.04124e+00,1.75158e-13,1.04124e+00,2.21790e-13,1.04124e+00
8.02464e+02,1.08000e+03,1.19400e+03,-1.14000e+02,6.56461e-14,1.04878e+00,4.84984e-14,1.04878e+00,2.22509e-14,1.04878e+00
8.02713e+02,1.11300e+03,1.17300e+03,-6.00000e+01,8.82565e-14,1.05633e+00,6.33444e-14,1.05633e+00,4.28822e-14,1.05633e+00
8.02963e+02,1.12000e+03,1.22500e+03,-1.05000e+02,4.24173e-14,1.06387e+00,9.49429e-14,1.06387e+00,5.58968e-14,1.06387e+00
8.03212e+02,1.09900e+03,1.20000e+03,-1.01000e+02,6.02394e-14,1.07142e+00,9.44465e-14,1.07142e+00,4.68751e-14,1.07142e+00
8.03462e+02,1.12500e+03,1.28400e+03,-1.59000e+02,8.37099e-14,1.07896e+00,1.45502e-14,1.07896e+00,7.15501e-14,1.07896e+00
8.03711e+02,1.10100e+03,1.28200e+03,-1.81000e+02,3.56316e-14,1.08651e+00,2.96525e-14,1.08651e+00,6.33923e-14,1.08651e+00
8.03961e+02,1.12000e+03,1.26300e+03,-1.43000e+02,9.29557e-14,1.09405e+00,3.75490e-14,1.09405e+00,5.70497e-14,1.09405e+00
8.04210e+02,1.19400e+03,1.28400e+03,-9.00000e+01,2.29905e-14,1.10160e+00,9.39744e-14,1.10160e+00,7.36952e-14,1.10160e+00
8.04460e+02,1.22800e+03,1.26100e+03,-3.30000e+01,3.41788e-14,1.10914e+00,7.45861e-14,1.10914e+00,4.35354e-14,1.10914e+00
8.04709e+02,1.14800e+03,1.22200e+03,-7.40000e+01,5.04012e-14,1.11669e+00,8.50791e-14,1.11669e+00,5.75682e-14,1.11669e+00
8.04958e+02,1.11000e+03,1.17400e+03,-6.40000e+01,6.69797e-14,1.12423e+00,3.65909e-14,1.12423e+00,8.67983e-14,1.12423e+00
8.05208e+02,1.14300e+03,1.24900e+03,-1.06000e+02,2.87807e-14,1.13178e+00,1.66156e-13,1.13178e+00,1.40709e-13,1.13178e+00
8.05457e+02,1.16300e+03,1.27500e+03,-1.12000e+02,5.07676e-14,1.13932e+00,3.73292e-15,1.13932e+00,4.70480e-14,1.13932e+00
8.05707e+02,1.24500e+03,1.28500e+03,-4.00000e+01,8.95417e-14,1.14687e+00,5.05385e-14,1.14687e+00,1.39917e-13,1.14687e+00
8.05956e+02,1.32600e+03,1.34200e+03,-1.60000e+01,1.03274e-13,1.15442e+00,5.59439e-14,1.15442e+00,1.59217e-13,1.15442e+00
8.06205e+02,1.30700e+03,1.32400e+03,-1.70000e+01,4.26634e-14,1.16196e+00,3.55941e-14,1.16196e+00,6.60881e-14,1.16196e+00
8.06455e+02,1.27600e+03,1.32800e+03,-5.20000e+01,4.65749e-14,1.16951e+00,8.89301e-14,1.16951e+00,1.29716e-13,1.16951e+00
8.06704e+02,1.35000e+03,1.31400e+03,3.60000e+01,4.61872e-14,1.17705e+00,9.95548e-14,1.17705e+00,1.22292e-13,1.17705e+00
8.06953e+02,1.33700e+03,1.29000e+03,4.70000e+01,3.70730e-14,1.18460e+00,8.10386e-14,1.18460e+00,4.45472e-14,1.18460e+00
8.07203e+02,1.38600e+03,1.35000e+03,3.60000e+01,4.91762e-14,1.19214e+00,7.65515e-14,1.19214e+00,1.25322e-13,1.19214e+00
8.07452e+02,1.41800e+03,1.47500e+03,-5.70000e+01,4.74439e-14,1.19969e+00,3.23914e-14,1.19969e+00,7.79042e-14,1.19969e+00
8.07701e+02,1.39600e+03,1.43900e+03,-4.30000e+01,7.30668e-14,1.20723e+00,4.55213e-14,1.20723e+00,1.13288e-13,1.20723e+00
8.07951e+02,1.34000e+03,1.39900e+03,-5.90000e+01,1.33453e-13,1.21478e+00,5.55026e-14,1.21478e+00,1.74694e-13,1.21478e+00
8.08200e+02,1.34200e+03,1.34700e+03,-5.00000e+00,6.73423e-14,1.22232e+00,9.48714e-14,1.22232e+00,2.82342e-14,1.22232e+00
8.08449e+02,1.34800e+03,1.38000e+03,-3.20000e+01,3.16446e-14,1.22987e+00,3.55899e-14,1.22987e+00,5.09960e-14,1.22987e+00
8.08698e+02,1.39300e+03,1.45700e+03,-6.40000e+01,1.79933e-14,1.23741e+00,4.41133e-14,1.23741e+00,3.61525e-14,1.23741e+00
8.08948e+02,1.38200e+03,1.45400e+03,-7.20000e+01,9.23588e-14,1.24496e+00,1.11713e-13,1.24496e+00,2.79802e-14,1.24496e+00
8.09197e+02,1.37100e+03,1.45400e+03,-8.30000e+01,6.94422e-14,1.25250e+00,6.01171e-14,1.25250e+00,4.19047e-14,1.25250e+00
8.09446e+02,1.43800e+03,1.44900e+03,-1.10000e+01,6.19104e-14,1.26005e+00,1.05722e-13,1.26005e+00,7.01759e-14,1.26005e+00
8.09695e+02,1.43100e+03,1.36100e+03,7.00000e+01,1.54810e-14,1.26759e+00,7.68366e-14,1.26759e+00,6.76022e-14,1.26759e+00
8.09945e+02,1.39400e+03,1.35800e+03,3.60000e+01,2.51797e-14,1.27514e+00,4.14936e-14,1.27514e+00,1.91165e-14,1.27514e+00
8.10194e+02,1.39800e+03,1.35600e+03,4.20000e+01,3.89989e-14,1.28268e+00,1.12275e-13,1.28268e+00,8.00745e-14,1.28268e+00
8.10443e+02,1.41400e+03,1.42600e+03,-1.20000e+01,5.78273e-14,1.29023e+00,1.12814e-13,1.29023e+00,1.20143e-13,1.29023e+00
8.10692e+02,1.43100e+03,1.40800e+03,2.30000e+01,7.94123e-14,1.29777e+00,8.17147e-14,1.29777e+00,6.60294e-14,1.29777e+00
8.10941e+02,1.46700e+03,1.41500e+03,5.20000e+01,5.68216e-14,1.30532e+00,8.18329e-14,1.30532e+00,2.51557e-14,1.30532e+00
8.11191e+02,1.38800e+03,1.42300e+03,-3.50000e+01,2.82980e-14,1.31286e+00,5.96023e-14,1.31286e+00,8.78676e-14,1.31286e+00
8.11440e+02,1.38600e+03,1.42900e+03,-4.30000e+01,1.55925e-13,-1.32041e+00,2.14072e-14,-1.32041e+00,1.34518e-13,-1.32041e+00
8.11689e+02,1.34600e+03,1.44300e+03,-9.70000e+01,2.82980e-14,-1.31286e+00,5.96023e-14,-1.31286e+00,8.78676e-14,-1.31286e+00
8.11938e+02,1.32300e+03,1.38100e+03,-5.80000e+01,5.68216e-14,-1.30532e+00,8.18329e-14,-1.30532e+00,2.51557e-14,-1.30532e+00
8.12187e+02,1.34900e+03,1.32000e+03,2.90000e+01,7.94123e-14,-1.29777e+00,8.17147e-14,-1.29777e+00,6.60294e-14,-1.29777e+00
8.12436e+02,1.35300e+03,1.29900e+03,5.40000e+01,5.78273e-14,-1.29023e+00,1.12814e-13,-1.29023e+00,1.20143e-13,-1.29023e+00
8.12685e+02,1.34600e+03,1.28100e+03,6.50000e+01,3.89989e-14,-1.28268e+00,1.12275e-13,-1.28268e+00,8.00745e-14,-1.28268e+00
8.12935e+02,1.27700e+03,1.32200e+03,-4.50000e+01,2.51797e-14,-1.27514e+00,4.14936e-14,-1.27514e+00,1.91165e-14,-1.27514e+00
8.13184e+02,1.30700e+03,1.27000e+03,3.70000e+01,1.54810e-14,-1.26759e+00,7.68366e-14,-1.26759e+00,6.76022e-14,-1.26759e+00
8.13433e+02,1.35000e+03,1.28600e+03,6.40000e+01,6.19104e-14,-1.26005e+00,1.05722e-13,-1.26005e+00,7.01759e-14,-1.26005e+00
8.13682e+02,1.37800e+03,1.30800e+03,7.00000e+01,6.94422e-14,-1.25250e+00,6.01171e-14,-1.25250e+00,4.19047e-14,-1.25250e+00
8.13931e+02,1.30300e+03,1.22000e+03,8.30000e+01,9.23588e-14,-1.24496e+00,1.11713e-13,-1.24496e+00,2.79802e-14,-1.24496e+00
8.14180e+02,1.23200e+03,1.22900e+03,3.00000e+00,1.79933e-14,-1.23741e+00,4.41133e-14,-1.23741e+00,3.61525e-14,-1.23741e+00
8.14429e+02,1.20100e+03,1.23000e+03,-2.90000e+01,3.16446e-14,-1.22987e+00,3.55899e-14,-1.22987e+00,5.09960e-14,-1.22987e+00
8.14678e+02,1.25400e+03,1.20300e+03,5.10000e+01,6.73423e-14,-1.22232e+00,9.48714e-14,-1.22232e+00,2.82342e-14,-1.22232e+00
8.14927e+02,1.25300e+03,1.13800e+03,1.15000e+02,1.33453e-13,-1.21478e+00,5.55026e-14,-1.21478e+00,1.74694e-13,-1.21478e+00
8.15176e+02,1.27500e+03,1.27500e+03,0.00000e+00,7.30668e-14,-1.20723e+00,4.55213e-14,-1.20723e+00,1.13288e-13,-1.20723e+00
8.15425e+02,1.26200e+03,1.36000e+03,-9.80000e+01,4.74439e-14,-1.19969e+00,3.23914e-14,-1.19969e+00,7.79042e-14,-1.19969e+00
8.15674e+02,1.21400e+03,1.34100e+03,-1.27000e+02,4.91762e-14,-1.19214e+00,7.65515e-14,-1.19214e+00,1.25322e-13,-1.19214e+00
8.15923e+02,1.20000e+03,1.29700e+03,-9.70000e+01,3.70730e-14,-1.18460e+00,8.10386e-14,-1.18460e+00,4.45472e-14,-1.18460e+00
8.16172e+02,1.18100e+03,1.27900e+03,-9.80000e+01,4.61872e-14,-1.17705e+00,9.95548e-14,-1.17705e+00,1.22292e-13,-1.17705e+00
8.16421e+02,1.18200e+03,1.21000e+03,-2.80000e+01,4.65749e-14,-1.16951e+00,8.89301e-14,-1.16951e+00,1.29716e-13,-1.16951e+00
8.16670e+02,1.18800e+03,1.21000e+03,-2.20000e+01,4.26634e-14,-1.16196e+00,3.55941e-14,-1.16196e+00,6.60881e-14,-1.16196e+00
8.16919e+02,1.13500e+03,1.23500e+03,-1.00000e+02,1.03274e-13,-1.15442e+00,5.59439e-14,-1.15442e+00,1.59217e-13,-1.15442e+00
8.17168e+02,1.18700e+03,1.24800e+03,-6.10000e+01,8.95417e-14,-1.14687e+00,5.05385e-14,-1.14687e+00,1.39917e-13,-1.14687e+00
8.17417e+02,1.22000e+03,1.22200e+03,-2.00000e+00,5.07676e-14,-1.13932e+00,3.73292e-15,-1.13932e+00,4.70480e-14,-1.13932e+00
8.17666e+02,1.21700e+03,1.24500e+03,-2.80000e+01,2.87807e-14,-1.13178e+00,1.66156e-13,-1.13178e+00,1.40709e-13,-1.13178e+00
8.17915e+02,1.17800e+03,1.22400e+03,-4.60000e+01,6.69797e-14,-1.12423e+00,3.65909e-14,-1.12423e+00,8.67983e-14,-1.12423e+00
8.18164e+02,1.17400e+03,1.24800e+03,-7.40000e+01,5.04012e-14,-1.11669e+00,8.50791e-14,-1.11669e+00,5.75682e-14,-1.11669e+00
8.18413e+02,1.20200e+03,1.21300e+03,-1.10000e+01,3.41788e-14,-1.10914e+00,7.45861e-14,-1.10914e+00,4.35354e-14,-1.10914e+00
8.18662e+02,1.26100e+03,1.28500e+03,-2.40000e+01,2.29905e-14,-1.10160e+00,9.39744e-14,-1.10160e+00,7.36952e-14,-1.10160e+00
8.18911e+02,1.30500e+03,1.28500e+03,2.00000e+01,9.29557e-14,-1.09405e+00,3.75490e-14,-1.09405e+00,5.70497e-14,-1.09405e+00
8.19160e+02,1.38600e+03,1.33100e+03,5.50000e+01,3.56316e-14,-1.08651e+00,2.96525e-14,-1.08651e+00,6.33923e-14,-1.08651e+00
8.19408e+02,1.43600e+03,1.38100e+03,5.50000e+01,8.37099e-14,-1.07896e+00,1.45502e-14,-1.07896e+00,7.15501e-14,-1.07896e+00
8.19657e+02,1.40000e+03,1.32900e+03,7.10000e+01,6.02394e-14,-1.07142e+00,9.44465e-14,-1.07142e+00,4.68751e-14,-1.07142e+00
8.19906e+02,1.33600e+03,1.28800e+03,4.80000e+01,4.24173e-14,-1.06387e+00,9.49429e-14,-1.06387e+00,5.58968e-14,-1.06387e+00
8.20155e+02,1.38500e+03,1.29300e+03,9.20000e+01,8.82565e-14,-1.05633e+00,6.33444e-14,-1.05633e+00,4.28822e-14,-1.05633e+00
8.20404e+02,1.37600e+03,1.31100e+03,6.50000e+01,6.56461e-14,-1.04878e+00,4.84984e-14,-1.04878e+00,2.22509e-14,-1.04878e+00
8.20653e+02,1.29000e+03,1.28000e+03,1.00000e+01,4.82034e-14,-1.04124e+00,1.75158e-13,-1.04124e+00,2.21790e-13,-1.04124e+00
8.20901e+02,1.23000e+03,1.27200e+03,-4.20000e+01,1.50964e-13,-1.03369e+00,9.33882e-14,-1.03369e+00,2.32629e-13,-1.03369e+00
8.21150e+02,1.24400e+03,1.24400e+03,0.00000e+00,3.08275e-14,-1.02615e+00,1.61613e-13,-1.02615e+00,1.85919e-13,-1.02615e+00
8.21399e+02,1.28400e+03,1.27000e+03,1.40000e+01,6.31245e-14,-1.01860e+00,5.04973e-14,-1.01860e+00,2.17499e-14,-1.01860e+00
8.21648e+02,1.28500e+03,1.21700e+03,6.80000e+01,6.98561e-14,-1.01106e+00,1.87592e-14,-1.01106e+00,5.39374e-14,-1.01106e+00
8.21897e+02,1.22600e+03,1.18200e+03,4.40000e+01,5.61612e-14,-1.00351e+00,4.55620e-14,-1.00351e+00,2.15759e-14,-1.00351e+00
8.22145e+02,1.21900e+03,1.22700e+03,-8.00000e+00,3.89341e-14,-9.95966e-01,8.53214e-14,-9.95966e-01,1.14273e-13,-9.95966e-01
8.22394e+02,1.28800e+03,1.26200e+03,2.60000e+01,9.42240e-14,-9.88421e-01,7.28191e-14,-9.88421e-01,5.52467e-14,-9.88421e-01
8.22643e+02,1.23200e+03,1.24500e+03,-1.30000e+01,5.74220e-14,-9.80876e-01,7.78336e-14,-9.80876e-01,3.33313e-14,-9.80876e-01
8.22892e+02,1.28200e+03,1.32000e+03,-3.80000e+01,5.33543e-14,-9.73331e-01,8.03202e-14,-9.73331e-01,2.87926e-14,-9.73331e-01
8.23140e+02,1.35800e+03,1.41000e+03,-5.20000e+01,1.86332e-14,-9.65785e-01,3.56066e-14,-9.65785e-01,2.67114e-14,-9.65785e-01
8.23389e+02,1.38200e+03,1.42800e+03,-4.60000e+01,5.07245e-14,-9.58240e-01,1.00159e-13,-9.58240e-01,5.22809e-14,-9.58240e-01
8.23638e+02,1.35000e+03,1.36800e+03,-1.80000e+01,6.73650e-14,-9.50695e-01,8.57139e-14,-9.50695e-01,1.18017e-13,-9.50695e-01
8.23887e+02,1.32200e+03,1.32800e+03,-6.00000e+00,2.05451e-14,-9.43150e-01,2.28791e-14,-9.43150e-01,4.02857e-14,-9.43150e-01
8.24135e+02,1.32200e+03,1.26000e+03,6.20000e+01,8.43206e-14,-9.35605e-01,5.37515e-14,-9.35605e-01,6.83754e-14,-9.35605e-01
8.24384e+02,1.26800e+03,1.28400e+03,-1.60000e+01,8.52465e-14,-9.28059e-01,1.18657e-13,-9.28059e-01,7.16747e-14,-9.28059e-01
8.24633e+02,1.30900e+03,1.32900e+03,-2.00000e+01,1.15872e-13,-9.20514e-01,9.92206e-14,-9.20514e-01,2.64340e-14,-9.20514e-01
8.24881e+02,1.31800e+03,1.38200e+03,-6.40000e+01,1.03055e-13,-9.12969e-01,1.40820e-13,-9.12969e-01,1.18640e-13,-9.12969e-01
8.25130e+02,1.39000e+03,1.43300e+03,-4.30000e+01,8.32867e-14,-9.05424e-01,5.87097e-14,-9.05424e-01,2.46489e-14,-9.05424e-01
8.25379e+02,1.43700e+03,1.47800e+03,-4.10000e+01,1.65670e-13,-8.97879e-01,7.41740e-14,-8.97879e-01,1.41117e-13,-8.97879e-01
8.25627e+02,1.37300e+03,1.49200e+03,-1.19000e+02,5.72962e-14,-8.90333e-01,5.70372e-14,-8.90333e-01,6.71915e-14,-8.90333e-01
8.25876e+02,1.27100e+03,1.43700e+03,-1.66000e+02,7.33031e-14,-8.82788e-01,7.19562e-14,-8.82788e-01,4.09505e-14,-8.82788e-01
8.26125e+02,1.23400e+03,1.34800e+03,-1.14000e+02,1.33005e-13,-8.75243e-01,1.98384e-14,-8.75243e-01,1.14115e-13,-8.75243e-01
8.26373e+02,1.18700e+03,1.30300e+03,-1.16000e+02,8.78112e-14,-8.67698e-01,2.37718e-14,-8.67698e-01,8.16147e-14,-8.67698e-01
8.26622e+02,1.17300e+03,1.20100e+03,-2.80000e+01,5.21516e-14,-8.60153e-01,2.53329e-14,-8.60153e-01,7.58868e-14,-8.60153e-01
8.26870e+02,1.18100e+03,1.13000e+03,5.10000e+01,8.90582e-14,-8.52607e-01,1.14137e-13,-8.52607e-01,5.63534e-14,-8.52607e-01
8.27119e+02,1.13200e+03,1.15200e+03,-2.00000e+01,6.54463e-14,-8.45062e-01,5.57402e-14,-8.45062e-01,1.17801e-14,-8.45062e-01
8.27368e+02,1.06000e+03,1.09500e+03,-3.50000e+01,1.11003e-13,-8.37517e-01,1.88576e-13,-8.37517e-01,7.93040e-14,-8.37517e-01
8.27616e+02,1.06500e+03,1.07800e+03,-1.30000e+01,5.40022e-14,-8.29972e-01,1.21324e-13,-8.29972e-01,7.10776e-14,-8.29972e-01
8.27865e+02,1.11600e+03,1.03500e+03,8.10000e+01,5.92618e-14,-8.22427e-01,8.27441e-14,-8.22427e-01,7.91347e-14,-8.22427e-01
8.28113e+02,1.11400e+03,1.02200e+03,9.20000e+01,8.00379e-14,-8.14881e-01,6.80354e-14,-8.14881e-01,9.09932e-14,-8.14881e-01
8.28362e+02,1.05600e+03,1.02400e+03,3.20000e+01,1.55580e-13,-8.07336e-01,2.00104e-14,-8.07336e-01,1.63048e-13,-8.07336e-01
8.28610e+02,1.02400e+03,1.01000e+03,1.40000e+01,9.55273e-14,-7.99791e-01,8.79343e-15,-7.99791e-01,1.04206e-13,-7.99791e-01
8.28859e+02,1.01100e+03,1.00100e+03,1.00000e+01,2.44463e-14,-7.92246e-01,6.14287e-14,-7.92246e-01,8.34531e-14,-7.92246e-01
8.29108e+02,9.72000e+02,9.41000e+02,3.10000e+01,1.25240e-13,-7.84701e-01,1.88543e-13,-7.84701e-01,8.10466e-14,-7.84701e-01
8.29356e+02,9.54000e+02,9.27000e+02,2.70000e+01,1.35023e-13,-7.77155e-01,1.64583e-13,-7.77155e-01,1.15613e-13,-7.77155e-01
8.29605e+02,9.36000e+02,9.34000e+02,2.00000e+00,6.34787e-14,-7.69610e-01,2.43150e-13,-7.69610e-01,2.01030e-13,-7.69610e-01
8.29853e+02,9.17000e+02,9.05000e+02,1.20000e+01,2.71086e-14,-7.62065e-01,1.06888e-13,-7.62065e-01,1.28875e-13,-7.62065e-01
8.30101e+02,8.92000e+02,9.05000e+02,-1.30000e+01,8.69829e-14,-7.54520e-01,2.92668e-14,-7.54520e-01,8.56520e-14,-7.54520e-01
8.30350e+02,8.64000e+02,9.02000e+02,-3.80000e+01,8.01426e-14,-7.46975e-01,1.27265e-13,-7.46975e-01,1.70431e-13,-7.46975e-01
8.30598e+02,8.53000e+02,8.83000e+02,-3.00000e+01,9.85950e-15,-7.39429e-01,7.18452e-14,-7.39429e-01,6.21189e-14,-7.39429e-01
8.30847e+02,8.46000e+02,8.69000e+02,-2.30000e+01,6.28927e-14,-7.31884e-01,1.22418e-13,-7.31884e-01,8.49425e-14,-7.31884e-01
8.31095e+02,8.43000e+02,8.34000e+02,9.00000e+00,6.62640e-14,-7.24339e-01,6.85039e-14,-7.24339e-01,1.29014e-13,-7.24339e-01
8.31344e+02,8.55000e+02,8.44000e+02,1.10000e+01,1.20273e-13,-7.16794e-01,8.55638e-14,-7.16794e-01,1.43186e-13,-7.16794e-01
8.31592e+02,8.30000e+02,8.39000e+02,-9.00000e+00,1.19878e-13,-7.09249e-01,1.02471e-13,-7.09249e-01,3.74307e-14,-7.09249e-01
8.31841e+02,8.00000e+02,7.98000e+02,2.00000e+00,1.23916e-13,-7.01703e-01,1.80960e-14,-7.01703e-01,1.05896e-13,-7.01703e-01
8.32089e+02,8.20000e+02,8.05000e+02,1.50000e+01,1.21111e-13,-6.94158e-01,4.37359e-14,-6.94158e-01,1.13184e-13,-6.94158e-01
8.32337e+02,7.82000e+02,7.66000e+02,1.60000e+01,1.61752e-13,-6.86613e-01,5.94836e-14,-6.86613e-01,1.54104e-13,-6.86613e-01
8.32586e+02,7.70000e+02,7.74000e+02,-4.00000e+00,2.30761e-13,-6.79068e-01,1.30767e-13,-6.79068e-01,1.49957e-13,-6.79068e-01
8.32834e+02,7.54000e+02,7.68000e+02,-1.40000e+01,2.04301e-13,-6.71523e-01,1.23204e-13,-6.71523e-01,8.72965e-14,-6.71523e-01
8.33083e+02,7.56000e+02,7.50000e+02,6.00000e+00,2.01923e-13,-6.63977e-01,2.07435e-13,-6.63977e-01,8.38252e-14,-6.63977e-01
8.33331e+02,7.30000e+02,7.43000e+02,-1.30000e+01,2.37048e-13,-6.56432e-01,2.02008e-13,-6.56432e-01,6.13240e-14,-6.56432e-01
8.33579e+02,7.40000e+02,7.35000e+02,5.00000e+00,6.89104e-14,-6.48887e-01,1.27949e-13,-6.48887e-01,1.12116e-13,-6.48887e-01
8.33828e+02,7.24000e+02,7.20000e+02,4.00000e+00,7.22969e-14,-6.41342e-01,9.55420e-14,-6.41342e-01,7.74455e-14,-6.41342e-01
8.34076e+02,7.24000e+02,7.26000e+02,-2.00000e+00,1.14312e-13,-6.33797e-01,1.36540e-13,-6.33797e-01,6.98922e-14,-6.33797e-01
8.34324e+02,7.37000e+02,7.32000e+02,5.00000e+00,7.78922e-14,-6.26251e-01,1.03425e-13,-6.26251e-01,1.62005e-13,-6.26251e-01
8.34573e+02,7.16000e+02,7.38000e+02,-2.20000e+01,6.69668e-14,-6.18706e-01,1.19334e-13,-6.18706e-01,1.48959e-13,-6.18706e-01
8.34821e+02,7.08000e+02,7.11000e+02,-3.00000e+00,1.77019e-13,-6.11161e-01,1.18871e-13,-6.11161e-01,8.67305e-14,-6.11161e-01
8.35069e+02,6.96000e+02,7.06000e+02,-1.00000e+01,1.32676e-13,-6.03616e-01,5.77215e-14,-6.03616e-01,1.90382e-13,-6.03616e-01
8.35318e+02,7.12000e+02,6.98000e+02,1.40000e+01,1.14384e-13,-5.96071e-01,4.40806e-14,-5.96071e-01,7.23387e-14,-5.96071e-01
8.35566e+02,6.90000e+02,6.90000e+02,0.00000e+00,5.40114e-14,-5.88525e-01,1.31689e-13,-5.88525e-01,7.78999e-14,-5.88525e-01
8.35814e+02,6.89000e+02,6.92000e+02,-3.00000e+00,5.01884e-14,-5.80980e-01,4.88420e-14,-5.80980e-01,1.75251e-15,-5.80980e-01
8.36062e+02,6.90000e+02,7.00000e+02,-1.00000e+01,7.99000e-14,-5.73435e-01,1.35615e-13,-5.73435e-01,6.23537e-14,-5.73435e-01
8.36311e+02,6.89000e+02,6.86000e+02,3.00000e+00,7.95836e-14,-5.65890e-01,6.99469e-14,-5.65890e-01,1.37105e-13,-5.65890e-01
8.36559e+02,6.94000e+02,7.05000e+02,-1.10000e+01,7.90426e-14,-5.58345e-01,4.48766e-14,-5.58345e-01,6.73877e-14,-5.58345e-01
8.36807e+02,6.76000e+02,6.89000e+02,-1.30000e+01,1.14913e-13,-5.50799e-01,7.25466e-14,-5.50799e-01,1.47440e-13,-5.50799e-01
8.37055e+02,7.00000e+02,6.75000e+02,2.50000e+01,4.75140e-14,-5.43254e-01,3.21830e-14,-5.43254e-01,3.49554e-14,-5.43254e-01
8.37304e+02,6.80000e+02,6.79000e+02,1.00000e+00,1.07971e-13,-5.35709e-01,1.33073e-13,-5.35709e-01,9.76233e-14,-5.35709e-01
8.37552e+02,6.76000e+02,6.81000e+02,-5.00000e+00,4.65907e-14,-5.28164e-01,8.26916e-14,-5.28164e-01,7.71704e-14,-5.28164e-01
8.37800e+02,6.82000e+02,6.69000e+02,1.30000e+01,9.65228e-14,-5.20619e-01,1.56879e-13,-5.20619e-01,1.94029e-13,-5.20619e-01
8.38048e+02,6.73000e+02,6.73000e+02,0.00000e+00,1.83971e-13,-5.13073e-01,1.42413e-13,-5.13073e-01,3.26382e-13,-5.13073e-01
8.38296e+02,6.62000e+02,6.85000e+02,-2.30000e+01,3.43053e-13,-5.05528e-01,2.21971e-13,-5.05528e-01,5.35878e-13,-5.05528e-01
8.38545e+02,6.80000e+02,6.81000e+02,-1.00000e+00,3.90943e-13,-4.97983e-01,2.22225e-13,-4.97983e-01,5.63447e-13,-4.97983e-01
8.38793e+02,6.81000e+02,6.92000e+02,-1.10000e+01,2.36368e-13,-4.90438e-01,2.43442e-13,-4.90438e-01,4.63132e-13,-4.90438e-01
8.39041e+02,6.73000e+02,6.93000e+02,-2.00000e+01,1.67518e-13,-4.82893e-01,1.29734e-13,-4.82893e-01,2.69764e-13,-4.82893e-01
8.39289e+02,6.61000e+02,6.68000e+02,-7.00000e+00,6.86651e-14,-4.75347e-01,9.42630e-14,-4.75347e-01,1.20396e-13,-4.75347e-01
8.39537e+02,6.57000e+02,6.66000e+02,-9.00000e+00,1.19380e-14,-4.67802e-01,1.50264e-13,-4.67802e-01,1.48750e-13,-4.67802e-01
8.39785e+02,6.61000e+02,6.57000e+02,4.00000e+00,6.85751e-14,-4.60257e-01,2.29311e-13,-4.60257e-01,2.70778e-13,-4.60257e-01
8.40033e+02,6.80000e+02,6.84000e+02,-4.00000e+00,1.43984e-13,-4.52712e-01,5.80557e-14,-4.52712e-01,1.42180e-13,-4.52712e-01
8.40281e+02,6.61000e+02,6.71000e+02,-1.00000e+01,3.23582e-13,-4.45167e-01,8.90753e-14,-4.45167e-01,2.46347e-13,-4.45167e-01
8.40530e+02,6.67000e+02,6.55000e+02,1.20000e+01,1.75242e-13,-4.37621e-01,6.11430e-14,-4.37621e-01,1.50357e-13,-4.37621e-01
8.40778e+02,6.78000e+02,6.72000e+02,6.00000e+00,9.69013e-14,-4.30076e-01,6.59302e-14,-4.30076e-01,7.82627e-14,-4.30076e-01
8.41026e+02,6.62000e+02,6.74000e+02,-1.20000e+01,2.21757e-13,-4.22531e-01,1.47716e-13,-4.22531e-01,9.06614e-14,-4.22531e-01
8.41274e+02,6.70000e+02,6.61000e+02,9.00000e+00,2.55701e-13,-4.14986e-01,1.06350e-13,-4.14986e-01,1.53610e-13,-4.14986e-01
8.41522e+02,6.66000e+02,6.61000e+02,5.00000e+00,3.76779e-13,-4.07441e-01,3.20186e-13,-4.07441e-01,5.78325e-14,-4.07441e-01
8.41770e+02,6.56000e+02,6.56000e+02,0.00000e+00,1.89147e-13,-3.99895e-01,2.23622e-13,-3.99895e-01,5.00851e-14,-3.99895e-01
8.42018e+02,6.64000e+02,6.71000e+02,-7.00000e+00,4.25271e-14,-3.92350e-01,2.02999e-13,-3.92350e-01,1.60575e-13,-3.92350e-01
8.42266e+02,6.61000e+02,6.60000e+02,1.00000e+00,8.27871e-14,-3.84805e-01,1.68851e-13,-3.84805e-01,2.42869e-13,-3.84805e-01
8.42514e+02,6.69000e+02,6.62000e+02,7.00000e+00,2.45444e-13,-3.77260e-01,2.38907e-13,-3.77260e-01,1.53147e-13,-3.77260e-01
8.42762e+02,6.57000e+02,6.78000e+02,-2.10000e+01,8.92953e-14,-3.69715e-01,1.19293e-13,-3.69715e-01,1.04691e-13,-3.69715e-01
8.43010e+02,6.82000e+02,6.91000e+02,-9.00000e+00,4.88616e-14,-3.62169e-01,1.19580e-13,-3.62169e-01,7.19897e-14,-3.62169e-01
8.43258e+02,6.63000e+02,6.78000e+02,-1.50000e+01,1.87287e-13,-3.54624e-01,1.51195e-13,-3.54624e-01,9.38975e-14,-3.54624e-01
8.43506e+02,6.69000e+02,6.66000e+02,3.00000e+00,1.53708e-13,-3.47079e-01,2.71804e-13,-3.47079e-01,1.68307e-13,-3.47079e-01
8.43754e+02,6.67000e+02,6.71000e+02,-4.00000e+00,3.55065e-13,-3.39534e-01,5.68036e-13,-3.39534e-01,2.31576e-13,-3.39534e-01
8.44002e+02,6.81000e+02,6.59000e+02,2.20000e+01,2.83430e-13,-3.31989e-01,4.52246e-13,-3.31989e-01,1.69676e-13,-3.31989e-01
8.44250e+02,6.57000e+02,6.59000e+02,-2.00000e+00,2.82940e-13,-3.24444e-01,2.84208e-13,-3.24444e-01,9.20071e-14,-3.24444e-01
8.44498e+02,6.65000e+02,6.65000e+02,0.00000e+00,2.65684e-13,-3.16898e-01,2.61514e-13,-3.16898e-01,1.32858e-13,-3.16898e-01
8.44746e+02,6.52000e+02,6.64000e+02,-1.20000e+01,3.20724e-13,-3.09353e-01,2.16943e-13,-3.09353e-01,1.04464e-13,-3.09353e-01
8.44994e+02,6.62000e+02,6.51000e+02,1.10000e+01,3.02463e-13,-3.01808e-01,2.69523e-13,-3.01808e-01,9.55259e-14,-3.01808e-01
8.45242e+02,6.77000e+02,6.53000e+02,2.40000e+01,7.89061e-14,-2.94263e-01,1.81619e-13,-2.94263e-01,1.58904e-13,-2.94263e-01
8.45490e+02,6.61000e+02,6.53000e+02,8.00000e+00,1.03190e-13,-2.86718e-01,2.26477e-13,-2.86718e-01,2.69180e-13,-2.86718e-01
8.45738e+02,6.51000e+02,6.41000e+02,1.00000e+01,1.71047e-13,-2.79172e-01,4.47460e-13,-2.79172e-01,2.76738e-13,-2.79172e-01
8.45985e+02,6.55000e+02,6.75000e+02,-2.00000e+01,1.30821e-13,-2.71627e-01,4.17930e-13,-2.71627e-01,2.87829e-13,-2.71627e-01
8.46233e+02,6.67000e+02,6.69000e+02,-2.00000e+00,3.26689e-14,-2.64082e-01,4.02867e-13,-2.64082e-01,4.16354e-13,-2.64082e-01
8.46481e+02,6.66000e+02,6.63000e+02,3.00000e+00,1.61810e-13,-2.56537e-01,3.67702e-13,-2.56537e-01,3.37970e-13,-2.56537e-01
8.46729e+02,6.62000e+02,6.67000e+02,-5.00000e+00,2.49862e-13,-2.48992e-01,2.50513e-13,-2.48992e-01,8.46916e-14,-2.48992e-01
8.46977e+02,6.65000e+02,6.76000e+02,-1.10000e+01,1.35844e-13,-2.41446e-01,1.73127e-13,-2.41446e-01,4.68066e-14,-2.41446e-01
8.47225e+02,6.78000e+02,6.68000e+02,1.00000e+01,1.58387e-13,-2.33901e-01,3.54855e-13,-2.33901e-01,2.13253e-13,-2.33901e-01
8.47473e+02,6.68000e+02,6.60000e+02,8.00000e+00,3.88847e-13,-2.26356e-01,3.54690e-13,-2.26356e-01,2.13379e-13,-2.26356e-01
8.47720e+02,6.59000e+02,6.57000e+02,2.00000e+00,2.90520e-13,-2.18811e-01,2.70903e-13,-2.18811e-01,1.53059e-13,-2.18811e-01
8.47968e+02,6.67000e+02,6.47000e+02,2.00000e+01,4.63779e-13,-2.11266e-01,2.76182e-13,-2.11266e-01,1.93178e-13,-2.11266e-01
8.48216e+02,6.70000e+02,6.71000e+02,-1.00000e+00,3.15734e-13,-2.03720e-01,3.53892e-13,-2.03720e-01,8.05519e-14,-2.03720e-01
8.48464e+02,6.54000e+02,6.58000e+02,-4.00000e+00,2.34534e-13,-1.96175e-01,3.62857e-13,-1.96175e-01,3.15348e-13,-1.96175e-01
8.48712e+02,6.53000e+02,6.60000e+02,-7.00000e+00,1.64912e-13,-1.88630e-01,5.08723e-13,-1.88630e-01,4.17610e-13,-1.88630e-01
8.48960e+02,6.66000e+02,6.65000e+02,1.00000e+00,2.35645e-13,-1.81085e-01,1.07760e-13,-1.81085e-01,2.75979e-13,-1.81085e-01
8.49207e+02,6.69000e+02,6.74000e+02,-5.00000e+00,4.26020e-14,-1.73540e-01,2.97885e-13,-1.73540e-01,2.79564e-13,-1.73540e-01
8.49455e+02,6.65000e+02,6.62000e+02,3.00000e+00,2.66266e-13,-1.65994e-01,3.27679e-13,-1.65994e-01,7.28890e-14,-1.65994e-01
8.49703e+02,6.71000e+02,6.38000e+02,3.30000e+01,5.14925e-13,-1.58449e-01,3.74593e-13,-1.58449e-01,1.99247e-13,-1.58449e-01
8.49951e+02,6.61000e+02,6.64000e+02,-3.00000e+00,5.79270e-13,-1.50904e-01,4.96793e-13,-1.50904e-01,5.03938e-13,-1.50904e-01
8.50198e+02,6.66000e+02,6.57000e+02,9.00000e+00,3.84739e-13,-1.43359e-01,6.52118e-13,-1.43359e-01,5.52004e-13,-1.43359e-01
8.50446e+02,6.62000e+02,6.51000e+02,1.10000e+01,4.09367e-13,-1.35814e-01,3.00917e-13,-1.35814e-01,3.17571e-13,-1.35814e-01
8.50694e+02,6.61000e+02,6.53000e+02,8.00000e+00,3.79634e-13,-1.28268e-01,2.22288e-13,-1.28268e-01,1.78723e-13,-1.28268e-01
8.50941e+02,6.80000e+02,6.76000e+02,4.00000e+00,5.64486e-13,-1.20723e-01,7.17745e-13,-1.20723e-01,2.28546e-13,-1.20723e-01
8.51189e+02,6.66000e+02,6.75000e+02,-9.00000e+00,7.76032e-13,-1.13178e-01,7.15307e-13,-1.13178e-01,1.82978e-13,-1.13178e-01
8.51437e+02,6.64000e+02,6.57000e+02,7.00000e+00,3.87768e-13,-1.05633e-01,1.56756e-13,-1.05633e-01,2.48603e-13,-1.05633e-01
8.51685e+02,6.51000e+02,6.45000e+02,6.00000e+00,4.94357e-13,-9.80876e-02,5.82302e-13,-9.80876e-02,5.15333e-13,-9.80876e-02
8.51932e+02,6.55000e+02,6.67000e+02,-1.20000e+01,4.05510e-13,-9.05424e-02,1.09756e-12,-9.05424e-02,7.62318e-13,-9.05424e-02
8.52180e+02,6.63000e+02,6.80000e+02,-1.70000e+01,3.76696e-13,-8.29972e-02,8.39016e-13,-8.29972e-02,5.78587e-13,-8.29972e-02
8.52428e+02,6.60000e+02,6.53000e+02,7.00000e+00,6.11930e-13,-7.54520e-02,7.06449e-13,-7.54520e-02,2.01743e-13,-7.54520e-02
8.52675e+02,6.63000e+02,6.62000e+02,1.00000e+00,2.67141e-13,-6.79068e-02,6.58650e-13,-6.79068e-02,5.39046e-13,-6.79068e-02
8.52923e+02,6.64000e+02,6.75000e+02,-1.10000e+01,1.89037e-13,-6.03616e-02,6.13064e-13,-6.03616e-02,6.67712e-13,-6.03616e-02
8.53170e+02,6.70000e+02,6.75000e+02,-5.00000e+00,5.65169e-13,-5.28164e-02,6.97673e-13,-5.28164e-02,5.35748e-13,-5.28164e-02
8.53418e+02,6.61000e+02,6.72000e+02,-1.10000e+01,2.22322e-12,-4.52712e-02,2.03948e-12,-4.52712e-02,2.93805e-13,-4.52712e-02
8.53666e+02,6.61000e+02,6.51000e+02,1.00000e+01,2.40339e-12,-3.77260e-02,2.67966e-12,-3.77260e-02,5.01212e-13,-3.77260e-02
8.53913e+02,6.76000e+02,6.82000e+02,-6.00000e+00,3.90202e-12,-3.01808e-02,4.36542e-12,-3.01808e-02,4.96957e-13,-3.01808e-02
8.54161e+02,6.64000e+02,6.55000e+02,9.00000e+00,1.50840e-12,-2.26356e-02,1.12037e-12,-2.26356e-02,5.46437e-13,-2.26356e-02
8.54409e+02,6.58000e+02,6.57000e+02,1.00000e+00,8.04356e-12,-1.50904e-02,8.07526e-12,-1.50904e-02,4.53890e-13,-1.50904e-02
8.54656e+02,6.63000e+02,6.62000e+02,1.00000e+00,1.73092e-11,-7.54520e-03,1.78804e-11,-7.54520e-03,6.27910e-13,-7.54520e-03
