7.67698e+02,6.66000e+02,6.65000e+02,1.00000e+00,1.11175e-10,0.00000e+00,1.11271e-10,0.00000e+00,9.66444e-14,0.00000e+00
7.67949e+02,6.77000e+02,6.70000e+02,7.00000e+00,2.99315e-11,7.54520e-03,3.00744e-11,7.54520e-03,3.86342e-13,7.54520e-03
7.68199e+02,6.64000e+02,6.61000e+02,3.00000e+00,1.38763e-11,1.50904e-02,1.40110e-11,1.50904e-02,3.18229e-13,1.50904e-02
7.68450e+02,6.64000e+02,6.78000e+02,-1.40000e+01,3.50330e-12,2.26356e-02,3.38456e-12,2.26356e-02,4.09611e-13,2.26356e-02
7.68701e+02,6.66000e+02,6.83000e+02,-1.70000e+01,3.56300e-12,3.01808e-02,3.86785e-12,3.01808e-02,3.69107e-13,3.01808e-02
7.68951e+02,6.71000e+02,6.72000e+02,-1.00000e+00,1.91721e-12,3.77260e-02,2.41627e-12,3.77260e-02,5.01988e-13,3.77260e-02
7.69202e+02,6.92000e+02,6.71000e+02,2.10000e+01,1.64867e-12,4.52712e-02,2.02715e-12,4.52712e-02,5.62535e-13,4.52712e-02
7.69453e+02,6.78000e+02,6.75000e+02,3.00000e+00,1.30717e-12,5.28164e-02,9.24196e-13,5.28164e-02,4.37537e-13,5.28164e-02
7.69703e+02,6.72000e+02,6.66000e+02,6.00000e+00,7.69682e-13,6.03616e-02,6.83673e-13,6.03616e-02,9.81490e-14,6.03616e-02
7.69954e+02,6.66000e+02,6.92000e+02,-2.60000e+01,5.44779e-13,6.79068e-02,7.84528e-13,6.79068e-02,2.69967e-13,6.79068e-02
7.70205e+02,6.92000e+02,6.90000e+02,2.00000e+00,4.89171e-13,7.54520e-02,3.33802e-13,7.54520e-02,3.12626e-13,7.54520e-02
7.70455e+02,6.83000e+02,6.83000e+02,0.00000e+00,8.88702e-13,8.29972e-02,7.04110e-13,8.29972e-02,3.99700e-13,8.29972e-02
7.70706e+02,6.81000e+02,6.99000e+02,-1.80000e+01,1.28905e-12,9.05424e-02,7.70766e-13,9.05424e-02,5.19473e-13,9.05424e-02
7.70957e+02,6.80000e+02,6.94000e+02,-1.40000e+01,1.23152e-12,9.80876e-02,7.84737e-13,9.80876e-02,4.58068e-13,9.80876e-02
7.71207e+02,6.95000e+02,6.96000e+02,-1.00000e+00,1.17251e-12,1.05633e-01,1.22463e-12,1.05633e-01,3.20247e-13,1.05633e-01
7.71458e+02,7.07000e+02,7.02000e+02,5.00000e+00,4.18383e-13,1.13178e-01,6.10544e-13,1.13178e-01,3.59161e-13,1.13178e-01
7.71708e+02,6.96000e+02,7.02000e+02,-6.00000e+00,4.27379e-13,1.20723e-01,9.32232e-13,1.20723e-01,6.63214e-13,1.20723e-01
7.71959e+02,6.99000e+02,6.99000e+02,0.00000e+00,1.75387e-13,1.28268e-01,1.32296e-12,1.28268e-01,1.18649e-12,1.28268e-01
7.72210e+02,6.99000e+02,6.92000e+02,7.00000e+00,4.75574e-13,1.35814e-01,1.75440e-12,1.35814e-01,1.84112e-12,1.35814e-01
7.72460e+02,7.05000e+02,6.91000e+02,1.40000e+01,1.82579e-12,1.43359e-01,1.74608e-12,1.43359e-01,2.95020e-12,1.43359e-01
7.72711e+02,7.11000e+02,7.02000e+02,9.00000e+00,2.39052e-12,1.50904e-01,2.16127e-12,1.50904e-01,4.08757e-12,1.50904e-01
7.72961e+02,7.15000e+02,7.05000e+02,1.00000e+01,1.83623e-12,1.58449e-01,1.26694e-12,1.58449e-01,2.72282e-12,1.58449e-01
7.73212e+02,7.32000e+02,7.32000e+02,0.00000e+00,2.83812e-13,1.65994e-01,4.34375e-13,1.65994e-01,3.08057e-13,1.65994e-01
7.73462e+02,7.36000e+02,7.27000e+02,9.00000e+00,4.53239e-13,1.73540e-01,6.52404e-13,1.73540e-01,1.09207e-12,1.73540e-01
7.73713e+02,7.38000e+02,7.35000e+02,3.00000e+00,9.37389e-13,1.81085e-01,2.12746e-13,1.81085e-01,1.13278e-12,1.81085e-01
7.73963e+02,7.41000e+02,7.34000e+02,7.00000e+00,7.73727e-13,1.88630e-01,1.12070e-13,1.88630e-01,7.39076e-13,1.88630e-01
7.74214e+02,7.35000e+02,7.20000e+02,1.50000e+01,8.25432e-13,1.96175e-01,2.93663e-13,1.96175e-01,5.32260e-13,1.96175e-01
7.74465e+02,7.58000e+02,7.56000e+02,2.00000e+00,3.61113e-13,2.03720e-01,1.90031e-13,2.03720e-01,3.25967e-13,2.03720e-01
7.74715e+02,7.41000e+02,7.41000e+02,0.00000e+00,3.45463e-13,2.11266e-01,2.90331e-13,2.11266e-01,2.87886e-13,2.11266e-01
7.74965e+02,7.45000e+02,7.45000e+02,0.00000e+00,2.32414e-13,2.18811e-01,5.24225e-13,2.18811e-01,2.95605e-13,2.18811e-01
7.75216e+02,7.46000e+02,7.44000e+02,2.00000e+00,1.13676e-13,2.26356e-01,3.12321e-13,2.26356e-01,2.88684e-13,2.26356e-01
7.75466e+02,7.63000e+02,7.44000e+02,1.90000e+01,1.45985e-13,2.33901e-01,1.97891e-13,2.33901e-01,2.07952e-13,2.33901e-01
7.75717e+02,7.58000e+02,7.52000e+02,6.00000e+00,2.27543e-14,2.41446e-01,5.89315e-14,2.41446e-01,4.22893e-14,2.41446e-01
7.75967e+02,7.59000e+02,7.46000e+02,1.30000e+01,4.15195e-13,2.48992e-01,4.23405e-14,2.48992e-01,4.35033e-13,2.48992e-01
7.76218e+02,7.78000e+02,7.57000e+02,2.10000e+01,4.04109e-13,2.56537e-01,2.07200e-13,2.56537e-01,5.32756e-13,2.56537e-01
7.76468e+02,7.85000e+02,7.75000e+02,1.00000e+01,4.46440e-13,2.64082e-01,4.16642e-13,2.64082e-01,7.30447e-13,2.64082e-01
7.76719e+02,8.01000e+02,7.84000e+02,1.70000e+01,3.29113e-13,2.71627e-01,3.60975e-13,2.71627e-01,6.89140e-13,2.71627e-01
7.76969e+02,7.71000e+02,7.62000e+02,9.00000e+00,3.18828e-13,2.79172e-01,1.77507e-13,2.79172e-01,4.59903e-13,2.79172e-01
7.77219e+02,7.85000e+02,7.64000e+02,2.10000e+01,2.00709e-13,2.86718e-01,1.76306e-13,2.86718e-01,2.44675e-13,2.86718e-01
7.77470e+02,7.65000e+02,7.80000e+02,-1.50000e+01,3.79570e-13,2.94263e-01,4.66252e-13,2.94263e-01,3.22290e-13,2.94263e-01
7.77720e+02,7.98000e+02,7.90000e+02,8.00000e+00,5.66811e-13,3.01808e-01,6.95257e-13,3.01808e-01,1.30550e-13,3.01808e-01
7.77971e+02,8.06000e+02,7.85000e+02,2.10000e+01,9.28573e-13,3.09353e-01,7.09078e-13,3.09353e-01,2.85164e-13,3.09353e-01
7.78221e+02,8.13000e+02,8.06000e+02,7.00000e+00,1.46032e-12,3.16898e-01,1.24322e-12,3.16898e-01,2.17111e-13,3.16898e-01
7.78471e+02,8.26000e+02,8.12000e+02,1.40000e+01,1.60616e-12,3.24444e-01,1.71660e-12,3.24444e-01,3.11664e-13,3.24444e-01
7.78722e+02,7.95000e+02,7.99000e+02,-4.00000e+00,1.52196e-12,3.31989e-01,1.63104e-12,3.31989e-01,3.30018e-13,3.31989e-01
7.78972e+02,7.75000e+02,7.86000e+02,-1.10000e+01,8.04894e-13,3.39534e-01,7.29677e-13,3.39534e-01,1.57247e-13,3.39534e-01
7.79222e+02,8.10000e+02,8.16000e+02,-6.00000e+00,2.68774e-13,3.47079e-01,3.29554e-13,3.47079e-01,1.38619e-13,3.47079e-01
7.79473e+02,8.19000e+02,8.00000e+02,1.90000e+01,4.61011e-13,3.54624e-01,4.17832e-13,3.54624e-01,5.10993e-13,3.54624e-01
7.79723e+02,7.96000e+02,8.05000e+02,-9.00000e+00,3.51610e-13,3.62169e-01,4.00386e-13,3.62169e-01,6.51513e-13,3.62169e-01
7.79973e+02,7.68000e+02,8.04000e+02,-3.60000e+01,2.62333e-13,3.69715e-01,4.29783e-13,3.69715e-01,4.32308e-13,3.69715e-01
7.80224e+02,7.89000e+02,7.93000e+02,-4.00000e+00,1.56914e-13,3.77260e-01,4.79535e-13,3.77260e-01,3.76380e-13,3.77260e-01
7.80474e+02,8.08000e+02,7.92000e+02,1.60000e+01,9.77366e-14,3.84805e-01,3.10756e-13,3.84805e-01,2.76762e-13,3.84805e-01
7.80724e+02,8.06000e+02,7.97000e+02,9.00000e+00,2.29957e-13,3.92350e-01,3.23843e-14,3.92350e-01,2.53738e-13,3.92350e-01
7.80974e+02,7.90000e+02,8.06000e+02,-1.60000e+01,2.30789e-13,3.99895e-01,3.54117e-13,3.99895e-01,5.84240e-13,3.99895e-01
7.81225e+02,8.19000e+02,8.11000e+02,8.00000e+00,3.41119e-13,4.07441e-01,3.31861e-13,4.07441e-01,6.53352e-13,4.07441e-01
7.81475e+02,8.06000e+02,7.95000e+02,1.10000e+01,2.05631e-13,4.14986e-01,3.91370e-13,4.14986e-01,5.44042e-13,4.14986e-01
7.81725e+02,8.18000e+02,7.96000e+02,2.20000e+01,3.68082e-13,4.22531e-01,3.36083e-14,4.22531e-01,3.97249e-13,4.22531e-01
7.81975e+02,8.21000e+02,7.93000e+02,2.80000e+01,2.51947e-13,4.30076e-01,2.69068e-13,4.30076e-01,4.11414e-13,4.30076e-01
7.82226e+02,8.17000e+02,7.95000e+02,2.20000e+01,2.71194e-13,4.37621e-01,1.76570e-13,4.37621e-01,1.90664e-13,4.37621e-01
7.82476e+02,8.24000e+02,7.97000e+02,2.70000e+01,2.19073e-13,4.45167e-01,5.03570e-13,4.45167e-01,5.22933e-13,4.45167e-01
7.82726e+02,8.26000e+02,8.12000e+02,1.40000e+01,2.90701e-13,4.52712e-01,9.69008e-13,4.52712e-01,1.24152e-12,4.52712e-01
7.82976e+02,8.01000e+02,7.99000e+02,2.00000e+00,7.91304e-13,4.60257e-01,1.41782e-12,4.60257e-01,2.09410e-12,4.60257e-01
7.83226e+02,8.00000e+02,7.93000e+02,7.00000e+00,1.03664e-12,4.67802e-01,1.54651e-12,4.67802e-01,2.43092e-12,4.67802e-01
7.83477e+02,7.92000e+02,8.00000e+02,-8.00000e+00,1.24107e-12,4.75347e-01,1.33332e-12,4.75347e-01,2.42012e-12,4.75347e-01
7.83727e+02,8.00000e+02,8.13000e+02,-1.30000e+01,1.01904e-12,4.82893e-01,1.03070e-12,4.82893e-01,1.97146e-12,4.82893e-01
7.83977e+02,7.91000e+02,8.33000e+02,-4.20000e+01,6.58641e-13,4.90438e-01,6.16275e-13,4.90438e-01,1.10695e-12,4.90438e-01
7.84227e+02,7.68000e+02,7.93000e+02,-2.50000e+01,4.12211e-13,4.97983e-01,6.45414e-13,4.97983e-01,1.01243e-12,4.97983e-01
7.84477e+02,7.77000e+02,7.78000e+02,-1.00000e+00,6.62652e-13,5.05528e-01,6.18073e-13,5.05528e-01,1.24759e-12,5.05528e-01
7.84727e+02,7.80000e+02,7.96000e+02,-1.60000e+01,5.31218e-13,5.13073e-01,5.82287e-13,5.13073e-01,9.98942e-13,5.13073e-01
7.84978e+02,7.69000e+02,7.86000e+02,-1.70000e+01,3.28050e-13,5.20619e-01,5.35857e-13,5.20619e-01,8.07469e-13,5.20619e-01
7.85228e+02,7.78000e+02,8.05000e+02,-2.70000e+01,2.25472e-13,5.28164e-01,5.31026e-13,5.28164e-01,7.51680e-13,5.28164e-01
7.85478e+02,7.78000e+02,8.05000e+02,-2.70000e+01,3.45089e-13,5.35709e-01,4.09944e-13,5.35709e-01,7.19584e-13,5.35709e-01
7.85728e+02,7.84000e+02,7.81000e+02,3.00000e+00,3.84638e-13,5.43254e-01,3.86561e-13,5.43254e-01,7.66265e-13,5.43254e-01
7.85978e+02,7.94000e+02,7.71000e+02,2.30000e+01,2.49141e-13,5.50799e-01,2.16065e-13,5.50799e-01,4.21702e-13,5.50799e-01
7.86228e+02,7.69000e+02,7.53000e+02,1.60000e+01,4.64869e-14,5.58345e-01,1.02194e-13,5.58345e-01,1.48171e-13,5.58345e-01
7.86478e+02,7.70000e+02,7.53000e+02,1.70000e+01,1.31799e-13,5.65890e-01,1.69649e-13,5.65890e-01,4.08880e-14,5.65890e-01
7.86728e+02,7.52000e+02,7.55000e+02,-3.00000e+00,2.86501e-13,5.73435e-01,2.38075e-13,5.73435e-01,3.06362e-13,5.73435e-01
7.86978e+02,7.73000e+02,7.25000e+02,4.80000e+01,3.63520e-13,5.80980e-01,2.16736e-13,5.80980e-01,2.85364e-13,5.80980e-01
7.87228e+02,7.80000e+02,7.48000e+02,3.20000e+01,3.36990e-13,5.88525e-01,1.39455e-13,5.88525e-01,2.73410e-13,5.88525e-01
7.87478e+02,7.86000e+02,7.72000e+02,1.40000e+01,2.40200e-13,5.96071e-01,1.22455e-13,5.96071e-01,2.33670e-13,5.96071e-01
7.87728e+02,7.96000e+02,7.68000e+02,2.80000e+01,1.08625e-13,6.03616e-01,1.39315e-13,6.03616e-01,2.32154e-13,6.03616e-01
7.87978e+02,7.78000e+02,7.90000e+02,-1.20000e+01,2.21805e-13,6.11161e-01,1.48100e-13,6.11161e-01,3.68091e-13,6.11161e-01
7.88228e+02,7.57000e+02,7.76000e+02,-1.90000e+01,1.92633e-13,6.18706e-01,2.40610e-13,6.18706e-01,3.12635e-13,6.18706e-01
7.88478e+02,7.89000e+02,7.64000e+02,2.50000e+01,3.34967e-13,6.26251e-01,3.30542e-13,6.26251e-01,1.65791e-13,6.26251e-01
7.88728e+02,7.73000e+02,8.07000e+02,-3.40000e+01,1.93492e-13,6.33797e-01,2.37401e-13,6.33797e-01,8.66973e-14,6.33797e-01
7.88978e+02,7.60000e+02,8.46000e+02,-8.60000e+01,1.37140e-13,6.41342e-01,2.23850e-13,6.41342e-01,1.04110e-13,6.41342e-01
7.89228e+02,7.82000e+02,8.61000e+02,-7.90000e+01,2.78953e-13,6.48887e-01,1.97139e-13,6.48887e-01,4.47355e-13,6.48887e-01
7.89478e+02,8.03000e+02,8.27000e+02,-2.40000e+01,1.63753e-13,6.56432e-01,1.73999e-13,6.56432e-01,2.78053e-13,6.56432e-01
7.89728e+02,7.97000e+02,7.66000e+02,3.10000e+01,1.88143e-13,6.63977e-01,1.02832e-13,6.63977e-01,2.12358e-13,6.63977e-01
7.89978e+02,8.18000e+02,7.55000e+02,6.30000e+01,1.37161e-13,6.71523e-01,1.86417e-13,6.71523e-01,1.64193e-13,6.71523e-01
7.90228e+02,8.07000e+02,7.57000e+02,5.00000e+01,6.34738e-14,6.79068e-01,2.82401e-13,6.79068e-01,2.22391e-13,6.79068e-01
7.90478e+02,7.86000e+02,7.69000e+02,1.70000e+01,5.41682e-14,6.86613e-01,2.89028e-13,6.86613e-01,2.67015e-13,6.86613e-01
7.90728e+02,8.17000e+02,7.58000e+02,5.90000e+01,4.76589e-14,6.94158e-01,2.91392e-13,6.94158e-01,2.99674e-13,6.94158e-01
7.90978e+02,8.36000e+02,7.49000e+02,8.70000e+01,1.08637e-13,7.01703e-01,1.86750e-13,7.01703e-01,2.47535e-13,7.01703e-01
7.91228e+02,8.98000e+02,7.80000e+02,1.18000e+02,1.74752e-13,7.09249e-01,9.74468e-14,7.09249e-01,1.15966e-13,7.09249e-01
7.91478e+02,8.58000e+02,8.03000e+02,5.50000e+01,2.37643e-13,7.16794e-01,2.39501e-13,7.16794e-01,8.80150e-14,7.16794e-01
7.91728e+02,8.13000e+02,8.09000e+02,4.00000e+00,2.29723e-13,7.24339e-01,2.31549e-13,7.24339e-01,8.68774e-15,7.24339e-01
7.91977e+02,7.52000e+02,7.86000e+02,-3.40000e+01,2.76590e-13,7.31884e-01,1.99185e-13,7.31884e-01,1.73193e-13,7.31884e-01
7.92227e+02,7.88000e+02,7.79000e+02,9.00000e+00,1.82284e-13,7.39429e-01,4.08007e-14,7.39429e-01,1.58857e-13,7.39429e-01
7.92477e+02,8.16000e+02,7.93000e+02,2.30000e+01,1.31631e-13,7.46975e-01,9.10709e-14,7.46975e-01,2.14343e-13,7.46975e-01
7.92727e+02,7.85000e+02,8.24000e+02,-3.90000e+01,1.62569e-13,7.54520e-01,1.11534e-13,7.54520e-01,2.23050e-13,7.54520e-01
7.92977e+02,7.78000e+02,8.94000e+02,-1.16000e+02,1.46389e-13,7.62065e-01,1.67988e-13,7.62065e-01,2.30482e-13,7.62065e-01
7.93227e+02,7.65000e+02,9.19000e+02,-1.54000e+02,2.01366e-13,7.69610e-01,2.37611e-13,7.69610e-01,1.72511e-13,7.69610e-01
7.93476e+02,7.93000e+02,8.71000e+02,-7.80000e+01,2.54076e-13,7.77155e-01,2.30771e-13,7.77155e-01,1.36324e-13,7.77155e-01
7.93726e+02,8.20000e+02,8.21000e+02,-1.00000e+00,3.15074e-13,7.84701e-01,2.27884e-13,7.84701e-01,2.78706e-13,7.84701e-01
7.93976e+02,7.96000e+02,7.86000e+02,1.00000e+01,2.68071e-13,7.92246e-01,1.84799e-13,7.92246e-01,3.48536e-13,7.92246e-01
7.94226e+02,7.77000e+02,8.17000e+02,-4.00000e+01,2.04362e-13,7.99791e-01,1.53833e-13,7.99791e-01,2.86498e-13,7.99791e-01
7.94476e+02,7.81000e+02,8.24000e+02,-4.30000e+01,2.36148e-13,8.07336e-01,9.33504e-14,8.07336e-01,3.29441e-13,8.07336e-01
7.94725e+02,8.35000e+02,8.35000e+02,0.00000e+00,1.76130e-13,8.14881e-01,1.32711e-13,8.14881e-01,1.44825e-13,8.14881e-01
7.94975e+02,9.00000e+02,7.93000e+02,1.07000e+02,1.27687e-13,8.22427e-01,3.08582e-13,8.22427e-01,1.93434e-13,8.22427e-01
7.95225e+02,9.64000e+02,7.99000e+02,1.65000e+02,1.22078e-13,8.29972e-01,1.64175e-13,8.29972e-01,1.04662e-13,8.29972e-01
7.95475e+02,9.85000e+02,8.21000e+02,1.64000e+02,1.91122e-14,8.37517e-01,1.25915e-13,8.37517e-01,1.20268e-13,8.37517e-01
7.95724e+02,9.30000e+02,8.44000e+02,8.60000e+01,1.82966e-13,8.45062e-01,7.91093e-14,8.45062e-01,1.09570e-13,8.45062e-01
7.95974e+02,8.64000e+02,8.11000e+02,5.30000e+01,1.49780e-13,8.52607e-01,2.05176e-13,8.52607e-01,8.35685e-14,8.52607e-01
7.96224e+02,8.73000e+02,8.39000e+02,3.40000e+01,2.45071e-13,8.60153e-01,1.76958e-13,8.60153e-01,1.28390e-13,8.60153e-01
7.96474e+02,9.17000e+02,8.80000e+02,3.70000e+01,2.15400e-13,8.67698e-01,1.22569e-13,8.67698e-01,2.33158e-13,8.67698e-01
7.96723e+02,9.82000e+02,9.64000e+02,1.80000e+01,1.66550e-13,8.75243e-01,8.15731e-14,8.75243e-01,1.22979e-13,8.75243e-01
7.96973e+02,9.49000e+02,1.10400e+03,-1.55000e+02,8.44855e-14,8.82788e-01,1.02869e-13,8.82788e-01,1.87351e-14,8.82788e-01
7.97223e+02,8.83000e+02,1.11700e+03,-2.34000e+02,8.12772e-14,8.90333e-01,1.34788e-13,8.90333e-01,5.35108e-14,8.90333e-01
7.97472e+02,8.55000e+02,9.81000e+02,-1.26000e+02,4.31154e-14,8.97879e-01,8.47189e-14,8.97879e-01,1.07370e-13,8.97879e-01
7.97722e+02,8.55000e+02,9.18000e+02,-6.30000e+01,2.96484e-14,9.05424e-01,2.40292e-14,9.05424e-01,1.96760e-14,9.05424e-01
7.97972e+02,8.61000e+02,8.84000e+02,-2.30000e+01,1.15631e-13,9.12969e-01,1.22447e-13,9.12969e-01,4.84814e-14,9.12969e-01
7.98221e+02,8.55000e+02,9.27000e+02,-7.20000e+01,1.16187e-13,9.20514e-01,5.06551e-14,9.20514e-01,1.16981e-13,9.20514e-01
7.98471e+02,8.94000e+02,9.67000e+02,-7.30000e+01,1.23169e-13,9.28059e-01,1.35323e-13,9.28059e-01,8.67956e-14,9.28059e-01
7.98721e+02,9.71000e+02,9.73000e+02,-2.00000e+00,9.30387e-14,9.35605e-01,3.10062e-15,9.35605e-01,9.00123e-14,9.35605e-01
7.98970e+02,1.11800e+03,9.20000e+02,1.98000e+02,1.31880e-13,9.43150e-01,3.06992e-14,9.43150e-01,1.61046e-13,9.43150e-01
7.99220e+02,1.19500e+03,9.44000e+02,2.51000e+02,1.49265e-13,9.50695e-01,1.42813e-13,9.50695e-01,2.47942e-13,9.50695e-01
7.99469e+02,1.15300e+03,9.98000e+02,1.55000e+02,1.17905e-13,9.58240e-01,7.05932e-14,9.58240e-01,1.76812e-13,9.58240e-01
7.99719e+02,1.05200e+03,1.04100e+03,1.10000e+01,1.20393e-13,9.65785e-01,1.58255e-13,9.65785e-01,1.56512e-13,9.65785e-01
7.99969e+02,1.05200e+03,1.04400e+03,8.00000e+00,1.29956e-13,9.73331e-01,1.86146e-13,9.73331e-01,1.10628e-13,9.73331e-01
8.00218e+02,1.08200e+03,1.01800e+03,6.40000e+01,1.40581e-13,9.80876e-01,1.42242e-13,9.80876e-01,7.75583e-14,9.80876e-01
8.00468e+02,1.20100e+03,1.03200e+03,1.69000e+02,8.80694e-14,9.88421e-01,2.31252e-13,9.88421e-01,1.93557e-13,9.88421e-01
8.00717e+02,1.22600e+03,1.13000e+03,9.60000e+01,1.10039e-13,9.95966e-01,1.62605e-13,9.95966e-01,2.65138e-13,9.95966e-01
8.00967e+02,1.15900e+03,1.30900e+03,-1.50000e+02,3.90995e-14,1.00351e+00,2.51254e-13,1.00351e+00,2.65520e-13,1.00351e+00
8.01216e+02,1.10700e+03,1.35900e+03,-2.52000e+02,8.58008e-14,1.01106e+00,1.05593e-13,1.01106e+00,1.82573e-13,1.01106e+00
8.01466e+02,1.10200e+03,1.32100e+03,-2.19000e+02,6.39994e-14,1.01860e+00,2.79172e-14,1.01860e+00,9.08786e-14,1.01860e+00
8.01715e+02,1.22000e+03,1.28300e+03,-6.30000e+01,1.49810e-13,1.02615e+00,1.08668e-13,1.02615e+00,6.22449e-14,1.02615e+00
8.01965e+02,1.26100e+03,1.23000e+03,3.10000e+01,1.41979e-13,1.03369e+00,1.02426e-13,1.03369e+00,5.39481e-14,1.03369e+00
8.02215e+02,1.22200e+03,1.25500e+03,-3.30000e+01,2.17621e-13,1.04124e+00,1.49757e-13,1.04124e+00,6.81327e-14,1.04124e+00
8.02464e+02,1.35800e+03,1.37600e+03,-1.80000e+01,1.37878e-13,1.04878e+00,1.11529e-13,1.04878e+00,5.31585e-14,1.04878e+00
8.02713e+02,1.55300e+03,1.44200e+03,1.11000e+02,4.81762e-14,1.05633e+00,7.39041e-14,1.05633e+00,5.74471e-14,1.05633e+00
8.02963e+02,1.86400e+03,1.49400e+03,3.70000e+02,9.54192e-14,1.06387e+00,6.43984e-14,1.06387e+00,4.24108e-14,1.06387e+00
8.03212e+02,1.86900e+03,1.59600e+03,2.73000e+02,1.58580e-13,1.07142e+00,1.32210e-14,1.07142e+00,1.68690e-13,1.07142e+00
8.03462e+02,1.86400e+03,1.84000e+03,2.40000e+01,9.86438e-14,1.07896e+00,6.41679e-14,1.07896e+00,3.77544e-14,1.07896e+00
8.03711e+02,1.69700e+03,1.81300e+03,-1.16000e+02,9.87140e-14,1.08651e+00,5.35349e-14,1.08651e+00,4.51808e-14,1.08651e+00
8.03961e+02,1.72900e+03,1.68400e+03,4.50000e+01,6.61647e-14,1.09405e+00,4.80857e-14,1.09405e+00,1.94249e-14,1.09405e+00
8.04210e+02,1.86500e+03,1.67800e+03,1.87000e+02,1.80228e-13,1.10160e+00,6.02260e-14,1.10160e+00,1.20006e-13,1.10160e+00
8.04460e+02,1.94300e+03,1.65900e+03,2.84000e+02,2.22164e-13,1.10914e+00,8.80881e-14,1.10914e+00,1.34083e-13,1.10914e+00
8.04709e+02,1.94100e+03,1.82100e+03,1.20000e+02,2.46441e-13,1.11669e+00,1.37542e-13,1.11669e+00,1.16717e-13,1.11669e+00
8.04958e+02,1.78000e+03,2.07300e+03,-2.93000e+02,1.65314e-13,1.12423e+00,6.76805e-14,1.12423e+00,2.00919e-13,1.12423e+00
8.05208e+02,1.65400e+03,2.05800e+03,-4.04000e+02,2.08378e-13,1.13178e+00,8.33048e-14,1.13178e+00,1.33860e-13,1.13178e+00
8.05457e+02,1.52900e+03,1.77500e+03,-2.46000e+02,1.30150e-13,1.13932e+00,1.85483e-13,1.13932e+00,9.47451e-14,1.13932e+00
8.05707e+02,1.60200e+03,1.62800e+03,-2.60000e+01,9.74457e-14,1.14687e+00,1.23163e-13,1.14687e+00,2.57173e-14,1.14687e+00
8.05956e+02,1.70700e+03,1.67500e+03,3.20000e+01,1.31073e-13,1.15442e+00,1.01350e-13,1.15442e+00,1.02438e-13,1.15442e+00
8.06205e+02,1.59000e+03,1.80900e+03,-2.19000e+02,1.44878e-13,1.16196e+00,1.26522e-13,1.16196e+00,2.15712e-13,1.16196e+00
8.06455e+02,1.60700e+03,1.86600e+03,-2.59000e+02,1.18318e-13,1.16951e+00,8.69281e-14,1.16951e+00,1.64129e-13,1.16951e+00
8.06704e+02,1.65700e+03,1.70800e+03,-5.10000e+01,4.34955e-14,1.17705e+00,1.03897e-13,1.17705e+00,9.42324e-14,1.17705e+00
8.06953e+02,1.88300e+03,1.60400e+03,2.79000e+02,5.57735e-14,1.18460e+00,1.54745e-13,1.18460e+00,1.72670e-13,1.18460e+00
8.07203e+02,2.03200e+03,1.66100e+03,3.71000e+02,4.21202e-14,1.19214e+00,1.11361e-13,1.19214e+00,1.48367e-13,1.19214e+00
8.07452e+02,1.90100e+03,1.73400e+03,1.67000e+02,6.15349e-14,1.19969e+00,9.41871e-14,1.19969e+00,3.46679e-14,1.19969e+00
8.07701e+02,1.63400e+03,1.63900e+03,-5.00000e+00,9.05558e-14,1.20723e+00,1.10637e-13,1.20723e+00,4.18951e-14,1.20723e+00
8.07951e+02,1.69900e+03,1.63000e+03,6.90000e+01,1.68669e-14,1.21478e+00,7.21841e-14,1.21478e+00,7.74729e-14,1.21478e+00
8.08200e+02,1.82800e+03,1.68400e+03,1.44000e+02,4.26169e-14,1.22232e+00,8.04425e-14,1.22232e+00,5.13811e-14,1.22232e+00
8.08449e+02,1.85000e+03,1.78700e+03,6.30000e+01,1.09340e-13,1.22987e+00,7.91330e-14,1.22987e+00,4.90652e-14,1.22987e+00
8.08698e+02,1.95200e+03,2.01800e+03,-6.60000e+01,8.46543e-14,1.23741e+00,4.16280e-14,1.23741e+00,4.53642e-14,1.23741e+00
8.08948e+02,1.97200e+03,2.25000e+03,-2.78000e+02,6.62835e-14,1.24496e+00,1.33905e-13,1.24496e+00,6.86261e-14,1.24496e+00
8.09197e+02,2.00800e+03,2.23000e+03,-2.22000e+02,5.61426e-14,1.25250e+00,9.93253e-14,1.25250e+00,6.24738e-14,1.25250e+00
8.09446e+02,1.98600e+03,2.04600e+03,-6.00000e+01,1.18767e-13,1.26005e+00,1.81626e-13,1.26005e+00,1.50442e-13,1.26005e+00
8.09695e+02,1.84500e+03,1.79400e+03,5.10000e+01,4.31072e-14,1.26759e+00,2.05622e-14,1.26759e+00,3.55044e-14,1.26759e+00
8.09945e+02,1.86000e+03,1.96200e+03,-1.02000e+02,6.29175e-14,1.27514e+00,1.28966e-13,1.27514e+00,1.84825e-13,1.27514e+00
8.10194e+02,1.82900e+03,1.98100e+03,-1.52000e+02,1.48571e-13,1.28268e+00,1.20815e-13,1.28268e+00,1.62425e-13,1.28268e+00
8.10443e+02,1.91500e+03,2.04900e+03,-1.34000e+02,1.26168e-13,1.29023e+00,2.07777e-13,1.29023e+00,2.03864e-13,1.29023e+00
8.10692e+02,1.84100e+03,1.93200e+03,-9.10000e+01,1.36618e-13,1.29777e+00,1.17516e-13,1.29777e+00,1.13764e-13,1.29777e+00
8.10941e+02,1.89100e+03,1.90600e+03,-1.50000e+01,1.03381e-13,1.30532e+00,1.07972e-13,1.30532e+00,1.15386e-13,1.30532e+00
8.11191e+02,1.91800e+03,1.73500e+03,1.83000e+02,7.48861e-14,1.31286e+00,5.29580e-14,1.31286e+00,9.71890e-14,1.31286e+00
8.11440e+02,1.79400e+03,1.65600e+03,1.38000e+02,3.70001e-14,-1.32041e+00,7.24745e-14,-1.32041e+00,1.09475e-13,-1.32041e+00
8.11689e+02,1.86200e+03,1.67100e+03,1.91000e+02,7.48861e-14,-1.31286e+00,5.29580e-14,-1.31286e+00,9.71890e-14,-1.31286e+00
8.11938e+02,1.78500e+03,1.69000e+03,9.50000e+01,1.03381e-13,-1.30532e+00,1.07972e-13,-1.30532e+00,1.15386e-13,-1.30532e+00
8.12187e+02,1.75800e+03,1.63400e+03,1.24000e+02,1.36618e-13,-1.29777e+00,1.17516e-13,-1.29777e+00,1.13764e-13,-1.29777e+00
8.12436e+02,1.84400e+03,1.64200e+03,2.02000e+02,1.26168e-13,-1.29023e+00,2.07777e-13,-1.29023e+00,2.03864e-13,-1.29023e+00
8.12685e+02,2.07900e+03,1.72900e+03,3.50000e+02,1.48571e-13,-1.28268e+00,1.20815e-13,-1.28268e+00,1.62425e-13,-1.28268e+00
8.12935e+02,2.09400e+03,1.84000e+03,2.54000e+02,6.29175e-14,-1.27514e+00,1.28966e-13,-1.27514e+00,1.84825e-13,-1.27514e+00
8.13184e+02,1.88100e+03,1.98400e+03,-1.03000e+02,4.31072e-14,-1.26759e+00,2.05622e-14,-1.26759e+00,3.55044e-14,-1.26759e+00
8.13433e+02,1.77600e+03,2.05400e+03,-2.78000e+02,1.18767e-13,-1.26005e+00,1.81626e-13,-1.26005e+00,1.50442e-13,-1.26005e+00
8.13682e+02,1.81200e+03,1.87600e+03,-6.40000e+01,5.61426e-14,-1.25250e+00,9.93253e-14,-1.25250e+00,6.24738e-14,-1.25250e+00
8.13931e+02,1.69700e+03,1.74000e+03,-4.30000e+01,6.62835e-14,-1.24496e+00,1.33905e-13,-1.24496e+00,6.86261e-14,-1.24496e+00
8.14180e+02,1.74700e+03,1.75800e+03,-1.10000e+01,8.46543e-14,-1.23741e+00,4.16280e-14,-1.23741e+00,4.53642e-14,-1.23741e+00
8.14429e+02,1.74700e+03,1.85800e+03,-1.11000e+02,1.09340e-13,-1.22987e+00,7.91330e-14,-1.22987e+00,4.90652e-14,-1.22987e+00
8.14678e+02,1.68600e+03,2.05000e+03,-3.64000e+02,4.26169e-14,-1.22232e+00,8.04425e-14,-1.22232e+00,5.13811e-14,-1.22232e+00
8.14927e+02,1.62500e+03,2.07600e+03,-4.51000e+02,1.68669e-14,-1.21478e+00,7.21841e-14,-1.21478e+00,7.74729e-14,-1.21478e+00
8.15176e+02,1.78400e+03,1.94900e+03,-1.65000e+02,9.05558e-14,-1.20723e+00,1.10637e-13,-1.20723e+00,4.18951e-14,-1.20723e+00
8.15425e+02,1.81300e+03,1.76200e+03,5.10000e+01,6.15349e-14,-1.19969e+00,9.41871e-14,-1.19969e+00,3.46679e-14,-1.19969e+00
8.15674e+02,1.76800e+03,1.63300e+03,1.35000e+02,4.21202e-14,-1.19214e+00,1.11361e-13,-1.19214e+00,1.48367e-13,-1.19214e+00
8.15923e+02,1.67300e+03,1.67600e+03,-3.00000e+00,5.57735e-14,-1.18460e+00,1.54745e-13,-1.18460e+00,1.72670e-13,-1.18460e+00
8.16172e+02,1.68500e+03,1.81600e+03,-1.31000e+02,4.34955e-14,-1.17705e+00,1.03897e-13,-1.17705e+00,9.42324e-14,-1.17705e+00
8.16421e+02,1.80400e+03,1.72400e+03,8.00000e+01,1.18318e-13,-1.16951e+00,8.69281e-14,-1.16951e+00,1.64129e-13,-1.16951e+00
8.16670e+02,1.97700e+03,1.64000e+03,3.37000e+02,1.44878e-13,-1.16196e+00,1.26522e-13,-1.16196e+00,2.15712e-13,-1.16196e+00
8.16919e+02,2.23000e+03,1.58200e+03,6.48000e+02,1.31073e-13,-1.15442e+00,1.01350e-13,-1.15442e+00,1.02438e-13,-1.15442e+00
8.17168e+02,2.34100e+03,1.71200e+03,6.29000e+02,9.74457e-14,-1.14687e+00,1.23163e-13,-1.14687e+00,2.57173e-14,-1.14687e+00
8.17417e+02,2.05600e+03,1.95400e+03,1.02000e+02,1.30150e-13,-1.13932e+00,1.85483e-13,-1.13932e+00,9.47451e-14,-1.13932e+00
8.17666e+02,1.85300e+03,1.98900e+03,-1.36000e+02,2.08378e-13,-1.13178e+00,8.33048e-14,-1.13178e+00,1.33860e-13,-1.13178e+00
8.17915e+02,1.74600e+03,1.79500e+03,-4.90000e+01,1.65314e-13,-1.12423e+00,6.76805e-14,-1.12423e+00,2.00919e-13,-1.12423e+00
8.18164e+02,1.68000e+03,1.62100e+03,5.90000e+01,2.46441e-13,-1.11669e+00,1.37542e-13,-1.11669e+00,1.16717e-13,-1.11669e+00
8.18413e+02,1.69100e+03,1.70100e+03,-1.00000e+01,2.22164e-13,-1.10914e+00,8.80881e-14,-1.10914e+00,1.34083e-13,-1.10914e+00
8.18662e+02,1.77900e+03,2.02600e+03,-2.47000e+02,1.80228e-13,-1.10160e+00,6.02260e-14,-1.10160e+00,1.20006e-13,-1.10160e+00
8.18911e+02,1.74500e+03,2.04500e+03,-3.00000e+02,6.61647e-14,-1.09405e+00,4.80857e-14,-1.09405e+00,1.94249e-14,-1.09405e+00
8.19160e+02,1.64700e+03,2.02900e+03,-3.82000e+02,9.87140e-14,-1.08651e+00,5.35349e-14,-1.08651e+00,4.51808e-14,-1.08651e+00
8.19408e+02,1.74000e+03,1.97900e+03,-2.39000e+02,9.86438e-14,-1.07896e+00,6.41679e-14,-1.07896e+00,3.77544e-14,-1.07896e+00
8.19657e+02,1.67700e+03,1.74700e+03,-7.00000e+01,1.58580e-13,-1.07142e+00,1.32210e-14,-1.07142e+00,1.68690e-13,-1.07142e+00
8.19906e+02,1.63900e+03,1.59100e+03,4.80000e+01,9.54192e-14,-1.06387e+00,6.43984e-14,-1.06387e+00,4.24108e-14,-1.06387e+00
8.20155e+02,1.57900e+03,1.60900e+03,-3.00000e+01,4.81762e-14,-1.05633e+00,7.39041e-14,-1.05633e+00,5.74471e-14,-1.05633e+00
8.20404e+02,1.51800e+03,1.57800e+03,-6.00000e+01,1.37878e-13,-1.04878e+00,1.11529e-13,-1.04878e+00,5.31585e-14,-1.04878e+00
8.20653e+02,1.65800e+03,1.69700e+03,-3.90000e+01,2.17621e-13,-1.04124e+00,1.49757e-13,-1.04124e+00,6.81327e-14,-1.04124e+00
8.20901e+02,1.83100e+03,1.70000e+03,1.31000e+02,1.41979e-13,-1.03369e+00,1.02426e-13,-1.03369e+00,5.39481e-14,-1.03369e+00
8.21150e+02,1.98700e+03,1.63600e+03,3.51000e+02,1.49810e-13,-1.02615e+00,1.08668e-13,-1.02615e+00,6.22449e-14,-1.02615e+00
8.21399e+02,1.89800e+03,1.74000e+03,1.58000e+02,6.39994e-14,-1.01860e+00,2.79172e-14,-1.01860e+00,9.08786e-14,-1.01860e+00
8.21648e+02,1.71400e+03,1.71500e+03,-1.00000e+00,8.58008e-14,-1.01106e+00,1.05593e-13,-1.01106e+00,1.82573e-13,-1.01106e+00
8.21897e+02,1.67200e+03,1.73400e+03,-6.20000e+01,3.90995e-14,-1.00351e+00,2.51254e-13,-1.00351e+00,2.65520e-13,-1.00351e+00
8.22145e+02,1.54700e+03,1.54700e+03,0.00000e+00,1.10039e-13,-9.95966e-01,1.62605e-13,-9.95966e-01,2.65138e-13,-9.95966e-01
8.22394e+02,1.55600e+03,1.51300e+03,4.30000e+01,8.80694e-14,-9.88421e-01,2.31252e-13,-9.88421e-01,1.93557e-13,-9.88421e-01
8.22643e+02,1.68100e+03,1.68000e+03,1.00000e+00,1.40581e-13,-9.80876e-01,1.42242e-13,-9.80876e-01,7.75583e-14,-9.80876e-01
8.22892e+02,1.60500e+03,1.76900e+03,-1.64000e+02,1.29956e-13,-9.73331e-01,1.86146e-13,-9.73331e-01,1.10628e-13,-9.73331e-01
8.23140e+02,1.49700e+03,1.88100e+03,-3.84000e+02,1.20393e-13,-9.65785e-01,1.58255e-13,-9.65785e-01,1.56512e-13,-9.65785e-01
8.23389e+02,1.44700e+03,1.91100e+03,-4.64000e+02,1.17905e-13,-9.58240e-01,7.05932e-14,-9.58240e-01,1.76812e-13,-9.58240e-01
8.23638e+02,1.49000e+03,1.78500e+03,-2.95000e+02,1.49265e-13,-9.50695e-01,1.42813e-13,-9.50695e-01,2.47942e-13,-9.50695e-01
8.23887e+02,1.52500e+03,1.53000e+03,-5.00000e+00,1.31880e-13,-9.43150e-01,3.06992e-14,-9.43150e-01,1.61046e-13,-9.43150e-01
8.24135e+02,1.48500e+03,1.50700e+03,-2.20000e+01,9.30387e-14,-9.35605e-01,3.10062e-15,-9.35605e-01,9.00123e-14,-9.35605e-01
8.24384e+02,1.41400e+03,1.51800e+03,-1.04000e+02,1.23169e-13,-9.28059e-01,1.35323e-13,-9.28059e-01,8.67956e-14,-9.28059e-01
8.24633e+02,1.40100e+03,1.54600e+03,-1.45000e+02,1.16187e-13,-9.20514e-01,5.06551e-14,-9.20514e-01,1.16981e-13,-9.20514e-01
8.24881e+02,1.49800e+03,1.47200e+03,2.60000e+01,1.15631e-13,-9.12969e-01,1.22447e-13,-9.12969e-01,4.84814e-14,-9.12969e-01
8.25130e+02,1.62500e+03,1.39000e+03,2.35000e+02,2.96484e-14,-9.05424e-01,2.40292e-14,-9.05424e-01,1.96760e-14,-9.05424e-01
8.25379e+02,1.60000e+03,1.38400e+03,2.16000e+02,4.31154e-14,-8.97879e-01,8.47189e-14,-8.97879e-01,1.07370e-13,-8.97879e-01
8.25627e+02,1.50700e+03,1.38000e+03,1.27000e+02,8.12772e-14,-8.90333e-01,1.34788e-13,-8.90333e-01,5.35108e-14,-8.90333e-01
8.25876e+02,1.40700e+03,1.40800e+03,-1.00000e+00,8.44855e-14,-8.82788e-01,1.02869e-13,-8.82788e-01,1.87351e-14,-8.82788e-01
8.26125e+02,1.36000e+03,1.36700e+03,-7.00000e+00,1.66550e-13,-8.75243e-01,8.15731e-14,-8.75243e-01,1.22979e-13,-8.75243e-01
8.26373e+02,1.35100e+03,1.33600e+03,1.50000e+01,2.15400e-13,-8.67698e-01,1.22569e-13,-8.67698e-01,2.33158e-13,-8.67698e-01
8.26622e+02,1.34000e+03,1.23200e+03,1.08000e+02,2.45071e-13,-8.60153e-01,1.76958e-13,-8.60153e-01,1.28390e-13,-8.60153e-01
8.26870e+02,1.34600e+03,1.27500e+03,7.10000e+01,1.49780e-13,-8.52607e-01,2.05176e-13,-8.52607e-01,8.35685e-14,-8.52607e-01
8.27119e+02,1.31000e+03,1.40400e+03,-9.40000e+01,1.82966e-13,-8.45062e-01,7.91093e-14,-8.45062e-01,1.09570e-13,-8.45062e-01
8.27368e+02,1.25800e+03,1.48000e+03,-2.22000e+02,1.91122e-14,-8.37517e-01,1.25915e-13,-8.37517e-01,1.20268e-13,-8.37517e-01
8.27616e+02,1.21200e+03,1.38500e+03,-1.73000e+02,1.22078e-13,-8.29972e-01,1.64175e-13,-8.29972e-01,1.04662e-13,-8.29972e-01
8.27865e+02,1.18800e+03,1.29500e+03,-1.07000e+02,1.27687e-13,-8.22427e-01,3.08582e-13,-8.22427e-01,1.93434e-13,-8.22427e-01
8.28113e+02,1.17500e+03,1.22200e+03,-4.70000e+01,1.76130e-13,-8.14881e-01,1.32711e-13,-8.14881e-01,1.44825e-13,-8.14881e-01
8.28362e+02,1.10400e+03,1.12500e+03,-2.10000e+01,2.36148e-13,-8.07336e-01,9.33504e-14,-8.07336e-01,3.29441e-13,-8.07336e-01
8.28610e+02,1.07800e+03,1.12600e+03,-4.80000e+01,2.04362e-13,-7.99791e-01,1.53833e-13,-7.99791e-01,2.86498e-13,-7.99791e-01
8.28859e+02,1.10400e+03,1.17100e+03,-6.70000e+01,2.68071e-13,-7.92246e-01,1.84799e-13,-7.92246e-01,3.48536e-13,-7.92246e-01
8.29108e+02,1.08300e+03,1.15300e+03,-7.00000e+01,3.15074e-13,-7.84701e-01,2.27884e-13,-7.84701e-01,2.78706e-13,-7.84701e-01
8.29356e+02,1.14100e+03,1.07800e+03,6.30000e+01,2.54076e-13,-7.77155e-01,2.30771e-13,-7.77155e-01,1.36324e-13,-7.77155e-01
8.29605e+02,1.18400e+03,9.89000e+02,1.95000e+02,2.01366e-13,-7.69610e-01,2.37611e-13,-7.69610e-01,1.72511e-13,-7.69610e-01
8.29853e+02,1.13600e+03,9.86000e+02,1.50000e+02,1.46389e-13,-7.62065e-01,1.67988e-13,-7.62065e-01,2.30482e-13,-7.62065e-01
8.30101e+02,1.14800e+03,1.00700e+03,1.41000e+02,1.62569e-13,-7.54520e-01,1.11534e-13,-7.54520e-01,2.23050e-13,-7.54520e-01
8.30350e+02,1.00800e+03,9.90000e+02,1.80000e+01,1.31631e-13,-7.46975e-01,9.10709e-14,-7.46975e-01,2.14343e-13,-7.46975e-01
8.30598e+02,9.48000e+02,9.47000e+02,1.00000e+00,1.82284e-13,-7.39429e-01,4.08007e-14,-7.39429e-01,1.58857e-13,-7.39429e-01
8.30847e+02,9.58000e+02,9.08000e+02,5.00000e+01,2.76590e-13,-7.31884e-01,1.99185e-13,-7.31884e-01,1.73193e-13,-7.31884e-01
8.31095e+02,9.42000e+02,8.93000e+02,4.90000e+01,2.29723e-13,-7.24339e-01,2.31549e-13,-7.24339e-01,8.68774e-15,-7.24339e-01
8.31344e+02,9.25000e+02,9.67000e+02,-4.20000e+01,2.37643e-13,-7.16794e-01,2.39501e-13,-7.16794e-01,8.80150e-14,-7.16794e-01
8.31592e+02,8.54000e+02,9.30000e+02,-7.60000e+01,1.74752e-13,-7.09249e-01,9.74468e-14,-7.09249e-01,1.15966e-13,-7.09249e-01
8.31841e+02,8.64000e+02,9.05000e+02,-4.10000e+01,1.08637e-13,-7.01703e-01,1.86750e-13,-7.01703e-01,2.47535e-13,-7.01703e-01
8.32089e+02,8.52000e+02,8.34000e+02,1.80000e+01,4.76589e-14,-6.94158e-01,2.91392e-13,-6.94158e-01,2.99674e-13,-6.94158e-01
8.32337e+02,8.36000e+02,8.18000e+02,1.80000e+01,5.41682e-14,-6.86613e-01,2.89028e-13,-6.86613e-01,2.67015e-13,-6.86613e-01
8.32586e+02,7.94000e+02,8.12000e+02,-1.80000e+01,6.34738e-14,-6.79068e-01,2.82401e-13,-6.79068e-01,2.22391e-13,-6.79068e-01
8.32834e+02,7.82000e+02,8.04000e+02,-2.20000e+01,1.37161e-13,-6.71523e-01,1.86417e-13,-6.71523e-01,1.64193e-13,-6.71523e-01
8.33083e+02,7.66000e+02,8.29000e+02,-6.30000e+01,1.88143e-13,-6.63977e-01,1.02832e-13,-6.63977e-01,2.12358e-13,-6.63977e-01
8.33331e+02,7.77000e+02,8.12000e+02,-3.50000e+01,1.63753e-13,-6.56432e-01,1.73999e-13,-6.56432e-01,2.78053e-13,-6.56432e-01
8.33579e+02,8.12000e+02,7.74000e+02,3.80000e+01,2.78953e-13,-6.48887e-01,1.97139e-13,-6.48887e-01,4.47355e-13,-6.48887e-01
8.33828e+02,7.90000e+02,7.49000e+02,4.10000e+01,1.37140e-13,-6.41342e-01,2.23850e-13,-6.41342e-01,1.04110e-13,-6.41342e-01
8.34076e+02,8.17000e+02,7.63000e+02,5.40000e+01,1.93492e-13,-6.33797e-01,2.37401e-13,-6.33797e-01,8.66973e-14,-6.33797e-01
8.34324e+02,7.85000e+02,7.56000e+02,2.90000e+01,3.34967e-13,-6.26251e-01,3.30542e-13,-6.26251e-01,1.65791e-13,-6.26251e-01
8.34573e+02,7.46000e+02,7.56000e+02,-1.00000e+01,1.92633e-13,-6.18706e-01,2.40610e-13,-6.18706e-01,3.12635e-13,-6.18706e-01
8.34821e+02,7.35000e+02,7.43000e+02,-8.00000e+00,2.21805e-13,-6.11161e-01,1.48100e-13,-6.11161e-01,3.68091e-13,-6.11161e-01
8.35069e+02,7.39000e+02,7.17000e+02,2.20000e+01,1.08625e-13,-6.03616e-01,1.39315e-13,-6.03616e-01,2.32154e-13,-6.03616e-01
8.35318e+02,7.50000e+02,7.18000e+02,3.20000e+01,2.40200e-13,-5.96071e-01,1.22455e-13,-5.96071e-01,2.33670e-13,-5.96071e-01
8.35566e+02,7.34000e+02,7.08000e+02,2.60000e+01,3.36990e-13,-5.88525e-01,1.39455e-13,-5.88525e-01,2.73410e-13,-5.88525e-01
8.35814e+02,6.99000e+02,7.20000e+02,-2.10000e+01,3.63520e-13,-5.80980e-01,2.16736e-13,-5.80980e-01,2.85364e-13,-5.80980e-01
8.36062e+02,7.12000e+02,7.27000e+02,-1.50000e+01,2.86501e-13,-5.73435e-01,2.38075e-13,-5.73435e-01,3.06362e-13,-5.73435e-01
8.36311e+02,6.95000e+02,7.32000e+02,-3.70000e+01,1.31799e-13,-5.65890e-01,1.69649e-13,-5.65890e-01,4.08880e-14,-5.65890e-01
8.36559e+02,6.93000e+02,7.14000e+02,-2.10000e+01,4.64869e-14,-5.58345e-01,1.02194e-13,-5.58345e-01,1.48171e-13,-5.58345e-01
8.36807e+02,6.86000e+02,6.86000e+02,0.00000e+00,2.49141e-13,-5.50799e-01,2.16065e-13,-5.50799e-01,4.21702e-13,-5.50799e-01
8.37055e+02,7.07000e+02,7.04000e+02,3.00000e+00,3.84638e-13,-5.43254e-01,3.86561e-13,-5.43254e-01,7.66265e-13,-5.43254e-01
8.37304e+02,6.85000e+02,6.94000e+02,-9.00000e+00,3.45089e-13,-5.35709e-01,4.09944e-13,-5.35709e-01,7.19584e-13,-5.35709e-01
8.37552e+02,6.75000e+02,7.08000e+02,-3.30000e+01,2.25472e-13,-5.28164e-01,5.31026e-13,-5.28164e-01,7.51680e-13,-5.28164e-01
8.37800e+02,6.88000e+02,6.89000e+02,-1.00000e+00,3.28050e-13,-5.20619e-01,5.35857e-13,-5.20619e-01,8.07469e-13,-5.20619e-01
8.38048e+02,7.10000e+02,6.98000e+02,1.20000e+01,5.31218e-13,-5.13073e-01,5.82287e-13,-5.13073e-01,9.98942e-13,-5.13073e-01
8.38296e+02,7.15000e+02,6.82000e+02,3.30000e+01,6.62652e-13,-5.05528e-01,6.18073e-13,-5.05528e-01,1.24759e-12,-5.05528e-01
8.38545e+02,7.01000e+02,6.76000e+02,2.50000e+01,4.12211e-13,-4.97983e-01,6.45414e-13,-4.97983e-01,1.01243e-12,-4.97983e-01
8.38793e+02,6.81000e+02,6.79000e+02,2.00000e+00,6.58641e-13,-4.90438e-01,6.16275e-13,-4.90438e-01,1.10695e-12,-4.90438e-01
8.39041e+02,6.65000e+02,6.80000e+02,-1.50000e+01,1.01904e-12,-4.82893e-01,1.03070e-12,-4.82893e-01,1.97146e-12,-4.82893e-01
8.39289e+02,6.65000e+02,6.75000e+02,-1.00000e+01,1.24107e-12,-4.75347e-01,1.33332e-12,-4.75347e-01,2.42012e-12,-4.75347e-01
8.39537e+02,6.76000e+02,6.80000e+02,-4.00000e+00,1.03664e-12,-4.67802e-01,1.54651e-12,-4.67802e-01,2.43092e-12,-4.67802e-01
8.39785e+02,6.77000e+02,6.68000e+02,9.00000e+00,7.91304e-13,-4.60257e-01,1.41782e-12,-4.60257e-01,2.09410e-12,-4.60257e-01
8.40033e+02,6.84000e+02,6.74000e+02,1.00000e+01,2.90701e-13,-4.52712e-01,9.69008e-13,-4.52712e-01,1.24152e-12,-4.52712e-01
8.40281e+02,6.86000e+02,6.97000e+02,-1.10000e+01,2.19073e-13,-4.45167e-01,5.03570e-13,-4.45167e-01,5.22933e-13,-4.45167e-01
8.40530e+02,6.82000e+02,6.65000e+02,1.70000e+01,2.71194e-13,-4.37621e-01,1.76570e-13,-4.37621e-01,1.90664e-13,-4.37621e-01
8.40778e+02,6.88000e+02,6.83000e+02,5.00000e+00,2.51947e-13,-4.30076e-01,2.69068e-13,-4.30076e-01,4.11414e-13,-4.30076e-01
8.41026e+02,6.77000e+02,6.82000e+02,-5.00000e+00,3.68082e-13,-4.22531e-01,3.36083e-14,-4.22531e-01,3.97249e-13,-4.22531e-01
8.41274e+02,6.74000e+02,6.78000e+02,-4.00000e+00,2.05631e-13,-4.14986e-01,3.91370e-13,-4.14986e-01,5.44042e-13,-4.14986e-01
8.41522e+02,6.72000e+02,6.72000e+02,0.00000e+00,3.41119e-13,-4.07441e-01,3.31861e-13,-4.07441e-01,6.53352e-13,-4.07441e-01
8.41770e+02,6.49000e+02,6.91000e+02,-4.20000e+01,2.30789e-13,-3.99895e-01,3.54117e-13,-3.99895e-01,5.84240e-13,-3.99895e-01
8.42018e+02,6.68000e+02,6.87000e+02,-1.90000e+01,2.29957e-13,-3.92350e-01,3.23843e-14,-3.92350e-01,2.53738e-13,-3.92350e-01
8.42266e+02,6.79000e+02,6.69000e+02,1.00000e+01,9.77366e-14,-3.84805e-01,3.10756e-13,-3.84805e-01,2.76762e-13,-3.84805e-01
8.42514e+02,6.72000e+02,6.69000e+02,3.00000e+00,1.56914e-13,-3.77260e-01,4.79535e-13,-3.77260e-01,3.76380e-13,-3.77260e-01
8.42762e+02,6.72000e+02,6.68000e+02,4.00000e+00,2.62333e-13,-3.69715e-01,4.29783e-13,-3.69715e-01,4.32308e-13,-3.69715e-01
8.43010e+02,6.79000e+02,6.74000e+02,5.00000e+00,3.51610e-13,-3.62169e-01,4.00386e-13,-3.62169e-01,6.51513e-13,-3.62169e-01
8.43258e+02,6.70000e+02,6.62000e+02,8.00000e+00,4.61011e-13,-3.54624e-01,4.17832e-13,-3.54624e-01,5.10993e-13,-3.54624e-01
8.43506e+02,6.61000e+02,6.67000e+02,-6.00000e+00,2.68774e-13,-3.47079e-01,3.29554e-13,-3.47079e-01,1.38619e-13,-3.47079e-01
8.43754e+02,6.63000e+02,6.72000e+02,-9.00000e+00,8.04894e-13,-3.39534e-01,7.29677e-13,-3.39534e-01,1.57247e-13,-3.39534e-01
8.44002e+02,6.68000e+02,6.64000e+02,4.00000e+00,1.52196e-12,-3.31989e-01,1.63104e-12,-3.31989e-01,3.30018e-13,-3.31989e-01
8.44250e+02,6.63000e+02,6.69000e+02,-6.00000e+00,1.60616e-12,-3.24444e-01,1.71660e-12,-3.24444e-01,3.11664e-13,-3.24444e-01
8.44498e+02,6.74000e+02,6.55000e+02,1.90000e+01,1.46032e-12,-3.16898e-01,1.24322e-12,-3.16898e-01,2.17111e-13,-3.16898e-01
8.44746e+02,6.63000e+02,6.65000e+02,-2.00000e+00,9.28573e-13,-3.09353e-01,7.09078e-13,-3.09353e-01,2.85164e-13,-3.09353e-01
8.44994e+02,6.67000e+02,6.80000e+02,-1.30000e+01,5.66811e-13,-3.01808e-01,6.95257e-13,-3.01808e-01,1.30550e-13,-3.01808e-01
8.45242e+02,6.62000e+02,6.64000e+02,-2.00000e+00,3.79570e-13,-2.94263e-01,4.66252e-13,-2.94263e-01,3.22290e-13,-2.94263e-01
8.45490e+02,6.65000e+02,6.76000e+02,-1.10000e+01,2.00709e-13,-2.86718e-01,1.76306e-13,-2.86718e-01,2.44675e-13,-2.86718e-01
8.45738e+02,6.42000e+02,6.64000e+02,-2.20000e+01,3.18828e-13,-2.79172e-01,1.77507e-13,-2.79172e-01,4.59903e-13,-2.79172e-01
8.45985e+02,6.63000e+02,6.73000e+02,-1.00000e+01,3.29113e-13,-2.71627e-01,3.60975e-13,-2.71627e-01,6.89140e-13,-2.71627e-01
8.46233e+02,6.67000e+02,6.67000e+02,0.00000e+00,4.46440e-13,-2.64082e-01,4.16642e-13,-2.64082e-01,7.30447e-13,-2.64082e-01
8.46481e+02,6.61000e+02,6.66000e+02,-5.00000e+00,4.04109e-13,-2.56537e-01,2.07200e-13,-2.56537e-01,5.32756e-13,-2.56537e-01
8.46729e+02,6.57000e+02,6.62000e+02,-5.00000e+00,4.15195e-13,-2.48992e-01,4.23405e-14,-2.48992e-01,4.35033e-13,-2.48992e-01
8.46977e+02,6.69000e+02,6.60000e+02,9.00000e+00,2.27543e-14,-2.41446e-01,5.89315e-14,-2.41446e-01,4.22893e-14,-2.41446e-01
8.47225e+02,6.65000e+02,6.69000e+02,-4.00000e+00,1.45985e-13,-2.33901e-01,1.97891e-13,-2.33901e-01,2.07952e-13,-2.33901e-01
8.47473e+02,6.63000e+02,6.79000e+02,-1.60000e+01,1.13676e-13,-2.26356e-01,3.12321e-13,-2.26356e-01,2.88684e-13,-2.26356e-01
8.47720e+02,6.49000e+02,6.54000e+02,-5.00000e+00,2.32414e-13,-2.18811e-01,5.24225e-13,-2.18811e-01,2.95605e-13,-2.18811e-01
8.47968e+02,6.52000e+02,6.69000e+02,-1.70000e+01,3.45463e-13,-2.11266e-01,2.90331e-13,-2.11266e-01,2.87886e-13,-2.11266e-01
8.48216e+02,6.63000e+02,6.69000e+02,-6.00000e+00,3.61113e-13,-2.03720e-01,1.90031e-13,-2.03720e-01,3.25967e-13,-2.03720e-01
8.48464e+02,6.59000e+02,6.67000e+02,-8.00000e+00,8.25432e-13,-1.96175e-01,2.93663e-13,-1.96175e-01,5.32260e-13,-1.96175e-01
8.48712e+02,6.66000e+02,6.54000e+02,1.20000e+01,7.73727e-13,-1.88630e-01,1.12070e-13,-1.88630e-01,7.39076e-13,-1.88630e-01
8.48960e+02,6.68000e+02,6.71000e+02,-3.00000e+00,9.37389e-13,-1.81085e-01,2.12746e-13,-1.81085e-01,1.13278e-12,-1.81085e-01
8.49207e+02,6.82000e+02,6.57000e+02,2.50000e+01,4.53239e-13,-1.73540e-01,6.52404e-13,-1.73540e-01,1.09207e-12,-1.73540e-01
8.49455e+02,6.65000e+02,6.57000e+02,8.00000e+00,2.83812e-13,-1.65994e-01,4.34375e-13,-1.65994e-01,3.08057e-13,-1.65994e-01
8.49703e+02,6.58000e+02,6.65000e+02,-7.00000e+00,1.83623e-12,-1.58449e-01,1.26694e-12,-1.58449e-01,2.72282e-12,-1.58449e-01
8.49951e+02,6.61000e+02,6.74000e+02,-1.30000e+01,2.39052e-12,-1.50904e-01,2.16127e-12,-1.50904e-01,4.08757e-12,-1.50904e-01
8.50198e+02,6.70000e+02,6.65000e+02,5.00000e+00,1.82579e-12,-1.43359e-01,1.74608e-12,-1.43359e-01,2.95020e-12,-1.43359e-01
8.50446e+02,6.67000e+02,6.62000e+02,5.00000e+00,4.75574e-13,-1.35814e-01,1.75440e-12,-1.35814e-01,1.84112e-12,-1.35814e-01
8.50694e+02,6.67000e+02,6.60000e+02,7.00000e+00,1.75387e-13,-1.28268e-01,1.32296e-12,-1.28268e-01,1.18649e-12,-1.28268e-01
8.50941e+02,6.87000e+02,6.80000e+02,7.00000e+00,4.27379e-13,-1.20723e-01,9.32232e-13,-1.20723e-01,6.63214e-13,-1.20723e-01
8.51189e+02,6.72000e+02,6.89000e+02,-1.70000e+01,4.18383e-13,-1.13178e-01,6.10544e-13,-1.13178e-01,3.59161e-13,-1.13178e-01
8.51437e+02,6.74000e+02,6.56000e+02,1.80000e+01,1.17251e-12,-1.05633e-01,1.22463e-12,-1.05633e-01,3.20247e-13,-1.05633e-01
8.51685e+02,6.51000e+02,6.60000e+02,-9.00000e+00,1.23152e-12,-9.80876e-02,7.84737e-13,-9.80876e-02,4.58068e-13,-9.80876e-02
8.51932e+02,6.41000e+02,6.66000e+02,-2.50000e+01,1.28905e-12,-9.05424e-02,7.70766e-13,-9.05424e-02,5.19473e-13,-9.05424e-02
8.52180e+02,6.66000e+02,6.58000e+02,8.00000e+00,8.88702e-13,-8.29972e-02,7.04110e-13,-8.29972e-02,3.99700e-13,-8.29972e-02
8.52428e+02,6.65000e+02,6.78000e+02,-1.30000e+01,4.89171e-13,-7.54520e-02,3.33802e-13,-7.54520e-02,3.12626e-13,-7.54520e-02
8.52675e+02,6.62000e+02,6.80000e+02,-1.80000e+01,5.44779e-13,-6.79068e-02,7.84528e-13,-6.79068e-02,2.69967e-13,-6.79068e-02
8.52923e+02,6.57000e+02,6.79000e+02,-2.20000e+01,7.69682e-13,-6.03616e-02,6.83673e-13,-6.03616e-02,9.81490e-14,-6.03616e-02
8.53170e+02,6.66000e+02,6.75000e+02,-9.00000e+00,1.30717e-12,-5.28164e-02,9.24196e-13,-5.28164e-02,4.37537e-13,-5.28164e-02
8.53418e+02,6.50000e+02,6.52000e+02,-2.00000e+00,1.64867e-12,-4.52712e-02,2.02715e-12,-4.52712e-02,5.62535e-13,-4.52712e-02
8.53666e+02,6.61000e+02,6.74000e+02,-1.30000e+01,1.91721e-12,-3.77260e-02,2.41627e-12,-3.77260e-02,5.01988e-13,-3.77260e-02
8.53913e+02,6.81000e+02,6.58000e+02,2.30000e+01,3.56300e-12,-3.01808e-02,3.86785e-12,-3.01808e-02,3.69107e-13,-3.01808e-02
8.54161e+02,6.57000e+02,6.70000e+02,-1.30000e+01,3.50330e-12,-2.26356e-02,3.38456e-12,-2.26356e-02,4.09611e-13,-2.26356e-02
8.54409e+02,6.60000e+02,6.56000e+02,4.00000e+00,1.38763e-11,-1.50904e-02,1.40110e-11,-1.50904e-02,3.18229e-13,-1.50904e-02
8.54656e+02,6.51000e+02,6.76000e+02,-2.50000e+01,2.99315e-11,-7.54520e-03,3.00744e-11,-7.54520e-03,3.86342e-13,-7.54520e-03
