7.67698e+02,7.35000e+02,7.30000e+02,5.00000e+00,5.37368e-10,0.00000e+00,5.54221e-10,0.00000e+00,1.68529e-11,0.00000e+00
7.67949e+02,7.69000e+02,7.29000e+02,4.00000e+01,3.22408e-10,7.54520e-03,3.33233e-10,7.54520e-03,1.33164e-11,7.54520e-03
7.68199e+02,7.58000e+02,7.68000e+02,-1.00000e+01,1.04668e-10,1.50904e-02,1.08745e-10,1.50904e-02,1.04612e-11,1.50904e-02
7.68450e+02,7.21000e+02,7.68000e+02,-4.70000e+01,2.14933e-11,2.26356e-02,2.84641e-11,2.26356e-02,8.41049e-12,2.26356e-02
7.68701e+02,7.32000e+02,7.76000e+02,-4.40000e+01,8.99906e-12,3.01808e-02,1.34481e-11,3.01808e-02,5.22346e-12,3.01808e-02
7.68951e+02,7.60000e+02,7.30000e+02,3.00000e+01,9.95713e-12,3.77260e-02,1.00256e-11,3.77260e-02,1.09582e-12,3.77260e-02
7.69202e+02,7.96000e+02,7.40000e+02,5.60000e+01,9.18324e-12,4.52712e-02,1.15101e-11,4.52712e-02,7.74295e-12,4.52712e-02
7.69453e+02,7.49000e+02,7.69000e+02,-2.00000e+01,3.48600e-12,5.28164e-02,1.16627e-11,5.28164e-02,1.04396e-11,5.28164e-02
7.69703e+02,7.42000e+02,8.18000e+02,-7.60000e+01,2.54310e-12,6.03616e-02,9.76531e-12,6.03616e-02,1.12947e-11,6.03616e-02
7.69954e+02,7.71000e+02,7.96000e+02,-2.50000e+01,3.10538e-12,6.79068e-02,1.08249e-11,6.79068e-02,1.39280e-11,6.79068e-02
7.70205e+02,8.11000e+02,7.82000e+02,2.90000e+01,3.85920e-12,7.54520e-02,1.31397e-11,7.54520e-02,1.54332e-11,7.54520e-02
7.70455e+02,8.27000e+02,7.92000e+02,3.50000e+01,7.11063e-12,8.29972e-02,1.28535e-11,8.29972e-02,1.31248e-11,8.29972e-02
7.70706e+02,8.21000e+02,8.19000e+02,2.00000e+00,8.89444e-12,9.05424e-02,1.11479e-11,9.05424e-02,9.45419e-12,9.05424e-02
7.70957e+02,7.72000e+02,8.59000e+02,-8.70000e+01,5.96452e-12,9.80876e-02,1.10200e-11,9.80876e-02,7.98175e-12,9.80876e-02
7.71207e+02,7.81000e+02,8.67000e+02,-8.60000e+01,2.10503e-12,1.05633e-01,9.55896e-12,1.05633e-01,7.48220e-12,1.05633e-01
7.71458e+02,8.62000e+02,8.37000e+02,2.50000e+01,3.67089e-12,1.13178e-01,5.92955e-12,1.13178e-01,4.65069e-12,1.13178e-01
7.71708e+02,8.79000e+02,8.10000e+02,6.90000e+01,4.36152e-12,1.20723e-01,1.78044e-12,1.20723e-01,3.21151e-12,1.20723e-01
7.71959e+02,8.67000e+02,8.48000e+02,1.90000e+01,9.26080e-12,1.28268e-01,7.79691e-12,1.28268e-01,7.86939e-12,1.28268e-01
7.72210e+02,8.00000e+02,9.52000e+02,-1.52000e+02,1.30165e-11,1.35814e-01,9.84904e-12,1.35814e-01,1.01105e-11,1.35814e-01
7.72460e+02,8.57000e+02,9.72000e+02,-1.15000e+02,1.08683e-11,1.43359e-01,6.46803e-12,1.43359e-01,8.07677e-12,1.43359e-01
7.72711e+02,9.90000e+02,8.98000e+02,9.20000e+01,7.35173e-12,1.50904e-01,3.58483e-12,1.50904e-01,3.80600e-12,1.50904e-01
7.72961e+02,1.02400e+03,8.51000e+02,1.73000e+02,8.41808e-12,1.58449e-01,9.38819e-12,1.58449e-01,1.02993e-12,1.58449e-01
7.73212e+02,9.50000e+02,9.24000e+02,2.60000e+01,6.60376e-12,1.65994e-01,1.09399e-11,1.65994e-01,4.39423e-12,1.65994e-01
7.73462e+02,8.63000e+02,1.06700e+03,-2.04000e+02,2.53805e-12,1.73540e-01,7.29637e-12,1.73540e-01,5.16482e-12,1.73540e-01
7.73713e+02,8.58000e+02,1.06600e+03,-2.08000e+02,9.98749e-13,1.81085e-01,2.35001e-12,1.81085e-01,2.38445e-12,1.81085e-01
7.73963e+02,8.98000e+02,9.46000e+02,-4.80000e+01,2.08283e-12,1.88630e-01,4.17758e-12,1.88630e-01,6.23013e-12,1.88630e-01
7.74214e+02,9.99000e+02,8.76000e+02,1.23000e+02,4.01048e-12,1.96175e-01,9.20500e-12,1.96175e-01,1.02849e-11,1.96175e-01
7.74465e+02,1.01300e+03,9.36000e+02,7.70000e+01,3.13255e-12,2.03720e-01,1.04705e-11,2.03720e-01,8.90211e-12,2.03720e-01
7.74715e+02,9.26000e+02,9.69000e+02,-4.30000e+01,9.99810e-13,2.11266e-01,4.87647e-12,2.11266e-01,4.84094e-12,2.11266e-01
7.74965e+02,8.82000e+02,1.05200e+03,-1.70000e+02,2.13901e-12,2.18811e-01,2.67439e-12,2.18811e-01,4.36861e-12,2.18811e-01
7.75216e+02,9.82000e+02,1.01200e+03,-3.00000e+01,2.25606e-12,2.26356e-01,3.65493e-12,2.26356e-01,4.44548e-12,2.26356e-01
7.75466e+02,1.11100e+03,9.29000e+02,1.82000e+02,8.02004e-13,2.33901e-01,5.21499e-12,2.33901e-01,5.71127e-12,2.33901e-01
7.75717e+02,1.17200e+03,9.53000e+02,2.19000e+02,2.43347e-12,2.41446e-01,7.30996e-12,2.41446e-01,6.14623e-12,2.41446e-01
7.75967e+02,1.02900e+03,1.08300e+03,-5.40000e+01,2.87452e-12,2.48992e-01,6.21688e-12,2.48992e-01,4.43136e-12,2.48992e-01
7.76218e+02,9.58000e+02,1.18800e+03,-2.30000e+02,1.24397e-12,2.56537e-01,7.04208e-12,2.56537e-01,6.42952e-12,2.56537e-01
7.76468e+02,1.00500e+03,1.16800e+03,-1.63000e+02,4.11520e-12,2.64082e-01,6.51538e-12,2.64082e-01,9.06056e-12,2.64082e-01
7.76719e+02,1.12100e+03,1.03800e+03,8.30000e+01,3.34401e-12,2.71627e-01,4.40382e-12,2.71627e-01,6.15305e-12,2.71627e-01
7.76969e+02,1.13100e+03,1.02400e+03,1.07000e+02,1.75541e-12,2.79172e-01,2.82471e-12,2.79172e-01,2.79994e-12,2.79172e-01
7.77219e+02,1.10200e+03,1.18300e+03,-8.10000e+01,4.92162e-12,2.86718e-01,2.52737e-12,2.86718e-01,7.41063e-12,2.86718e-01
7.77470e+02,1.09300e+03,1.36200e+03,-2.69000e+02,2.71738e-12,2.94263e-01,6.11678e-12,2.94263e-01,8.67130e-12,2.94263e-01
7.77720e+02,1.26400e+03,1.43200e+03,-1.68000e+02,2.10013e-12,3.01808e-01,7.65234e-12,3.01808e-01,5.70038e-12,3.01808e-01
7.77971e+02,1.50200e+03,1.28100e+03,2.21000e+02,4.91703e-12,3.09353e-01,5.54457e-12,3.09353e-01,1.20672e-12,3.09353e-01
7.78221e+02,1.61700e+03,1.24200e+03,3.75000e+02,6.37452e-12,3.16898e-01,3.62192e-12,3.16898e-01,2.76281e-12,3.16898e-01
7.78471e+02,1.37000e+03,1.42700e+03,-5.70000e+01,5.16682e-12,3.24444e-01,2.96957e-12,3.24444e-01,2.21379e-12,3.24444e-01
7.78722e+02,1.15400e+03,1.63800e+03,-4.84000e+02,1.14336e-12,3.31989e-01,1.64593e-12,3.31989e-01,1.04350e-12,3.31989e-01
7.78972e+02,1.17700e+03,1.66500e+03,-4.88000e+02,4.62449e-12,3.39534e-01,1.34266e-12,3.39534e-01,3.81275e-12,3.39534e-01
7.79222e+02,1.47800e+03,1.51800e+03,-4.00000e+01,7.03456e-12,3.47079e-01,2.22580e-12,3.47079e-01,5.01250e-12,3.47079e-01
7.79473e+02,1.64400e+03,1.33000e+03,3.14000e+02,7.67737e-12,3.54624e-01,3.69853e-12,3.54624e-01,4.90177e-12,3.54624e-01
7.79723e+02,1.54300e+03,1.39200e+03,1.51000e+02,5.22020e-12,3.62169e-01,5.08179e-12,3.62169e-01,3.38464e-12,3.62169e-01
7.79973e+02,1.29800e+03,1.50800e+03,-2.10000e+02,4.13573e-12,3.69715e-01,6.98864e-12,3.69715e-01,8.46152e-12,3.69715e-01
7.80224e+02,1.29500e+03,1.64600e+03,-3.51000e+02,4.14084e-12,3.77260e-01,6.86001e-12,3.77260e-01,9.27587e-12,3.77260e-01
7.80474e+02,1.47900e+03,1.72400e+03,-2.45000e+02,2.70820e-12,3.84805e-01,3.62879e-12,3.84805e-01,5.38468e-12,3.84805e-01
7.80724e+02,1.57800e+03,1.55300e+03,2.50000e+01,2.51334e-12,3.92350e-01,8.06260e-13,3.92350e-01,2.56986e-12,3.92350e-01
7.80974e+02,1.74600e+03,1.48300e+03,2.63000e+02,2.19354e-12,3.99895e-01,2.25720e-12,3.99895e-01,2.79395e-13,3.99895e-01
7.81225e+02,1.66900e+03,1.86100e+03,-1.92000e+02,1.80521e-12,4.07441e-01,4.46822e-12,4.07441e-01,3.10946e-12,4.07441e-01
7.81475e+02,1.56600e+03,2.20000e+03,-6.34000e+02,1.62424e-12,4.14986e-01,6.98351e-12,4.14986e-01,6.90376e-12,4.14986e-01
7.81725e+02,1.77600e+03,2.08100e+03,-3.05000e+02,3.47239e-12,4.22531e-01,8.34311e-12,4.22531e-01,9.67022e-12,4.22531e-01
7.81975e+02,2.21600e+03,1.71500e+03,5.01000e+02,3.43502e-12,4.30076e-01,7.37657e-12,4.30076e-01,8.78262e-12,4.30076e-01
7.82226e+02,2.35300e+03,1.63300e+03,7.20000e+02,8.36719e-13,4.37621e-01,3.72773e-12,4.37621e-01,4.52805e-12,4.37621e-01
7.82476e+02,1.93800e+03,1.87400e+03,6.40000e+01,5.51083e-12,4.45167e-01,7.98425e-12,4.45167e-01,1.34870e-11,4.45167e-01
7.82726e+02,1.66800e+03,2.30200e+03,-6.34000e+02,1.87803e-11,4.52712e-01,2.10716e-11,4.52712e-01,3.98234e-11,4.52712e-01
7.82976e+02,1.92400e+03,2.26500e+03,-3.41000e+02,3.20050e-11,4.60257e-01,3.13644e-11,4.60257e-01,6.30219e-11,4.60257e-01
7.83226e+02,2.44500e+03,1.96100e+03,4.84000e+02,3.43638e-11,4.67802e-01,3.36693e-11,4.67802e-01,6.71432e-11,4.67802e-01
7.83477e+02,2.80500e+03,1.81100e+03,9.94000e+02,3.61545e-11,4.75347e-01,3.50923e-11,4.75347e-01,7.03516e-11,4.75347e-01
7.83727e+02,2.47700e+03,2.11700e+03,3.60000e+02,3.31920e-11,4.82893e-01,2.90211e-11,4.82893e-01,6.16445e-11,4.82893e-01
7.83977e+02,2.12800e+03,2.89400e+03,-7.66000e+02,2.55511e-11,4.90438e-01,2.09918e-11,4.90438e-01,4.64685e-11,4.90438e-01
7.84227e+02,2.18200e+03,2.96000e+03,-7.78000e+02,1.88990e-11,4.97983e-01,1.88068e-11,4.97983e-01,3.77057e-11,4.97983e-01
7.84477e+02,2.70400e+03,2.45800e+03,2.46000e+02,1.29067e-11,5.05528e-01,1.47206e-11,5.05528e-01,2.75035e-11,5.05528e-01
7.84727e+02,3.03000e+03,2.03800e+03,9.92000e+02,8.14840e-12,5.13073e-01,7.18825e-12,5.13073e-01,1.50370e-11,5.13073e-01
7.84978e+02,3.02700e+03,2.18600e+03,8.41000e+02,4.94568e-12,5.20619e-01,2.30202e-12,5.20619e-01,7.24085e-12,5.20619e-01
7.85228e+02,2.21000e+03,2.66900e+03,-4.59000e+02,2.68053e-12,5.28164e-01,2.16290e-12,5.28164e-01,4.68968e-12,5.28164e-01
7.85478e+02,2.02500e+03,3.13600e+03,-1.11100e+03,2.23212e-12,5.35709e-01,5.38848e-13,5.35709e-01,2.70172e-12,5.35709e-01
7.85728e+02,2.52100e+03,3.05100e+03,-5.30000e+02,1.74560e-12,5.43254e-01,2.46600e-12,5.43254e-01,2.02496e-12,5.43254e-01
7.85978e+02,3.65300e+03,2.69200e+03,9.61000e+02,6.09704e-13,5.50799e-01,3.02267e-12,5.50799e-01,3.31067e-12,5.50799e-01
7.86228e+02,3.79400e+03,2.46500e+03,1.32900e+03,1.03614e-12,5.58345e-01,1.50397e-12,5.58345e-01,2.24254e-12,5.58345e-01
7.86478e+02,3.10300e+03,3.10600e+03,-3.00000e+00,1.89729e-12,5.65890e-01,1.85789e-12,5.65890e-01,2.85007e-12,5.65890e-01
7.86728e+02,2.58400e+03,3.83200e+03,-1.24800e+03,2.95620e-12,5.73435e-01,2.26205e-12,5.73435e-01,4.53957e-12,5.73435e-01
7.86978e+02,2.83700e+03,3.73700e+03,-9.00000e+02,4.09811e-12,5.80980e-01,1.02498e-12,5.80980e-01,4.74361e-12,5.80980e-01
7.87228e+02,3.72300e+03,2.92900e+03,7.94000e+02,3.91863e-12,5.88525e-01,1.91919e-12,5.88525e-01,2.11004e-12,5.88525e-01
7.87478e+02,4.41700e+03,2.44800e+03,1.96900e+03,2.61180e-12,5.96071e-01,3.20846e-12,5.96071e-01,8.26106e-13,5.96071e-01
7.87728e+02,3.81000e+03,3.15000e+03,6.60000e+02,1.10496e-12,6.03616e-01,1.77987e-12,6.03616e-01,1.03286e-12,6.03616e-01
7.87978e+02,3.07200e+03,4.64500e+03,-1.57300e+03,1.11351e-12,6.11161e-01,7.40128e-13,6.11161e-01,5.42086e-13,6.11161e-01
7.88228e+02,3.00500e+03,5.47700e+03,-2.47200e+03,6.52186e-13,6.18706e-01,1.04221e-12,6.18706e-01,4.72608e-13,6.18706e-01
7.88478e+02,4.02400e+03,4.28800e+03,-2.64000e+02,4.42361e-13,6.26251e-01,1.97493e-12,6.26251e-01,2.19453e-12,6.26251e-01
7.88728e+02,5.33300e+03,3.36700e+03,1.96600e+03,3.23577e-13,6.33797e-01,1.67681e-12,6.33797e-01,1.67637e-12,6.33797e-01
7.88978e+02,5.35000e+03,3.50100e+03,1.84900e+03,1.36659e-12,6.41342e-01,9.14933e-13,6.41342e-01,4.93140e-13,6.41342e-01
7.89228e+02,3.99500e+03,4.67400e+03,-6.79000e+02,2.92131e-12,6.48887e-01,9.46236e-14,6.48887e-01,2.99648e-12,6.48887e-01
7.89478e+02,3.03900e+03,5.15300e+03,-2.11400e+03,3.32627e-12,6.56432e-01,1.57052e-12,6.56432e-01,4.87014e-12,6.56432e-01
7.89728e+02,3.50500e+03,4.94500e+03,-1.44000e+03,2.04752e-12,6.63977e-01,2.50321e-12,6.63977e-01,4.48738e-12,6.63977e-01
7.89978e+02,5.06800e+03,4.19100e+03,8.77000e+02,1.10336e-12,6.71523e-01,2.98765e-12,6.71523e-01,4.08455e-12,6.71523e-01
7.90228e+02,5.91600e+03,3.48700e+03,2.42900e+03,1.65542e-12,6.79068e-01,1.50065e-12,6.79068e-01,3.06908e-12,6.79068e-01
7.90478e+02,4.97800e+03,3.79000e+03,1.18800e+03,1.90501e-12,6.86613e-01,1.91080e-12,6.86613e-01,9.15175e-13,6.86613e-01
7.90728e+02,3.63500e+03,4.96200e+03,-1.32700e+03,1.04510e-12,6.94158e-01,2.79606e-12,6.94158e-01,1.77012e-12,6.94158e-01
7.90978e+02,3.64500e+03,5.47100e+03,-1.82600e+03,5.10112e-13,7.01703e-01,2.36112e-12,7.01703e-01,1.91631e-12,7.01703e-01
7.91228e+02,4.78400e+03,4.73200e+03,5.20000e+01,8.83565e-13,7.09249e-01,2.21056e-12,7.09249e-01,1.99581e-12,7.09249e-01
7.91478e+02,5.76100e+03,3.85100e+03,1.91000e+03,1.42155e-12,7.16794e-01,2.97962e-12,7.16794e-01,4.11989e-12,7.16794e-01
7.91728e+02,5.58400e+03,4.05900e+03,1.52500e+03,1.52801e-12,7.24339e-01,3.78319e-12,7.24339e-01,5.23819e-12,7.24339e-01
7.91977e+02,4.25900e+03,5.47200e+03,-1.21300e+03,3.30014e-13,7.31884e-01,3.44021e-12,7.31884e-01,3.77011e-12,7.31884e-01
7.92227e+02,3.50800e+03,6.68800e+03,-3.18000e+03,6.55121e-13,7.39429e-01,1.60779e-12,7.39429e-01,1.04228e-12,7.39429e-01
7.92477e+02,4.20900e+03,6.28200e+03,-2.07300e+03,7.01622e-13,7.46975e-01,8.02814e-13,7.46975e-01,1.50417e-12,7.46975e-01
7.92727e+02,5.52000e+03,4.92300e+03,5.97000e+02,9.29619e-13,7.54520e-01,1.18297e-12,7.54520e-01,1.92990e-12,7.54520e-01
7.92977e+02,6.39600e+03,4.08700e+03,2.30900e+03,1.52877e-12,7.62065e-01,5.97311e-13,7.62065e-01,2.01770e-12,7.62065e-01
7.93227e+02,5.77800e+03,5.10200e+03,6.76000e+02,1.09555e-12,7.69610e-01,1.43951e-12,7.69610e-01,2.52690e-12,7.69610e-01
7.93476e+02,4.81800e+03,6.60500e+03,-1.78700e+03,7.38363e-13,7.77155e-01,2.27451e-12,7.77155e-01,2.75704e-12,7.77155e-01
7.93726e+02,5.57300e+03,7.24000e+03,-1.66700e+03,1.55956e-12,7.84701e-01,1.50294e-12,7.84701e-01,2.35135e-12,7.84701e-01
7.93976e+02,6.84800e+03,6.03600e+03,8.12000e+02,2.00326e-12,7.92246e-01,8.87945e-13,7.92246e-01,1.41911e-12,7.92246e-01
7.94226e+02,7.86000e+03,5.08200e+03,2.77800e+03,2.26958e-12,7.99791e-01,1.79366e-12,7.99791e-01,1.01828e-12,7.99791e-01
7.94476e+02,7.13800e+03,6.58200e+03,5.56000e+02,2.45009e-12,8.07336e-01,1.86967e-12,8.07336e-01,7.19132e-13,8.07336e-01
7.94725e+02,4.87700e+03,8.76000e+03,-3.88300e+03,2.34334e-12,8.14881e-01,1.84428e-12,8.14881e-01,1.01856e-12,8.14881e-01
7.94975e+02,4.63500e+03,9.79700e+03,-5.16200e+03,1.97789e-12,8.22427e-01,1.69231e-12,8.22427e-01,1.64312e-12,8.22427e-01
7.95225e+02,6.17600e+03,8.00300e+03,-1.82700e+03,1.32716e-12,8.29972e-01,1.34506e-12,8.29972e-01,2.10905e-12,8.29972e-01
7.95475e+02,8.11700e+03,6.16600e+03,1.95100e+03,6.98061e-13,8.37517e-01,2.01637e-12,8.37517e-01,2.69948e-12,8.37517e-01
7.95724e+02,8.65100e+03,6.09200e+03,2.55900e+03,1.12461e-13,8.45062e-01,2.99152e-12,8.45062e-01,3.05580e-12,8.45062e-01
7.95974e+02,7.12100e+03,8.00300e+03,-8.82000e+02,5.46908e-13,8.52607e-01,3.23277e-12,8.52607e-01,3.20548e-12,8.52607e-01
7.96224e+02,5.59700e+03,8.81000e+03,-3.21300e+03,7.12348e-13,8.60153e-01,2.18132e-12,8.60153e-01,2.54928e-12,8.60153e-01
7.96474e+02,6.30800e+03,8.02600e+03,-1.71800e+03,7.45749e-13,8.67698e-01,1.14271e-12,8.67698e-01,1.20904e-12,8.67698e-01
7.96723e+02,7.91800e+03,6.04300e+03,1.87500e+03,8.73955e-13,8.75243e-01,4.22868e-13,8.75243e-01,6.53651e-13,8.75243e-01
7.96973e+02,8.49600e+03,5.67000e+03,2.82600e+03,1.01619e-12,8.82788e-01,4.36596e-13,8.82788e-01,1.16467e-12,8.82788e-01
7.97223e+02,7.45000e+03,7.35000e+03,1.00000e+02,1.82952e-12,8.90333e-01,9.49863e-13,8.90333e-01,2.13089e-12,8.90333e-01
7.97472e+02,6.51300e+03,9.54400e+03,-3.03100e+03,2.75548e-12,8.97879e-01,1.43393e-12,8.97879e-01,3.03139e-12,8.97879e-01
7.97722e+02,8.05000e+03,1.00730e+04,-2.02300e+03,3.08300e-12,9.05424e-01,1.82599e-12,9.05424e-01,3.62173e-12,9.05424e-01
7.97972e+02,1.04810e+04,8.06800e+03,2.41300e+03,2.87433e-12,9.12969e-01,2.14501e-12,9.12969e-01,3.44292e-12,9.12969e-01
7.98221e+02,1.18960e+04,6.86100e+03,5.03500e+03,2.48160e-12,9.20514e-01,2.41983e-12,9.20514e-01,2.94352e-12,9.20514e-01
7.98471e+02,1.08970e+04,8.41800e+03,2.47900e+03,2.10459e-12,9.28059e-01,3.15988e-12,9.28059e-01,3.21235e-12,9.28059e-01
7.98721e+02,7.49300e+03,1.08120e+04,-3.31900e+03,1.35968e-12,9.35605e-01,3.92061e-12,9.35605e-01,3.79395e-12,9.35605e-01
7.98970e+02,6.67300e+03,1.24050e+04,-5.73200e+03,9.23868e-13,9.43150e-01,4.00187e-12,9.43150e-01,3.63181e-12,9.43150e-01
7.99220e+02,9.47200e+03,1.06770e+04,-1.20500e+03,1.88935e-12,9.50695e-01,3.62019e-12,9.50695e-01,2.50969e-12,9.50695e-01
7.99469e+02,1.12370e+04,7.35500e+03,3.88200e+03,3.24992e-12,9.58240e-01,2.82050e-12,9.58240e-01,1.96405e-12,9.58240e-01
7.99719e+02,1.08520e+04,7.32200e+03,3.53000e+03,3.37222e-12,9.65785e-01,1.12571e-12,9.65785e-01,2.42655e-12,9.65785e-01
7.99969e+02,8.83500e+03,9.83600e+03,-1.00100e+03,2.24618e-12,9.73331e-01,3.87234e-13,9.73331e-01,2.21653e-12,9.73331e-01
8.00218e+02,7.04400e+03,9.89300e+03,-2.84900e+03,5.35705e-13,9.80876e-01,1.02208e-12,9.80876e-01,1.45165e-12,9.80876e-01
8.00468e+02,8.68200e+03,9.08400e+03,-4.02000e+02,1.08809e-12,9.88421e-01,9.45783e-13,9.88421e-01,1.66033e-12,9.88421e-01
8.00717e+02,1.07980e+04,6.84200e+03,3.95600e+03,1.58200e-12,9.95966e-01,4.99290e-13,9.95966e-01,1.20115e-12,9.95966e-01
8.00967e+02,1.08970e+04,6.08400e+03,4.81300e+03,1.55182e-12,1.00351e+00,1.04490e-12,1.00351e+00,6.94239e-13,1.00351e+00
8.01216e+02,1.01390e+04,7.67000e+03,2.46900e+03,1.21057e-12,1.01106e+00,1.10866e-12,1.01106e+00,5.52386e-13,1.01106e+00
8.01466e+02,7.94100e+03,1.04470e+04,-2.50600e+03,6.81367e-13,1.01860e+00,1.08229e-12,1.01860e+00,4.38917e-13,1.01860e+00
8.01715e+02,8.90100e+03,1.24820e+04,-3.58100e+03,3.89186e-13,1.02615e+00,1.04542e-12,1.02615e+00,7.04654e-13,1.02615e+00
8.01965e+02,1.23630e+04,9.98700e+03,2.37600e+03,5.46116e-13,1.03369e+00,1.25543e-12,1.03369e+00,1.09236e-12,1.03369e+00
8.02215e+02,1.43290e+04,8.32200e+03,6.00700e+03,7.12320e-13,1.04124e+00,1.15588e-12,1.04124e+00,1.70022e-12,1.04124e+00
8.02464e+02,1.29580e+04,9.39900e+03,3.55900e+03,7.59872e-13,1.04878e+00,9.62473e-13,1.04878e+00,1.71220e-12,1.04878e+00
8.02713e+02,9.66100e+03,1.14650e+04,-1.80400e+03,5.76732e-13,1.05633e+00,9.29840e-13,1.05633e+00,1.48519e-12,1.05633e+00
8.02963e+02,9.24100e+03,1.19280e+04,-2.68700e+03,1.07715e-13,1.06387e+00,1.06840e-12,1.06387e+00,1.01510e-12,1.06387e+00
8.03212e+02,1.31530e+04,1.10850e+04,2.06800e+03,5.77997e-13,1.07142e+00,1.23438e-12,1.07142e+00,6.66812e-13,1.07142e+00
8.03462e+02,1.55420e+04,1.03820e+04,5.16000e+03,8.59549e-13,1.07896e+00,1.10257e-12,1.07896e+00,4.37798e-13,1.07896e+00
8.03711e+02,1.50470e+04,1.24970e+04,2.55000e+03,7.29583e-13,1.08651e+00,3.22743e-13,1.08651e+00,4.12982e-13,1.08651e+00
8.03961e+02,1.20400e+04,1.52410e+04,-3.20100e+03,2.29866e-13,1.09405e+00,5.18736e-13,1.09405e+00,6.23594e-13,1.09405e+00
8.04210e+02,9.66400e+03,1.57280e+04,-6.06400e+03,3.44057e-13,1.10160e+00,7.30383e-13,1.10160e+00,9.98629e-13,1.10160e+00
8.04460e+02,1.07410e+04,1.48200e+04,-4.07900e+03,9.30145e-13,1.10914e+00,6.60734e-13,1.10914e+00,1.51019e-12,1.10914e+00
8.04709e+02,1.26130e+04,1.17680e+04,8.45000e+02,1.00485e-12,1.11669e+00,9.95747e-13,1.11669e+00,1.97151e-12,1.11669e+00
8.04958e+02,1.33130e+04,9.46400e+03,3.84900e+03,4.96961e-13,1.12423e+00,1.26037e-12,1.12423e+00,1.69825e-12,1.12423e+00
8.05208e+02,1.03120e+04,1.28630e+04,-2.55100e+03,5.03816e-13,1.13178e+00,1.07551e-12,1.13178e+00,9.56249e-13,1.13178e+00
8.05457e+02,8.63200e+03,1.55090e+04,-6.87700e+03,7.33750e-13,1.13932e+00,7.45117e-13,1.13932e+00,5.60895e-13,1.13932e+00
8.05707e+02,9.03500e+03,1.57580e+04,-6.72300e+03,7.01052e-13,1.14687e+00,3.48382e-13,1.14687e+00,5.70830e-13,1.14687e+00
8.05956e+02,1.16650e+04,1.39750e+04,-2.31000e+03,7.66099e-13,1.15442e+00,3.36488e-13,1.15442e+00,4.29707e-13,1.15442e+00
8.06205e+02,1.42320e+04,1.06520e+04,3.58000e+03,7.56585e-13,1.16196e+00,1.12146e-12,1.16196e+00,3.81422e-13,1.16196e+00
8.06455e+02,1.41520e+04,1.01700e+04,3.98200e+03,6.39049e-13,1.16951e+00,1.69613e-12,1.16951e+00,1.07448e-12,1.16951e+00
8.06704e+02,1.06200e+04,1.33140e+04,-2.69400e+03,4.87215e-13,1.17705e+00,1.29514e-12,1.17705e+00,8.10918e-13,1.17705e+00
8.06953e+02,9.16400e+03,1.52550e+04,-6.09100e+03,3.01198e-13,1.18460e+00,2.00212e-13,1.18460e+00,2.30751e-13,1.18460e+00
8.07203e+02,1.23710e+04,1.50110e+04,-2.64000e+03,5.96459e-13,1.19214e+00,9.81927e-13,1.19214e+00,4.60716e-13,1.19214e+00
8.07452e+02,1.50000e+04,1.16060e+04,3.39400e+03,5.07423e-13,1.19969e+00,5.31869e-13,1.19969e+00,7.34036e-14,1.19969e+00
8.07701e+02,1.55050e+04,9.50500e+03,6.00000e+03,2.41682e-13,1.20723e+00,2.89685e-13,1.20723e+00,1.93568e-13,1.20723e+00
8.07951e+02,1.42890e+04,1.16860e+04,2.60300e+03,4.29596e-14,1.21478e+00,7.75554e-14,1.21478e+00,5.05462e-14,1.21478e+00
8.08200e+02,1.11320e+04,1.51670e+04,-4.03500e+03,5.24970e-13,1.22232e+00,2.21987e-13,1.22232e+00,4.24862e-13,1.22232e+00
8.08449e+02,9.89500e+03,1.54360e+04,-5.54100e+03,8.43971e-13,1.22987e+00,1.41951e-13,1.22987e+00,9.03878e-13,1.22987e+00
8.08698e+02,1.19930e+04,1.32100e+04,-1.21700e+03,8.91703e-13,1.23741e+00,3.87421e-13,1.23741e+00,1.25115e-12,1.23741e+00
8.08948e+02,1.48190e+04,1.04490e+04,4.37000e+03,7.32418e-13,1.24496e+00,5.29179e-13,1.24496e+00,1.20803e-12,1.24496e+00
8.09197e+02,1.48230e+04,8.89300e+03,5.93000e+03,6.62401e-13,1.25250e+00,3.32527e-13,1.25250e+00,9.51759e-13,1.25250e+00
8.09446e+02,1.18970e+04,1.06660e+04,1.23100e+03,1.01896e-12,1.26005e+00,7.67571e-13,1.26005e+00,1.45116e-12,1.26005e+00
8.09695e+02,9.04800e+03,1.21400e+04,-3.09200e+03,5.70051e-13,1.26759e+00,1.16092e-12,1.26759e+00,1.69786e-12,1.26759e+00
8.09945e+02,1.01050e+04,1.23000e+04,-2.19500e+03,5.76657e-13,1.27514e+00,9.72231e-13,1.27514e+00,1.41911e-12,1.27514e+00
8.10194e+02,1.38000e+04,1.09170e+04,2.88300e+03,2.59598e-13,1.28268e+00,2.23919e-13,1.28268e+00,4.36114e-13,1.28268e+00
8.10443e+02,1.51170e+04,8.58300e+03,6.53400e+03,5.01598e-13,1.29023e+00,7.82287e-13,1.29023e+00,1.27158e-12,1.29023e+00
8.10692e+02,1.43400e+04,1.04990e+04,3.84100e+03,5.66233e-13,1.29777e+00,1.23258e-12,1.29777e+00,1.65229e-12,1.29777e+00
8.10941e+02,1.12200e+04,1.48570e+04,-3.63700e+03,6.69361e-13,1.30532e+00,9.47331e-13,1.30532e+00,1.27461e-12,1.30532e+00
8.11191e+02,1.09520e+04,1.57380e+04,-4.78600e+03,9.57191e-13,1.31286e+00,5.85006e-13,1.31286e+00,1.47442e-12,1.31286e+00
8.11440e+02,1.45540e+04,1.55350e+04,-9.81000e+02,1.34081e-12,-1.32041e+00,4.61235e-13,-1.32041e+00,1.80205e-12,-1.32041e+00
8.11689e+02,1.56940e+04,1.43580e+04,1.33600e+03,9.57191e-13,-1.31286e+00,5.85006e-13,-1.31286e+00,1.47442e-12,-1.31286e+00
8.11938e+02,1.58330e+04,1.18440e+04,3.98900e+03,6.69361e-13,-1.30532e+00,9.47331e-13,-1.30532e+00,1.27461e-12,-1.30532e+00
8.12187e+02,1.52820e+04,1.40540e+04,1.22800e+03,5.66233e-13,-1.29777e+00,1.23258e-12,-1.29777e+00,1.65229e-12,-1.29777e+00
8.12436e+02,1.17430e+04,1.56260e+04,-3.88300e+03,5.01598e-13,-1.29023e+00,7.82287e-13,-1.29023e+00,1.27158e-12,-1.29023e+00
8.12685e+02,1.09860e+04,1.57730e+04,-4.78700e+03,2.59598e-13,-1.28268e+00,2.23919e-13,-1.28268e+00,4.36114e-13,-1.28268e+00
8.12935e+02,1.46110e+04,1.53390e+04,-7.28000e+02,5.76657e-13,-1.27514e+00,9.72231e-13,-1.27514e+00,1.41911e-12,-1.27514e+00
8.13184e+02,1.56260e+04,1.17620e+04,3.86400e+03,5.70051e-13,-1.26759e+00,1.16092e-12,-1.26759e+00,1.69786e-12,-1.26759e+00
8.13433e+02,1.56270e+04,1.06930e+04,4.93400e+03,1.01896e-12,-1.26005e+00,7.67571e-13,-1.26005e+00,1.45116e-12,-1.26005e+00
8.13682e+02,1.27910e+04,1.39090e+04,-1.11800e+03,6.62401e-13,-1.25250e+00,3.32527e-13,-1.25250e+00,9.51759e-13,-1.25250e+00
8.13931e+02,9.23200e+03,1.56690e+04,-6.43700e+03,7.32418e-13,-1.24496e+00,5.29179e-13,-1.24496e+00,1.20803e-12,-1.24496e+00
8.14180e+02,9.94800e+03,1.58360e+04,-5.88800e+03,8.91703e-13,-1.23741e+00,3.87421e-13,-1.23741e+00,1.25115e-12,-1.23741e+00
8.14429e+02,1.37300e+04,1.58330e+04,-2.10300e+03,8.43971e-13,-1.22987e+00,1.41951e-13,-1.22987e+00,9.03878e-13,-1.22987e+00
8.14678e+02,1.53540e+04,1.49810e+04,3.73000e+02,5.24970e-13,-1.22232e+00,2.21987e-13,-1.22232e+00,4.24862e-13,-1.22232e+00
8.14927e+02,1.48610e+04,1.21430e+04,2.71800e+03,4.29596e-14,-1.21478e+00,7.75554e-14,-1.21478e+00,5.05462e-14,-1.21478e+00
8.15176e+02,1.09580e+04,1.38920e+04,-2.93400e+03,2.41682e-13,-1.20723e+00,2.89685e-13,-1.20723e+00,1.93568e-13,-1.20723e+00
8.15425e+02,8.84200e+03,1.49480e+04,-6.10600e+03,5.07423e-13,-1.19969e+00,5.31869e-13,-1.19969e+00,7.34036e-14,-1.19969e+00
8.15674e+02,1.07940e+04,1.37610e+04,-2.96700e+03,5.96459e-13,-1.19214e+00,9.81927e-13,-1.19214e+00,4.60716e-13,-1.19214e+00
8.15923e+02,1.37830e+04,1.11720e+04,2.61100e+03,3.01198e-13,-1.18460e+00,2.00212e-13,-1.18460e+00,2.30751e-13,-1.18460e+00
8.16172e+02,1.47250e+04,1.05900e+04,4.13500e+03,4.87215e-13,-1.17705e+00,1.29514e-12,-1.17705e+00,8.10918e-13,-1.17705e+00
8.16421e+02,1.37630e+04,1.31150e+04,6.48000e+02,6.39049e-13,-1.16951e+00,1.69613e-12,-1.16951e+00,1.07448e-12,-1.16951e+00
8.16670e+02,1.14430e+04,1.54490e+04,-4.00600e+03,7.56585e-13,-1.16196e+00,1.12146e-12,-1.16196e+00,3.81422e-13,-1.16196e+00
8.16919e+02,1.18040e+04,1.55620e+04,-3.75800e+03,7.66099e-13,-1.15442e+00,3.36488e-13,-1.15442e+00,4.29707e-13,-1.15442e+00
8.17168e+02,1.31110e+04,1.32910e+04,-1.80000e+02,7.01052e-13,-1.14687e+00,3.48382e-13,-1.14687e+00,5.70830e-13,-1.14687e+00
8.17417e+02,1.42640e+04,1.02210e+04,4.04300e+03,7.33750e-13,-1.13932e+00,7.45117e-13,-1.13932e+00,5.60895e-13,-1.13932e+00
8.17666e+02,1.36980e+04,1.07740e+04,2.92400e+03,5.03816e-13,-1.13178e+00,1.07551e-12,-1.13178e+00,9.56249e-13,-1.13178e+00
8.17915e+02,1.18430e+04,1.38960e+04,-2.05300e+03,4.96961e-13,-1.12423e+00,1.26037e-12,-1.12423e+00,1.69825e-12,-1.12423e+00
8.18164e+02,1.10440e+04,1.55710e+04,-4.52700e+03,1.00485e-12,-1.11669e+00,9.95747e-13,-1.11669e+00,1.97151e-12,-1.11669e+00
8.18413e+02,1.21530e+04,1.53450e+04,-3.19200e+03,9.30145e-13,-1.10914e+00,6.60734e-13,-1.10914e+00,1.51019e-12,-1.10914e+00
8.18662e+02,1.43170e+04,1.35470e+04,7.70000e+02,3.44057e-13,-1.10160e+00,7.30383e-13,-1.10160e+00,9.98629e-13,-1.10160e+00
8.18911e+02,1.48720e+04,1.09340e+04,3.93800e+03,2.29866e-13,-1.09405e+00,5.18736e-13,-1.09405e+00,6.23594e-13,-1.09405e+00
8.19160e+02,1.25310e+04,1.22350e+04,2.96000e+02,7.29583e-13,-1.08651e+00,3.22743e-13,-1.08651e+00,4.12982e-13,-1.08651e+00
8.19408e+02,9.78600e+03,1.49280e+04,-5.14200e+03,8.59549e-13,-1.07896e+00,1.10257e-12,-1.07896e+00,4.37798e-13,-1.07896e+00
8.19657e+02,8.40700e+03,1.56000e+04,-7.19300e+03,5.77997e-13,-1.07142e+00,1.23438e-12,-1.07142e+00,6.66812e-13,-1.07142e+00
8.19906e+02,9.49700e+03,1.37980e+04,-4.30100e+03,1.07715e-13,-1.06387e+00,1.06840e-12,-1.06387e+00,1.01510e-12,-1.06387e+00
8.20155e+02,1.26610e+04,1.00410e+04,2.62000e+03,5.76732e-13,-1.05633e+00,9.29840e-13,-1.05633e+00,1.48519e-12,-1.05633e+00
8.20404e+02,1.36770e+04,7.89000e+03,5.78700e+03,7.59872e-13,-1.04878e+00,9.62473e-13,-1.04878e+00,1.71220e-12,-1.04878e+00
8.20653e+02,1.05890e+04,8.79300e+03,1.79600e+03,7.12320e-13,-1.04124e+00,1.15588e-12,-1.04124e+00,1.70022e-12,-1.04124e+00
8.20901e+02,8.06200e+03,1.14090e+04,-3.34700e+03,5.46116e-13,-1.03369e+00,1.25543e-12,-1.03369e+00,1.09236e-12,-1.03369e+00
8.21150e+02,7.49200e+03,1.23900e+04,-4.89800e+03,3.89186e-13,-1.02615e+00,1.04542e-12,-1.02615e+00,7.04654e-13,-1.02615e+00
8.21399e+02,9.52400e+03,1.11110e+04,-1.58700e+03,6.81367e-13,-1.01860e+00,1.08229e-12,-1.01860e+00,4.38917e-13,-1.01860e+00
8.21648e+02,1.07490e+04,8.09500e+03,2.65400e+03,1.21057e-12,-1.01106e+00,1.10866e-12,-1.01106e+00,5.52386e-13,-1.01106e+00
8.21897e+02,9.73000e+03,7.42400e+03,2.30600e+03,1.55182e-12,-1.00351e+00,1.04490e-12,-1.00351e+00,6.94239e-13,-1.00351e+00
8.22145e+02,7.74500e+03,8.96500e+03,-1.22000e+03,1.58200e-12,-9.95966e-01,4.99290e-13,-9.95966e-01,1.20115e-12,-9.95966e-01
8.22394e+02,6.75700e+03,1.16120e+04,-4.85500e+03,1.08809e-12,-9.88421e-01,9.45783e-13,-9.88421e-01,1.66033e-12,-9.88421e-01
8.22643e+02,7.50800e+03,1.17490e+04,-4.24100e+03,5.35705e-13,-9.80876e-01,1.02208e-12,-9.80876e-01,1.45165e-12,-9.80876e-01
8.22892e+02,9.11400e+03,8.71700e+03,3.97000e+02,2.24618e-12,-9.73331e-01,3.87234e-13,-9.73331e-01,2.21653e-12,-9.73331e-01
8.23140e+02,1.01120e+04,6.56600e+03,3.54600e+03,3.37222e-12,-9.65785e-01,1.12571e-12,-9.65785e-01,2.42655e-12,-9.65785e-01
8.23389e+02,8.72200e+03,7.29800e+03,1.42400e+03,3.24992e-12,-9.58240e-01,2.82050e-12,-9.58240e-01,1.96405e-12,-9.58240e-01
8.23638e+02,7.11000e+03,9.34600e+03,-2.23600e+03,1.88935e-12,-9.50695e-01,3.62019e-12,-9.50695e-01,2.50969e-12,-9.50695e-01
8.23887e+02,6.09400e+03,1.00890e+04,-3.99500e+03,9.23868e-13,-9.43150e-01,4.00187e-12,-9.43150e-01,3.63181e-12,-9.43150e-01
8.24135e+02,6.64000e+03,8.96000e+03,-2.32000e+03,1.35968e-12,-9.35605e-01,3.92061e-12,-9.35605e-01,3.79395e-12,-9.35605e-01
8.24384e+02,8.16900e+03,7.09900e+03,1.07000e+03,2.10459e-12,-9.28059e-01,3.15988e-12,-9.28059e-01,3.21235e-12,-9.28059e-01
8.24633e+02,8.29500e+03,5.91400e+03,2.38100e+03,2.48160e-12,-9.20514e-01,2.41983e-12,-9.20514e-01,2.94352e-12,-9.20514e-01
8.24881e+02,7.14500e+03,6.65200e+03,4.93000e+02,2.87433e-12,-9.12969e-01,2.14501e-12,-9.12969e-01,3.44292e-12,-9.12969e-01
8.25130e+02,5.58600e+03,8.03300e+03,-2.44700e+03,3.08300e-12,-9.05424e-01,1.82599e-12,-9.05424e-01,3.62173e-12,-9.05424e-01
8.25379e+02,5.02200e+03,8.71000e+03,-3.68800e+03,2.75548e-12,-8.97879e-01,1.43393e-12,-8.97879e-01,3.03139e-12,-8.97879e-01
8.25627e+02,5.98100e+03,6.92400e+03,-9.43000e+02,1.82952e-12,-8.90333e-01,9.49863e-13,-8.90333e-01,2.13089e-12,-8.90333e-01
8.25876e+02,6.93100e+03,4.78600e+03,2.14500e+03,1.01619e-12,-8.82788e-01,4.36596e-13,-8.82788e-01,1.16467e-12,-8.82788e-01
8.26125e+02,6.91200e+03,4.12900e+03,2.78300e+03,8.73955e-13,-8.75243e-01,4.22868e-13,-8.75243e-01,6.53651e-13,-8.75243e-01
8.26373e+02,5.62400e+03,5.13300e+03,4.91000e+02,7.45749e-13,-8.67698e-01,1.14271e-12,-8.67698e-01,1.20904e-12,-8.67698e-01
8.26622e+02,4.21300e+03,6.13200e+03,-1.91900e+03,7.12348e-13,-8.60153e-01,2.18132e-12,-8.60153e-01,2.54928e-12,-8.60153e-01
8.26870e+02,4.49300e+03,7.06900e+03,-2.57600e+03,5.46908e-13,-8.52607e-01,3.23277e-12,-8.52607e-01,3.20548e-12,-8.52607e-01
8.27119e+02,5.68300e+03,6.00100e+03,-3.18000e+02,1.12461e-13,-8.45062e-01,2.99152e-12,-8.45062e-01,3.05580e-12,-8.45062e-01
8.27368e+02,6.97600e+03,4.70700e+03,2.26900e+03,6.98061e-13,-8.37517e-01,2.01637e-12,-8.37517e-01,2.69948e-12,-8.37517e-01
8.27616e+02,6.32700e+03,4.28400e+03,2.04300e+03,1.32716e-12,-8.29972e-01,1.34506e-12,-8.29972e-01,2.10905e-12,-8.29972e-01
8.27865e+02,5.08900e+03,5.41300e+03,-3.24000e+02,1.97789e-12,-8.22427e-01,1.69231e-12,-8.22427e-01,1.64312e-12,-8.22427e-01
8.28113e+02,3.70600e+03,6.25300e+03,-2.54700e+03,2.34334e-12,-8.14881e-01,1.84428e-12,-8.14881e-01,1.01856e-12,-8.14881e-01
8.28362e+02,3.74900e+03,5.49100e+03,-1.74200e+03,2.45009e-12,-8.07336e-01,1.86967e-12,-8.07336e-01,7.19132e-13,-8.07336e-01
8.28610e+02,4.42900e+03,4.34600e+03,8.30000e+01,2.26958e-12,-7.99791e-01,1.79366e-12,-7.99791e-01,1.01828e-12,-7.99791e-01
8.28859e+02,4.49800e+03,3.03700e+03,1.46100e+03,2.00326e-12,-7.92246e-01,8.87945e-13,-7.92246e-01,1.41911e-12,-7.92246e-01
8.29108e+02,3.65400e+03,2.85900e+03,7.95000e+02,1.55956e-12,-7.84701e-01,1.50294e-12,-7.84701e-01,2.35135e-12,-7.84701e-01
8.29356e+02,2.81000e+03,3.37000e+03,-5.60000e+02,7.38363e-13,-7.77155e-01,2.27451e-12,-7.77155e-01,2.75704e-12,-7.77155e-01
8.29605e+02,2.49600e+03,4.23500e+03,-1.73900e+03,1.09555e-12,-7.69610e-01,1.43951e-12,-7.69610e-01,2.52690e-12,-7.69610e-01
8.29853e+02,2.98300e+03,4.50400e+03,-1.52100e+03,1.52877e-12,-7.62065e-01,5.97311e-13,-7.62065e-01,2.01770e-12,-7.62065e-01
8.30101e+02,3.73500e+03,3.61100e+03,1.24000e+02,9.29619e-13,-7.54520e-01,1.18297e-12,-7.54520e-01,1.92990e-12,-7.54520e-01
8.30350e+02,4.52300e+03,2.92300e+03,1.60000e+03,7.01622e-13,-7.46975e-01,8.02814e-13,-7.46975e-01,1.50417e-12,-7.46975e-01
8.30598e+02,3.92900e+03,3.08700e+03,8.42000e+02,6.55121e-13,-7.39429e-01,1.60779e-12,-7.39429e-01,1.04228e-12,-7.39429e-01
8.30847e+02,3.04100e+03,3.94000e+03,-8.99000e+02,3.30014e-13,-7.31884e-01,3.44021e-12,-7.31884e-01,3.77011e-12,-7.31884e-01
8.31095e+02,2.67500e+03,4.32200e+03,-1.64700e+03,1.52801e-12,-7.24339e-01,3.78319e-12,-7.24339e-01,5.23819e-12,-7.24339e-01
8.31344e+02,3.20200e+03,4.01100e+03,-8.09000e+02,1.42155e-12,-7.16794e-01,2.97962e-12,-7.16794e-01,4.11989e-12,-7.16794e-01
8.31592e+02,3.43700e+03,2.86400e+03,5.73000e+02,8.83565e-13,-7.09249e-01,2.21056e-12,-7.09249e-01,1.99581e-12,-7.09249e-01
8.31841e+02,3.11800e+03,2.23800e+03,8.80000e+02,5.10112e-13,-7.01703e-01,2.36112e-12,-7.01703e-01,1.91631e-12,-7.01703e-01
8.32089e+02,2.51700e+03,2.42600e+03,9.10000e+01,1.04510e-12,-6.94158e-01,2.79606e-12,-6.94158e-01,1.77012e-12,-6.94158e-01
8.32337e+02,1.87400e+03,2.81300e+03,-9.39000e+02,1.90501e-12,-6.86613e-01,1.91080e-12,-6.86613e-01,9.15175e-13,-6.86613e-01
8.32586e+02,1.85500e+03,2.91400e+03,-1.05900e+03,1.65542e-12,-6.79068e-01,1.50065e-12,-6.79068e-01,3.06908e-12,-6.79068e-01
8.32834e+02,2.34400e+03,2.30900e+03,3.50000e+01,1.10336e-12,-6.71523e-01,2.98765e-12,-6.71523e-01,4.08455e-12,-6.71523e-01
8.33083e+02,2.74100e+03,1.84000e+03,9.01000e+02,2.04752e-12,-6.63977e-01,2.50321e-12,-6.63977e-01,4.48738e-12,-6.63977e-01
8.33331e+02,2.43900e+03,1.66500e+03,7.74000e+02,3.32627e-12,-6.56432e-01,1.57052e-12,-6.56432e-01,4.87014e-12,-6.56432e-01
8.33579e+02,1.81700e+03,1.92000e+03,-1.03000e+02,2.92131e-12,-6.48887e-01,9.46236e-14,-6.48887e-01,2.99648e-12,-6.48887e-01
8.33828e+02,1.47400e+03,2.36200e+03,-8.88000e+02,1.36659e-12,-6.41342e-01,9.14933e-13,-6.41342e-01,4.93140e-13,-6.41342e-01
8.34076e+02,1.51200e+03,2.33100e+03,-8.19000e+02,3.23577e-13,-6.33797e-01,1.67681e-12,-6.33797e-01,1.67637e-12,-6.33797e-01
8.34324e+02,1.68400e+03,1.80200e+03,-1.18000e+02,4.42361e-13,-6.26251e-01,1.97493e-12,-6.26251e-01,2.19453e-12,-6.26251e-01
8.34573e+02,1.86900e+03,1.44600e+03,4.23000e+02,6.52186e-13,-6.18706e-01,1.04221e-12,-6.18706e-01,4.72608e-13,-6.18706e-01
8.34821e+02,1.79400e+03,1.42200e+03,3.72000e+02,1.11351e-12,-6.11161e-01,7.40128e-13,-6.11161e-01,5.42086e-13,-6.11161e-01
8.35069e+02,1.42500e+03,1.60400e+03,-1.79000e+02,1.10496e-12,-6.03616e-01,1.77987e-12,-6.03616e-01,1.03286e-12,-6.03616e-01
8.35318e+02,1.16200e+03,1.65800e+03,-4.96000e+02,2.61180e-12,-5.96071e-01,3.20846e-12,-5.96071e-01,8.26106e-13,-5.96071e-01
8.35566e+02,1.18600e+03,1.49900e+03,-3.13000e+02,3.91863e-12,-5.88525e-01,1.91919e-12,-5.88525e-01,2.11004e-12,-5.88525e-01
8.35814e+02,1.26400e+03,1.28600e+03,-2.20000e+01,4.09811e-12,-5.80980e-01,1.02498e-12,-5.80980e-01,4.74361e-12,-5.80980e-01
8.36062e+02,1.37400e+03,1.10300e+03,2.71000e+02,2.95620e-12,-5.73435e-01,2.26205e-12,-5.73435e-01,4.53957e-12,-5.73435e-01
8.36311e+02,1.36800e+03,1.12300e+03,2.45000e+02,1.89729e-12,-5.65890e-01,1.85789e-12,-5.65890e-01,2.85007e-12,-5.65890e-01
8.36559e+02,1.17800e+03,1.24600e+03,-6.80000e+01,1.03614e-12,-5.58345e-01,1.50397e-12,-5.58345e-01,2.24254e-12,-5.58345e-01
8.36807e+02,1.05000e+03,1.38500e+03,-3.35000e+02,6.09704e-13,-5.50799e-01,3.02267e-12,-5.50799e-01,3.31067e-12,-5.50799e-01
8.37055e+02,1.03400e+03,1.35000e+03,-3.16000e+02,1.74560e-12,-5.43254e-01,2.46600e-12,-5.43254e-01,2.02496e-12,-5.43254e-01
8.37304e+02,1.11000e+03,1.10900e+03,1.00000e+00,2.23212e-12,-5.35709e-01,5.38848e-13,-5.35709e-01,2.70172e-12,-5.35709e-01
8.37552e+02,1.14500e+03,9.82000e+02,1.63000e+02,2.68053e-12,-5.28164e-01,2.16290e-12,-5.28164e-01,4.68968e-12,-5.28164e-01
8.37800e+02,1.10400e+03,9.50000e+02,1.54000e+02,4.94568e-12,-5.20619e-01,2.30202e-12,-5.20619e-01,7.24085e-12,-5.20619e-01
8.38048e+02,9.47000e+02,1.02200e+03,-7.50000e+01,8.14840e-12,-5.13073e-01,7.18825e-12,-5.13073e-01,1.50370e-11,-5.13073e-01
8.38296e+02,8.93000e+02,1.08000e+03,-1.87000e+02,1.29067e-11,-5.05528e-01,1.47206e-11,-5.05528e-01,2.75035e-11,-5.05528e-01
8.38545e+02,9.04000e+02,1.06500e+03,-1.61000e+02,1.88990e-11,-4.97983e-01,1.88068e-11,-4.97983e-01,3.77057e-11,-4.97983e-01
8.38793e+02,9.50000e+02,9.34000e+02,1.60000e+01,2.55511e-11,-4.90438e-01,2.09918e-11,-4.90438e-01,4.64685e-11,-4.90438e-01
8.39041e+02,9.70000e+02,8.53000e+02,1.17000e+02,3.31920e-11,-4.82893e-01,2.90211e-11,-4.82893e-01,6.16445e-11,-4.82893e-01
8.39289e+02,9.10000e+02,8.09000e+02,1.01000e+02,3.61545e-11,-4.75347e-01,3.50923e-11,-4.75347e-01,7.03516e-11,-4.75347e-01
8.39537e+02,8.55000e+02,8.64000e+02,-9.00000e+00,3.43638e-11,-4.67802e-01,3.36693e-11,-4.67802e-01,6.71432e-11,-4.67802e-01
8.39785e+02,8.13000e+02,8.92000e+02,-7.90000e+01,3.20050e-11,-4.60257e-01,3.13644e-11,-4.60257e-01,6.30219e-11,-4.60257e-01
8.40033e+02,8.41000e+02,8.76000e+02,-3.50000e+01,1.87803e-11,-4.52712e-01,2.10716e-11,-4.52712e-01,3.98234e-11,-4.52712e-01
8.40281e+02,8.90000e+02,8.39000e+02,5.10000e+01,5.51083e-12,-4.45167e-01,7.98425e-12,-4.45167e-01,1.34870e-11,-4.45167e-01
8.40530e+02,8.81000e+02,8.06000e+02,7.50000e+01,8.36719e-13,-4.37621e-01,3.72773e-12,-4.37621e-01,4.52805e-12,-4.37621e-01
8.40778e+02,8.62000e+02,8.12000e+02,5.00000e+01,3.43502e-12,-4.30076e-01,7.37657e-12,-4.30076e-01,8.78262e-12,-4.30076e-01
8.41026e+02,8.19000e+02,8.40000e+02,-2.10000e+01,3.47239e-12,-4.22531e-01,8.34311e-12,-4.22531e-01,9.67022e-12,-4.22531e-01
8.41274e+02,7.57000e+02,8.38000e+02,-8.10000e+01,1.62424e-12,-4.14986e-01,6.98351e-12,-4.14986e-01,6.90376e-12,-4.14986e-01
8.41522e+02,7.90000e+02,8.28000e+02,-3.80000e+01,1.80521e-12,-4.07441e-01,4.46822e-12,-4.07441e-01,3.10946e-12,-4.07441e-01
8.41770e+02,7.97000e+02,7.86000e+02,1.10000e+01,2.19354e-12,-3.99895e-01,2.25720e-12,-3.99895e-01,2.79395e-13,-3.99895e-01
8.42018e+02,7.94000e+02,7.66000e+02,2.80000e+01,2.51334e-12,-3.92350e-01,8.06260e-13,-3.92350e-01,2.56986e-12,-3.92350e-01
8.42266e+02,7.79000e+02,7.59000e+02,2.00000e+01,2.70820e-12,-3.84805e-01,3.62879e-12,-3.84805e-01,5.38468e-12,-3.84805e-01
8.42514e+02,7.42000e+02,7.99000e+02,-5.70000e+01,4.14084e-12,-3.77260e-01,6.86001e-12,-3.77260e-01,9.27587e-12,-3.77260e-01
8.42762e+02,7.18000e+02,7.92000e+02,-7.40000e+01,4.13573e-12,-3.69715e-01,6.98864e-12,-3.69715e-01,8.46152e-12,-3.69715e-01
8.43010e+02,7.48000e+02,7.76000e+02,-2.80000e+01,5.22020e-12,-3.62169e-01,5.08179e-12,-3.62169e-01,3.38464e-12,-3.62169e-01
8.43258e+02,7.54000e+02,7.35000e+02,1.90000e+01,7.67737e-12,-3.54624e-01,3.69853e-12,-3.54624e-01,4.90177e-12,-3.54624e-01
8.43506e+02,7.37000e+02,7.29000e+02,8.00000e+00,7.03456e-12,-3.47079e-01,2.22580e-12,-3.47079e-01,5.01250e-12,-3.47079e-01
8.43754e+02,7.10000e+02,7.18000e+02,-8.00000e+00,4.62449e-12,-3.39534e-01,1.34266e-12,-3.39534e-01,3.81275e-12,-3.39534e-01
8.44002e+02,7.08000e+02,7.20000e+02,-1.20000e+01,1.14336e-12,-3.31989e-01,1.64593e-12,-3.31989e-01,1.04350e-12,-3.31989e-01
8.44250e+02,6.88000e+02,7.42000e+02,-5.40000e+01,5.16682e-12,-3.24444e-01,2.96957e-12,-3.24444e-01,2.21379e-12,-3.24444e-01
8.44498e+02,7.08000e+02,7.39000e+02,-3.10000e+01,6.37452e-12,-3.16898e-01,3.62192e-12,-3.16898e-01,2.76281e-12,-3.16898e-01
8.44746e+02,7.14000e+02,7.12000e+02,2.00000e+00,4.91703e-12,-3.09353e-01,5.54457e-12,-3.09353e-01,1.20672e-12,-3.09353e-01
8.44994e+02,7.25000e+02,7.16000e+02,9.00000e+00,2.10013e-12,-3.01808e-01,7.65234e-12,-3.01808e-01,5.70038e-12,-3.01808e-01
8.45242e+02,6.99000e+02,7.09000e+02,-1.00000e+01,2.71738e-12,-2.94263e-01,6.11678e-12,-2.94263e-01,8.67130e-12,-2.94263e-01
8.45490e+02,7.05000e+02,7.02000e+02,3.00000e+00,4.92162e-12,-2.86718e-01,2.52737e-12,-2.86718e-01,7.41063e-12,-2.86718e-01
8.45738e+02,6.77000e+02,7.12000e+02,-3.50000e+01,1.75541e-12,-2.79172e-01,2.82471e-12,-2.79172e-01,2.79994e-12,-2.79172e-01
8.45985e+02,6.87000e+02,7.16000e+02,-2.90000e+01,3.34401e-12,-2.71627e-01,4.40382e-12,-2.71627e-01,6.15305e-12,-2.71627e-01
8.46233e+02,6.90000e+02,7.11000e+02,-2.10000e+01,4.11520e-12,-2.64082e-01,6.51538e-12,-2.64082e-01,9.06056e-12,-2.64082e-01
8.46481e+02,7.00000e+02,7.13000e+02,-1.30000e+01,1.24397e-12,-2.56537e-01,7.04208e-12,-2.56537e-01,6.42952e-12,-2.56537e-01
8.46729e+02,7.10000e+02,6.98000e+02,1.20000e+01,2.87452e-12,-2.48992e-01,6.21688e-12,-2.48992e-01,4.43136e-12,-2.48992e-01
8.46977e+02,7.01000e+02,6.85000e+02,1.60000e+01,2.43347e-12,-2.41446e-01,7.30996e-12,-2.41446e-01,6.14623e-12,-2.41446e-01
8.47225e+02,7.02000e+02,6.72000e+02,3.00000e+01,8.02004e-13,-2.33901e-01,5.21499e-12,-2.33901e-01,5.71127e-12,-2.33901e-01
8.47473e+02,6.81000e+02,6.83000e+02,-2.00000e+00,2.25606e-12,-2.26356e-01,3.65493e-12,-2.26356e-01,4.44548e-12,-2.26356e-01
8.47720e+02,6.92000e+02,6.82000e+02,1.00000e+01,2.13901e-12,-2.18811e-01,2.67439e-12,-2.18811e-01,4.36861e-12,-2.18811e-01
8.47968e+02,6.95000e+02,6.86000e+02,9.00000e+00,9.99810e-13,-2.11266e-01,4.87647e-12,-2.11266e-01,4.84094e-12,-2.11266e-01
8.48216e+02,6.87000e+02,6.80000e+02,7.00000e+00,3.13255e-12,-2.03720e-01,1.04705e-11,-2.03720e-01,8.90211e-12,-2.03720e-01
8.48464e+02,6.67000e+02,6.82000e+02,-1.50000e+01,4.01048e-12,-1.96175e-01,9.20500e-12,-1.96175e-01,1.02849e-11,-1.96175e-01
8.48712e+02,6.72000e+02,6.90000e+02,-1.80000e+01,2.08283e-12,-1.88630e-01,4.17758e-12,-1.88630e-01,6.23013e-12,-1.88630e-01
8.48960e+02,6.80000e+02,6.97000e+02,-1.70000e+01,9.98749e-13,-1.81085e-01,2.35001e-12,-1.81085e-01,2.38445e-12,-1.81085e-01
8.49207e+02,6.80000e+02,6.92000e+02,-1.20000e+01,2.53805e-12,-1.73540e-01,7.29637e-12,-1.73540e-01,5.16482e-12,-1.73540e-01
8.49455e+02,6.73000e+02,6.80000e+02,-7.00000e+00,6.60376e-12,-1.65994e-01,1.09399e-11,-1.65994e-01,4.39423e-12,-1.65994e-01
8.49703e+02,6.89000e+02,6.77000e+02,1.20000e+01,8.41808e-12,-1.58449e-01,9.38819e-12,-1.58449e-01,1.02993e-12,-1.58449e-01
8.49951e+02,6.80000e+02,6.75000e+02,5.00000e+00,7.35173e-12,-1.50904e-01,3.58483e-12,-1.50904e-01,3.80600e-12,-1.50904e-01
8.50198e+02,6.89000e+02,6.88000e+02,1.00000e+00,1.08683e-11,-1.43359e-01,6.46803e-12,-1.43359e-01,8.07677e-12,-1.43359e-01
8.50446e+02,6.71000e+02,6.78000e+02,-7.00000e+00,1.30165e-11,-1.35814e-01,9.84904e-12,-1.35814e-01,1.01105e-11,-1.35814e-01
8.50694e+02,6.81000e+02,6.86000e+02,-5.00000e+00,9.26080e-12,-1.28268e-01,7.79691e-12,-1.28268e-01,7.86939e-12,-1.28268e-01
8.50941e+02,6.94000e+02,6.96000e+02,-2.00000e+00,4.36152e-12,-1.20723e-01,1.78044e-12,-1.20723e-01,3.21151e-12,-1.20723e-01
8.51189e+02,6.83000e+02,6.92000e+02,-9.00000e+00,3.67089e-12,-1.13178e-01,5.92955e-12,-1.13178e-01,4.65069e-12,-1.13178e-01
8.51437e+02,6.71000e+02,6.79000e+02,-8.00000e+00,2.10503e-12,-1.05633e-01,9.55896e-12,-1.05633e-01,7.48220e-12,-1.05633e-01
8.51685e+02,6.63000e+02,6.69000e+02,-6.00000e+00,5.96452e-12,-9.80876e-02,1.10200e-11,-9.80876e-02,7.98175e-12,-9.80876e-02
8.51932e+02,6.80000e+02,6.72000e+02,8.00000e+00,8.89444e-12,-9.05424e-02,1.11479e-11,-9.05424e-02,9.45419e-12,-9.05424e-02
8.52180e+02,6.88000e+02,6.79000e+02,9.00000e+00,7.11063e-12,-8.29972e-02,1.28535e-11,-8.29972e-02,1.31248e-11,-8.29972e-02
8.52428e+02,6.72000e+02,6.86000e+02,-1.40000e+01,3.85920e-12,-7.54520e-02,1.31397e-11,-7.54520e-02,1.54332e-11,-7.54520e-02
8.52675e+02,6.62000e+02,6.88000e+02,-2.60000e+01,3.10538e-12,-6.79068e-02,1.08249e-11,-6.79068e-02,1.39280e-11,-6.79068e-02
8.52923e+02,6.82000e+02,6.78000e+02,4.00000e+00,2.54310e-12,-6.03616e-02,9.76531e-12,-6.03616e-02,1.12947e-11,-6.03616e-02
8.53170e+02,6.82000e+02,6.86000e+02,-4.00000e+00,3.48600e-12,-5.28164e-02,1.16627e-11,-5.28164e-02,1.04396e-11,-5.28164e-02
8.53418e+02,6.74000e+02,6.73000e+02,1.00000e+00,9.18324e-12,-4.52712e-02,1.15101e-11,-4.52712e-02,7.74295e-12,-4.52712e-02
8.53666e+02,6.81000e+02,6.65000e+02,1.60000e+01,9.95713e-12,-3.77260e-02,1.00256e-11,-3.77260e-02,1.09582e-12,-3.77260e-02
8.53913e+02,6.97000e+02,6.89000e+02,8.00000e+00,8.99906e-12,-3.01808e-02,1.34481e-11,-3.01808e-02,5.22346e-12,-3.01808e-02
8.54161e+02,6.83000e+02,6.85000e+02,-2.00000e+00,2.14933e-11,-2.26356e-02,2.84641e-11,-2.26356e-02,8.41049e-12,-2.26356e-02
8.54409e+02,6.91000e+02,6.69000e+02,2.20000e+01,1.04668e-10,-1.50904e-02,1.08745e-10,-1.50904e-02,1.04612e-11,-1.50904e-02
8.54656e+02,6.81000e+02,6.81000e+02,0.00000e+00,3.22408e-10,-7.54520e-03,3.33233e-10,-7.54520e-03,1.33164e-11,-7.54520e-03
