7.67698e+02,6.77000e+02,6.68000e+02,9.00000e+00,1.24003e-10,0.00000e+00,1.24464e-10,0.00000e+00,4.61464e-13,0.00000e+00
7.67949e+02,6.71000e+02,6.66000e+02,5.00000e+00,3.89139e-11,7.54520e-03,3.91396e-11,7.54520e-03,4.48672e-13,7.54520e-03
7.68199e+02,6.70000e+02,6.64000e+02,6.00000e+00,1.78053e-11,1.50904e-02,1.72455e-11,1.50904e-02,7.98708e-13,1.50904e-02
7.68450e+02,6.70000e+02,6.77000e+02,-7.00000e+00,5.24482e-12,2.26356e-02,4.17593e-12,2.26356e-02,1.13885e-12,2.26356e-02
7.68701e+02,6.82000e+02,6.72000e+02,1.00000e+01,2.77398e-12,3.01808e-02,3.88770e-12,3.01808e-02,1.29093e-12,3.01808e-02
7.68951e+02,6.72000e+02,6.78000e+02,-6.00000e+00,1.53976e-12,3.77260e-02,2.72649e-12,3.77260e-02,1.42332e-12,3.77260e-02
7.69202e+02,6.97000e+02,6.76000e+02,2.10000e+01,1.33891e-12,4.52712e-02,2.23745e-12,4.52712e-02,1.24156e-12,4.52712e-02
7.69453e+02,6.96000e+02,6.77000e+02,1.90000e+01,1.30238e-12,5.28164e-02,4.25057e-13,5.28164e-02,1.03039e-12,5.28164e-02
7.69703e+02,6.75000e+02,6.78000e+02,-3.00000e+00,8.37914e-13,6.03616e-02,4.67633e-13,6.03616e-02,5.54397e-13,6.03616e-02
7.69954e+02,6.88000e+02,6.76000e+02,1.20000e+01,5.28248e-13,6.79068e-02,9.27426e-13,6.79068e-02,4.17930e-13,6.79068e-02
7.70205e+02,7.01000e+02,6.71000e+02,3.00000e+01,6.59172e-13,7.54520e-02,2.15674e-13,7.54520e-02,4.78001e-13,7.54520e-02
7.70455e+02,6.92000e+02,6.97000e+02,-5.00000e+00,9.78459e-13,8.29972e-02,3.47251e-13,8.29972e-02,8.51826e-13,8.29972e-02
7.70706e+02,6.99000e+02,7.20000e+02,-2.10000e+01,1.35102e-12,9.05424e-02,1.52314e-12,9.05424e-02,1.60366e-12,9.05424e-02
7.70957e+02,6.77000e+02,6.91000e+02,-1.40000e+01,9.81418e-13,9.80876e-02,1.65466e-12,9.80876e-02,2.25708e-12,9.80876e-02
7.71207e+02,7.12000e+02,7.00000e+02,1.20000e+01,4.70382e-13,1.05633e-01,1.87267e-12,1.05633e-01,2.33712e-12,1.05633e-01
7.71458e+02,6.98000e+02,7.13000e+02,-1.50000e+01,1.29279e-12,1.13178e-01,1.30502e-12,1.13178e-01,2.36480e-12,1.13178e-01
7.71708e+02,7.00000e+02,7.04000e+02,-4.00000e+00,9.97621e-13,1.20723e-01,1.64796e-12,1.20723e-01,2.43390e-12,1.20723e-01
7.71959e+02,7.04000e+02,7.13000e+02,-9.00000e+00,1.43742e-12,1.28268e-01,1.88407e-12,1.28268e-01,2.95885e-12,1.28268e-01
7.72210e+02,7.17000e+02,7.15000e+02,2.00000e+00,2.25361e-12,1.35814e-01,2.29585e-12,1.35814e-01,4.48178e-12,1.35814e-01
7.72460e+02,7.26000e+02,7.04000e+02,2.20000e+01,3.74572e-12,1.43359e-01,3.57278e-12,1.43359e-01,7.30481e-12,1.43359e-01
7.72711e+02,7.10000e+02,7.05000e+02,5.00000e+00,4.47736e-12,1.50904e-01,5.19029e-12,1.50904e-01,9.65983e-12,1.50904e-01
7.72961e+02,7.26000e+02,7.04000e+02,2.20000e+01,3.22732e-12,1.58449e-01,3.04629e-12,1.58449e-01,6.26346e-12,1.58449e-01
7.73212e+02,7.38000e+02,7.25000e+02,1.30000e+01,8.07188e-13,1.65994e-01,6.71445e-13,1.65994e-01,1.47010e-12,1.65994e-01
7.73462e+02,7.34000e+02,7.13000e+02,2.10000e+01,8.99712e-13,1.73540e-01,1.21618e-12,1.73540e-01,2.08829e-12,1.73540e-01
7.73713e+02,7.35000e+02,7.21000e+02,1.40000e+01,7.88096e-13,1.81085e-01,1.12703e-12,1.81085e-01,1.82328e-12,1.81085e-01
7.73963e+02,7.33000e+02,7.45000e+02,-1.20000e+01,4.21634e-13,1.88630e-01,1.28099e-12,1.88630e-01,8.60859e-13,1.88630e-01
7.74214e+02,7.58000e+02,7.47000e+02,1.10000e+01,9.74727e-13,1.96175e-01,9.91622e-13,1.96175e-01,1.70497e-14,1.96175e-01
7.74465e+02,7.61000e+02,7.79000e+02,-1.80000e+01,1.07490e-12,2.03720e-01,7.41311e-13,2.03720e-01,3.33988e-13,2.03720e-01
7.74715e+02,7.27000e+02,7.76000e+02,-4.90000e+01,8.85960e-13,2.11266e-01,3.27036e-13,2.11266e-01,5.66251e-13,2.11266e-01
7.74965e+02,7.42000e+02,7.39000e+02,3.00000e+00,7.01742e-13,2.18811e-01,3.65878e-13,2.18811e-01,7.96909e-13,2.18811e-01
7.75216e+02,7.44000e+02,7.60000e+02,-1.60000e+01,6.68153e-13,2.26356e-01,5.97183e-13,2.26356e-01,7.24807e-13,2.26356e-01
7.75466e+02,7.46000e+02,7.42000e+02,4.00000e+00,3.75433e-13,2.33901e-01,4.96232e-13,2.33901e-01,2.29513e-13,2.33901e-01
7.75717e+02,7.32000e+02,7.86000e+02,-5.40000e+01,2.82501e-13,2.41446e-01,3.92665e-13,2.41446e-01,4.49869e-13,2.41446e-01
7.75967e+02,7.40000e+02,7.84000e+02,-4.40000e+01,5.08886e-13,2.48992e-01,6.54009e-13,2.48992e-01,2.97341e-13,2.48992e-01
7.76218e+02,7.65000e+02,7.80000e+02,-1.50000e+01,4.23722e-13,2.56537e-01,4.67066e-13,2.56537e-01,1.59820e-13,2.56537e-01
7.76468e+02,7.89000e+02,7.80000e+02,9.00000e+00,2.29663e-13,2.64082e-01,7.65871e-14,2.64082e-01,2.44460e-13,2.64082e-01
7.76719e+02,7.88000e+02,7.56000e+02,3.20000e+01,1.81698e-13,2.71627e-01,2.74228e-13,2.71627e-01,2.64788e-13,2.71627e-01
7.76969e+02,7.65000e+02,7.70000e+02,-5.00000e+00,2.93016e-13,2.79172e-01,2.66935e-13,2.79172e-01,4.93188e-14,2.79172e-01
7.77219e+02,7.77000e+02,7.76000e+02,1.00000e+00,2.00518e-13,2.86718e-01,1.62456e-13,2.86718e-01,1.09880e-13,2.86718e-01
7.77470e+02,7.75000e+02,7.73000e+02,2.00000e+00,4.71543e-13,2.94263e-01,5.43918e-13,2.94263e-01,1.18642e-13,2.94263e-01
7.77720e+02,8.37000e+02,7.97000e+02,4.00000e+01,7.77153e-13,3.01808e-01,7.15949e-13,3.01808e-01,1.72601e-13,3.01808e-01
7.77971e+02,8.46000e+02,7.99000e+02,4.70000e+01,1.63272e-12,3.09353e-01,1.21797e-12,3.09353e-01,4.31139e-13,3.09353e-01
7.78221e+02,8.81000e+02,8.21000e+02,6.00000e+01,2.34183e-12,3.16898e-01,2.06106e-12,3.16898e-01,4.72908e-13,3.16898e-01
7.78471e+02,8.45000e+02,8.03000e+02,4.20000e+01,2.77744e-12,3.24444e-01,2.74071e-12,3.24444e-01,8.49509e-13,3.24444e-01
7.78722e+02,8.02000e+02,7.98000e+02,4.00000e+00,2.75872e-12,3.31989e-01,2.52551e-12,3.31989e-01,1.14282e-12,3.31989e-01
7.78972e+02,7.99000e+02,8.06000e+02,-7.00000e+00,1.96885e-12,3.39534e-01,1.24419e-12,3.39534e-01,1.13842e-12,3.39534e-01
7.79222e+02,8.50000e+02,8.09000e+02,4.10000e+01,1.23302e-12,3.47079e-01,4.06866e-13,3.47079e-01,9.33609e-13,3.47079e-01
7.79473e+02,8.33000e+02,8.10000e+02,2.30000e+01,1.42693e-13,3.54624e-01,5.34744e-13,3.54624e-01,6.21280e-13,3.54624e-01
7.79723e+02,8.06000e+02,8.41000e+02,-3.50000e+01,3.50933e-13,3.62169e-01,1.08759e-13,3.62169e-01,2.99899e-13,3.62169e-01
7.79973e+02,7.85000e+02,8.51000e+02,-6.60000e+01,2.49315e-13,3.69715e-01,3.47261e-13,3.69715e-01,3.88884e-13,3.69715e-01
7.80224e+02,8.15000e+02,8.41000e+02,-2.60000e+01,1.91292e-13,3.77260e-01,5.80843e-13,3.77260e-01,4.57675e-13,3.77260e-01
7.80474e+02,8.22000e+02,8.35000e+02,-1.30000e+01,2.22277e-13,3.84805e-01,2.66349e-13,3.84805e-01,1.72551e-13,3.84805e-01
7.80724e+02,8.45000e+02,8.29000e+02,1.60000e+01,2.95578e-13,3.92350e-01,3.40574e-13,3.92350e-01,3.24806e-13,3.92350e-01
7.80974e+02,8.33000e+02,8.17000e+02,1.60000e+01,4.75340e-13,3.99895e-01,7.72458e-13,3.99895e-01,9.50705e-13,3.99895e-01
7.81225e+02,8.36000e+02,8.41000e+02,-5.00000e+00,6.09902e-13,4.07441e-01,7.00370e-13,4.07441e-01,9.20818e-13,4.07441e-01
7.81475e+02,8.52000e+02,8.25000e+02,2.70000e+01,4.25300e-13,4.14986e-01,4.74996e-13,4.14986e-01,4.36981e-13,4.14986e-01
7.81725e+02,8.37000e+02,8.21000e+02,1.60000e+01,2.97809e-13,4.22531e-01,3.16331e-13,4.22531e-01,2.29031e-13,4.22531e-01
7.81975e+02,8.65000e+02,8.33000e+02,3.20000e+01,8.84367e-14,4.30076e-01,2.48696e-13,4.30076e-01,2.32477e-13,4.30076e-01
7.82226e+02,8.50000e+02,8.22000e+02,2.80000e+01,1.85860e-13,4.37621e-01,3.57232e-13,4.37621e-01,4.11561e-13,4.37621e-01
7.82476e+02,8.30000e+02,8.11000e+02,1.90000e+01,4.61605e-13,4.45167e-01,1.06954e-12,4.45167e-01,1.19645e-12,4.45167e-01
7.82726e+02,8.36000e+02,8.20000e+02,1.60000e+01,1.42243e-12,4.52712e-01,1.85352e-12,4.52712e-01,3.12355e-12,4.52712e-01
7.82976e+02,8.75000e+02,8.13000e+02,6.20000e+01,2.32382e-12,4.60257e-01,2.76401e-12,4.60257e-01,5.03079e-12,4.60257e-01
7.83226e+02,8.99000e+02,8.41000e+02,5.80000e+01,2.73904e-12,4.67802e-01,2.94705e-12,4.67802e-01,5.67694e-12,4.67802e-01
7.83477e+02,8.88000e+02,8.53000e+02,3.50000e+01,2.79410e-12,4.75347e-01,2.77819e-12,4.75347e-01,5.57044e-12,4.75347e-01
7.83727e+02,8.27000e+02,8.85000e+02,-5.80000e+01,2.25824e-12,4.82893e-01,2.01900e-12,4.82893e-01,4.27183e-12,4.82893e-01
7.83977e+02,8.27000e+02,8.72000e+02,-4.50000e+01,1.47162e-12,4.90438e-01,9.27323e-13,4.90438e-01,2.31649e-12,4.90438e-01
7.84227e+02,8.10000e+02,8.46000e+02,-3.60000e+01,1.12886e-12,4.97983e-01,1.37475e-12,4.97983e-01,2.41329e-12,4.97983e-01
7.84477e+02,8.01000e+02,8.31000e+02,-3.00000e+01,1.04934e-12,5.05528e-01,1.31637e-12,5.05528e-01,2.35376e-12,5.05528e-01
7.84727e+02,8.18000e+02,8.45000e+02,-2.70000e+01,4.69302e-13,5.13073e-01,6.14745e-13,5.13073e-01,1.08147e-12,5.13073e-01
7.84978e+02,8.09000e+02,9.08000e+02,-9.90000e+01,2.39492e-13,5.20619e-01,1.26710e-13,5.20619e-01,3.56847e-13,5.20619e-01
7.85228e+02,8.01000e+02,8.96000e+02,-9.50000e+01,3.45032e-13,5.28164e-01,2.98829e-13,5.28164e-01,5.59673e-13,5.28164e-01
7.85478e+02,7.97000e+02,8.49000e+02,-5.20000e+01,2.46544e-13,5.35709e-01,4.04551e-13,5.35709e-01,6.42291e-13,5.35709e-01
7.85728e+02,8.34000e+02,8.09000e+02,2.50000e+01,1.71571e-13,5.43254e-01,4.43268e-13,5.43254e-01,4.21020e-13,5.43254e-01
7.85978e+02,8.26000e+02,7.89000e+02,3.70000e+01,1.60230e-13,5.50799e-01,3.26865e-13,5.50799e-01,3.81970e-13,5.50799e-01
7.86228e+02,8.04000e+02,7.60000e+02,4.40000e+01,2.44750e-13,5.58345e-01,2.18245e-13,5.58345e-01,3.37523e-13,5.58345e-01
7.86478e+02,7.86000e+02,7.68000e+02,1.80000e+01,2.29960e-13,5.65890e-01,6.98433e-14,5.65890e-01,1.73346e-13,5.65890e-01
7.86728e+02,8.11000e+02,7.84000e+02,2.70000e+01,2.21786e-13,5.73435e-01,1.78236e-13,5.73435e-01,6.82995e-14,5.73435e-01
7.86978e+02,8.72000e+02,7.60000e+02,1.12000e+02,1.71056e-13,5.80980e-01,7.18360e-14,5.80980e-01,1.77667e-13,5.80980e-01
7.87228e+02,9.18000e+02,8.06000e+02,1.12000e+02,2.62093e-13,5.88525e-01,2.80039e-13,5.88525e-01,4.04373e-13,5.88525e-01
7.87478e+02,8.96000e+02,8.53000e+02,4.30000e+01,7.32287e-14,5.96071e-01,3.43339e-13,5.96071e-01,3.96443e-13,5.96071e-01
7.87728e+02,8.41000e+02,9.07000e+02,-6.60000e+01,3.74303e-14,6.03616e-01,2.33852e-13,6.03616e-01,1.96421e-13,6.03616e-01
7.87978e+02,8.04000e+02,8.87000e+02,-8.30000e+01,1.72713e-13,6.11161e-01,1.04839e-13,6.11161e-01,9.29006e-14,6.11161e-01
7.88228e+02,8.09000e+02,8.53000e+02,-4.40000e+01,1.99333e-13,6.18706e-01,1.50461e-13,6.18706e-01,9.62572e-14,6.18706e-01
7.88478e+02,8.33000e+02,8.45000e+02,-1.20000e+01,3.39075e-13,6.26251e-01,2.58212e-13,6.26251e-01,1.00022e-13,6.26251e-01
7.88728e+02,8.18000e+02,9.20000e+02,-1.02000e+02,2.10907e-13,6.33797e-01,1.75494e-13,6.33797e-01,1.52248e-13,6.33797e-01
7.88978e+02,8.27000e+02,1.03300e+03,-2.06000e+02,1.54210e-13,6.41342e-01,2.77682e-13,6.41342e-01,1.51513e-13,6.41342e-01
7.89228e+02,8.38000e+02,1.04200e+03,-2.04000e+02,1.73801e-13,6.48887e-01,2.16471e-13,6.48887e-01,3.53298e-13,6.48887e-01
7.89478e+02,9.18000e+02,9.44000e+02,-2.60000e+01,2.02838e-13,6.56432e-01,4.20961e-13,6.56432e-01,4.58711e-13,6.56432e-01
7.89728e+02,9.29000e+02,8.45000e+02,8.40000e+01,1.73512e-13,6.63977e-01,4.50301e-13,6.63977e-01,5.89022e-13,6.63977e-01
7.89978e+02,8.84000e+02,7.99000e+02,8.50000e+01,3.12574e-13,6.71523e-01,2.76011e-13,6.71523e-01,5.74176e-13,6.71523e-01
7.90228e+02,8.34000e+02,8.18000e+02,1.60000e+01,2.24869e-13,6.79068e-01,1.77139e-13,6.79068e-01,2.77182e-13,6.79068e-01
7.90478e+02,8.31000e+02,8.19000e+02,1.20000e+01,2.23929e-13,6.86613e-01,3.40430e-13,6.86613e-01,1.38987e-13,6.86613e-01
7.90728e+02,9.22000e+02,8.18000e+02,1.04000e+02,7.69906e-14,6.94158e-01,4.56730e-13,6.94158e-01,3.91312e-13,6.94158e-01
7.90978e+02,1.00800e+03,7.88000e+02,2.20000e+02,1.93273e-13,7.01703e-01,5.13129e-13,7.01703e-01,3.76431e-13,7.01703e-01
7.91228e+02,1.03800e+03,8.09000e+02,2.29000e+02,2.13063e-13,7.09249e-01,3.58628e-13,7.09249e-01,3.87241e-13,7.09249e-01
7.91478e+02,1.01800e+03,8.62000e+02,1.56000e+02,3.72960e-13,7.16794e-01,1.20512e-13,7.16794e-01,4.21674e-13,7.16794e-01
7.91728e+02,8.97000e+02,9.08000e+02,-1.10000e+01,2.71596e-13,7.24339e-01,2.53301e-13,7.24339e-01,2.32605e-13,7.24339e-01
7.91977e+02,8.23000e+02,8.72000e+02,-4.90000e+01,1.85285e-13,7.31884e-01,2.52418e-13,7.31884e-01,1.08635e-13,7.31884e-01
7.92227e+02,8.58000e+02,8.51000e+02,7.00000e+00,6.70079e-14,7.39429e-01,2.13470e-13,7.39429e-01,2.42278e-13,7.39429e-01
7.92477e+02,9.09000e+02,8.80000e+02,2.90000e+01,1.14585e-13,7.46975e-01,3.42221e-13,7.46975e-01,4.55028e-13,7.46975e-01
7.92727e+02,9.11000e+02,9.61000e+02,-5.00000e+01,4.10960e-14,7.54520e-01,4.13594e-13,7.54520e-01,3.83168e-13,7.54520e-01
7.92977e+02,8.82000e+02,1.09600e+03,-2.14000e+02,2.18094e-13,7.62065e-01,3.34668e-13,7.62065e-01,2.35653e-13,7.62065e-01
7.93227e+02,8.45000e+02,1.18300e+03,-3.38000e+02,3.15486e-13,7.69610e-01,2.85943e-13,7.69610e-01,2.97120e-13,7.69610e-01
7.93476e+02,8.35000e+02,1.13200e+03,-2.97000e+02,3.70796e-13,7.77155e-01,2.69996e-13,7.77155e-01,2.69282e-13,7.77155e-01
7.93726e+02,8.52000e+02,9.73000e+02,-1.21000e+02,3.73971e-13,7.84701e-01,3.50055e-13,7.84701e-01,3.33525e-13,7.84701e-01
7.93976e+02,8.55000e+02,8.90000e+02,-3.50000e+01,1.93267e-13,7.92246e-01,1.85180e-13,7.92246e-01,2.55194e-13,7.92246e-01
7.94226e+02,8.58000e+02,9.29000e+02,-7.10000e+01,2.00012e-13,7.99791e-01,1.63711e-13,7.99791e-01,2.65467e-13,7.99791e-01
7.94476e+02,8.81000e+02,9.74000e+02,-9.30000e+01,1.25930e-13,8.07336e-01,9.05155e-14,8.07336e-01,2.16354e-13,8.07336e-01
7.94725e+02,1.00400e+03,9.65000e+02,3.90000e+01,2.46588e-13,8.14881e-01,1.43752e-13,8.14881e-01,3.38682e-13,8.14881e-01
7.94975e+02,1.15600e+03,8.70000e+02,2.86000e+02,3.53122e-13,8.22427e-01,2.54381e-13,8.22427e-01,1.75223e-13,8.22427e-01
7.95225e+02,1.26200e+03,8.74000e+02,3.88000e+02,2.72923e-13,8.29972e-01,4.08870e-13,8.29972e-01,1.36052e-13,8.29972e-01
7.95475e+02,1.18200e+03,9.09000e+02,2.73000e+02,2.12855e-13,8.37517e-01,2.48239e-13,8.37517e-01,1.12405e-13,8.37517e-01
7.95724e+02,1.02900e+03,9.41000e+02,8.80000e+01,6.21044e-14,8.45062e-01,8.27713e-14,8.45062e-01,1.41356e-13,8.45062e-01
7.95974e+02,9.40000e+02,8.94000e+02,4.60000e+01,1.14846e-13,8.52607e-01,1.85469e-13,8.52607e-01,1.06897e-13,8.52607e-01
7.96224e+02,1.06400e+03,8.99000e+02,1.65000e+02,1.49952e-13,8.60153e-01,2.98650e-13,8.60153e-01,2.08669e-13,8.60153e-01
7.96474e+02,1.12400e+03,9.76000e+02,1.48000e+02,8.56601e-14,8.67698e-01,2.17298e-13,8.67698e-01,1.37141e-13,8.67698e-01
7.96723e+02,1.14800e+03,1.19800e+03,-5.00000e+01,6.21823e-14,8.75243e-01,1.89382e-13,8.75243e-01,1.59057e-13,8.75243e-01
7.96973e+02,1.05200e+03,1.49200e+03,-4.40000e+02,7.94547e-14,8.82788e-01,2.63538e-14,8.82788e-01,1.01445e-13,8.82788e-01
7.97223e+02,9.54000e+02,1.40000e+03,-4.46000e+02,1.86241e-13,8.90333e-01,1.81571e-13,8.90333e-01,4.15231e-14,8.90333e-01
7.97472e+02,9.20000e+02,1.22700e+03,-3.07000e+02,2.17658e-13,8.97879e-01,3.21751e-13,8.97879e-01,1.97368e-13,8.97879e-01
7.97722e+02,9.64000e+02,1.05900e+03,-9.50000e+01,1.45900e-13,9.05424e-01,3.09521e-13,9.05424e-01,2.06820e-13,9.05424e-01
7.97972e+02,1.00400e+03,1.04000e+03,-3.60000e+01,2.28637e-13,9.12969e-01,3.22982e-13,9.12969e-01,1.53805e-13,9.12969e-01
7.98221e+02,9.63000e+02,1.15500e+03,-1.92000e+02,1.85113e-13,9.20514e-01,1.80160e-13,9.20514e-01,1.14234e-14,9.20514e-01
7.98471e+02,1.05800e+03,1.27900e+03,-2.21000e+02,2.05400e-13,9.28059e-01,1.34737e-13,9.28059e-01,8.01348e-14,9.28059e-01
7.98721e+02,1.28800e+03,1.27000e+03,1.80000e+01,1.03485e-13,9.35605e-01,1.16326e-13,9.35605e-01,1.28677e-14,9.35605e-01
7.98970e+02,1.50000e+03,1.14300e+03,3.57000e+02,1.23265e-13,9.43150e-01,1.51567e-13,9.43150e-01,6.00311e-14,9.43150e-01
7.99220e+02,1.58200e+03,1.04900e+03,5.33000e+02,9.84922e-14,9.50695e-01,2.18971e-13,9.50695e-01,1.28194e-13,9.50695e-01
7.99469e+02,1.42600e+03,1.05100e+03,3.75000e+02,2.16456e-13,9.58240e-01,2.50994e-13,9.58240e-01,1.14594e-13,9.58240e-01
7.99719e+02,1.26500e+03,1.13300e+03,1.32000e+02,1.10653e-13,9.65785e-01,1.90275e-13,9.65785e-01,1.96317e-13,9.65785e-01
7.99969e+02,1.24400e+03,1.10700e+03,1.37000e+02,1.43733e-13,9.73331e-01,1.57772e-13,9.73331e-01,1.89097e-13,9.73331e-01
8.00218e+02,1.36300e+03,1.08400e+03,2.79000e+02,1.61939e-13,9.80876e-01,8.14029e-14,9.80876e-01,1.95725e-13,9.80876e-01
8.00468e+02,1.48800e+03,1.19200e+03,2.96000e+02,2.96765e-14,9.88421e-01,1.15243e-13,9.88421e-01,1.14758e-13,9.88421e-01
8.00717e+02,1.51300e+03,1.38800e+03,1.25000e+02,5.94774e-14,9.95966e-01,1.41925e-13,9.95966e-01,1.60888e-13,9.95966e-01
8.00967e+02,1.37600e+03,1.61300e+03,-2.37000e+02,4.34501e-14,1.00351e+00,1.96645e-13,1.00351e+00,1.82982e-13,1.00351e+00
8.01216e+02,1.23400e+03,1.76400e+03,-5.30000e+02,1.28344e-13,1.01106e+00,5.23124e-14,1.01106e+00,7.77887e-14,1.01106e+00
8.01466e+02,1.30200e+03,1.68100e+03,-3.79000e+02,9.21168e-14,1.01860e+00,2.77371e-14,1.01860e+00,6.56830e-14,1.01860e+00
8.01715e+02,1.45300e+03,1.60000e+03,-1.47000e+02,9.23786e-14,1.02615e+00,1.13726e-13,1.02615e+00,3.73577e-14,1.02615e+00
8.01965e+02,1.45400e+03,1.66500e+03,-2.11000e+02,7.70612e-14,1.03369e+00,4.57506e-14,1.03369e+00,6.01658e-14,1.03369e+00
8.02215e+02,1.44500e+03,1.93300e+03,-4.88000e+02,1.79957e-13,1.04124e+00,1.53550e-13,1.04124e+00,1.24666e-13,1.04124e+00
8.02464e+02,1.67700e+03,2.06900e+03,-3.92000e+02,2.79657e-14,1.04878e+00,1.63455e-13,1.04878e+00,1.49632e-13,1.04878e+00
8.02713e+02,2.00000e+03,1.94900e+03,5.10000e+01,9.39105e-14,1.05633e+00,1.72101e-13,1.05633e+00,2.64732e-13,1.05633e+00
8.02963e+02,2.19000e+03,1.72600e+03,4.64000e+02,1.00886e-13,1.06387e+00,1.27193e-13,1.06387e+00,2.17624e-13,1.06387e+00
8.03212e+02,2.18500e+03,1.69500e+03,4.90000e+02,1.51107e-13,1.07142e+00,7.58335e-14,1.07142e+00,1.78377e-13,1.07142e+00
8.03462e+02,1.99400e+03,1.88300e+03,1.11000e+02,1.11113e-13,1.07896e+00,2.28806e-14,1.07896e+00,1.26836e-13,1.07896e+00
8.03711e+02,1.75600e+03,1.76800e+03,-1.20000e+01,2.01218e-13,1.08651e+00,1.07959e-13,1.08651e+00,1.34225e-13,1.08651e+00
8.03961e+02,1.75600e+03,1.67100e+03,8.50000e+01,2.09352e-13,1.09405e+00,1.72146e-13,1.09405e+00,2.25837e-13,1.09405e+00
8.04210e+02,2.09700e+03,1.66700e+03,4.30000e+02,2.68849e-13,1.10160e+00,2.53280e-13,1.10160e+00,1.25756e-13,1.10160e+00
8.04460e+02,2.20400e+03,1.67700e+03,5.27000e+02,2.28984e-13,1.10914e+00,2.34783e-13,1.10914e+00,1.40521e-13,1.10914e+00
8.04709e+02,1.94200e+03,1.88000e+03,6.20000e+01,1.46002e-13,1.11669e+00,1.63775e-13,1.11669e+00,2.45545e-14,1.11669e+00
8.04958e+02,1.77500e+03,2.27100e+03,-4.96000e+02,1.06382e-13,1.12423e+00,7.88515e-14,1.12423e+00,1.24821e-13,1.12423e+00
8.05208e+02,1.64000e+03,2.41100e+03,-7.71000e+02,8.17077e-14,1.13178e+00,1.90538e-13,1.13178e+00,1.85550e-13,1.13178e+00
8.05457e+02,1.61300e+03,2.17800e+03,-5.65000e+02,2.84861e-14,1.13932e+00,1.00688e-13,1.13932e+00,9.89983e-14,1.13932e+00
8.05707e+02,1.74200e+03,1.91800e+03,-1.76000e+02,1.12686e-13,1.14687e+00,7.58746e-14,1.14687e+00,5.37093e-14,1.14687e+00
8.05956e+02,1.81000e+03,1.95200e+03,-1.42000e+02,5.71125e-14,1.15442e+00,1.77044e-13,1.15442e+00,1.82345e-13,1.15442e+00
8.06205e+02,1.69500e+03,2.07900e+03,-3.84000e+02,1.53763e-13,1.16196e+00,1.31186e-13,1.16196e+00,1.40038e-13,1.16196e+00
8.06455e+02,1.81000e+03,2.38000e+03,-5.70000e+02,8.92493e-14,1.16951e+00,3.04099e-14,1.16951e+00,1.15063e-13,1.16951e+00
8.06704e+02,2.01500e+03,2.17200e+03,-1.57000e+02,2.88653e-14,1.17705e+00,2.98275e-14,1.17705e+00,3.55694e-14,1.17705e+00
8.06953e+02,2.51000e+03,1.93400e+03,5.76000e+02,3.76424e-14,1.18460e+00,1.18230e-14,1.18460e+00,4.60398e-14,1.18460e+00
8.07203e+02,2.67100e+03,1.91500e+03,7.56000e+02,2.39389e-14,1.19214e+00,9.31956e-14,1.19214e+00,8.65524e-14,1.19214e+00
8.07452e+02,2.44700e+03,1.98600e+03,4.61000e+02,7.59464e-14,1.19969e+00,1.23073e-13,1.19969e+00,9.08029e-14,1.19969e+00
8.07701e+02,1.99400e+03,1.86100e+03,1.33000e+02,6.40496e-14,1.20723e+00,1.55076e-13,1.20723e+00,1.09125e-13,1.20723e+00
8.07951e+02,1.96900e+03,1.83200e+03,1.37000e+02,1.14459e-13,1.21478e+00,6.55403e-14,1.21478e+00,5.69732e-14,1.21478e+00
8.08200e+02,2.21100e+03,1.87400e+03,3.37000e+02,7.99471e-14,1.22232e+00,1.42285e-13,1.22232e+00,8.14530e-14,1.22232e+00
8.08449e+02,2.56500e+03,1.99200e+03,5.73000e+02,1.68444e-13,1.22987e+00,1.86007e-13,1.22987e+00,2.22669e-13,1.22987e+00
8.08698e+02,2.74100e+03,2.31500e+03,4.26000e+02,1.52672e-13,1.23741e+00,8.04205e-14,1.23741e+00,2.32294e-13,1.23741e+00
8.08948e+02,2.45800e+03,2.71600e+03,-2.58000e+02,1.02513e-13,1.24496e+00,6.99782e-14,1.24496e+00,1.60519e-13,1.24496e+00
8.09197e+02,1.99300e+03,2.85800e+03,-8.65000e+02,2.35357e-14,1.25250e+00,6.26758e-14,1.25250e+00,4.29955e-14,1.25250e+00
8.09446e+02,1.95000e+03,2.77200e+03,-8.22000e+02,9.38175e-14,1.26005e+00,1.43710e-13,1.26005e+00,9.07496e-14,1.26005e+00
8.09695e+02,1.88600e+03,2.27400e+03,-3.88000e+02,1.37745e-13,1.26759e+00,1.84319e-13,1.26759e+00,7.24740e-14,1.26759e+00
8.09945e+02,2.08900e+03,2.40300e+03,-3.14000e+02,9.49579e-14,1.27514e+00,1.45900e-13,1.27514e+00,6.94983e-14,1.27514e+00
8.10194e+02,2.03300e+03,2.67400e+03,-6.41000e+02,1.29309e-13,1.28268e+00,1.68981e-13,1.28268e+00,6.26786e-14,1.28268e+00
8.10443e+02,2.09900e+03,2.69600e+03,-5.97000e+02,1.87533e-13,1.29023e+00,1.65756e-13,1.29023e+00,1.23439e-13,1.29023e+00
8.10692e+02,2.16900e+03,2.67700e+03,-5.08000e+02,1.40376e-13,1.29777e+00,1.11934e-13,1.29777e+00,2.01569e-13,1.29777e+00
8.10941e+02,2.41300e+03,2.48000e+03,-6.70000e+01,2.21117e-13,1.30532e+00,1.04342e-13,1.30532e+00,1.28768e-13,1.30532e+00
8.11191e+02,2.52900e+03,2.12500e+03,4.04000e+02,2.12857e-13,1.31286e+00,1.33535e-13,1.31286e+00,7.93259e-14,1.31286e+00
8.11440e+02,2.47900e+03,1.91100e+03,5.68000e+02,1.52688e-13,-1.32041e+00,4.47903e-14,-1.32041e+00,1.07898e-13,-1.32041e+00
8.11689e+02,2.38400e+03,1.90600e+03,4.78000e+02,2.12857e-13,-1.31286e+00,1.33535e-13,-1.31286e+00,7.93259e-14,-1.31286e+00
8.11938e+02,2.24500e+03,1.97500e+03,2.70000e+02,2.21117e-13,-1.30532e+00,1.04342e-13,-1.30532e+00,1.28768e-13,-1.30532e+00
8.12187e+02,2.39600e+03,1.99200e+03,4.04000e+02,1.40376e-13,-1.29777e+00,1.11934e-13,-1.29777e+00,2.01569e-13,-1.29777e+00
8.12436e+02,2.79400e+03,1.83800e+03,9.56000e+02,1.87533e-13,-1.29023e+00,1.65756e-13,-1.29023e+00,1.23439e-13,-1.29023e+00
8.12685e+02,3.05200e+03,1.79300e+03,1.25900e+03,1.29309e-13,-1.28268e+00,1.68981e-13,-1.28268e+00,6.26786e-14,-1.28268e+00
8.12935e+02,3.13000e+03,2.01900e+03,1.11100e+03,9.49579e-14,-1.27514e+00,1.45900e-13,-1.27514e+00,6.94983e-14,-1.27514e+00
8.13184e+02,2.53800e+03,2.20700e+03,3.31000e+02,1.37745e-13,-1.26759e+00,1.84319e-13,-1.26759e+00,7.24740e-14,-1.26759e+00
8.13433e+02,2.14500e+03,2.49400e+03,-3.49000e+02,9.38175e-14,-1.26005e+00,1.43710e-13,-1.26005e+00,9.07496e-14,-1.26005e+00
8.13682e+02,2.06800e+03,2.32400e+03,-2.56000e+02,2.35357e-14,-1.25250e+00,6.26758e-14,-1.25250e+00,4.29955e-14,-1.25250e+00
8.13931e+02,1.97000e+03,1.93600e+03,3.40000e+01,1.02513e-13,-1.24496e+00,6.99782e-14,-1.24496e+00,1.60519e-13,-1.24496e+00
8.14180e+02,2.06800e+03,1.99800e+03,7.00000e+01,1.52672e-13,-1.23741e+00,8.04205e-14,-1.23741e+00,2.32294e-13,-1.23741e+00
8.14429e+02,2.15400e+03,2.34400e+03,-1.90000e+02,1.68444e-13,-1.22987e+00,1.86007e-13,-1.22987e+00,2.22669e-13,-1.22987e+00
8.14678e+02,1.98400e+03,2.70900e+03,-7.25000e+02,7.99471e-14,-1.22232e+00,1.42285e-13,-1.22232e+00,8.14530e-14,-1.22232e+00
8.14927e+02,1.78800e+03,2.79800e+03,-1.01000e+03,1.14459e-13,-1.21478e+00,6.55403e-14,-1.21478e+00,5.69732e-14,-1.21478e+00
8.15176e+02,1.93400e+03,2.68800e+03,-7.54000e+02,6.40496e-14,-1.20723e+00,1.55076e-13,-1.20723e+00,1.09125e-13,-1.20723e+00
8.15425e+02,2.21200e+03,2.23700e+03,-2.50000e+01,7.59464e-14,-1.19969e+00,1.23073e-13,-1.19969e+00,9.08029e-14,-1.19969e+00
8.15674e+02,2.17700e+03,2.03500e+03,1.42000e+02,2.39389e-14,-1.19214e+00,9.31956e-14,-1.19214e+00,8.65524e-14,-1.19214e+00
8.15923e+02,2.00800e+03,2.01800e+03,-1.00000e+01,3.76424e-14,-1.18460e+00,1.18230e-14,-1.18460e+00,4.60398e-14,-1.18460e+00
8.16172e+02,1.96700e+03,2.16300e+03,-1.96000e+02,2.88653e-14,-1.17705e+00,2.98275e-14,-1.17705e+00,3.55694e-14,-1.17705e+00
8.16421e+02,2.18500e+03,2.11100e+03,7.40000e+01,8.92493e-14,-1.16951e+00,3.04099e-14,-1.16951e+00,1.15063e-13,-1.16951e+00
8.16670e+02,2.58600e+03,2.02000e+03,5.66000e+02,1.53763e-13,-1.16196e+00,1.31186e-13,-1.16196e+00,1.40038e-13,-1.16196e+00
8.16919e+02,2.88100e+03,1.87400e+03,1.00700e+03,5.71125e-14,-1.15442e+00,1.77044e-13,-1.15442e+00,1.82345e-13,-1.15442e+00
8.17168e+02,2.72100e+03,1.82900e+03,8.92000e+02,1.12686e-13,-1.14687e+00,7.58746e-14,-1.14687e+00,5.37093e-14,-1.14687e+00
8.17417e+02,2.23800e+03,1.85900e+03,3.79000e+02,2.84861e-14,-1.13932e+00,1.00688e-13,-1.13932e+00,9.89983e-14,-1.13932e+00
8.17666e+02,2.00000e+03,2.04800e+03,-4.80000e+01,8.17077e-14,-1.13178e+00,1.90538e-13,-1.13178e+00,1.85550e-13,-1.13178e+00
8.17915e+02,1.92100e+03,1.93800e+03,-1.70000e+01,1.06382e-13,-1.12423e+00,7.88515e-14,-1.12423e+00,1.24821e-13,-1.12423e+00
8.18164e+02,1.95700e+03,1.70300e+03,2.54000e+02,1.46002e-13,-1.11669e+00,1.63775e-13,-1.11669e+00,2.45545e-14,-1.11669e+00
8.18413e+02,2.20800e+03,1.73800e+03,4.70000e+02,2.28984e-13,-1.10914e+00,2.34783e-13,-1.10914e+00,1.40521e-13,-1.10914e+00
8.18662e+02,2.22600e+03,2.06700e+03,1.59000e+02,2.68849e-13,-1.10160e+00,2.53280e-13,-1.10160e+00,1.25756e-13,-1.10160e+00
8.18911e+02,2.05300e+03,2.44500e+03,-3.92000e+02,2.09352e-13,-1.09405e+00,1.72146e-13,-1.09405e+00,2.25837e-13,-1.09405e+00
8.19160e+02,1.79400e+03,2.52400e+03,-7.30000e+02,2.01218e-13,-1.08651e+00,1.07959e-13,-1.08651e+00,1.34225e-13,-1.08651e+00
8.19408e+02,1.87400e+03,2.53000e+03,-6.56000e+02,1.11113e-13,-1.07896e+00,2.28806e-14,-1.07896e+00,1.26836e-13,-1.07896e+00
8.19657e+02,1.97100e+03,2.17000e+03,-1.99000e+02,1.51107e-13,-1.07142e+00,7.58335e-14,-1.07142e+00,1.78377e-13,-1.07142e+00
8.19906e+02,1.95700e+03,1.89200e+03,6.50000e+01,1.00886e-13,-1.06387e+00,1.27193e-13,-1.06387e+00,2.17624e-13,-1.06387e+00
8.20155e+02,1.88700e+03,2.01200e+03,-1.25000e+02,9.39105e-14,-1.05633e+00,1.72101e-13,-1.05633e+00,2.64732e-13,-1.05633e+00
8.20404e+02,1.77000e+03,2.18600e+03,-4.16000e+02,2.79657e-14,-1.04878e+00,1.63455e-13,-1.04878e+00,1.49632e-13,-1.04878e+00
8.20653e+02,1.83200e+03,2.15200e+03,-3.20000e+02,1.79957e-13,-1.04124e+00,1.53550e-13,-1.04124e+00,1.24666e-13,-1.04124e+00
8.20901e+02,2.01500e+03,2.02500e+03,-1.00000e+01,7.70612e-14,-1.03369e+00,4.57506e-14,-1.03369e+00,6.01658e-14,-1.03369e+00
8.21150e+02,2.16100e+03,1.71400e+03,4.47000e+02,9.23786e-14,-1.02615e+00,1.13726e-13,-1.02615e+00,3.73577e-14,-1.02615e+00
8.21399e+02,2.06700e+03,1.70600e+03,3.61000e+02,9.21168e-14,-1.01860e+00,2.77371e-14,-1.01860e+00,6.56830e-14,-1.01860e+00
8.21648e+02,1.87500e+03,1.77200e+03,1.03000e+02,1.28344e-13,-1.01106e+00,5.23124e-14,-1.01106e+00,7.77887e-14,-1.01106e+00
8.21897e+02,1.76500e+03,1.83000e+03,-6.50000e+01,4.34501e-14,-1.00351e+00,1.96645e-13,-1.00351e+00,1.82982e-13,-1.00351e+00
8.22145e+02,1.73900e+03,1.79300e+03,-5.40000e+01,5.94774e-14,-9.95966e-01,1.41925e-13,-9.95966e-01,1.60888e-13,-9.95966e-01
8.22394e+02,1.92500e+03,1.75200e+03,1.73000e+02,2.96765e-14,-9.88421e-01,1.15243e-13,-9.88421e-01,1.14758e-13,-9.88421e-01
8.22643e+02,2.04100e+03,1.81700e+03,2.24000e+02,1.61939e-13,-9.80876e-01,8.14029e-14,-9.80876e-01,1.95725e-13,-9.80876e-01
8.22892e+02,1.93400e+03,2.05900e+03,-1.25000e+02,1.43733e-13,-9.73331e-01,1.57772e-13,-9.73331e-01,1.89097e-13,-9.73331e-01
8.23140e+02,1.78000e+03,2.66400e+03,-8.84000e+02,1.10653e-13,-9.65785e-01,1.90275e-13,-9.65785e-01,1.96317e-13,-9.65785e-01
8.23389e+02,1.63900e+03,2.65500e+03,-1.01600e+03,2.16456e-13,-9.58240e-01,2.50994e-13,-9.58240e-01,1.14594e-13,-9.58240e-01
8.23638e+02,1.59000e+03,2.13400e+03,-5.44000e+02,9.84922e-14,-9.50695e-01,2.18971e-13,-9.50695e-01,1.28194e-13,-9.50695e-01
8.23887e+02,1.63200e+03,1.77000e+03,-1.38000e+02,1.23265e-13,-9.43150e-01,1.51567e-13,-9.43150e-01,6.00311e-14,-9.43150e-01
8.24135e+02,1.56600e+03,1.64200e+03,-7.60000e+01,1.03485e-13,-9.35605e-01,1.16326e-13,-9.35605e-01,1.28677e-14,-9.35605e-01
8.24384e+02,1.52200e+03,1.76200e+03,-2.40000e+02,2.05400e-13,-9.28059e-01,1.34737e-13,-9.28059e-01,8.01348e-14,-9.28059e-01
8.24633e+02,1.54700e+03,1.89600e+03,-3.49000e+02,1.85113e-13,-9.20514e-01,1.80160e-13,-9.20514e-01,1.14234e-14,-9.20514e-01
8.24881e+02,1.71700e+03,1.91400e+03,-1.97000e+02,2.28637e-13,-9.12969e-01,3.22982e-13,-9.12969e-01,1.53805e-13,-9.12969e-01
8.25130e+02,1.97800e+03,1.71200e+03,2.66000e+02,1.45900e-13,-9.05424e-01,3.09521e-13,-9.05424e-01,2.06820e-13,-9.05424e-01
8.25379e+02,2.15600e+03,1.50600e+03,6.50000e+02,2.17658e-13,-8.97879e-01,3.21751e-13,-8.97879e-01,1.97368e-13,-8.97879e-01
8.25627e+02,2.00200e+03,1.43000e+03,5.72000e+02,1.86241e-13,-8.90333e-01,1.81571e-13,-8.90333e-01,4.15231e-14,-8.90333e-01
8.25876e+02,1.76000e+03,1.53000e+03,2.30000e+02,7.94547e-14,-8.82788e-01,2.63538e-14,-8.82788e-01,1.01445e-13,-8.82788e-01
8.26125e+02,1.56100e+03,1.53600e+03,2.50000e+01,6.21823e-14,-8.75243e-01,1.89382e-13,-8.75243e-01,1.59057e-13,-8.75243e-01
8.26373e+02,1.55400e+03,1.44200e+03,1.12000e+02,8.56601e-14,-8.67698e-01,2.17298e-13,-8.67698e-01,1.37141e-13,-8.67698e-01
8.26622e+02,1.52900e+03,1.28900e+03,2.40000e+02,1.49952e-13,-8.60153e-01,2.98650e-13,-8.60153e-01,2.08669e-13,-8.60153e-01
8.26870e+02,1.44700e+03,1.31000e+03,1.37000e+02,1.14846e-13,-8.52607e-01,1.85469e-13,-8.52607e-01,1.06897e-13,-8.52607e-01
8.27119e+02,1.42600e+03,1.48900e+03,-6.30000e+01,6.21044e-14,-8.45062e-01,8.27713e-14,-8.45062e-01,1.41356e-13,-8.45062e-01
8.27368e+02,1.29200e+03,1.54800e+03,-2.56000e+02,2.12855e-13,-8.37517e-01,2.48239e-13,-8.37517e-01,1.12405e-13,-8.37517e-01
8.27616e+02,1.22500e+03,1.56500e+03,-3.40000e+02,2.72923e-13,-8.29972e-01,4.08870e-13,-8.29972e-01,1.36052e-13,-8.29972e-01
8.27865e+02,1.23800e+03,1.55100e+03,-3.13000e+02,3.53122e-13,-8.22427e-01,2.54381e-13,-8.22427e-01,1.75223e-13,-8.22427e-01
8.28113e+02,1.24300e+03,1.35800e+03,-1.15000e+02,2.46588e-13,-8.14881e-01,1.43752e-13,-8.14881e-01,3.38682e-13,-8.14881e-01
8.28362e+02,1.15600e+03,1.23400e+03,-7.80000e+01,1.25930e-13,-8.07336e-01,9.05155e-14,-8.07336e-01,2.16354e-13,-8.07336e-01
8.28610e+02,1.12500e+03,1.28900e+03,-1.64000e+02,2.00012e-13,-7.99791e-01,1.63711e-13,-7.99791e-01,2.65467e-13,-7.99791e-01
8.28859e+02,1.06400e+03,1.35200e+03,-2.88000e+02,1.93267e-13,-7.92246e-01,1.85180e-13,-7.92246e-01,2.55194e-13,-7.92246e-01
8.29108e+02,1.18000e+03,1.30800e+03,-1.28000e+02,3.73971e-13,-7.84701e-01,3.50055e-13,-7.84701e-01,3.33525e-13,-7.84701e-01
8.29356e+02,1.23400e+03,1.20500e+03,2.90000e+01,3.70796e-13,-7.77155e-01,2.69996e-13,-7.77155e-01,2.69282e-13,-7.77155e-01
8.29605e+02,1.24000e+03,1.09100e+03,1.49000e+02,3.15486e-13,-7.69610e-01,2.85943e-13,-7.69610e-01,2.97120e-13,-7.69610e-01
8.29853e+02,1.16900e+03,9.92000e+02,1.77000e+02,2.18094e-13,-7.62065e-01,3.34668e-13,-7.62065e-01,2.35653e-13,-7.62065e-01
8.30101e+02,1.09700e+03,9.96000e+02,1.01000e+02,4.10960e-14,-7.54520e-01,4.13594e-13,-7.54520e-01,3.83168e-13,-7.54520e-01
8.30350e+02,1.02000e+03,1.01800e+03,2.00000e+00,1.14585e-13,-7.46975e-01,3.42221e-13,-7.46975e-01,4.55028e-13,-7.46975e-01
8.30598e+02,9.90000e+02,9.56000e+02,3.40000e+01,6.70079e-14,-7.39429e-01,2.13470e-13,-7.39429e-01,2.42278e-13,-7.39429e-01
8.30847e+02,9.96000e+02,9.26000e+02,7.00000e+01,1.85285e-13,-7.31884e-01,2.52418e-13,-7.31884e-01,1.08635e-13,-7.31884e-01
8.31095e+02,9.73000e+02,9.37000e+02,3.60000e+01,2.71596e-13,-7.24339e-01,2.53301e-13,-7.24339e-01,2.32605e-13,-7.24339e-01
8.31344e+02,1.00900e+03,9.87000e+02,2.20000e+01,3.72960e-13,-7.16794e-01,1.20512e-13,-7.16794e-01,4.21674e-13,-7.16794e-01
8.31592e+02,9.44000e+02,1.03000e+03,-8.60000e+01,2.13063e-13,-7.09249e-01,3.58628e-13,-7.09249e-01,3.87241e-13,-7.09249e-01
8.31841e+02,8.94000e+02,1.05900e+03,-1.65000e+02,1.93273e-13,-7.01703e-01,5.13129e-13,-7.01703e-01,3.76431e-13,-7.01703e-01
8.32089e+02,8.49000e+02,9.89000e+02,-1.40000e+02,7.69906e-14,-6.94158e-01,4.56730e-13,-6.94158e-01,3.91312e-13,-6.94158e-01
8.32337e+02,8.61000e+02,8.66000e+02,-5.00000e+00,2.23929e-13,-6.86613e-01,3.40430e-13,-6.86613e-01,1.38987e-13,-6.86613e-01
8.32586e+02,8.23000e+02,8.42000e+02,-1.90000e+01,2.24869e-13,-6.79068e-01,1.77139e-13,-6.79068e-01,2.77182e-13,-6.79068e-01
8.32834e+02,8.04000e+02,8.58000e+02,-5.40000e+01,3.12574e-13,-6.71523e-01,2.76011e-13,-6.71523e-01,5.74176e-13,-6.71523e-01
8.33083e+02,7.86000e+02,8.85000e+02,-9.90000e+01,1.73512e-13,-6.63977e-01,4.50301e-13,-6.63977e-01,5.89022e-13,-6.63977e-01
8.33331e+02,8.10000e+02,8.89000e+02,-7.90000e+01,2.02838e-13,-6.56432e-01,4.20961e-13,-6.56432e-01,4.58711e-13,-6.56432e-01
8.33579e+02,8.34000e+02,8.44000e+02,-1.00000e+01,1.73801e-13,-6.48887e-01,2.16471e-13,-6.48887e-01,3.53298e-13,-6.48887e-01
8.33828e+02,8.43000e+02,8.01000e+02,4.20000e+01,1.54210e-13,-6.41342e-01,2.77682e-13,-6.41342e-01,1.51513e-13,-6.41342e-01
8.34076e+02,8.64000e+02,7.70000e+02,9.40000e+01,2.10907e-13,-6.33797e-01,1.75494e-13,-6.33797e-01,1.52248e-13,-6.33797e-01
8.34324e+02,8.19000e+02,7.79000e+02,4.00000e+01,3.39075e-13,-6.26251e-01,2.58212e-13,-6.26251e-01,1.00022e-13,-6.26251e-01
8.34573e+02,7.75000e+02,7.55000e+02,2.00000e+01,1.99333e-13,-6.18706e-01,1.50461e-13,-6.18706e-01,9.62572e-14,-6.18706e-01
8.34821e+02,7.36000e+02,7.28000e+02,8.00000e+00,1.72713e-13,-6.11161e-01,1.04839e-13,-6.11161e-01,9.29006e-14,-6.11161e-01
8.35069e+02,7.53000e+02,7.45000e+02,8.00000e+00,3.74303e-14,-6.03616e-01,2.33852e-13,-6.03616e-01,1.96421e-13,-6.03616e-01
8.35318e+02,7.75000e+02,7.29000e+02,4.60000e+01,7.32287e-14,-5.96071e-01,3.43339e-13,-5.96071e-01,3.96443e-13,-5.96071e-01
8.35566e+02,7.72000e+02,7.29000e+02,4.30000e+01,2.62093e-13,-5.88525e-01,2.80039e-13,-5.88525e-01,4.04373e-13,-5.88525e-01
8.35814e+02,7.30000e+02,7.54000e+02,-2.40000e+01,1.71056e-13,-5.80980e-01,7.18360e-14,-5.80980e-01,1.77667e-13,-5.80980e-01
8.36062e+02,7.41000e+02,7.84000e+02,-4.30000e+01,2.21786e-13,-5.73435e-01,1.78236e-13,-5.73435e-01,6.82995e-14,-5.73435e-01
8.36311e+02,7.21000e+02,7.50000e+02,-2.90000e+01,2.29960e-13,-5.65890e-01,6.98433e-14,-5.65890e-01,1.73346e-13,-5.65890e-01
8.36559e+02,7.02000e+02,7.36000e+02,-3.40000e+01,2.44750e-13,-5.58345e-01,2.18245e-13,-5.58345e-01,3.37523e-13,-5.58345e-01
8.36807e+02,6.98000e+02,6.98000e+02,0.00000e+00,1.60230e-13,-5.50799e-01,3.26865e-13,-5.50799e-01,3.81970e-13,-5.50799e-01
8.37055e+02,7.18000e+02,7.13000e+02,5.00000e+00,1.71571e-13,-5.43254e-01,4.43268e-13,-5.43254e-01,4.21020e-13,-5.43254e-01
8.37304e+02,6.96000e+02,7.12000e+02,-1.60000e+01,2.46544e-13,-5.35709e-01,4.04551e-13,-5.35709e-01,6.42291e-13,-5.35709e-01
8.37552e+02,6.91000e+02,7.16000e+02,-2.50000e+01,3.45032e-13,-5.28164e-01,2.98829e-13,-5.28164e-01,5.59673e-13,-5.28164e-01
8.37800e+02,6.94000e+02,7.10000e+02,-1.60000e+01,2.39492e-13,-5.20619e-01,1.26710e-13,-5.20619e-01,3.56847e-13,-5.20619e-01
8.38048e+02,7.12000e+02,7.08000e+02,4.00000e+00,4.69302e-13,-5.13073e-01,6.14745e-13,-5.13073e-01,1.08147e-12,-5.13073e-01
8.38296e+02,7.14000e+02,7.04000e+02,1.00000e+01,1.04934e-12,-5.05528e-01,1.31637e-12,-5.05528e-01,2.35376e-12,-5.05528e-01
8.38545e+02,7.18000e+02,6.80000e+02,3.80000e+01,1.12886e-12,-4.97983e-01,1.37475e-12,-4.97983e-01,2.41329e-12,-4.97983e-01
8.38793e+02,7.05000e+02,6.79000e+02,2.60000e+01,1.47162e-12,-4.90438e-01,9.27323e-13,-4.90438e-01,2.31649e-12,-4.90438e-01
8.39041e+02,6.97000e+02,7.02000e+02,-5.00000e+00,2.25824e-12,-4.82893e-01,2.01900e-12,-4.82893e-01,4.27183e-12,-4.82893e-01
8.39289e+02,6.84000e+02,6.74000e+02,1.00000e+01,2.79410e-12,-4.75347e-01,2.77819e-12,-4.75347e-01,5.57044e-12,-4.75347e-01
8.39537e+02,6.95000e+02,6.73000e+02,2.20000e+01,2.73904e-12,-4.67802e-01,2.94705e-12,-4.67802e-01,5.67694e-12,-4.67802e-01
8.39785e+02,6.88000e+02,6.66000e+02,2.20000e+01,2.32382e-12,-4.60257e-01,2.76401e-12,-4.60257e-01,5.03079e-12,-4.60257e-01
8.40033e+02,6.85000e+02,6.84000e+02,1.00000e+00,1.42243e-12,-4.52712e-01,1.85352e-12,-4.52712e-01,3.12355e-12,-4.52712e-01
8.40281e+02,6.86000e+02,6.74000e+02,1.20000e+01,4.61605e-13,-4.45167e-01,1.06954e-12,-4.45167e-01,1.19645e-12,-4.45167e-01
8.40530e+02,6.78000e+02,6.86000e+02,-8.00000e+00,1.85860e-13,-4.37621e-01,3.57232e-13,-4.37621e-01,4.11561e-13,-4.37621e-01
8.40778e+02,6.83000e+02,6.96000e+02,-1.30000e+01,8.84367e-14,-4.30076e-01,2.48696e-13,-4.30076e-01,2.32477e-13,-4.30076e-01
8.41026e+02,6.91000e+02,6.84000e+02,7.00000e+00,2.97809e-13,-4.22531e-01,3.16331e-13,-4.22531e-01,2.29031e-13,-4.22531e-01
8.41274e+02,6.73000e+02,6.81000e+02,-8.00000e+00,4.25300e-13,-4.14986e-01,4.74996e-13,-4.14986e-01,4.36981e-13,-4.14986e-01
8.41522e+02,6.64000e+02,6.65000e+02,-1.00000e+00,6.09902e-13,-4.07441e-01,7.00370e-13,-4.07441e-01,9.20818e-13,-4.07441e-01
8.41770e+02,6.59000e+02,6.85000e+02,-2.60000e+01,4.75340e-13,-3.99895e-01,7.72458e-13,-3.99895e-01,9.50705e-13,-3.99895e-01
8.42018e+02,6.79000e+02,6.88000e+02,-9.00000e+00,2.95578e-13,-3.92350e-01,3.40574e-13,-3.92350e-01,3.24806e-13,-3.92350e-01
8.42266e+02,6.60000e+02,6.82000e+02,-2.20000e+01,2.22277e-13,-3.84805e-01,2.66349e-13,-3.84805e-01,1.72551e-13,-3.84805e-01
8.42514e+02,6.77000e+02,6.82000e+02,-5.00000e+00,1.91292e-13,-3.77260e-01,5.80843e-13,-3.77260e-01,4.57675e-13,-3.77260e-01
8.42762e+02,6.78000e+02,6.61000e+02,1.70000e+01,2.49315e-13,-3.69715e-01,3.47261e-13,-3.69715e-01,3.88884e-13,-3.69715e-01
8.43010e+02,6.81000e+02,6.72000e+02,9.00000e+00,3.50933e-13,-3.62169e-01,1.08759e-13,-3.62169e-01,2.99899e-13,-3.62169e-01
8.43258e+02,6.85000e+02,6.80000e+02,5.00000e+00,1.42693e-13,-3.54624e-01,5.34744e-13,-3.54624e-01,6.21280e-13,-3.54624e-01
8.43506e+02,6.67000e+02,6.74000e+02,-7.00000e+00,1.23302e-12,-3.47079e-01,4.06866e-13,-3.47079e-01,9.33609e-13,-3.47079e-01
8.43754e+02,6.76000e+02,6.66000e+02,1.00000e+01,1.96885e-12,-3.39534e-01,1.24419e-12,-3.39534e-01,1.13842e-12,-3.39534e-01
8.44002e+02,6.87000e+02,6.76000e+02,1.10000e+01,2.75872e-12,-3.31989e-01,2.52551e-12,-3.31989e-01,1.14282e-12,-3.31989e-01
8.44250e+02,6.64000e+02,6.64000e+02,0.00000e+00,2.77744e-12,-3.24444e-01,2.74071e-12,-3.24444e-01,8.49509e-13,-3.24444e-01
8.44498e+02,6.81000e+02,6.63000e+02,1.80000e+01,2.34183e-12,-3.16898e-01,2.06106e-12,-3.16898e-01,4.72908e-13,-3.16898e-01
8.44746e+02,6.75000e+02,6.64000e+02,1.10000e+01,1.63272e-12,-3.09353e-01,1.21797e-12,-3.09353e-01,4.31139e-13,-3.09353e-01
8.44994e+02,6.57000e+02,6.64000e+02,-7.00000e+00,7.77153e-13,-3.01808e-01,7.15949e-13,-3.01808e-01,1.72601e-13,-3.01808e-01
8.45242e+02,6.67000e+02,6.71000e+02,-4.00000e+00,4.71543e-13,-2.94263e-01,5.43918e-13,-2.94263e-01,1.18642e-13,-2.94263e-01
8.45490e+02,6.65000e+02,6.76000e+02,-1.10000e+01,2.00518e-13,-2.86718e-01,1.62456e-13,-2.86718e-01,1.09880e-13,-2.86718e-01
8.45738e+02,6.61000e+02,6.51000e+02,1.00000e+01,2.93016e-13,-2.79172e-01,2.66935e-13,-2.79172e-01,4.93188e-14,-2.79172e-01
8.45985e+02,6.62000e+02,6.66000e+02,-4.00000e+00,1.81698e-13,-2.71627e-01,2.74228e-13,-2.71627e-01,2.64788e-13,-2.71627e-01
8.46233e+02,6.76000e+02,6.66000e+02,1.00000e+01,2.29663e-13,-2.64082e-01,7.65871e-14,-2.64082e-01,2.44460e-13,-2.64082e-01
8.46481e+02,6.77000e+02,6.65000e+02,1.20000e+01,4.23722e-13,-2.56537e-01,4.67066e-13,-2.56537e-01,1.59820e-13,-2.56537e-01
8.46729e+02,6.78000e+02,6.59000e+02,1.90000e+01,5.08886e-13,-2.48992e-01,6.54009e-13,-2.48992e-01,2.97341e-13,-2.48992e-01
8.46977e+02,6.60000e+02,6.60000e+02,0.00000e+00,2.82501e-13,-2.41446e-01,3.92665e-13,-2.41446e-01,4.49869e-13,-2.41446e-01
8.47225e+02,6.75000e+02,6.73000e+02,2.00000e+00,3.75433e-13,-2.33901e-01,4.96232e-13,-2.33901e-01,2.29513e-13,-2.33901e-01
8.47473e+02,6.51000e+02,6.63000e+02,-1.20000e+01,6.68153e-13,-2.26356e-01,5.97183e-13,-2.26356e-01,7.24807e-13,-2.26356e-01
8.47720e+02,6.53000e+02,6.62000e+02,-9.00000e+00,7.01742e-13,-2.18811e-01,3.65878e-13,-2.18811e-01,7.96909e-13,-2.18811e-01
8.47968e+02,6.46000e+02,6.82000e+02,-3.60000e+01,8.85960e-13,-2.11266e-01,3.27036e-13,-2.11266e-01,5.66251e-13,-2.11266e-01
8.48216e+02,6.70000e+02,6.67000e+02,3.00000e+00,1.07490e-12,-2.03720e-01,7.41311e-13,-2.03720e-01,3.33988e-13,-2.03720e-01
8.48464e+02,6.57000e+02,6.58000e+02,-1.00000e+00,9.74727e-13,-1.96175e-01,9.91622e-13,-1.96175e-01,1.70497e-14,-1.96175e-01
8.48712e+02,6.49000e+02,6.62000e+02,-1.30000e+01,4.21634e-13,-1.88630e-01,1.28099e-12,-1.88630e-01,8.60859e-13,-1.88630e-01
8.48960e+02,6.69000e+02,6.64000e+02,5.00000e+00,7.88096e-13,-1.81085e-01,1.12703e-12,-1.81085e-01,1.82328e-12,-1.81085e-01
8.49207e+02,6.62000e+02,6.68000e+02,-6.00000e+00,8.99712e-13,-1.73540e-01,1.21618e-12,-1.73540e-01,2.08829e-12,-1.73540e-01
8.49455e+02,6.65000e+02,6.61000e+02,4.00000e+00,8.07188e-13,-1.65994e-01,6.71445e-13,-1.65994e-01,1.47010e-12,-1.65994e-01
8.49703e+02,6.66000e+02,6.58000e+02,8.00000e+00,3.22732e-12,-1.58449e-01,3.04629e-12,-1.58449e-01,6.26346e-12,-1.58449e-01
8.49951e+02,6.90000e+02,6.67000e+02,2.30000e+01,4.47736e-12,-1.50904e-01,5.19029e-12,-1.50904e-01,9.65983e-12,-1.50904e-01
8.50198e+02,6.72000e+02,6.67000e+02,5.00000e+00,3.74572e-12,-1.43359e-01,3.57278e-12,-1.43359e-01,7.30481e-12,-1.43359e-01
8.50446e+02,6.75000e+02,6.69000e+02,6.00000e+00,2.25361e-12,-1.35814e-01,2.29585e-12,-1.35814e-01,4.48178e-12,-1.35814e-01
8.50694e+02,6.66000e+02,6.56000e+02,1.00000e+01,1.43742e-12,-1.28268e-01,1.88407e-12,-1.28268e-01,2.95885e-12,-1.28268e-01
8.50941e+02,6.77000e+02,6.80000e+02,-3.00000e+00,9.97621e-13,-1.20723e-01,1.64796e-12,-1.20723e-01,2.43390e-12,-1.20723e-01
8.51189e+02,6.82000e+02,6.65000e+02,1.70000e+01,1.29279e-12,-1.13178e-01,1.30502e-12,-1.13178e-01,2.36480e-12,-1.13178e-01
8.51437e+02,6.68000e+02,6.64000e+02,4.00000e+00,4.70382e-13,-1.05633e-01,1.87267e-12,-1.05633e-01,2.33712e-12,-1.05633e-01
8.51685e+02,6.53000e+02,6.54000e+02,-1.00000e+00,9.81418e-13,-9.80876e-02,1.65466e-12,-9.80876e-02,2.25708e-12,-9.80876e-02
8.51932e+02,6.59000e+02,6.60000e+02,-1.00000e+00,1.35102e-12,-9.05424e-02,1.52314e-12,-9.05424e-02,1.60366e-12,-9.05424e-02
8.52180e+02,6.77000e+02,6.78000e+02,-1.00000e+00,9.78459e-13,-8.29972e-02,3.47251e-13,-8.29972e-02,8.51826e-13,-8.29972e-02
8.52428e+02,6.65000e+02,6.66000e+02,-1.00000e+00,6.59172e-13,-7.54520e-02,2.15674e-13,-7.54520e-02,4.78001e-13,-7.54520e-02
8.52675e+02,6.60000e+02,6.62000e+02,-2.00000e+00,5.28248e-13,-6.79068e-02,9.27426e-13,-6.79068e-02,4.17930e-13,-6.79068e-02
8.52923e+02,6.61000e+02,6.67000e+02,-6.00000e+00,8.37914e-13,-6.03616e-02,4.67633e-13,-6.03616e-02,5.54397e-13,-6.03616e-02
8.53170e+02,6.82000e+02,6.68000e+02,1.40000e+01,1.30238e-12,-5.28164e-02,4.25057e-13,-5.28164e-02,1.03039e-12,-5.28164e-02
8.53418e+02,6.72000e+02,6.60000e+02,1.20000e+01,1.33891e-12,-4.52712e-02,2.23745e-12,-4.52712e-02,1.24156e-12,-4.52712e-02
8.53666e+02,6.52000e+02,6.62000e+02,-1.00000e+01,1.53976e-12,-3.77260e-02,2.72649e-12,-3.77260e-02,1.42332e-12,-3.77260e-02
8.53913e+02,6.72000e+02,6.82000e+02,-1.00000e+01,2.77398e-12,-3.01808e-02,3.88770e-12,-3.01808e-02,1.29093e-12,-3.01808e-02
8.54161e+02,6.69000e+02,6.64000e+02,5.00000e+00,5.24482e-12,-2.26356e-02,4.17593e-12,-2.26356e-02,1.13885e-12,-2.26356e-02
8.54409e+02,6.62000e+02,6.70000e+02,-8.00000e+00,1.78053e-11,-1.50904e-02,1.72455e-11,-1.50904e-02,7.98708e-13,-1.50904e-02
8.54656e+02,6.60000e+02,6.57000e+02,3.00000e+00,3.89139e-11,-7.54520e-03,3.91396e-11,-7.54520e-03,4.48672e-13,-7.54520e-03
