7.67698e+02,6.69000e+02,6.58000e+02,1.10000e+01,1.04961e-10,0.00000e+00,1.05073e-10,0.00000e+00,1.12739e-13,0.00000e+00
7.67949e+02,6.67000e+02,6.81000e+02,-1.40000e+01,2.49800e-11,7.54520e-03,2.50689e-11,7.54520e-03,5.08717e-13,7.54520e-03
7.68199e+02,6.73000e+02,6.62000e+02,1.10000e+01,1.06960e-11,1.50904e-02,1.08785e-11,1.50904e-02,4.03047e-13,1.50904e-02
7.68450e+02,6.66000e+02,6.70000e+02,-4.00000e+00,1.89746e-12,2.26356e-02,1.92504e-12,2.26356e-02,9.02124e-14,2.26356e-02
7.68701e+02,6.71000e+02,6.72000e+02,-1.00000e+00,3.86419e-12,3.01808e-02,3.80603e-12,3.01808e-02,2.78326e-13,3.01808e-02
7.68951e+02,6.66000e+02,6.75000e+02,-9.00000e+00,2.38447e-12,3.77260e-02,2.28482e-12,3.77260e-02,2.69851e-13,3.77260e-02
7.69202e+02,6.76000e+02,6.97000e+02,-2.10000e+01,2.12933e-12,4.52712e-02,1.95189e-12,4.52712e-02,2.35099e-13,4.52712e-02
7.69453e+02,6.82000e+02,6.86000e+02,-4.00000e+00,2.41223e-13,5.28164e-02,2.47510e-13,5.28164e-02,8.10948e-14,5.28164e-02
7.69703e+02,6.77000e+02,6.96000e+02,-1.90000e+01,1.90083e-13,6.03616e-02,2.20764e-13,6.03616e-02,2.55744e-13,6.03616e-02
7.69954e+02,6.78000e+02,6.97000e+02,-1.90000e+01,2.18112e-13,6.79068e-02,3.51110e-13,6.79068e-02,1.57193e-13,6.79068e-02
7.70205e+02,6.72000e+02,7.00000e+02,-2.80000e+01,7.12569e-13,7.54520e-02,6.83548e-13,7.54520e-02,6.38971e-13,7.54520e-02
7.70455e+02,7.01000e+02,6.98000e+02,3.00000e+00,6.30165e-13,8.29972e-02,1.01736e-12,8.29972e-02,6.51522e-13,8.29972e-02
7.70706e+02,6.90000e+02,7.04000e+02,-1.40000e+01,4.56497e-13,9.05424e-02,6.77466e-13,9.05424e-02,5.59563e-13,9.05424e-02
7.70957e+02,6.92000e+02,6.78000e+02,1.40000e+01,4.76438e-13,9.80876e-02,6.22061e-13,9.80876e-02,2.32225e-13,9.80876e-02
7.71207e+02,7.15000e+02,6.98000e+02,1.70000e+01,1.27446e-12,1.05633e-01,5.88870e-13,1.05633e-01,6.94867e-13,1.05633e-01
7.71458e+02,6.97000e+02,6.97000e+02,0.00000e+00,1.39633e-12,1.13178e-01,4.91600e-13,1.13178e-01,9.04811e-13,1.13178e-01
7.71708e+02,6.90000e+02,6.96000e+02,-6.00000e+00,8.20730e-13,1.20723e-01,8.43534e-13,1.20723e-01,5.56672e-14,1.20723e-01
7.71959e+02,7.08000e+02,6.95000e+02,1.30000e+01,5.94941e-13,1.28268e-01,1.11485e-12,1.28268e-01,1.63348e-12,1.28268e-01
7.72210e+02,7.18000e+02,6.88000e+02,3.00000e+01,2.16214e-12,1.35814e-01,2.13013e-12,1.35814e-01,4.28538e-12,1.35814e-01
7.72460e+02,6.95000e+02,6.91000e+02,4.00000e+00,3.71766e-12,1.43359e-01,3.02723e-12,1.43359e-01,6.59914e-12,1.43359e-01
7.72711e+02,6.93000e+02,7.12000e+02,-1.90000e+01,2.87360e-12,1.50904e-01,2.59341e-12,1.50904e-01,5.21166e-12,1.50904e-01
7.72961e+02,7.07000e+02,7.01000e+02,6.00000e+00,1.58865e-12,1.58449e-01,9.03540e-13,1.58449e-01,2.02983e-12,1.58449e-01
7.73212e+02,7.19000e+02,7.24000e+02,-5.00000e+00,6.36239e-13,1.65994e-01,1.60476e-13,1.65994e-01,7.02908e-13,1.65994e-01
7.73462e+02,7.15000e+02,6.97000e+02,1.80000e+01,4.45019e-13,1.73540e-01,3.12325e-13,1.73540e-01,6.02812e-13,1.73540e-01
7.73713e+02,7.20000e+02,7.24000e+02,-4.00000e+00,3.59248e-13,1.81085e-01,5.04987e-13,1.81085e-01,7.37785e-13,1.81085e-01
7.73963e+02,7.17000e+02,7.15000e+02,2.00000e+00,7.82045e-13,1.88630e-01,2.54743e-13,1.88630e-01,7.37228e-13,1.88630e-01
7.74214e+02,7.12000e+02,7.33000e+02,-2.10000e+01,6.96601e-13,1.96175e-01,3.08079e-13,1.96175e-01,4.94396e-13,1.96175e-01
7.74465e+02,7.34000e+02,7.42000e+02,-8.00000e+00,7.98207e-13,2.03720e-01,3.68684e-13,2.03720e-01,4.38401e-13,2.03720e-01
7.74715e+02,7.26000e+02,7.41000e+02,-1.50000e+01,6.29520e-13,2.11266e-01,3.02798e-13,2.11266e-01,3.45066e-13,2.11266e-01
7.74965e+02,7.53000e+02,7.39000e+02,1.40000e+01,5.88206e-14,2.18811e-01,1.65137e-13,2.18811e-01,1.86017e-13,2.18811e-01
7.75216e+02,7.31000e+02,7.43000e+02,-1.20000e+01,2.78130e-13,2.26356e-01,2.22947e-13,2.26356e-01,2.93939e-13,2.26356e-01
7.75466e+02,7.42000e+02,7.48000e+02,-6.00000e+00,7.34388e-13,2.33901e-01,3.79774e-13,2.33901e-01,3.91918e-13,2.33901e-01
7.75717e+02,7.45000e+02,7.53000e+02,-8.00000e+00,6.01079e-13,2.41446e-01,3.40301e-15,2.41446e-01,5.98975e-13,2.41446e-01
7.75967e+02,7.50000e+02,7.47000e+02,3.00000e+00,4.11141e-13,2.48992e-01,3.13400e-13,2.48992e-01,2.81992e-13,2.48992e-01
7.76218e+02,7.77000e+02,7.53000e+02,2.40000e+01,3.10335e-13,2.56537e-01,3.06110e-13,2.56537e-01,1.18194e-13,2.56537e-01
7.76468e+02,7.81000e+02,7.66000e+02,1.50000e+01,4.15234e-13,2.64082e-01,8.05982e-14,2.64082e-01,3.44401e-13,2.64082e-01
7.76719e+02,7.53000e+02,7.57000e+02,-4.00000e+00,5.59991e-13,2.71627e-01,1.55879e-14,2.71627e-01,5.64408e-13,2.71627e-01
7.76969e+02,7.57000e+02,7.68000e+02,-1.10000e+01,4.59254e-13,2.79172e-01,1.25714e-13,2.79172e-01,4.97465e-13,2.79172e-01
7.77219e+02,7.72000e+02,7.64000e+02,8.00000e+00,2.05124e-13,2.86718e-01,1.23274e-13,2.86718e-01,2.30143e-13,2.86718e-01
7.77470e+02,7.82000e+02,7.86000e+02,-4.00000e+00,9.37428e-14,2.94263e-01,2.83577e-13,2.94263e-01,3.75187e-13,2.94263e-01
7.77720e+02,7.79000e+02,8.04000e+02,-2.50000e+01,4.04622e-13,3.01808e-01,3.55579e-13,3.01808e-01,2.56571e-13,3.01808e-01
7.77971e+02,7.80000e+02,8.03000e+02,-2.30000e+01,7.86084e-13,3.09353e-01,6.56746e-13,3.09353e-01,1.89915e-13,3.09353e-01
7.78221e+02,8.07000e+02,8.27000e+02,-2.00000e+01,1.27337e-12,3.16898e-01,1.10122e-12,3.16898e-01,4.84865e-13,3.16898e-01
7.78471e+02,7.95000e+02,8.21000e+02,-2.60000e+01,1.42972e-12,3.24444e-01,1.55452e-12,3.24444e-01,5.34592e-13,3.24444e-01
7.78722e+02,7.73000e+02,8.09000e+02,-3.60000e+01,1.14336e-12,3.31989e-01,1.33340e-12,3.31989e-01,3.85078e-13,3.31989e-01
7.78972e+02,7.83000e+02,7.81000e+02,2.00000e+00,5.70359e-13,3.39534e-01,1.03527e-12,3.39534e-01,5.32197e-13,3.39534e-01
7.79222e+02,7.94000e+02,7.88000e+02,6.00000e+00,6.04190e-13,3.47079e-01,5.37551e-13,3.47079e-01,9.88870e-13,3.47079e-01
7.79473e+02,7.77000e+02,7.81000e+02,-4.00000e+00,3.54044e-13,3.54624e-01,4.85290e-13,3.54624e-01,8.34561e-13,3.54624e-01
7.79723e+02,7.86000e+02,7.88000e+02,-2.00000e+00,1.84511e-13,3.62169e-01,3.63856e-13,3.62169e-01,4.78286e-13,3.62169e-01
7.79973e+02,7.89000e+02,7.69000e+02,2.00000e+01,1.14347e-13,3.69715e-01,2.05159e-13,3.69715e-01,1.04594e-13,3.69715e-01
7.80224e+02,8.15000e+02,7.76000e+02,3.90000e+01,2.01895e-13,3.77260e-01,4.47397e-13,3.77260e-01,3.84741e-13,3.77260e-01
7.80474e+02,8.19000e+02,7.89000e+02,3.00000e+01,1.09362e-13,3.84805e-01,3.41696e-13,3.84805e-01,4.20975e-13,3.84805e-01
7.80724e+02,8.04000e+02,7.81000e+02,2.30000e+01,1.14333e-13,3.92350e-01,2.83042e-13,3.92350e-01,3.17974e-13,3.92350e-01
7.80974e+02,7.95000e+02,7.89000e+02,6.00000e+00,1.77865e-13,3.99895e-01,4.08433e-13,3.99895e-01,5.43411e-13,3.99895e-01
7.81225e+02,8.02000e+02,8.05000e+02,-3.00000e+00,4.08904e-13,4.07441e-01,3.93089e-13,4.07441e-01,5.37860e-13,4.07441e-01
7.81475e+02,7.96000e+02,7.88000e+02,8.00000e+00,3.39005e-13,4.14986e-01,3.14475e-13,4.14986e-01,2.44822e-13,4.14986e-01
7.81725e+02,7.84000e+02,7.83000e+02,1.00000e+00,6.21703e-13,4.22531e-01,1.69535e-13,4.22531e-01,4.58021e-13,4.22531e-01
7.81975e+02,7.84000e+02,7.77000e+02,7.00000e+00,4.30590e-13,4.30076e-01,2.24468e-13,4.30076e-01,6.49533e-13,4.30076e-01
7.82226e+02,8.01000e+02,8.10000e+02,-9.00000e+00,3.61545e-13,4.37621e-01,3.00047e-13,4.37621e-01,6.61152e-13,4.37621e-01
7.82476e+02,7.88000e+02,7.96000e+02,-8.00000e+00,7.74963e-13,4.45167e-01,3.10693e-13,4.45167e-01,1.07188e-12,4.45167e-01
7.82726e+02,7.69000e+02,7.87000e+02,-1.80000e+01,1.24464e-12,4.52712e-01,9.20169e-13,4.52712e-01,2.12650e-12,4.52712e-01
7.82976e+02,8.04000e+02,8.00000e+02,4.00000e+00,1.70536e-12,4.60257e-01,1.53335e-12,4.60257e-01,3.18825e-12,4.60257e-01
7.83226e+02,7.87000e+02,8.09000e+02,-2.20000e+01,1.68617e-12,4.67802e-01,1.88666e-12,4.67802e-01,3.52896e-12,4.67802e-01
7.83477e+02,7.78000e+02,8.01000e+02,-2.30000e+01,1.46580e-12,4.75347e-01,1.74406e-12,4.75347e-01,3.16268e-12,4.75347e-01
7.83727e+02,7.71000e+02,8.31000e+02,-6.00000e+01,1.02233e-12,4.82893e-01,1.33927e-12,4.82893e-01,2.32882e-12,4.82893e-01
7.83977e+02,7.79000e+02,8.17000e+02,-3.80000e+01,7.86751e-13,4.90438e-01,8.69708e-13,4.90438e-01,1.62034e-12,4.90438e-01
7.84227e+02,8.16000e+02,7.92000e+02,2.40000e+01,4.61965e-13,4.97983e-01,6.45119e-13,4.97983e-01,1.00143e-12,4.97983e-01
7.84477e+02,8.20000e+02,7.55000e+02,6.50000e+01,2.94143e-13,5.05528e-01,3.05017e-13,5.05528e-01,5.36327e-13,5.05528e-01
7.84727e+02,8.03000e+02,7.37000e+02,6.60000e+01,7.68688e-14,5.13073e-01,9.16678e-14,5.13073e-01,1.27438e-13,5.13073e-01
7.84978e+02,7.84000e+02,7.62000e+02,2.20000e+01,1.96639e-13,5.20619e-01,1.14391e-13,5.20619e-01,1.74895e-13,5.20619e-01
7.85228e+02,7.54000e+02,7.60000e+02,-6.00000e+00,8.31742e-14,5.28164e-01,1.27463e-13,5.28164e-01,1.00986e-13,5.28164e-01
7.85478e+02,7.65000e+02,7.41000e+02,2.40000e+01,6.44621e-14,5.35709e-01,1.38783e-13,5.35709e-01,7.43227e-14,5.35709e-01
7.85728e+02,7.65000e+02,7.29000e+02,3.60000e+01,1.84619e-13,5.43254e-01,4.39104e-14,5.43254e-01,1.53917e-13,5.43254e-01
7.85978e+02,7.85000e+02,7.57000e+02,2.80000e+01,1.49449e-13,5.50799e-01,1.56062e-13,5.50799e-01,8.98841e-14,5.50799e-01
7.86228e+02,7.64000e+02,7.73000e+02,-9.00000e+00,1.68528e-13,5.58345e-01,1.53783e-13,5.58345e-01,1.46967e-13,5.58345e-01
7.86478e+02,7.32000e+02,7.68000e+02,-3.60000e+01,1.63013e-13,5.65890e-01,1.19975e-13,5.65890e-01,1.00235e-13,5.65890e-01
7.86728e+02,7.33000e+02,7.64000e+02,-3.10000e+01,1.48835e-13,5.73435e-01,5.47092e-14,5.73435e-01,1.95762e-13,5.73435e-01
7.86978e+02,7.26000e+02,7.45000e+02,-1.90000e+01,7.56786e-14,5.80980e-01,5.19981e-14,5.80980e-01,6.67159e-14,5.80980e-01
7.87228e+02,7.35000e+02,7.55000e+02,-2.00000e+01,1.61311e-13,5.88525e-01,1.70794e-13,5.88525e-01,1.58456e-14,5.88525e-01
7.87478e+02,7.33000e+02,7.78000e+02,-4.50000e+01,1.68550e-13,5.96071e-01,8.88246e-14,5.96071e-01,1.44025e-13,5.96071e-01
7.87728e+02,7.59000e+02,7.96000e+02,-3.70000e+01,1.36048e-13,6.03616e-01,2.22308e-13,6.03616e-01,1.49341e-13,6.03616e-01
7.87978e+02,7.45000e+02,8.08000e+02,-6.30000e+01,1.02171e-13,6.11161e-01,1.05540e-13,6.11161e-01,1.63518e-13,6.11161e-01
7.88228e+02,7.54000e+02,8.03000e+02,-4.90000e+01,5.66625e-14,6.18706e-01,1.51269e-13,6.18706e-01,9.55245e-14,6.18706e-01
7.88478e+02,7.46000e+02,7.76000e+02,-3.00000e+01,8.09040e-14,6.26251e-01,1.12933e-13,6.26251e-01,7.39629e-14,6.26251e-01
7.88728e+02,7.56000e+02,7.49000e+02,7.00000e+00,1.67697e-13,6.33797e-01,2.71286e-13,6.33797e-01,1.89842e-13,6.33797e-01
7.88978e+02,7.54000e+02,7.37000e+02,1.70000e+01,7.55415e-14,6.41342e-01,1.55790e-13,6.41342e-01,1.72861e-13,6.41342e-01
7.89228e+02,7.62000e+02,7.68000e+02,-6.00000e+00,6.41304e-14,6.48887e-01,1.19666e-13,6.48887e-01,1.69810e-13,6.48887e-01
7.89478e+02,8.09000e+02,7.85000e+02,2.40000e+01,2.42028e-13,6.56432e-01,7.80196e-14,6.56432e-01,2.18874e-13,6.56432e-01
7.89728e+02,8.56000e+02,7.57000e+02,9.90000e+01,1.22401e-13,6.63977e-01,2.67050e-14,6.63977e-01,1.32905e-13,6.63977e-01
7.89978e+02,8.68000e+02,7.38000e+02,1.30000e+02,1.12935e-13,6.71523e-01,5.96782e-14,6.71523e-01,5.32654e-14,6.71523e-01
7.90228e+02,8.68000e+02,7.62000e+02,1.06000e+02,1.19012e-13,6.79068e-01,1.35165e-13,6.79068e-01,9.43815e-14,6.79068e-01
7.90478e+02,8.02000e+02,7.63000e+02,3.90000e+01,6.22347e-14,6.86613e-01,6.10858e-14,6.86613e-01,4.40658e-14,6.86613e-01
7.90728e+02,7.73000e+02,7.50000e+02,2.30000e+01,7.13261e-14,6.94158e-01,5.53616e-14,6.94158e-01,4.21089e-14,6.94158e-01
7.90978e+02,7.97000e+02,7.34000e+02,6.30000e+01,1.03742e-13,7.01703e-01,4.54871e-14,7.01703e-01,1.47701e-13,7.01703e-01
7.91228e+02,8.34000e+02,7.56000e+02,7.80000e+01,1.28768e-13,7.09249e-01,1.75356e-13,7.09249e-01,1.91350e-13,7.09249e-01
7.91478e+02,8.16000e+02,7.79000e+02,3.70000e+01,1.13868e-13,7.16794e-01,2.47146e-13,7.16794e-01,2.17501e-13,7.16794e-01
7.91728e+02,7.79000e+02,8.35000e+02,-5.60000e+01,1.04897e-13,7.24339e-01,2.52011e-13,7.24339e-01,1.54624e-13,7.24339e-01
7.91977e+02,7.69000e+02,8.95000e+02,-1.26000e+02,1.22296e-13,7.31884e-01,9.66091e-14,7.31884e-01,4.67484e-14,7.31884e-01
7.92227e+02,7.69000e+02,8.91000e+02,-1.22000e+02,6.62731e-14,7.39429e-01,7.71966e-14,7.39429e-01,9.24971e-14,7.39429e-01
7.92477e+02,7.65000e+02,8.04000e+02,-3.90000e+01,1.11786e-13,7.46975e-01,3.87285e-14,7.46975e-01,7.94303e-14,7.46975e-01
7.92727e+02,7.64000e+02,7.81000e+02,-1.70000e+01,1.25205e-13,7.54520e-01,1.50765e-13,7.54520e-01,1.69511e-13,7.54520e-01
7.92977e+02,7.62000e+02,8.12000e+02,-5.00000e+01,2.49372e-14,7.62065e-01,3.45310e-14,7.62065e-01,5.29783e-14,7.62065e-01
7.93227e+02,7.70000e+02,8.44000e+02,-7.40000e+01,1.13762e-13,7.69610e-01,7.03296e-14,7.69610e-01,6.74343e-14,7.69610e-01
7.93476e+02,8.21000e+02,8.60000e+02,-3.90000e+01,1.13009e-13,7.77155e-01,1.09202e-13,7.77155e-01,1.19272e-14,7.77155e-01
7.93726e+02,9.06000e+02,8.24000e+02,8.20000e+01,1.17286e-13,7.84701e-01,4.38654e-14,7.84701e-01,7.71069e-14,7.84701e-01
7.93976e+02,9.47000e+02,7.89000e+02,1.58000e+02,1.61282e-14,7.92246e-01,9.49883e-14,7.92246e-01,8.04413e-14,7.92246e-01
7.94226e+02,9.31000e+02,7.77000e+02,1.54000e+02,7.85016e-14,7.99791e-01,1.40877e-13,7.99791e-01,8.53929e-14,7.99791e-01
7.94476e+02,8.57000e+02,7.67000e+02,9.00000e+01,5.19036e-14,8.07336e-01,1.24449e-13,8.07336e-01,1.65298e-13,8.07336e-01
7.94725e+02,8.32000e+02,7.95000e+02,3.70000e+01,1.14106e-13,8.14881e-01,1.10217e-13,8.14881e-01,2.19879e-13,8.14881e-01
7.94975e+02,8.86000e+02,7.72000e+02,1.14000e+02,1.10322e-13,8.22427e-01,1.37005e-13,8.22427e-01,2.17537e-13,8.22427e-01
7.95225e+02,9.42000e+02,7.72000e+02,1.70000e+02,1.32396e-13,8.29972e-01,1.14703e-13,8.29972e-01,2.06079e-13,8.29972e-01
7.95475e+02,8.94000e+02,8.19000e+02,7.50000e+01,2.13526e-13,8.37517e-01,5.73674e-14,8.37517e-01,2.02467e-13,8.37517e-01
7.95724e+02,8.45000e+02,8.89000e+02,-4.40000e+01,9.37612e-14,8.45062e-01,7.96494e-14,8.45062e-01,1.38794e-13,8.45062e-01
7.95974e+02,7.96000e+02,9.07000e+02,-1.11000e+02,1.18475e-13,8.52607e-01,3.29871e-14,8.52607e-01,1.13367e-13,8.52607e-01
7.96224e+02,7.85000e+02,9.15000e+02,-1.30000e+02,1.92810e-13,8.60153e-01,1.20700e-13,8.60153e-01,9.39458e-14,8.60153e-01
7.96474e+02,8.04000e+02,8.73000e+02,-6.90000e+01,3.04750e-14,8.67698e-01,3.66769e-14,8.67698e-01,6.29483e-14,8.67698e-01
7.96723e+02,8.19000e+02,8.63000e+02,-4.40000e+01,8.28834e-14,8.75243e-01,8.96592e-14,8.75243e-01,1.72481e-13,8.75243e-01
7.96973e+02,7.82000e+02,9.04000e+02,-1.22000e+02,1.62615e-13,8.82788e-01,1.08912e-13,8.82788e-01,2.33392e-13,8.82788e-01
7.97223e+02,8.18000e+02,1.00200e+03,-1.84000e+02,1.22001e-13,8.90333e-01,1.05040e-13,8.90333e-01,2.24029e-13,8.90333e-01
7.97472e+02,8.58000e+02,1.02900e+03,-1.71000e+02,1.28248e-13,8.97879e-01,6.03372e-14,8.97879e-01,1.70641e-13,8.97879e-01
7.97722e+02,9.39000e+02,9.58000e+02,-1.90000e+01,8.19973e-14,9.05424e-01,2.38825e-14,9.05424e-01,1.02116e-13,9.05424e-01
7.97972e+02,1.04700e+03,8.81000e+02,1.66000e+02,1.07158e-13,9.12969e-01,1.39564e-13,9.12969e-01,1.76204e-13,9.12969e-01
7.98221e+02,1.03500e+03,8.35000e+02,2.00000e+02,1.94973e-13,9.20514e-01,1.75704e-13,9.20514e-01,1.83296e-13,9.20514e-01
7.98471e+02,9.53000e+02,8.60000e+02,9.30000e+01,2.16204e-13,9.28059e-01,2.28833e-13,9.28059e-01,1.65834e-13,9.28059e-01
7.98721e+02,9.45000e+02,8.94000e+02,5.10000e+01,1.26516e-13,9.35605e-01,1.45679e-13,9.35605e-01,3.60543e-14,9.35605e-01
7.98970e+02,1.02400e+03,8.78000e+02,1.46000e+02,4.97354e-14,9.43150e-01,6.15354e-14,9.43150e-01,2.28911e-14,9.43150e-01
7.99220e+02,1.09600e+03,8.62000e+02,2.34000e+02,4.88758e-14,9.50695e-01,3.57025e-14,9.50695e-01,2.85142e-14,9.50695e-01
7.99469e+02,1.13600e+03,9.05000e+02,2.31000e+02,7.70144e-14,9.58240e-01,8.25439e-14,9.58240e-01,1.13034e-13,9.58240e-01
7.99719e+02,1.04300e+03,9.75000e+02,6.80000e+01,3.10123e-14,9.65785e-01,8.49429e-15,9.65785e-01,2.25267e-14,9.65785e-01
7.99969e+02,9.51000e+02,1.06000e+03,-1.09000e+02,6.40404e-14,9.73331e-01,4.40135e-14,9.73331e-01,5.38280e-14,9.73331e-01
8.00218e+02,8.80000e+02,1.05600e+03,-1.76000e+02,9.56976e-14,9.80876e-01,1.13641e-14,9.80876e-01,1.06857e-13,9.80876e-01
8.00468e+02,9.18000e+02,1.00200e+03,-8.40000e+01,1.26870e-13,9.88421e-01,8.12288e-14,9.88421e-01,8.14213e-14,9.88421e-01
8.00717e+02,9.66000e+02,9.67000e+02,-1.00000e+00,1.16806e-13,9.95966e-01,1.09721e-13,9.95966e-01,1.40979e-13,9.95966e-01
8.00967e+02,9.74000e+02,1.00700e+03,-3.30000e+01,1.02565e-13,1.00351e+00,1.60030e-13,1.00351e+00,1.46676e-13,1.00351e+00
8.01216e+02,9.99000e+02,1.19700e+03,-1.98000e+02,1.51877e-13,1.01106e+00,3.28592e-13,1.01106e+00,1.98816e-13,1.01106e+00
8.01466e+02,1.06900e+03,1.31500e+03,-2.46000e+02,1.00499e-13,1.01860e+00,2.03089e-13,1.01860e+00,1.59308e-13,1.01860e+00
8.01715e+02,1.19400e+03,1.33600e+03,-1.42000e+02,1.36599e-13,1.02615e+00,1.65416e-13,1.02615e+00,6.11136e-14,1.02615e+00
8.01965e+02,1.24700e+03,1.20600e+03,4.10000e+01,1.43537e-13,1.03369e+00,3.71662e-14,1.03369e+00,1.10810e-13,1.03369e+00
8.02215e+02,1.26900e+03,1.15800e+03,1.11000e+02,2.09922e-13,1.04124e+00,5.78132e-14,1.04124e+00,1.78740e-13,1.04124e+00
8.02464e+02,1.28200e+03,1.22600e+03,5.60000e+01,1.27639e-13,1.04878e+00,4.80181e-14,1.04878e+00,1.74724e-13,1.04878e+00
8.02713e+02,1.33400e+03,1.32600e+03,8.00000e+00,2.38066e-13,1.05633e+00,7.29298e-14,1.05633e+00,1.70181e-13,1.05633e+00
8.02963e+02,1.52000e+03,1.34800e+03,1.72000e+02,1.19323e-13,1.06387e+00,1.92714e-14,1.06387e+00,1.37643e-13,1.06387e+00
8.03212e+02,1.73500e+03,1.25400e+03,4.81000e+02,1.01107e-13,1.07142e+00,1.06364e-13,1.07142e+00,5.38338e-14,1.07142e+00
8.03462e+02,1.81700e+03,1.20600e+03,6.11000e+02,5.54323e-14,1.07896e+00,1.34196e-13,1.07896e+00,1.24920e-13,1.07896e+00
8.03711e+02,1.64900e+03,1.28000e+03,3.69000e+02,1.10968e-13,1.08651e+00,8.78502e-14,1.08651e+00,1.42600e-13,1.08651e+00
8.03961e+02,1.45400e+03,1.41600e+03,3.80000e+01,1.21204e-13,1.09405e+00,4.74913e-14,1.09405e+00,1.67799e-13,1.09405e+00
8.04210e+02,1.34800e+03,1.49700e+03,-1.49000e+02,1.58416e-13,1.10160e+00,1.00697e-13,1.10160e+00,8.35846e-14,1.10160e+00
8.04460e+02,1.36200e+03,1.44300e+03,-8.10000e+01,1.11025e-13,1.10914e+00,9.09441e-14,1.10914e+00,3.55808e-14,1.10914e+00
8.04709e+02,1.34800e+03,1.29900e+03,4.90000e+01,1.07703e-13,1.11669e+00,1.20490e-13,1.11669e+00,7.07949e-14,1.11669e+00
8.04958e+02,1.32200e+03,1.29300e+03,2.90000e+01,6.74732e-14,1.12423e+00,1.05802e-13,1.12423e+00,7.98300e-14,1.12423e+00
8.05208e+02,1.24300e+03,1.54700e+03,-3.04000e+02,1.07043e-13,1.13178e+00,3.86145e-14,1.13178e+00,1.41442e-13,1.13178e+00
8.05457e+02,1.21500e+03,1.78900e+03,-5.74000e+02,2.34776e-14,1.13932e+00,8.60194e-14,1.13932e+00,8.64574e-14,1.13932e+00
8.05707e+02,1.29800e+03,1.91600e+03,-6.18000e+02,1.96366e-14,1.14687e+00,7.51762e-14,1.14687e+00,7.02462e-14,1.14687e+00
8.05956e+02,1.47400e+03,1.75600e+03,-2.82000e+02,5.41501e-14,1.15442e+00,9.46225e-14,1.15442e+00,1.32164e-13,1.15442e+00
8.06205e+02,1.52200e+03,1.46900e+03,5.30000e+01,4.52664e-14,1.16196e+00,2.32776e-14,1.16196e+00,6.66946e-14,1.16196e+00
8.06455e+02,1.48800e+03,1.47400e+03,1.40000e+01,4.13846e-14,1.16951e+00,1.37764e-13,1.16951e+00,1.75269e-13,1.16951e+00
8.06704e+02,1.46600e+03,1.61600e+03,-1.50000e+02,1.15510e-13,1.17705e+00,4.13624e-14,1.17705e+00,1.33388e-13,1.17705e+00
8.06953e+02,1.52900e+03,1.68200e+03,-1.53000e+02,4.58440e-14,1.18460e+00,3.43784e-14,1.18460e+00,8.02134e-14,1.18460e+00
8.07203e+02,1.78700e+03,1.57400e+03,2.13000e+02,3.35544e-14,1.19214e+00,6.26163e-14,1.19214e+00,5.13834e-14,1.19214e+00
8.07452e+02,2.01400e+03,1.47000e+03,5.44000e+02,1.19285e-13,1.19969e+00,5.77674e-14,1.19969e+00,7.56613e-14,1.19969e+00
8.07701e+02,1.99300e+03,1.48000e+03,5.13000e+02,1.40142e-13,1.20723e+00,1.11616e-13,1.20723e+00,1.13734e-13,1.20723e+00
8.07951e+02,1.80600e+03,1.48200e+03,3.24000e+02,1.14470e-13,1.21478e+00,1.46673e-13,1.21478e+00,3.28417e-14,1.21478e+00
8.08200e+02,1.63000e+03,1.53400e+03,9.60000e+01,1.14697e-13,1.22232e+00,5.44536e-14,1.22232e+00,8.10691e-14,1.22232e+00
8.08449e+02,1.59800e+03,1.56000e+03,3.80000e+01,6.15715e-14,1.22987e+00,1.06544e-13,1.22987e+00,8.17307e-14,1.22987e+00
8.08698e+02,1.84900e+03,1.47600e+03,3.73000e+02,8.07671e-14,1.23741e+00,1.60838e-14,1.23741e+00,6.95235e-14,1.23741e+00
8.08948e+02,1.93400e+03,1.41200e+03,5.22000e+02,4.74143e-14,1.24496e+00,1.49002e-13,1.24496e+00,1.15202e-13,1.24496e+00
8.09197e+02,1.82800e+03,1.55500e+03,2.73000e+02,2.59252e-14,1.25250e+00,9.31164e-14,1.25250e+00,1.18411e-13,1.25250e+00
8.09446e+02,1.64800e+03,1.83600e+03,-1.88000e+02,3.40594e-14,1.26005e+00,1.22911e-13,1.26005e+00,1.56132e-13,1.26005e+00
8.09695e+02,1.39900e+03,2.04600e+03,-6.47000e+02,7.32049e-14,1.26759e+00,4.27298e-14,1.26759e+00,1.10125e-13,1.26759e+00
8.09945e+02,1.41400e+03,1.99500e+03,-5.81000e+02,5.26528e-14,1.27514e+00,1.10513e-13,1.27514e+00,9.48187e-14,1.27514e+00
8.10194e+02,1.45000e+03,1.79700e+03,-3.47000e+02,9.83406e-15,1.28268e+00,8.08791e-14,1.28268e+00,7.55268e-14,1.28268e+00
8.10443e+02,1.44800e+03,1.61800e+03,-1.70000e+02,1.04596e-13,1.29023e+00,1.56594e-13,1.29023e+00,6.30598e-14,1.29023e+00
8.10692e+02,1.40900e+03,1.62200e+03,-2.13000e+02,1.02604e-13,1.29777e+00,1.77068e-13,1.29777e+00,1.16683e-13,1.29777e+00
8.10941e+02,1.42700e+03,1.81000e+03,-3.83000e+02,4.51944e-14,1.30532e+00,7.89791e-14,1.30532e+00,1.16253e-13,1.30532e+00
8.11191e+02,1.54700e+03,1.79700e+03,-2.50000e+02,3.46832e-14,1.31286e+00,9.61188e-14,1.31286e+00,8.00572e-14,1.31286e+00
8.11440e+02,1.75900e+03,1.72300e+03,3.60000e+01,3.70450e-14,-1.32041e+00,4.73728e-14,-1.32041e+00,8.44178e-14,-1.32041e+00
8.11689e+02,1.91000e+03,1.54900e+03,3.61000e+02,3.46832e-14,-1.31286e+00,9.61188e-14,-1.31286e+00,8.00572e-14,-1.31286e+00
8.11938e+02,1.81300e+03,1.47300e+03,3.40000e+02,4.51944e-14,-1.30532e+00,7.89791e-14,-1.30532e+00,1.16253e-13,-1.30532e+00
8.12187e+02,1.73800e+03,1.54100e+03,1.97000e+02,1.02604e-13,-1.29777e+00,1.77068e-13,-1.29777e+00,1.16683e-13,-1.29777e+00
8.12436e+02,1.72400e+03,1.53800e+03,1.86000e+02,1.04596e-13,-1.29023e+00,1.56594e-13,-1.29023e+00,6.30598e-14,-1.29023e+00
8.12685e+02,1.66000e+03,1.44600e+03,2.14000e+02,9.83406e-15,-1.28268e+00,8.08791e-14,-1.28268e+00,7.55268e-14,-1.28268e+00
8.12935e+02,1.84400e+03,1.39500e+03,4.49000e+02,5.26528e-14,-1.27514e+00,1.10513e-13,-1.27514e+00,9.48187e-14,-1.27514e+00
8.13184e+02,1.85700e+03,1.46500e+03,3.92000e+02,7.32049e-14,-1.26759e+00,4.27298e-14,-1.26759e+00,1.10125e-13,-1.26759e+00
8.13433e+02,1.68700e+03,1.61600e+03,7.10000e+01,3.40594e-14,-1.26005e+00,1.22911e-13,-1.26005e+00,1.56132e-13,-1.26005e+00
8.13682e+02,1.52600e+03,1.84100e+03,-3.15000e+02,2.59252e-14,-1.25250e+00,9.31164e-14,-1.25250e+00,1.18411e-13,-1.25250e+00
8.13931e+02,1.34300e+03,1.80900e+03,-4.66000e+02,4.74143e-14,-1.24496e+00,1.49002e-13,-1.24496e+00,1.15202e-13,-1.24496e+00
8.14180e+02,1.39400e+03,1.83200e+03,-4.38000e+02,8.07671e-14,-1.23741e+00,1.60838e-14,-1.23741e+00,6.95235e-14,-1.23741e+00
8.14429e+02,1.36300e+03,1.52900e+03,-1.66000e+02,6.15715e-14,-1.22987e+00,1.06544e-13,-1.22987e+00,8.17307e-14,-1.22987e+00
8.14678e+02,1.35000e+03,1.46800e+03,-1.18000e+02,1.14697e-13,-1.22232e+00,5.44536e-14,-1.22232e+00,8.10691e-14,-1.22232e+00
8.14927e+02,1.29600e+03,1.67400e+03,-3.78000e+02,1.14470e-13,-1.21478e+00,1.46673e-13,-1.21478e+00,3.28417e-14,-1.21478e+00
8.15176e+02,1.37000e+03,1.83500e+03,-4.65000e+02,1.40142e-13,-1.20723e+00,1.11616e-13,-1.20723e+00,1.13734e-13,-1.20723e+00
8.15425e+02,1.56100e+03,1.79700e+03,-2.36000e+02,1.19285e-13,-1.19969e+00,5.77674e-14,-1.19969e+00,7.56613e-14,-1.19969e+00
8.15674e+02,1.70800e+03,1.73200e+03,-2.40000e+01,3.35544e-14,-1.19214e+00,6.26163e-14,-1.19214e+00,5.13834e-14,-1.19214e+00
8.15923e+02,1.82800e+03,1.47400e+03,3.54000e+02,4.58440e-14,-1.18460e+00,3.43784e-14,-1.18460e+00,8.02134e-14,-1.18460e+00
8.16172e+02,1.75000e+03,1.35100e+03,3.99000e+02,1.15510e-13,-1.17705e+00,4.13624e-14,-1.17705e+00,1.33388e-13,-1.17705e+00
8.16421e+02,1.52200e+03,1.33400e+03,1.88000e+02,4.13846e-14,-1.16951e+00,1.37764e-13,-1.16951e+00,1.75269e-13,-1.16951e+00
8.16670e+02,1.44700e+03,1.37900e+03,6.80000e+01,4.52664e-14,-1.16196e+00,2.32776e-14,-1.16196e+00,6.66946e-14,-1.16196e+00
8.16919e+02,1.52400e+03,1.34100e+03,1.83000e+02,5.41501e-14,-1.15442e+00,9.46225e-14,-1.15442e+00,1.32164e-13,-1.15442e+00
8.17168e+02,1.65500e+03,1.30600e+03,3.49000e+02,1.96366e-14,-1.14687e+00,7.51762e-14,-1.14687e+00,7.02462e-14,-1.14687e+00
8.17417e+02,1.79600e+03,1.31300e+03,4.83000e+02,2.34776e-14,-1.13932e+00,8.60194e-14,-1.13932e+00,8.64574e-14,-1.13932e+00
8.17666e+02,1.66600e+03,1.39400e+03,2.72000e+02,1.07043e-13,-1.13178e+00,3.86145e-14,-1.13178e+00,1.41442e-13,-1.13178e+00
8.17915e+02,1.49100e+03,1.55000e+03,-5.90000e+01,6.74732e-14,-1.12423e+00,1.05802e-13,-1.12423e+00,7.98300e-14,-1.12423e+00
8.18164e+02,1.35800e+03,1.62900e+03,-2.71000e+02,1.07703e-13,-1.11669e+00,1.20490e-13,-1.11669e+00,7.07949e-14,-1.11669e+00
8.18413e+02,1.34400e+03,1.53600e+03,-1.92000e+02,1.11025e-13,-1.10914e+00,9.09441e-14,-1.10914e+00,3.55808e-14,-1.10914e+00
8.18662e+02,1.48500e+03,1.49600e+03,-1.10000e+01,1.58416e-13,-1.10160e+00,1.00697e-13,-1.10160e+00,8.35846e-14,-1.10160e+00
8.18911e+02,1.46200e+03,1.53700e+03,-7.50000e+01,1.21204e-13,-1.09405e+00,4.74913e-14,-1.09405e+00,1.67799e-13,-1.09405e+00
8.19160e+02,1.47500e+03,1.66600e+03,-1.91000e+02,1.10968e-13,-1.08651e+00,8.78502e-14,-1.08651e+00,1.42600e-13,-1.08651e+00
8.19408e+02,1.50300e+03,2.00800e+03,-5.05000e+02,5.54323e-14,-1.07896e+00,1.34196e-13,-1.07896e+00,1.24920e-13,-1.07896e+00
8.19657e+02,1.52300e+03,2.03500e+03,-5.12000e+02,1.01107e-13,-1.07142e+00,1.06364e-13,-1.07142e+00,5.38338e-14,-1.07142e+00
8.19906e+02,1.70800e+03,1.94800e+03,-2.40000e+02,1.19323e-13,-1.06387e+00,1.92714e-14,-1.06387e+00,1.37643e-13,-1.06387e+00
8.20155e+02,1.92400e+03,1.76800e+03,1.56000e+02,2.38066e-13,-1.05633e+00,7.29298e-14,-1.05633e+00,1.70181e-13,-1.05633e+00
8.20404e+02,1.79900e+03,1.56600e+03,2.33000e+02,1.27639e-13,-1.04878e+00,4.80181e-14,-1.04878e+00,1.74724e-13,-1.04878e+00
8.20653e+02,1.67100e+03,1.57900e+03,9.20000e+01,2.09922e-13,-1.04124e+00,5.78132e-14,-1.04124e+00,1.78740e-13,-1.04124e+00
8.20901e+02,1.49100e+03,1.55900e+03,-6.80000e+01,1.43537e-13,-1.03369e+00,3.71662e-14,-1.03369e+00,1.10810e-13,-1.03369e+00
8.21150e+02,1.56700e+03,1.56500e+03,2.00000e+00,1.36599e-13,-1.02615e+00,1.65416e-13,-1.02615e+00,6.11136e-14,-1.02615e+00
8.21399e+02,1.64500e+03,1.54800e+03,9.70000e+01,1.00499e-13,-1.01860e+00,2.03089e-13,-1.01860e+00,1.59308e-13,-1.01860e+00
8.21648e+02,1.73400e+03,1.42000e+03,3.14000e+02,1.51877e-13,-1.01106e+00,3.28592e-13,-1.01106e+00,1.98816e-13,-1.01106e+00
8.21897e+02,1.79300e+03,1.38900e+03,4.04000e+02,1.02565e-13,-1.00351e+00,1.60030e-13,-1.00351e+00,1.46676e-13,-1.00351e+00
8.22145e+02,1.57500e+03,1.40500e+03,1.70000e+02,1.16806e-13,-9.95966e-01,1.09721e-13,-9.95966e-01,1.40979e-13,-9.95966e-01
8.22394e+02,1.45000e+03,1.44300e+03,7.00000e+00,1.26870e-13,-9.88421e-01,8.12288e-14,-9.88421e-01,8.14213e-14,-9.88421e-01
8.22643e+02,1.40100e+03,1.42100e+03,-2.00000e+01,9.56976e-14,-9.80876e-01,1.13641e-14,-9.80876e-01,1.06857e-13,-9.80876e-01
8.22892e+02,1.47400e+03,1.46400e+03,1.00000e+01,6.40404e-14,-9.73331e-01,4.40135e-14,-9.73331e-01,5.38280e-14,-9.73331e-01
8.23140e+02,1.57900e+03,1.49500e+03,8.40000e+01,3.10123e-14,-9.65785e-01,8.49429e-15,-9.65785e-01,2.25267e-14,-9.65785e-01
8.23389e+02,1.54000e+03,1.60800e+03,-6.80000e+01,7.70144e-14,-9.58240e-01,8.25439e-14,-9.58240e-01,1.13034e-13,-9.58240e-01
8.23638e+02,1.34800e+03,1.65000e+03,-3.02000e+02,4.88758e-14,-9.50695e-01,3.57025e-14,-9.50695e-01,2.85142e-14,-9.50695e-01
8.23887e+02,1.23900e+03,1.67500e+03,-4.36000e+02,4.97354e-14,-9.43150e-01,6.15354e-14,-9.43150e-01,2.28911e-14,-9.43150e-01
8.24135e+02,1.30200e+03,1.64300e+03,-3.41000e+02,1.26516e-13,-9.35605e-01,1.45679e-13,-9.35605e-01,3.60543e-14,-9.35605e-01
8.24384e+02,1.39900e+03,1.51600e+03,-1.17000e+02,2.16204e-13,-9.28059e-01,2.28833e-13,-9.28059e-01,1.65834e-13,-9.28059e-01
8.24633e+02,1.37600e+03,1.41500e+03,-3.90000e+01,1.94973e-13,-9.20514e-01,1.75704e-13,-9.20514e-01,1.83296e-13,-9.20514e-01
8.24881e+02,1.40300e+03,1.47200e+03,-6.90000e+01,1.07158e-13,-9.12969e-01,1.39564e-13,-9.12969e-01,1.76204e-13,-9.12969e-01
8.25130e+02,1.42200e+03,1.54000e+03,-1.18000e+02,8.19973e-14,-9.05424e-01,2.38825e-14,-9.05424e-01,1.02116e-13,-9.05424e-01
8.25379e+02,1.51500e+03,1.54000e+03,-2.50000e+01,1.28248e-13,-8.97879e-01,6.03372e-14,-8.97879e-01,1.70641e-13,-8.97879e-01
8.25627e+02,1.68600e+03,1.38300e+03,3.03000e+02,1.22001e-13,-8.90333e-01,1.05040e-13,-8.90333e-01,2.24029e-13,-8.90333e-01
8.25876e+02,1.74300e+03,1.32300e+03,4.20000e+02,1.62615e-13,-8.82788e-01,1.08912e-13,-8.82788e-01,2.33392e-13,-8.82788e-01
8.26125e+02,1.68500e+03,1.26900e+03,4.16000e+02,8.28834e-14,-8.75243e-01,8.96592e-14,-8.75243e-01,1.72481e-13,-8.75243e-01
8.26373e+02,1.57900e+03,1.33400e+03,2.45000e+02,3.04750e-14,-8.67698e-01,3.66769e-14,-8.67698e-01,6.29483e-14,-8.67698e-01
8.26622e+02,1.40900e+03,1.39600e+03,1.30000e+01,1.92810e-13,-8.60153e-01,1.20700e-13,-8.60153e-01,9.39458e-14,-8.60153e-01
8.26870e+02,1.26500e+03,1.29700e+03,-3.20000e+01,1.18475e-13,-8.52607e-01,3.29871e-14,-8.52607e-01,1.13367e-13,-8.52607e-01
8.27119e+02,1.24200e+03,1.20300e+03,3.90000e+01,9.37612e-14,-8.45062e-01,7.96494e-14,-8.45062e-01,1.38794e-13,-8.45062e-01
8.27368e+02,1.29000e+03,1.12900e+03,1.61000e+02,2.13526e-13,-8.37517e-01,5.73674e-14,-8.37517e-01,2.02467e-13,-8.37517e-01
8.27616e+02,1.25600e+03,1.20700e+03,4.90000e+01,1.32396e-13,-8.29972e-01,1.14703e-13,-8.29972e-01,2.06079e-13,-8.29972e-01
8.27865e+02,1.27100e+03,1.41100e+03,-1.40000e+02,1.10322e-13,-8.22427e-01,1.37005e-13,-8.22427e-01,2.17537e-13,-8.22427e-01
8.28113e+02,1.13700e+03,1.42600e+03,-2.89000e+02,1.14106e-13,-8.14881e-01,1.10217e-13,-8.14881e-01,2.19879e-13,-8.14881e-01
8.28362e+02,1.03800e+03,1.45900e+03,-4.21000e+02,5.19036e-14,-8.07336e-01,1.24449e-13,-8.07336e-01,1.65298e-13,-8.07336e-01
8.28610e+02,1.06300e+03,1.32500e+03,-2.62000e+02,7.85016e-14,-7.99791e-01,1.40877e-13,-7.99791e-01,8.53929e-14,-7.99791e-01
8.28859e+02,1.03700e+03,1.17600e+03,-1.39000e+02,1.61282e-14,-7.92246e-01,9.49883e-14,-7.92246e-01,8.04413e-14,-7.92246e-01
8.29108e+02,1.00000e+03,1.08300e+03,-8.30000e+01,1.17286e-13,-7.84701e-01,4.38654e-14,-7.84701e-01,7.71069e-14,-7.84701e-01
8.29356e+02,9.90000e+02,1.09500e+03,-1.05000e+02,1.13009e-13,-7.77155e-01,1.09202e-13,-7.77155e-01,1.19272e-14,-7.77155e-01
8.29605e+02,9.71000e+02,1.08500e+03,-1.14000e+02,1.13762e-13,-7.69610e-01,7.03296e-14,-7.69610e-01,6.74343e-14,-7.69610e-01
8.29853e+02,9.83000e+02,1.08500e+03,-1.02000e+02,2.49372e-14,-7.62065e-01,3.45310e-14,-7.62065e-01,5.29783e-14,-7.62065e-01
8.30101e+02,1.02600e+03,9.78000e+02,4.80000e+01,1.25205e-13,-7.54520e-01,1.50765e-13,-7.54520e-01,1.69511e-13,-7.54520e-01
8.30350e+02,1.06100e+03,9.46000e+02,1.15000e+02,1.11786e-13,-7.46975e-01,3.87285e-14,-7.46975e-01,7.94303e-14,-7.46975e-01
8.30598e+02,1.00000e+03,9.06000e+02,9.40000e+01,6.62731e-14,-7.39429e-01,7.71966e-14,-7.39429e-01,9.24971e-14,-7.39429e-01
8.30847e+02,9.33000e+02,8.67000e+02,6.60000e+01,1.22296e-13,-7.31884e-01,9.66091e-14,-7.31884e-01,4.67484e-14,-7.31884e-01
8.31095e+02,9.00000e+02,8.55000e+02,4.50000e+01,1.04897e-13,-7.24339e-01,2.52011e-13,-7.24339e-01,1.54624e-13,-7.24339e-01
8.31344e+02,9.29000e+02,8.68000e+02,6.10000e+01,1.13868e-13,-7.16794e-01,2.47146e-13,-7.16794e-01,2.17501e-13,-7.16794e-01
8.31592e+02,9.50000e+02,8.62000e+02,8.80000e+01,1.28768e-13,-7.09249e-01,1.75356e-13,-7.09249e-01,1.91350e-13,-7.09249e-01
8.31841e+02,9.19000e+02,8.56000e+02,6.30000e+01,1.03742e-13,-7.01703e-01,4.54871e-14,-7.01703e-01,1.47701e-13,-7.01703e-01
8.32089e+02,8.86000e+02,9.02000e+02,-1.60000e+01,7.13261e-14,-6.94158e-01,5.53616e-14,-6.94158e-01,4.21089e-14,-6.94158e-01
8.32337e+02,8.39000e+02,9.01000e+02,-6.20000e+01,6.22347e-14,-6.86613e-01,6.10858e-14,-6.86613e-01,4.40658e-14,-6.86613e-01
8.32586e+02,7.89000e+02,8.93000e+02,-1.04000e+02,1.19012e-13,-6.79068e-01,1.35165e-13,-6.79068e-01,9.43815e-14,-6.79068e-01
8.32834e+02,7.74000e+02,8.69000e+02,-9.50000e+01,1.12935e-13,-6.71523e-01,5.96782e-14,-6.71523e-01,5.32654e-14,-6.71523e-01
8.33083e+02,7.70000e+02,8.23000e+02,-5.30000e+01,1.22401e-13,-6.63977e-01,2.67050e-14,-6.63977e-01,1.32905e-13,-6.63977e-01
8.33331e+02,7.85000e+02,8.08000e+02,-2.30000e+01,2.42028e-13,-6.56432e-01,7.80196e-14,-6.56432e-01,2.18874e-13,-6.56432e-01
8.33579e+02,7.64000e+02,7.99000e+02,-3.50000e+01,6.41304e-14,-6.48887e-01,1.19666e-13,-6.48887e-01,1.69810e-13,-6.48887e-01
8.33828e+02,7.52000e+02,8.13000e+02,-6.10000e+01,7.55415e-14,-6.41342e-01,1.55790e-13,-6.41342e-01,1.72861e-13,-6.41342e-01
8.34076e+02,7.68000e+02,8.13000e+02,-4.50000e+01,1.67697e-13,-6.33797e-01,2.71286e-13,-6.33797e-01,1.89842e-13,-6.33797e-01
8.34324e+02,7.59000e+02,7.86000e+02,-2.70000e+01,8.09040e-14,-6.26251e-01,1.12933e-13,-6.26251e-01,7.39629e-14,-6.26251e-01
8.34573e+02,7.53000e+02,7.56000e+02,-3.00000e+00,5.66625e-14,-6.18706e-01,1.51269e-13,-6.18706e-01,9.55245e-14,-6.18706e-01
8.34821e+02,7.41000e+02,7.38000e+02,3.00000e+00,1.02171e-13,-6.11161e-01,1.05540e-13,-6.11161e-01,1.63518e-13,-6.11161e-01
8.35069e+02,7.54000e+02,7.18000e+02,3.60000e+01,1.36048e-13,-6.03616e-01,2.22308e-13,-6.03616e-01,1.49341e-13,-6.03616e-01
8.35318e+02,7.32000e+02,6.99000e+02,3.30000e+01,1.68550e-13,-5.96071e-01,8.88246e-14,-5.96071e-01,1.44025e-13,-5.96071e-01
8.35566e+02,7.14000e+02,7.04000e+02,1.00000e+01,1.61311e-13,-5.88525e-01,1.70794e-13,-5.88525e-01,1.58456e-14,-5.88525e-01
8.35814e+02,7.15000e+02,7.01000e+02,1.40000e+01,7.56786e-14,-5.80980e-01,5.19981e-14,-5.80980e-01,6.67159e-14,-5.80980e-01
8.36062e+02,7.26000e+02,7.00000e+02,2.60000e+01,1.48835e-13,-5.73435e-01,5.47092e-14,-5.73435e-01,1.95762e-13,-5.73435e-01
8.36311e+02,7.27000e+02,7.13000e+02,1.40000e+01,1.63013e-13,-5.65890e-01,1.19975e-13,-5.65890e-01,1.00235e-13,-5.65890e-01
8.36559e+02,7.15000e+02,7.10000e+02,5.00000e+00,1.68528e-13,-5.58345e-01,1.53783e-13,-5.58345e-01,1.46967e-13,-5.58345e-01
8.36807e+02,6.89000e+02,6.93000e+02,-4.00000e+00,1.49449e-13,-5.50799e-01,1.56062e-13,-5.50799e-01,8.98841e-14,-5.50799e-01
8.37055e+02,6.95000e+02,7.09000e+02,-1.40000e+01,1.84619e-13,-5.43254e-01,4.39104e-14,-5.43254e-01,1.53917e-13,-5.43254e-01
8.37304e+02,6.97000e+02,6.90000e+02,7.00000e+00,6.44621e-14,-5.35709e-01,1.38783e-13,-5.35709e-01,7.43227e-14,-5.35709e-01
8.37552e+02,6.70000e+02,6.81000e+02,-1.10000e+01,8.31742e-14,-5.28164e-01,1.27463e-13,-5.28164e-01,1.00986e-13,-5.28164e-01
8.37800e+02,6.87000e+02,6.81000e+02,6.00000e+00,1.96639e-13,-5.20619e-01,1.14391e-13,-5.20619e-01,1.74895e-13,-5.20619e-01
8.38048e+02,6.75000e+02,6.98000e+02,-2.30000e+01,7.68688e-14,-5.13073e-01,9.16678e-14,-5.13073e-01,1.27438e-13,-5.13073e-01
8.38296e+02,6.85000e+02,7.05000e+02,-2.00000e+01,2.94143e-13,-5.05528e-01,3.05017e-13,-5.05528e-01,5.36327e-13,-5.05528e-01
8.38545e+02,6.87000e+02,6.94000e+02,-7.00000e+00,4.61965e-13,-4.97983e-01,6.45119e-13,-4.97983e-01,1.00143e-12,-4.97983e-01
8.38793e+02,6.90000e+02,6.97000e+02,-7.00000e+00,7.86751e-13,-4.90438e-01,8.69708e-13,-4.90438e-01,1.62034e-12,-4.90438e-01
8.39041e+02,6.82000e+02,6.86000e+02,-4.00000e+00,1.02233e-12,-4.82893e-01,1.33927e-12,-4.82893e-01,2.32882e-12,-4.82893e-01
8.39289e+02,6.70000e+02,6.80000e+02,-1.00000e+01,1.46580e-12,-4.75347e-01,1.74406e-12,-4.75347e-01,3.16268e-12,-4.75347e-01
8.39537e+02,6.77000e+02,6.73000e+02,4.00000e+00,1.68617e-12,-4.67802e-01,1.88666e-12,-4.67802e-01,3.52896e-12,-4.67802e-01
8.39785e+02,6.68000e+02,6.68000e+02,0.00000e+00,1.70536e-12,-4.60257e-01,1.53335e-12,-4.60257e-01,3.18825e-12,-4.60257e-01
8.40033e+02,6.77000e+02,6.70000e+02,7.00000e+00,1.24464e-12,-4.52712e-01,9.20169e-13,-4.52712e-01,2.12650e-12,-4.52712e-01
8.40281e+02,6.79000e+02,6.64000e+02,1.50000e+01,7.74963e-13,-4.45167e-01,3.10693e-13,-4.45167e-01,1.07188e-12,-4.45167e-01
8.40530e+02,6.66000e+02,6.80000e+02,-1.40000e+01,3.61545e-13,-4.37621e-01,3.00047e-13,-4.37621e-01,6.61152e-13,-4.37621e-01
8.40778e+02,6.77000e+02,6.76000e+02,1.00000e+00,4.30590e-13,-4.30076e-01,2.24468e-13,-4.30076e-01,6.49533e-13,-4.30076e-01
8.41026e+02,6.70000e+02,6.76000e+02,-6.00000e+00,6.21703e-13,-4.22531e-01,1.69535e-13,-4.22531e-01,4.58021e-13,-4.22531e-01
8.41274e+02,6.58000e+02,6.64000e+02,-6.00000e+00,3.39005e-13,-4.14986e-01,3.14475e-13,-4.14986e-01,2.44822e-13,-4.14986e-01
8.41522e+02,6.67000e+02,6.77000e+02,-1.00000e+01,4.08904e-13,-4.07441e-01,3.93089e-13,-4.07441e-01,5.37860e-13,-4.07441e-01
8.41770e+02,6.64000e+02,6.60000e+02,4.00000e+00,1.77865e-13,-3.99895e-01,4.08433e-13,-3.99895e-01,5.43411e-13,-3.99895e-01
8.42018e+02,6.70000e+02,6.64000e+02,6.00000e+00,1.14333e-13,-3.92350e-01,2.83042e-13,-3.92350e-01,3.17974e-13,-3.92350e-01
8.42266e+02,6.48000e+02,6.65000e+02,-1.70000e+01,1.09362e-13,-3.84805e-01,3.41696e-13,-3.84805e-01,4.20975e-13,-3.84805e-01
8.42514e+02,6.74000e+02,6.78000e+02,-4.00000e+00,2.01895e-13,-3.77260e-01,4.47397e-13,-3.77260e-01,3.84741e-13,-3.77260e-01
8.42762e+02,6.71000e+02,6.69000e+02,2.00000e+00,1.14347e-13,-3.69715e-01,2.05159e-13,-3.69715e-01,1.04594e-13,-3.69715e-01
8.43010e+02,6.89000e+02,6.68000e+02,2.10000e+01,1.84511e-13,-3.62169e-01,3.63856e-13,-3.62169e-01,4.78286e-13,-3.62169e-01
8.43258e+02,6.59000e+02,6.65000e+02,-6.00000e+00,3.54044e-13,-3.54624e-01,4.85290e-13,-3.54624e-01,8.34561e-13,-3.54624e-01
8.43506e+02,6.62000e+02,6.84000e+02,-2.20000e+01,6.04190e-13,-3.47079e-01,5.37551e-13,-3.47079e-01,9.88870e-13,-3.47079e-01
8.43754e+02,6.58000e+02,6.63000e+02,-5.00000e+00,5.70359e-13,-3.39534e-01,1.03527e-12,-3.39534e-01,5.32197e-13,-3.39534e-01
8.44002e+02,6.70000e+02,6.76000e+02,-6.00000e+00,1.14336e-12,-3.31989e-01,1.33340e-12,-3.31989e-01,3.85078e-13,-3.31989e-01
8.44250e+02,6.59000e+02,6.60000e+02,-1.00000e+00,1.42972e-12,-3.24444e-01,1.55452e-12,-3.24444e-01,5.34592e-13,-3.24444e-01
8.44498e+02,6.57000e+02,6.70000e+02,-1.30000e+01,1.27337e-12,-3.16898e-01,1.10122e-12,-3.16898e-01,4.84865e-13,-3.16898e-01
8.44746e+02,6.84000e+02,6.64000e+02,2.00000e+01,7.86084e-13,-3.09353e-01,6.56746e-13,-3.09353e-01,1.89915e-13,-3.09353e-01
8.44994e+02,6.68000e+02,6.66000e+02,2.00000e+00,4.04622e-13,-3.01808e-01,3.55579e-13,-3.01808e-01,2.56571e-13,-3.01808e-01
8.45242e+02,6.76000e+02,6.58000e+02,1.80000e+01,9.37428e-14,-2.94263e-01,2.83577e-13,-2.94263e-01,3.75187e-13,-2.94263e-01
8.45490e+02,6.59000e+02,6.68000e+02,-9.00000e+00,2.05124e-13,-2.86718e-01,1.23274e-13,-2.86718e-01,2.30143e-13,-2.86718e-01
8.45738e+02,6.41000e+02,6.63000e+02,-2.20000e+01,4.59254e-13,-2.79172e-01,1.25714e-13,-2.79172e-01,4.97465e-13,-2.79172e-01
8.45985e+02,6.62000e+02,6.66000e+02,-4.00000e+00,5.59991e-13,-2.71627e-01,1.55879e-14,-2.71627e-01,5.64408e-13,-2.71627e-01
8.46233e+02,6.79000e+02,6.72000e+02,7.00000e+00,4.15234e-13,-2.64082e-01,8.05982e-14,-2.64082e-01,3.44401e-13,-2.64082e-01
8.46481e+02,6.79000e+02,6.59000e+02,2.00000e+01,3.10335e-13,-2.56537e-01,3.06110e-13,-2.56537e-01,1.18194e-13,-2.56537e-01
8.46729e+02,6.61000e+02,6.62000e+02,-1.00000e+00,4.11141e-13,-2.48992e-01,3.13400e-13,-2.48992e-01,2.81992e-13,-2.48992e-01
8.46977e+02,6.65000e+02,6.48000e+02,1.70000e+01,6.01079e-13,-2.41446e-01,3.40301e-15,-2.41446e-01,5.98975e-13,-2.41446e-01
8.47225e+02,6.64000e+02,6.63000e+02,1.00000e+00,7.34388e-13,-2.33901e-01,3.79774e-13,-2.33901e-01,3.91918e-13,-2.33901e-01
8.47473e+02,6.50000e+02,6.53000e+02,-3.00000e+00,2.78130e-13,-2.26356e-01,2.22947e-13,-2.26356e-01,2.93939e-13,-2.26356e-01
8.47720e+02,6.45000e+02,6.48000e+02,-3.00000e+00,5.88206e-14,-2.18811e-01,1.65137e-13,-2.18811e-01,1.86017e-13,-2.18811e-01
8.47968e+02,6.63000e+02,6.71000e+02,-8.00000e+00,6.29520e-13,-2.11266e-01,3.02798e-13,-2.11266e-01,3.45066e-13,-2.11266e-01
8.48216e+02,6.56000e+02,6.68000e+02,-1.20000e+01,7.98207e-13,-2.03720e-01,3.68684e-13,-2.03720e-01,4.38401e-13,-2.03720e-01
8.48464e+02,6.60000e+02,6.56000e+02,4.00000e+00,6.96601e-13,-1.96175e-01,3.08079e-13,-1.96175e-01,4.94396e-13,-1.96175e-01
8.48712e+02,6.56000e+02,6.53000e+02,3.00000e+00,7.82045e-13,-1.88630e-01,2.54743e-13,-1.88630e-01,7.37228e-13,-1.88630e-01
8.48960e+02,6.51000e+02,6.48000e+02,3.00000e+00,3.59248e-13,-1.81085e-01,5.04987e-13,-1.81085e-01,7.37785e-13,-1.81085e-01
8.49207e+02,6.72000e+02,6.64000e+02,8.00000e+00,4.45019e-13,-1.73540e-01,3.12325e-13,-1.73540e-01,6.02812e-13,-1.73540e-01
8.49455e+02,6.48000e+02,6.57000e+02,-9.00000e+00,6.36239e-13,-1.65994e-01,1.60476e-13,-1.65994e-01,7.02908e-13,-1.65994e-01
8.49703e+02,6.63000e+02,6.55000e+02,8.00000e+00,1.58865e-12,-1.58449e-01,9.03540e-13,-1.58449e-01,2.02983e-12,-1.58449e-01
8.49951e+02,6.66000e+02,6.62000e+02,4.00000e+00,2.87360e-12,-1.50904e-01,2.59341e-12,-1.50904e-01,5.21166e-12,-1.50904e-01
8.50198e+02,6.77000e+02,6.68000e+02,9.00000e+00,3.71766e-12,-1.43359e-01,3.02723e-12,-1.43359e-01,6.59914e-12,-1.43359e-01
8.50446e+02,6.53000e+02,6.68000e+02,-1.50000e+01,2.16214e-12,-1.35814e-01,2.13013e-12,-1.35814e-01,4.28538e-12,-1.35814e-01
8.50694e+02,6.71000e+02,6.50000e+02,2.10000e+01,5.94941e-13,-1.28268e-01,1.11485e-12,-1.28268e-01,1.63348e-12,-1.28268e-01
8.50941e+02,6.81000e+02,6.74000e+02,7.00000e+00,8.20730e-13,-1.20723e-01,8.43534e-13,-1.20723e-01,5.56672e-14,-1.20723e-01
8.51189e+02,6.70000e+02,6.70000e+02,0.00000e+00,1.39633e-12,-1.13178e-01,4.91600e-13,-1.13178e-01,9.04811e-13,-1.13178e-01
8.51437e+02,6.57000e+02,6.64000e+02,-7.00000e+00,1.27446e-12,-1.05633e-01,5.88870e-13,-1.05633e-01,6.94867e-13,-1.05633e-01
8.51685e+02,6.54000e+02,6.55000e+02,-1.00000e+00,4.76438e-13,-9.80876e-02,6.22061e-13,-9.80876e-02,2.32225e-13,-9.80876e-02
8.51932e+02,6.58000e+02,6.54000e+02,4.00000e+00,4.56497e-13,-9.05424e-02,6.77466e-13,-9.05424e-02,5.59563e-13,-9.05424e-02
8.52180e+02,6.64000e+02,6.74000e+02,-1.00000e+01,6.30165e-13,-8.29972e-02,1.01736e-12,-8.29972e-02,6.51522e-13,-8.29972e-02
8.52428e+02,6.44000e+02,6.53000e+02,-9.00000e+00,7.12569e-13,-7.54520e-02,6.83548e-13,-7.54520e-02,6.38971e-13,-7.54520e-02
8.52675e+02,6.62000e+02,6.55000e+02,7.00000e+00,2.18112e-13,-6.79068e-02,3.51110e-13,-6.79068e-02,1.57193e-13,-6.79068e-02
8.52923e+02,6.69000e+02,6.66000e+02,3.00000e+00,1.90083e-13,-6.03616e-02,2.20764e-13,-6.03616e-02,2.55744e-13,-6.03616e-02
8.53170e+02,6.88000e+02,6.89000e+02,-1.00000e+00,2.41223e-13,-5.28164e-02,2.47510e-13,-5.28164e-02,8.10948e-14,-5.28164e-02
8.53418e+02,6.60000e+02,6.68000e+02,-8.00000e+00,2.12933e-12,-4.52712e-02,1.95189e-12,-4.52712e-02,2.35099e-13,-4.52712e-02
8.53666e+02,6.52000e+02,6.71000e+02,-1.90000e+01,2.38447e-12,-3.77260e-02,2.28482e-12,-3.77260e-02,2.69851e-13,-3.77260e-02
8.53913e+02,6.60000e+02,6.68000e+02,-8.00000e+00,3.86419e-12,-3.01808e-02,3.80603e-12,-3.01808e-02,2.78326e-13,-3.01808e-02
8.54161e+02,6.62000e+02,6.62000e+02,0.00000e+00,1.89746e-12,-2.26356e-02,1.92504e-12,-2.26356e-02,9.02124e-14,-2.26356e-02
8.54409e+02,6.61000e+02,6.54000e+02,7.00000e+00,1.06960e-11,-1.50904e-02,1.08785e-11,-1.50904e-02,4.03047e-13,-1.50904e-02
8.54656e+02,6.62000e+02,6.63000e+02,-1.00000e+00,2.49800e-11,-7.54520e-03,2.50689e-11,-7.54520e-03,5.08717e-13,-7.54520e-03
