7.67698e+02,6.66000e+02,6.58000e+02,8.00000e+00,9.51097e-11,0.00000e+00,9.55326e-11,0.00000e+00,4.22936e-13,0.00000e+00
7.67949e+02,6.54000e+02,6.57000e+02,-3.00000e+00,1.80666e-11,7.54520e-03,1.85373e-11,7.54520e-03,5.10339e-13,7.54520e-03
7.68199e+02,6.75000e+02,6.64000e+02,1.10000e+01,8.00533e-12,1.50904e-02,8.27870e-12,1.50904e-02,3.17675e-13,1.50904e-02
7.68450e+02,6.71000e+02,6.61000e+02,1.00000e+01,1.27256e-12,2.26356e-02,1.32034e-12,2.26356e-02,1.72054e-13,2.26356e-02
7.68701e+02,6.71000e+02,6.66000e+02,5.00000e+00,4.07147e-12,3.01808e-02,4.14109e-12,3.01808e-02,7.37625e-14,3.01808e-02
7.68951e+02,6.66000e+02,6.78000e+02,-1.20000e+01,2.26414e-12,3.77260e-02,2.46833e-12,3.77260e-02,2.37348e-13,3.77260e-02
7.69202e+02,6.77000e+02,6.91000e+02,-1.40000e+01,1.77175e-12,4.52712e-02,2.01989e-12,4.52712e-02,3.46243e-13,4.52712e-02
7.69453e+02,6.86000e+02,6.79000e+02,7.00000e+00,7.73653e-13,5.28164e-02,3.89729e-13,5.28164e-02,4.17747e-13,5.28164e-02
7.69703e+02,6.69000e+02,6.68000e+02,1.00000e+00,4.94789e-13,6.03616e-02,1.59219e-13,6.03616e-02,3.52848e-13,6.03616e-02
7.69954e+02,6.75000e+02,6.98000e+02,-2.30000e+01,5.40365e-13,6.79068e-02,2.56472e-13,6.79068e-02,2.91505e-13,6.79068e-02
7.70205e+02,6.82000e+02,6.98000e+02,-1.60000e+01,7.03866e-13,7.54520e-02,6.72211e-13,7.54520e-02,3.73173e-14,7.54520e-02
7.70455e+02,6.84000e+02,6.95000e+02,-1.10000e+01,7.48609e-13,8.29972e-02,6.23005e-13,8.29972e-02,1.83638e-13,8.29972e-02
7.70706e+02,6.85000e+02,6.89000e+02,-4.00000e+00,8.53306e-13,9.05424e-02,6.86998e-13,9.05424e-02,2.06697e-13,9.05424e-02
7.70957e+02,6.89000e+02,6.91000e+02,-2.00000e+00,3.35547e-13,9.80876e-02,2.98147e-13,9.80876e-02,6.96860e-14,9.80876e-02
7.71207e+02,6.92000e+02,6.81000e+02,1.10000e+01,2.94312e-13,1.05633e-01,2.50996e-13,1.05633e-01,5.66076e-14,1.05633e-01
7.71458e+02,7.12000e+02,6.91000e+02,2.10000e+01,7.85100e-13,1.13178e-01,6.46287e-13,1.13178e-01,1.40690e-13,1.13178e-01
7.71708e+02,7.00000e+02,7.03000e+02,-3.00000e+00,6.70940e-13,1.20723e-01,6.40938e-13,1.20723e-01,5.78272e-14,1.20723e-01
7.71959e+02,7.09000e+02,6.92000e+02,1.70000e+01,3.30541e-13,1.28268e-01,3.11260e-13,1.28268e-01,2.29817e-14,1.28268e-01
7.72210e+02,7.01000e+02,6.95000e+02,6.00000e+00,2.81485e-13,1.35814e-01,2.88221e-13,1.35814e-01,1.45931e-13,1.35814e-01
7.72460e+02,6.95000e+02,7.05000e+02,-1.00000e+01,5.01156e-13,1.43359e-01,1.65018e-13,1.43359e-01,3.74101e-13,1.43359e-01
7.72711e+02,7.03000e+02,7.11000e+02,-8.00000e+00,7.73868e-13,1.50904e-01,3.30412e-13,1.50904e-01,5.58054e-13,1.50904e-01
7.72961e+02,7.18000e+02,7.09000e+02,9.00000e+00,5.99659e-13,1.58449e-01,2.31692e-13,1.58449e-01,3.75611e-13,1.58449e-01
7.73212e+02,7.12000e+02,7.15000e+02,-3.00000e+00,5.87842e-13,1.65994e-01,2.02820e-13,1.65994e-01,4.25742e-13,1.65994e-01
7.73462e+02,7.10000e+02,7.26000e+02,-1.60000e+01,3.68307e-13,1.73540e-01,1.00746e-13,1.73540e-01,3.85304e-13,1.73540e-01
7.73713e+02,7.21000e+02,7.16000e+02,5.00000e+00,3.11094e-13,1.81085e-01,1.71213e-13,1.81085e-01,4.41919e-13,1.81085e-01
7.73963e+02,6.93000e+02,7.09000e+02,-1.60000e+01,2.65182e-13,1.88630e-01,3.92802e-13,1.88630e-01,3.37558e-13,1.88630e-01
7.74214e+02,7.18000e+02,7.13000e+02,5.00000e+00,1.50486e-13,1.96175e-01,3.06627e-13,1.96175e-01,1.63105e-13,1.96175e-01
7.74465e+02,7.37000e+02,7.29000e+02,8.00000e+00,2.99725e-13,2.03720e-01,4.07051e-13,2.03720e-01,1.85077e-13,2.03720e-01
7.74715e+02,7.30000e+02,7.09000e+02,2.10000e+01,4.11312e-13,2.11266e-01,3.63218e-13,2.11266e-01,4.81710e-14,2.11266e-01
7.74965e+02,7.24000e+02,7.17000e+02,7.00000e+00,1.98732e-13,2.18811e-01,2.77790e-13,2.18811e-01,1.03511e-13,2.18811e-01
7.75216e+02,7.17000e+02,7.31000e+02,-1.40000e+01,3.10627e-13,2.26356e-01,4.50743e-13,2.26356e-01,1.60250e-13,2.26356e-01
7.75466e+02,7.33000e+02,7.33000e+02,0.00000e+00,2.66498e-13,2.33901e-01,3.35399e-13,2.33901e-01,1.44829e-13,2.33901e-01
7.75717e+02,7.49000e+02,7.36000e+02,1.30000e+01,4.06647e-14,2.41446e-01,1.15909e-13,2.41446e-01,7.52545e-14,2.41446e-01
7.75967e+02,7.42000e+02,7.36000e+02,6.00000e+00,1.14646e-13,2.48992e-01,3.32772e-13,2.48992e-01,2.18480e-13,2.48992e-01
7.76218e+02,7.58000e+02,7.55000e+02,3.00000e+00,2.40989e-13,2.56537e-01,8.01052e-14,2.56537e-01,2.54666e-13,2.56537e-01
7.76468e+02,7.54000e+02,7.55000e+02,-1.00000e+00,2.90645e-13,2.64082e-01,1.53105e-13,2.64082e-01,2.47399e-13,2.64082e-01
7.76719e+02,7.61000e+02,7.52000e+02,9.00000e+00,3.78212e-13,2.71627e-01,2.08791e-13,2.71627e-01,2.04879e-13,2.71627e-01
7.76969e+02,7.65000e+02,7.50000e+02,1.50000e+01,3.42269e-13,2.79172e-01,4.03574e-13,2.79172e-01,6.50026e-14,2.79172e-01
7.77219e+02,7.72000e+02,7.64000e+02,8.00000e+00,6.42118e-14,2.86718e-01,1.86846e-13,2.86718e-01,1.32431e-13,2.86718e-01
7.77470e+02,7.59000e+02,7.58000e+02,1.00000e+00,2.03218e-13,2.94263e-01,7.20861e-14,2.94263e-01,1.55708e-13,2.94263e-01
7.77720e+02,7.64000e+02,7.65000e+02,-1.00000e+00,2.98855e-13,3.01808e-01,4.00134e-13,3.01808e-01,1.30890e-13,3.01808e-01
7.77971e+02,7.85000e+02,7.89000e+02,-4.00000e+00,4.03992e-13,3.09353e-01,3.79801e-13,3.09353e-01,1.82360e-13,3.09353e-01
7.78221e+02,7.88000e+02,7.76000e+02,1.20000e+01,5.57064e-13,3.16898e-01,3.81062e-13,3.16898e-01,2.04050e-13,3.16898e-01
7.78471e+02,7.90000e+02,7.88000e+02,2.00000e+00,6.81714e-13,3.24444e-01,4.51828e-13,3.24444e-01,2.62798e-13,3.24444e-01
7.78722e+02,7.76000e+02,7.77000e+02,-1.00000e+00,5.00875e-13,3.31989e-01,4.81729e-13,3.31989e-01,2.14820e-13,3.31989e-01
7.78972e+02,7.69000e+02,7.36000e+02,3.30000e+01,3.75013e-13,3.39534e-01,5.51396e-13,3.39534e-01,2.12136e-13,3.39534e-01
7.79222e+02,7.82000e+02,7.85000e+02,-3.00000e+00,6.23191e-14,3.47079e-01,3.06217e-13,3.47079e-01,2.50297e-13,3.47079e-01
7.79473e+02,7.81000e+02,7.72000e+02,9.00000e+00,2.30172e-13,3.54624e-01,2.07148e-13,3.54624e-01,1.57109e-13,3.54624e-01
7.79723e+02,7.68000e+02,7.61000e+02,7.00000e+00,7.31277e-14,3.62169e-01,1.02279e-13,3.62169e-01,1.74603e-13,3.62169e-01
7.79973e+02,7.62000e+02,7.64000e+02,-2.00000e+00,3.62713e-14,3.69715e-01,1.83020e-13,3.69715e-01,1.54715e-13,3.69715e-01
7.80224e+02,7.75000e+02,7.74000e+02,1.00000e+00,1.48377e-13,3.77260e-01,3.08664e-13,3.77260e-01,1.70715e-13,3.77260e-01
7.80474e+02,8.04000e+02,7.93000e+02,1.10000e+01,1.12924e-13,3.84805e-01,1.33989e-13,3.84805e-01,1.85188e-13,3.84805e-01
7.80724e+02,8.10000e+02,7.98000e+02,1.20000e+01,1.75242e-13,3.92350e-01,3.39463e-13,3.92350e-01,2.09618e-13,3.92350e-01
7.80974e+02,7.83000e+02,7.82000e+02,1.00000e+00,2.40360e-13,3.99895e-01,3.66819e-13,3.99895e-01,1.32739e-13,3.99895e-01
7.81225e+02,7.81000e+02,7.94000e+02,-1.30000e+01,3.84930e-13,4.07441e-01,4.16480e-13,4.07441e-01,5.44346e-14,4.07441e-01
7.81475e+02,7.71000e+02,7.74000e+02,-3.00000e+00,2.84653e-13,4.14986e-01,1.78259e-13,4.14986e-01,1.69706e-13,4.14986e-01
7.81725e+02,7.59000e+02,7.82000e+02,-2.30000e+01,2.68515e-13,4.22531e-01,1.78172e-13,4.22531e-01,1.46604e-13,4.22531e-01
7.81975e+02,7.68000e+02,7.81000e+02,-1.30000e+01,3.56898e-14,4.30076e-01,1.51070e-14,4.30076e-01,2.95181e-14,4.30076e-01
7.82226e+02,7.88000e+02,7.80000e+02,8.00000e+00,1.03562e-13,4.37621e-01,1.68604e-13,4.37621e-01,2.27788e-13,4.37621e-01
7.82476e+02,7.89000e+02,7.84000e+02,5.00000e+00,1.15083e-13,4.45167e-01,1.04985e-13,4.45167e-01,1.45946e-13,4.45167e-01
7.82726e+02,7.86000e+02,7.71000e+02,1.50000e+01,8.72471e-14,4.52712e-01,8.83620e-14,4.52712e-01,1.65299e-13,4.52712e-01
7.82976e+02,7.81000e+02,7.88000e+02,-7.00000e+00,1.40023e-13,4.60257e-01,2.55358e-13,4.60257e-01,3.18871e-13,4.60257e-01
7.83226e+02,7.69000e+02,7.66000e+02,3.00000e+00,2.03687e-13,4.67802e-01,2.90632e-13,4.67802e-01,4.45619e-13,4.67802e-01
7.83477e+02,7.66000e+02,7.59000e+02,7.00000e+00,2.42177e-13,4.75347e-01,1.85242e-13,4.75347e-01,4.21106e-13,4.75347e-01
7.83727e+02,7.72000e+02,7.76000e+02,-4.00000e+00,2.26275e-13,4.82893e-01,1.44616e-13,4.82893e-01,2.81756e-13,4.82893e-01
7.83977e+02,7.62000e+02,7.66000e+02,-4.00000e+00,2.93661e-13,4.90438e-01,8.58079e-14,4.90438e-01,3.77259e-13,4.90438e-01
7.84227e+02,7.54000e+02,7.61000e+02,-7.00000e+00,4.55636e-13,4.97983e-01,5.29000e-14,4.97983e-01,4.91656e-13,4.97983e-01
7.84477e+02,7.79000e+02,7.56000e+02,2.30000e+01,2.64229e-13,5.05528e-01,9.10997e-14,5.05528e-01,3.38879e-13,5.05528e-01
7.84727e+02,7.65000e+02,7.51000e+02,1.40000e+01,1.16404e-13,5.13073e-01,4.11895e-14,5.13073e-01,1.07242e-13,5.13073e-01
7.84978e+02,7.80000e+02,7.52000e+02,2.80000e+01,1.32469e-13,5.20619e-01,9.05138e-14,5.20619e-01,1.36754e-13,5.20619e-01
7.85228e+02,7.58000e+02,7.55000e+02,3.00000e+00,1.15077e-13,5.28164e-01,1.10807e-13,5.28164e-01,1.65757e-13,5.28164e-01
7.85478e+02,7.40000e+02,7.33000e+02,7.00000e+00,1.25202e-13,5.35709e-01,1.38791e-13,5.35709e-01,1.84826e-13,5.35709e-01
7.85728e+02,7.41000e+02,7.33000e+02,8.00000e+00,2.29669e-13,5.43254e-01,2.02042e-13,5.43254e-01,1.03201e-13,5.43254e-01
7.85978e+02,7.49000e+02,7.32000e+02,1.70000e+01,1.40439e-13,5.50799e-01,1.57423e-13,5.50799e-01,1.60237e-13,5.50799e-01
7.86228e+02,7.49000e+02,7.40000e+02,9.00000e+00,1.43495e-13,5.58345e-01,1.60919e-13,5.58345e-01,6.67517e-14,5.58345e-01
7.86478e+02,7.28000e+02,7.43000e+02,-1.50000e+01,6.39665e-14,5.65890e-01,3.41929e-14,5.65890e-01,9.80241e-14,5.65890e-01
7.86728e+02,7.28000e+02,7.32000e+02,-4.00000e+00,1.30145e-13,5.73435e-01,3.43416e-14,5.73435e-01,9.67430e-14,5.73435e-01
7.86978e+02,7.16000e+02,7.20000e+02,-4.00000e+00,1.53357e-13,5.80980e-01,3.04420e-14,5.80980e-01,1.40794e-13,5.80980e-01
7.87228e+02,7.19000e+02,7.15000e+02,4.00000e+00,1.65221e-13,5.88525e-01,1.03904e-13,5.88525e-01,1.13304e-13,5.88525e-01
7.87478e+02,7.18000e+02,7.31000e+02,-1.30000e+01,6.56965e-14,5.96071e-01,1.47056e-13,5.96071e-01,1.00280e-13,5.96071e-01
7.87728e+02,7.32000e+02,7.33000e+02,-1.00000e+00,1.18318e-14,6.03616e-01,7.81017e-14,6.03616e-01,8.22145e-14,6.03616e-01
7.87978e+02,7.31000e+02,7.13000e+02,1.80000e+01,1.23408e-13,6.11161e-01,1.13736e-13,6.11161e-01,1.24337e-13,6.11161e-01
7.88228e+02,7.20000e+02,7.29000e+02,-9.00000e+00,4.61547e-14,6.18706e-01,2.26725e-13,6.18706e-01,2.46277e-13,6.18706e-01
7.88478e+02,7.30000e+02,7.46000e+02,-1.60000e+01,6.43404e-14,6.26251e-01,1.26771e-13,6.26251e-01,1.91046e-13,6.26251e-01
7.88728e+02,7.26000e+02,7.31000e+02,-5.00000e+00,2.29824e-14,6.33797e-01,3.95603e-14,6.33797e-01,2.58853e-14,6.33797e-01
7.88978e+02,7.17000e+02,7.20000e+02,-3.00000e+00,7.65643e-14,6.41342e-01,1.16263e-13,6.41342e-01,7.41126e-14,6.41342e-01
7.89228e+02,7.36000e+02,7.25000e+02,1.10000e+01,1.48330e-13,6.48887e-01,1.46455e-13,6.48887e-01,2.29126e-13,6.48887e-01
7.89478e+02,7.39000e+02,7.37000e+02,2.00000e+00,2.88949e-13,6.56432e-01,2.42270e-13,6.56432e-01,2.04546e-13,6.56432e-01
7.89728e+02,7.13000e+02,7.14000e+02,-1.00000e+00,2.56101e-13,6.63977e-01,2.53227e-13,6.63977e-01,1.45893e-13,6.63977e-01
7.89978e+02,7.18000e+02,7.14000e+02,4.00000e+00,1.19178e-13,6.71523e-01,1.85928e-13,6.71523e-01,8.63278e-14,6.71523e-01
7.90228e+02,7.42000e+02,7.31000e+02,1.10000e+01,7.13137e-14,6.79068e-01,1.11394e-13,6.79068e-01,4.29508e-14,6.79068e-01
7.90478e+02,7.20000e+02,7.20000e+02,0.00000e+00,6.92983e-14,6.86613e-01,1.38623e-13,6.86613e-01,6.94190e-14,6.86613e-01
7.90728e+02,7.25000e+02,7.18000e+02,7.00000e+00,7.56589e-14,6.94158e-01,3.88397e-14,6.94158e-01,3.74882e-14,6.94158e-01
7.90978e+02,7.11000e+02,7.14000e+02,-3.00000e+00,7.51809e-14,7.01703e-01,8.86544e-14,7.01703e-01,1.91015e-14,7.01703e-01
7.91228e+02,7.44000e+02,7.34000e+02,1.00000e+01,1.02579e-13,7.09249e-01,1.11199e-13,7.09249e-01,7.18035e-14,7.09249e-01
7.91478e+02,7.28000e+02,7.23000e+02,5.00000e+00,1.44854e-13,7.16794e-01,8.04986e-14,7.16794e-01,1.53454e-13,7.16794e-01
7.91728e+02,7.12000e+02,7.40000e+02,-2.80000e+01,1.02144e-13,7.24339e-01,7.19440e-14,7.24339e-01,1.72045e-13,7.24339e-01
7.91977e+02,7.07000e+02,7.29000e+02,-2.20000e+01,1.70698e-13,7.31884e-01,1.37035e-13,7.31884e-01,1.23174e-13,7.31884e-01
7.92227e+02,7.12000e+02,7.20000e+02,-8.00000e+00,1.15396e-13,7.39429e-01,1.30159e-13,7.39429e-01,1.02661e-13,7.39429e-01
7.92477e+02,7.34000e+02,7.28000e+02,6.00000e+00,4.19597e-14,7.46975e-01,1.28482e-13,7.46975e-01,9.31521e-14,7.46975e-01
7.92727e+02,7.22000e+02,7.15000e+02,7.00000e+00,9.05111e-14,7.54520e-01,1.57776e-13,7.54520e-01,1.25354e-13,7.54520e-01
7.92977e+02,7.30000e+02,7.35000e+02,-5.00000e+00,4.27037e-14,7.62065e-01,2.73878e-14,7.62065e-01,6.82206e-14,7.62065e-01
7.93227e+02,7.41000e+02,7.59000e+02,-1.80000e+01,3.25214e-14,7.69610e-01,1.20495e-13,7.69610e-01,1.26277e-13,7.69610e-01
7.93476e+02,7.62000e+02,7.50000e+02,1.20000e+01,5.86793e-14,7.77155e-01,4.15005e-14,7.77155e-01,8.51879e-14,7.77155e-01
7.93726e+02,7.71000e+02,7.39000e+02,3.20000e+01,2.57534e-14,7.84701e-01,1.16623e-13,7.84701e-01,1.40479e-13,7.84701e-01
7.93976e+02,7.71000e+02,7.33000e+02,3.80000e+01,9.18962e-14,7.92246e-01,1.96523e-14,7.92246e-01,8.93005e-14,7.92246e-01
7.94226e+02,7.74000e+02,7.40000e+02,3.40000e+01,1.35369e-13,7.99791e-01,3.22625e-14,7.99791e-01,1.67476e-13,7.99791e-01
7.94476e+02,7.40000e+02,7.30000e+02,1.00000e+01,7.15915e-14,8.07336e-01,2.08830e-14,8.07336e-01,9.20131e-14,8.07336e-01
7.94725e+02,7.33000e+02,7.48000e+02,-1.50000e+01,1.24503e-13,8.14881e-01,1.25192e-13,8.14881e-01,5.57769e-14,8.14881e-01
7.94975e+02,7.60000e+02,7.44000e+02,1.60000e+01,4.91440e-14,8.22427e-01,3.41684e-14,8.22427e-01,2.29844e-14,8.22427e-01
7.95225e+02,7.61000e+02,7.42000e+02,1.90000e+01,9.73472e-14,8.29972e-01,8.99677e-14,8.29972e-01,2.16342e-14,8.29972e-01
7.95475e+02,7.30000e+02,7.54000e+02,-2.40000e+01,1.44814e-13,8.37517e-01,1.16370e-13,8.37517e-01,5.17978e-14,8.37517e-01
7.95724e+02,7.30000e+02,7.50000e+02,-2.00000e+01,8.70065e-14,8.45062e-01,5.30683e-14,8.45062e-01,1.15333e-13,8.45062e-01
7.95974e+02,7.25000e+02,7.44000e+02,-1.90000e+01,6.15009e-14,8.52607e-01,1.24902e-13,8.52607e-01,1.77288e-13,8.52607e-01
7.96224e+02,7.61000e+02,7.66000e+02,-5.00000e+00,6.16751e-14,8.60153e-01,9.85705e-14,8.60153e-01,1.14530e-13,8.60153e-01
7.96474e+02,7.63000e+02,7.46000e+02,1.70000e+01,3.40901e-14,8.67698e-01,9.21393e-14,8.67698e-01,1.17727e-13,8.67698e-01
7.96723e+02,7.30000e+02,7.48000e+02,-1.80000e+01,3.85573e-14,8.75243e-01,7.12465e-14,8.75243e-01,4.02462e-14,8.75243e-01
7.96973e+02,7.44000e+02,7.52000e+02,-8.00000e+00,7.26144e-14,8.82788e-01,1.95946e-14,8.82788e-01,6.36133e-14,8.82788e-01
7.97223e+02,7.73000e+02,7.74000e+02,-1.00000e+00,3.10726e-14,8.90333e-01,5.02059e-14,8.90333e-01,7.95513e-14,8.90333e-01
7.97472e+02,7.85000e+02,7.87000e+02,-2.00000e+00,7.61184e-14,8.97879e-01,1.62988e-13,8.97879e-01,8.77839e-14,8.97879e-01
7.97722e+02,7.66000e+02,7.82000e+02,-1.60000e+01,6.15644e-14,9.05424e-01,9.39856e-14,9.05424e-01,3.63218e-14,9.05424e-01
7.97972e+02,7.95000e+02,7.70000e+02,2.50000e+01,7.27853e-14,9.12969e-01,1.34835e-13,9.12969e-01,7.09082e-14,9.12969e-01
7.98221e+02,8.01000e+02,7.78000e+02,2.30000e+01,1.07152e-13,9.20514e-01,1.86790e-13,9.20514e-01,1.48009e-13,9.20514e-01
7.98471e+02,7.94000e+02,7.92000e+02,2.00000e+00,1.10161e-13,9.28059e-01,1.65642e-13,9.28059e-01,1.93567e-13,9.28059e-01
7.98721e+02,8.33000e+02,7.91000e+02,4.20000e+01,2.81639e-14,9.35605e-01,1.40088e-13,9.35605e-01,1.29080e-13,9.35605e-01
7.98970e+02,8.14000e+02,8.28000e+02,-1.40000e+01,6.96138e-14,9.43150e-01,1.03352e-13,9.43150e-01,1.22584e-13,9.43150e-01
7.99220e+02,8.58000e+02,8.63000e+02,-5.00000e+00,8.93134e-14,9.50695e-01,5.76573e-14,9.50695e-01,1.46585e-13,9.50695e-01
7.99469e+02,8.50000e+02,8.71000e+02,-2.10000e+01,5.57473e-14,9.58240e-01,1.10353e-13,9.58240e-01,5.60323e-14,9.58240e-01
7.99719e+02,8.56000e+02,8.61000e+02,-5.00000e+00,1.87259e-14,9.65785e-01,8.84926e-14,9.65785e-01,1.06572e-13,9.65785e-01
7.99969e+02,8.49000e+02,8.59000e+02,-1.00000e+01,8.59451e-14,9.73331e-01,8.83201e-14,9.73331e-01,2.02182e-14,9.73331e-01
8.00218e+02,8.54000e+02,8.68000e+02,-1.40000e+01,4.02565e-14,9.80876e-01,5.91811e-14,9.80876e-01,3.36676e-14,9.80876e-01
8.00468e+02,8.81000e+02,9.00000e+02,-1.90000e+01,4.20165e-14,9.88421e-01,7.04404e-14,9.88421e-01,6.23940e-14,9.88421e-01
8.00717e+02,9.60000e+02,9.12000e+02,4.80000e+01,3.67181e-14,9.95966e-01,2.76650e-14,9.95966e-01,6.30279e-14,9.95966e-01
8.00967e+02,9.62000e+02,9.41000e+02,2.10000e+01,4.95000e-14,1.00351e+00,1.13517e-13,1.00351e+00,9.07445e-14,1.00351e+00
8.01216e+02,1.01600e+03,9.71000e+02,4.50000e+01,2.98184e-15,1.01106e+00,3.85523e-14,1.01106e+00,4.01309e-14,1.01106e+00
8.01466e+02,1.03900e+03,1.01700e+03,2.20000e+01,7.46828e-14,1.01860e+00,7.14874e-14,1.01860e+00,1.98283e-14,1.01860e+00
8.01715e+02,1.08800e+03,1.05200e+03,3.60000e+01,2.92915e-14,1.02615e+00,2.81662e-14,1.02615e+00,5.39442e-14,1.02615e+00
8.01965e+02,1.09400e+03,1.09200e+03,2.00000e+00,7.82638e-14,1.03369e+00,5.29068e-14,1.03369e+00,6.59984e-14,1.03369e+00
8.02215e+02,1.11600e+03,1.15900e+03,-4.30000e+01,1.43141e-14,1.04124e+00,8.02569e-14,1.04124e+00,6.73384e-14,1.04124e+00
8.02464e+02,1.15900e+03,1.20100e+03,-4.20000e+01,9.07483e-14,1.04878e+00,5.57678e-14,1.04878e+00,3.50192e-14,1.04878e+00
8.02713e+02,1.21000e+03,1.16900e+03,4.10000e+01,7.43948e-14,1.05633e+00,1.20900e-13,1.05633e+00,4.88399e-14,1.05633e+00
8.02963e+02,1.28500e+03,1.17300e+03,1.12000e+02,9.57903e-14,1.06387e+00,1.00434e-13,1.06387e+00,6.03281e-14,1.06387e+00
8.03212e+02,1.26600e+03,1.10400e+03,1.62000e+02,4.61047e-14,1.07142e+00,1.19489e-13,1.07142e+00,8.21056e-14,1.07142e+00
8.03462e+02,1.27000e+03,1.17200e+03,9.80000e+01,3.40855e-14,1.07896e+00,5.88836e-14,1.07896e+00,8.81427e-14,1.07896e+00
8.03711e+02,1.18300e+03,1.19100e+03,-8.00000e+00,6.53750e-14,1.08651e+00,9.02185e-14,1.08651e+00,7.21823e-14,1.08651e+00
8.03961e+02,1.16600e+03,1.22900e+03,-6.30000e+01,5.41897e-14,1.09405e+00,9.41251e-14,1.09405e+00,1.07139e-13,1.09405e+00
8.04210e+02,1.22500e+03,1.23800e+03,-1.30000e+01,7.27762e-14,1.10160e+00,8.50760e-14,1.10160e+00,6.10764e-14,1.10160e+00
8.04460e+02,1.24500e+03,1.27800e+03,-3.30000e+01,9.75365e-14,1.10914e+00,4.85132e-14,1.10914e+00,7.79197e-14,1.10914e+00
8.04709e+02,1.20200e+03,1.22100e+03,-1.90000e+01,7.95995e-14,1.11669e+00,1.09154e-13,1.11669e+00,4.37840e-14,1.11669e+00
8.04958e+02,1.17500e+03,1.18100e+03,-6.00000e+00,3.54429e-14,1.12423e+00,4.29805e-14,1.12423e+00,1.81407e-14,1.12423e+00
8.05208e+02,1.19300e+03,1.22600e+03,-3.30000e+01,6.75370e-15,1.13178e+00,6.94028e-14,1.13178e+00,6.60623e-14,1.13178e+00
8.05457e+02,1.18300e+03,1.27400e+03,-9.10000e+01,1.75096e-13,1.13932e+00,6.01549e-14,1.13932e+00,1.30834e-13,1.13932e+00
8.05707e+02,1.22500e+03,1.30700e+03,-8.20000e+01,1.10916e-13,1.14687e+00,5.23594e-14,1.14687e+00,7.80188e-14,1.14687e+00
8.05956e+02,1.30800e+03,1.34700e+03,-3.90000e+01,9.50997e-14,1.15442e+00,6.78917e-14,1.15442e+00,2.79502e-14,1.15442e+00
8.06205e+02,1.32400e+03,1.36700e+03,-4.30000e+01,5.71806e-14,1.16196e+00,4.68632e-14,1.16196e+00,5.43572e-14,1.16196e+00
8.06455e+02,1.36300e+03,1.37800e+03,-1.50000e+01,1.21022e-13,1.16951e+00,3.11859e-14,1.16951e+00,1.12797e-13,1.16951e+00
8.06704e+02,1.29200e+03,1.35800e+03,-6.60000e+01,1.26135e-13,1.17705e+00,2.54507e-14,1.17705e+00,1.03732e-13,1.17705e+00
8.06953e+02,1.34300e+03,1.28400e+03,5.90000e+01,1.01100e-13,1.18460e+00,5.84814e-14,1.18460e+00,5.25202e-14,1.18460e+00
8.07203e+02,1.42400e+03,1.35700e+03,6.70000e+01,2.32715e-14,1.19214e+00,5.78163e-14,1.19214e+00,5.12683e-14,1.19214e+00
8.07452e+02,1.48800e+03,1.42600e+03,6.20000e+01,5.53650e-14,1.19969e+00,1.44091e-13,1.19969e+00,9.46181e-14,1.19969e+00
8.07701e+02,1.39400e+03,1.42500e+03,-3.10000e+01,4.31158e-14,1.20723e+00,9.26592e-14,1.20723e+00,5.12276e-14,1.20723e+00
8.07951e+02,1.33200e+03,1.39900e+03,-6.70000e+01,4.76702e-14,1.21478e+00,8.85549e-14,1.21478e+00,5.42640e-14,1.21478e+00
8.08200e+02,1.36300e+03,1.38900e+03,-2.60000e+01,3.11720e-14,1.22232e+00,1.05029e-13,1.22232e+00,1.28330e-13,1.22232e+00
8.08449e+02,1.37900e+03,1.34700e+03,3.20000e+01,3.96894e-14,1.22987e+00,4.51507e-14,1.22987e+00,2.85927e-14,1.22987e+00
8.08698e+02,1.41600e+03,1.47100e+03,-5.50000e+01,3.67325e-14,1.23741e+00,2.61728e-14,1.23741e+00,4.72973e-14,1.23741e+00
8.08948e+02,1.42200e+03,1.48100e+03,-5.90000e+01,8.79895e-14,1.24496e+00,1.01417e-13,1.24496e+00,3.21251e-14,1.24496e+00
8.09197e+02,1.42100e+03,1.50000e+03,-7.90000e+01,6.05560e-14,1.25250e+00,4.46479e-14,1.25250e+00,7.41777e-14,1.25250e+00
8.09446e+02,1.39400e+03,1.57400e+03,-1.80000e+02,7.19366e-14,1.26005e+00,6.32890e-14,1.26005e+00,2.83343e-14,1.26005e+00
8.09695e+02,1.39300e+03,1.48300e+03,-9.00000e+01,5.47983e-14,1.26759e+00,1.38087e-14,1.26759e+00,6.85487e-14,1.26759e+00
8.09945e+02,1.42500e+03,1.40600e+03,1.90000e+01,6.08052e-14,1.27514e+00,5.22662e-14,1.27514e+00,1.05608e-13,1.27514e+00
8.10194e+02,1.38200e+03,1.37500e+03,7.00000e+00,6.59549e-14,1.28268e+00,9.99643e-14,1.28268e+00,1.60006e-13,1.28268e+00
8.10443e+02,1.40100e+03,1.41500e+03,-1.40000e+01,1.56005e-13,1.29023e+00,2.78678e-14,1.29023e+00,1.82982e-13,1.29023e+00
8.10692e+02,1.40700e+03,1.44800e+03,-4.10000e+01,1.09127e-13,1.29777e+00,8.87906e-14,1.29777e+00,1.82458e-13,1.29777e+00
8.10941e+02,1.54700e+03,1.47700e+03,7.00000e+01,1.21987e-13,1.30532e+00,9.49302e-14,1.30532e+00,1.39355e-13,1.30532e+00
8.11191e+02,1.51300e+03,1.40400e+03,1.09000e+02,5.56334e-14,1.31286e+00,9.75236e-14,1.31286e+00,1.04723e-13,1.31286e+00
8.11440e+02,1.52500e+03,1.40800e+03,1.17000e+02,4.37770e-14,-1.32041e+00,1.58488e-14,-1.32041e+00,5.96258e-14,-1.32041e+00
8.11689e+02,1.37500e+03,1.40000e+03,-2.50000e+01,5.56334e-14,-1.31286e+00,9.75236e-14,-1.31286e+00,1.04723e-13,-1.31286e+00
8.11938e+02,1.27700e+03,1.33200e+03,-5.50000e+01,1.21987e-13,-1.30532e+00,9.49302e-14,-1.30532e+00,1.39355e-13,-1.30532e+00
8.12187e+02,1.28200e+03,1.34500e+03,-6.30000e+01,1.09127e-13,-1.29777e+00,8.87906e-14,-1.29777e+00,1.82458e-13,-1.29777e+00
8.12436e+02,1.32500e+03,1.31400e+03,1.10000e+01,1.56005e-13,-1.29023e+00,2.78678e-14,-1.29023e+00,1.82982e-13,-1.29023e+00
8.12685e+02,1.33000e+03,1.31400e+03,1.60000e+01,6.59549e-14,-1.28268e+00,9.99643e-14,-1.28268e+00,1.60006e-13,-1.28268e+00
8.12935e+02,1.31300e+03,1.33900e+03,-2.60000e+01,6.08052e-14,-1.27514e+00,5.22662e-14,-1.27514e+00,1.05608e-13,-1.27514e+00
8.13184e+02,1.27800e+03,1.33200e+03,-5.40000e+01,5.47983e-14,-1.26759e+00,1.38087e-14,-1.26759e+00,6.85487e-14,-1.26759e+00
8.13433e+02,1.33500e+03,1.35400e+03,-1.90000e+01,7.19366e-14,-1.26005e+00,6.32890e-14,-1.26005e+00,2.83343e-14,-1.26005e+00
8.13682e+02,1.35200e+03,1.38200e+03,-3.00000e+01,6.05560e-14,-1.25250e+00,4.46479e-14,-1.25250e+00,7.41777e-14,-1.25250e+00
8.13931e+02,1.30300e+03,1.28900e+03,1.40000e+01,8.79895e-14,-1.24496e+00,1.01417e-13,-1.24496e+00,3.21251e-14,-1.24496e+00
8.14180e+02,1.30000e+03,1.27900e+03,2.10000e+01,3.67325e-14,-1.23741e+00,2.61728e-14,-1.23741e+00,4.72973e-14,-1.23741e+00
8.14429e+02,1.30200e+03,1.29800e+03,4.00000e+00,3.96894e-14,-1.22987e+00,4.51507e-14,-1.22987e+00,2.85927e-14,-1.22987e+00
8.14678e+02,1.24500e+03,1.27500e+03,-3.00000e+01,3.11720e-14,-1.22232e+00,1.05029e-13,-1.22232e+00,1.28330e-13,-1.22232e+00
8.14927e+02,1.26200e+03,1.24500e+03,1.70000e+01,4.76702e-14,-1.21478e+00,8.85549e-14,-1.21478e+00,5.42640e-14,-1.21478e+00
8.15176e+02,1.33700e+03,1.23700e+03,1.00000e+02,4.31158e-14,-1.20723e+00,9.26592e-14,-1.20723e+00,5.12276e-14,-1.20723e+00
8.15425e+02,1.39600e+03,1.32400e+03,7.20000e+01,5.53650e-14,-1.19969e+00,1.44091e-13,-1.19969e+00,9.46181e-14,-1.19969e+00
8.15674e+02,1.33900e+03,1.29300e+03,4.60000e+01,2.32715e-14,-1.19214e+00,5.78163e-14,-1.19214e+00,5.12683e-14,-1.19214e+00
8.15923e+02,1.29600e+03,1.30200e+03,-6.00000e+00,1.01100e-13,-1.18460e+00,5.84814e-14,-1.18460e+00,5.25202e-14,-1.18460e+00
8.16172e+02,1.23300e+03,1.24300e+03,-1.00000e+01,1.26135e-13,-1.17705e+00,2.54507e-14,-1.17705e+00,1.03732e-13,-1.17705e+00
8.16421e+02,1.20800e+03,1.21000e+03,-2.00000e+00,1.21022e-13,-1.16951e+00,3.11859e-14,-1.16951e+00,1.12797e-13,-1.16951e+00
8.16670e+02,1.22500e+03,1.20900e+03,1.60000e+01,5.71806e-14,-1.16196e+00,4.68632e-14,-1.16196e+00,5.43572e-14,-1.16196e+00
8.16919e+02,1.19000e+03,1.24400e+03,-5.40000e+01,9.50997e-14,-1.15442e+00,6.78917e-14,-1.15442e+00,2.79502e-14,-1.15442e+00
8.17168e+02,1.25100e+03,1.31000e+03,-5.90000e+01,1.10916e-13,-1.14687e+00,5.23594e-14,-1.14687e+00,7.80188e-14,-1.14687e+00
8.17417e+02,1.24800e+03,1.32400e+03,-7.60000e+01,1.75096e-13,-1.13932e+00,6.01549e-14,-1.13932e+00,1.30834e-13,-1.13932e+00
8.17666e+02,1.23600e+03,1.27700e+03,-4.10000e+01,6.75370e-15,-1.13178e+00,6.94028e-14,-1.13178e+00,6.60623e-14,-1.13178e+00
8.17915e+02,1.18900e+03,1.24000e+03,-5.10000e+01,3.54429e-14,-1.12423e+00,4.29805e-14,-1.12423e+00,1.81407e-14,-1.12423e+00
8.18164e+02,1.23700e+03,1.22800e+03,9.00000e+00,7.95995e-14,-1.11669e+00,1.09154e-13,-1.11669e+00,4.37840e-14,-1.11669e+00
8.18413e+02,1.24100e+03,1.24000e+03,1.00000e+00,9.75365e-14,-1.10914e+00,4.85132e-14,-1.10914e+00,7.79197e-14,-1.10914e+00
8.18662e+02,1.28000e+03,1.31200e+03,-3.20000e+01,7.27762e-14,-1.10160e+00,8.50760e-14,-1.10160e+00,6.10764e-14,-1.10160e+00
8.18911e+02,1.34000e+03,1.36500e+03,-2.50000e+01,5.41897e-14,-1.09405e+00,9.41251e-14,-1.09405e+00,1.07139e-13,-1.09405e+00
8.19160e+02,1.43300e+03,1.42500e+03,8.00000e+00,6.53750e-14,-1.08651e+00,9.02185e-14,-1.08651e+00,7.21823e-14,-1.08651e+00
8.19408e+02,1.41500e+03,1.48800e+03,-7.30000e+01,3.40855e-14,-1.07896e+00,5.88836e-14,-1.07896e+00,8.81427e-14,-1.07896e+00
8.19657e+02,1.37000e+03,1.42000e+03,-5.00000e+01,4.61047e-14,-1.07142e+00,1.19489e-13,-1.07142e+00,8.21056e-14,-1.07142e+00
8.19906e+02,1.30200e+03,1.32900e+03,-2.70000e+01,9.57903e-14,-1.06387e+00,1.00434e-13,-1.06387e+00,6.03281e-14,-1.06387e+00
8.20155e+02,1.27700e+03,1.33000e+03,-5.30000e+01,7.43948e-14,-1.05633e+00,1.20900e-13,-1.05633e+00,4.88399e-14,-1.05633e+00
8.20404e+02,1.24800e+03,1.38300e+03,-1.35000e+02,9.07483e-14,-1.04878e+00,5.57678e-14,-1.04878e+00,3.50192e-14,-1.04878e+00
8.20653e+02,1.27000e+03,1.30600e+03,-3.60000e+01,1.43141e-14,-1.04124e+00,8.02569e-14,-1.04124e+00,6.73384e-14,-1.04124e+00
8.20901e+02,1.24700e+03,1.27800e+03,-3.10000e+01,7.82638e-14,-1.03369e+00,5.29068e-14,-1.03369e+00,6.59984e-14,-1.03369e+00
8.21150e+02,1.23900e+03,1.24500e+03,-6.00000e+00,2.92915e-14,-1.02615e+00,2.81662e-14,-1.02615e+00,5.39442e-14,-1.02615e+00
8.21399e+02,1.25600e+03,1.30600e+03,-5.00000e+01,7.46828e-14,-1.01860e+00,7.14874e-14,-1.01860e+00,1.98283e-14,-1.01860e+00
8.21648e+02,1.26200e+03,1.32800e+03,-6.60000e+01,2.98184e-15,-1.01106e+00,3.85523e-14,-1.01106e+00,4.01309e-14,-1.01106e+00
8.21897e+02,1.21800e+03,1.26600e+03,-4.80000e+01,4.95000e-14,-1.00351e+00,1.13517e-13,-1.00351e+00,9.07445e-14,-1.00351e+00
8.22145e+02,1.22600e+03,1.23800e+03,-1.20000e+01,3.67181e-14,-9.95966e-01,2.76650e-14,-9.95966e-01,6.30279e-14,-9.95966e-01
8.22394e+02,1.25300e+03,1.31600e+03,-6.30000e+01,4.20165e-14,-9.88421e-01,7.04404e-14,-9.88421e-01,6.23940e-14,-9.88421e-01
8.22643e+02,1.23100e+03,1.26500e+03,-3.40000e+01,4.02565e-14,-9.80876e-01,5.91811e-14,-9.80876e-01,3.36676e-14,-9.80876e-01
8.22892e+02,1.29200e+03,1.34500e+03,-5.30000e+01,8.59451e-14,-9.73331e-01,8.83201e-14,-9.73331e-01,2.02182e-14,-9.73331e-01
8.23140e+02,1.41500e+03,1.44500e+03,-3.00000e+01,1.87259e-14,-9.65785e-01,8.84926e-14,-9.65785e-01,1.06572e-13,-9.65785e-01
8.23389e+02,1.43100e+03,1.47000e+03,-3.90000e+01,5.57473e-14,-9.58240e-01,1.10353e-13,-9.58240e-01,5.60323e-14,-9.58240e-01
8.23638e+02,1.38000e+03,1.36800e+03,1.20000e+01,8.93134e-14,-9.50695e-01,5.76573e-14,-9.50695e-01,1.46585e-13,-9.50695e-01
8.23887e+02,1.29300e+03,1.32800e+03,-3.50000e+01,6.96138e-14,-9.43150e-01,1.03352e-13,-9.43150e-01,1.22584e-13,-9.43150e-01
8.24135e+02,1.33300e+03,1.30700e+03,2.60000e+01,2.81639e-14,-9.35605e-01,1.40088e-13,-9.35605e-01,1.29080e-13,-9.35605e-01
8.24384e+02,1.30000e+03,1.28300e+03,1.70000e+01,1.10161e-13,-9.28059e-01,1.65642e-13,-9.28059e-01,1.93567e-13,-9.28059e-01
8.24633e+02,1.30700e+03,1.33200e+03,-2.50000e+01,1.07152e-13,-9.20514e-01,1.86790e-13,-9.20514e-01,1.48009e-13,-9.20514e-01
8.24881e+02,1.32600e+03,1.35300e+03,-2.70000e+01,7.27853e-14,-9.12969e-01,1.34835e-13,-9.12969e-01,7.09082e-14,-9.12969e-01
8.25130e+02,1.40200e+03,1.40500e+03,-3.00000e+00,6.15644e-14,-9.05424e-01,9.39856e-14,-9.05424e-01,3.63218e-14,-9.05424e-01
8.25379e+02,1.48500e+03,1.42700e+03,5.80000e+01,7.61184e-14,-8.97879e-01,1.62988e-13,-8.97879e-01,8.77839e-14,-8.97879e-01
8.25627e+02,1.46200e+03,1.44200e+03,2.00000e+01,3.10726e-14,-8.90333e-01,5.02059e-14,-8.90333e-01,7.95513e-14,-8.90333e-01
8.25876e+02,1.37900e+03,1.40400e+03,-2.50000e+01,7.26144e-14,-8.82788e-01,1.95946e-14,-8.82788e-01,6.36133e-14,-8.82788e-01
8.26125e+02,1.27500e+03,1.27300e+03,2.00000e+00,3.85573e-14,-8.75243e-01,7.12465e-14,-8.75243e-01,4.02462e-14,-8.75243e-01
8.26373e+02,1.23800e+03,1.24400e+03,-6.00000e+00,3.40901e-14,-8.67698e-01,9.21393e-14,-8.67698e-01,1.17727e-13,-8.67698e-01
8.26622e+02,1.18000e+03,1.18400e+03,-4.00000e+00,6.16751e-14,-8.60153e-01,9.85705e-14,-8.60153e-01,1.14530e-13,-8.60153e-01
8.26870e+02,1.16800e+03,1.16700e+03,1.00000e+00,6.15009e-14,-8.52607e-01,1.24902e-13,-8.52607e-01,1.77288e-13,-8.52607e-01
8.27119e+02,1.19200e+03,1.17100e+03,2.10000e+01,8.70065e-14,-8.45062e-01,5.30683e-14,-8.45062e-01,1.15333e-13,-8.45062e-01
8.27368e+02,1.09200e+03,1.14200e+03,-5.00000e+01,1.44814e-13,-8.37517e-01,1.16370e-13,-8.37517e-01,5.17978e-14,-8.37517e-01
8.27616e+02,1.08500e+03,1.15300e+03,-6.80000e+01,9.73472e-14,-8.29972e-01,8.99677e-14,-8.29972e-01,2.16342e-14,-8.29972e-01
8.27865e+02,1.06800e+03,1.13000e+03,-6.20000e+01,4.91440e-14,-8.22427e-01,3.41684e-14,-8.22427e-01,2.29844e-14,-8.22427e-01
8.28113e+02,1.07900e+03,1.07200e+03,7.00000e+00,1.24503e-13,-8.14881e-01,1.25192e-13,-8.14881e-01,5.57769e-14,-8.14881e-01
8.28362e+02,1.05900e+03,1.01600e+03,4.30000e+01,7.15915e-14,-8.07336e-01,2.08830e-14,-8.07336e-01,9.20131e-14,-8.07336e-01
8.28610e+02,1.01300e+03,1.03300e+03,-2.00000e+01,1.35369e-13,-7.99791e-01,3.22625e-14,-7.99791e-01,1.67476e-13,-7.99791e-01
8.28859e+02,9.96000e+02,1.05300e+03,-5.70000e+01,9.18962e-14,-7.92246e-01,1.96523e-14,-7.92246e-01,8.93005e-14,-7.92246e-01
8.29108e+02,9.77000e+02,1.00800e+03,-3.10000e+01,2.57534e-14,-7.84701e-01,1.16623e-13,-7.84701e-01,1.40479e-13,-7.84701e-01
8.29356e+02,9.51000e+02,9.84000e+02,-3.30000e+01,5.86793e-14,-7.77155e-01,4.15005e-14,-7.77155e-01,8.51879e-14,-7.77155e-01
8.29605e+02,9.57000e+02,9.16000e+02,4.10000e+01,3.25214e-14,-7.69610e-01,1.20495e-13,-7.69610e-01,1.26277e-13,-7.69610e-01
8.29853e+02,9.41000e+02,8.97000e+02,4.40000e+01,4.27037e-14,-7.62065e-01,2.73878e-14,-7.62065e-01,6.82206e-14,-7.62065e-01
8.30101e+02,9.14000e+02,9.40000e+02,-2.60000e+01,9.05111e-14,-7.54520e-01,1.57776e-13,-7.54520e-01,1.25354e-13,-7.54520e-01
8.30350e+02,9.02000e+02,9.26000e+02,-2.40000e+01,4.19597e-14,-7.46975e-01,1.28482e-13,-7.46975e-01,9.31521e-14,-7.46975e-01
8.30598e+02,8.89000e+02,8.81000e+02,8.00000e+00,1.15396e-13,-7.39429e-01,1.30159e-13,-7.39429e-01,1.02661e-13,-7.39429e-01
8.30847e+02,8.51000e+02,8.74000e+02,-2.30000e+01,1.70698e-13,-7.31884e-01,1.37035e-13,-7.31884e-01,1.23174e-13,-7.31884e-01
8.31095e+02,8.63000e+02,8.63000e+02,0.00000e+00,1.02144e-13,-7.24339e-01,7.19440e-14,-7.24339e-01,1.72045e-13,-7.24339e-01
8.31344e+02,8.64000e+02,8.71000e+02,-7.00000e+00,1.44854e-13,-7.16794e-01,8.04986e-14,-7.16794e-01,1.53454e-13,-7.16794e-01
8.31592e+02,8.27000e+02,8.52000e+02,-2.50000e+01,1.02579e-13,-7.09249e-01,1.11199e-13,-7.09249e-01,7.18035e-14,-7.09249e-01
8.31841e+02,8.11000e+02,8.48000e+02,-3.70000e+01,7.51809e-14,-7.01703e-01,8.86544e-14,-7.01703e-01,1.91015e-14,-7.01703e-01
8.32089e+02,8.21000e+02,8.27000e+02,-6.00000e+00,7.56589e-14,-6.94158e-01,3.88397e-14,-6.94158e-01,3.74882e-14,-6.94158e-01
8.32337e+02,8.03000e+02,7.96000e+02,7.00000e+00,6.92983e-14,-6.86613e-01,1.38623e-13,-6.86613e-01,6.94190e-14,-6.86613e-01
8.32586e+02,7.87000e+02,7.80000e+02,7.00000e+00,7.13137e-14,-6.79068e-01,1.11394e-13,-6.79068e-01,4.29508e-14,-6.79068e-01
8.32834e+02,7.72000e+02,7.62000e+02,1.00000e+01,1.19178e-13,-6.71523e-01,1.85928e-13,-6.71523e-01,8.63278e-14,-6.71523e-01
8.33083e+02,7.53000e+02,7.61000e+02,-8.00000e+00,2.56101e-13,-6.63977e-01,2.53227e-13,-6.63977e-01,1.45893e-13,-6.63977e-01
8.33331e+02,7.49000e+02,7.34000e+02,1.50000e+01,2.88949e-13,-6.56432e-01,2.42270e-13,-6.56432e-01,2.04546e-13,-6.56432e-01
8.33579e+02,7.40000e+02,7.38000e+02,2.00000e+00,1.48330e-13,-6.48887e-01,1.46455e-13,-6.48887e-01,2.29126e-13,-6.48887e-01
8.33828e+02,7.41000e+02,7.31000e+02,1.00000e+01,7.65643e-14,-6.41342e-01,1.16263e-13,-6.41342e-01,7.41126e-14,-6.41342e-01
8.34076e+02,7.35000e+02,7.43000e+02,-8.00000e+00,2.29824e-14,-6.33797e-01,3.95603e-14,-6.33797e-01,2.58853e-14,-6.33797e-01
8.34324e+02,7.36000e+02,7.36000e+02,0.00000e+00,6.43404e-14,-6.26251e-01,1.26771e-13,-6.26251e-01,1.91046e-13,-6.26251e-01
8.34573e+02,7.14000e+02,7.22000e+02,-8.00000e+00,4.61547e-14,-6.18706e-01,2.26725e-13,-6.18706e-01,2.46277e-13,-6.18706e-01
8.34821e+02,7.02000e+02,7.21000e+02,-1.90000e+01,1.23408e-13,-6.11161e-01,1.13736e-13,-6.11161e-01,1.24337e-13,-6.11161e-01
8.35069e+02,7.16000e+02,7.25000e+02,-9.00000e+00,1.18318e-14,-6.03616e-01,7.81017e-14,-6.03616e-01,8.22145e-14,-6.03616e-01
8.35318e+02,7.08000e+02,7.10000e+02,-2.00000e+00,6.56965e-14,-5.96071e-01,1.47056e-13,-5.96071e-01,1.00280e-13,-5.96071e-01
8.35566e+02,7.00000e+02,7.05000e+02,-5.00000e+00,1.65221e-13,-5.88525e-01,1.03904e-13,-5.88525e-01,1.13304e-13,-5.88525e-01
8.35814e+02,6.93000e+02,6.91000e+02,2.00000e+00,1.53357e-13,-5.80980e-01,3.04420e-14,-5.80980e-01,1.40794e-13,-5.80980e-01
8.36062e+02,6.96000e+02,6.93000e+02,3.00000e+00,1.30145e-13,-5.73435e-01,3.43416e-14,-5.73435e-01,9.67430e-14,-5.73435e-01
8.36311e+02,6.92000e+02,7.01000e+02,-9.00000e+00,6.39665e-14,-5.65890e-01,3.41929e-14,-5.65890e-01,9.80241e-14,-5.65890e-01
8.36559e+02,6.96000e+02,6.92000e+02,4.00000e+00,1.43495e-13,-5.58345e-01,1.60919e-13,-5.58345e-01,6.67517e-14,-5.58345e-01
8.36807e+02,6.91000e+02,6.82000e+02,9.00000e+00,1.40439e-13,-5.50799e-01,1.57423e-13,-5.50799e-01,1.60237e-13,-5.50799e-01
8.37055e+02,6.88000e+02,7.04000e+02,-1.60000e+01,2.29669e-13,-5.43254e-01,2.02042e-13,-5.43254e-01,1.03201e-13,-5.43254e-01
8.37304e+02,6.90000e+02,6.93000e+02,-3.00000e+00,1.25202e-13,-5.35709e-01,1.38791e-13,-5.35709e-01,1.84826e-13,-5.35709e-01
8.37552e+02,6.84000e+02,6.67000e+02,1.70000e+01,1.15077e-13,-5.28164e-01,1.10807e-13,-5.28164e-01,1.65757e-13,-5.28164e-01
8.37800e+02,6.73000e+02,6.73000e+02,0.00000e+00,1.32469e-13,-5.20619e-01,9.05138e-14,-5.20619e-01,1.36754e-13,-5.20619e-01
8.38048e+02,6.73000e+02,6.74000e+02,-1.00000e+00,1.16404e-13,-5.13073e-01,4.11895e-14,-5.13073e-01,1.07242e-13,-5.13073e-01
8.38296e+02,6.69000e+02,6.76000e+02,-7.00000e+00,2.64229e-13,-5.05528e-01,9.10997e-14,-5.05528e-01,3.38879e-13,-5.05528e-01
8.38545e+02,6.69000e+02,6.85000e+02,-1.60000e+01,4.55636e-13,-4.97983e-01,5.29000e-14,-4.97983e-01,4.91656e-13,-4.97983e-01
8.38793e+02,6.73000e+02,6.73000e+02,0.00000e+00,2.93661e-13,-4.90438e-01,8.58079e-14,-4.90438e-01,3.77259e-13,-4.90438e-01
8.39041e+02,6.82000e+02,6.74000e+02,8.00000e+00,2.26275e-13,-4.82893e-01,1.44616e-13,-4.82893e-01,2.81756e-13,-4.82893e-01
8.39289e+02,6.61000e+02,6.62000e+02,-1.00000e+00,2.42177e-13,-4.75347e-01,1.85242e-13,-4.75347e-01,4.21106e-13,-4.75347e-01
8.39537e+02,6.72000e+02,6.61000e+02,1.10000e+01,2.03687e-13,-4.67802e-01,2.90632e-13,-4.67802e-01,4.45619e-13,-4.67802e-01
8.39785e+02,6.61000e+02,6.47000e+02,1.40000e+01,1.40023e-13,-4.60257e-01,2.55358e-13,-4.60257e-01,3.18871e-13,-4.60257e-01
8.40033e+02,6.62000e+02,6.77000e+02,-1.50000e+01,8.72471e-14,-4.52712e-01,8.83620e-14,-4.52712e-01,1.65299e-13,-4.52712e-01
8.40281e+02,6.75000e+02,6.72000e+02,3.00000e+00,1.15083e-13,-4.45167e-01,1.04985e-13,-4.45167e-01,1.45946e-13,-4.45167e-01
8.40530e+02,6.64000e+02,6.73000e+02,-9.00000e+00,1.03562e-13,-4.37621e-01,1.68604e-13,-4.37621e-01,2.27788e-13,-4.37621e-01
8.40778e+02,6.66000e+02,6.82000e+02,-1.60000e+01,3.56898e-14,-4.30076e-01,1.51070e-14,-4.30076e-01,2.95181e-14,-4.30076e-01
8.41026e+02,6.84000e+02,6.80000e+02,4.00000e+00,2.68515e-13,-4.22531e-01,1.78172e-13,-4.22531e-01,1.46604e-13,-4.22531e-01
8.41274e+02,6.67000e+02,6.75000e+02,-8.00000e+00,2.84653e-13,-4.14986e-01,1.78259e-13,-4.14986e-01,1.69706e-13,-4.14986e-01
8.41522e+02,6.83000e+02,6.77000e+02,6.00000e+00,3.84930e-13,-4.07441e-01,4.16480e-13,-4.07441e-01,5.44346e-14,-4.07441e-01
8.41770e+02,6.61000e+02,6.56000e+02,5.00000e+00,2.40360e-13,-3.99895e-01,3.66819e-13,-3.99895e-01,1.32739e-13,-3.99895e-01
8.42018e+02,6.77000e+02,6.73000e+02,4.00000e+00,1.75242e-13,-3.92350e-01,3.39463e-13,-3.92350e-01,2.09618e-13,-3.92350e-01
8.42266e+02,6.69000e+02,6.70000e+02,-1.00000e+00,1.12924e-13,-3.84805e-01,1.33989e-13,-3.84805e-01,1.85188e-13,-3.84805e-01
8.42514e+02,6.74000e+02,6.77000e+02,-3.00000e+00,1.48377e-13,-3.77260e-01,3.08664e-13,-3.77260e-01,1.70715e-13,-3.77260e-01
8.42762e+02,6.68000e+02,6.60000e+02,8.00000e+00,3.62713e-14,-3.69715e-01,1.83020e-13,-3.69715e-01,1.54715e-13,-3.69715e-01
8.43010e+02,6.75000e+02,6.71000e+02,4.00000e+00,7.31277e-14,-3.62169e-01,1.02279e-13,-3.62169e-01,1.74603e-13,-3.62169e-01
8.43258e+02,6.74000e+02,6.68000e+02,6.00000e+00,2.30172e-13,-3.54624e-01,2.07148e-13,-3.54624e-01,1.57109e-13,-3.54624e-01
8.43506e+02,6.64000e+02,6.76000e+02,-1.20000e+01,6.23191e-14,-3.47079e-01,3.06217e-13,-3.47079e-01,2.50297e-13,-3.47079e-01
8.43754e+02,6.66000e+02,6.66000e+02,0.00000e+00,3.75013e-13,-3.39534e-01,5.51396e-13,-3.39534e-01,2.12136e-13,-3.39534e-01
8.44002e+02,6.66000e+02,6.77000e+02,-1.10000e+01,5.00875e-13,-3.31989e-01,4.81729e-13,-3.31989e-01,2.14820e-13,-3.31989e-01
8.44250e+02,6.68000e+02,6.71000e+02,-3.00000e+00,6.81714e-13,-3.24444e-01,4.51828e-13,-3.24444e-01,2.62798e-13,-3.24444e-01
8.44498e+02,6.73000e+02,6.67000e+02,6.00000e+00,5.57064e-13,-3.16898e-01,3.81062e-13,-3.16898e-01,2.04050e-13,-3.16898e-01
8.44746e+02,6.65000e+02,6.63000e+02,2.00000e+00,4.03992e-13,-3.09353e-01,3.79801e-13,-3.09353e-01,1.82360e-13,-3.09353e-01
8.44994e+02,6.68000e+02,6.48000e+02,2.00000e+01,2.98855e-13,-3.01808e-01,4.00134e-13,-3.01808e-01,1.30890e-13,-3.01808e-01
8.45242e+02,6.64000e+02,6.50000e+02,1.40000e+01,2.03218e-13,-2.94263e-01,7.20861e-14,-2.94263e-01,1.55708e-13,-2.94263e-01
8.45490e+02,6.65000e+02,6.75000e+02,-1.00000e+01,6.42118e-14,-2.86718e-01,1.86846e-13,-2.86718e-01,1.32431e-13,-2.86718e-01
8.45738e+02,6.67000e+02,6.54000e+02,1.30000e+01,3.42269e-13,-2.79172e-01,4.03574e-13,-2.79172e-01,6.50026e-14,-2.79172e-01
8.45985e+02,6.53000e+02,6.71000e+02,-1.80000e+01,3.78212e-13,-2.71627e-01,2.08791e-13,-2.71627e-01,2.04879e-13,-2.71627e-01
8.46233e+02,6.65000e+02,6.52000e+02,1.30000e+01,2.90645e-13,-2.64082e-01,1.53105e-13,-2.64082e-01,2.47399e-13,-2.64082e-01
8.46481e+02,6.60000e+02,6.69000e+02,-9.00000e+00,2.40989e-13,-2.56537e-01,8.01052e-14,-2.56537e-01,2.54666e-13,-2.56537e-01
8.46729e+02,6.66000e+02,6.72000e+02,-6.00000e+00,1.14646e-13,-2.48992e-01,3.32772e-13,-2.48992e-01,2.18480e-13,-2.48992e-01
8.46977e+02,6.75000e+02,6.71000e+02,4.00000e+00,4.06647e-14,-2.41446e-01,1.15909e-13,-2.41446e-01,7.52545e-14,-2.41446e-01
8.47225e+02,6.71000e+02,6.66000e+02,5.00000e+00,2.66498e-13,-2.33901e-01,3.35399e-13,-2.33901e-01,1.44829e-13,-2.33901e-01
8.47473e+02,6.58000e+02,6.62000e+02,-4.00000e+00,3.10627e-13,-2.26356e-01,4.50743e-13,-2.26356e-01,1.60250e-13,-2.26356e-01
8.47720e+02,6.70000e+02,6.62000e+02,8.00000e+00,1.98732e-13,-2.18811e-01,2.77790e-13,-2.18811e-01,1.03511e-13,-2.18811e-01
8.47968e+02,6.61000e+02,6.66000e+02,-5.00000e+00,4.11312e-13,-2.11266e-01,3.63218e-13,-2.11266e-01,4.81710e-14,-2.11266e-01
8.48216e+02,6.52000e+02,6.66000e+02,-1.40000e+01,2.99725e-13,-2.03720e-01,4.07051e-13,-2.03720e-01,1.85077e-13,-2.03720e-01
8.48464e+02,6.53000e+02,6.55000e+02,-2.00000e+00,1.50486e-13,-1.96175e-01,3.06627e-13,-1.96175e-01,1.63105e-13,-1.96175e-01
8.48712e+02,6.42000e+02,6.56000e+02,-1.40000e+01,2.65182e-13,-1.88630e-01,3.92802e-13,-1.88630e-01,3.37558e-13,-1.88630e-01
8.48960e+02,6.60000e+02,6.82000e+02,-2.20000e+01,3.11094e-13,-1.81085e-01,1.71213e-13,-1.81085e-01,4.41919e-13,-1.81085e-01
8.49207e+02,6.68000e+02,6.75000e+02,-7.00000e+00,3.68307e-13,-1.73540e-01,1.00746e-13,-1.73540e-01,3.85304e-13,-1.73540e-01
8.49455e+02,6.71000e+02,6.59000e+02,1.20000e+01,5.87842e-13,-1.65994e-01,2.02820e-13,-1.65994e-01,4.25742e-13,-1.65994e-01
8.49703e+02,6.64000e+02,6.62000e+02,2.00000e+00,5.99659e-13,-1.58449e-01,2.31692e-13,-1.58449e-01,3.75611e-13,-1.58449e-01
8.49951e+02,6.64000e+02,6.65000e+02,-1.00000e+00,7.73868e-13,-1.50904e-01,3.30412e-13,-1.50904e-01,5.58054e-13,-1.50904e-01
8.50198e+02,6.60000e+02,6.66000e+02,-6.00000e+00,5.01156e-13,-1.43359e-01,1.65018e-13,-1.43359e-01,3.74101e-13,-1.43359e-01
8.50446e+02,6.58000e+02,6.49000e+02,9.00000e+00,2.81485e-13,-1.35814e-01,2.88221e-13,-1.35814e-01,1.45931e-13,-1.35814e-01
8.50694e+02,6.61000e+02,6.41000e+02,2.00000e+01,3.30541e-13,-1.28268e-01,3.11260e-13,-1.28268e-01,2.29817e-14,-1.28268e-01
8.50941e+02,6.72000e+02,6.96000e+02,-2.40000e+01,6.70940e-13,-1.20723e-01,6.40938e-13,-1.20723e-01,5.78272e-14,-1.20723e-01
8.51189e+02,6.70000e+02,6.68000e+02,2.00000e+00,7.85100e-13,-1.13178e-01,6.46287e-13,-1.13178e-01,1.40690e-13,-1.13178e-01
8.51437e+02,6.66000e+02,6.73000e+02,-7.00000e+00,2.94312e-13,-1.05633e-01,2.50996e-13,-1.05633e-01,5.66076e-14,-1.05633e-01
8.51685e+02,6.54000e+02,6.53000e+02,1.00000e+00,3.35547e-13,-9.80876e-02,2.98147e-13,-9.80876e-02,6.96860e-14,-9.80876e-02
8.51932e+02,6.64000e+02,6.69000e+02,-5.00000e+00,8.53306e-13,-9.05424e-02,6.86998e-13,-9.05424e-02,2.06697e-13,-9.05424e-02
8.52180e+02,6.64000e+02,6.63000e+02,1.00000e+00,7.48609e-13,-8.29972e-02,6.23005e-13,-8.29972e-02,1.83638e-13,-8.29972e-02
8.52428e+02,6.48000e+02,6.47000e+02,1.00000e+00,7.03866e-13,-7.54520e-02,6.72211e-13,-7.54520e-02,3.73173e-14,-7.54520e-02
8.52675e+02,6.56000e+02,6.52000e+02,4.00000e+00,5.40365e-13,-6.79068e-02,2.56472e-13,-6.79068e-02,2.91505e-13,-6.79068e-02
8.52923e+02,6.70000e+02,6.61000e+02,9.00000e+00,4.94789e-13,-6.03616e-02,1.59219e-13,-6.03616e-02,3.52848e-13,-6.03616e-02
8.53170e+02,6.62000e+02,6.53000e+02,9.00000e+00,7.73653e-13,-5.28164e-02,3.89729e-13,-5.28164e-02,4.17747e-13,-5.28164e-02
8.53418e+02,6.63000e+02,6.57000e+02,6.00000e+00,1.77175e-12,-4.52712e-02,2.01989e-12,-4.52712e-02,3.46243e-13,-4.52712e-02
8.53666e+02,6.59000e+02,6.61000e+02,-2.00000e+00,2.26414e-12,-3.77260e-02,2.46833e-12,-3.77260e-02,2.37348e-13,-3.77260e-02
8.53913e+02,6.65000e+02,6.78000e+02,-1.30000e+01,4.07147e-12,-3.01808e-02,4.14109e-12,-3.01808e-02,7.37625e-14,-3.01808e-02
8.54161e+02,6.68000e+02,6.54000e+02,1.40000e+01,1.27256e-12,-2.26356e-02,1.32034e-12,-2.26356e-02,1.72054e-13,-2.26356e-02
8.54409e+02,6.57000e+02,6.43000e+02,1.40000e+01,8.00533e-12,-1.50904e-02,8.27870e-12,-1.50904e-02,3.17675e-13,-1.50904e-02
8.54656e+02,6.61000e+02,6.63000e+02,-2.00000e+00,1.80666e-11,-7.54520e-03,1.85373e-11,-7.54520e-03,5.10339e-13,-7.54520e-03
