7.67698e+02,6.76000e+02,6.77000e+02,-1.00000e+00,1.20696e-10,0.00000e+00,1.21314e-10,0.00000e+00,6.17891e-13,0.00000e+00
7.67949e+02,6.74000e+02,6.78000e+02,-4.00000e+00,3.63975e-11,7.54520e-03,3.72601e-11,7.54520e-03,1.49442e-12,7.54520e-03
7.68199e+02,6.82000e+02,6.80000e+02,2.00000e+00,1.55030e-11,1.50904e-02,1.68839e-11,1.50904e-02,1.81265e-12,1.50904e-02
7.68450e+02,6.75000e+02,6.85000e+02,-1.00000e+01,3.45546e-12,2.26356e-02,4.86640e-12,2.26356e-02,1.50924e-12,2.26356e-02
7.68701e+02,6.62000e+02,6.83000e+02,-2.10000e+01,3.53996e-12,3.01808e-02,2.10476e-12,3.01808e-02,1.48209e-12,3.01808e-02
7.68951e+02,6.65000e+02,6.83000e+02,-1.80000e+01,2.46161e-12,3.77260e-02,1.46218e-12,3.77260e-02,1.46252e-12,3.77260e-02
7.69202e+02,6.82000e+02,6.81000e+02,1.00000e+00,2.46777e-12,4.52712e-02,1.43532e-12,4.52712e-02,1.34907e-12,4.52712e-02
7.69453e+02,7.00000e+02,6.90000e+02,1.00000e+01,3.36594e-13,5.28164e-02,8.84751e-13,5.28164e-02,6.52665e-13,5.28164e-02
7.69703e+02,6.77000e+02,6.82000e+02,-5.00000e+00,6.40911e-13,6.03616e-02,6.45494e-13,6.03616e-02,8.11130e-13,6.03616e-02
7.69954e+02,6.83000e+02,6.79000e+02,4.00000e+00,1.40707e-12,6.79068e-02,1.02528e-12,6.79068e-02,1.66435e-12,6.79068e-02
7.70205e+02,6.82000e+02,6.81000e+02,1.00000e+00,5.88753e-13,7.54520e-02,1.04360e-12,7.54520e-02,1.55338e-12,7.54520e-02
7.70455e+02,6.86000e+02,6.89000e+02,-3.00000e+00,3.58016e-13,8.29972e-02,1.01696e-12,8.29972e-02,9.94568e-13,8.29972e-02
7.70706e+02,6.98000e+02,6.99000e+02,-1.00000e+00,1.05498e-12,9.05424e-02,1.70306e-12,9.05424e-02,6.72451e-13,9.05424e-02
7.70957e+02,6.88000e+02,6.86000e+02,2.00000e+00,1.32290e-12,9.80876e-02,1.67896e-12,9.80876e-02,3.62206e-13,9.80876e-02
7.71207e+02,6.90000e+02,7.22000e+02,-3.20000e+01,1.17621e-12,1.05633e-01,1.39118e-12,1.05633e-01,7.26181e-13,1.05633e-01
7.71458e+02,6.88000e+02,7.13000e+02,-2.50000e+01,3.46254e-13,1.13178e-01,1.28206e-12,1.13178e-01,9.45143e-13,1.13178e-01
7.71708e+02,7.17000e+02,7.05000e+02,1.20000e+01,5.98837e-13,1.20723e-01,9.90627e-13,1.20723e-01,1.56846e-12,1.20723e-01
7.71959e+02,7.12000e+02,6.97000e+02,1.50000e+01,2.16852e-12,1.28268e-01,2.06695e-12,1.28268e-01,4.20609e-12,1.28268e-01
7.72210e+02,7.04000e+02,6.94000e+02,1.00000e+01,4.35133e-12,1.35814e-01,4.66921e-12,1.35814e-01,8.96519e-12,1.35814e-01
7.72460e+02,6.95000e+02,7.06000e+02,-1.10000e+01,6.53708e-12,1.43359e-01,7.39706e-12,1.43359e-01,1.36556e-11,1.43359e-01
7.72711e+02,7.14000e+02,6.96000e+02,1.80000e+01,5.37753e-12,1.50904e-01,6.64450e-12,1.50904e-01,1.16404e-11,1.50904e-01
7.72961e+02,7.02000e+02,7.17000e+02,-1.50000e+01,2.91605e-12,1.58449e-01,3.98633e-12,1.58449e-01,6.12563e-12,1.58449e-01
7.73212e+02,7.18000e+02,7.15000e+02,3.00000e+00,1.39981e-12,1.65994e-01,1.85172e-12,1.65994e-01,2.11653e-12,1.65994e-01
7.73462e+02,7.25000e+02,7.14000e+02,1.10000e+01,1.16757e-12,1.73540e-01,9.82121e-13,1.73540e-01,2.42754e-13,1.73540e-01
7.73713e+02,7.17000e+02,7.31000e+02,-1.40000e+01,4.39466e-13,1.81085e-01,8.07897e-13,1.81085e-01,4.61569e-13,1.81085e-01
7.73963e+02,7.14000e+02,7.42000e+02,-2.80000e+01,5.43305e-13,1.88630e-01,8.68799e-13,1.88630e-01,4.56997e-13,1.88630e-01
7.74214e+02,7.29000e+02,7.43000e+02,-1.40000e+01,4.12826e-13,1.96175e-01,7.28408e-13,1.96175e-01,6.93530e-13,1.96175e-01
7.74465e+02,7.34000e+02,7.55000e+02,-2.10000e+01,6.65858e-13,2.03720e-01,9.88417e-13,2.03720e-01,7.55412e-13,2.03720e-01
7.74715e+02,7.23000e+02,7.41000e+02,-1.80000e+01,6.42270e-13,2.11266e-01,8.17141e-13,2.11266e-01,3.77967e-13,2.11266e-01
7.74965e+02,7.31000e+02,7.71000e+02,-4.00000e+01,8.39426e-13,2.18811e-01,4.72037e-13,2.18811e-01,3.86467e-13,2.18811e-01
7.75216e+02,7.32000e+02,7.57000e+02,-2.50000e+01,5.80640e-13,2.26356e-01,1.15795e-13,2.26356e-01,6.64340e-13,2.26356e-01
7.75466e+02,7.54000e+02,7.58000e+02,-4.00000e+00,6.10180e-13,2.33901e-01,2.63981e-13,2.33901e-01,7.77030e-13,2.33901e-01
7.75717e+02,7.53000e+02,7.52000e+02,1.00000e+00,4.36027e-13,2.41446e-01,4.11140e-13,2.41446e-01,5.57714e-13,2.41446e-01
7.75967e+02,7.56000e+02,7.52000e+02,4.00000e+00,6.68556e-13,2.48992e-01,6.73566e-13,2.48992e-01,3.34175e-13,2.48992e-01
7.76218e+02,7.66000e+02,7.61000e+02,5.00000e+00,7.16832e-13,2.56537e-01,8.87830e-13,2.56537e-01,2.10177e-13,2.56537e-01
7.76468e+02,7.72000e+02,7.81000e+02,-9.00000e+00,7.24573e-13,2.64082e-01,8.11075e-13,2.64082e-01,2.84775e-13,2.64082e-01
7.76719e+02,8.01000e+02,7.66000e+02,3.50000e+01,5.78483e-13,2.71627e-01,5.14256e-13,2.71627e-01,7.64687e-13,2.71627e-01
7.76969e+02,7.88000e+02,7.44000e+02,4.40000e+01,6.56013e-13,2.79172e-01,5.69122e-13,2.79172e-01,1.10774e-12,2.79172e-01
7.77219e+02,8.09000e+02,7.47000e+02,6.20000e+01,3.82143e-13,2.86718e-01,4.36950e-13,2.86718e-01,8.15261e-13,2.86718e-01
7.77470e+02,7.85000e+02,7.71000e+02,1.40000e+01,3.82844e-13,2.94263e-01,9.44880e-13,2.94263e-01,6.80480e-13,2.94263e-01
7.77720e+02,7.93000e+02,7.99000e+02,-6.00000e+00,8.93968e-13,3.01808e-01,1.63673e-12,3.01808e-01,7.82731e-13,3.01808e-01
7.77971e+02,7.96000e+02,7.95000e+02,1.00000e+00,1.81176e-12,3.09353e-01,2.67351e-12,3.09353e-01,9.99366e-13,3.09353e-01
7.78221e+02,7.92000e+02,7.94000e+02,-2.00000e+00,3.00632e-12,3.16898e-01,3.61514e-12,3.16898e-01,1.02713e-12,3.16898e-01
7.78471e+02,7.97000e+02,7.88000e+02,9.00000e+00,3.69484e-12,3.24444e-01,4.06568e-12,3.24444e-01,7.87602e-13,3.24444e-01
7.78722e+02,7.83000e+02,7.95000e+02,-1.20000e+01,3.43216e-12,3.31989e-01,3.63184e-12,3.31989e-01,2.86874e-13,3.31989e-01
7.78972e+02,7.80000e+02,8.23000e+02,-4.30000e+01,2.52713e-12,3.39534e-01,2.62825e-12,3.39534e-01,1.18571e-13,3.39534e-01
7.79222e+02,7.80000e+02,8.43000e+02,-6.30000e+01,9.69828e-13,3.47079e-01,1.11787e-12,3.47079e-01,3.35037e-13,3.47079e-01
7.79473e+02,7.93000e+02,8.07000e+02,-1.40000e+01,3.99826e-13,3.54624e-01,8.30802e-14,3.54624e-01,4.30393e-13,3.54624e-01
7.79723e+02,7.88000e+02,7.85000e+02,3.00000e+00,8.40435e-13,3.62169e-01,6.77490e-13,3.62169e-01,1.94994e-13,3.62169e-01
7.79973e+02,7.81000e+02,7.88000e+02,-7.00000e+00,8.49753e-13,3.69715e-01,6.49476e-13,3.69715e-01,2.82092e-13,3.69715e-01
7.80224e+02,7.95000e+02,8.10000e+02,-1.50000e+01,7.75086e-13,3.77260e-01,5.30726e-13,3.77260e-01,3.55999e-13,3.77260e-01
7.80474e+02,8.17000e+02,8.33000e+02,-1.60000e+01,5.21123e-13,3.84805e-01,5.43171e-13,3.84805e-01,3.30443e-13,3.84805e-01
7.80724e+02,8.52000e+02,8.06000e+02,4.60000e+01,5.06351e-13,3.92350e-01,6.71430e-13,3.92350e-01,7.22731e-13,3.92350e-01
7.80974e+02,8.59000e+02,7.85000e+02,7.40000e+01,4.65539e-13,3.99895e-01,7.46067e-13,3.99895e-01,8.22962e-13,3.99895e-01
7.81225e+02,8.52000e+02,7.95000e+02,5.70000e+01,4.15653e-13,4.07441e-01,7.50225e-13,4.07441e-01,1.01951e-12,4.07441e-01
7.81475e+02,8.16000e+02,7.88000e+02,2.80000e+01,2.92425e-13,4.14986e-01,8.49152e-13,4.14986e-01,1.09256e-12,4.14986e-01
7.81725e+02,8.13000e+02,7.87000e+02,2.60000e+01,4.96634e-13,4.22531e-01,6.02680e-13,4.22531e-01,1.08203e-12,4.22531e-01
7.81975e+02,8.23000e+02,7.92000e+02,3.10000e+01,6.48639e-13,4.30076e-01,2.36889e-13,4.30076e-01,7.58754e-13,4.30076e-01
7.82226e+02,8.73000e+02,8.04000e+02,6.90000e+01,1.71384e-13,4.37621e-01,9.79973e-13,4.37621e-01,8.38632e-13,4.37621e-01
7.82476e+02,8.65000e+02,8.19000e+02,4.60000e+01,1.00673e-12,4.45167e-01,1.91955e-12,4.45167e-01,2.92628e-12,4.45167e-01
7.82726e+02,8.12000e+02,8.48000e+02,-3.60000e+01,2.35617e-12,4.52712e-01,3.05610e-12,4.52712e-01,5.40821e-12,4.52712e-01
7.82976e+02,7.91000e+02,8.64000e+02,-7.30000e+01,3.10269e-12,4.60257e-01,3.94795e-12,4.60257e-01,6.99475e-12,4.60257e-01
7.83226e+02,7.81000e+02,8.22000e+02,-4.10000e+01,3.19725e-12,4.67802e-01,4.17888e-12,4.67802e-01,7.27427e-12,4.67802e-01
7.83477e+02,7.82000e+02,8.21000e+02,-3.90000e+01,3.12172e-12,4.75347e-01,4.01386e-12,4.75347e-01,7.03267e-12,4.75347e-01
7.83727e+02,8.10000e+02,7.92000e+02,1.80000e+01,2.70047e-12,4.82893e-01,3.03948e-12,4.82893e-01,5.58927e-12,4.82893e-01
7.83977e+02,7.92000e+02,8.17000e+02,-2.50000e+01,1.64230e-12,4.90438e-01,1.79825e-12,4.90438e-01,3.25956e-12,4.90438e-01
7.84227e+02,7.85000e+02,8.56000e+02,-7.10000e+01,9.58007e-13,4.97983e-01,5.13246e-13,4.97983e-01,1.40516e-12,4.97983e-01
7.84477e+02,8.12000e+02,8.57000e+02,-4.50000e+01,5.60698e-13,5.05528e-01,2.55359e-13,5.05528e-01,8.10817e-13,5.05528e-01
7.84727e+02,8.46000e+02,8.37000e+02,9.00000e+00,2.43331e-13,5.13073e-01,3.60274e-13,5.13073e-01,6.03228e-13,5.13073e-01
7.84978e+02,8.46000e+02,8.18000e+02,2.80000e+01,1.40694e-13,5.20619e-01,3.30744e-13,5.20619e-01,4.32822e-13,5.20619e-01
7.85228e+02,8.15000e+02,7.65000e+02,5.00000e+01,1.92306e-13,5.28164e-01,2.87633e-13,5.28164e-01,1.34756e-13,5.28164e-01
7.85478e+02,7.80000e+02,7.68000e+02,1.20000e+01,1.53239e-13,5.35709e-01,1.85144e-13,5.35709e-01,1.70295e-13,5.35709e-01
7.85728e+02,7.73000e+02,7.73000e+02,0.00000e+00,2.05382e-13,5.43254e-01,3.54000e-14,5.43254e-01,2.07408e-13,5.43254e-01
7.85978e+02,8.27000e+02,7.64000e+02,6.30000e+01,1.79295e-13,5.50799e-01,2.59008e-13,5.50799e-01,3.66074e-13,5.50799e-01
7.86228e+02,8.62000e+02,7.61000e+02,1.01000e+02,2.16472e-13,5.58345e-01,2.02784e-13,5.58345e-01,2.60848e-13,5.58345e-01
7.86478e+02,9.13000e+02,7.68000e+02,1.45000e+02,1.71980e-13,5.65890e-01,2.56620e-13,5.65890e-01,1.89553e-13,5.65890e-01
7.86728e+02,8.89000e+02,7.90000e+02,9.90000e+01,2.78751e-13,5.73435e-01,1.67190e-13,5.73435e-01,4.36020e-13,5.73435e-01
7.86978e+02,8.17000e+02,7.77000e+02,4.00000e+01,2.77252e-13,5.80980e-01,1.33469e-13,5.80980e-01,4.00177e-13,5.80980e-01
7.87228e+02,7.82000e+02,7.84000e+02,-2.00000e+00,2.94341e-13,5.88525e-01,8.47433e-14,5.88525e-01,3.75059e-13,5.88525e-01
7.87478e+02,8.06000e+02,7.55000e+02,5.10000e+01,3.11097e-13,5.96071e-01,2.84964e-13,5.96071e-01,1.43283e-13,5.96071e-01
7.87728e+02,8.09000e+02,7.75000e+02,3.40000e+01,2.61098e-13,6.03616e-01,3.24747e-13,6.03616e-01,1.04576e-13,6.03616e-01
7.87978e+02,8.05000e+02,7.88000e+02,1.70000e+01,2.29559e-13,6.11161e-01,3.59808e-13,6.11161e-01,1.98800e-13,6.11161e-01
7.88228e+02,7.94000e+02,9.24000e+02,-1.30000e+02,2.91407e-13,6.18706e-01,2.49714e-13,6.18706e-01,3.77155e-13,6.18706e-01
7.88478e+02,7.93000e+02,9.63000e+02,-1.70000e+02,2.33013e-13,6.26251e-01,3.45549e-13,6.26251e-01,4.60285e-13,6.26251e-01
7.88728e+02,8.10000e+02,9.47000e+02,-1.37000e+02,2.36989e-13,6.33797e-01,4.58124e-13,6.33797e-01,5.98006e-13,6.33797e-01
7.88978e+02,8.05000e+02,8.60000e+02,-5.50000e+01,2.82809e-13,6.41342e-01,4.57080e-13,6.41342e-01,7.38832e-13,6.41342e-01
7.89228e+02,8.20000e+02,8.49000e+02,-2.90000e+01,2.92802e-13,6.48887e-01,3.24393e-13,6.48887e-01,6.14786e-13,6.48887e-01
7.89478e+02,8.06000e+02,8.97000e+02,-9.10000e+01,4.63658e-13,6.56432e-01,9.72321e-14,6.56432e-01,3.72792e-13,6.56432e-01
7.89728e+02,7.85000e+02,9.33000e+02,-1.48000e+02,5.05482e-13,6.63977e-01,3.15474e-13,6.63977e-01,1.90844e-13,6.63977e-01
7.89978e+02,8.42000e+02,9.19000e+02,-7.70000e+01,3.23926e-13,6.71523e-01,1.13394e-13,6.71523e-01,2.45157e-13,6.71523e-01
7.90228e+02,9.51000e+02,8.82000e+02,6.90000e+01,2.28111e-13,6.79068e-01,1.24490e-13,6.79068e-01,3.50889e-13,6.79068e-01
7.90478e+02,1.01700e+03,8.07000e+02,2.10000e+02,2.38483e-13,6.86613e-01,2.70789e-13,6.86613e-01,4.13056e-13,6.86613e-01
7.90728e+02,9.86000e+02,7.94000e+02,1.92000e+02,3.44297e-13,6.94158e-01,5.83241e-14,6.94158e-01,3.09216e-13,6.94158e-01
7.90978e+02,9.06000e+02,7.74000e+02,1.32000e+02,3.32781e-13,7.01703e-01,2.94791e-14,7.01703e-01,3.50650e-13,7.01703e-01
7.91228e+02,8.60000e+02,7.93000e+02,6.70000e+01,2.22975e-13,7.09249e-01,1.01213e-13,7.09249e-01,2.28134e-13,7.09249e-01
7.91478e+02,9.01000e+02,7.85000e+02,1.16000e+02,1.98038e-13,7.16794e-01,1.55274e-13,7.16794e-01,1.43004e-13,7.16794e-01
7.91728e+02,1.00900e+03,7.95000e+02,2.14000e+02,2.54786e-13,7.24339e-01,3.85297e-14,7.24339e-01,2.81218e-13,7.24339e-01
7.91977e+02,1.04300e+03,8.37000e+02,2.06000e+02,1.77539e-13,7.31884e-01,1.44585e-13,7.31884e-01,5.17500e-14,7.31884e-01
7.92227e+02,9.55000e+02,9.26000e+02,2.90000e+01,6.14581e-14,7.39429e-01,2.11695e-13,7.39429e-01,2.05451e-13,7.39429e-01
7.92477e+02,8.58000e+02,1.01400e+03,-1.56000e+02,2.38436e-13,7.46975e-01,1.60018e-13,7.46975e-01,2.01285e-13,7.46975e-01
7.92727e+02,8.15000e+02,9.41000e+02,-1.26000e+02,3.97411e-13,7.54520e-01,1.31145e-13,7.54520e-01,2.71015e-13,7.54520e-01
7.92977e+02,8.31000e+02,8.83000e+02,-5.20000e+01,1.82425e-13,7.62065e-01,1.26429e-13,7.62065e-01,1.39701e-13,7.62065e-01
7.93227e+02,8.30000e+02,8.69000e+02,-3.90000e+01,1.37705e-13,7.69610e-01,6.98019e-14,7.69610e-01,1.56798e-13,7.69610e-01
7.93476e+02,8.26000e+02,9.81000e+02,-1.55000e+02,8.56297e-14,7.77155e-01,1.60168e-13,7.77155e-01,7.65050e-14,7.77155e-01
7.93726e+02,8.25000e+02,1.06200e+03,-2.37000e+02,2.00017e-13,7.84701e-01,2.25724e-13,7.84701e-01,1.88582e-13,7.84701e-01
7.93976e+02,8.98000e+02,1.18100e+03,-2.83000e+02,2.07340e-13,7.92246e-01,1.09309e-13,7.92246e-01,2.35425e-13,7.92246e-01
7.94226e+02,1.03900e+03,1.11700e+03,-7.80000e+01,1.39767e-13,7.99791e-01,1.00680e-13,7.99791e-01,2.31198e-13,7.99791e-01
7.94476e+02,1.11600e+03,9.88000e+02,1.28000e+02,7.81931e-14,8.07336e-01,2.18572e-13,8.07336e-01,1.40423e-13,8.07336e-01
7.94725e+02,1.02600e+03,8.89000e+02,1.37000e+02,1.68115e-13,8.14881e-01,1.35725e-13,8.14881e-01,8.90430e-14,8.14881e-01
7.94975e+02,9.37000e+02,8.77000e+02,6.00000e+01,1.72615e-13,8.22427e-01,1.33135e-13,8.22427e-01,8.05123e-14,8.22427e-01
7.95225e+02,9.21000e+02,9.19000e+02,2.00000e+00,1.04920e-13,8.29972e-01,8.75267e-14,8.29972e-01,1.32775e-13,8.29972e-01
7.95475e+02,1.10700e+03,9.20000e+02,1.87000e+02,9.01658e-14,8.37517e-01,1.96934e-13,8.37517e-01,2.53970e-13,8.37517e-01
7.95724e+02,1.30700e+03,8.82000e+02,4.25000e+02,1.01238e-13,8.45062e-01,2.68054e-13,8.45062e-01,3.18177e-13,8.45062e-01
7.95974e+02,1.44800e+03,8.56000e+02,5.92000e+02,1.28015e-13,8.52607e-01,2.71540e-13,8.52607e-01,3.74717e-13,8.52607e-01
7.96224e+02,1.38500e+03,9.88000e+02,3.97000e+02,2.62214e-13,8.60153e-01,1.18481e-13,8.60153e-01,3.43849e-13,8.60153e-01
7.96474e+02,1.10200e+03,1.09800e+03,4.00000e+00,2.13706e-13,8.67698e-01,1.17288e-13,8.67698e-01,3.30029e-13,8.67698e-01
7.96723e+02,9.12000e+02,1.04200e+03,-1.30000e+02,3.04892e-13,8.75243e-01,5.66932e-14,8.75243e-01,3.49204e-13,8.75243e-01
7.96973e+02,9.18000e+02,9.48000e+02,-3.00000e+01,1.88460e-13,8.82788e-01,1.41666e-13,8.82788e-01,1.40997e-13,8.82788e-01
7.97223e+02,9.69000e+02,9.40000e+02,2.90000e+01,1.72656e-13,8.90333e-01,1.11944e-13,8.90333e-01,9.42999e-14,8.90333e-01
7.97472e+02,9.64000e+02,1.12000e+03,-1.56000e+02,1.09949e-13,8.97879e-01,7.09773e-14,8.97879e-01,7.47669e-14,8.97879e-01
7.97722e+02,9.76000e+02,1.28800e+03,-3.12000e+02,1.51643e-13,9.05424e-01,1.56292e-13,9.05424e-01,2.02732e-13,9.05424e-01
7.97972e+02,9.84000e+02,1.41400e+03,-4.30000e+02,6.35820e-14,9.12969e-01,3.12988e-13,9.12969e-01,2.76799e-13,9.12969e-01
7.98221e+02,1.09600e+03,1.35800e+03,-2.62000e+02,1.23763e-13,9.20514e-01,2.78901e-13,9.20514e-01,3.76308e-13,9.20514e-01
7.98471e+02,1.23600e+03,1.23600e+03,0.00000e+00,1.18597e-13,9.28059e-01,1.55268e-13,9.28059e-01,2.73681e-13,9.28059e-01
7.98721e+02,1.14500e+03,1.02600e+03,1.19000e+02,7.90880e-14,9.35605e-01,9.21331e-14,9.35605e-01,1.54460e-13,9.35605e-01
7.98970e+02,1.07800e+03,1.06000e+03,1.80000e+01,1.00485e-13,9.43150e-01,3.52097e-14,9.43150e-01,6.66032e-14,9.43150e-01
7.99220e+02,1.12600e+03,1.22300e+03,-9.70000e+01,1.86799e-13,9.50695e-01,8.10908e-14,9.50695e-01,2.57114e-13,9.50695e-01
7.99469e+02,1.39300e+03,1.25600e+03,1.37000e+02,1.90057e-13,9.58240e-01,4.79338e-14,9.58240e-01,2.37292e-13,9.58240e-01
7.99719e+02,1.79100e+03,1.14400e+03,6.47000e+02,6.85843e-14,9.65785e-01,1.64046e-13,9.65785e-01,2.15338e-13,9.65785e-01
7.99969e+02,1.82100e+03,1.05100e+03,7.70000e+02,9.50787e-14,9.73331e-01,2.33221e-13,9.73331e-01,2.71162e-13,9.73331e-01
8.00218e+02,1.57400e+03,1.07400e+03,5.00000e+02,9.83868e-14,9.80876e-01,2.98452e-13,9.80876e-01,2.35303e-13,9.80876e-01
8.00468e+02,1.27300e+03,1.16300e+03,1.10000e+02,2.45223e-13,9.88421e-01,2.87334e-13,9.88421e-01,2.54185e-13,9.88421e-01
8.00717e+02,1.08400e+03,1.12400e+03,-4.00000e+01,1.85568e-13,9.95966e-01,2.48432e-13,9.95966e-01,2.40757e-13,9.95966e-01
8.00967e+02,1.09900e+03,1.02600e+03,7.30000e+01,2.29155e-13,1.00351e+00,1.59288e-13,1.00351e+00,1.44997e-13,1.00351e+00
8.01216e+02,1.19100e+03,1.06800e+03,1.23000e+02,1.01770e-13,1.01106e+00,3.96689e-14,1.01106e+00,9.89236e-14,1.01106e+00
8.01466e+02,1.25900e+03,1.41600e+03,-1.57000e+02,1.17652e-13,1.01860e+00,4.45344e-14,1.01860e+00,1.34005e-13,1.01860e+00
8.01715e+02,1.20100e+03,1.89700e+03,-6.96000e+02,1.37257e-13,1.02615e+00,1.09437e-13,1.02615e+00,1.76711e-13,1.02615e+00
8.01965e+02,1.22600e+03,2.22100e+03,-9.95000e+02,2.60710e-13,1.03369e+00,5.85553e-14,1.03369e+00,2.54730e-13,1.03369e+00
8.02215e+02,1.35200e+03,2.14400e+03,-7.92000e+02,2.57896e-13,1.04124e+00,4.58110e-14,1.04124e+00,2.35529e-13,1.04124e+00
8.02464e+02,1.52200e+03,1.73900e+03,-2.17000e+02,1.78295e-13,1.04878e+00,1.22708e-13,1.04878e+00,2.22826e-13,1.04878e+00
8.02713e+02,1.47000e+03,1.45900e+03,1.10000e+01,2.04076e-13,1.05633e+00,1.25489e-13,1.05633e+00,1.27760e-13,1.05633e+00
8.02963e+02,1.32900e+03,1.46000e+03,-1.31000e+02,1.27421e-13,1.06387e+00,1.46630e-13,1.06387e+00,4.17973e-14,1.06387e+00
8.03212e+02,1.49900e+03,1.71700e+03,-2.18000e+02,1.34362e-13,1.07142e+00,1.08721e-13,1.07142e+00,1.30877e-13,1.07142e+00
8.03462e+02,2.05200e+03,1.93900e+03,1.13000e+02,1.71822e-13,1.07896e+00,1.77914e-13,1.07896e+00,1.27190e-13,1.07896e+00
8.03711e+02,2.41800e+03,1.71300e+03,7.05000e+02,1.03756e-13,1.08651e+00,2.14502e-13,1.08651e+00,1.24951e-13,1.08651e+00
8.03961e+02,2.52600e+03,1.48200e+03,1.04400e+03,9.92138e-14,1.09405e+00,2.76312e-13,1.09405e+00,2.57745e-13,1.09405e+00
8.04210e+02,2.46500e+03,1.40800e+03,1.05700e+03,1.07844e-13,1.10160e+00,2.38370e-13,1.10160e+00,1.72588e-13,1.10160e+00
8.04460e+02,2.02700e+03,1.47800e+03,5.49000e+02,5.42804e-15,1.10914e+00,1.71195e-13,1.10914e+00,1.76567e-13,1.10914e+00
8.04709e+02,1.77300e+03,1.55500e+03,2.18000e+02,3.70504e-14,1.11669e+00,1.77851e-13,1.11669e+00,2.13035e-13,1.11669e+00
8.04958e+02,1.91400e+03,1.55700e+03,3.57000e+02,6.28994e-14,1.12423e+00,1.06489e-13,1.12423e+00,1.04099e-13,1.12423e+00
8.05208e+02,2.24600e+03,1.48800e+03,7.58000e+02,9.42364e-14,1.13178e+00,2.77254e-14,1.13178e+00,7.04206e-14,1.13178e+00
8.05457e+02,2.27100e+03,1.59400e+03,6.77000e+02,1.18545e-13,1.13932e+00,9.96659e-14,1.13932e+00,1.53100e-13,1.13932e+00
8.05707e+02,1.88500e+03,1.98500e+03,-1.00000e+02,7.13751e-14,1.14687e+00,2.83416e-14,1.14687e+00,9.96231e-14,1.14687e+00
8.05956e+02,1.63000e+03,2.23800e+03,-6.08000e+02,1.52480e-13,1.15442e+00,7.43236e-14,1.15442e+00,1.56460e-13,1.15442e+00
8.06205e+02,1.52100e+03,2.15600e+03,-6.35000e+02,1.23929e-13,1.16196e+00,1.34609e-13,1.16196e+00,7.55101e-14,1.16196e+00
8.06455e+02,1.61200e+03,1.94100e+03,-3.29000e+02,1.21779e-13,1.16951e+00,7.86877e-14,1.16951e+00,1.35558e-13,1.16951e+00
8.06704e+02,1.69200e+03,1.81300e+03,-1.21000e+02,1.33952e-13,1.17705e+00,3.69006e-15,1.17705e+00,1.33006e-13,1.17705e+00
8.06953e+02,1.56400e+03,1.89400e+03,-3.30000e+02,1.89966e-13,1.18460e+00,1.74005e-14,1.18460e+00,1.75908e-13,1.18460e+00
8.07203e+02,1.56100e+03,2.36100e+03,-8.00000e+02,1.70182e-13,1.19214e+00,8.44560e-14,1.19214e+00,2.42601e-13,1.19214e+00
8.07452e+02,1.78800e+03,2.58600e+03,-7.98000e+02,2.02801e-13,1.19969e+00,6.16050e-14,1.19969e+00,2.04304e-13,1.19969e+00
8.07701e+02,2.12800e+03,2.34700e+03,-2.19000e+02,1.24304e-13,1.20723e+00,1.71309e-13,1.20723e+00,2.46749e-13,1.20723e+00
8.07951e+02,2.67000e+03,1.89100e+03,7.79000e+02,1.39900e-13,1.21478e+00,2.31047e-13,1.21478e+00,2.05955e-13,1.21478e+00
8.08200e+02,2.78200e+03,1.60800e+03,1.17400e+03,3.97164e-14,1.22232e+00,2.00821e-13,1.22232e+00,2.24143e-13,1.22232e+00
8.08449e+02,2.44500e+03,1.57900e+03,8.66000e+02,6.30690e-14,1.22987e+00,1.69926e-13,1.22987e+00,1.34358e-13,1.22987e+00
8.08698e+02,2.07400e+03,1.75500e+03,3.19000e+02,8.92106e-14,1.23741e+00,8.37261e-14,1.23741e+00,1.58694e-14,1.23741e+00
8.08948e+02,2.10400e+03,1.71100e+03,3.93000e+02,1.48969e-13,1.24496e+00,3.01865e-13,1.24496e+00,1.57283e-13,1.24496e+00
8.09197e+02,2.47100e+03,1.61200e+03,8.59000e+02,9.41917e-14,1.25250e+00,2.43662e-13,1.25250e+00,1.65214e-13,1.25250e+00
8.09446e+02,2.75500e+03,1.61400e+03,1.14100e+03,1.30907e-13,1.26005e+00,2.13730e-13,1.26005e+00,9.01367e-14,1.26005e+00
8.09695e+02,2.57700e+03,1.82900e+03,7.48000e+02,9.48542e-14,1.26759e+00,2.00284e-13,1.26759e+00,1.05528e-13,1.26759e+00
8.09945e+02,2.08400e+03,2.48100e+03,-3.97000e+02,1.61979e-13,1.27514e+00,1.54323e-13,1.27514e+00,8.67647e-14,1.27514e+00
8.10194e+02,1.82200e+03,2.62500e+03,-8.03000e+02,1.70487e-13,1.28268e+00,4.48760e-14,1.28268e+00,1.61511e-13,1.28268e+00
8.10443e+02,1.68800e+03,2.66100e+03,-9.73000e+02,9.89350e-14,1.29023e+00,4.38684e-14,1.29023e+00,5.51664e-14,1.29023e+00
8.10692e+02,1.64800e+03,2.24200e+03,-5.94000e+02,1.38631e-13,1.29777e+00,9.08727e-14,1.29777e+00,1.69898e-13,1.29777e+00
8.10941e+02,1.78300e+03,2.03600e+03,-2.53000e+02,4.89731e-14,1.30532e+00,9.41343e-14,1.30532e+00,1.15379e-13,1.30532e+00
8.11191e+02,1.65800e+03,2.40500e+03,-7.47000e+02,9.58976e-14,1.31286e+00,8.37204e-14,1.31286e+00,1.59578e-13,1.31286e+00
8.11440e+02,1.60600e+03,3.26300e+03,-1.65700e+03,1.58064e-13,-1.32041e+00,9.03114e-15,-1.32041e+00,1.49033e-13,-1.32041e+00
8.11689e+02,1.91000e+03,3.67500e+03,-1.76500e+03,9.58976e-14,-1.31286e+00,8.37204e-14,-1.31286e+00,1.59578e-13,-1.31286e+00
8.11938e+02,2.48500e+03,3.39400e+03,-9.09000e+02,4.89731e-14,-1.30532e+00,9.41343e-14,-1.30532e+00,1.15379e-13,-1.30532e+00
8.12187e+02,2.92900e+03,2.62000e+03,3.09000e+02,1.38631e-13,-1.29777e+00,9.08727e-14,-1.29777e+00,1.69898e-13,-1.29777e+00
8.12436e+02,2.76200e+03,1.93100e+03,8.31000e+02,9.89350e-14,-1.29023e+00,4.38684e-14,-1.29023e+00,5.51664e-14,-1.29023e+00
8.12685e+02,2.23900e+03,1.76300e+03,4.76000e+02,1.70487e-13,-1.28268e+00,4.48760e-14,-1.28268e+00,1.61511e-13,-1.28268e+00
8.12935e+02,1.93900e+03,1.80700e+03,1.32000e+02,1.61979e-13,-1.27514e+00,1.54323e-13,-1.27514e+00,8.67647e-14,-1.27514e+00
8.13184e+02,1.91200e+03,1.69400e+03,2.18000e+02,9.48542e-14,-1.26759e+00,2.00284e-13,-1.26759e+00,1.05528e-13,-1.26759e+00
8.13433e+02,2.36800e+03,1.58100e+03,7.87000e+02,1.30907e-13,-1.26005e+00,2.13730e-13,-1.26005e+00,9.01367e-14,-1.26005e+00
8.13682e+02,2.64500e+03,1.55300e+03,1.09200e+03,9.41917e-14,-1.25250e+00,2.43662e-13,-1.25250e+00,1.65214e-13,-1.25250e+00
8.13931e+02,2.60600e+03,1.65400e+03,9.52000e+02,1.48969e-13,-1.24496e+00,3.01865e-13,-1.24496e+00,1.57283e-13,-1.24496e+00
8.14180e+02,2.34100e+03,2.00600e+03,3.35000e+02,8.92106e-14,-1.23741e+00,8.37261e-14,-1.23741e+00,1.58694e-14,-1.23741e+00
8.14429e+02,1.76800e+03,2.08900e+03,-3.21000e+02,6.30690e-14,-1.22987e+00,1.69926e-13,-1.22987e+00,1.34358e-13,-1.22987e+00
8.14678e+02,1.66900e+03,2.14800e+03,-4.79000e+02,3.97164e-14,-1.22232e+00,2.00821e-13,-1.22232e+00,2.24143e-13,-1.22232e+00
8.14927e+02,1.66400e+03,1.80000e+03,-1.36000e+02,1.39900e-13,-1.21478e+00,2.31047e-13,-1.21478e+00,2.05955e-13,-1.21478e+00
8.15176e+02,1.80600e+03,1.91800e+03,-1.12000e+02,1.24304e-13,-1.20723e+00,1.71309e-13,-1.20723e+00,2.46749e-13,-1.20723e+00
8.15425e+02,1.82900e+03,2.34400e+03,-5.15000e+02,2.02801e-13,-1.19969e+00,6.16050e-14,-1.19969e+00,2.04304e-13,-1.19969e+00
8.15674e+02,1.75700e+03,3.03200e+03,-1.27500e+03,1.70182e-13,-1.19214e+00,8.44560e-14,-1.19214e+00,2.42601e-13,-1.19214e+00
8.15923e+02,1.70900e+03,3.39600e+03,-1.68700e+03,1.89966e-13,-1.18460e+00,1.74005e-14,-1.18460e+00,1.75908e-13,-1.18460e+00
8.16172e+02,1.95200e+03,2.92700e+03,-9.75000e+02,1.33952e-13,-1.17705e+00,3.69006e-15,-1.17705e+00,1.33006e-13,-1.17705e+00
8.16421e+02,2.01900e+03,2.15100e+03,-1.32000e+02,1.21779e-13,-1.16951e+00,7.86877e-14,-1.16951e+00,1.35558e-13,-1.16951e+00
8.16670e+02,1.95300e+03,1.75800e+03,1.95000e+02,1.23929e-13,-1.16196e+00,1.34609e-13,-1.16196e+00,7.55101e-14,-1.16196e+00
8.16919e+02,1.82700e+03,1.75000e+03,7.70000e+01,1.52480e-13,-1.15442e+00,7.43236e-14,-1.15442e+00,1.56460e-13,-1.15442e+00
8.17168e+02,1.90400e+03,2.10300e+03,-1.99000e+02,7.13751e-14,-1.14687e+00,2.83416e-14,-1.14687e+00,9.96231e-14,-1.14687e+00
8.17417e+02,2.19500e+03,2.10500e+03,9.00000e+01,1.18545e-13,-1.13932e+00,9.96659e-14,-1.13932e+00,1.53100e-13,-1.13932e+00
8.17666e+02,2.49300e+03,1.89500e+03,5.98000e+02,9.42364e-14,-1.13178e+00,2.77254e-14,-1.13178e+00,7.04206e-14,-1.13178e+00
8.17915e+02,2.77800e+03,1.76900e+03,1.00900e+03,6.28994e-14,-1.12423e+00,1.06489e-13,-1.12423e+00,1.04099e-13,-1.12423e+00
8.18164e+02,2.53300e+03,1.79400e+03,7.39000e+02,3.70504e-14,-1.11669e+00,1.77851e-13,-1.11669e+00,2.13035e-13,-1.11669e+00
8.18413e+02,2.07200e+03,1.97100e+03,1.01000e+02,5.42804e-15,-1.10914e+00,1.71195e-13,-1.10914e+00,1.76567e-13,-1.10914e+00
8.18662e+02,1.68100e+03,1.99300e+03,-3.12000e+02,1.07844e-13,-1.10160e+00,2.38370e-13,-1.10160e+00,1.72588e-13,-1.10160e+00
8.18911e+02,1.65300e+03,1.86900e+03,-2.16000e+02,9.92138e-14,-1.09405e+00,2.76312e-13,-1.09405e+00,2.57745e-13,-1.09405e+00
8.19160e+02,1.78400e+03,1.64400e+03,1.40000e+02,1.03756e-13,-1.08651e+00,2.14502e-13,-1.08651e+00,1.24951e-13,-1.08651e+00
8.19408e+02,1.99200e+03,1.75500e+03,2.37000e+02,1.71822e-13,-1.07896e+00,1.77914e-13,-1.07896e+00,1.27190e-13,-1.07896e+00
8.19657e+02,1.77100e+03,2.11800e+03,-3.47000e+02,1.34362e-13,-1.07142e+00,1.08721e-13,-1.07142e+00,1.30877e-13,-1.07142e+00
8.19906e+02,1.66400e+03,2.70900e+03,-1.04500e+03,1.27421e-13,-1.06387e+00,1.46630e-13,-1.06387e+00,4.17973e-14,-1.06387e+00
8.20155e+02,1.69400e+03,2.87700e+03,-1.18300e+03,2.04076e-13,-1.05633e+00,1.25489e-13,-1.05633e+00,1.27760e-13,-1.05633e+00
8.20404e+02,1.73400e+03,2.40000e+03,-6.66000e+02,1.78295e-13,-1.04878e+00,1.22708e-13,-1.04878e+00,2.22826e-13,-1.04878e+00
8.20653e+02,1.73000e+03,1.96000e+03,-2.30000e+02,2.57896e-13,-1.04124e+00,4.58110e-14,-1.04124e+00,2.35529e-13,-1.04124e+00
8.20901e+02,1.63800e+03,1.62600e+03,1.20000e+01,2.60710e-13,-1.03369e+00,5.85553e-14,-1.03369e+00,2.54730e-13,-1.03369e+00
8.21150e+02,1.56200e+03,1.72000e+03,-1.58000e+02,1.37257e-13,-1.02615e+00,1.09437e-13,-1.02615e+00,1.76711e-13,-1.02615e+00
8.21399e+02,1.59600e+03,2.08500e+03,-4.89000e+02,1.17652e-13,-1.01860e+00,4.45344e-14,-1.01860e+00,1.34005e-13,-1.01860e+00
8.21648e+02,1.82600e+03,2.03600e+03,-2.10000e+02,1.01770e-13,-1.01106e+00,3.96689e-14,-1.01106e+00,9.89236e-14,-1.01106e+00
8.21897e+02,2.18500e+03,1.89100e+03,2.94000e+02,2.29155e-13,-1.00351e+00,1.59288e-13,-1.00351e+00,1.44997e-13,-1.00351e+00
8.22145e+02,2.34100e+03,1.66900e+03,6.72000e+02,1.85568e-13,-9.95966e-01,2.48432e-13,-9.95966e-01,2.40757e-13,-9.95966e-01
8.22394e+02,2.50100e+03,1.48100e+03,1.02000e+03,2.45223e-13,-9.88421e-01,2.87334e-13,-9.88421e-01,2.54185e-13,-9.88421e-01
8.22643e+02,2.15700e+03,1.54500e+03,6.12000e+02,9.83868e-14,-9.80876e-01,2.98452e-13,-9.80876e-01,2.35303e-13,-9.80876e-01
8.22892e+02,1.78900e+03,1.72100e+03,6.80000e+01,9.50787e-14,-9.73331e-01,2.33221e-13,-9.73331e-01,2.71162e-13,-9.73331e-01
8.23140e+02,1.76500e+03,1.74000e+03,2.50000e+01,6.85843e-14,-9.65785e-01,1.64046e-13,-9.65785e-01,2.15338e-13,-9.65785e-01
8.23389e+02,2.04000e+03,1.68400e+03,3.56000e+02,1.90057e-13,-9.58240e-01,4.79338e-14,-9.58240e-01,2.37292e-13,-9.58240e-01
8.23638e+02,2.05000e+03,1.58100e+03,4.69000e+02,1.86799e-13,-9.50695e-01,8.10908e-14,-9.50695e-01,2.57114e-13,-9.50695e-01
8.23887e+02,1.93500e+03,1.69400e+03,2.41000e+02,1.00485e-13,-9.43150e-01,3.52097e-14,-9.43150e-01,6.66032e-14,-9.43150e-01
8.24135e+02,1.75400e+03,2.10000e+03,-3.46000e+02,7.90880e-14,-9.35605e-01,9.21331e-14,-9.35605e-01,1.54460e-13,-9.35605e-01
8.24384e+02,1.68800e+03,2.36100e+03,-6.73000e+02,1.18597e-13,-9.28059e-01,1.55268e-13,-9.28059e-01,2.73681e-13,-9.28059e-01
8.24633e+02,1.63000e+03,2.18900e+03,-5.59000e+02,1.23763e-13,-9.20514e-01,2.78901e-13,-9.20514e-01,3.76308e-13,-9.20514e-01
8.24881e+02,1.58500e+03,1.81400e+03,-2.29000e+02,6.35820e-14,-9.12969e-01,3.12988e-13,-9.12969e-01,2.76799e-13,-9.12969e-01
8.25130e+02,1.57700e+03,1.67200e+03,-9.50000e+01,1.51643e-13,-9.05424e-01,1.56292e-13,-9.05424e-01,2.02732e-13,-9.05424e-01
8.25379e+02,1.44300e+03,1.56600e+03,-1.23000e+02,1.09949e-13,-8.97879e-01,7.09773e-14,-8.97879e-01,7.47669e-14,-8.97879e-01
8.25627e+02,1.36300e+03,1.61300e+03,-2.50000e+02,1.72656e-13,-8.90333e-01,1.11944e-13,-8.90333e-01,9.42999e-14,-8.90333e-01
8.25876e+02,1.44600e+03,1.77500e+03,-3.29000e+02,1.88460e-13,-8.82788e-01,1.41666e-13,-8.82788e-01,1.40997e-13,-8.82788e-01
8.26125e+02,1.62400e+03,1.74000e+03,-1.16000e+02,3.04892e-13,-8.75243e-01,5.66932e-14,-8.75243e-01,3.49204e-13,-8.75243e-01
8.26373e+02,1.69400e+03,1.44100e+03,2.53000e+02,2.13706e-13,-8.67698e-01,1.17288e-13,-8.67698e-01,3.30029e-13,-8.67698e-01
8.26622e+02,1.72700e+03,1.28300e+03,4.44000e+02,2.62214e-13,-8.60153e-01,1.18481e-13,-8.60153e-01,3.43849e-13,-8.60153e-01
8.26870e+02,1.66900e+03,1.23500e+03,4.34000e+02,1.28015e-13,-8.52607e-01,2.71540e-13,-8.52607e-01,3.74717e-13,-8.52607e-01
8.27119e+02,1.36900e+03,1.28100e+03,8.80000e+01,1.01238e-13,-8.45062e-01,2.68054e-13,-8.45062e-01,3.18177e-13,-8.45062e-01
8.27368e+02,1.27600e+03,1.26100e+03,1.50000e+01,9.01658e-14,-8.37517e-01,1.96934e-13,-8.37517e-01,2.53970e-13,-8.37517e-01
8.27616e+02,1.27300e+03,1.21600e+03,5.70000e+01,1.04920e-13,-8.29972e-01,8.75267e-14,-8.29972e-01,1.32775e-13,-8.29972e-01
8.27865e+02,1.39500e+03,1.17500e+03,2.20000e+02,1.72615e-13,-8.22427e-01,1.33135e-13,-8.22427e-01,8.05123e-14,-8.22427e-01
8.28113e+02,1.40200e+03,1.18900e+03,2.13000e+02,1.68115e-13,-8.14881e-01,1.35725e-13,-8.14881e-01,8.90430e-14,-8.14881e-01
8.28362e+02,1.25300e+03,1.26100e+03,-8.00000e+00,7.81931e-14,-8.07336e-01,2.18572e-13,-8.07336e-01,1.40423e-13,-8.07336e-01
8.28610e+02,1.15000e+03,1.39000e+03,-2.40000e+02,1.39767e-13,-7.99791e-01,1.00680e-13,-7.99791e-01,2.31198e-13,-7.99791e-01
8.28859e+02,1.09000e+03,1.40300e+03,-3.13000e+02,2.07340e-13,-7.92246e-01,1.09309e-13,-7.92246e-01,2.35425e-13,-7.92246e-01
8.29108e+02,1.07900e+03,1.32900e+03,-2.50000e+02,2.00017e-13,-7.84701e-01,2.25724e-13,-7.84701e-01,1.88582e-13,-7.84701e-01
8.29356e+02,1.06000e+03,1.21700e+03,-1.57000e+02,8.56297e-14,-7.77155e-01,1.60168e-13,-7.77155e-01,7.65050e-14,-7.77155e-01
8.29605e+02,1.04700e+03,1.11300e+03,-6.60000e+01,1.37705e-13,-7.69610e-01,6.98019e-14,-7.69610e-01,1.56798e-13,-7.69610e-01
8.29853e+02,9.87000e+02,1.19300e+03,-2.06000e+02,1.82425e-13,-7.62065e-01,1.26429e-13,-7.62065e-01,1.39701e-13,-7.62065e-01
8.30101e+02,9.90000e+02,1.31500e+03,-3.25000e+02,3.97411e-13,-7.54520e-01,1.31145e-13,-7.54520e-01,2.71015e-13,-7.54520e-01
8.30350e+02,1.00600e+03,1.36900e+03,-3.63000e+02,2.38436e-13,-7.46975e-01,1.60018e-13,-7.46975e-01,2.01285e-13,-7.46975e-01
8.30598e+02,1.03500e+03,1.23700e+03,-2.02000e+02,6.14581e-14,-7.39429e-01,2.11695e-13,-7.39429e-01,2.05451e-13,-7.39429e-01
8.30847e+02,1.08900e+03,1.06900e+03,2.00000e+01,1.77539e-13,-7.31884e-01,1.44585e-13,-7.31884e-01,5.17500e-14,-7.31884e-01
8.31095e+02,1.06900e+03,9.28000e+02,1.41000e+02,2.54786e-13,-7.24339e-01,3.85297e-14,-7.24339e-01,2.81218e-13,-7.24339e-01
8.31344e+02,1.00100e+03,8.60000e+02,1.41000e+02,1.98038e-13,-7.16794e-01,1.55274e-13,-7.16794e-01,1.43004e-13,-7.16794e-01
8.31592e+02,9.17000e+02,8.60000e+02,5.70000e+01,2.22975e-13,-7.09249e-01,1.01213e-13,-7.09249e-01,2.28134e-13,-7.09249e-01
8.31841e+02,8.97000e+02,8.61000e+02,3.60000e+01,3.32781e-13,-7.01703e-01,2.94791e-14,-7.01703e-01,3.50650e-13,-7.01703e-01
8.32089e+02,9.36000e+02,8.77000e+02,5.90000e+01,3.44297e-13,-6.94158e-01,5.83241e-14,-6.94158e-01,3.09216e-13,-6.94158e-01
8.32337e+02,9.63000e+02,8.22000e+02,1.41000e+02,2.38483e-13,-6.86613e-01,2.70789e-13,-6.86613e-01,4.13056e-13,-6.86613e-01
8.32586e+02,9.88000e+02,8.04000e+02,1.84000e+02,2.28111e-13,-6.79068e-01,1.24490e-13,-6.79068e-01,3.50889e-13,-6.79068e-01
8.32834e+02,8.87000e+02,8.40000e+02,4.70000e+01,3.23926e-13,-6.71523e-01,1.13394e-13,-6.71523e-01,2.45157e-13,-6.71523e-01
8.33083e+02,8.22000e+02,8.65000e+02,-4.30000e+01,5.05482e-13,-6.63977e-01,3.15474e-13,-6.63977e-01,1.90844e-13,-6.63977e-01
8.33331e+02,7.74000e+02,8.52000e+02,-7.80000e+01,4.63658e-13,-6.56432e-01,9.72321e-14,-6.56432e-01,3.72792e-13,-6.56432e-01
8.33579e+02,7.83000e+02,8.07000e+02,-2.40000e+01,2.92802e-13,-6.48887e-01,3.24393e-13,-6.48887e-01,6.14786e-13,-6.48887e-01
8.33828e+02,7.66000e+02,7.77000e+02,-1.10000e+01,2.82809e-13,-6.41342e-01,4.57080e-13,-6.41342e-01,7.38832e-13,-6.41342e-01
8.34076e+02,7.74000e+02,7.94000e+02,-2.00000e+01,2.36989e-13,-6.33797e-01,4.58124e-13,-6.33797e-01,5.98006e-13,-6.33797e-01
8.34324e+02,7.53000e+02,7.96000e+02,-4.30000e+01,2.33013e-13,-6.26251e-01,3.45549e-13,-6.26251e-01,4.60285e-13,-6.26251e-01
8.34573e+02,7.43000e+02,8.26000e+02,-8.30000e+01,2.91407e-13,-6.18706e-01,2.49714e-13,-6.18706e-01,3.77155e-13,-6.18706e-01
8.34821e+02,7.56000e+02,8.08000e+02,-5.20000e+01,2.29559e-13,-6.11161e-01,3.59808e-13,-6.11161e-01,1.98800e-13,-6.11161e-01
8.35069e+02,7.76000e+02,7.97000e+02,-2.10000e+01,2.61098e-13,-6.03616e-01,3.24747e-13,-6.03616e-01,1.04576e-13,-6.03616e-01
8.35318e+02,8.00000e+02,7.52000e+02,4.80000e+01,3.11097e-13,-5.96071e-01,2.84964e-13,-5.96071e-01,1.43283e-13,-5.96071e-01
8.35566e+02,7.56000e+02,7.27000e+02,2.90000e+01,2.94341e-13,-5.88525e-01,8.47433e-14,-5.88525e-01,3.75059e-13,-5.88525e-01
8.35814e+02,7.28000e+02,7.16000e+02,1.20000e+01,2.77252e-13,-5.80980e-01,1.33469e-13,-5.80980e-01,4.00177e-13,-5.80980e-01
8.36062e+02,7.20000e+02,7.07000e+02,1.30000e+01,2.78751e-13,-5.73435e-01,1.67190e-13,-5.73435e-01,4.36020e-13,-5.73435e-01
8.36311e+02,7.23000e+02,7.08000e+02,1.50000e+01,1.71980e-13,-5.65890e-01,2.56620e-13,-5.65890e-01,1.89553e-13,-5.65890e-01
8.36559e+02,7.48000e+02,7.25000e+02,2.30000e+01,2.16472e-13,-5.58345e-01,2.02784e-13,-5.58345e-01,2.60848e-13,-5.58345e-01
8.36807e+02,7.61000e+02,7.05000e+02,5.60000e+01,1.79295e-13,-5.50799e-01,2.59008e-13,-5.50799e-01,3.66074e-13,-5.50799e-01
8.37055e+02,7.77000e+02,7.15000e+02,6.20000e+01,2.05382e-13,-5.43254e-01,3.54000e-14,-5.43254e-01,2.07408e-13,-5.43254e-01
8.37304e+02,7.38000e+02,7.06000e+02,3.20000e+01,1.53239e-13,-5.35709e-01,1.85144e-13,-5.35709e-01,1.70295e-13,-5.35709e-01
8.37552e+02,6.79000e+02,7.15000e+02,-3.60000e+01,1.92306e-13,-5.28164e-01,2.87633e-13,-5.28164e-01,1.34756e-13,-5.28164e-01
8.37800e+02,6.84000e+02,7.00000e+02,-1.60000e+01,1.40694e-13,-5.20619e-01,3.30744e-13,-5.20619e-01,4.32822e-13,-5.20619e-01
8.38048e+02,6.91000e+02,6.74000e+02,1.70000e+01,2.43331e-13,-5.13073e-01,3.60274e-13,-5.13073e-01,6.03228e-13,-5.13073e-01
8.38296e+02,6.84000e+02,6.84000e+02,0.00000e+00,5.60698e-13,-5.05528e-01,2.55359e-13,-5.05528e-01,8.10817e-13,-5.05528e-01
8.38545e+02,6.77000e+02,6.94000e+02,-1.70000e+01,9.58007e-13,-4.97983e-01,5.13246e-13,-4.97983e-01,1.40516e-12,-4.97983e-01
8.38793e+02,6.78000e+02,7.06000e+02,-2.80000e+01,1.64230e-12,-4.90438e-01,1.79825e-12,-4.90438e-01,3.25956e-12,-4.90438e-01
8.39041e+02,6.70000e+02,7.06000e+02,-3.60000e+01,2.70047e-12,-4.82893e-01,3.03948e-12,-4.82893e-01,5.58927e-12,-4.82893e-01
8.39289e+02,6.64000e+02,6.94000e+02,-3.00000e+01,3.12172e-12,-4.75347e-01,4.01386e-12,-4.75347e-01,7.03267e-12,-4.75347e-01
8.39537e+02,6.66000e+02,6.82000e+02,-1.60000e+01,3.19725e-12,-4.67802e-01,4.17888e-12,-4.67802e-01,7.27427e-12,-4.67802e-01
8.39785e+02,6.78000e+02,6.80000e+02,-2.00000e+00,3.10269e-12,-4.60257e-01,3.94795e-12,-4.60257e-01,6.99475e-12,-4.60257e-01
8.40033e+02,6.77000e+02,6.80000e+02,-3.00000e+00,2.35617e-12,-4.52712e-01,3.05610e-12,-4.52712e-01,5.40821e-12,-4.52712e-01
8.40281e+02,6.76000e+02,6.77000e+02,-1.00000e+00,1.00673e-12,-4.45167e-01,1.91955e-12,-4.45167e-01,2.92628e-12,-4.45167e-01
8.40530e+02,6.67000e+02,6.67000e+02,0.00000e+00,1.71384e-13,-4.37621e-01,9.79973e-13,-4.37621e-01,8.38632e-13,-4.37621e-01
8.40778e+02,6.93000e+02,6.83000e+02,1.00000e+01,6.48639e-13,-4.30076e-01,2.36889e-13,-4.30076e-01,7.58754e-13,-4.30076e-01
8.41026e+02,6.87000e+02,6.77000e+02,1.00000e+01,4.96634e-13,-4.22531e-01,6.02680e-13,-4.22531e-01,1.08203e-12,-4.22531e-01
8.41274e+02,6.87000e+02,6.71000e+02,1.60000e+01,2.92425e-13,-4.14986e-01,8.49152e-13,-4.14986e-01,1.09256e-12,-4.14986e-01
8.41522e+02,6.83000e+02,6.69000e+02,1.40000e+01,4.15653e-13,-4.07441e-01,7.50225e-13,-4.07441e-01,1.01951e-12,-4.07441e-01
8.41770e+02,6.61000e+02,6.59000e+02,2.00000e+00,4.65539e-13,-3.99895e-01,7.46067e-13,-3.99895e-01,8.22962e-13,-3.99895e-01
8.42018e+02,6.61000e+02,6.71000e+02,-1.00000e+01,5.06351e-13,-3.92350e-01,6.71430e-13,-3.92350e-01,7.22731e-13,-3.92350e-01
8.42266e+02,6.68000e+02,6.69000e+02,-1.00000e+00,5.21123e-13,-3.84805e-01,5.43171e-13,-3.84805e-01,3.30443e-13,-3.84805e-01
8.42514e+02,6.62000e+02,6.65000e+02,-3.00000e+00,7.75086e-13,-3.77260e-01,5.30726e-13,-3.77260e-01,3.55999e-13,-3.77260e-01
8.42762e+02,6.77000e+02,6.65000e+02,1.20000e+01,8.49753e-13,-3.69715e-01,6.49476e-13,-3.69715e-01,2.82092e-13,-3.69715e-01
8.43010e+02,6.68000e+02,6.86000e+02,-1.80000e+01,8.40435e-13,-3.62169e-01,6.77490e-13,-3.62169e-01,1.94994e-13,-3.62169e-01
8.43258e+02,6.85000e+02,6.73000e+02,1.20000e+01,3.99826e-13,-3.54624e-01,8.30802e-14,-3.54624e-01,4.30393e-13,-3.54624e-01
8.43506e+02,6.76000e+02,6.85000e+02,-9.00000e+00,9.69828e-13,-3.47079e-01,1.11787e-12,-3.47079e-01,3.35037e-13,-3.47079e-01
8.43754e+02,6.66000e+02,6.80000e+02,-1.40000e+01,2.52713e-12,-3.39534e-01,2.62825e-12,-3.39534e-01,1.18571e-13,-3.39534e-01
8.44002e+02,6.61000e+02,6.60000e+02,1.00000e+00,3.43216e-12,-3.31989e-01,3.63184e-12,-3.31989e-01,2.86874e-13,-3.31989e-01
8.44250e+02,6.55000e+02,6.69000e+02,-1.40000e+01,3.69484e-12,-3.24444e-01,4.06568e-12,-3.24444e-01,7.87602e-13,-3.24444e-01
8.44498e+02,6.69000e+02,6.71000e+02,-2.00000e+00,3.00632e-12,-3.16898e-01,3.61514e-12,-3.16898e-01,1.02713e-12,-3.16898e-01
8.44746e+02,6.53000e+02,6.69000e+02,-1.60000e+01,1.81176e-12,-3.09353e-01,2.67351e-12,-3.09353e-01,9.99366e-13,-3.09353e-01
8.44994e+02,6.63000e+02,6.54000e+02,9.00000e+00,8.93968e-13,-3.01808e-01,1.63673e-12,-3.01808e-01,7.82731e-13,-3.01808e-01
8.45242e+02,6.74000e+02,6.77000e+02,-3.00000e+00,3.82844e-13,-2.94263e-01,9.44880e-13,-2.94263e-01,6.80480e-13,-2.94263e-01
8.45490e+02,6.72000e+02,6.65000e+02,7.00000e+00,3.82143e-13,-2.86718e-01,4.36950e-13,-2.86718e-01,8.15261e-13,-2.86718e-01
8.45738e+02,6.62000e+02,6.62000e+02,0.00000e+00,6.56013e-13,-2.79172e-01,5.69122e-13,-2.79172e-01,1.10774e-12,-2.79172e-01
8.45985e+02,6.62000e+02,6.69000e+02,-7.00000e+00,5.78483e-13,-2.71627e-01,5.14256e-13,-2.71627e-01,7.64687e-13,-2.71627e-01
8.46233e+02,6.65000e+02,6.65000e+02,0.00000e+00,7.24573e-13,-2.64082e-01,8.11075e-13,-2.64082e-01,2.84775e-13,-2.64082e-01
8.46481e+02,6.70000e+02,6.61000e+02,9.00000e+00,7.16832e-13,-2.56537e-01,8.87830e-13,-2.56537e-01,2.10177e-13,-2.56537e-01
8.46729e+02,6.66000e+02,6.64000e+02,2.00000e+00,6.68556e-13,-2.48992e-01,6.73566e-13,-2.48992e-01,3.34175e-13,-2.48992e-01
8.46977e+02,6.72000e+02,6.67000e+02,5.00000e+00,4.36027e-13,-2.41446e-01,4.11140e-13,-2.41446e-01,5.57714e-13,-2.41446e-01
8.47225e+02,6.81000e+02,6.71000e+02,1.00000e+01,6.10180e-13,-2.33901e-01,2.63981e-13,-2.33901e-01,7.77030e-13,-2.33901e-01
8.47473e+02,6.62000e+02,6.68000e+02,-6.00000e+00,5.80640e-13,-2.26356e-01,1.15795e-13,-2.26356e-01,6.64340e-13,-2.26356e-01
8.47720e+02,6.61000e+02,6.56000e+02,5.00000e+00,8.39426e-13,-2.18811e-01,4.72037e-13,-2.18811e-01,3.86467e-13,-2.18811e-01
8.47968e+02,6.79000e+02,6.69000e+02,1.00000e+01,6.42270e-13,-2.11266e-01,8.17141e-13,-2.11266e-01,3.77967e-13,-2.11266e-01
8.48216e+02,6.63000e+02,6.66000e+02,-3.00000e+00,6.65858e-13,-2.03720e-01,9.88417e-13,-2.03720e-01,7.55412e-13,-2.03720e-01
8.48464e+02,6.50000e+02,6.56000e+02,-6.00000e+00,4.12826e-13,-1.96175e-01,7.28408e-13,-1.96175e-01,6.93530e-13,-1.96175e-01
8.48712e+02,6.64000e+02,6.56000e+02,8.00000e+00,5.43305e-13,-1.88630e-01,8.68799e-13,-1.88630e-01,4.56997e-13,-1.88630e-01
8.48960e+02,6.61000e+02,6.81000e+02,-2.00000e+01,4.39466e-13,-1.81085e-01,8.07897e-13,-1.81085e-01,4.61569e-13,-1.81085e-01
8.49207e+02,6.74000e+02,6.69000e+02,5.00000e+00,1.16757e-12,-1.73540e-01,9.82121e-13,-1.73540e-01,2.42754e-13,-1.73540e-01
8.49455e+02,6.51000e+02,6.57000e+02,-6.00000e+00,1.39981e-12,-1.65994e-01,1.85172e-12,-1.65994e-01,2.11653e-12,-1.65994e-01
8.49703e+02,6.49000e+02,6.50000e+02,-1.00000e+00,2.91605e-12,-1.58449e-01,3.98633e-12,-1.58449e-01,6.12563e-12,-1.58449e-01
8.49951e+02,6.66000e+02,6.68000e+02,-2.00000e+00,5.37753e-12,-1.50904e-01,6.64450e-12,-1.50904e-01,1.16404e-11,-1.50904e-01
8.50198e+02,6.70000e+02,6.68000e+02,2.00000e+00,6.53708e-12,-1.43359e-01,7.39706e-12,-1.43359e-01,1.36556e-11,-1.43359e-01
8.50446e+02,6.54000e+02,6.63000e+02,-9.00000e+00,4.35133e-12,-1.35814e-01,4.66921e-12,-1.35814e-01,8.96519e-12,-1.35814e-01
8.50694e+02,6.67000e+02,6.64000e+02,3.00000e+00,2.16852e-12,-1.28268e-01,2.06695e-12,-1.28268e-01,4.20609e-12,-1.28268e-01
8.50941e+02,6.74000e+02,6.71000e+02,3.00000e+00,5.98837e-13,-1.20723e-01,9.90627e-13,-1.20723e-01,1.56846e-12,-1.20723e-01
8.51189e+02,6.69000e+02,6.76000e+02,-7.00000e+00,3.46254e-13,-1.13178e-01,1.28206e-12,-1.13178e-01,9.45143e-13,-1.13178e-01
8.51437e+02,6.68000e+02,6.74000e+02,-6.00000e+00,1.17621e-12,-1.05633e-01,1.39118e-12,-1.05633e-01,7.26181e-13,-1.05633e-01
8.51685e+02,6.49000e+02,6.72000e+02,-2.30000e+01,1.32290e-12,-9.80876e-02,1.67896e-12,-9.80876e-02,3.62206e-13,-9.80876e-02
8.51932e+02,6.49000e+02,6.65000e+02,-1.60000e+01,1.05498e-12,-9.05424e-02,1.70306e-12,-9.05424e-02,6.72451e-13,-9.05424e-02
8.52180e+02,6.75000e+02,6.60000e+02,1.50000e+01,3.58016e-13,-8.29972e-02,1.01696e-12,-8.29972e-02,9.94568e-13,-8.29972e-02
8.52428e+02,6.54000e+02,6.49000e+02,5.00000e+00,5.88753e-13,-7.54520e-02,1.04360e-12,-7.54520e-02,1.55338e-12,-7.54520e-02
8.52675e+02,6.58000e+02,6.70000e+02,-1.20000e+01,1.40707e-12,-6.79068e-02,1.02528e-12,-6.79068e-02,1.66435e-12,-6.79068e-02
8.52923e+02,6.66000e+02,6.80000e+02,-1.40000e+01,6.40911e-13,-6.03616e-02,6.45494e-13,-6.03616e-02,8.11130e-13,-6.03616e-02
8.53170e+02,6.74000e+02,6.68000e+02,6.00000e+00,3.36594e-13,-5.28164e-02,8.84751e-13,-5.28164e-02,6.52665e-13,-5.28164e-02
8.53418e+02,6.61000e+02,6.56000e+02,5.00000e+00,2.46777e-12,-4.52712e-02,1.43532e-12,-4.52712e-02,1.34907e-12,-4.52712e-02
8.53666e+02,6.57000e+02,6.53000e+02,4.00000e+00,2.46161e-12,-3.77260e-02,1.46218e-12,-3.77260e-02,1.46252e-12,-3.77260e-02
8.53913e+02,6.68000e+02,6.60000e+02,8.00000e+00,3.53996e-12,-3.01808e-02,2.10476e-12,-3.01808e-02,1.48209e-12,-3.01808e-02
8.54161e+02,6.66000e+02,6.61000e+02,5.00000e+00,3.45546e-12,-2.26356e-02,4.86640e-12,-2.26356e-02,1.50924e-12,-2.26356e-02
8.54409e+02,6.67000e+02,6.62000e+02,5.00000e+00,1.55030e-11,-1.50904e-02,1.68839e-11,-1.50904e-02,1.81265e-12,-1.50904e-02
8.54656e+02,6.69000e+02,6.60000e+02,9.00000e+00,3.63975e-11,-7.54520e-03,3.72601e-11,-7.54520e-03,1.49442e-12,-7.54520e-03
