7.67698e+02,6.64000e+02,6.62000e+02,2.00000e+00,1.10037e-10,0.00000e+00,1.11986e-10,0.00000e+00,1.94858e-12,0.00000e+00
7.67949e+02,6.79000e+02,6.73000e+02,6.00000e+00,2.71364e-11,7.54520e-03,2.86356e-11,7.54520e-03,1.51038e-12,7.54520e-03
7.68199e+02,6.70000e+02,6.74000e+02,-4.00000e+00,1.37699e-11,1.50904e-02,1.45325e-11,1.50904e-02,7.88030e-13,1.50904e-02
7.68450e+02,6.58000e+02,6.84000e+02,-2.60000e+01,7.52633e-12,2.26356e-02,7.67615e-12,2.26356e-02,7.33864e-13,2.26356e-02
7.68701e+02,6.83000e+02,6.69000e+02,1.40000e+01,7.24447e-12,3.01808e-02,8.22328e-12,3.01808e-02,1.27263e-12,3.01808e-02
7.68951e+02,6.88000e+02,6.73000e+02,1.50000e+01,4.71136e-12,3.77260e-02,5.29848e-12,3.77260e-02,1.44439e-12,3.77260e-02
7.69202e+02,6.86000e+02,6.84000e+02,2.00000e+00,3.36765e-12,4.52712e-02,3.71295e-12,4.52712e-02,1.26085e-12,4.52712e-02
7.69453e+02,6.75000e+02,6.76000e+02,-1.00000e+00,5.21849e-13,5.28164e-02,6.89464e-13,5.28164e-02,1.08770e-12,5.28164e-02
7.69703e+02,6.71000e+02,6.62000e+02,9.00000e+00,3.24920e-13,6.03616e-02,1.35221e-12,6.03616e-02,1.10871e-12,6.03616e-02
7.69954e+02,6.85000e+02,6.84000e+02,1.00000e+00,1.35003e-13,6.79068e-02,1.17679e-12,6.79068e-02,1.04291e-12,6.79068e-02
7.70205e+02,6.94000e+02,6.98000e+02,-4.00000e+00,4.85318e-13,7.54520e-02,8.54614e-13,7.54520e-02,1.24945e-12,7.54520e-02
7.70455e+02,7.03000e+02,7.13000e+02,-1.00000e+01,5.07217e-13,8.29972e-02,1.23165e-12,8.29972e-02,1.41809e-12,8.29972e-02
7.70706e+02,6.74000e+02,7.22000e+02,-4.80000e+01,3.86581e-13,9.05424e-02,6.75217e-13,9.05424e-02,9.62477e-13,9.05424e-02
7.70957e+02,6.92000e+02,7.15000e+02,-2.30000e+01,3.34371e-13,9.80876e-02,8.26424e-13,9.80876e-02,5.85085e-13,9.80876e-02
7.71207e+02,7.13000e+02,6.99000e+02,1.40000e+01,3.47503e-13,1.05633e-01,5.16398e-13,1.05633e-01,3.08992e-13,1.05633e-01
7.71458e+02,6.85000e+02,7.13000e+02,-2.80000e+01,1.66601e-13,1.13178e-01,6.09313e-13,1.13178e-01,4.56401e-13,1.13178e-01
7.71708e+02,6.95000e+02,7.27000e+02,-3.20000e+01,2.78272e-14,1.20723e-01,9.49124e-13,1.20723e-01,9.63760e-13,1.20723e-01
7.71959e+02,7.37000e+02,7.50000e+02,-1.30000e+01,3.72641e-13,1.28268e-01,1.09152e-12,1.28268e-01,1.15666e-12,1.28268e-01
7.72210e+02,7.77000e+02,7.37000e+02,4.00000e+01,1.32266e-13,1.35814e-01,6.63198e-13,1.35814e-01,6.33534e-13,1.35814e-01
7.72460e+02,7.54000e+02,7.37000e+02,1.70000e+01,4.71930e-13,1.43359e-01,6.50043e-13,1.43359e-01,1.04587e-12,1.43359e-01
7.72711e+02,7.52000e+02,7.22000e+02,3.00000e+01,9.42681e-13,1.50904e-01,1.59902e-12,1.50904e-01,2.34870e-12,1.50904e-01
7.72961e+02,7.20000e+02,7.13000e+02,7.00000e+00,8.91434e-13,1.58449e-01,1.40813e-12,1.58449e-01,2.22873e-12,1.58449e-01
7.73212e+02,7.18000e+02,7.24000e+02,-6.00000e+00,4.75149e-13,1.65994e-01,8.54790e-13,1.65994e-01,1.32837e-12,1.65994e-01
7.73462e+02,7.52000e+02,7.48000e+02,4.00000e+00,1.24419e-12,1.73540e-01,2.05998e-12,1.73540e-01,3.30381e-12,1.73540e-01
7.73713e+02,7.84000e+02,7.70000e+02,1.40000e+01,2.68888e-12,1.81085e-01,3.44896e-12,1.81085e-01,6.08215e-12,1.81085e-01
7.73963e+02,7.96000e+02,8.09000e+02,-1.30000e+01,3.36734e-12,1.88630e-01,4.56701e-12,1.88630e-01,7.91066e-12,1.88630e-01
7.74214e+02,7.75000e+02,8.65000e+02,-9.00000e+01,1.82052e-12,1.96175e-01,2.78950e-12,1.96175e-01,4.55934e-12,1.96175e-01
7.74465e+02,7.67000e+02,8.47000e+02,-8.00000e+01,2.61634e-13,2.03720e-01,1.36751e-12,2.03720e-01,1.62889e-12,2.03720e-01
7.74715e+02,7.65000e+02,7.94000e+02,-2.90000e+01,7.57443e-13,2.11266e-01,1.07832e-12,2.11266e-01,1.42696e-12,2.11266e-01
7.74965e+02,7.49000e+02,7.86000e+02,-3.70000e+01,8.47409e-13,2.18811e-01,1.06774e-12,2.18811e-01,1.65398e-12,2.18811e-01
7.75216e+02,7.52000e+02,8.03000e+02,-5.10000e+01,3.37419e-13,2.26356e-01,6.01053e-13,2.26356e-01,7.00212e-13,2.26356e-01
7.75466e+02,7.65000e+02,8.48000e+02,-8.30000e+01,2.05998e-13,2.33901e-01,7.95553e-13,2.33901e-01,7.08198e-13,2.33901e-01
7.75717e+02,8.24000e+02,8.59000e+02,-3.50000e+01,5.42939e-13,2.41446e-01,7.36348e-13,2.41446e-01,4.62186e-13,2.41446e-01
7.75967e+02,8.80000e+02,8.35000e+02,4.50000e+01,4.47996e-13,2.48992e-01,7.89784e-13,2.48992e-01,3.43291e-13,2.48992e-01
7.76218e+02,9.00000e+02,8.09000e+02,9.10000e+01,2.55954e-13,2.56537e-01,5.67021e-13,2.56537e-01,6.20163e-13,2.56537e-01
7.76468e+02,9.04000e+02,7.83000e+02,1.21000e+02,3.43740e-13,2.64082e-01,4.87238e-13,2.64082e-01,3.94882e-13,2.64082e-01
7.76719e+02,8.48000e+02,7.69000e+02,7.90000e+01,8.24253e-13,2.71627e-01,9.94926e-13,2.71627e-01,6.11094e-13,2.71627e-01
7.76969e+02,8.27000e+02,8.01000e+02,2.60000e+01,1.05043e-12,2.79172e-01,1.63369e-12,2.79172e-01,6.35654e-13,2.79172e-01
7.77219e+02,8.70000e+02,8.02000e+02,6.80000e+01,9.10303e-13,2.86718e-01,1.23301e-12,2.86718e-01,3.44216e-13,2.86718e-01
7.77470e+02,9.20000e+02,8.46000e+02,7.40000e+01,2.21595e-13,2.94263e-01,5.86608e-13,2.94263e-01,3.74596e-13,2.94263e-01
7.77720e+02,9.32000e+02,9.28000e+02,4.00000e+00,1.44397e-12,3.01808e-01,1.74434e-12,3.01808e-01,5.59234e-13,3.01808e-01
7.77971e+02,8.66000e+02,1.00500e+03,-1.39000e+02,3.13076e-12,3.09353e-01,3.60727e-12,3.09353e-01,5.68399e-13,3.09353e-01
7.78221e+02,8.54000e+02,9.69000e+02,-1.15000e+02,3.99434e-12,3.16898e-01,4.12444e-12,3.16898e-01,1.61146e-13,3.16898e-01
7.78471e+02,8.29000e+02,9.17000e+02,-8.80000e+01,3.35422e-12,3.24444e-01,3.41655e-12,3.24444e-01,1.11306e-13,3.24444e-01
7.78722e+02,8.41000e+02,8.76000e+02,-3.50000e+01,2.23677e-12,3.31989e-01,2.52924e-12,3.31989e-01,4.34729e-13,3.31989e-01
7.78972e+02,8.25000e+02,8.78000e+02,-5.30000e+01,1.51683e-12,3.39534e-01,2.04507e-12,3.39534e-01,5.65031e-13,3.39534e-01
7.79222e+02,8.83000e+02,9.26000e+02,-4.30000e+01,8.38309e-13,3.47079e-01,1.01010e-12,3.47079e-01,2.75697e-13,3.47079e-01
7.79473e+02,9.81000e+02,9.62000e+02,1.90000e+01,9.93319e-13,3.54624e-01,1.10241e-12,3.54624e-01,2.62138e-13,3.54624e-01
7.79723e+02,1.05700e+03,9.00000e+02,1.57000e+02,5.72121e-13,3.62169e-01,8.34173e-13,3.62169e-01,3.00498e-13,3.62169e-01
7.79973e+02,1.03400e+03,9.04000e+02,1.30000e+02,2.86980e-13,3.69715e-01,4.06568e-13,3.69715e-01,1.93076e-13,3.69715e-01
7.80224e+02,9.91000e+02,8.92000e+02,9.90000e+01,4.29559e-13,3.77260e-01,4.10085e-13,3.77260e-01,1.90613e-13,3.77260e-01
7.80474e+02,8.92000e+02,8.82000e+02,1.00000e+01,2.37814e-13,3.84805e-01,3.55139e-13,3.84805e-01,3.84015e-13,3.84805e-01
7.80724e+02,8.78000e+02,8.63000e+02,1.50000e+01,2.96450e-13,3.92350e-01,3.47896e-13,3.92350e-01,5.73181e-13,3.92350e-01
7.80974e+02,9.21000e+02,8.94000e+02,2.70000e+01,1.37977e-13,3.99895e-01,5.80221e-13,3.99895e-01,6.92017e-13,3.99895e-01
7.81225e+02,9.24000e+02,9.82000e+02,-5.80000e+01,5.90274e-14,4.07441e-01,3.71097e-13,4.07441e-01,4.26719e-13,4.07441e-01
7.81475e+02,9.34000e+02,1.04400e+03,-1.10000e+02,3.87114e-14,4.14986e-01,3.17098e-13,4.14986e-01,2.94572e-13,4.14986e-01
7.81725e+02,9.35000e+02,1.07400e+03,-1.39000e+02,5.07868e-15,4.22531e-01,2.02084e-13,4.22531e-01,2.00491e-13,4.22531e-01
7.81975e+02,9.45000e+02,9.94000e+02,-4.90000e+01,1.29111e-13,4.30076e-01,4.65537e-13,4.30076e-01,3.69108e-13,4.30076e-01
7.82226e+02,9.54000e+02,9.33000e+02,2.10000e+01,1.64472e-13,4.37621e-01,5.48562e-13,4.37621e-01,5.53414e-13,4.37621e-01
7.82476e+02,9.04000e+02,8.69000e+02,3.50000e+01,1.28090e-13,4.45167e-01,5.12736e-13,4.45167e-01,6.23015e-13,4.45167e-01
7.82726e+02,8.66000e+02,8.50000e+02,1.60000e+01,2.43957e-13,4.52712e-01,1.85311e-13,4.52712e-01,3.14088e-13,4.52712e-01
7.82976e+02,9.13000e+02,8.53000e+02,6.00000e+01,3.08192e-13,4.60257e-01,3.75843e-13,4.60257e-01,4.72753e-13,4.60257e-01
7.83226e+02,9.41000e+02,8.75000e+02,6.60000e+01,4.21041e-13,4.67802e-01,8.84341e-13,4.67802e-01,1.20084e-12,4.67802e-01
7.83477e+02,9.36000e+02,9.37000e+02,-1.00000e+00,4.93556e-13,4.75347e-01,1.02182e-12,4.75347e-01,1.40097e-12,4.75347e-01
7.83727e+02,9.61000e+02,9.37000e+02,2.40000e+01,1.32183e-13,4.82893e-01,7.20395e-13,4.82893e-01,8.51718e-13,4.82893e-01
7.83977e+02,9.24000e+02,9.14000e+02,1.00000e+01,5.10821e-13,4.90438e-01,4.05603e-13,4.90438e-01,8.50701e-13,4.90438e-01
7.84227e+02,8.42000e+02,9.04000e+02,-6.20000e+01,1.07163e-12,4.97983e-01,8.77360e-13,4.97983e-01,1.94580e-12,4.97983e-01
7.84477e+02,8.14000e+02,8.58000e+02,-4.40000e+01,1.43833e-12,5.05528e-01,1.23085e-12,5.05528e-01,2.66842e-12,5.05528e-01
7.84727e+02,8.16000e+02,8.34000e+02,-1.80000e+01,1.01860e-12,5.13073e-01,1.00628e-12,5.13073e-01,2.02482e-12,5.13073e-01
7.84978e+02,8.71000e+02,9.27000e+02,-5.60000e+01,6.14047e-13,5.20619e-01,8.94820e-13,5.20619e-01,1.50832e-12,5.20619e-01
7.85228e+02,9.08000e+02,9.75000e+02,-6.70000e+01,6.34545e-13,5.28164e-01,8.08994e-13,5.28164e-01,1.42021e-12,5.28164e-01
7.85478e+02,9.10000e+02,9.62000e+02,-5.20000e+01,3.24713e-13,5.35709e-01,3.70828e-13,5.35709e-01,6.50452e-13,5.35709e-01
7.85728e+02,9.37000e+02,9.31000e+02,6.00000e+00,2.57916e-13,5.43254e-01,3.59725e-13,5.43254e-01,6.16862e-13,5.43254e-01
7.85978e+02,9.14000e+02,8.42000e+02,7.20000e+01,2.87577e-13,5.50799e-01,6.12842e-13,5.50799e-01,8.65781e-13,5.50799e-01
7.86228e+02,8.50000e+02,7.97000e+02,5.30000e+01,1.98542e-13,5.58345e-01,2.41096e-13,5.58345e-01,3.50833e-13,5.58345e-01
7.86478e+02,8.09000e+02,7.65000e+02,4.40000e+01,1.38747e-13,5.65890e-01,2.47230e-13,5.65890e-01,3.75324e-13,5.65890e-01
7.86728e+02,8.37000e+02,7.82000e+02,5.50000e+01,1.34623e-13,5.73435e-01,8.73399e-14,5.73435e-01,9.52547e-14,5.73435e-01
7.86978e+02,8.65000e+02,7.79000e+02,8.60000e+01,1.00578e-13,5.80980e-01,9.07602e-14,5.80980e-01,1.34185e-13,5.80980e-01
7.87228e+02,8.92000e+02,8.21000e+02,7.10000e+01,8.06061e-14,5.88525e-01,6.68330e-14,5.88525e-01,1.46784e-13,5.88525e-01
7.87478e+02,8.43000e+02,8.38000e+02,5.00000e+00,2.07040e-13,5.96071e-01,8.67156e-14,5.96071e-01,2.34354e-13,5.96071e-01
7.87728e+02,8.04000e+02,8.49000e+02,-4.50000e+01,1.31718e-13,6.03616e-01,9.06973e-14,6.03616e-01,2.14780e-13,6.03616e-01
7.87978e+02,7.78000e+02,8.09000e+02,-3.10000e+01,4.70025e-14,6.11161e-01,1.16835e-13,6.11161e-01,1.63656e-13,6.11161e-01
7.88228e+02,7.57000e+02,7.82000e+02,-2.50000e+01,7.57187e-14,6.18706e-01,7.02473e-14,6.18706e-01,1.23328e-13,6.18706e-01
7.88478e+02,7.53000e+02,7.84000e+02,-3.10000e+01,2.73065e-13,6.26251e-01,1.30934e-13,6.26251e-01,3.96209e-13,6.26251e-01
7.88728e+02,7.59000e+02,7.82000e+02,-2.30000e+01,7.01427e-14,6.33797e-01,1.41562e-13,6.33797e-01,1.86160e-13,6.33797e-01
7.88978e+02,7.93000e+02,8.14000e+02,-2.10000e+01,1.92786e-13,6.41342e-01,1.80158e-13,6.41342e-01,2.46743e-13,6.41342e-01
7.89228e+02,8.56000e+02,8.12000e+02,4.40000e+01,2.34454e-13,6.48887e-01,2.91261e-13,6.48887e-01,1.26784e-13,6.48887e-01
7.89478e+02,8.61000e+02,7.96000e+02,6.50000e+01,1.57314e-13,6.56432e-01,6.30036e-14,6.56432e-01,9.68277e-14,6.56432e-01
7.89728e+02,8.23000e+02,7.72000e+02,5.10000e+01,7.46355e-14,6.63977e-01,8.07814e-14,6.63977e-01,1.42364e-13,6.63977e-01
7.89978e+02,7.69000e+02,7.45000e+02,2.40000e+01,1.42071e-13,6.71523e-01,8.29635e-14,6.71523e-01,7.77948e-14,6.71523e-01
7.90228e+02,7.73000e+02,7.36000e+02,3.70000e+01,2.00656e-13,6.79068e-01,8.32318e-14,6.79068e-01,2.30206e-13,6.79068e-01
7.90478e+02,7.63000e+02,7.49000e+02,1.40000e+01,3.07813e-13,6.86613e-01,1.33084e-13,6.86613e-01,3.20336e-13,6.86613e-01
7.90728e+02,7.92000e+02,7.72000e+02,2.00000e+01,2.41114e-13,6.94158e-01,9.61640e-14,6.94158e-01,3.15252e-13,6.94158e-01
7.90978e+02,7.90000e+02,7.82000e+02,8.00000e+00,1.01234e-13,7.01703e-01,5.43510e-14,7.01703e-01,1.46187e-13,7.01703e-01
7.91228e+02,7.74000e+02,8.13000e+02,-3.90000e+01,2.46757e-13,7.09249e-01,8.33810e-14,7.09249e-01,2.95551e-13,7.09249e-01
7.91478e+02,7.93000e+02,8.45000e+02,-5.20000e+01,1.71948e-13,7.16794e-01,1.29810e-13,7.16794e-01,1.75149e-13,7.16794e-01
7.91728e+02,7.60000e+02,8.20000e+02,-6.00000e+01,1.39535e-13,7.24339e-01,1.47230e-13,7.24339e-01,2.84390e-13,7.24339e-01
7.91977e+02,7.44000e+02,7.73000e+02,-2.90000e+01,1.07299e-13,7.31884e-01,2.62957e-13,7.31884e-01,3.17871e-13,7.31884e-01
7.92227e+02,7.23000e+02,7.45000e+02,-2.20000e+01,1.93286e-13,7.39429e-01,1.30639e-13,7.39429e-01,1.76881e-13,7.39429e-01
7.92477e+02,7.49000e+02,7.71000e+02,-2.20000e+01,2.47657e-13,7.46975e-01,3.23326e-13,7.46975e-01,2.55572e-13,7.46975e-01
7.92727e+02,7.83000e+02,7.64000e+02,1.90000e+01,2.58601e-13,7.54520e-01,2.16914e-13,7.54520e-01,1.76458e-13,7.54520e-01
7.92977e+02,8.27000e+02,7.63000e+02,6.40000e+01,2.29737e-13,7.62065e-01,2.64122e-13,7.62065e-01,1.71696e-13,7.62065e-01
7.93227e+02,8.62000e+02,7.72000e+02,9.00000e+01,4.59597e-14,7.69610e-01,1.13476e-13,7.69610e-01,9.81485e-14,7.69610e-01
7.93476e+02,8.71000e+02,7.59000e+02,1.12000e+02,6.42310e-14,7.77155e-01,1.42402e-13,7.77155e-01,1.14841e-13,7.77155e-01
7.93726e+02,8.16000e+02,7.58000e+02,5.80000e+01,9.83285e-14,7.84701e-01,1.23823e-13,7.84701e-01,1.07918e-13,7.84701e-01
7.93976e+02,7.65000e+02,7.43000e+02,2.20000e+01,1.71434e-13,7.92246e-01,6.73909e-14,7.92246e-01,1.07368e-13,7.92246e-01
7.94226e+02,7.75000e+02,7.49000e+02,2.60000e+01,2.43243e-13,7.99791e-01,1.61419e-13,7.99791e-01,1.89874e-13,7.99791e-01
7.94476e+02,7.69000e+02,7.46000e+02,2.30000e+01,3.04151e-13,8.07336e-01,3.48465e-14,8.07336e-01,2.99816e-13,8.07336e-01
7.94725e+02,7.93000e+02,7.70000e+02,2.30000e+01,2.63298e-13,8.14881e-01,1.00423e-13,8.14881e-01,3.63698e-13,8.14881e-01
7.94975e+02,7.83000e+02,8.42000e+02,-5.90000e+01,2.59046e-13,8.22427e-01,8.50018e-14,8.22427e-01,2.34840e-13,8.22427e-01
7.95225e+02,7.92000e+02,8.89000e+02,-9.70000e+01,1.52164e-13,8.29972e-01,1.69263e-13,8.29972e-01,3.16746e-13,8.29972e-01
7.95475e+02,7.68000e+02,8.58000e+02,-9.00000e+01,7.87968e-14,8.37517e-01,2.21519e-14,8.37517e-01,5.69433e-14,8.37517e-01
7.95724e+02,8.10000e+02,8.14000e+02,-4.00000e+00,7.34662e-14,8.45062e-01,5.91097e-14,8.45062e-01,8.29832e-14,8.45062e-01
7.95974e+02,7.70000e+02,7.38000e+02,3.20000e+01,6.12862e-14,8.52607e-01,4.38372e-14,8.52607e-01,1.04230e-13,8.52607e-01
7.96224e+02,7.77000e+02,7.77000e+02,0.00000e+00,4.71541e-14,8.60153e-01,1.50890e-13,8.60153e-01,1.50436e-13,8.60153e-01
7.96474e+02,7.91000e+02,7.89000e+02,2.00000e+00,5.56865e-14,8.67698e-01,7.70356e-14,8.67698e-01,1.18930e-13,8.67698e-01
7.96723e+02,8.52000e+02,8.13000e+02,3.90000e+01,6.68725e-14,8.75243e-01,8.97948e-14,8.75243e-01,1.40131e-13,8.75243e-01
7.96973e+02,9.32000e+02,8.51000e+02,8.10000e+01,8.66073e-14,8.82788e-01,1.85244e-13,8.82788e-01,1.78435e-13,8.82788e-01
7.97223e+02,9.64000e+02,8.79000e+02,8.50000e+01,5.97123e-14,8.90333e-01,1.78977e-13,8.90333e-01,2.36372e-13,8.90333e-01
7.97472e+02,9.42000e+02,8.87000e+02,5.50000e+01,5.32849e-14,8.97879e-01,2.49784e-13,8.97879e-01,1.96714e-13,8.97879e-01
7.97722e+02,8.59000e+02,8.84000e+02,-2.50000e+01,4.29667e-14,9.05424e-01,1.81632e-13,9.05424e-01,1.43183e-13,9.05424e-01
7.97972e+02,8.01000e+02,8.49000e+02,-4.80000e+01,1.14217e-13,9.12969e-01,1.13601e-13,9.12969e-01,6.51771e-14,9.12969e-01
7.98221e+02,7.92000e+02,8.22000e+02,-3.00000e+01,1.87382e-13,9.20514e-01,1.10717e-13,9.20514e-01,1.23238e-13,9.20514e-01
7.98471e+02,8.12000e+02,8.64000e+02,-5.20000e+01,1.62466e-13,9.28059e-01,1.21011e-13,9.28059e-01,1.95846e-13,9.28059e-01
7.98721e+02,8.42000e+02,9.42000e+02,-1.00000e+02,9.53011e-14,9.35605e-01,7.92608e-14,9.35605e-01,1.51274e-13,9.35605e-01
7.98970e+02,8.70000e+02,1.01800e+03,-1.48000e+02,1.89755e-13,9.43150e-01,1.17448e-13,9.43150e-01,2.72853e-13,9.43150e-01
7.99220e+02,9.50000e+02,1.02700e+03,-7.70000e+01,1.99334e-13,9.50695e-01,1.13839e-13,9.50695e-01,3.03666e-13,9.50695e-01
7.99469e+02,1.01200e+03,9.94000e+02,1.80000e+01,8.09588e-14,9.58240e-01,9.99180e-14,9.58240e-01,1.80630e-13,9.58240e-01
7.99719e+02,9.93000e+02,9.30000e+02,6.30000e+01,9.63454e-14,9.65785e-01,8.09489e-14,9.65785e-01,8.99666e-14,9.65785e-01
7.99969e+02,9.67000e+02,8.67000e+02,1.00000e+02,1.31001e-14,9.73331e-01,1.32291e-13,9.73331e-01,1.23669e-13,9.73331e-01
8.00218e+02,9.39000e+02,8.41000e+02,9.80000e+01,3.66960e-14,9.80876e-01,1.23801e-13,9.80876e-01,9.64833e-14,9.80876e-01
8.00468e+02,1.00200e+03,8.69000e+02,1.33000e+02,1.18289e-13,9.88421e-01,1.46261e-13,9.88421e-01,1.34362e-13,9.88421e-01
8.00717e+02,1.17400e+03,9.10000e+02,2.64000e+02,1.24346e-13,9.95966e-01,1.87891e-13,9.95966e-01,2.14056e-13,9.95966e-01
8.00967e+02,1.32900e+03,9.77000e+02,3.52000e+02,1.39674e-13,1.00351e+00,1.91986e-13,1.00351e+00,2.55957e-13,1.00351e+00
8.01216e+02,1.30100e+03,1.11300e+03,1.88000e+02,2.18176e-13,1.01106e+00,5.08175e-14,1.01106e+00,2.34986e-13,1.01106e+00
8.01466e+02,1.15700e+03,1.23100e+03,-7.40000e+01,8.30494e-14,1.01860e+00,6.41755e-14,1.01860e+00,1.10885e-13,1.01860e+00
8.01715e+02,1.07400e+03,1.33700e+03,-2.63000e+02,1.01350e-13,1.02615e+00,4.54325e-14,1.02615e+00,7.94159e-14,1.02615e+00
8.01965e+02,1.03800e+03,1.24500e+03,-2.07000e+02,9.41220e-14,1.03369e+00,5.61564e-14,1.03369e+00,6.22810e-14,1.03369e+00
8.02215e+02,1.03200e+03,1.23800e+03,-2.06000e+02,4.57950e-14,1.04124e+00,7.20657e-14,1.04124e+00,2.63898e-14,1.04124e+00
8.02464e+02,1.05500e+03,1.27800e+03,-2.23000e+02,5.05426e-14,1.04878e+00,1.82927e-13,1.04878e+00,1.43331e-13,1.04878e+00
8.02713e+02,1.17100e+03,1.49700e+03,-3.26000e+02,6.15480e-14,1.05633e+00,1.21414e-13,1.05633e+00,6.05779e-14,1.05633e+00
8.02963e+02,1.33200e+03,1.64100e+03,-3.09000e+02,1.02091e-13,1.06387e+00,1.15653e-13,1.06387e+00,4.57818e-14,1.06387e+00
8.03212e+02,1.59200e+03,1.58500e+03,7.00000e+00,4.96014e-14,1.07142e+00,8.82410e-14,1.07142e+00,1.27952e-13,1.07142e+00
8.03462e+02,1.76800e+03,1.51600e+03,2.52000e+02,1.07288e-13,1.07896e+00,1.97883e-13,1.07896e+00,2.54638e-13,1.07896e+00
8.03711e+02,1.79100e+03,1.35000e+03,4.41000e+02,5.21162e-14,1.08651e+00,2.58066e-13,1.08651e+00,2.71495e-13,1.08651e+00
8.03961e+02,1.61200e+03,1.28800e+03,3.24000e+02,1.78419e-13,1.09405e+00,2.84454e-13,1.09405e+00,2.50338e-13,1.09405e+00
8.04210e+02,1.50500e+03,1.31400e+03,1.91000e+02,5.68121e-14,1.10160e+00,9.89768e-14,1.10160e+00,5.10586e-14,1.10160e+00
8.04460e+02,1.64800e+03,1.38400e+03,2.64000e+02,1.10266e-13,1.10914e+00,7.28367e-14,1.10914e+00,4.57495e-14,1.10914e+00
8.04709e+02,1.79400e+03,1.57800e+03,2.16000e+02,2.48593e-14,1.11669e+00,6.49841e-14,1.11669e+00,7.12145e-14,1.11669e+00
8.04958e+02,1.93600e+03,1.96200e+03,-2.60000e+01,1.17112e-13,1.12423e+00,5.00689e-14,1.12423e+00,1.15831e-13,1.12423e+00
8.05208e+02,1.83700e+03,2.40200e+03,-5.65000e+02,8.17090e-14,1.13178e+00,2.84367e-14,1.13178e+00,9.27771e-14,1.13178e+00
8.05457e+02,1.65700e+03,2.62700e+03,-9.70000e+02,4.41144e-14,1.13932e+00,6.25560e-14,1.13932e+00,4.63372e-14,1.13932e+00
8.05707e+02,1.54600e+03,2.62700e+03,-1.08100e+03,5.58893e-14,1.14687e+00,1.01267e-13,1.14687e+00,1.42177e-13,1.14687e+00
8.05956e+02,1.53000e+03,2.13500e+03,-6.05000e+02,1.07732e-13,1.15442e+00,1.97896e-13,1.15442e+00,2.70323e-13,1.15442e+00
8.06205e+02,1.52300e+03,1.97600e+03,-4.53000e+02,2.12182e-13,1.16196e+00,8.75073e-14,1.16196e+00,2.90293e-13,1.16196e+00
8.06455e+02,1.56200e+03,2.18700e+03,-6.25000e+02,1.24936e-13,1.16951e+00,7.67022e-14,1.16951e+00,2.00661e-13,1.16951e+00
8.06704e+02,1.86100e+03,2.53800e+03,-6.77000e+02,9.57186e-14,1.17705e+00,2.09074e-14,1.17705e+00,1.11357e-13,1.17705e+00
8.06953e+02,2.20600e+03,2.77300e+03,-5.67000e+02,8.21935e-14,1.18460e+00,1.11122e-13,1.18460e+00,4.49418e-14,1.18460e+00
8.07203e+02,2.69100e+03,2.60500e+03,8.60000e+01,7.99851e-14,1.19214e+00,1.28963e-13,1.19214e+00,5.13271e-14,1.19214e+00
8.07452e+02,2.69500e+03,2.10700e+03,5.88000e+02,1.21291e-13,1.19969e+00,1.57413e-13,1.19969e+00,8.69599e-14,1.19969e+00
8.07701e+02,2.35700e+03,1.78000e+03,5.77000e+02,1.29319e-13,1.20723e+00,1.98450e-13,1.20723e+00,7.83363e-14,1.20723e+00
8.07951e+02,1.98700e+03,1.65600e+03,3.31000e+02,5.36706e-14,1.21478e+00,1.56031e-13,1.21478e+00,1.49292e-13,1.21478e+00
8.08200e+02,1.79600e+03,1.48800e+03,3.08000e+02,5.55627e-14,1.22232e+00,1.91148e-13,1.22232e+00,1.43556e-13,1.22232e+00
8.08449e+02,1.83900e+03,1.57400e+03,2.65000e+02,6.51405e-14,1.22987e+00,1.99191e-13,1.22987e+00,2.50570e-13,1.22987e+00
8.08698e+02,1.97300e+03,1.94000e+03,3.30000e+01,3.74718e-14,1.23741e+00,2.13351e-13,1.23741e+00,1.84824e-13,1.23741e+00
8.08948e+02,2.25000e+03,2.48600e+03,-2.36000e+02,7.95937e-14,1.24496e+00,1.23821e-13,1.24496e+00,1.58364e-13,1.24496e+00
8.09197e+02,2.20700e+03,2.78600e+03,-5.79000e+02,1.60423e-13,1.25250e+00,1.39782e-13,1.25250e+00,2.76608e-13,1.25250e+00
8.09446e+02,2.19600e+03,3.01000e+03,-8.14000e+02,1.89394e-13,1.26005e+00,9.20557e-14,1.26005e+00,1.02650e-13,1.26005e+00
8.09695e+02,2.18000e+03,2.70300e+03,-5.23000e+02,1.33659e-13,1.26759e+00,1.37693e-13,1.26759e+00,3.10387e-14,1.26759e+00
8.09945e+02,2.15200e+03,2.30200e+03,-1.50000e+02,8.70159e-14,1.27514e+00,1.54380e-13,1.27514e+00,8.60099e-14,1.27514e+00
8.10194e+02,1.87400e+03,1.91600e+03,-4.20000e+01,2.52408e-14,1.28268e+00,1.03420e-13,1.28268e+00,9.09697e-14,1.28268e+00
8.10443e+02,1.79700e+03,1.75800e+03,3.90000e+01,1.06599e-13,1.29023e+00,3.24477e-14,1.29023e+00,1.29544e-13,1.29023e+00
8.10692e+02,2.08600e+03,1.85100e+03,2.35000e+02,5.78892e-14,1.29777e+00,7.87006e-14,1.29777e+00,1.24885e-13,1.29777e+00
8.10941e+02,2.46400e+03,1.85900e+03,6.05000e+02,1.30446e-13,1.30532e+00,7.48649e-14,1.30532e+00,1.87469e-13,1.30532e+00
8.11191e+02,2.60800e+03,2.00100e+03,6.07000e+02,2.99669e-14,1.31286e+00,7.82253e-14,1.31286e+00,8.51005e-14,1.31286e+00
8.11440e+02,2.70200e+03,2.25600e+03,4.46000e+02,9.08395e-14,-1.32041e+00,1.00265e-13,-1.32041e+00,9.42525e-15,-1.32041e+00
8.11689e+02,2.42400e+03,2.22400e+03,2.00000e+02,2.99669e-14,-1.31286e+00,7.82253e-14,-1.31286e+00,8.51005e-14,-1.31286e+00
8.11938e+02,1.97700e+03,2.05500e+03,-7.80000e+01,1.30446e-13,-1.30532e+00,7.48649e-14,-1.30532e+00,1.87469e-13,-1.30532e+00
8.12187e+02,1.76400e+03,1.90100e+03,-1.37000e+02,5.78892e-14,-1.29777e+00,7.87006e-14,-1.29777e+00,1.24885e-13,-1.29777e+00
8.12436e+02,1.77100e+03,1.78600e+03,-1.50000e+01,1.06599e-13,-1.29023e+00,3.24477e-14,-1.29023e+00,1.29544e-13,-1.29023e+00
8.12685e+02,1.77400e+03,1.96300e+03,-1.89000e+02,2.52408e-14,-1.28268e+00,1.03420e-13,-1.28268e+00,9.09697e-14,-1.28268e+00
8.12935e+02,1.81900e+03,2.11800e+03,-2.99000e+02,8.70159e-14,-1.27514e+00,1.54380e-13,-1.27514e+00,8.60099e-14,-1.27514e+00
8.13184e+02,1.87500e+03,2.42100e+03,-5.46000e+02,1.33659e-13,-1.26759e+00,1.37693e-13,-1.26759e+00,3.10387e-14,-1.26759e+00
8.13433e+02,1.96200e+03,2.17700e+03,-2.15000e+02,1.89394e-13,-1.26005e+00,9.20557e-14,-1.26005e+00,1.02650e-13,-1.26005e+00
8.13682e+02,2.05100e+03,2.00600e+03,4.50000e+01,1.60423e-13,-1.25250e+00,1.39782e-13,-1.25250e+00,2.76608e-13,-1.25250e+00
8.13931e+02,1.94600e+03,1.79400e+03,1.52000e+02,7.95937e-14,-1.24496e+00,1.23821e-13,-1.24496e+00,1.58364e-13,-1.24496e+00
8.14180e+02,1.69000e+03,1.63800e+03,5.20000e+01,3.74718e-14,-1.23741e+00,2.13351e-13,-1.23741e+00,1.84824e-13,-1.23741e+00
8.14429e+02,1.60100e+03,1.43900e+03,1.62000e+02,6.51405e-14,-1.22987e+00,1.99191e-13,-1.22987e+00,2.50570e-13,-1.22987e+00
8.14678e+02,1.59500e+03,1.34800e+03,2.47000e+02,5.55627e-14,-1.22232e+00,1.91148e-13,-1.22232e+00,1.43556e-13,-1.22232e+00
8.14927e+02,1.75100e+03,1.46900e+03,2.82000e+02,5.36706e-14,-1.21478e+00,1.56031e-13,-1.21478e+00,1.49292e-13,-1.21478e+00
8.15176e+02,1.84100e+03,1.65800e+03,1.83000e+02,1.29319e-13,-1.20723e+00,1.98450e-13,-1.20723e+00,7.83363e-14,-1.20723e+00
8.15425e+02,1.80900e+03,1.87300e+03,-6.40000e+01,1.21291e-13,-1.19969e+00,1.57413e-13,-1.19969e+00,8.69599e-14,-1.19969e+00
8.15674e+02,1.86800e+03,1.89800e+03,-3.00000e+01,7.99851e-14,-1.19214e+00,1.28963e-13,-1.19214e+00,5.13271e-14,-1.19214e+00
8.15923e+02,1.58600e+03,1.83100e+03,-2.45000e+02,8.21935e-14,-1.18460e+00,1.11122e-13,-1.18460e+00,4.49418e-14,-1.18460e+00
8.16172e+02,1.41700e+03,1.67600e+03,-2.59000e+02,9.57186e-14,-1.17705e+00,2.09074e-14,-1.17705e+00,1.11357e-13,-1.17705e+00
8.16421e+02,1.34200e+03,1.51400e+03,-1.72000e+02,1.24936e-13,-1.16951e+00,7.67022e-14,-1.16951e+00,2.00661e-13,-1.16951e+00
8.16670e+02,1.29300e+03,1.60000e+03,-3.07000e+02,2.12182e-13,-1.16196e+00,8.75073e-14,-1.16196e+00,2.90293e-13,-1.16196e+00
8.16919e+02,1.32000e+03,1.65800e+03,-3.38000e+02,1.07732e-13,-1.15442e+00,1.97896e-13,-1.15442e+00,2.70323e-13,-1.15442e+00
8.17168e+02,1.47400e+03,1.58900e+03,-1.15000e+02,5.58893e-14,-1.14687e+00,1.01267e-13,-1.14687e+00,1.42177e-13,-1.14687e+00
8.17417e+02,1.61300e+03,1.58000e+03,3.30000e+01,4.41144e-14,-1.13932e+00,6.25560e-14,-1.13932e+00,4.63372e-14,-1.13932e+00
8.17666e+02,1.72500e+03,1.47600e+03,2.49000e+02,8.17090e-14,-1.13178e+00,2.84367e-14,-1.13178e+00,9.27771e-14,-1.13178e+00
8.17915e+02,1.69900e+03,1.39000e+03,3.09000e+02,1.17112e-13,-1.12423e+00,5.00689e-14,-1.12423e+00,1.15831e-13,-1.12423e+00
8.18164e+02,1.55100e+03,1.35600e+03,1.95000e+02,2.48593e-14,-1.11669e+00,6.49841e-14,-1.11669e+00,7.12145e-14,-1.11669e+00
8.18413e+02,1.36800e+03,1.19600e+03,1.72000e+02,1.10266e-13,-1.10914e+00,7.28367e-14,-1.10914e+00,4.57495e-14,-1.10914e+00
8.18662e+02,1.34400e+03,1.18300e+03,1.61000e+02,5.68121e-14,-1.10160e+00,9.89768e-14,-1.10160e+00,5.10586e-14,-1.10160e+00
8.18911e+02,1.38000e+03,1.20500e+03,1.75000e+02,1.78419e-13,-1.09405e+00,2.84454e-13,-1.09405e+00,2.50338e-13,-1.09405e+00
8.19160e+02,1.40200e+03,1.41500e+03,-1.30000e+01,5.21162e-14,-1.08651e+00,2.58066e-13,-1.08651e+00,2.71495e-13,-1.08651e+00
8.19408e+02,1.43300e+03,1.64100e+03,-2.08000e+02,1.07288e-13,-1.07896e+00,1.97883e-13,-1.07896e+00,2.54638e-13,-1.07896e+00
8.19657e+02,1.38500e+03,1.73600e+03,-3.51000e+02,4.96014e-14,-1.07142e+00,8.82410e-14,-1.07142e+00,1.27952e-13,-1.07142e+00
8.19906e+02,1.28700e+03,1.69100e+03,-4.04000e+02,1.02091e-13,-1.06387e+00,1.15653e-13,-1.06387e+00,4.57818e-14,-1.06387e+00
8.20155e+02,1.29700e+03,1.56700e+03,-2.70000e+02,6.15480e-14,-1.05633e+00,1.21414e-13,-1.05633e+00,6.05779e-14,-1.05633e+00
8.20404e+02,1.28200e+03,1.42400e+03,-1.42000e+02,5.05426e-14,-1.04878e+00,1.82927e-13,-1.04878e+00,1.43331e-13,-1.04878e+00
8.20653e+02,1.19700e+03,1.35300e+03,-1.56000e+02,4.57950e-14,-1.04124e+00,7.20657e-14,-1.04124e+00,2.63898e-14,-1.04124e+00
8.20901e+02,1.21700e+03,1.39500e+03,-1.78000e+02,9.41220e-14,-1.03369e+00,5.61564e-14,-1.03369e+00,6.22810e-14,-1.03369e+00
8.21150e+02,1.38100e+03,1.38700e+03,-6.00000e+00,1.01350e-13,-1.02615e+00,4.54325e-14,-1.02615e+00,7.94159e-14,-1.02615e+00
8.21399e+02,1.61600e+03,1.30400e+03,3.12000e+02,8.30494e-14,-1.01860e+00,6.41755e-14,-1.01860e+00,1.10885e-13,-1.01860e+00
8.21648e+02,1.62800e+03,1.28900e+03,3.39000e+02,2.18176e-13,-1.01106e+00,5.08175e-14,-1.01106e+00,2.34986e-13,-1.01106e+00
8.21897e+02,1.60100e+03,1.39200e+03,2.09000e+02,1.39674e-13,-1.00351e+00,1.91986e-13,-1.00351e+00,2.55957e-13,-1.00351e+00
8.22145e+02,1.45800e+03,1.51500e+03,-5.70000e+01,1.24346e-13,-9.95966e-01,1.87891e-13,-9.95966e-01,2.14056e-13,-9.95966e-01
8.22394e+02,1.24500e+03,1.45200e+03,-2.07000e+02,1.18289e-13,-9.88421e-01,1.46261e-13,-9.88421e-01,1.34362e-13,-9.88421e-01
8.22643e+02,1.18900e+03,1.35400e+03,-1.65000e+02,3.66960e-14,-9.80876e-01,1.23801e-13,-9.80876e-01,9.64833e-14,-9.80876e-01
8.22892e+02,1.26500e+03,1.35700e+03,-9.20000e+01,1.31001e-14,-9.73331e-01,1.32291e-13,-9.73331e-01,1.23669e-13,-9.73331e-01
8.23140e+02,1.24200e+03,1.50000e+03,-2.58000e+02,9.63454e-14,-9.65785e-01,8.09489e-14,-9.65785e-01,8.99666e-14,-9.65785e-01
8.23389e+02,1.24700e+03,1.81600e+03,-5.69000e+02,8.09588e-14,-9.58240e-01,9.99180e-14,-9.58240e-01,1.80630e-13,-9.58240e-01
8.23638e+02,1.34400e+03,1.83800e+03,-4.94000e+02,1.99334e-13,-9.50695e-01,1.13839e-13,-9.50695e-01,3.03666e-13,-9.50695e-01
8.23887e+02,1.46400e+03,1.82200e+03,-3.58000e+02,1.89755e-13,-9.43150e-01,1.17448e-13,-9.43150e-01,2.72853e-13,-9.43150e-01
8.24135e+02,1.56500e+03,1.54500e+03,2.00000e+01,9.53011e-14,-9.35605e-01,7.92608e-14,-9.35605e-01,1.51274e-13,-9.35605e-01
8.24384e+02,1.45200e+03,1.31900e+03,1.33000e+02,1.62466e-13,-9.28059e-01,1.21011e-13,-9.28059e-01,1.95846e-13,-9.28059e-01
8.24633e+02,1.36200e+03,1.24800e+03,1.14000e+02,1.87382e-13,-9.20514e-01,1.10717e-13,-9.20514e-01,1.23238e-13,-9.20514e-01
8.24881e+02,1.28200e+03,1.20600e+03,7.60000e+01,1.14217e-13,-9.12969e-01,1.13601e-13,-9.12969e-01,6.51771e-14,-9.12969e-01
8.25130e+02,1.32100e+03,1.18200e+03,1.39000e+02,4.29667e-14,-9.05424e-01,1.81632e-13,-9.05424e-01,1.43183e-13,-9.05424e-01
8.25379e+02,1.51200e+03,1.19500e+03,3.17000e+02,5.32849e-14,-8.97879e-01,2.49784e-13,-8.97879e-01,1.96714e-13,-8.97879e-01
8.25627e+02,1.65000e+03,1.26300e+03,3.87000e+02,5.97123e-14,-8.90333e-01,1.78977e-13,-8.90333e-01,2.36372e-13,-8.90333e-01
8.25876e+02,1.66500e+03,1.43200e+03,2.33000e+02,8.66073e-14,-8.82788e-01,1.85244e-13,-8.82788e-01,1.78435e-13,-8.82788e-01
8.26125e+02,1.57000e+03,1.60600e+03,-3.60000e+01,6.68725e-14,-8.75243e-01,8.97948e-14,-8.75243e-01,1.40131e-13,-8.75243e-01
8.26373e+02,1.27800e+03,1.65000e+03,-3.72000e+02,5.56865e-14,-8.67698e-01,7.70356e-14,-8.67698e-01,1.18930e-13,-8.67698e-01
8.26622e+02,1.12900e+03,1.49900e+03,-3.70000e+02,4.71541e-14,-8.60153e-01,1.50890e-13,-8.60153e-01,1.50436e-13,-8.60153e-01
8.26870e+02,1.05500e+03,1.32000e+03,-2.65000e+02,6.12862e-14,-8.52607e-01,4.38372e-14,-8.52607e-01,1.04230e-13,-8.52607e-01
8.27119e+02,1.05300e+03,1.26000e+03,-2.07000e+02,7.34662e-14,-8.45062e-01,5.91097e-14,-8.45062e-01,8.29832e-14,-8.45062e-01
8.27368e+02,1.06500e+03,1.31700e+03,-2.52000e+02,7.87968e-14,-8.37517e-01,2.21519e-14,-8.37517e-01,5.69433e-14,-8.37517e-01
8.27616e+02,1.16800e+03,1.45000e+03,-2.82000e+02,1.52164e-13,-8.29972e-01,1.69263e-13,-8.29972e-01,3.16746e-13,-8.29972e-01
8.27865e+02,1.32900e+03,1.51900e+03,-1.90000e+02,2.59046e-13,-8.22427e-01,8.50018e-14,-8.22427e-01,2.34840e-13,-8.22427e-01
8.28113e+02,1.56500e+03,1.47900e+03,8.60000e+01,2.63298e-13,-8.14881e-01,1.00423e-13,-8.14881e-01,3.63698e-13,-8.14881e-01
8.28362e+02,1.49100e+03,1.25800e+03,2.33000e+02,3.04151e-13,-8.07336e-01,3.48465e-14,-8.07336e-01,2.99816e-13,-8.07336e-01
8.28610e+02,1.32900e+03,1.11200e+03,2.17000e+02,2.43243e-13,-7.99791e-01,1.61419e-13,-7.99791e-01,1.89874e-13,-7.99791e-01
8.28859e+02,1.13600e+03,1.01300e+03,1.23000e+02,1.71434e-13,-7.92246e-01,6.73909e-14,-7.92246e-01,1.07368e-13,-7.92246e-01
8.29108e+02,1.04900e+03,9.48000e+02,1.01000e+02,9.83285e-14,-7.84701e-01,1.23823e-13,-7.84701e-01,1.07918e-13,-7.84701e-01
8.29356e+02,1.04500e+03,9.37000e+02,1.08000e+02,6.42310e-14,-7.77155e-01,1.42402e-13,-7.77155e-01,1.14841e-13,-7.77155e-01
8.29605e+02,1.07900e+03,9.66000e+02,1.13000e+02,4.59597e-14,-7.69610e-01,1.13476e-13,-7.69610e-01,9.81485e-14,-7.69610e-01
8.29853e+02,1.12700e+03,1.03600e+03,9.10000e+01,2.29737e-13,-7.62065e-01,2.64122e-13,-7.62065e-01,1.71696e-13,-7.62065e-01
8.30101e+02,1.10900e+03,1.17600e+03,-6.70000e+01,2.58601e-13,-7.54520e-01,2.16914e-13,-7.54520e-01,1.76458e-13,-7.54520e-01
8.30350e+02,9.81000e+02,1.21200e+03,-2.31000e+02,2.47657e-13,-7.46975e-01,3.23326e-13,-7.46975e-01,2.55572e-13,-7.46975e-01
8.30598e+02,9.20000e+02,1.21300e+03,-2.93000e+02,1.93286e-13,-7.39429e-01,1.30639e-13,-7.39429e-01,1.76881e-13,-7.39429e-01
8.30847e+02,8.95000e+02,1.06600e+03,-1.71000e+02,1.07299e-13,-7.31884e-01,2.62957e-13,-7.31884e-01,3.17871e-13,-7.31884e-01
8.31095e+02,8.63000e+02,9.36000e+02,-7.30000e+01,1.39535e-13,-7.24339e-01,1.47230e-13,-7.24339e-01,2.84390e-13,-7.24339e-01
8.31344e+02,8.29000e+02,8.96000e+02,-6.70000e+01,1.71948e-13,-7.16794e-01,1.29810e-13,-7.16794e-01,1.75149e-13,-7.16794e-01
8.31592e+02,8.48000e+02,8.87000e+02,-3.90000e+01,2.46757e-13,-7.09249e-01,8.33810e-14,-7.09249e-01,2.95551e-13,-7.09249e-01
8.31841e+02,9.15000e+02,9.37000e+02,-2.20000e+01,1.01234e-13,-7.01703e-01,5.43510e-14,-7.01703e-01,1.46187e-13,-7.01703e-01
8.32089e+02,9.72000e+02,9.08000e+02,6.40000e+01,2.41114e-13,-6.94158e-01,9.61640e-14,-6.94158e-01,3.15252e-13,-6.94158e-01
8.32337e+02,1.00200e+03,8.66000e+02,1.36000e+02,3.07813e-13,-6.86613e-01,1.33084e-13,-6.86613e-01,3.20336e-13,-6.86613e-01
8.32586e+02,9.17000e+02,8.36000e+02,8.10000e+01,2.00656e-13,-6.79068e-01,8.32318e-14,-6.79068e-01,2.30206e-13,-6.79068e-01
8.32834e+02,8.43000e+02,8.20000e+02,2.30000e+01,1.42071e-13,-6.71523e-01,8.29635e-14,-6.71523e-01,7.77948e-14,-6.71523e-01
8.33083e+02,7.93000e+02,8.06000e+02,-1.30000e+01,7.46355e-14,-6.63977e-01,8.07814e-14,-6.63977e-01,1.42364e-13,-6.63977e-01
8.33331e+02,7.68000e+02,7.73000e+02,-5.00000e+00,1.57314e-13,-6.56432e-01,6.30036e-14,-6.56432e-01,9.68277e-14,-6.56432e-01
8.33579e+02,7.68000e+02,7.37000e+02,3.10000e+01,2.34454e-13,-6.48887e-01,2.91261e-13,-6.48887e-01,1.26784e-13,-6.48887e-01
8.33828e+02,7.71000e+02,7.58000e+02,1.30000e+01,1.92786e-13,-6.41342e-01,1.80158e-13,-6.41342e-01,2.46743e-13,-6.41342e-01
8.34076e+02,7.65000e+02,7.98000e+02,-3.30000e+01,7.01427e-14,-6.33797e-01,1.41562e-13,-6.33797e-01,1.86160e-13,-6.33797e-01
8.34324e+02,7.58000e+02,8.19000e+02,-6.10000e+01,2.73065e-13,-6.26251e-01,1.30934e-13,-6.26251e-01,3.96209e-13,-6.26251e-01
8.34573e+02,7.48000e+02,7.90000e+02,-4.20000e+01,7.57187e-14,-6.18706e-01,7.02473e-14,-6.18706e-01,1.23328e-13,-6.18706e-01
8.34821e+02,7.39000e+02,7.50000e+02,-1.10000e+01,4.70025e-14,-6.11161e-01,1.16835e-13,-6.11161e-01,1.63656e-13,-6.11161e-01
8.35069e+02,7.42000e+02,7.46000e+02,-4.00000e+00,1.31718e-13,-6.03616e-01,9.06973e-14,-6.03616e-01,2.14780e-13,-6.03616e-01
8.35318e+02,7.37000e+02,7.23000e+02,1.40000e+01,2.07040e-13,-5.96071e-01,8.67156e-14,-5.96071e-01,2.34354e-13,-5.96071e-01
8.35566e+02,7.26000e+02,7.07000e+02,1.90000e+01,8.06061e-14,-5.88525e-01,6.68330e-14,-5.88525e-01,1.46784e-13,-5.88525e-01
8.35814e+02,7.16000e+02,7.08000e+02,8.00000e+00,1.00578e-13,-5.80980e-01,9.07602e-14,-5.80980e-01,1.34185e-13,-5.80980e-01
8.36062e+02,7.15000e+02,7.26000e+02,-1.10000e+01,1.34623e-13,-5.73435e-01,8.73399e-14,-5.73435e-01,9.52547e-14,-5.73435e-01
8.36311e+02,7.13000e+02,7.26000e+02,-1.30000e+01,1.38747e-13,-5.65890e-01,2.47230e-13,-5.65890e-01,3.75324e-13,-5.65890e-01
8.36559e+02,7.31000e+02,7.14000e+02,1.70000e+01,1.98542e-13,-5.58345e-01,2.41096e-13,-5.58345e-01,3.50833e-13,-5.58345e-01
8.36807e+02,7.06000e+02,7.18000e+02,-1.20000e+01,2.87577e-13,-5.50799e-01,6.12842e-13,-5.50799e-01,8.65781e-13,-5.50799e-01
8.37055e+02,6.94000e+02,7.04000e+02,-1.00000e+01,2.57916e-13,-5.43254e-01,3.59725e-13,-5.43254e-01,6.16862e-13,-5.43254e-01
8.37304e+02,6.84000e+02,7.01000e+02,-1.70000e+01,3.24713e-13,-5.35709e-01,3.70828e-13,-5.35709e-01,6.50452e-13,-5.35709e-01
8.37552e+02,6.84000e+02,6.80000e+02,4.00000e+00,6.34545e-13,-5.28164e-01,8.08994e-13,-5.28164e-01,1.42021e-12,-5.28164e-01
8.37800e+02,6.81000e+02,6.83000e+02,-2.00000e+00,6.14047e-13,-5.20619e-01,8.94820e-13,-5.20619e-01,1.50832e-12,-5.20619e-01
8.38048e+02,6.80000e+02,6.77000e+02,3.00000e+00,1.01860e-12,-5.13073e-01,1.00628e-12,-5.13073e-01,2.02482e-12,-5.13073e-01
8.38296e+02,6.80000e+02,7.00000e+02,-2.00000e+01,1.43833e-12,-5.05528e-01,1.23085e-12,-5.05528e-01,2.66842e-12,-5.05528e-01
8.38545e+02,6.80000e+02,6.88000e+02,-8.00000e+00,1.07163e-12,-4.97983e-01,8.77360e-13,-4.97983e-01,1.94580e-12,-4.97983e-01
8.38793e+02,6.92000e+02,6.81000e+02,1.10000e+01,5.10821e-13,-4.90438e-01,4.05603e-13,-4.90438e-01,8.50701e-13,-4.90438e-01
8.39041e+02,6.95000e+02,6.85000e+02,1.00000e+01,1.32183e-13,-4.82893e-01,7.20395e-13,-4.82893e-01,8.51718e-13,-4.82893e-01
8.39289e+02,6.81000e+02,6.84000e+02,-3.00000e+00,4.93556e-13,-4.75347e-01,1.02182e-12,-4.75347e-01,1.40097e-12,-4.75347e-01
8.39537e+02,6.68000e+02,6.71000e+02,-3.00000e+00,4.21041e-13,-4.67802e-01,8.84341e-13,-4.67802e-01,1.20084e-12,-4.67802e-01
8.39785e+02,6.54000e+02,6.62000e+02,-8.00000e+00,3.08192e-13,-4.60257e-01,3.75843e-13,-4.60257e-01,4.72753e-13,-4.60257e-01
8.40033e+02,6.69000e+02,6.80000e+02,-1.10000e+01,2.43957e-13,-4.52712e-01,1.85311e-13,-4.52712e-01,3.14088e-13,-4.52712e-01
8.40281e+02,6.65000e+02,6.69000e+02,-4.00000e+00,1.28090e-13,-4.45167e-01,5.12736e-13,-4.45167e-01,6.23015e-13,-4.45167e-01
8.40530e+02,6.64000e+02,6.77000e+02,-1.30000e+01,1.64472e-13,-4.37621e-01,5.48562e-13,-4.37621e-01,5.53414e-13,-4.37621e-01
8.40778e+02,6.66000e+02,6.58000e+02,8.00000e+00,1.29111e-13,-4.30076e-01,4.65537e-13,-4.30076e-01,3.69108e-13,-4.30076e-01
8.41026e+02,6.78000e+02,6.83000e+02,-5.00000e+00,5.07868e-15,-4.22531e-01,2.02084e-13,-4.22531e-01,2.00491e-13,-4.22531e-01
8.41274e+02,6.60000e+02,6.60000e+02,0.00000e+00,3.87114e-14,-4.14986e-01,3.17098e-13,-4.14986e-01,2.94572e-13,-4.14986e-01
8.41522e+02,6.73000e+02,6.80000e+02,-7.00000e+00,5.90274e-14,-4.07441e-01,3.71097e-13,-4.07441e-01,4.26719e-13,-4.07441e-01
8.41770e+02,6.69000e+02,6.58000e+02,1.10000e+01,1.37977e-13,-3.99895e-01,5.80221e-13,-3.99895e-01,6.92017e-13,-3.99895e-01
8.42018e+02,6.67000e+02,6.84000e+02,-1.70000e+01,2.96450e-13,-3.92350e-01,3.47896e-13,-3.92350e-01,5.73181e-13,-3.92350e-01
8.42266e+02,6.71000e+02,6.65000e+02,6.00000e+00,2.37814e-13,-3.84805e-01,3.55139e-13,-3.84805e-01,3.84015e-13,-3.84805e-01
8.42514e+02,6.71000e+02,6.64000e+02,7.00000e+00,4.29559e-13,-3.77260e-01,4.10085e-13,-3.77260e-01,1.90613e-13,-3.77260e-01
8.42762e+02,6.75000e+02,6.66000e+02,9.00000e+00,2.86980e-13,-3.69715e-01,4.06568e-13,-3.69715e-01,1.93076e-13,-3.69715e-01
8.43010e+02,6.65000e+02,6.68000e+02,-3.00000e+00,5.72121e-13,-3.62169e-01,8.34173e-13,-3.62169e-01,3.00498e-13,-3.62169e-01
8.43258e+02,6.72000e+02,6.62000e+02,1.00000e+01,9.93319e-13,-3.54624e-01,1.10241e-12,-3.54624e-01,2.62138e-13,-3.54624e-01
8.43506e+02,6.73000e+02,6.65000e+02,8.00000e+00,8.38309e-13,-3.47079e-01,1.01010e-12,-3.47079e-01,2.75697e-13,-3.47079e-01
8.43754e+02,6.73000e+02,6.61000e+02,1.20000e+01,1.51683e-12,-3.39534e-01,2.04507e-12,-3.39534e-01,5.65031e-13,-3.39534e-01
8.44002e+02,6.67000e+02,6.55000e+02,1.20000e+01,2.23677e-12,-3.31989e-01,2.52924e-12,-3.31989e-01,4.34729e-13,-3.31989e-01
8.44250e+02,6.65000e+02,6.70000e+02,-5.00000e+00,3.35422e-12,-3.24444e-01,3.41655e-12,-3.24444e-01,1.11306e-13,-3.24444e-01
8.44498e+02,6.65000e+02,6.64000e+02,1.00000e+00,3.99434e-12,-3.16898e-01,4.12444e-12,-3.16898e-01,1.61146e-13,-3.16898e-01
8.44746e+02,6.48000e+02,6.71000e+02,-2.30000e+01,3.13076e-12,-3.09353e-01,3.60727e-12,-3.09353e-01,5.68399e-13,-3.09353e-01
8.44994e+02,6.63000e+02,6.69000e+02,-6.00000e+00,1.44397e-12,-3.01808e-01,1.74434e-12,-3.01808e-01,5.59234e-13,-3.01808e-01
8.45242e+02,6.62000e+02,6.65000e+02,-3.00000e+00,2.21595e-13,-2.94263e-01,5.86608e-13,-2.94263e-01,3.74596e-13,-2.94263e-01
8.45490e+02,6.57000e+02,6.64000e+02,-7.00000e+00,9.10303e-13,-2.86718e-01,1.23301e-12,-2.86718e-01,3.44216e-13,-2.86718e-01
8.45738e+02,6.50000e+02,6.67000e+02,-1.70000e+01,1.05043e-12,-2.79172e-01,1.63369e-12,-2.79172e-01,6.35654e-13,-2.79172e-01
8.45985e+02,6.67000e+02,6.71000e+02,-4.00000e+00,8.24253e-13,-2.71627e-01,9.94926e-13,-2.71627e-01,6.11094e-13,-2.71627e-01
8.46233e+02,6.59000e+02,6.56000e+02,3.00000e+00,3.43740e-13,-2.64082e-01,4.87238e-13,-2.64082e-01,3.94882e-13,-2.64082e-01
8.46481e+02,6.59000e+02,6.65000e+02,-6.00000e+00,2.55954e-13,-2.56537e-01,5.67021e-13,-2.56537e-01,6.20163e-13,-2.56537e-01
8.46729e+02,6.52000e+02,6.57000e+02,-5.00000e+00,4.47996e-13,-2.48992e-01,7.89784e-13,-2.48992e-01,3.43291e-13,-2.48992e-01
8.46977e+02,6.64000e+02,6.52000e+02,1.20000e+01,5.42939e-13,-2.41446e-01,7.36348e-13,-2.41446e-01,4.62186e-13,-2.41446e-01
8.47225e+02,6.68000e+02,6.62000e+02,6.00000e+00,2.05998e-13,-2.33901e-01,7.95553e-13,-2.33901e-01,7.08198e-13,-2.33901e-01
8.47473e+02,6.64000e+02,6.70000e+02,-6.00000e+00,3.37419e-13,-2.26356e-01,6.01053e-13,-2.26356e-01,7.00212e-13,-2.26356e-01
8.47720e+02,6.55000e+02,6.66000e+02,-1.10000e+01,8.47409e-13,-2.18811e-01,1.06774e-12,-2.18811e-01,1.65398e-12,-2.18811e-01
8.47968e+02,6.59000e+02,6.63000e+02,-4.00000e+00,7.57443e-13,-2.11266e-01,1.07832e-12,-2.11266e-01,1.42696e-12,-2.11266e-01
8.48216e+02,6.62000e+02,6.71000e+02,-9.00000e+00,2.61634e-13,-2.03720e-01,1.36751e-12,-2.03720e-01,1.62889e-12,-2.03720e-01
8.48464e+02,6.58000e+02,6.65000e+02,-7.00000e+00,1.82052e-12,-1.96175e-01,2.78950e-12,-1.96175e-01,4.55934e-12,-1.96175e-01
8.48712e+02,6.72000e+02,6.51000e+02,2.10000e+01,3.36734e-12,-1.88630e-01,4.56701e-12,-1.88630e-01,7.91066e-12,-1.88630e-01
8.48960e+02,6.72000e+02,6.61000e+02,1.10000e+01,2.68888e-12,-1.81085e-01,3.44896e-12,-1.81085e-01,6.08215e-12,-1.81085e-01
8.49207e+02,6.64000e+02,6.67000e+02,-3.00000e+00,1.24419e-12,-1.73540e-01,2.05998e-12,-1.73540e-01,3.30381e-12,-1.73540e-01
8.49455e+02,6.57000e+02,6.57000e+02,0.00000e+00,4.75149e-13,-1.65994e-01,8.54790e-13,-1.65994e-01,1.32837e-12,-1.65994e-01
8.49703e+02,6.53000e+02,6.57000e+02,-4.00000e+00,8.91434e-13,-1.58449e-01,1.40813e-12,-1.58449e-01,2.22873e-12,-1.58449e-01
8.49951e+02,6.68000e+02,6.82000e+02,-1.40000e+01,9.42681e-13,-1.50904e-01,1.59902e-12,-1.50904e-01,2.34870e-12,-1.50904e-01
8.50198e+02,6.71000e+02,6.70000e+02,1.00000e+00,4.71930e-13,-1.43359e-01,6.50043e-13,-1.43359e-01,1.04587e-12,-1.43359e-01
8.50446e+02,6.49000e+02,6.54000e+02,-5.00000e+00,1.32266e-13,-1.35814e-01,6.63198e-13,-1.35814e-01,6.33534e-13,-1.35814e-01
8.50694e+02,6.70000e+02,6.64000e+02,6.00000e+00,3.72641e-13,-1.28268e-01,1.09152e-12,-1.28268e-01,1.15666e-12,-1.28268e-01
8.50941e+02,6.76000e+02,6.90000e+02,-1.40000e+01,2.78272e-14,-1.20723e-01,9.49124e-13,-1.20723e-01,9.63760e-13,-1.20723e-01
8.51189e+02,6.65000e+02,6.62000e+02,3.00000e+00,1.66601e-13,-1.13178e-01,6.09313e-13,-1.13178e-01,4.56401e-13,-1.13178e-01
8.51437e+02,6.58000e+02,6.72000e+02,-1.40000e+01,3.47503e-13,-1.05633e-01,5.16398e-13,-1.05633e-01,3.08992e-13,-1.05633e-01
8.51685e+02,6.51000e+02,6.52000e+02,-1.00000e+00,3.34371e-13,-9.80876e-02,8.26424e-13,-9.80876e-02,5.85085e-13,-9.80876e-02
8.51932e+02,6.54000e+02,6.62000e+02,-8.00000e+00,3.86581e-13,-9.05424e-02,6.75217e-13,-9.05424e-02,9.62477e-13,-9.05424e-02
8.52180e+02,6.68000e+02,6.59000e+02,9.00000e+00,5.07217e-13,-8.29972e-02,1.23165e-12,-8.29972e-02,1.41809e-12,-8.29972e-02
8.52428e+02,6.55000e+02,6.56000e+02,-1.00000e+00,4.85318e-13,-7.54520e-02,8.54614e-13,-7.54520e-02,1.24945e-12,-7.54520e-02
8.52675e+02,6.53000e+02,6.52000e+02,1.00000e+00,1.35003e-13,-6.79068e-02,1.17679e-12,-6.79068e-02,1.04291e-12,-6.79068e-02
8.52923e+02,6.60000e+02,6.64000e+02,-4.00000e+00,3.24920e-13,-6.03616e-02,1.35221e-12,-6.03616e-02,1.10871e-12,-6.03616e-02
8.53170e+02,6.60000e+02,6.66000e+02,-6.00000e+00,5.21849e-13,-5.28164e-02,6.89464e-13,-5.28164e-02,1.08770e-12,-5.28164e-02
8.53418e+02,6.59000e+02,6.52000e+02,7.00000e+00,3.36765e-12,-4.52712e-02,3.71295e-12,-4.52712e-02,1.26085e-12,-4.52712e-02
8.53666e+02,6.50000e+02,6.60000e+02,-1.00000e+01,4.71136e-12,-3.77260e-02,5.29848e-12,-3.77260e-02,1.44439e-12,-3.77260e-02
8.53913e+02,6.57000e+02,6.77000e+02,-2.00000e+01,7.24447e-12,-3.01808e-02,8.22328e-12,-3.01808e-02,1.27263e-12,-3.01808e-02
8.54161e+02,6.60000e+02,6.53000e+02,7.00000e+00,7.52633e-12,-2.26356e-02,7.67615e-12,-2.26356e-02,7.33864e-13,-2.26356e-02
8.54409e+02,6.56000e+02,6.60000e+02,-4.00000e+00,1.37699e-11,-1.50904e-02,1.45325e-11,-1.50904e-02,7.88030e-13,-1.50904e-02
8.54656e+02,6.58000e+02,6.46000e+02,1.20000e+01,2.71364e-11,-7.54520e-03,2.86356e-11,-7.54520e-03,1.51038e-12,-7.54520e-03
