7.67698e+02,6.82000e+02,6.88000e+02,-6.00000e+00,2.11529e-10,0.00000e+00,2.13126e-10,0.00000e+00,1.59647e-12,0.00000e+00
7.67949e+02,6.79000e+02,6.98000e+02,-1.90000e+01,9.86668e-11,7.54520e-03,1.00278e-10,7.54520e-03,2.45062e-12,7.54520e-03
7.68199e+02,6.84000e+02,7.09000e+02,-2.50000e+01,3.88697e-11,1.50904e-02,4.06037e-11,1.50904e-02,2.08694e-12,1.50904e-02
7.68450e+02,6.82000e+02,7.08000e+02,-2.60000e+01,1.11642e-11,2.26356e-02,1.20540e-11,2.26356e-02,1.01976e-12,2.26356e-02
7.68701e+02,6.90000e+02,7.03000e+02,-1.30000e+01,3.16182e-12,3.01808e-02,3.77671e-12,3.01808e-02,7.96124e-13,3.01808e-02
7.68951e+02,6.92000e+02,6.82000e+02,1.00000e+01,5.63217e-12,3.77260e-02,5.53412e-12,3.77260e-02,6.81185e-13,3.77260e-02
7.69202e+02,7.29000e+02,7.01000e+02,2.80000e+01,7.54992e-12,4.52712e-02,6.98445e-12,4.52712e-02,1.37464e-12,4.52712e-02
7.69453e+02,7.07000e+02,6.99000e+02,8.00000e+00,4.99151e-12,5.28164e-02,4.75735e-12,5.28164e-02,6.31160e-13,5.28164e-02
7.69703e+02,7.00000e+02,6.89000e+02,1.10000e+01,2.41131e-12,6.03616e-02,2.42002e-12,6.03616e-02,6.83238e-13,6.03616e-02
7.69954e+02,7.29000e+02,6.93000e+02,3.60000e+01,9.66472e-13,6.79068e-02,9.43872e-13,6.79068e-02,1.62872e-12,6.79068e-02
7.70205e+02,7.47000e+02,7.08000e+02,3.90000e+01,6.62622e-13,7.54520e-02,1.62471e-12,7.54520e-02,1.43724e-12,7.54520e-02
7.70455e+02,7.23000e+02,7.40000e+02,-1.70000e+01,9.75333e-13,8.29972e-02,1.84013e-12,8.29972e-02,2.64977e-12,8.29972e-02
7.70706e+02,7.12000e+02,7.45000e+02,-3.30000e+01,1.54435e-12,9.05424e-02,2.00668e-12,9.05424e-02,3.52217e-12,9.05424e-02
7.70957e+02,6.93000e+02,7.51000e+02,-5.80000e+01,2.11209e-12,9.80876e-02,1.55965e-12,9.80876e-02,3.53760e-12,9.80876e-02
7.71207e+02,7.14000e+02,7.44000e+02,-3.00000e+01,3.05398e-12,1.05633e-01,1.17278e-12,1.05633e-01,2.86214e-12,1.05633e-01
7.71458e+02,7.15000e+02,7.42000e+02,-2.70000e+01,2.49490e-12,1.13178e-01,1.02574e-12,1.13178e-01,1.83444e-12,1.13178e-01
7.71708e+02,7.10000e+02,7.44000e+02,-3.40000e+01,1.98032e-12,1.20723e-01,7.82340e-13,1.20723e-01,1.76352e-12,1.20723e-01
7.71959e+02,7.27000e+02,7.84000e+02,-5.70000e+01,1.01826e-12,1.28268e-01,1.56799e-12,1.28268e-01,2.45187e-12,1.28268e-01
7.72210e+02,7.58000e+02,7.85000e+02,-2.70000e+01,7.24812e-13,1.35814e-01,2.49221e-12,1.35814e-01,3.13830e-12,1.35814e-01
7.72460e+02,8.16000e+02,7.63000e+02,5.30000e+01,1.96810e-12,1.43359e-01,2.06080e-12,1.43359e-01,2.75578e-12,1.43359e-01
7.72711e+02,7.98000e+02,7.55000e+02,4.30000e+01,4.72289e-12,1.50904e-01,4.46211e-13,1.50904e-01,5.06296e-12,1.50904e-01
7.72961e+02,7.85000e+02,7.19000e+02,6.60000e+01,4.47557e-12,1.58449e-01,3.60873e-13,1.58449e-01,4.20135e-12,1.58449e-01
7.73212e+02,7.70000e+02,7.35000e+02,3.50000e+01,3.06241e-12,1.65994e-01,1.42549e-12,1.65994e-01,4.28456e-12,1.65994e-01
7.73462e+02,8.01000e+02,7.51000e+02,5.00000e+01,5.82666e-12,1.73540e-01,7.85447e-12,1.73540e-01,1.36095e-11,1.73540e-01
7.73713e+02,8.51000e+02,7.63000e+02,8.80000e+01,1.46969e-11,1.81085e-01,1.83763e-11,1.81085e-01,3.27866e-11,1.81085e-01
7.73963e+02,8.57000e+02,8.21000e+02,3.60000e+01,2.17166e-11,1.88630e-01,2.26714e-11,1.88630e-01,4.40620e-11,1.88630e-01
7.74214e+02,8.10000e+02,8.80000e+02,-7.00000e+01,1.57322e-11,1.96175e-01,1.42406e-11,1.96175e-01,2.99582e-11,1.96175e-01
7.74465e+02,8.00000e+02,9.05000e+02,-1.05000e+02,5.17169e-12,2.03720e-01,4.87129e-12,2.03720e-01,9.82326e-12,2.03720e-01
7.74715e+02,7.78000e+02,8.69000e+02,-9.10000e+01,1.30719e-12,2.11266e-01,1.02326e-12,2.11266e-01,1.36277e-12,2.11266e-01
7.74965e+02,7.60000e+02,8.25000e+02,-6.50000e+01,3.15222e-12,2.18811e-01,2.35175e-12,2.18811e-01,5.47753e-12,2.18811e-01
7.75216e+02,7.83000e+02,8.40000e+02,-5.70000e+01,1.85908e-12,2.26356e-01,1.29187e-12,2.26356e-01,3.13052e-12,2.26356e-01
7.75466e+02,8.16000e+02,9.22000e+02,-1.06000e+02,6.63190e-13,2.33901e-01,1.02839e-12,2.33901e-01,6.53066e-13,2.33901e-01
7.75717e+02,8.61000e+02,9.31000e+02,-7.00000e+01,2.02357e-12,2.41446e-01,5.54787e-13,2.41446e-01,1.52056e-12,2.41446e-01
7.75967e+02,9.24000e+02,8.88000e+02,3.60000e+01,2.41658e-12,2.48992e-01,6.24266e-13,2.48992e-01,1.79994e-12,2.48992e-01
7.76218e+02,9.63000e+02,8.68000e+02,9.50000e+01,2.14117e-12,2.56537e-01,1.26446e-12,2.56537e-01,1.00505e-12,2.56537e-01
7.76468e+02,9.65000e+02,8.34000e+02,1.31000e+02,1.92084e-12,2.64082e-01,2.15296e-12,2.64082e-01,2.44029e-13,2.64082e-01
7.76719e+02,9.41000e+02,8.17000e+02,1.24000e+02,1.54065e-12,2.71627e-01,2.30178e-12,2.71627e-01,9.41461e-13,2.71627e-01
7.76969e+02,9.09000e+02,8.19000e+02,9.00000e+01,1.04267e-12,2.79172e-01,1.79476e-12,2.79172e-01,1.15246e-12,2.79172e-01
7.77219e+02,9.61000e+02,8.62000e+02,9.90000e+01,4.22525e-13,2.86718e-01,9.29034e-13,2.86718e-01,1.00178e-12,2.86718e-01
7.77470e+02,1.05900e+03,9.22000e+02,1.37000e+02,1.96997e-12,2.94263e-01,1.96418e-12,2.94263e-01,3.44147e-13,2.94263e-01
7.77720e+02,1.07400e+03,1.07200e+03,2.00000e+00,6.37448e-12,3.01808e-01,5.72096e-12,3.01808e-01,6.53649e-13,3.01808e-01
7.77971e+02,9.92000e+02,1.12400e+03,-1.32000e+02,1.20705e-11,3.09353e-01,1.14993e-11,3.09353e-01,8.59154e-13,3.09353e-01
7.78221e+02,9.38000e+02,1.10100e+03,-1.63000e+02,1.56694e-11,3.16898e-01,1.58176e-11,3.16898e-01,7.32352e-13,3.16898e-01
7.78471e+02,8.93000e+02,1.03100e+03,-1.38000e+02,1.50905e-11,3.24444e-01,1.51067e-11,3.24444e-01,1.40931e-13,3.24444e-01
7.78722e+02,8.86000e+02,9.37000e+02,-5.10000e+01,1.02426e-11,3.31989e-01,9.77963e-12,3.31989e-01,1.36642e-12,3.31989e-01
7.78972e+02,9.00000e+02,9.19000e+02,-1.90000e+01,2.73999e-12,3.39534e-01,4.25577e-12,3.39534e-01,2.44982e-12,3.39534e-01
7.79222e+02,9.36000e+02,9.73000e+02,-3.70000e+01,2.06658e-12,3.47079e-01,3.64567e-12,3.47079e-01,2.47432e-12,3.47079e-01
7.79473e+02,1.00100e+03,1.00200e+03,-1.00000e+00,4.11244e-13,3.54624e-01,1.32872e-12,3.54624e-01,1.16900e-12,3.54624e-01
7.79723e+02,1.16800e+03,9.68000e+02,2.00000e+02,1.83157e-12,3.62169e-01,9.51040e-13,3.62169e-01,1.05707e-12,3.62169e-01
7.79973e+02,1.24000e+03,9.80000e+02,2.60000e+02,1.14662e-12,3.69715e-01,4.78110e-13,3.69715e-01,1.37148e-12,3.69715e-01
7.80224e+02,1.21600e+03,1.04000e+03,1.76000e+02,4.79802e-13,3.77260e-01,1.01750e-12,3.77260e-01,7.96736e-13,3.77260e-01
7.80474e+02,1.07700e+03,1.04100e+03,3.60000e+01,7.54561e-13,3.84805e-01,1.68453e-12,3.84805e-01,9.82036e-13,3.84805e-01
7.80724e+02,1.00000e+03,1.00600e+03,-6.00000e+00,9.90365e-13,3.92350e-01,1.72916e-12,3.92350e-01,1.49056e-12,3.92350e-01
7.80974e+02,1.00800e+03,9.86000e+02,2.20000e+01,1.18349e-12,3.99895e-01,1.79709e-12,3.99895e-01,1.96809e-12,3.99895e-01
7.81225e+02,1.07600e+03,1.17200e+03,-9.60000e+01,1.34023e-12,4.07441e-01,1.99749e-12,4.07441e-01,2.48200e-12,4.07441e-01
7.81475e+02,1.09700e+03,1.39500e+03,-2.98000e+02,7.74135e-13,4.14986e-01,2.00072e-12,4.14986e-01,2.32931e-12,4.14986e-01
7.81725e+02,1.09100e+03,1.44600e+03,-3.55000e+02,6.69702e-13,4.22531e-01,1.70440e-12,4.22531e-01,2.34044e-12,4.22531e-01
7.81975e+02,1.11600e+03,1.33400e+03,-2.18000e+02,1.18901e-12,4.30076e-01,1.25593e-12,4.30076e-01,2.26119e-12,4.30076e-01
7.82226e+02,1.11600e+03,1.12500e+03,-9.00000e+00,1.06695e-12,4.37621e-01,7.89802e-13,4.37621e-01,1.48322e-12,4.37621e-01
7.82476e+02,1.03800e+03,1.00000e+03,3.80000e+01,8.00592e-13,4.45167e-01,5.55428e-13,4.45167e-01,9.17845e-13,4.45167e-01
7.82726e+02,1.02800e+03,1.01400e+03,1.40000e+01,9.65083e-13,4.52712e-01,9.50306e-13,4.52712e-01,1.87368e-12,4.52712e-01
7.82976e+02,1.09500e+03,1.02900e+03,6.60000e+01,1.58808e-12,4.60257e-01,1.57235e-12,4.60257e-01,3.03489e-12,4.60257e-01
7.83226e+02,1.28500e+03,1.07800e+03,2.07000e+02,1.81536e-12,4.67802e-01,1.35220e-12,4.67802e-01,3.02262e-12,4.67802e-01
7.83477e+02,1.50400e+03,1.10800e+03,3.96000e+02,1.42217e-12,4.75347e-01,1.08604e-12,4.75347e-01,2.06779e-12,4.75347e-01
7.83727e+02,1.57100e+03,1.20200e+03,3.69000e+02,1.66580e-12,4.82893e-01,2.49500e-12,4.82893e-01,4.00155e-12,4.82893e-01
7.83977e+02,1.38600e+03,1.32000e+03,6.60000e+01,4.06557e-12,4.90438e-01,5.20307e-12,4.90438e-01,9.25192e-12,4.90438e-01
7.84227e+02,1.17800e+03,1.35800e+03,-1.80000e+02,5.93864e-12,4.97983e-01,8.43657e-12,4.97983e-01,1.43576e-11,4.97983e-01
7.84477e+02,1.06500e+03,1.21100e+03,-1.46000e+02,8.46381e-12,5.05528e-01,1.06656e-11,5.05528e-01,1.89786e-11,5.05528e-01
7.84727e+02,1.06800e+03,1.16300e+03,-9.50000e+01,9.34050e-12,5.13073e-01,1.01833e-11,5.13073e-01,1.93144e-11,5.13073e-01
7.84978e+02,1.08500e+03,1.34600e+03,-2.61000e+02,6.76206e-12,5.20619e-01,6.28081e-12,5.20619e-01,1.28217e-11,5.20619e-01
7.85228e+02,1.12000e+03,1.44300e+03,-3.23000e+02,2.44151e-12,5.28164e-01,2.09657e-12,5.28164e-01,4.35280e-12,5.28164e-01
7.85478e+02,1.17000e+03,1.42700e+03,-2.57000e+02,2.53287e-12,5.35709e-01,2.19624e-12,5.35709e-01,4.62325e-12,5.35709e-01
7.85728e+02,1.28300e+03,1.34100e+03,-5.80000e+01,1.94038e-12,5.43254e-01,9.56875e-13,5.43254e-01,2.80457e-12,5.43254e-01
7.85978e+02,1.34300e+03,1.15600e+03,1.87000e+02,9.64351e-13,5.50799e-01,5.44425e-13,5.50799e-01,1.50475e-12,5.50799e-01
7.86228e+02,1.27100e+03,1.03800e+03,2.33000e+02,3.55481e-13,5.58345e-01,4.94179e-13,5.58345e-01,8.49518e-13,5.58345e-01
7.86478e+02,1.16100e+03,1.05500e+03,1.06000e+02,4.01942e-13,5.65890e-01,6.79046e-13,5.65890e-01,6.14923e-13,5.65890e-01
7.86728e+02,1.22200e+03,1.05800e+03,1.64000e+02,4.01827e-13,5.73435e-01,8.68770e-13,5.73435e-01,1.19177e-12,5.73435e-01
7.86978e+02,1.58400e+03,1.07300e+03,5.11000e+02,6.79217e-13,5.80980e-01,7.20888e-13,5.80980e-01,1.39639e-12,5.80980e-01
7.87228e+02,1.81500e+03,1.13500e+03,6.80000e+02,6.67164e-13,5.88525e-01,7.76287e-13,5.88525e-01,1.33109e-12,5.88525e-01
7.87478e+02,1.76600e+03,1.36300e+03,4.03000e+02,6.53840e-13,5.96071e-01,1.10418e-12,5.96071e-01,1.37312e-12,5.96071e-01
7.87728e+02,1.42600e+03,1.53400e+03,-1.08000e+02,6.16213e-13,6.03616e-01,1.09966e-12,6.03616e-01,1.33215e-12,6.03616e-01
7.87978e+02,1.15400e+03,1.51900e+03,-3.65000e+02,1.39822e-13,6.11161e-01,4.66202e-13,6.11161e-01,3.41507e-13,6.11161e-01
7.88228e+02,1.02600e+03,1.35000e+03,-3.24000e+02,4.37962e-13,6.18706e-01,2.50405e-13,6.18706e-01,6.78775e-13,6.18706e-01
7.88478e+02,1.07400e+03,1.33300e+03,-2.59000e+02,1.03247e-12,6.26251e-01,2.86409e-13,6.26251e-01,1.30613e-12,6.26251e-01
7.88728e+02,1.10000e+03,1.52300e+03,-4.23000e+02,1.08101e-12,6.33797e-01,1.94191e-13,6.33797e-01,1.22834e-12,6.33797e-01
7.88978e+02,1.10200e+03,1.83500e+03,-7.33000e+02,7.15977e-13,6.41342e-01,1.05092e-13,6.41342e-01,6.35522e-13,6.41342e-01
7.89228e+02,1.23200e+03,1.85800e+03,-6.26000e+02,5.87584e-13,6.48887e-01,5.92228e-13,6.48887e-01,1.53375e-13,6.48887e-01
7.89478e+02,1.45600e+03,1.65200e+03,-1.96000e+02,9.98194e-13,6.56432e-01,8.39127e-13,6.56432e-01,8.02303e-13,6.56432e-01
7.89728e+02,1.66100e+03,1.30500e+03,3.56000e+02,1.20078e-12,6.63977e-01,1.00141e-12,6.63977e-01,1.29815e-12,6.63977e-01
7.89978e+02,1.68900e+03,1.11500e+03,5.74000e+02,1.03171e-12,6.71523e-01,6.15653e-13,6.71523e-01,1.09473e-12,6.71523e-01
7.90228e+02,1.58200e+03,1.13400e+03,4.48000e+02,5.23208e-13,6.79068e-01,5.69631e-14,6.79068e-01,5.73927e-13,6.79068e-01
7.90478e+02,1.56400e+03,1.25000e+03,3.14000e+02,5.26697e-13,6.86613e-01,3.77600e-13,6.86613e-01,7.15610e-13,6.86613e-01
7.90728e+02,1.81300e+03,1.23500e+03,5.78000e+02,7.97253e-13,6.94158e-01,5.14028e-13,6.94158e-01,8.88899e-13,6.94158e-01
7.90978e+02,2.28500e+03,1.36200e+03,9.23000e+02,6.43622e-13,7.01703e-01,6.53419e-13,7.01703e-01,9.11295e-14,7.01703e-01
7.91228e+02,2.41900e+03,1.72900e+03,6.90000e+02,2.37049e-13,7.09249e-01,1.15208e-12,7.09249e-01,1.07533e-12,7.09249e-01
7.91478e+02,1.97900e+03,2.18400e+03,-2.05000e+02,6.57910e-13,7.16794e-01,1.39761e-12,7.16794e-01,1.83414e-12,7.16794e-01
7.91728e+02,1.42400e+03,2.13500e+03,-7.11000e+02,5.45396e-13,7.24339e-01,8.75671e-13,7.24339e-01,1.27543e-12,7.24339e-01
7.91977e+02,1.18200e+03,1.83200e+03,-6.50000e+02,2.23646e-13,7.31884e-01,4.92917e-13,7.31884e-01,5.17946e-13,7.31884e-01
7.92227e+02,1.21100e+03,1.50000e+03,-2.89000e+02,4.87433e-14,7.39429e-01,3.02881e-13,7.39429e-01,3.45445e-13,7.39429e-01
7.92477e+02,1.26100e+03,1.62700e+03,-3.66000e+02,1.24820e-13,7.46975e-01,3.85090e-13,7.46975e-01,4.23369e-13,7.46975e-01
7.92727e+02,1.33600e+03,2.03700e+03,-7.01000e+02,2.53916e-13,7.54520e-01,6.11407e-13,7.54520e-01,8.50411e-13,7.54520e-01
7.92977e+02,1.47000e+03,2.14100e+03,-6.71000e+02,2.36486e-13,7.62065e-01,5.80715e-13,7.62065e-01,7.79847e-13,7.62065e-01
7.93227e+02,1.86800e+03,1.95400e+03,-8.60000e+01,1.64732e-13,7.69610e-01,1.12023e-13,7.69610e-01,2.35067e-13,7.69610e-01
7.93476e+02,2.29600e+03,1.61800e+03,6.78000e+02,4.87922e-13,7.77155e-01,1.38823e-13,7.77155e-01,3.90438e-13,7.77155e-01
7.93726e+02,2.40500e+03,1.44500e+03,9.60000e+02,6.00119e-13,7.84701e-01,1.18390e-13,7.84701e-01,5.14357e-13,7.84701e-01
7.93976e+02,2.25300e+03,1.44500e+03,8.08000e+02,8.45352e-13,7.92246e-01,1.61451e-13,7.92246e-01,8.70896e-13,7.92246e-01
7.94226e+02,2.06000e+03,1.46000e+03,6.00000e+02,8.15531e-13,7.99791e-01,4.00328e-13,7.99791e-01,1.14254e-12,7.99791e-01
7.94476e+02,2.33200e+03,1.43900e+03,8.93000e+02,6.57508e-13,8.07336e-01,6.75967e-13,8.07336e-01,1.32513e-12,8.07336e-01
7.94725e+02,3.04400e+03,1.63200e+03,1.41200e+03,4.64886e-13,8.14881e-01,9.48878e-13,8.14881e-01,1.33931e-12,8.14881e-01
7.94975e+02,3.09500e+03,2.30700e+03,7.88000e+02,6.03175e-13,8.22427e-01,8.87518e-13,8.22427e-01,1.16653e-12,8.22427e-01
7.95225e+02,2.46600e+03,3.16800e+03,-7.02000e+02,5.95404e-13,8.29972e-01,8.11807e-13,8.29972e-01,1.12260e-12,8.29972e-01
7.95475e+02,1.81400e+03,2.93400e+03,-1.12000e+03,3.03311e-13,8.37517e-01,2.68272e-13,8.37517e-01,4.09698e-13,8.37517e-01
7.95724e+02,1.58600e+03,2.39500e+03,-8.09000e+02,1.74857e-13,8.45062e-01,2.58164e-13,8.45062e-01,4.07334e-13,8.45062e-01
7.95974e+02,1.58300e+03,1.99600e+03,-4.13000e+02,3.89087e-13,8.52607e-01,3.85097e-13,8.52607e-01,6.76576e-13,8.52607e-01
7.96224e+02,1.61900e+03,1.88900e+03,-2.70000e+02,3.91358e-13,8.60153e-01,6.81844e-13,8.60153e-01,7.16496e-13,8.60153e-01
7.96474e+02,1.68500e+03,2.15200e+03,-4.67000e+02,3.73197e-13,8.67698e-01,7.69276e-13,8.67698e-01,7.90734e-13,8.67698e-01
7.96723e+02,1.94600e+03,2.42700e+03,-4.81000e+02,2.75501e-13,8.75243e-01,7.64424e-13,8.75243e-01,7.15654e-13,8.75243e-01
7.96973e+02,2.53900e+03,2.27600e+03,2.63000e+02,4.68805e-13,8.82788e-01,5.77138e-13,8.82788e-01,6.44860e-13,8.82788e-01
7.97223e+02,3.19900e+03,2.02400e+03,1.17500e+03,5.80961e-13,8.90333e-01,5.30814e-13,8.90333e-01,9.30785e-13,8.90333e-01
7.97472e+02,3.55600e+03,1.94600e+03,1.61000e+03,4.49702e-13,8.97879e-01,5.00848e-13,8.97879e-01,9.37871e-13,8.97879e-01
7.97722e+02,3.50100e+03,2.22700e+03,1.27400e+03,3.54026e-13,9.05424e-01,5.48156e-13,9.05424e-01,8.94896e-13,9.05424e-01
7.97972e+02,2.76800e+03,2.54100e+03,2.27000e+02,3.36694e-13,9.12969e-01,3.32561e-13,9.12969e-01,6.37629e-13,9.12969e-01
7.98221e+02,2.48600e+03,2.25900e+03,2.27000e+02,1.18997e-13,9.20514e-01,2.81057e-13,9.20514e-01,3.81385e-13,9.20514e-01
7.98471e+02,2.90800e+03,2.28300e+03,6.25000e+02,7.30862e-14,9.28059e-01,2.65594e-13,9.28059e-01,3.30709e-13,9.28059e-01
7.98721e+02,3.17000e+03,3.12400e+03,4.60000e+01,2.29822e-13,9.35605e-01,2.22855e-13,9.35605e-01,2.76159e-13,9.35605e-01
7.98970e+02,2.77800e+03,4.51400e+03,-1.73600e+03,1.42785e-13,9.43150e-01,3.17182e-13,9.43150e-01,2.07769e-13,9.43150e-01
7.99220e+02,2.15700e+03,4.89100e+03,-2.73400e+03,2.17193e-13,9.50695e-01,4.49911e-13,9.50695e-01,4.64827e-13,9.50695e-01
7.99469e+02,2.06600e+03,4.10700e+03,-2.04100e+03,2.46119e-13,9.58240e-01,4.88740e-13,9.58240e-01,5.82301e-13,9.58240e-01
7.99719e+02,2.32200e+03,3.08600e+03,-7.64000e+02,1.93036e-13,9.65785e-01,3.00129e-13,9.65785e-01,4.46070e-13,9.65785e-01
7.99969e+02,2.51900e+03,2.22800e+03,2.91000e+02,1.66923e-13,9.73331e-01,4.80990e-14,9.73331e-01,1.58836e-13,9.73331e-01
8.00218e+02,2.29000e+03,1.96000e+03,3.30000e+02,1.30402e-13,9.80876e-01,1.63448e-13,9.80876e-01,1.12876e-13,9.80876e-01
8.00468e+02,2.50900e+03,2.21900e+03,2.90000e+02,1.47400e-13,9.88421e-01,3.26169e-13,9.88421e-01,2.76092e-13,9.88421e-01
8.00717e+02,3.49900e+03,2.17500e+03,1.32400e+03,1.84714e-14,9.95966e-01,4.11132e-13,9.95966e-01,4.01678e-13,9.95966e-01
8.00967e+02,4.65500e+03,2.24500e+03,2.41000e+03,2.59995e-13,1.00351e+00,7.44513e-13,1.00351e+00,4.94347e-13,1.00351e+00
8.01216e+02,4.82300e+03,2.65500e+03,2.16800e+03,4.29358e-13,1.01106e+00,8.67855e-13,1.01106e+00,4.64616e-13,1.01106e+00
8.01466e+02,4.02400e+03,3.25200e+03,7.72000e+02,5.84730e-13,1.01860e+00,8.30380e-13,1.01860e+00,4.51820e-13,1.01860e+00
8.01715e+02,2.80600e+03,3.36500e+03,-5.59000e+02,4.83563e-13,1.02615e+00,3.52206e-13,1.02615e+00,5.07283e-13,1.02615e+00
8.01965e+02,2.07100e+03,2.82800e+03,-7.57000e+02,4.34009e-13,1.03369e+00,1.34803e-13,1.03369e+00,3.78151e-13,1.03369e+00
8.02215e+02,2.02200e+03,2.68300e+03,-6.61000e+02,2.71091e-13,1.04124e+00,5.14834e-13,1.04124e+00,2.61643e-13,1.04124e+00
8.02464e+02,2.22800e+03,3.03400e+03,-8.06000e+02,4.71189e-14,1.04878e+00,4.34584e-13,1.04878e+00,4.29391e-13,1.04878e+00
8.02713e+02,2.40200e+03,4.20000e+03,-1.79800e+03,2.31703e-13,1.05633e+00,4.26076e-13,1.05633e+00,5.17723e-13,1.05633e+00
8.02963e+02,2.68600e+03,5.32200e+03,-2.63600e+03,3.20789e-13,1.06387e+00,5.69290e-13,1.06387e+00,5.73239e-13,1.06387e+00
8.03212e+02,3.38100e+03,4.94300e+03,-1.56200e+03,7.42863e-14,1.07142e+00,6.33242e-13,1.07142e+00,5.90217e-13,1.07142e+00
8.03462e+02,4.25000e+03,3.92100e+03,3.29000e+02,9.57932e-14,1.07896e+00,5.33781e-13,1.07896e+00,5.02693e-13,1.07896e+00
8.03711e+02,4.60200e+03,2.67000e+03,1.93200e+03,1.50456e-13,1.08651e+00,3.89597e-13,1.08651e+00,3.57226e-13,1.08651e+00
8.03961e+02,4.39300e+03,2.11700e+03,2.27600e+03,1.92628e-13,1.09405e+00,2.69766e-13,1.09405e+00,9.09326e-14,1.09405e+00
8.04210e+02,3.70000e+03,2.40800e+03,1.29200e+03,1.39898e-13,1.10160e+00,2.81217e-13,1.10160e+00,1.90648e-13,1.10160e+00
8.04460e+02,3.63000e+03,2.34800e+03,1.28200e+03,1.54005e-13,1.10914e+00,4.15578e-13,1.10914e+00,3.53450e-13,1.10914e+00
8.04709e+02,4.61200e+03,2.41500e+03,2.19700e+03,2.84428e-13,1.11669e+00,3.99354e-13,1.11669e+00,1.88147e-13,1.11669e+00
8.04958e+02,5.71800e+03,3.17000e+03,2.54800e+03,2.53671e-13,1.12423e+00,2.96831e-13,1.12423e+00,3.55694e-13,1.12423e+00
8.05208e+02,5.18900e+03,4.41800e+03,7.71000e+02,2.68190e-13,1.13178e+00,3.26818e-13,1.13178e+00,4.94073e-13,1.13178e+00
8.05457e+02,3.59000e+03,5.77200e+03,-2.18200e+03,1.55905e-13,1.13932e+00,2.59428e-13,1.13932e+00,4.13820e-13,1.13932e+00
8.05707e+02,2.92900e+03,5.46900e+03,-2.54000e+03,1.90759e-13,1.14687e+00,2.17395e-13,1.14687e+00,4.02329e-13,1.14687e+00
8.05956e+02,2.60500e+03,4.29000e+03,-1.68500e+03,1.53542e-13,1.15442e+00,7.30656e-14,1.15442e+00,1.13690e-13,1.15442e+00
8.06205e+02,2.54900e+03,3.68300e+03,-1.13400e+03,1.92940e-13,1.16196e+00,6.48757e-14,1.16196e+00,1.33642e-13,1.16196e+00
8.06455e+02,2.62200e+03,4.08100e+03,-1.45900e+03,2.84892e-13,1.16951e+00,9.15337e-14,1.16951e+00,2.14105e-13,1.16951e+00
8.06704e+02,3.00900e+03,5.48000e+03,-2.47100e+03,2.60461e-13,1.17705e+00,2.10395e-14,1.17705e+00,2.58384e-13,1.17705e+00
8.06953e+02,4.08000e+03,6.20800e+03,-2.12800e+03,1.37390e-13,1.18460e+00,1.78831e-13,1.18460e+00,5.81418e-14,1.18460e+00
8.07203e+02,5.81700e+03,5.36100e+03,4.56000e+02,2.19226e-13,1.19214e+00,3.19577e-13,1.19214e+00,1.62332e-13,1.19214e+00
8.07452e+02,6.64000e+03,3.96500e+03,2.67500e+03,3.03664e-13,1.19969e+00,4.05391e-13,1.19969e+00,3.27927e-13,1.19969e+00
8.07701e+02,6.22800e+03,3.29700e+03,2.93100e+03,3.14452e-13,1.20723e+00,3.65245e-13,1.20723e+00,3.59979e-13,1.20723e+00
8.07951e+02,5.18600e+03,3.58600e+03,1.60000e+03,2.69948e-13,1.21478e+00,8.78597e-14,1.21478e+00,2.68629e-13,1.21478e+00
8.08200e+02,4.31300e+03,3.63900e+03,6.74000e+02,2.73043e-13,1.22232e+00,1.29745e-13,1.22232e+00,3.83452e-13,1.22232e+00
8.08449e+02,4.33600e+03,3.47100e+03,8.65000e+02,2.28001e-13,1.22987e+00,1.42022e-13,1.22987e+00,3.53154e-13,1.22987e+00
8.08698e+02,5.45300e+03,4.13800e+03,1.31500e+03,1.34364e-13,1.23741e+00,2.16044e-13,1.23741e+00,3.50040e-13,1.23741e+00
8.08948e+02,6.16400e+03,6.20300e+03,-3.90000e+01,2.45587e-13,1.24496e+00,1.74994e-14,1.24496e+00,2.62303e-13,1.24496e+00
8.09197e+02,5.23500e+03,7.59300e+03,-2.35800e+03,2.74751e-13,1.25250e+00,1.77192e-13,1.25250e+00,1.06073e-13,1.25250e+00
8.09446e+02,4.37600e+03,7.83500e+03,-3.45900e+03,2.54535e-13,1.26005e+00,2.22898e-13,1.26005e+00,1.08388e-13,1.26005e+00
8.09695e+02,4.07200e+03,6.86200e+03,-2.79000e+03,4.88806e-14,1.26759e+00,8.63482e-14,1.26759e+00,4.48313e-14,1.26759e+00
8.09945e+02,4.20900e+03,5.23800e+03,-1.02900e+03,2.14720e-13,1.27514e+00,1.52422e-13,1.27514e+00,1.16209e-13,1.27514e+00
8.10194e+02,3.91500e+03,4.17300e+03,-2.58000e+02,3.05572e-13,1.28268e+00,9.31290e-14,1.28268e+00,2.36710e-13,1.28268e+00
8.10443e+02,3.86300e+03,4.42800e+03,-5.65000e+02,3.15963e-13,1.29023e+00,2.98162e-13,1.29023e+00,2.67527e-13,1.29023e+00
8.10692e+02,4.29800e+03,4.76600e+03,-4.68000e+02,3.12774e-13,1.29777e+00,2.77074e-13,1.29777e+00,1.29264e-13,1.29777e+00
8.10941e+02,5.89200e+03,5.00300e+03,8.89000e+02,4.10518e-13,1.30532e+00,3.97623e-13,1.30532e+00,7.02899e-14,1.30532e+00
8.11191e+02,7.45900e+03,4.41900e+03,3.04000e+03,3.58193e-13,1.31286e+00,4.46065e-13,1.31286e+00,9.24829e-14,1.31286e+00
8.11440e+02,8.55200e+03,3.97200e+03,4.58000e+03,2.70867e-13,-1.32041e+00,5.20315e-13,-1.32041e+00,2.49448e-13,-1.32041e+00
8.11689e+02,7.82900e+03,4.58100e+03,3.24800e+03,3.58193e-13,-1.31286e+00,4.46065e-13,-1.31286e+00,9.24829e-14,-1.31286e+00
8.11938e+02,5.68700e+03,5.37400e+03,3.13000e+02,4.10518e-13,-1.30532e+00,3.97623e-13,-1.30532e+00,7.02899e-14,-1.30532e+00
8.12187e+02,4.20400e+03,4.97400e+03,-7.70000e+02,3.12774e-13,-1.29777e+00,2.77074e-13,-1.29777e+00,1.29264e-13,-1.29777e+00
8.12436e+02,3.56100e+03,4.00600e+03,-4.45000e+02,3.15963e-13,-1.29023e+00,2.98162e-13,-1.29023e+00,2.67527e-13,-1.29023e+00
8.12685e+02,3.86900e+03,4.24400e+03,-3.75000e+02,3.05572e-13,-1.28268e+00,9.31290e-14,-1.28268e+00,2.36710e-13,-1.28268e+00
8.12935e+02,4.08800e+03,5.25000e+03,-1.16200e+03,2.14720e-13,-1.27514e+00,1.52422e-13,-1.27514e+00,1.16209e-13,-1.27514e+00
8.13184e+02,3.92500e+03,6.87900e+03,-2.95400e+03,4.88806e-14,-1.26759e+00,8.63482e-14,-1.26759e+00,4.48313e-14,-1.26759e+00
8.13433e+02,3.70700e+03,8.67500e+03,-4.96800e+03,2.54535e-13,-1.26005e+00,2.22898e-13,-1.26005e+00,1.08388e-13,-1.26005e+00
8.13682e+02,3.95100e+03,7.24800e+03,-3.29700e+03,2.74751e-13,-1.25250e+00,1.77192e-13,-1.25250e+00,1.06073e-13,-1.25250e+00
8.13931e+02,4.92900e+03,5.10200e+03,-1.73000e+02,2.45587e-13,-1.24496e+00,1.74994e-14,-1.24496e+00,2.62303e-13,-1.24496e+00
8.14180e+02,4.73600e+03,3.59700e+03,1.13900e+03,1.34364e-13,-1.23741e+00,2.16044e-13,-1.23741e+00,3.50040e-13,-1.23741e+00
8.14429e+02,3.96200e+03,3.21100e+03,7.51000e+02,2.28001e-13,-1.22987e+00,1.42022e-13,-1.22987e+00,3.53154e-13,-1.22987e+00
8.14678e+02,3.71500e+03,3.43200e+03,2.83000e+02,2.73043e-13,-1.22232e+00,1.29745e-13,-1.22232e+00,3.83452e-13,-1.22232e+00
8.14927e+02,4.36200e+03,3.39600e+03,9.66000e+02,2.69948e-13,-1.21478e+00,8.78597e-14,-1.21478e+00,2.68629e-13,-1.21478e+00
8.15176e+02,5.66300e+03,3.37800e+03,2.28500e+03,3.14452e-13,-1.20723e+00,3.65245e-13,-1.20723e+00,3.59979e-13,-1.20723e+00
8.15425e+02,6.96900e+03,3.81800e+03,3.15100e+03,3.03664e-13,-1.19969e+00,4.05391e-13,-1.19969e+00,3.27927e-13,-1.19969e+00
8.15674e+02,6.43900e+03,4.62700e+03,1.81200e+03,2.19226e-13,-1.19214e+00,3.19577e-13,-1.19214e+00,1.62332e-13,-1.19214e+00
8.15923e+02,4.84200e+03,5.69000e+03,-8.48000e+02,1.37390e-13,-1.18460e+00,1.78831e-13,-1.18460e+00,5.81418e-14,-1.18460e+00
8.16172e+02,3.41000e+03,5.19200e+03,-1.78200e+03,2.60461e-13,-1.17705e+00,2.10395e-14,-1.17705e+00,2.58384e-13,-1.17705e+00
8.16421e+02,2.97200e+03,4.35700e+03,-1.38500e+03,2.84892e-13,-1.16951e+00,9.15337e-14,-1.16951e+00,2.14105e-13,-1.16951e+00
8.16670e+02,2.99200e+03,3.96400e+03,-9.72000e+02,1.92940e-13,-1.16196e+00,6.48757e-14,-1.16196e+00,1.33642e-13,-1.16196e+00
8.16919e+02,3.00600e+03,4.57900e+03,-1.57300e+03,1.53542e-13,-1.15442e+00,7.30656e-14,-1.15442e+00,1.13690e-13,-1.15442e+00
8.17168e+02,3.05200e+03,5.67200e+03,-2.62000e+03,1.90759e-13,-1.14687e+00,2.17395e-13,-1.14687e+00,4.02329e-13,-1.14687e+00
8.17417e+02,3.96000e+03,5.57400e+03,-1.61400e+03,1.55905e-13,-1.13932e+00,2.59428e-13,-1.13932e+00,4.13820e-13,-1.13932e+00
8.17666e+02,4.72100e+03,4.42900e+03,2.92000e+02,2.68190e-13,-1.13178e+00,3.26818e-13,-1.13178e+00,4.94073e-13,-1.13178e+00
8.17915e+02,5.07600e+03,3.28600e+03,1.79000e+03,2.53671e-13,-1.12423e+00,2.96831e-13,-1.12423e+00,3.55694e-13,-1.12423e+00
8.18164e+02,4.38200e+03,2.70700e+03,1.67500e+03,2.84428e-13,-1.11669e+00,3.99354e-13,-1.11669e+00,1.88147e-13,-1.11669e+00
8.18413e+02,3.58500e+03,2.55000e+03,1.03500e+03,1.54005e-13,-1.10914e+00,4.15578e-13,-1.10914e+00,3.53450e-13,-1.10914e+00
8.18662e+02,3.31700e+03,2.63800e+03,6.79000e+02,1.39898e-13,-1.10160e+00,2.81217e-13,-1.10160e+00,1.90648e-13,-1.10160e+00
8.18911e+02,3.69900e+03,2.58100e+03,1.11800e+03,1.92628e-13,-1.09405e+00,2.69766e-13,-1.09405e+00,9.09326e-14,-1.09405e+00
8.19160e+02,4.36300e+03,2.79400e+03,1.56900e+03,1.50456e-13,-1.08651e+00,3.89597e-13,-1.08651e+00,3.57226e-13,-1.08651e+00
8.19408e+02,4.76000e+03,3.80100e+03,9.59000e+02,9.57932e-14,-1.07896e+00,5.33781e-13,-1.07896e+00,5.02693e-13,-1.07896e+00
8.19657e+02,4.14100e+03,4.89400e+03,-7.53000e+02,7.42863e-14,-1.07142e+00,6.33242e-13,-1.07142e+00,5.90217e-13,-1.07142e+00
8.19906e+02,3.30900e+03,6.12700e+03,-2.81800e+03,3.20789e-13,-1.06387e+00,5.69290e-13,-1.06387e+00,5.73239e-13,-1.06387e+00
8.20155e+02,2.66800e+03,5.44400e+03,-2.77600e+03,2.31703e-13,-1.05633e+00,4.26076e-13,-1.05633e+00,5.17723e-13,-1.05633e+00
8.20404e+02,2.65300e+03,4.02900e+03,-1.37600e+03,4.71189e-14,-1.04878e+00,4.34584e-13,-1.04878e+00,4.29391e-13,-1.04878e+00
8.20653e+02,2.65200e+03,3.28000e+03,-6.28000e+02,2.71091e-13,-1.04124e+00,5.14834e-13,-1.04124e+00,2.61643e-13,-1.04124e+00
8.20901e+02,2.55500e+03,3.38800e+03,-8.33000e+02,4.34009e-13,-1.03369e+00,1.34803e-13,-1.03369e+00,3.78151e-13,-1.03369e+00
8.21150e+02,2.83500e+03,3.68600e+03,-8.51000e+02,4.83563e-13,-1.02615e+00,3.52206e-13,-1.02615e+00,5.07283e-13,-1.02615e+00
8.21399e+02,4.10200e+03,3.66200e+03,4.40000e+02,5.84730e-13,-1.01860e+00,8.30380e-13,-1.01860e+00,4.51820e-13,-1.01860e+00
8.21648e+02,5.39900e+03,3.32200e+03,2.07700e+03,4.29358e-13,-1.01106e+00,8.67855e-13,-1.01106e+00,4.64616e-13,-1.01106e+00
8.21897e+02,5.76400e+03,3.05200e+03,2.71200e+03,2.59995e-13,-1.00351e+00,7.44513e-13,-1.00351e+00,4.94347e-13,-1.00351e+00
8.22145e+02,4.78100e+03,3.09300e+03,1.68800e+03,1.84714e-14,-9.95966e-01,4.11132e-13,-9.95966e-01,4.01678e-13,-9.95966e-01
8.22394e+02,3.59600e+03,3.13200e+03,4.64000e+02,1.47400e-13,-9.88421e-01,3.26169e-13,-9.88421e-01,2.76092e-13,-9.88421e-01
8.22643e+02,2.64800e+03,2.79600e+03,-1.48000e+02,1.30402e-13,-9.80876e-01,1.63448e-13,-9.80876e-01,1.12876e-13,-9.80876e-01
8.22892e+02,2.62400e+03,2.68100e+03,-5.70000e+01,1.66923e-13,-9.73331e-01,4.80990e-14,-9.73331e-01,1.58836e-13,-9.73331e-01
8.23140e+02,2.98800e+03,3.28400e+03,-2.96000e+02,1.93036e-13,-9.65785e-01,3.00129e-13,-9.65785e-01,4.46070e-13,-9.65785e-01
8.23389e+02,2.90800e+03,4.09700e+03,-1.18900e+03,2.46119e-13,-9.58240e-01,4.88740e-13,-9.58240e-01,5.82301e-13,-9.58240e-01
8.23638e+02,2.93000e+03,4.94500e+03,-2.01500e+03,2.17193e-13,-9.50695e-01,4.49911e-13,-9.50695e-01,4.64827e-13,-9.50695e-01
8.23887e+02,3.10600e+03,5.09900e+03,-1.99300e+03,1.42785e-13,-9.43150e-01,3.17182e-13,-9.43150e-01,2.07769e-13,-9.43150e-01
8.24135e+02,3.37300e+03,4.06600e+03,-6.93000e+02,2.29822e-13,-9.35605e-01,2.22855e-13,-9.35605e-01,2.76159e-13,-9.35605e-01
8.24384e+02,3.29200e+03,2.73400e+03,5.58000e+02,7.30862e-14,-9.28059e-01,2.65594e-13,-9.28059e-01,3.30709e-13,-9.28059e-01
8.24633e+02,2.84800e+03,2.15200e+03,6.96000e+02,1.18997e-13,-9.20514e-01,2.81057e-13,-9.20514e-01,3.81385e-13,-9.20514e-01
8.24881e+02,2.51800e+03,2.00800e+03,5.10000e+02,3.36694e-13,-9.12969e-01,3.32561e-13,-9.12969e-01,6.37629e-13,-9.12969e-01
8.25130e+02,2.82900e+03,1.98400e+03,8.45000e+02,3.54026e-13,-9.05424e-01,5.48156e-13,-9.05424e-01,8.94896e-13,-9.05424e-01
8.25379e+02,3.30400e+03,1.97100e+03,1.33300e+03,4.49702e-13,-8.97879e-01,5.00848e-13,-8.97879e-01,9.37871e-13,-8.97879e-01
8.25627e+02,3.94700e+03,2.23400e+03,1.71300e+03,5.80961e-13,-8.90333e-01,5.30814e-13,-8.90333e-01,9.30785e-13,-8.90333e-01
8.25876e+02,3.60500e+03,2.50200e+03,1.10300e+03,4.68805e-13,-8.82788e-01,5.77138e-13,-8.82788e-01,6.44860e-13,-8.82788e-01
8.26125e+02,2.82500e+03,2.86500e+03,-4.00000e+01,2.75501e-13,-8.75243e-01,7.64424e-13,-8.75243e-01,7.15654e-13,-8.75243e-01
8.26373e+02,2.19200e+03,3.16600e+03,-9.74000e+02,3.73197e-13,-8.67698e-01,7.69276e-13,-8.67698e-01,7.90734e-13,-8.67698e-01
8.26622e+02,1.74600e+03,2.86900e+03,-1.12300e+03,3.91358e-13,-8.60153e-01,6.81844e-13,-8.60153e-01,7.16496e-13,-8.60153e-01
8.26870e+02,1.70400e+03,2.49600e+03,-7.92000e+02,3.89087e-13,-8.52607e-01,3.85097e-13,-8.52607e-01,6.76576e-13,-8.52607e-01
8.27119e+02,1.69900e+03,2.32000e+03,-6.21000e+02,1.74857e-13,-8.45062e-01,2.58164e-13,-8.45062e-01,4.07334e-13,-8.45062e-01
8.27368e+02,1.60500e+03,2.59100e+03,-9.86000e+02,3.03311e-13,-8.37517e-01,2.68272e-13,-8.37517e-01,4.09698e-13,-8.37517e-01
8.27616e+02,1.73300e+03,3.01400e+03,-1.28100e+03,5.95404e-13,-8.29972e-01,8.11807e-13,-8.29972e-01,1.12260e-12,-8.29972e-01
8.27865e+02,1.98800e+03,2.86400e+03,-8.76000e+02,6.03175e-13,-8.22427e-01,8.87518e-13,-8.22427e-01,1.16653e-12,-8.22427e-01
8.28113e+02,2.35000e+03,2.44600e+03,-9.60000e+01,4.64886e-13,-8.14881e-01,9.48878e-13,-8.14881e-01,1.33931e-12,-8.14881e-01
8.28362e+02,2.38500e+03,1.86400e+03,5.21000e+02,6.57508e-13,-8.07336e-01,6.75967e-13,-8.07336e-01,1.32513e-12,-8.07336e-01
8.28610e+02,2.30500e+03,1.58900e+03,7.16000e+02,8.15531e-13,-7.99791e-01,4.00328e-13,-7.99791e-01,1.14254e-12,-7.99791e-01
8.28859e+02,2.04300e+03,1.45600e+03,5.87000e+02,8.45352e-13,-7.92246e-01,1.61451e-13,-7.92246e-01,8.70896e-13,-7.92246e-01
8.29108e+02,1.66500e+03,1.33300e+03,3.32000e+02,6.00119e-13,-7.84701e-01,1.18390e-13,-7.84701e-01,5.14357e-13,-7.84701e-01
8.29356e+02,1.59400e+03,1.27200e+03,3.22000e+02,4.87922e-13,-7.77155e-01,1.38823e-13,-7.77155e-01,3.90438e-13,-7.77155e-01
8.29605e+02,1.73500e+03,1.31400e+03,4.21000e+02,1.64732e-13,-7.69610e-01,1.12023e-13,-7.69610e-01,2.35067e-13,-7.69610e-01
8.29853e+02,1.68300e+03,1.55200e+03,1.31000e+02,2.36486e-13,-7.62065e-01,5.80715e-13,-7.62065e-01,7.79847e-13,-7.62065e-01
8.30101e+02,1.51500e+03,1.74600e+03,-2.31000e+02,2.53916e-13,-7.54520e-01,6.11407e-13,-7.54520e-01,8.50411e-13,-7.54520e-01
8.30350e+02,1.34200e+03,1.84200e+03,-5.00000e+02,1.24820e-13,-7.46975e-01,3.85090e-13,-7.46975e-01,4.23369e-13,-7.46975e-01
8.30598e+02,1.21700e+03,1.71900e+03,-5.02000e+02,4.87433e-14,-7.39429e-01,3.02881e-13,-7.39429e-01,3.45445e-13,-7.39429e-01
8.30847e+02,1.11600e+03,1.54200e+03,-4.26000e+02,2.23646e-13,-7.31884e-01,4.92917e-13,-7.31884e-01,5.17946e-13,-7.31884e-01
8.31095e+02,1.04200e+03,1.24500e+03,-2.03000e+02,5.45396e-13,-7.24339e-01,8.75671e-13,-7.24339e-01,1.27543e-12,-7.24339e-01
8.31344e+02,1.01800e+03,1.14500e+03,-1.27000e+02,6.57910e-13,-7.16794e-01,1.39761e-12,-7.16794e-01,1.83414e-12,-7.16794e-01
8.31592e+02,9.70000e+02,1.15300e+03,-1.83000e+02,2.37049e-13,-7.09249e-01,1.15208e-12,-7.09249e-01,1.07533e-12,-7.09249e-01
8.31841e+02,1.02800e+03,1.24800e+03,-2.20000e+02,6.43622e-13,-7.01703e-01,6.53419e-13,-7.01703e-01,9.11295e-14,-7.01703e-01
8.32089e+02,1.20600e+03,1.21900e+03,-1.30000e+01,7.97253e-13,-6.94158e-01,5.14028e-13,-6.94158e-01,8.88899e-13,-6.94158e-01
8.32337e+02,1.32000e+03,1.12500e+03,1.95000e+02,5.26697e-13,-6.86613e-01,3.77600e-13,-6.86613e-01,7.15610e-13,-6.86613e-01
8.32586e+02,1.36300e+03,1.04700e+03,3.16000e+02,5.23208e-13,-6.79068e-01,5.69631e-14,-6.79068e-01,5.73927e-13,-6.79068e-01
8.32834e+02,1.25300e+03,1.00100e+03,2.52000e+02,1.03171e-12,-6.71523e-01,6.15653e-13,-6.71523e-01,1.09473e-12,-6.71523e-01
8.33083e+02,1.11800e+03,1.01100e+03,1.07000e+02,1.20078e-12,-6.63977e-01,1.00141e-12,-6.63977e-01,1.29815e-12,-6.63977e-01
8.33331e+02,1.00400e+03,9.73000e+02,3.10000e+01,9.98194e-13,-6.56432e-01,8.39127e-13,-6.56432e-01,8.02303e-13,-6.56432e-01
8.33579e+02,1.00900e+03,9.63000e+02,4.60000e+01,5.87584e-13,-6.48887e-01,5.92228e-13,-6.48887e-01,1.53375e-13,-6.48887e-01
8.33828e+02,9.96000e+02,9.20000e+02,7.60000e+01,7.15977e-13,-6.41342e-01,1.05092e-13,-6.41342e-01,6.35522e-13,-6.41342e-01
8.34076e+02,9.89000e+02,9.86000e+02,3.00000e+00,1.08101e-12,-6.33797e-01,1.94191e-13,-6.33797e-01,1.22834e-12,-6.33797e-01
8.34324e+02,9.46000e+02,1.08500e+03,-1.39000e+02,1.03247e-12,-6.26251e-01,2.86409e-13,-6.26251e-01,1.30613e-12,-6.26251e-01
8.34573e+02,8.70000e+02,1.09200e+03,-2.22000e+02,4.37962e-13,-6.18706e-01,2.50405e-13,-6.18706e-01,6.78775e-13,-6.18706e-01
8.34821e+02,8.63000e+02,1.05700e+03,-1.94000e+02,1.39822e-13,-6.11161e-01,4.66202e-13,-6.11161e-01,3.41507e-13,-6.11161e-01
8.35069e+02,8.66000e+02,9.66000e+02,-1.00000e+02,6.16213e-13,-6.03616e-01,1.09966e-12,-6.03616e-01,1.33215e-12,-6.03616e-01
8.35318e+02,8.75000e+02,8.77000e+02,-2.00000e+00,6.53840e-13,-5.96071e-01,1.10418e-12,-5.96071e-01,1.37312e-12,-5.96071e-01
8.35566e+02,8.39000e+02,8.38000e+02,1.00000e+00,6.67164e-13,-5.88525e-01,7.76287e-13,-5.88525e-01,1.33109e-12,-5.88525e-01
8.35814e+02,7.90000e+02,8.04000e+02,-1.40000e+01,6.79217e-13,-5.80980e-01,7.20888e-13,-5.80980e-01,1.39639e-12,-5.80980e-01
8.36062e+02,8.00000e+02,7.98000e+02,2.00000e+00,4.01827e-13,-5.73435e-01,8.68770e-13,-5.73435e-01,1.19177e-12,-5.73435e-01
8.36311e+02,8.06000e+02,7.92000e+02,1.40000e+01,4.01942e-13,-5.65890e-01,6.79046e-13,-5.65890e-01,6.14923e-13,-5.65890e-01
8.36559e+02,8.15000e+02,7.78000e+02,3.70000e+01,3.55481e-13,-5.58345e-01,4.94179e-13,-5.58345e-01,8.49518e-13,-5.58345e-01
8.36807e+02,8.46000e+02,7.39000e+02,1.07000e+02,9.64351e-13,-5.50799e-01,5.44425e-13,-5.50799e-01,1.50475e-12,-5.50799e-01
8.37055e+02,8.13000e+02,7.70000e+02,4.30000e+01,1.94038e-12,-5.43254e-01,9.56875e-13,-5.43254e-01,2.80457e-12,-5.43254e-01
8.37304e+02,7.50000e+02,7.68000e+02,-1.80000e+01,2.53287e-12,-5.35709e-01,2.19624e-12,-5.35709e-01,4.62325e-12,-5.35709e-01
8.37552e+02,7.28000e+02,7.47000e+02,-1.90000e+01,2.44151e-12,-5.28164e-01,2.09657e-12,-5.28164e-01,4.35280e-12,-5.28164e-01
8.37800e+02,7.09000e+02,7.37000e+02,-2.80000e+01,6.76206e-12,-5.20619e-01,6.28081e-12,-5.20619e-01,1.28217e-11,-5.20619e-01
8.38048e+02,7.27000e+02,7.37000e+02,-1.00000e+01,9.34050e-12,-5.13073e-01,1.01833e-11,-5.13073e-01,1.93144e-11,-5.13073e-01
8.38296e+02,7.33000e+02,7.39000e+02,-6.00000e+00,8.46381e-12,-5.05528e-01,1.06656e-11,-5.05528e-01,1.89786e-11,-5.05528e-01
8.38545e+02,7.21000e+02,7.35000e+02,-1.40000e+01,5.93864e-12,-4.97983e-01,8.43657e-12,-4.97983e-01,1.43576e-11,-4.97983e-01
8.38793e+02,7.23000e+02,7.52000e+02,-2.90000e+01,4.06557e-12,-4.90438e-01,5.20307e-12,-4.90438e-01,9.25192e-12,-4.90438e-01
8.39041e+02,7.22000e+02,7.39000e+02,-1.70000e+01,1.66580e-12,-4.82893e-01,2.49500e-12,-4.82893e-01,4.00155e-12,-4.82893e-01
8.39289e+02,7.28000e+02,7.37000e+02,-9.00000e+00,1.42217e-12,-4.75347e-01,1.08604e-12,-4.75347e-01,2.06779e-12,-4.75347e-01
8.39537e+02,7.27000e+02,7.18000e+02,9.00000e+00,1.81536e-12,-4.67802e-01,1.35220e-12,-4.67802e-01,3.02262e-12,-4.67802e-01
8.39785e+02,7.12000e+02,6.90000e+02,2.20000e+01,1.58808e-12,-4.60257e-01,1.57235e-12,-4.60257e-01,3.03489e-12,-4.60257e-01
8.40033e+02,7.05000e+02,6.94000e+02,1.10000e+01,9.65083e-13,-4.52712e-01,9.50306e-13,-4.52712e-01,1.87368e-12,-4.52712e-01
8.40281e+02,7.07000e+02,6.85000e+02,2.20000e+01,8.00592e-13,-4.45167e-01,5.55428e-13,-4.45167e-01,9.17845e-13,-4.45167e-01
8.40530e+02,7.17000e+02,6.88000e+02,2.90000e+01,1.06695e-12,-4.37621e-01,7.89802e-13,-4.37621e-01,1.48322e-12,-4.37621e-01
8.40778e+02,7.18000e+02,6.93000e+02,2.50000e+01,1.18901e-12,-4.30076e-01,1.25593e-12,-4.30076e-01,2.26119e-12,-4.30076e-01
8.41026e+02,7.32000e+02,6.97000e+02,3.50000e+01,6.69702e-13,-4.22531e-01,1.70440e-12,-4.22531e-01,2.34044e-12,-4.22531e-01
8.41274e+02,7.10000e+02,6.97000e+02,1.30000e+01,7.74135e-13,-4.14986e-01,2.00072e-12,-4.14986e-01,2.32931e-12,-4.14986e-01
8.41522e+02,6.89000e+02,6.98000e+02,-9.00000e+00,1.34023e-12,-4.07441e-01,1.99749e-12,-4.07441e-01,2.48200e-12,-4.07441e-01
8.41770e+02,6.74000e+02,6.89000e+02,-1.50000e+01,1.18349e-12,-3.99895e-01,1.79709e-12,-3.99895e-01,1.96809e-12,-3.99895e-01
8.42018e+02,6.82000e+02,6.97000e+02,-1.50000e+01,9.90365e-13,-3.92350e-01,1.72916e-12,-3.92350e-01,1.49056e-12,-3.92350e-01
8.42266e+02,6.76000e+02,6.80000e+02,-4.00000e+00,7.54561e-13,-3.84805e-01,1.68453e-12,-3.84805e-01,9.82036e-13,-3.84805e-01
8.42514e+02,6.77000e+02,6.98000e+02,-2.10000e+01,4.79802e-13,-3.77260e-01,1.01750e-12,-3.77260e-01,7.96736e-13,-3.77260e-01
8.42762e+02,6.77000e+02,6.94000e+02,-1.70000e+01,1.14662e-12,-3.69715e-01,4.78110e-13,-3.69715e-01,1.37148e-12,-3.69715e-01
8.43010e+02,6.85000e+02,6.95000e+02,-1.00000e+01,1.83157e-12,-3.62169e-01,9.51040e-13,-3.62169e-01,1.05707e-12,-3.62169e-01
8.43258e+02,6.83000e+02,6.82000e+02,1.00000e+00,4.11244e-13,-3.54624e-01,1.32872e-12,-3.54624e-01,1.16900e-12,-3.54624e-01
8.43506e+02,6.89000e+02,6.72000e+02,1.70000e+01,2.06658e-12,-3.47079e-01,3.64567e-12,-3.47079e-01,2.47432e-12,-3.47079e-01
8.43754e+02,6.81000e+02,6.77000e+02,4.00000e+00,2.73999e-12,-3.39534e-01,4.25577e-12,-3.39534e-01,2.44982e-12,-3.39534e-01
8.44002e+02,6.88000e+02,6.68000e+02,2.00000e+01,1.02426e-11,-3.31989e-01,9.77963e-12,-3.31989e-01,1.36642e-12,-3.31989e-01
8.44250e+02,6.50000e+02,6.56000e+02,-6.00000e+00,1.50905e-11,-3.24444e-01,1.51067e-11,-3.24444e-01,1.40931e-13,-3.24444e-01
8.44498e+02,6.63000e+02,6.65000e+02,-2.00000e+00,1.56694e-11,-3.16898e-01,1.58176e-11,-3.16898e-01,7.32352e-13,-3.16898e-01
8.44746e+02,6.56000e+02,6.73000e+02,-1.70000e+01,1.20705e-11,-3.09353e-01,1.14993e-11,-3.09353e-01,8.59154e-13,-3.09353e-01
8.44994e+02,6.59000e+02,6.70000e+02,-1.10000e+01,6.37448e-12,-3.01808e-01,5.72096e-12,-3.01808e-01,6.53649e-13,-3.01808e-01
8.45242e+02,6.79000e+02,6.62000e+02,1.70000e+01,1.96997e-12,-2.94263e-01,1.96418e-12,-2.94263e-01,3.44147e-13,-2.94263e-01
8.45490e+02,6.76000e+02,6.74000e+02,2.00000e+00,4.22525e-13,-2.86718e-01,9.29034e-13,-2.86718e-01,1.00178e-12,-2.86718e-01
8.45738e+02,6.53000e+02,6.69000e+02,-1.60000e+01,1.04267e-12,-2.79172e-01,1.79476e-12,-2.79172e-01,1.15246e-12,-2.79172e-01
8.45985e+02,6.78000e+02,6.69000e+02,9.00000e+00,1.54065e-12,-2.71627e-01,2.30178e-12,-2.71627e-01,9.41461e-13,-2.71627e-01
8.46233e+02,6.68000e+02,6.74000e+02,-6.00000e+00,1.92084e-12,-2.64082e-01,2.15296e-12,-2.64082e-01,2.44029e-13,-2.64082e-01
8.46481e+02,6.73000e+02,6.78000e+02,-5.00000e+00,2.14117e-12,-2.56537e-01,1.26446e-12,-2.56537e-01,1.00505e-12,-2.56537e-01
8.46729e+02,6.64000e+02,6.71000e+02,-7.00000e+00,2.41658e-12,-2.48992e-01,6.24266e-13,-2.48992e-01,1.79994e-12,-2.48992e-01
8.46977e+02,6.84000e+02,6.67000e+02,1.70000e+01,2.02357e-12,-2.41446e-01,5.54787e-13,-2.41446e-01,1.52056e-12,-2.41446e-01
8.47225e+02,6.66000e+02,6.73000e+02,-7.00000e+00,6.63190e-13,-2.33901e-01,1.02839e-12,-2.33901e-01,6.53066e-13,-2.33901e-01
8.47473e+02,6.78000e+02,6.77000e+02,1.00000e+00,1.85908e-12,-2.26356e-01,1.29187e-12,-2.26356e-01,3.13052e-12,-2.26356e-01
8.47720e+02,6.68000e+02,6.49000e+02,1.90000e+01,3.15222e-12,-2.18811e-01,2.35175e-12,-2.18811e-01,5.47753e-12,-2.18811e-01
8.47968e+02,6.81000e+02,6.65000e+02,1.60000e+01,1.30719e-12,-2.11266e-01,1.02326e-12,-2.11266e-01,1.36277e-12,-2.11266e-01
8.48216e+02,6.66000e+02,6.64000e+02,2.00000e+00,5.17169e-12,-2.03720e-01,4.87129e-12,-2.03720e-01,9.82326e-12,-2.03720e-01
8.48464e+02,6.59000e+02,6.54000e+02,5.00000e+00,1.57322e-11,-1.96175e-01,1.42406e-11,-1.96175e-01,2.99582e-11,-1.96175e-01
8.48712e+02,6.84000e+02,6.55000e+02,2.90000e+01,2.17166e-11,-1.88630e-01,2.26714e-11,-1.88630e-01,4.40620e-11,-1.88630e-01
8.48960e+02,6.77000e+02,6.64000e+02,1.30000e+01,1.46969e-11,-1.81085e-01,1.83763e-11,-1.81085e-01,3.27866e-11,-1.81085e-01
8.49207e+02,6.64000e+02,6.70000e+02,-6.00000e+00,5.82666e-12,-1.73540e-01,7.85447e-12,-1.73540e-01,1.36095e-11,-1.73540e-01
8.49455e+02,6.65000e+02,6.71000e+02,-6.00000e+00,3.06241e-12,-1.65994e-01,1.42549e-12,-1.65994e-01,4.28456e-12,-1.65994e-01
8.49703e+02,6.58000e+02,6.75000e+02,-1.70000e+01,4.47557e-12,-1.58449e-01,3.60873e-13,-1.58449e-01,4.20135e-12,-1.58449e-01
8.49951e+02,6.59000e+02,6.60000e+02,-1.00000e+00,4.72289e-12,-1.50904e-01,4.46211e-13,-1.50904e-01,5.06296e-12,-1.50904e-01
8.50198e+02,6.73000e+02,6.74000e+02,-1.00000e+00,1.96810e-12,-1.43359e-01,2.06080e-12,-1.43359e-01,2.75578e-12,-1.43359e-01
8.50446e+02,6.68000e+02,6.65000e+02,3.00000e+00,7.24812e-13,-1.35814e-01,2.49221e-12,-1.35814e-01,3.13830e-12,-1.35814e-01
8.50694e+02,6.68000e+02,6.69000e+02,-1.00000e+00,1.01826e-12,-1.28268e-01,1.56799e-12,-1.28268e-01,2.45187e-12,-1.28268e-01
8.50941e+02,6.74000e+02,6.78000e+02,-4.00000e+00,1.98032e-12,-1.20723e-01,7.82340e-13,-1.20723e-01,1.76352e-12,-1.20723e-01
8.51189e+02,6.77000e+02,6.63000e+02,1.40000e+01,2.49490e-12,-1.13178e-01,1.02574e-12,-1.13178e-01,1.83444e-12,-1.13178e-01
8.51437e+02,6.53000e+02,6.64000e+02,-1.10000e+01,3.05398e-12,-1.05633e-01,1.17278e-12,-1.05633e-01,2.86214e-12,-1.05633e-01
8.51685e+02,6.73000e+02,6.56000e+02,1.70000e+01,2.11209e-12,-9.80876e-02,1.55965e-12,-9.80876e-02,3.53760e-12,-9.80876e-02
8.51932e+02,6.70000e+02,6.64000e+02,6.00000e+00,1.54435e-12,-9.05424e-02,2.00668e-12,-9.05424e-02,3.52217e-12,-9.05424e-02
8.52180e+02,6.86000e+02,6.73000e+02,1.30000e+01,9.75333e-13,-8.29972e-02,1.84013e-12,-8.29972e-02,2.64977e-12,-8.29972e-02
8.52428e+02,6.48000e+02,6.58000e+02,-1.00000e+01,6.62622e-13,-7.54520e-02,1.62471e-12,-7.54520e-02,1.43724e-12,-7.54520e-02
8.52675e+02,6.64000e+02,6.64000e+02,0.00000e+00,9.66472e-13,-6.79068e-02,9.43872e-13,-6.79068e-02,1.62872e-12,-6.79068e-02
8.52923e+02,6.65000e+02,6.62000e+02,3.00000e+00,2.41131e-12,-6.03616e-02,2.42002e-12,-6.03616e-02,6.83238e-13,-6.03616e-02
8.53170e+02,6.68000e+02,6.75000e+02,-7.00000e+00,4.99151e-12,-5.28164e-02,4.75735e-12,-5.28164e-02,6.31160e-13,-5.28164e-02
8.53418e+02,6.72000e+02,6.50000e+02,2.20000e+01,7.54992e-12,-4.52712e-02,6.98445e-12,-4.52712e-02,1.37464e-12,-4.52712e-02
8.53666e+02,6.62000e+02,6.79000e+02,-1.70000e+01,5.63217e-12,-3.77260e-02,5.53412e-12,-3.77260e-02,6.81185e-13,-3.77260e-02
8.53913e+02,6.68000e+02,6.79000e+02,-1.10000e+01,3.16182e-12,-3.01808e-02,3.77671e-12,-3.01808e-02,7.96124e-13,-3.01808e-02
8.54161e+02,6.64000e+02,6.70000e+02,-6.00000e+00,1.11642e-11,-2.26356e-02,1.20540e-11,-2.26356e-02,1.01976e-12,-2.26356e-02
8.54409e+02,6.67000e+02,6.54000e+02,1.30000e+01,3.88697e-11,-1.50904e-02,4.06037e-11,-1.50904e-02,2.08694e-12,-1.50904e-02
8.54656e+02,6.61000e+02,6.64000e+02,-3.00000e+00,9.86668e-11,-7.54520e-03,1.00278e-10,-7.54520e-03,2.45062e-12,-7.54520e-03
