7.67698e+02,6.58000e+02,6.62000e+02,-4.00000e+00,1.23341e-10,0.00000e+00,1.25378e-10,0.00000e+00,2.03615e-12,0.00000e+00
7.67949e+02,6.72000e+02,6.56000e+02,1.60000e+01,3.66806e-11,7.54520e-03,3.82885e-11,7.54520e-03,1.77595e-12,7.54520e-03
7.68199e+02,6.96000e+02,6.83000e+02,1.30000e+01,1.65621e-11,1.50904e-02,1.77482e-11,1.50904e-02,1.38403e-12,1.50904e-02
7.68450e+02,6.79000e+02,6.68000e+02,1.10000e+01,5.51225e-12,2.26356e-02,5.55239e-12,2.26356e-02,1.48101e-13,2.26356e-02
7.68701e+02,6.88000e+02,6.90000e+02,-2.00000e+00,6.60181e-12,3.01808e-02,6.90220e-12,3.01808e-02,5.99576e-13,3.01808e-02
7.68951e+02,6.72000e+02,6.72000e+02,0.00000e+00,4.78988e-12,3.77260e-02,5.17712e-12,3.77260e-02,5.85152e-13,3.77260e-02
7.69202e+02,6.88000e+02,6.86000e+02,2.00000e+00,4.15614e-12,4.52712e-02,4.50708e-12,4.52712e-02,7.78605e-13,4.52712e-02
7.69453e+02,6.79000e+02,6.77000e+02,2.00000e+00,1.32217e-12,5.28164e-02,1.38116e-12,5.28164e-02,8.61831e-13,5.28164e-02
7.69703e+02,6.79000e+02,6.77000e+02,2.00000e+00,6.71917e-13,6.03616e-02,1.05243e-12,6.03616e-02,7.11796e-13,6.03616e-02
7.69954e+02,6.92000e+02,6.89000e+02,3.00000e+00,1.32275e-13,6.79068e-02,6.61499e-13,6.79068e-02,7.45274e-13,6.79068e-02
7.70205e+02,6.94000e+02,7.16000e+02,-2.20000e+01,3.22492e-13,7.54520e-02,1.06910e-12,7.54520e-02,1.08006e-12,7.54520e-02
7.70455e+02,6.94000e+02,7.16000e+02,-2.20000e+01,3.64223e-13,8.29972e-02,1.21390e-12,8.29972e-02,1.01439e-12,8.29972e-02
7.70706e+02,6.82000e+02,7.25000e+02,-4.30000e+01,1.19858e-13,9.05424e-02,7.80349e-13,9.05424e-02,7.93411e-13,9.05424e-02
7.70957e+02,6.79000e+02,7.05000e+02,-2.60000e+01,3.35515e-13,9.80876e-02,4.60937e-13,9.80876e-02,3.57118e-13,9.80876e-02
7.71207e+02,6.95000e+02,7.09000e+02,-1.40000e+01,5.27594e-13,1.05633e-01,3.67445e-13,1.05633e-01,4.85959e-13,1.05633e-01
7.71458e+02,7.02000e+02,6.96000e+02,6.00000e+00,7.89047e-13,1.13178e-01,7.99161e-13,1.13178e-01,5.28303e-13,1.13178e-01
7.71708e+02,6.76000e+02,6.96000e+02,-2.00000e+01,6.61063e-13,1.20723e-01,3.57931e-13,1.20723e-01,4.80156e-13,1.20723e-01
7.71959e+02,7.14000e+02,7.29000e+02,-1.50000e+01,8.50561e-13,1.28268e-01,5.05931e-13,1.28268e-01,4.26763e-13,1.28268e-01
7.72210e+02,7.75000e+02,7.29000e+02,4.60000e+01,8.53199e-13,1.35814e-01,4.94035e-13,1.35814e-01,5.76772e-13,1.35814e-01
7.72460e+02,7.79000e+02,7.42000e+02,3.70000e+01,1.36291e-12,1.43359e-01,7.73510e-13,1.43359e-01,1.18920e-12,1.43359e-01
7.72711e+02,7.42000e+02,7.56000e+02,-1.40000e+01,1.93252e-12,1.50904e-01,5.89802e-13,1.50904e-01,2.01638e-12,1.50904e-01
7.72961e+02,7.41000e+02,7.35000e+02,6.00000e+00,2.15799e-12,1.58449e-01,7.15839e-13,1.58449e-01,2.86550e-12,1.58449e-01
7.73212e+02,7.38000e+02,7.21000e+02,1.70000e+01,1.54996e-12,1.65994e-01,1.17083e-12,1.65994e-01,2.30573e-12,1.65994e-01
7.73462e+02,7.36000e+02,7.35000e+02,1.00000e+00,8.08103e-13,1.73540e-01,1.93482e-12,1.73540e-01,1.65177e-12,1.73540e-01
7.73713e+02,7.59000e+02,7.77000e+02,-1.80000e+01,3.07267e-12,1.81085e-01,2.74894e-12,1.81085e-01,4.55374e-12,1.81085e-01
7.73963e+02,7.64000e+02,8.06000e+02,-4.20000e+01,4.52547e-12,1.88630e-01,3.25420e-12,1.88630e-01,7.04444e-12,1.88630e-01
7.74214e+02,7.57000e+02,8.00000e+02,-4.30000e+01,3.81933e-12,1.96175e-01,1.66481e-12,1.96175e-01,4.94182e-12,1.96175e-01
7.74465e+02,7.65000e+02,8.16000e+02,-5.10000e+01,1.82721e-12,2.03720e-01,4.78899e-13,2.03720e-01,2.27869e-12,2.03720e-01
7.74715e+02,7.63000e+02,7.81000e+02,-1.80000e+01,1.05481e-12,2.11266e-01,3.16485e-13,2.11266e-01,1.34461e-12,2.11266e-01
7.74965e+02,7.77000e+02,7.44000e+02,3.30000e+01,7.52637e-13,2.18811e-01,1.63317e-13,2.18811e-01,7.53443e-13,2.18811e-01
7.75216e+02,7.61000e+02,7.52000e+02,9.00000e+00,1.00700e-12,2.26356e-01,6.24022e-13,2.26356e-01,5.58584e-13,2.26356e-01
7.75466e+02,7.89000e+02,7.89000e+02,0.00000e+00,1.26128e-12,2.33901e-01,4.92597e-13,2.33901e-01,8.10951e-13,2.33901e-01
7.75717e+02,8.48000e+02,7.92000e+02,5.60000e+01,1.27250e-12,2.41446e-01,6.91209e-13,2.41446e-01,7.01273e-13,2.41446e-01
7.75967e+02,8.89000e+02,8.03000e+02,8.60000e+01,6.89214e-13,2.48992e-01,1.14569e-13,2.48992e-01,6.04603e-13,2.48992e-01
7.76218e+02,8.82000e+02,8.65000e+02,1.70000e+01,9.17665e-13,2.56537e-01,2.29509e-13,2.56537e-01,9.93235e-13,2.56537e-01
7.76468e+02,8.52000e+02,8.74000e+02,-2.20000e+01,1.01731e-12,2.64082e-01,3.90239e-13,2.64082e-01,1.08667e-12,2.64082e-01
7.76719e+02,7.97000e+02,8.38000e+02,-4.10000e+01,1.00554e-12,2.71627e-01,3.89062e-13,2.71627e-01,6.69527e-13,2.71627e-01
7.76969e+02,7.88000e+02,8.11000e+02,-2.30000e+01,7.38857e-13,2.79172e-01,5.31146e-13,2.79172e-01,4.33976e-13,2.79172e-01
7.77219e+02,8.24000e+02,8.58000e+02,-3.40000e+01,7.10144e-13,2.86718e-01,3.81888e-13,2.86718e-01,1.08692e-12,2.86718e-01
7.77470e+02,8.48000e+02,9.47000e+02,-9.90000e+01,6.46556e-13,2.94263e-01,1.25576e-12,2.94263e-01,1.18196e-12,2.94263e-01
7.77720e+02,8.51000e+02,1.02100e+03,-1.70000e+02,1.55556e-12,3.01808e-01,2.66377e-12,3.01808e-01,1.10979e-12,3.01808e-01
7.77971e+02,8.41000e+02,9.66000e+02,-1.25000e+02,3.47280e-12,3.09353e-01,4.44473e-12,3.09353e-01,1.17350e-12,3.09353e-01
7.78221e+02,8.94000e+02,8.77000e+02,1.70000e+01,4.55207e-12,3.16898e-01,5.07605e-12,3.16898e-01,8.22371e-13,3.16898e-01
7.78471e+02,8.66000e+02,8.24000e+02,4.20000e+01,4.27717e-12,3.24444e-01,4.57259e-12,3.24444e-01,3.21106e-13,3.24444e-01
7.78722e+02,8.62000e+02,8.05000e+02,5.70000e+01,2.99125e-12,3.31989e-01,2.95738e-12,3.31989e-01,1.32954e-13,3.31989e-01
7.78972e+02,8.24000e+02,8.05000e+02,1.90000e+01,1.91263e-12,3.39534e-01,1.63254e-12,3.39534e-01,3.45358e-13,3.39534e-01
7.79222e+02,8.95000e+02,8.74000e+02,2.10000e+01,1.28402e-12,3.47079e-01,1.18781e-12,3.47079e-01,5.59190e-13,3.47079e-01
7.79473e+02,9.68000e+02,8.78000e+02,9.00000e+01,1.20636e-12,3.54624e-01,8.72365e-13,3.54624e-01,6.62736e-13,3.54624e-01
7.79723e+02,9.96000e+02,9.13000e+02,8.30000e+01,1.32295e-12,3.62169e-01,1.18246e-12,3.62169e-01,9.88001e-13,3.62169e-01
7.79973e+02,9.78000e+02,9.70000e+02,8.00000e+00,7.57106e-13,3.69715e-01,4.07747e-13,3.69715e-01,8.77629e-13,3.69715e-01
7.80224e+02,9.38000e+02,9.94000e+02,-5.60000e+01,8.81223e-13,3.77260e-01,2.73690e-13,3.77260e-01,7.32931e-13,3.77260e-01
7.80474e+02,8.41000e+02,9.62000e+02,-1.21000e+02,4.54368e-13,3.84805e-01,4.84824e-13,3.84805e-01,7.43274e-13,3.84805e-01
7.80724e+02,8.43000e+02,9.08000e+02,-6.50000e+01,5.08063e-13,3.92350e-01,3.66961e-13,3.92350e-01,6.79054e-13,3.92350e-01
7.80974e+02,8.70000e+02,9.41000e+02,-7.10000e+01,5.69037e-13,3.99895e-01,2.48225e-13,3.99895e-01,6.19541e-13,3.99895e-01
7.81225e+02,9.13000e+02,1.04000e+03,-1.27000e+02,5.30409e-13,4.07441e-01,1.06076e-13,4.07441e-01,6.21886e-13,4.07441e-01
7.81475e+02,9.16000e+02,1.04600e+03,-1.30000e+02,4.22268e-13,4.14986e-01,2.76340e-13,4.14986e-01,6.02719e-13,4.14986e-01
7.81725e+02,9.36000e+02,9.96000e+02,-6.00000e+01,3.76169e-13,4.22531e-01,2.05974e-13,4.22531e-01,2.59446e-13,4.22531e-01
7.81975e+02,9.73000e+02,9.14000e+02,5.90000e+01,7.66756e-14,4.30076e-01,4.43865e-13,4.30076e-01,5.20217e-13,4.30076e-01
7.82226e+02,9.73000e+02,8.87000e+02,8.60000e+01,1.80283e-13,4.37621e-01,5.71210e-13,4.37621e-01,7.31211e-13,4.37621e-01
7.82476e+02,9.24000e+02,8.60000e+02,6.40000e+01,3.59771e-13,4.45167e-01,6.41786e-13,4.45167e-01,9.51064e-13,4.45167e-01
7.82726e+02,9.17000e+02,8.38000e+02,7.90000e+01,4.54689e-13,4.52712e-01,5.23835e-13,4.52712e-01,8.14169e-13,4.52712e-01
7.82976e+02,9.68000e+02,8.54000e+02,1.14000e+02,3.39847e-13,4.60257e-01,2.35100e-13,4.60257e-01,5.00765e-13,4.60257e-01
7.83226e+02,9.79000e+02,9.15000e+02,6.40000e+01,6.30445e-13,4.67802e-01,9.97317e-13,4.67802e-01,1.62767e-12,4.67802e-01
7.83477e+02,9.44000e+02,9.68000e+02,-2.40000e+01,1.05340e-12,4.75347e-01,1.45617e-12,4.75347e-01,2.45326e-12,4.75347e-01
7.83727e+02,9.37000e+02,1.02400e+03,-8.70000e+01,6.68239e-13,4.82893e-01,1.03728e-12,4.82893e-01,1.66751e-12,4.82893e-01
7.83977e+02,9.13000e+02,9.78000e+02,-6.50000e+01,5.10136e-13,4.90438e-01,5.18208e-13,4.90438e-01,9.56411e-13,4.90438e-01
7.84227e+02,8.82000e+02,8.97000e+02,-1.50000e+01,1.54265e-12,4.97983e-01,1.29376e-12,4.97983e-01,2.74280e-12,4.97983e-01
7.84477e+02,8.32000e+02,8.64000e+02,-3.20000e+01,2.14313e-12,5.05528e-01,2.01424e-12,5.05528e-01,3.96391e-12,5.05528e-01
7.84727e+02,8.32000e+02,8.70000e+02,-3.80000e+01,1.93431e-12,5.13073e-01,1.64399e-12,5.13073e-01,3.44906e-12,5.13073e-01
7.84978e+02,8.56000e+02,9.24000e+02,-6.80000e+01,9.79340e-13,5.20619e-01,1.23583e-12,5.20619e-01,2.16963e-12,5.20619e-01
7.85228e+02,9.37000e+02,8.96000e+02,4.10000e+01,9.05165e-13,5.28164e-01,6.29842e-13,5.28164e-01,1.53348e-12,5.28164e-01
7.85478e+02,9.60000e+02,9.09000e+02,5.10000e+01,8.99387e-13,5.35709e-01,2.04051e-13,5.35709e-01,6.96232e-13,5.35709e-01
7.85728e+02,9.66000e+02,9.08000e+02,5.80000e+01,7.74603e-13,5.43254e-01,1.49832e-13,5.43254e-01,6.45451e-13,5.43254e-01
7.85978e+02,9.38000e+02,8.79000e+02,5.90000e+01,6.45135e-13,5.50799e-01,4.67531e-13,5.50799e-01,8.06830e-13,5.50799e-01
7.86228e+02,8.72000e+02,8.59000e+02,1.30000e+01,4.69438e-13,5.58345e-01,4.01997e-13,5.58345e-01,6.79928e-13,5.58345e-01
7.86478e+02,8.44000e+02,8.46000e+02,-2.00000e+00,5.99673e-13,5.65890e-01,3.10493e-13,5.65890e-01,8.73166e-13,5.65890e-01
7.86728e+02,8.33000e+02,8.23000e+02,1.00000e+01,6.55133e-13,5.73435e-01,5.97075e-14,5.73435e-01,6.25458e-13,5.73435e-01
7.86978e+02,8.41000e+02,8.25000e+02,1.60000e+01,3.12668e-13,5.80980e-01,3.82302e-13,5.80980e-01,8.27132e-14,5.80980e-01
7.87228e+02,8.81000e+02,9.04000e+02,-2.30000e+01,3.38788e-13,5.88525e-01,3.91792e-13,5.88525e-01,3.96937e-13,5.88525e-01
7.87478e+02,8.84000e+02,8.91000e+02,-7.00000e+00,4.57360e-13,5.96071e-01,3.43644e-13,5.96071e-01,7.87168e-13,5.96071e-01
7.87728e+02,8.65000e+02,8.84000e+02,-1.90000e+01,5.10204e-13,6.03616e-01,3.43138e-13,6.03616e-01,8.40408e-13,6.03616e-01
7.87978e+02,8.54000e+02,8.04000e+02,5.00000e+01,3.42035e-13,6.11161e-01,3.22126e-13,6.11161e-01,6.64161e-13,6.11161e-01
7.88228e+02,8.42000e+02,7.85000e+02,5.70000e+01,3.73533e-13,6.18706e-01,2.01797e-13,6.18706e-01,5.71231e-13,6.18706e-01
7.88478e+02,8.17000e+02,7.86000e+02,3.10000e+01,1.77253e-13,6.26251e-01,2.58242e-13,6.26251e-01,4.17148e-13,6.26251e-01
7.88728e+02,8.28000e+02,7.77000e+02,5.10000e+01,2.24141e-13,6.33797e-01,1.34587e-13,6.33797e-01,3.36064e-13,6.33797e-01
7.88978e+02,8.61000e+02,7.94000e+02,6.70000e+01,1.54344e-13,6.41342e-01,8.63140e-14,6.41342e-01,2.36624e-13,6.41342e-01
7.89228e+02,9.20000e+02,8.25000e+02,9.50000e+01,1.88870e-13,6.48887e-01,1.83109e-13,6.48887e-01,1.41116e-13,6.48887e-01
7.89478e+02,9.26000e+02,8.90000e+02,3.60000e+01,3.31815e-13,6.56432e-01,1.80357e-13,6.56432e-01,4.28679e-13,6.56432e-01
7.89728e+02,9.03000e+02,8.94000e+02,9.00000e+00,3.76765e-13,6.63977e-01,2.46013e-13,6.63977e-01,2.94472e-13,6.63977e-01
7.89978e+02,8.39000e+02,8.77000e+02,-3.80000e+01,1.86242e-13,6.71523e-01,2.70548e-13,6.71523e-01,4.11180e-13,6.71523e-01
7.90228e+02,8.13000e+02,8.66000e+02,-5.30000e+01,2.16049e-13,6.79068e-01,1.77613e-13,6.79068e-01,3.42824e-13,6.79068e-01
7.90478e+02,8.02000e+02,8.42000e+02,-4.00000e+01,1.27263e-13,6.86613e-01,1.43228e-13,6.86613e-01,1.84495e-13,6.86613e-01
7.90728e+02,8.25000e+02,8.76000e+02,-5.10000e+01,1.29223e-13,6.94158e-01,2.88190e-13,6.94158e-01,3.02899e-13,6.94158e-01
7.90978e+02,8.38000e+02,8.90000e+02,-5.20000e+01,2.04189e-13,7.01703e-01,2.91140e-13,7.01703e-01,3.63370e-13,7.01703e-01
7.91228e+02,8.62000e+02,9.16000e+02,-5.40000e+01,2.06868e-13,7.09249e-01,3.39551e-13,7.09249e-01,4.23063e-13,7.09249e-01
7.91478e+02,8.87000e+02,9.12000e+02,-2.50000e+01,2.82718e-13,7.16794e-01,4.70808e-13,7.16794e-01,3.35977e-13,7.16794e-01
7.91728e+02,8.88000e+02,8.35000e+02,5.30000e+01,2.11696e-13,7.24339e-01,1.39059e-13,7.24339e-01,2.52748e-13,7.24339e-01
7.91977e+02,8.87000e+02,8.03000e+02,8.40000e+01,3.97769e-13,7.31884e-01,9.91202e-14,7.31884e-01,4.96836e-13,7.31884e-01
7.92227e+02,8.41000e+02,7.84000e+02,5.70000e+01,2.65875e-13,7.39429e-01,3.15707e-13,7.39429e-01,5.77549e-13,7.39429e-01
7.92477e+02,8.41000e+02,8.04000e+02,3.70000e+01,2.27309e-13,7.46975e-01,3.09835e-13,7.46975e-01,5.07109e-13,7.46975e-01
7.92727e+02,8.61000e+02,8.03000e+02,5.80000e+01,3.59387e-13,7.54520e-01,3.98321e-13,7.54520e-01,7.00217e-13,7.54520e-01
7.92977e+02,9.57000e+02,8.58000e+02,9.90000e+01,3.75442e-13,7.62065e-01,2.90103e-13,7.62065e-01,6.00738e-13,7.62065e-01
7.93227e+02,1.00700e+03,9.36000e+02,7.10000e+01,3.12810e-13,7.69610e-01,2.65618e-13,7.69610e-01,4.49867e-13,7.69610e-01
7.93476e+02,1.02400e+03,9.58000e+02,6.60000e+01,1.22497e-13,7.77155e-01,1.31552e-13,7.77155e-01,2.19723e-14,7.77155e-01
7.93726e+02,9.61000e+02,1.00000e+03,-3.90000e+01,1.18776e-13,7.84701e-01,1.47915e-13,7.84701e-01,2.34695e-13,7.84701e-01
7.93976e+02,8.69000e+02,9.48000e+02,-7.90000e+01,1.52355e-13,7.92246e-01,1.77652e-13,7.92246e-01,2.32917e-13,7.92246e-01
7.94226e+02,8.43000e+02,9.02000e+02,-5.90000e+01,1.70028e-13,7.99791e-01,2.63166e-13,7.99791e-01,9.99694e-14,7.99791e-01
7.94476e+02,8.37000e+02,8.76000e+02,-3.90000e+01,1.50796e-13,8.07336e-01,2.04335e-13,8.07336e-01,5.73750e-14,8.07336e-01
7.94725e+02,8.70000e+02,9.18000e+02,-4.80000e+01,2.37174e-14,8.14881e-01,1.53906e-13,8.14881e-01,1.75444e-13,8.14881e-01
7.94975e+02,9.28000e+02,9.86000e+02,-5.80000e+01,1.88395e-13,8.22427e-01,2.68454e-13,8.22427e-01,1.09812e-13,8.22427e-01
7.95225e+02,1.00300e+03,1.00200e+03,1.00000e+00,6.81023e-14,8.29972e-01,2.16418e-13,8.29972e-01,1.62913e-13,8.29972e-01
7.95475e+02,1.06100e+03,9.63000e+02,9.80000e+01,5.54331e-14,8.37517e-01,3.05161e-13,8.37517e-01,2.86047e-13,8.37517e-01
7.95724e+02,1.01500e+03,9.15000e+02,1.00000e+02,1.63063e-13,8.45062e-01,8.57079e-14,8.45062e-01,2.48220e-13,8.45062e-01
7.95974e+02,9.70000e+02,8.77000e+02,9.30000e+01,8.42676e-14,8.52607e-01,9.12758e-14,8.52607e-01,1.61541e-13,8.52607e-01
7.96224e+02,9.44000e+02,8.65000e+02,7.90000e+01,1.15714e-13,8.60153e-01,3.05180e-14,8.60153e-01,1.24551e-13,8.60153e-01
7.96474e+02,9.47000e+02,8.78000e+02,6.90000e+01,8.98235e-14,8.67698e-01,9.90922e-14,8.67698e-01,1.88130e-13,8.67698e-01
7.96723e+02,1.03700e+03,9.60000e+02,7.70000e+01,1.81050e-13,8.75243e-01,7.40352e-14,8.75243e-01,2.29481e-13,8.75243e-01
7.96973e+02,1.10600e+03,1.07800e+03,2.80000e+01,9.76086e-14,8.82788e-01,1.55668e-13,8.82788e-01,2.49905e-13,8.82788e-01
7.97223e+02,1.09600e+03,1.19100e+03,-9.50000e+01,1.47778e-13,8.90333e-01,1.29051e-13,8.90333e-01,2.74037e-13,8.90333e-01
7.97472e+02,1.02600e+03,1.18700e+03,-1.61000e+02,5.98970e-14,8.97879e-01,1.82301e-13,8.97879e-01,2.19170e-13,8.97879e-01
7.97722e+02,9.65000e+02,1.12100e+03,-1.56000e+02,9.51185e-14,9.05424e-01,7.80884e-14,9.05424e-01,1.48597e-13,9.05424e-01
7.97972e+02,9.24000e+02,1.00400e+03,-8.00000e+01,3.82870e-14,9.12969e-01,1.33861e-13,9.12969e-01,1.56023e-13,9.12969e-01
7.98221e+02,9.14000e+02,9.68000e+02,-5.40000e+01,1.32289e-13,9.20514e-01,1.40699e-13,9.20514e-01,1.25353e-13,9.20514e-01
7.98471e+02,9.64000e+02,9.71000e+02,-7.00000e+00,2.12778e-14,9.28059e-01,1.18101e-13,9.28059e-01,1.29528e-13,9.28059e-01
7.98721e+02,1.06400e+03,1.01500e+03,4.90000e+01,2.39049e-13,9.35605e-01,6.90059e-14,9.35605e-01,3.08054e-13,9.35605e-01
7.98970e+02,1.26100e+03,1.10200e+03,1.59000e+02,1.14246e-13,9.43150e-01,1.69499e-13,9.43150e-01,2.71816e-13,9.43150e-01
7.99220e+02,1.38400e+03,1.16300e+03,2.21000e+02,1.32436e-13,9.50695e-01,1.78272e-13,9.50695e-01,3.06912e-13,9.50695e-01
7.99469e+02,1.48000e+03,1.23300e+03,2.47000e+02,1.46950e-13,9.58240e-01,1.33188e-13,9.58240e-01,2.77515e-13,9.58240e-01
7.99719e+02,1.34100e+03,1.29100e+03,5.00000e+01,1.62114e-13,9.65785e-01,9.03128e-14,9.65785e-01,1.82950e-13,9.65785e-01
7.99969e+02,1.13600e+03,1.17000e+03,-3.40000e+01,1.31878e-13,9.73331e-01,1.24367e-13,9.73331e-01,1.94752e-13,9.73331e-01
8.00218e+02,1.09500e+03,1.09800e+03,-3.00000e+00,8.71256e-14,9.80876e-01,2.42094e-13,9.80876e-01,1.90959e-13,9.80876e-01
8.00468e+02,1.17100e+03,1.06800e+03,1.03000e+02,5.34848e-14,9.88421e-01,1.84820e-13,9.88421e-01,2.16229e-13,9.88421e-01
8.00717e+02,1.25800e+03,1.20400e+03,5.40000e+01,9.12089e-14,9.95966e-01,1.65703e-13,9.95966e-01,1.47534e-13,9.95966e-01
8.00967e+02,1.31500e+03,1.39800e+03,-8.30000e+01,1.34587e-13,1.00351e+00,7.17415e-14,1.00351e+00,1.65866e-13,1.00351e+00
8.01216e+02,1.32800e+03,1.63000e+03,-3.02000e+02,2.17114e-13,1.01106e+00,1.70982e-13,1.01106e+00,3.87830e-13,1.01106e+00
8.01466e+02,1.31100e+03,1.56700e+03,-2.56000e+02,1.86889e-13,1.01860e+00,2.86343e-13,1.01860e+00,4.21532e-13,1.01860e+00
8.01715e+02,1.34100e+03,1.38500e+03,-4.40000e+01,1.80681e-13,1.02615e+00,1.93871e-13,1.02615e+00,2.07726e-13,1.02615e+00
8.01965e+02,1.27300e+03,1.23400e+03,3.90000e+01,3.28107e-13,1.03369e+00,2.65978e-13,1.03369e+00,1.84676e-13,1.03369e+00
8.02215e+02,1.24100e+03,1.19400e+03,4.70000e+01,2.62349e-13,1.04124e+00,2.21888e-13,1.04124e+00,5.42982e-14,1.04124e+00
8.02464e+02,1.16600e+03,1.28300e+03,-1.17000e+02,1.76442e-13,1.04878e+00,1.02694e-13,1.04878e+00,1.30721e-13,1.04878e+00
8.02713e+02,1.36100e+03,1.32400e+03,3.70000e+01,1.17053e-13,1.05633e+00,5.72582e-14,1.05633e+00,8.46967e-14,1.05633e+00
8.02963e+02,1.72900e+03,1.40100e+03,3.28000e+02,2.56642e-13,1.06387e+00,1.10669e-13,1.06387e+00,1.60777e-13,1.06387e+00
8.03212e+02,2.06600e+03,1.62800e+03,4.38000e+02,1.52520e-13,1.07142e+00,8.60739e-14,1.07142e+00,7.11511e-14,1.07142e+00
8.03462e+02,2.28800e+03,1.79000e+03,4.98000e+02,1.91468e-14,1.07896e+00,1.09865e-13,1.07896e+00,1.12673e-13,1.07896e+00
8.03711e+02,1.98900e+03,1.81300e+03,1.76000e+02,6.79186e-14,1.08651e+00,1.05774e-13,1.08651e+00,1.34809e-13,1.08651e+00
8.03961e+02,1.76600e+03,1.79000e+03,-2.40000e+01,5.39772e-14,1.09405e+00,1.60620e-13,1.09405e+00,1.55984e-13,1.09405e+00
8.04210e+02,1.58800e+03,1.60100e+03,-1.30000e+01,6.45185e-14,1.10160e+00,5.04994e-14,1.10160e+00,4.87832e-14,1.10160e+00
8.04460e+02,1.61400e+03,1.51100e+03,1.03000e+02,1.37061e-13,1.10914e+00,1.68564e-14,1.10914e+00,1.31314e-13,1.10914e+00
8.04709e+02,1.66100e+03,1.81300e+03,-1.52000e+02,1.06149e-13,1.11669e+00,1.20521e-13,1.11669e+00,2.26365e-13,1.11669e+00
8.04958e+02,1.68500e+03,2.36000e+03,-6.75000e+02,6.33266e-14,1.12423e+00,9.93111e-14,1.12423e+00,1.62576e-13,1.12423e+00
8.05208e+02,1.81300e+03,2.72300e+03,-9.10000e+02,7.65009e-14,1.13178e+00,9.90162e-14,1.13178e+00,1.48124e-13,1.13178e+00
8.05457e+02,1.87900e+03,2.27300e+03,-3.94000e+02,2.08576e-13,1.13932e+00,2.54430e-13,1.13932e+00,4.60260e-14,1.13932e+00
8.05707e+02,2.03200e+03,1.96900e+03,6.30000e+01,2.92112e-13,1.14687e+00,2.39548e-13,1.14687e+00,9.25801e-14,1.14687e+00
8.05956e+02,2.07900e+03,1.84000e+03,2.39000e+02,2.00039e-13,1.15442e+00,1.87318e-13,1.15442e+00,6.46743e-14,1.15442e+00
8.06205e+02,1.96200e+03,1.88700e+03,7.50000e+01,7.37304e-14,1.16196e+00,2.17406e-14,1.16196e+00,9.43965e-14,1.16196e+00
8.06455e+02,1.93400e+03,2.13600e+03,-2.02000e+02,3.64923e-14,1.16951e+00,1.46717e-13,1.16951e+00,1.10425e-13,1.16951e+00
8.06704e+02,2.12200e+03,2.53900e+03,-4.17000e+02,1.20431e-13,1.17705e+00,1.85463e-13,1.17705e+00,8.03838e-14,1.17705e+00
8.06953e+02,2.77300e+03,2.76500e+03,8.00000e+00,1.09303e-13,1.18460e+00,1.35245e-13,1.18460e+00,2.05561e-13,1.18460e+00
8.07203e+02,3.35500e+03,2.70800e+03,6.47000e+02,1.25251e-13,1.19214e+00,6.93619e-14,1.19214e+00,1.87328e-13,1.19214e+00
8.07452e+02,3.30500e+03,2.80700e+03,4.98000e+02,1.36073e-13,1.19969e+00,4.31443e-14,1.19969e+00,1.37004e-13,1.19969e+00
8.07701e+02,2.66200e+03,2.86800e+03,-2.06000e+02,6.42679e-14,1.20723e+00,1.51862e-13,1.20723e+00,1.31535e-13,1.20723e+00
8.07951e+02,2.10600e+03,2.55400e+03,-4.48000e+02,6.33879e-14,1.21478e+00,5.54779e-14,1.21478e+00,1.17274e-13,1.21478e+00
8.08200e+02,1.92000e+03,2.14400e+03,-2.24000e+02,3.89920e-14,1.22232e+00,1.06461e-13,1.22232e+00,6.77570e-14,1.22232e+00
8.08449e+02,1.91400e+03,2.21100e+03,-2.97000e+02,6.87541e-14,1.22987e+00,1.84695e-13,1.22987e+00,1.20875e-13,1.22987e+00
8.08698e+02,1.86300e+03,2.39300e+03,-5.30000e+02,5.53606e-14,1.23741e+00,1.28201e-13,1.23741e+00,1.41254e-13,1.23741e+00
8.08948e+02,2.02300e+03,2.74100e+03,-7.18000e+02,7.31725e-14,1.24496e+00,1.24954e-13,1.24496e+00,9.41980e-14,1.24496e+00
8.09197e+02,2.29500e+03,2.88500e+03,-5.90000e+02,1.48058e-13,1.25250e+00,7.40816e-14,1.25250e+00,2.21378e-13,1.25250e+00
8.09446e+02,2.51700e+03,2.63700e+03,-1.20000e+02,4.39622e-14,1.26005e+00,1.04056e-13,1.26005e+00,1.47840e-13,1.26005e+00
8.09695e+02,2.73100e+03,2.38400e+03,3.47000e+02,4.24319e-14,1.26759e+00,7.87957e-14,1.26759e+00,1.09922e-13,1.26759e+00
8.09945e+02,2.52900e+03,2.11500e+03,4.14000e+02,5.47827e-14,1.27514e+00,4.03576e-14,1.27514e+00,9.42611e-14,1.27514e+00
8.10194e+02,2.14800e+03,2.04800e+03,1.00000e+02,5.71942e-14,1.28268e+00,6.64967e-14,1.28268e+00,1.22445e-13,1.28268e+00
8.10443e+02,2.24600e+03,2.08200e+03,1.64000e+02,1.74489e-13,1.29023e+00,3.34319e-14,1.29023e+00,1.51397e-13,1.29023e+00
8.10692e+02,2.72400e+03,2.22200e+03,5.02000e+02,6.07536e-14,1.29777e+00,9.51942e-14,1.29777e+00,9.61639e-14,1.29777e+00
8.10941e+02,3.18600e+03,2.60000e+03,5.86000e+02,2.47302e-13,1.30532e+00,1.19503e-13,1.30532e+00,2.90781e-13,1.30532e+00
8.11191e+02,2.98800e+03,2.76300e+03,2.25000e+02,1.33766e-13,1.31286e+00,1.11838e-13,1.31286e+00,2.04909e-13,1.31286e+00
8.11440e+02,2.61200e+03,2.92500e+03,-3.13000e+02,1.55616e-14,-1.32041e+00,5.54402e-14,-1.32041e+00,3.98786e-14,-1.32041e+00
8.11689e+02,2.34600e+03,2.75300e+03,-4.07000e+02,1.33766e-13,-1.31286e+00,1.11838e-13,-1.31286e+00,2.04909e-13,-1.31286e+00
8.11938e+02,2.21400e+03,2.33600e+03,-1.22000e+02,2.47302e-13,-1.30532e+00,1.19503e-13,-1.30532e+00,2.90781e-13,-1.30532e+00
8.12187e+02,1.99700e+03,2.05800e+03,-6.10000e+01,6.07536e-14,-1.29777e+00,9.51942e-14,-1.29777e+00,9.61639e-14,-1.29777e+00
8.12436e+02,1.87700e+03,1.97000e+03,-9.30000e+01,1.74489e-13,-1.29023e+00,3.34319e-14,-1.29023e+00,1.51397e-13,-1.29023e+00
8.12685e+02,1.99800e+03,2.02300e+03,-2.50000e+01,5.71942e-14,-1.28268e+00,6.64967e-14,-1.28268e+00,1.22445e-13,-1.28268e+00
8.12935e+02,2.12500e+03,2.21900e+03,-9.40000e+01,5.47827e-14,-1.27514e+00,4.03576e-14,-1.27514e+00,9.42611e-14,-1.27514e+00
8.13184e+02,2.44400e+03,2.33000e+03,1.14000e+02,4.24319e-14,-1.26759e+00,7.87957e-14,-1.26759e+00,1.09922e-13,-1.26759e+00
8.13433e+02,2.66100e+03,2.33200e+03,3.29000e+02,4.39622e-14,-1.26005e+00,1.04056e-13,-1.26005e+00,1.47840e-13,-1.26005e+00
8.13682e+02,2.43700e+03,2.34800e+03,8.90000e+01,1.48058e-13,-1.25250e+00,7.40816e-14,-1.25250e+00,2.21378e-13,-1.25250e+00
8.13931e+02,2.28400e+03,2.17400e+03,1.10000e+02,7.31725e-14,-1.24496e+00,1.24954e-13,-1.24496e+00,9.41980e-14,-1.24496e+00
8.14180e+02,1.97200e+03,2.05200e+03,-8.00000e+01,5.53606e-14,-1.23741e+00,1.28201e-13,-1.23741e+00,1.41254e-13,-1.23741e+00
8.14429e+02,1.76900e+03,1.87000e+03,-1.01000e+02,6.87541e-14,-1.22987e+00,1.84695e-13,-1.22987e+00,1.20875e-13,-1.22987e+00
8.14678e+02,1.66700e+03,1.84700e+03,-1.80000e+02,3.89920e-14,-1.22232e+00,1.06461e-13,-1.22232e+00,6.77570e-14,-1.22232e+00
8.14927e+02,1.74200e+03,1.98900e+03,-2.47000e+02,6.33879e-14,-1.21478e+00,5.54779e-14,-1.21478e+00,1.17274e-13,-1.21478e+00
8.15176e+02,1.91900e+03,2.29000e+03,-3.71000e+02,6.42679e-14,-1.20723e+00,1.51862e-13,-1.20723e+00,1.31535e-13,-1.20723e+00
8.15425e+02,2.01100e+03,2.59600e+03,-5.85000e+02,1.36073e-13,-1.19969e+00,4.31443e-14,-1.19969e+00,1.37004e-13,-1.19969e+00
8.15674e+02,1.93300e+03,2.51400e+03,-5.81000e+02,1.25251e-13,-1.19214e+00,6.93619e-14,-1.19214e+00,1.87328e-13,-1.19214e+00
8.15923e+02,2.11200e+03,2.11700e+03,-5.00000e+00,1.09303e-13,-1.18460e+00,1.35245e-13,-1.18460e+00,2.05561e-13,-1.18460e+00
8.16172e+02,2.04900e+03,1.75500e+03,2.94000e+02,1.20431e-13,-1.17705e+00,1.85463e-13,-1.17705e+00,8.03838e-14,-1.17705e+00
8.16421e+02,1.85200e+03,1.61300e+03,2.39000e+02,3.64923e-14,-1.16951e+00,1.46717e-13,-1.16951e+00,1.10425e-13,-1.16951e+00
8.16670e+02,1.71700e+03,1.57700e+03,1.40000e+02,7.37304e-14,-1.16196e+00,2.17406e-14,-1.16196e+00,9.43965e-14,-1.16196e+00
8.16919e+02,1.80400e+03,1.56500e+03,2.39000e+02,2.00039e-13,-1.15442e+00,1.87318e-13,-1.15442e+00,6.46743e-14,-1.15442e+00
8.17168e+02,2.07300e+03,1.73300e+03,3.40000e+02,2.92112e-13,-1.14687e+00,2.39548e-13,-1.14687e+00,9.25801e-14,-1.14687e+00
8.17417e+02,2.11700e+03,1.95600e+03,1.61000e+02,2.08576e-13,-1.13932e+00,2.54430e-13,-1.13932e+00,4.60260e-14,-1.13932e+00
8.17666e+02,2.05300e+03,2.22700e+03,-1.74000e+02,7.65009e-14,-1.13178e+00,9.90162e-14,-1.13178e+00,1.48124e-13,-1.13178e+00
8.17915e+02,1.98800e+03,2.41300e+03,-4.25000e+02,6.33266e-14,-1.12423e+00,9.93111e-14,-1.12423e+00,1.62576e-13,-1.12423e+00
8.18164e+02,1.75500e+03,2.14700e+03,-3.92000e+02,1.06149e-13,-1.11669e+00,1.20521e-13,-1.11669e+00,2.26365e-13,-1.11669e+00
8.18413e+02,1.63100e+03,1.86900e+03,-2.38000e+02,1.37061e-13,-1.10914e+00,1.68564e-14,-1.10914e+00,1.31314e-13,-1.10914e+00
8.18662e+02,1.55400e+03,1.66200e+03,-1.08000e+02,6.45185e-14,-1.10160e+00,5.04994e-14,-1.10160e+00,4.87832e-14,-1.10160e+00
8.18911e+02,1.52600e+03,1.85400e+03,-3.28000e+02,5.39772e-14,-1.09405e+00,1.60620e-13,-1.09405e+00,1.55984e-13,-1.09405e+00
8.19160e+02,1.55300e+03,1.98100e+03,-4.28000e+02,6.79186e-14,-1.08651e+00,1.05774e-13,-1.08651e+00,1.34809e-13,-1.08651e+00
8.19408e+02,1.63800e+03,2.00800e+03,-3.70000e+02,1.91468e-14,-1.07896e+00,1.09865e-13,-1.07896e+00,1.12673e-13,-1.07896e+00
8.19657e+02,1.82700e+03,1.97600e+03,-1.49000e+02,1.52520e-13,-1.07142e+00,8.60739e-14,-1.07142e+00,7.11511e-14,-1.07142e+00
8.19906e+02,1.97700e+03,1.91000e+03,6.70000e+01,2.56642e-13,-1.06387e+00,1.10669e-13,-1.06387e+00,1.60777e-13,-1.06387e+00
8.20155e+02,2.03700e+03,1.72100e+03,3.16000e+02,1.17053e-13,-1.05633e+00,5.72582e-14,-1.05633e+00,8.46967e-14,-1.05633e+00
8.20404e+02,1.92900e+03,1.62200e+03,3.07000e+02,1.76442e-13,-1.04878e+00,1.02694e-13,-1.04878e+00,1.30721e-13,-1.04878e+00
8.20653e+02,1.76700e+03,1.59900e+03,1.68000e+02,2.62349e-13,-1.04124e+00,2.21888e-13,-1.04124e+00,5.42982e-14,-1.04124e+00
8.20901e+02,1.77300e+03,1.53500e+03,2.38000e+02,3.28107e-13,-1.03369e+00,2.65978e-13,-1.03369e+00,1.84676e-13,-1.03369e+00
8.21150e+02,2.04100e+03,1.63400e+03,4.07000e+02,1.80681e-13,-1.02615e+00,1.93871e-13,-1.02615e+00,2.07726e-13,-1.02615e+00
8.21399e+02,2.16000e+03,1.94200e+03,2.18000e+02,1.86889e-13,-1.01860e+00,2.86343e-13,-1.01860e+00,4.21532e-13,-1.01860e+00
8.21648e+02,2.10900e+03,2.43300e+03,-3.24000e+02,2.17114e-13,-1.01106e+00,1.70982e-13,-1.01106e+00,3.87830e-13,-1.01106e+00
8.21897e+02,1.83500e+03,2.78500e+03,-9.50000e+02,1.34587e-13,-1.00351e+00,7.17415e-14,-1.00351e+00,1.65866e-13,-1.00351e+00
8.22145e+02,1.67600e+03,2.38200e+03,-7.06000e+02,9.12089e-14,-9.95966e-01,1.65703e-13,-9.95966e-01,1.47534e-13,-9.95966e-01
8.22394e+02,1.56000e+03,1.95000e+03,-3.90000e+02,5.34848e-14,-9.88421e-01,1.84820e-13,-9.88421e-01,2.16229e-13,-9.88421e-01
8.22643e+02,1.43100e+03,1.69200e+03,-2.61000e+02,8.71256e-14,-9.80876e-01,2.42094e-13,-9.80876e-01,1.90959e-13,-9.80876e-01
8.22892e+02,1.43900e+03,1.62400e+03,-1.85000e+02,1.31878e-13,-9.73331e-01,1.24367e-13,-9.73331e-01,1.94752e-13,-9.73331e-01
8.23140e+02,1.52300e+03,1.88000e+03,-3.57000e+02,1.62114e-13,-9.65785e-01,9.03128e-14,-9.65785e-01,1.82950e-13,-9.65785e-01
8.23389e+02,1.70200e+03,1.89600e+03,-1.94000e+02,1.46950e-13,-9.58240e-01,1.33188e-13,-9.58240e-01,2.77515e-13,-9.58240e-01
8.23638e+02,2.19300e+03,1.78500e+03,4.08000e+02,1.32436e-13,-9.50695e-01,1.78272e-13,-9.50695e-01,3.06912e-13,-9.50695e-01
8.23887e+02,2.44500e+03,1.80800e+03,6.37000e+02,1.14246e-13,-9.43150e-01,1.69499e-13,-9.43150e-01,2.71816e-13,-9.43150e-01
8.24135e+02,2.38500e+03,1.93300e+03,4.52000e+02,2.39049e-13,-9.35605e-01,6.90059e-14,-9.35605e-01,3.08054e-13,-9.35605e-01
8.24384e+02,2.00000e+03,1.94400e+03,5.60000e+01,2.12778e-14,-9.28059e-01,1.18101e-13,-9.28059e-01,1.29528e-13,-9.28059e-01
8.24633e+02,1.59500e+03,1.79200e+03,-1.97000e+02,1.32289e-13,-9.20514e-01,1.40699e-13,-9.20514e-01,1.25353e-13,-9.20514e-01
8.24881e+02,1.44600e+03,1.60000e+03,-1.54000e+02,3.82870e-14,-9.12969e-01,1.33861e-13,-9.12969e-01,1.56023e-13,-9.12969e-01
8.25130e+02,1.54200e+03,1.52200e+03,2.00000e+01,9.51185e-14,-9.05424e-01,7.80884e-14,-9.05424e-01,1.48597e-13,-9.05424e-01
8.25379e+02,1.65000e+03,1.74200e+03,-9.20000e+01,5.98970e-14,-8.97879e-01,1.82301e-13,-8.97879e-01,2.19170e-13,-8.97879e-01
8.25627e+02,1.64300e+03,2.02800e+03,-3.85000e+02,1.47778e-13,-8.90333e-01,1.29051e-13,-8.90333e-01,2.74037e-13,-8.90333e-01
8.25876e+02,1.57300e+03,2.17300e+03,-6.00000e+02,9.76086e-14,-8.82788e-01,1.55668e-13,-8.82788e-01,2.49905e-13,-8.82788e-01
8.26125e+02,1.52900e+03,2.03300e+03,-5.04000e+02,1.81050e-13,-8.75243e-01,7.40352e-14,-8.75243e-01,2.29481e-13,-8.75243e-01
8.26373e+02,1.58600e+03,1.85400e+03,-2.68000e+02,8.98235e-14,-8.67698e-01,9.90922e-14,-8.67698e-01,1.88130e-13,-8.67698e-01
8.26622e+02,1.61100e+03,1.53400e+03,7.70000e+01,1.15714e-13,-8.60153e-01,3.05180e-14,-8.60153e-01,1.24551e-13,-8.60153e-01
8.26870e+02,1.54300e+03,1.41700e+03,1.26000e+02,8.42676e-14,-8.52607e-01,9.12758e-14,-8.52607e-01,1.61541e-13,-8.52607e-01
8.27119e+02,1.36900e+03,1.35400e+03,1.50000e+01,1.63063e-13,-8.45062e-01,8.57079e-14,-8.45062e-01,2.48220e-13,-8.45062e-01
8.27368e+02,1.30500e+03,1.35700e+03,-5.20000e+01,5.54331e-14,-8.37517e-01,3.05161e-13,-8.37517e-01,2.86047e-13,-8.37517e-01
8.27616e+02,1.49200e+03,1.37200e+03,1.20000e+02,6.81023e-14,-8.29972e-01,2.16418e-13,-8.29972e-01,1.62913e-13,-8.29972e-01
8.27865e+02,1.67800e+03,1.31900e+03,3.59000e+02,1.88395e-13,-8.22427e-01,2.68454e-13,-8.22427e-01,1.09812e-13,-8.22427e-01
8.28113e+02,1.89400e+03,1.38100e+03,5.13000e+02,2.37174e-14,-8.14881e-01,1.53906e-13,-8.14881e-01,1.75444e-13,-8.14881e-01
8.28362e+02,1.56400e+03,1.41200e+03,1.52000e+02,1.50796e-13,-8.07336e-01,2.04335e-13,-8.07336e-01,5.73750e-14,-8.07336e-01
8.28610e+02,1.32400e+03,1.47400e+03,-1.50000e+02,1.70028e-13,-7.99791e-01,2.63166e-13,-7.99791e-01,9.99694e-14,-7.99791e-01
8.28859e+02,1.21400e+03,1.40100e+03,-1.87000e+02,1.52355e-13,-7.92246e-01,1.77652e-13,-7.92246e-01,2.32917e-13,-7.92246e-01
8.29108e+02,1.14400e+03,1.31300e+03,-1.69000e+02,1.18776e-13,-7.84701e-01,1.47915e-13,-7.84701e-01,2.34695e-13,-7.84701e-01
8.29356e+02,1.12700e+03,1.21200e+03,-8.50000e+01,1.22497e-13,-7.77155e-01,1.31552e-13,-7.77155e-01,2.19723e-14,-7.77155e-01
8.29605e+02,1.09000e+03,1.30000e+03,-2.10000e+02,3.12810e-13,-7.69610e-01,2.65618e-13,-7.69610e-01,4.49867e-13,-7.69610e-01
8.29853e+02,1.09300e+03,1.47500e+03,-3.82000e+02,3.75442e-13,-7.62065e-01,2.90103e-13,-7.62065e-01,6.00738e-13,-7.62065e-01
8.30101e+02,1.12800e+03,1.46400e+03,-3.36000e+02,3.59387e-13,-7.54520e-01,3.98321e-13,-7.54520e-01,7.00217e-13,-7.54520e-01
8.30350e+02,1.21200e+03,1.33800e+03,-1.26000e+02,2.27309e-13,-7.46975e-01,3.09835e-13,-7.46975e-01,5.07109e-13,-7.46975e-01
8.30598e+02,1.29900e+03,1.14200e+03,1.57000e+02,2.65875e-13,-7.39429e-01,3.15707e-13,-7.39429e-01,5.77549e-13,-7.39429e-01
8.30847e+02,1.14000e+03,1.00100e+03,1.39000e+02,3.97769e-13,-7.31884e-01,9.91202e-14,-7.31884e-01,4.96836e-13,-7.31884e-01
8.31095e+02,1.01900e+03,9.62000e+02,5.70000e+01,2.11696e-13,-7.24339e-01,1.39059e-13,-7.24339e-01,2.52748e-13,-7.24339e-01
8.31344e+02,1.00300e+03,9.33000e+02,7.00000e+01,2.82718e-13,-7.16794e-01,4.70808e-13,-7.16794e-01,3.35977e-13,-7.16794e-01
8.31592e+02,9.82000e+02,9.05000e+02,7.70000e+01,2.06868e-13,-7.09249e-01,3.39551e-13,-7.09249e-01,4.23063e-13,-7.09249e-01
8.31841e+02,9.74000e+02,9.30000e+02,4.40000e+01,2.04189e-13,-7.01703e-01,2.91140e-13,-7.01703e-01,3.63370e-13,-7.01703e-01
8.32089e+02,1.01500e+03,9.77000e+02,3.80000e+01,1.29223e-13,-6.94158e-01,2.88190e-13,-6.94158e-01,3.02899e-13,-6.94158e-01
8.32337e+02,9.77000e+02,1.06600e+03,-8.90000e+01,1.27263e-13,-6.86613e-01,1.43228e-13,-6.86613e-01,1.84495e-13,-6.86613e-01
8.32586e+02,9.30000e+02,1.05100e+03,-1.21000e+02,2.16049e-13,-6.79068e-01,1.77613e-13,-6.79068e-01,3.42824e-13,-6.79068e-01
8.32834e+02,8.88000e+02,9.78000e+02,-9.00000e+01,1.86242e-13,-6.71523e-01,2.70548e-13,-6.71523e-01,4.11180e-13,-6.71523e-01
8.33083e+02,8.70000e+02,8.75000e+02,-5.00000e+00,3.76765e-13,-6.63977e-01,2.46013e-13,-6.63977e-01,2.94472e-13,-6.63977e-01
8.33331e+02,8.12000e+02,8.20000e+02,-8.00000e+00,3.31815e-13,-6.56432e-01,1.80357e-13,-6.56432e-01,4.28679e-13,-6.56432e-01
8.33579e+02,7.89000e+02,8.08000e+02,-1.90000e+01,1.88870e-13,-6.48887e-01,1.83109e-13,-6.48887e-01,1.41116e-13,-6.48887e-01
8.33828e+02,8.03000e+02,8.20000e+02,-1.70000e+01,1.54344e-13,-6.41342e-01,8.63140e-14,-6.41342e-01,2.36624e-13,-6.41342e-01
8.34076e+02,7.97000e+02,8.16000e+02,-1.90000e+01,2.24141e-13,-6.33797e-01,1.34587e-13,-6.33797e-01,3.36064e-13,-6.33797e-01
8.34324e+02,8.20000e+02,8.14000e+02,6.00000e+00,1.77253e-13,-6.26251e-01,2.58242e-13,-6.26251e-01,4.17148e-13,-6.26251e-01
8.34573e+02,8.22000e+02,8.08000e+02,1.40000e+01,3.73533e-13,-6.18706e-01,2.01797e-13,-6.18706e-01,5.71231e-13,-6.18706e-01
8.34821e+02,8.27000e+02,7.69000e+02,5.80000e+01,3.42035e-13,-6.11161e-01,3.22126e-13,-6.11161e-01,6.64161e-13,-6.11161e-01
8.35069e+02,8.04000e+02,7.80000e+02,2.40000e+01,5.10204e-13,-6.03616e-01,3.43138e-13,-6.03616e-01,8.40408e-13,-6.03616e-01
8.35318e+02,7.68000e+02,7.64000e+02,4.00000e+00,4.57360e-13,-5.96071e-01,3.43644e-13,-5.96071e-01,7.87168e-13,-5.96071e-01
8.35566e+02,7.52000e+02,7.58000e+02,-6.00000e+00,3.38788e-13,-5.88525e-01,3.91792e-13,-5.88525e-01,3.96937e-13,-5.88525e-01
8.35814e+02,7.32000e+02,7.13000e+02,1.90000e+01,3.12668e-13,-5.80980e-01,3.82302e-13,-5.80980e-01,8.27132e-14,-5.80980e-01
8.36062e+02,7.40000e+02,7.42000e+02,-2.00000e+00,6.55133e-13,-5.73435e-01,5.97075e-14,-5.73435e-01,6.25458e-13,-5.73435e-01
8.36311e+02,7.24000e+02,7.40000e+02,-1.60000e+01,5.99673e-13,-5.65890e-01,3.10493e-13,-5.65890e-01,8.73166e-13,-5.65890e-01
8.36559e+02,7.20000e+02,7.46000e+02,-2.60000e+01,4.69438e-13,-5.58345e-01,4.01997e-13,-5.58345e-01,6.79928e-13,-5.58345e-01
8.36807e+02,7.27000e+02,7.46000e+02,-1.90000e+01,6.45135e-13,-5.50799e-01,4.67531e-13,-5.50799e-01,8.06830e-13,-5.50799e-01
8.37055e+02,7.44000e+02,7.52000e+02,-8.00000e+00,7.74603e-13,-5.43254e-01,1.49832e-13,-5.43254e-01,6.45451e-13,-5.43254e-01
8.37304e+02,7.25000e+02,7.10000e+02,1.50000e+01,8.99387e-13,-5.35709e-01,2.04051e-13,-5.35709e-01,6.96232e-13,-5.35709e-01
8.37552e+02,7.13000e+02,6.97000e+02,1.60000e+01,9.05165e-13,-5.28164e-01,6.29842e-13,-5.28164e-01,1.53348e-12,-5.28164e-01
8.37800e+02,7.05000e+02,6.91000e+02,1.40000e+01,9.79340e-13,-5.20619e-01,1.23583e-12,-5.20619e-01,2.16963e-12,-5.20619e-01
8.38048e+02,7.16000e+02,6.88000e+02,2.80000e+01,1.93431e-12,-5.13073e-01,1.64399e-12,-5.13073e-01,3.44906e-12,-5.13073e-01
8.38296e+02,6.89000e+02,6.91000e+02,-2.00000e+00,2.14313e-12,-5.05528e-01,2.01424e-12,-5.05528e-01,3.96391e-12,-5.05528e-01
8.38545e+02,7.00000e+02,6.87000e+02,1.30000e+01,1.54265e-12,-4.97983e-01,1.29376e-12,-4.97983e-01,2.74280e-12,-4.97983e-01
8.38793e+02,7.01000e+02,7.10000e+02,-9.00000e+00,5.10136e-13,-4.90438e-01,5.18208e-13,-4.90438e-01,9.56411e-13,-4.90438e-01
8.39041e+02,7.05000e+02,6.99000e+02,6.00000e+00,6.68239e-13,-4.82893e-01,1.03728e-12,-4.82893e-01,1.66751e-12,-4.82893e-01
8.39289e+02,6.87000e+02,6.96000e+02,-9.00000e+00,1.05340e-12,-4.75347e-01,1.45617e-12,-4.75347e-01,2.45326e-12,-4.75347e-01
8.39537e+02,6.90000e+02,6.92000e+02,-2.00000e+00,6.30445e-13,-4.67802e-01,9.97317e-13,-4.67802e-01,1.62767e-12,-4.67802e-01
8.39785e+02,6.69000e+02,6.93000e+02,-2.40000e+01,3.39847e-13,-4.60257e-01,2.35100e-13,-4.60257e-01,5.00765e-13,-4.60257e-01
8.40033e+02,6.82000e+02,6.96000e+02,-1.40000e+01,4.54689e-13,-4.52712e-01,5.23835e-13,-4.52712e-01,8.14169e-13,-4.52712e-01
8.40281e+02,6.78000e+02,6.81000e+02,-3.00000e+00,3.59771e-13,-4.45167e-01,6.41786e-13,-4.45167e-01,9.51064e-13,-4.45167e-01
8.40530e+02,6.74000e+02,6.76000e+02,-2.00000e+00,1.80283e-13,-4.37621e-01,5.71210e-13,-4.37621e-01,7.31211e-13,-4.37621e-01
8.40778e+02,6.71000e+02,6.93000e+02,-2.20000e+01,7.66756e-14,-4.30076e-01,4.43865e-13,-4.30076e-01,5.20217e-13,-4.30076e-01
8.41026e+02,6.80000e+02,6.76000e+02,4.00000e+00,3.76169e-13,-4.22531e-01,2.05974e-13,-4.22531e-01,2.59446e-13,-4.22531e-01
8.41274e+02,6.81000e+02,6.86000e+02,-5.00000e+00,4.22268e-13,-4.14986e-01,2.76340e-13,-4.14986e-01,6.02719e-13,-4.14986e-01
8.41522e+02,6.64000e+02,6.78000e+02,-1.40000e+01,5.30409e-13,-4.07441e-01,1.06076e-13,-4.07441e-01,6.21886e-13,-4.07441e-01
8.41770e+02,6.67000e+02,6.77000e+02,-1.00000e+01,5.69037e-13,-3.99895e-01,2.48225e-13,-3.99895e-01,6.19541e-13,-3.99895e-01
8.42018e+02,6.79000e+02,6.84000e+02,-5.00000e+00,5.08063e-13,-3.92350e-01,3.66961e-13,-3.92350e-01,6.79054e-13,-3.92350e-01
8.42266e+02,6.69000e+02,6.57000e+02,1.20000e+01,4.54368e-13,-3.84805e-01,4.84824e-13,-3.84805e-01,7.43274e-13,-3.84805e-01
8.42514e+02,6.81000e+02,6.59000e+02,2.20000e+01,8.81223e-13,-3.77260e-01,2.73690e-13,-3.77260e-01,7.32931e-13,-3.77260e-01
8.42762e+02,6.68000e+02,6.68000e+02,0.00000e+00,7.57106e-13,-3.69715e-01,4.07747e-13,-3.69715e-01,8.77629e-13,-3.69715e-01
8.43010e+02,6.74000e+02,6.71000e+02,3.00000e+00,1.32295e-12,-3.62169e-01,1.18246e-12,-3.62169e-01,9.88001e-13,-3.62169e-01
8.43258e+02,6.72000e+02,6.76000e+02,-4.00000e+00,1.20636e-12,-3.54624e-01,8.72365e-13,-3.54624e-01,6.62736e-13,-3.54624e-01
8.43506e+02,6.84000e+02,6.69000e+02,1.50000e+01,1.28402e-12,-3.47079e-01,1.18781e-12,-3.47079e-01,5.59190e-13,-3.47079e-01
8.43754e+02,6.71000e+02,6.77000e+02,-6.00000e+00,1.91263e-12,-3.39534e-01,1.63254e-12,-3.39534e-01,3.45358e-13,-3.39534e-01
8.44002e+02,6.70000e+02,6.78000e+02,-8.00000e+00,2.99125e-12,-3.31989e-01,2.95738e-12,-3.31989e-01,1.32954e-13,-3.31989e-01
8.44250e+02,6.65000e+02,6.52000e+02,1.30000e+01,4.27717e-12,-3.24444e-01,4.57259e-12,-3.24444e-01,3.21106e-13,-3.24444e-01
8.44498e+02,6.49000e+02,6.62000e+02,-1.30000e+01,4.55207e-12,-3.16898e-01,5.07605e-12,-3.16898e-01,8.22371e-13,-3.16898e-01
8.44746e+02,6.62000e+02,6.66000e+02,-4.00000e+00,3.47280e-12,-3.09353e-01,4.44473e-12,-3.09353e-01,1.17350e-12,-3.09353e-01
8.44994e+02,6.43000e+02,6.80000e+02,-3.70000e+01,1.55556e-12,-3.01808e-01,2.66377e-12,-3.01808e-01,1.10979e-12,-3.01808e-01
8.45242e+02,6.70000e+02,6.81000e+02,-1.10000e+01,6.46556e-13,-2.94263e-01,1.25576e-12,-2.94263e-01,1.18196e-12,-2.94263e-01
8.45490e+02,6.74000e+02,6.68000e+02,6.00000e+00,7.10144e-13,-2.86718e-01,3.81888e-13,-2.86718e-01,1.08692e-12,-2.86718e-01
8.45738e+02,6.64000e+02,6.61000e+02,3.00000e+00,7.38857e-13,-2.79172e-01,5.31146e-13,-2.79172e-01,4.33976e-13,-2.79172e-01
8.45985e+02,6.64000e+02,6.76000e+02,-1.20000e+01,1.00554e-12,-2.71627e-01,3.89062e-13,-2.71627e-01,6.69527e-13,-2.71627e-01
8.46233e+02,6.73000e+02,6.69000e+02,4.00000e+00,1.01731e-12,-2.64082e-01,3.90239e-13,-2.64082e-01,1.08667e-12,-2.64082e-01
8.46481e+02,6.72000e+02,6.64000e+02,8.00000e+00,9.17665e-13,-2.56537e-01,2.29509e-13,-2.56537e-01,9.93235e-13,-2.56537e-01
8.46729e+02,6.52000e+02,6.75000e+02,-2.30000e+01,6.89214e-13,-2.48992e-01,1.14569e-13,-2.48992e-01,6.04603e-13,-2.48992e-01
8.46977e+02,6.86000e+02,6.54000e+02,3.20000e+01,1.27250e-12,-2.41446e-01,6.91209e-13,-2.41446e-01,7.01273e-13,-2.41446e-01
8.47225e+02,6.62000e+02,6.59000e+02,3.00000e+00,1.26128e-12,-2.33901e-01,4.92597e-13,-2.33901e-01,8.10951e-13,-2.33901e-01
8.47473e+02,6.75000e+02,6.57000e+02,1.80000e+01,1.00700e-12,-2.26356e-01,6.24022e-13,-2.26356e-01,5.58584e-13,-2.26356e-01
8.47720e+02,6.64000e+02,6.82000e+02,-1.80000e+01,7.52637e-13,-2.18811e-01,1.63317e-13,-2.18811e-01,7.53443e-13,-2.18811e-01
8.47968e+02,6.60000e+02,6.80000e+02,-2.00000e+01,1.05481e-12,-2.11266e-01,3.16485e-13,-2.11266e-01,1.34461e-12,-2.11266e-01
8.48216e+02,6.57000e+02,6.50000e+02,7.00000e+00,1.82721e-12,-2.03720e-01,4.78899e-13,-2.03720e-01,2.27869e-12,-2.03720e-01
8.48464e+02,6.51000e+02,6.53000e+02,-2.00000e+00,3.81933e-12,-1.96175e-01,1.66481e-12,-1.96175e-01,4.94182e-12,-1.96175e-01
8.48712e+02,6.51000e+02,6.46000e+02,5.00000e+00,4.52547e-12,-1.88630e-01,3.25420e-12,-1.88630e-01,7.04444e-12,-1.88630e-01
8.48960e+02,6.65000e+02,6.74000e+02,-9.00000e+00,3.07267e-12,-1.81085e-01,2.74894e-12,-1.81085e-01,4.55374e-12,-1.81085e-01
8.49207e+02,6.66000e+02,6.59000e+02,7.00000e+00,8.08103e-13,-1.73540e-01,1.93482e-12,-1.73540e-01,1.65177e-12,-1.73540e-01
8.49455e+02,6.60000e+02,6.68000e+02,-8.00000e+00,1.54996e-12,-1.65994e-01,1.17083e-12,-1.65994e-01,2.30573e-12,-1.65994e-01
8.49703e+02,6.72000e+02,6.61000e+02,1.10000e+01,2.15799e-12,-1.58449e-01,7.15839e-13,-1.58449e-01,2.86550e-12,-1.58449e-01
8.49951e+02,6.68000e+02,6.71000e+02,-3.00000e+00,1.93252e-12,-1.50904e-01,5.89802e-13,-1.50904e-01,2.01638e-12,-1.50904e-01
8.50198e+02,6.74000e+02,6.75000e+02,-1.00000e+00,1.36291e-12,-1.43359e-01,7.73510e-13,-1.43359e-01,1.18920e-12,-1.43359e-01
8.50446e+02,6.58000e+02,6.56000e+02,2.00000e+00,8.53199e-13,-1.35814e-01,4.94035e-13,-1.35814e-01,5.76772e-13,-1.35814e-01
8.50694e+02,6.53000e+02,6.70000e+02,-1.70000e+01,8.50561e-13,-1.28268e-01,5.05931e-13,-1.28268e-01,4.26763e-13,-1.28268e-01
8.50941e+02,6.90000e+02,6.76000e+02,1.40000e+01,6.61063e-13,-1.20723e-01,3.57931e-13,-1.20723e-01,4.80156e-13,-1.20723e-01
8.51189e+02,6.69000e+02,6.76000e+02,-7.00000e+00,7.89047e-13,-1.13178e-01,7.99161e-13,-1.13178e-01,5.28303e-13,-1.13178e-01
8.51437e+02,6.60000e+02,6.84000e+02,-2.40000e+01,5.27594e-13,-1.05633e-01,3.67445e-13,-1.05633e-01,4.85959e-13,-1.05633e-01
8.51685e+02,6.60000e+02,6.47000e+02,1.30000e+01,3.35515e-13,-9.80876e-02,4.60937e-13,-9.80876e-02,3.57118e-13,-9.80876e-02
8.51932e+02,6.66000e+02,6.61000e+02,5.00000e+00,1.19858e-13,-9.05424e-02,7.80349e-13,-9.05424e-02,7.93411e-13,-9.05424e-02
8.52180e+02,6.64000e+02,6.65000e+02,-1.00000e+00,3.64223e-13,-8.29972e-02,1.21390e-12,-8.29972e-02,1.01439e-12,-8.29972e-02
8.52428e+02,6.60000e+02,6.71000e+02,-1.10000e+01,3.22492e-13,-7.54520e-02,1.06910e-12,-7.54520e-02,1.08006e-12,-7.54520e-02
8.52675e+02,6.60000e+02,6.58000e+02,2.00000e+00,1.32275e-13,-6.79068e-02,6.61499e-13,-6.79068e-02,7.45274e-13,-6.79068e-02
8.52923e+02,6.62000e+02,6.47000e+02,1.50000e+01,6.71917e-13,-6.03616e-02,1.05243e-12,-6.03616e-02,7.11796e-13,-6.03616e-02
8.53170e+02,6.96000e+02,6.60000e+02,3.60000e+01,1.32217e-12,-5.28164e-02,1.38116e-12,-5.28164e-02,8.61831e-13,-5.28164e-02
8.53418e+02,6.53000e+02,6.58000e+02,-5.00000e+00,4.15614e-12,-4.52712e-02,4.50708e-12,-4.52712e-02,7.78605e-13,-4.52712e-02
8.53666e+02,6.69000e+02,6.64000e+02,5.00000e+00,4.78988e-12,-3.77260e-02,5.17712e-12,-3.77260e-02,5.85152e-13,-3.77260e-02
8.53913e+02,6.67000e+02,6.72000e+02,-5.00000e+00,6.60181e-12,-3.01808e-02,6.90220e-12,-3.01808e-02,5.99576e-13,-3.01808e-02
8.54161e+02,6.66000e+02,6.56000e+02,1.00000e+01,5.51225e-12,-2.26356e-02,5.55239e-12,-2.26356e-02,1.48101e-13,-2.26356e-02
8.54409e+02,6.55000e+02,6.66000e+02,-1.10000e+01,1.65621e-11,-1.50904e-02,1.77482e-11,-1.50904e-02,1.38403e-12,-1.50904e-02
8.54656e+02,6.73000e+02,6.51000e+02,2.20000e+01,3.66806e-11,-7.54520e-03,3.82885e-11,-7.54520e-03,1.77595e-12,-7.54520e-03
