7.67698e+02,6.71000e+02,6.71000e+02,0.00000e+00,1.51958e-10,0.00000e+00,1.52016e-10,0.00000e+00,5.77280e-14,0.00000e+00
7.67949e+02,6.71000e+02,6.56000e+02,1.50000e+01,5.76261e-11,7.54520e-03,5.73426e-11,7.54520e-03,3.88156e-13,7.54520e-03
7.68199e+02,6.94000e+02,6.84000e+02,1.00000e+01,2.63494e-11,1.50904e-02,2.58774e-11,1.50904e-02,5.59594e-13,1.50904e-02
7.68450e+02,6.72000e+02,6.93000e+02,-2.10000e+01,9.64947e-12,2.26356e-02,9.86724e-12,2.26356e-02,1.46282e-12,2.26356e-02
7.68701e+02,6.58000e+02,7.03000e+02,-4.50000e+01,6.64210e-12,3.01808e-02,7.94832e-12,3.01808e-02,1.30628e-12,3.01808e-02
7.68951e+02,6.75000e+02,6.90000e+02,-1.50000e+01,5.12856e-12,3.77260e-02,5.42512e-12,3.77260e-02,3.14877e-13,3.77260e-02
7.69202e+02,6.76000e+02,6.78000e+02,-2.00000e+00,4.49963e-12,4.52712e-02,4.16072e-12,4.52712e-02,4.23965e-13,4.52712e-02
7.69453e+02,6.90000e+02,7.03000e+02,-1.30000e+01,2.23805e-12,5.28164e-02,1.45535e-12,5.28164e-02,9.61148e-13,5.28164e-02
7.69703e+02,6.81000e+02,6.98000e+02,-1.70000e+01,8.83564e-13,6.03616e-02,1.22519e-12,6.03616e-02,9.76500e-13,6.03616e-02
7.69954e+02,6.96000e+02,6.94000e+02,2.00000e+00,3.96785e-13,6.79068e-02,4.30908e-13,6.79068e-02,8.27606e-13,6.79068e-02
7.70205e+02,7.00000e+02,7.05000e+02,-5.00000e+00,7.30966e-13,7.54520e-02,6.55989e-14,7.54520e-02,7.07285e-13,7.54520e-02
7.70455e+02,7.39000e+02,6.93000e+02,4.60000e+01,1.19299e-12,8.29972e-02,1.08627e-12,8.29972e-02,1.60706e-12,8.29972e-02
7.70706e+02,7.52000e+02,7.06000e+02,4.60000e+01,1.88605e-12,9.05424e-02,2.02236e-13,9.05424e-02,1.88808e-12,9.05424e-02
7.70957e+02,7.40000e+02,7.04000e+02,3.60000e+01,1.91736e-12,9.80876e-02,5.57208e-13,9.80876e-02,1.37919e-12,9.80876e-02
7.71207e+02,7.28000e+02,6.98000e+02,3.00000e+01,2.44169e-12,1.05633e-01,1.15122e-12,1.05633e-01,1.30121e-12,1.05633e-01
7.71458e+02,7.29000e+02,7.00000e+02,2.90000e+01,1.37788e-12,1.13178e-01,6.37752e-13,1.13178e-01,7.64325e-13,1.13178e-01
7.71708e+02,7.35000e+02,7.06000e+02,2.90000e+01,4.37904e-13,1.20723e-01,6.72968e-13,1.20723e-01,2.35564e-13,1.20723e-01
7.71959e+02,7.44000e+02,7.64000e+02,-2.00000e+01,9.32731e-13,1.28268e-01,6.56647e-13,1.28268e-01,1.30028e-12,1.28268e-01
7.72210e+02,7.46000e+02,7.85000e+02,-3.90000e+01,1.20476e-12,1.35814e-01,1.30265e-12,1.35814e-01,2.05530e-12,1.35814e-01
7.72460e+02,7.39000e+02,7.91000e+02,-5.20000e+01,1.43704e-12,1.43359e-01,1.06066e-12,1.43359e-01,2.34189e-12,1.43359e-01
7.72711e+02,7.58000e+02,7.72000e+02,-1.40000e+01,1.12406e-12,1.50904e-01,1.60784e-12,1.50904e-01,2.41186e-12,1.50904e-01
7.72961e+02,7.22000e+02,7.19000e+02,3.00000e+00,2.76409e-13,1.58449e-01,8.65996e-13,1.58449e-01,7.25025e-13,1.58449e-01
7.73212e+02,7.34000e+02,7.33000e+02,1.00000e+00,1.41328e-12,1.65994e-01,2.16782e-12,1.65994e-01,3.57168e-12,1.65994e-01
7.73462e+02,7.39000e+02,7.64000e+02,-2.50000e+01,5.81650e-12,1.73540e-01,6.18870e-12,1.73540e-01,1.19886e-11,1.73540e-01
7.73713e+02,7.44000e+02,7.73000e+02,-2.90000e+01,1.00277e-11,1.81085e-01,1.07169e-11,1.81085e-01,2.06891e-11,1.81085e-01
7.73963e+02,8.04000e+02,7.83000e+02,2.10000e+01,1.17043e-11,1.88630e-01,1.13508e-11,1.88630e-01,2.30106e-11,1.88630e-01
7.74214e+02,8.66000e+02,7.76000e+02,9.00000e+01,6.59120e-12,1.96175e-01,6.38781e-12,1.96175e-01,1.29520e-11,1.96175e-01
7.74465e+02,8.44000e+02,7.77000e+02,6.70000e+01,1.74649e-12,2.03720e-01,1.27234e-12,2.03720e-01,3.01193e-12,2.03720e-01
7.74715e+02,8.02000e+02,7.60000e+02,4.20000e+01,7.76280e-13,2.11266e-01,5.92133e-13,2.11266e-01,7.02441e-13,2.11266e-01
7.74965e+02,7.88000e+02,7.57000e+02,3.10000e+01,1.13843e-12,2.18811e-01,1.51969e-12,2.18811e-01,1.66606e-12,2.18811e-01
7.75216e+02,7.85000e+02,7.62000e+02,2.30000e+01,1.08163e-12,2.26356e-01,9.84162e-13,2.26356e-01,1.05202e-12,2.26356e-01
7.75466e+02,8.35000e+02,8.06000e+02,2.90000e+01,1.56967e-12,2.33901e-01,6.45348e-13,2.33901e-01,1.59070e-12,2.33901e-01
7.75717e+02,8.40000e+02,8.94000e+02,-5.40000e+01,1.23585e-12,2.41446e-01,8.44176e-13,2.41446e-01,1.21892e-12,2.41446e-01
7.75967e+02,8.11000e+02,9.18000e+02,-1.07000e+02,7.34975e-13,2.48992e-01,6.48830e-13,2.48992e-01,3.59311e-13,2.48992e-01
7.76218e+02,8.17000e+02,9.26000e+02,-1.09000e+02,6.03517e-13,2.56537e-01,4.89152e-13,2.56537e-01,3.91861e-13,2.56537e-01
7.76468e+02,8.45000e+02,9.13000e+02,-6.80000e+01,3.58183e-13,2.64082e-01,5.31527e-13,2.64082e-01,7.92142e-13,2.64082e-01
7.76719e+02,8.09000e+02,8.39000e+02,-3.00000e+01,9.11793e-13,2.71627e-01,1.17218e-12,2.71627e-01,4.04455e-13,2.71627e-01
7.76969e+02,8.04000e+02,8.33000e+02,-2.90000e+01,1.16158e-12,2.79172e-01,9.68719e-13,2.79172e-01,8.07712e-13,2.79172e-01
7.77219e+02,8.22000e+02,8.62000e+02,-4.00000e+01,3.55638e-13,2.86718e-01,1.09042e-12,2.86718e-01,1.38694e-12,2.86718e-01
7.77470e+02,8.80000e+02,8.87000e+02,-7.00000e+00,9.97964e-13,2.94263e-01,7.73395e-13,2.94263e-01,1.45385e-12,2.94263e-01
7.77720e+02,9.83000e+02,9.06000e+02,7.70000e+01,3.61085e-12,3.01808e-01,2.68909e-12,3.01808e-01,9.56144e-13,3.01808e-01
7.77971e+02,1.03000e+03,8.87000e+02,1.43000e+02,6.17522e-12,3.09353e-01,6.54498e-12,3.09353e-01,1.28889e-12,3.09353e-01
7.78221e+02,9.94000e+02,8.96000e+02,9.80000e+01,7.86566e-12,3.16898e-01,8.74121e-12,3.16898e-01,1.48778e-12,3.16898e-01
7.78471e+02,9.39000e+02,8.88000e+02,5.10000e+01,7.68266e-12,3.24444e-01,8.01595e-12,3.24444e-01,1.56005e-12,3.24444e-01
7.78722e+02,8.80000e+02,8.45000e+02,3.50000e+01,5.82223e-12,3.31989e-01,5.91629e-12,3.31989e-01,1.09538e-12,3.31989e-01
7.78972e+02,8.68000e+02,8.72000e+02,-4.00000e+00,3.79132e-12,3.39534e-01,3.85989e-12,3.39534e-01,7.53747e-13,3.39534e-01
7.79222e+02,8.77000e+02,9.71000e+02,-9.40000e+01,2.00271e-12,3.47079e-01,1.64655e-12,3.47079e-01,9.19253e-13,3.47079e-01
7.79473e+02,9.16000e+02,1.06500e+03,-1.49000e+02,1.17426e-12,3.54624e-01,1.07747e-12,3.54624e-01,6.37099e-13,3.54624e-01
7.79723e+02,9.08000e+02,1.11600e+03,-2.08000e+02,1.05046e-12,3.62169e-01,5.50951e-13,3.62169e-01,8.27128e-13,3.62169e-01
7.79973e+02,9.45000e+02,1.06800e+03,-1.23000e+02,3.91796e-13,3.69715e-01,6.78894e-13,3.69715e-01,1.02735e-12,3.69715e-01
7.80224e+02,9.74000e+02,1.00200e+03,-2.80000e+01,4.86323e-13,3.77260e-01,7.77081e-13,3.77260e-01,1.26340e-12,3.77260e-01
7.80474e+02,9.57000e+02,9.10000e+02,4.70000e+01,3.58923e-13,3.84805e-01,4.26366e-13,3.84805e-01,6.62731e-13,3.84805e-01
7.80724e+02,9.16000e+02,8.88000e+02,2.80000e+01,3.49322e-13,3.92350e-01,3.12971e-13,3.92350e-01,2.77500e-13,3.92350e-01
7.80974e+02,9.83000e+02,9.07000e+02,7.60000e+01,8.10671e-13,3.99895e-01,3.91448e-13,3.99895e-01,5.54586e-13,3.99895e-01
7.81225e+02,1.06700e+03,9.52000e+02,1.15000e+02,1.18448e-12,4.07441e-01,5.74720e-13,4.07441e-01,8.42322e-13,4.07441e-01
7.81475e+02,1.09300e+03,1.00500e+03,8.80000e+01,1.31539e-12,4.14986e-01,4.05347e-13,4.14986e-01,1.07429e-12,4.14986e-01
7.81725e+02,1.06600e+03,1.02200e+03,4.40000e+01,1.20263e-12,4.22531e-01,4.40351e-13,4.22531e-01,8.76158e-13,4.22531e-01
7.81975e+02,1.01600e+03,1.07700e+03,-6.10000e+01,6.64962e-13,4.30076e-01,4.73456e-13,4.30076e-01,8.78850e-13,4.30076e-01
7.82226e+02,9.71000e+02,1.06400e+03,-9.30000e+01,2.23165e-13,4.37621e-01,7.91412e-13,4.37621e-01,1.01457e-12,4.37621e-01
7.82476e+02,9.23000e+02,1.00600e+03,-8.30000e+01,5.78436e-13,4.45167e-01,8.14677e-13,4.45167e-01,1.08504e-12,4.45167e-01
7.82726e+02,9.05000e+02,9.79000e+02,-7.40000e+01,8.81018e-13,4.52712e-01,9.07651e-13,4.52712e-01,1.65893e-12,4.52712e-01
7.82976e+02,8.95000e+02,1.03200e+03,-1.37000e+02,5.62731e-13,4.60257e-01,1.09589e-12,4.60257e-01,1.60104e-12,4.60257e-01
7.83226e+02,9.38000e+02,1.09200e+03,-1.54000e+02,4.17474e-13,4.67802e-01,7.41274e-13,4.67802e-01,8.61073e-13,4.67802e-01
7.83477e+02,9.91000e+02,1.07200e+03,-8.10000e+01,1.37208e-12,4.75347e-01,4.52397e-13,4.75347e-01,1.63765e-12,4.75347e-01
7.83727e+02,1.07900e+03,1.04400e+03,3.50000e+01,2.35118e-12,4.82893e-01,1.70613e-12,4.82893e-01,3.96495e-12,4.82893e-01
7.83977e+02,1.07100e+03,9.60000e+02,1.11000e+02,3.43442e-12,4.90438e-01,3.68128e-12,4.90438e-01,7.05385e-12,4.90438e-01
7.84227e+02,1.02500e+03,9.33000e+02,9.20000e+01,4.20416e-12,4.97983e-01,5.23332e-12,4.97983e-01,9.41934e-12,4.97983e-01
7.84477e+02,1.00400e+03,9.04000e+02,1.00000e+02,4.78285e-12,5.05528e-01,5.73974e-12,5.05528e-01,1.05224e-11,5.05528e-01
7.84727e+02,1.04600e+03,9.02000e+02,1.44000e+02,4.52749e-12,5.13073e-01,4.89859e-12,5.13073e-01,9.42279e-12,5.13073e-01
7.84978e+02,1.14400e+03,9.73000e+02,1.71000e+02,3.33525e-12,5.20619e-01,3.03881e-12,5.20619e-01,6.36632e-12,5.20619e-01
7.85228e+02,1.22200e+03,1.08000e+03,1.42000e+02,2.11813e-12,5.28164e-01,2.29041e-12,5.28164e-01,4.37091e-12,5.28164e-01
7.85478e+02,1.11500e+03,1.12600e+03,-1.10000e+01,1.09146e-12,5.35709e-01,1.67530e-12,5.35709e-01,2.73392e-12,5.35709e-01
7.85728e+02,9.87000e+02,1.17400e+03,-1.87000e+02,4.24799e-13,5.43254e-01,8.75699e-13,5.43254e-01,1.06978e-12,5.43254e-01
7.85978e+02,9.17000e+02,1.09900e+03,-1.82000e+02,7.45046e-13,5.50799e-01,7.37872e-13,5.50799e-01,1.31691e-12,5.50799e-01
7.86228e+02,8.85000e+02,9.82000e+02,-9.70000e+01,1.42947e-13,5.58345e-01,3.70303e-13,5.58345e-01,4.33757e-13,5.58345e-01
7.86478e+02,8.53000e+02,9.62000e+02,-1.09000e+02,2.49199e-13,5.65890e-01,1.26623e-13,5.65890e-01,2.65667e-13,5.65890e-01
7.86728e+02,8.64000e+02,9.97000e+02,-1.33000e+02,2.36519e-13,5.73435e-01,8.28617e-14,5.73435e-01,1.90864e-13,5.73435e-01
7.86978e+02,9.38000e+02,1.04400e+03,-1.06000e+02,3.01822e-13,5.80980e-01,3.20332e-13,5.80980e-01,6.13612e-13,5.80980e-01
7.87228e+02,1.11600e+03,9.98000e+02,1.18000e+02,5.30655e-13,5.88525e-01,3.41393e-13,5.88525e-01,8.12435e-13,5.88525e-01
7.87478e+02,1.26200e+03,9.56000e+02,3.06000e+02,5.27388e-13,5.96071e-01,2.90928e-13,5.96071e-01,7.87954e-13,5.96071e-01
7.87728e+02,1.20200e+03,9.51000e+02,2.51000e+02,2.98883e-13,6.03616e-01,2.75309e-13,6.03616e-01,5.37203e-13,6.03616e-01
7.87978e+02,1.03200e+03,9.55000e+02,7.70000e+01,1.22130e-13,6.11161e-01,3.98628e-13,6.11161e-01,4.61667e-13,6.11161e-01
7.88228e+02,9.41000e+02,9.07000e+02,3.40000e+01,4.35210e-13,6.18706e-01,4.13514e-13,6.18706e-01,3.31543e-13,6.18706e-01
7.88478e+02,9.59000e+02,8.54000e+02,1.05000e+02,6.14197e-13,6.26251e-01,3.99208e-13,6.26251e-01,2.47999e-13,6.26251e-01
7.88728e+02,9.94000e+02,9.19000e+02,7.50000e+01,8.33389e-13,6.33797e-01,6.85212e-13,6.33797e-01,4.87068e-13,6.33797e-01
7.88978e+02,1.04700e+03,1.05700e+03,-1.00000e+01,7.52390e-13,6.41342e-01,8.12211e-13,6.41342e-01,3.94485e-13,6.41342e-01
7.89228e+02,9.87000e+02,1.28600e+03,-2.99000e+02,5.75822e-13,6.48887e-01,8.89768e-13,6.48887e-01,3.40749e-13,6.48887e-01
7.89478e+02,9.11000e+02,1.35500e+03,-4.44000e+02,2.88699e-13,6.56432e-01,5.92038e-13,6.56432e-01,5.86543e-13,6.56432e-01
7.89728e+02,9.65000e+02,1.21400e+03,-2.49000e+02,5.59896e-14,6.63977e-01,3.28831e-13,6.63977e-01,2.99934e-13,6.63977e-01
7.89978e+02,9.60000e+02,1.01800e+03,-5.80000e+01,5.91067e-14,6.71523e-01,3.35686e-13,6.71523e-01,3.63283e-13,6.71523e-01
7.90228e+02,9.39000e+02,9.71000e+02,-3.20000e+01,2.68527e-13,6.79068e-01,1.54621e-13,6.79068e-01,4.22703e-13,6.79068e-01
7.90478e+02,9.08000e+02,9.47000e+02,-3.90000e+01,4.14640e-13,6.86613e-01,1.48630e-13,6.86613e-01,4.39410e-13,6.86613e-01
7.90728e+02,9.69000e+02,9.86000e+02,-1.70000e+01,3.22687e-13,6.94158e-01,1.32779e-13,6.94158e-01,3.00952e-13,6.94158e-01
7.90978e+02,1.15400e+03,9.57000e+02,1.97000e+02,2.12038e-13,7.01703e-01,2.45825e-13,7.01703e-01,1.32296e-13,7.01703e-01
7.91228e+02,1.41300e+03,9.26000e+02,4.87000e+02,2.23269e-13,7.09249e-01,4.24963e-13,7.09249e-01,2.28863e-13,7.09249e-01
7.91478e+02,1.39400e+03,9.52000e+02,4.42000e+02,2.36778e-13,7.16794e-01,3.73880e-13,7.16794e-01,1.41513e-13,7.16794e-01
7.91728e+02,1.17000e+03,1.01400e+03,1.56000e+02,4.52303e-13,7.24339e-01,3.87143e-13,7.24339e-01,7.24903e-14,7.24339e-01
7.91977e+02,9.80000e+02,1.03300e+03,-5.30000e+01,4.09307e-13,7.31884e-01,1.85496e-13,7.31884e-01,2.23884e-13,7.31884e-01
7.92227e+02,9.64000e+02,9.76000e+02,-1.20000e+01,2.67353e-13,7.39429e-01,4.65307e-14,7.39429e-01,2.96383e-13,7.39429e-01
7.92477e+02,1.03600e+03,9.36000e+02,1.00000e+02,1.18518e-13,7.46975e-01,2.50140e-13,7.46975e-01,1.58748e-13,7.46975e-01
7.92727e+02,1.00200e+03,1.06800e+03,-6.60000e+01,2.56242e-13,7.54520e-01,3.09042e-13,7.54520e-01,6.91340e-14,7.54520e-01
7.92977e+02,9.16000e+02,1.22000e+03,-3.04000e+02,3.97206e-13,7.62065e-01,3.71664e-13,7.62065e-01,3.43280e-13,7.62065e-01
7.93227e+02,9.41000e+02,1.30300e+03,-3.62000e+02,2.90916e-14,7.69610e-01,1.64663e-13,7.69610e-01,1.52472e-13,7.69610e-01
7.93476e+02,1.02100e+03,1.22500e+03,-2.04000e+02,1.05698e-13,7.77155e-01,1.49862e-13,7.77155e-01,1.15489e-13,7.77155e-01
7.93726e+02,1.08900e+03,1.06400e+03,2.50000e+01,2.05460e-13,7.84701e-01,2.48557e-13,7.84701e-01,2.29029e-13,7.84701e-01
7.93976e+02,1.05100e+03,9.61000e+02,9.00000e+01,2.56362e-13,7.92246e-01,2.70793e-13,7.92246e-01,4.38354e-13,7.92246e-01
7.94226e+02,1.01200e+03,9.77000e+02,3.50000e+01,3.89079e-13,7.99791e-01,2.21760e-13,7.99791e-01,5.95575e-13,7.99791e-01
7.94476e+02,1.09400e+03,1.02900e+03,6.50000e+01,4.98868e-13,8.07336e-01,1.82336e-13,8.07336e-01,6.70267e-13,8.07336e-01
7.94725e+02,1.35600e+03,1.00400e+03,3.52000e+02,5.20313e-13,8.14881e-01,8.79009e-14,8.14881e-01,4.51962e-13,8.14881e-01
7.94975e+02,1.64300e+03,9.90000e+02,6.53000e+02,3.22439e-13,8.22427e-01,2.40495e-13,8.22427e-01,9.73830e-14,8.22427e-01
7.95225e+02,1.61200e+03,1.06100e+03,5.51000e+02,3.83132e-13,8.29972e-01,3.49425e-13,8.29972e-01,2.71266e-13,8.29972e-01
7.95475e+02,1.41000e+03,1.20900e+03,2.01000e+02,2.41130e-13,8.37517e-01,3.71374e-13,8.37517e-01,3.09939e-13,8.37517e-01
7.95724e+02,1.15200e+03,1.28700e+03,-1.35000e+02,1.86109e-13,8.45062e-01,4.87789e-13,8.45062e-01,4.85282e-13,8.45062e-01
7.95974e+02,9.76000e+02,1.23500e+03,-2.59000e+02,2.31697e-13,8.52607e-01,3.08543e-13,8.52607e-01,2.44283e-13,8.52607e-01
7.96224e+02,1.01800e+03,1.17800e+03,-1.60000e+02,2.79595e-13,8.60153e-01,2.87726e-13,8.60153e-01,2.87564e-13,8.60153e-01
7.96474e+02,1.05800e+03,1.31700e+03,-2.59000e+02,1.80464e-13,8.67698e-01,2.54967e-13,8.67698e-01,3.37233e-13,8.67698e-01
7.96723e+02,1.08500e+03,1.72200e+03,-6.37000e+02,9.68013e-14,8.75243e-01,3.87266e-13,8.75243e-01,3.68704e-13,8.75243e-01
7.96973e+02,1.13900e+03,1.95700e+03,-8.18000e+02,2.47564e-13,8.82788e-01,3.33642e-13,8.82788e-01,3.91852e-13,8.82788e-01
7.97223e+02,1.40000e+03,1.79500e+03,-3.95000e+02,2.14402e-13,8.90333e-01,3.12594e-13,8.90333e-01,1.37747e-13,8.90333e-01
7.97472e+02,1.71600e+03,1.40800e+03,3.08000e+02,2.47669e-13,8.97879e-01,4.26786e-13,8.97879e-01,2.73288e-13,8.97879e-01
7.97722e+02,1.76100e+03,1.14600e+03,6.15000e+02,3.68994e-13,9.05424e-01,2.33270e-13,9.05424e-01,1.35859e-13,9.05424e-01
7.97972e+02,1.49900e+03,1.09200e+03,4.07000e+02,4.72143e-13,9.12969e-01,1.64849e-13,9.12969e-01,3.63619e-13,9.12969e-01
7.98221e+02,1.39200e+03,1.10400e+03,2.88000e+02,2.67951e-13,9.20514e-01,1.19214e-13,9.20514e-01,2.90605e-13,9.20514e-01
7.98471e+02,1.56900e+03,1.06300e+03,5.06000e+02,3.08818e-13,9.28059e-01,1.02567e-13,9.28059e-01,3.29675e-13,9.28059e-01
7.98721e+02,1.92500e+03,1.14800e+03,7.77000e+02,2.69559e-13,9.35605e-01,1.04399e-13,9.35605e-01,2.70572e-13,9.35605e-01
7.98970e+02,2.02200e+03,1.46600e+03,5.56000e+02,1.97342e-13,9.43150e-01,1.87911e-13,9.43150e-01,1.04013e-14,9.43150e-01
7.99220e+02,1.79400e+03,1.99100e+03,-1.97000e+02,1.17318e-13,9.50695e-01,1.44754e-13,9.50695e-01,4.00011e-14,9.50695e-01
7.99469e+02,1.51300e+03,2.15000e+03,-6.37000e+02,7.76219e-14,9.58240e-01,1.01889e-13,9.58240e-01,1.07025e-13,9.58240e-01
7.99719e+02,1.23000e+03,2.01000e+03,-7.80000e+02,1.57100e-13,9.65785e-01,2.02375e-13,9.65785e-01,1.81107e-13,9.65785e-01
7.99969e+02,1.16700e+03,1.57300e+03,-4.06000e+02,3.08964e-13,9.73331e-01,1.61652e-13,9.73331e-01,2.47151e-13,9.73331e-01
8.00218e+02,1.14900e+03,1.45000e+03,-3.01000e+02,4.19421e-13,9.80876e-01,8.03402e-14,9.80876e-01,3.92484e-13,9.80876e-01
8.00468e+02,1.17200e+03,1.70500e+03,-5.33000e+02,4.07863e-13,9.88421e-01,2.01099e-13,9.88421e-01,4.73298e-13,9.88421e-01
8.00717e+02,1.38200e+03,2.04300e+03,-6.61000e+02,3.10947e-13,9.95966e-01,4.23786e-13,9.95966e-01,5.76739e-13,9.95966e-01
8.00967e+02,1.81000e+03,2.04800e+03,-2.38000e+02,2.92234e-13,1.00351e+00,4.52093e-13,1.00351e+00,5.27806e-13,1.00351e+00
8.01216e+02,2.51500e+03,1.78700e+03,7.28000e+02,1.56437e-13,1.01106e+00,4.85433e-13,1.01106e+00,3.76886e-13,1.01106e+00
8.01466e+02,2.73400e+03,1.54700e+03,1.18700e+03,2.35596e-13,1.01860e+00,3.20498e-13,1.01860e+00,1.52632e-13,1.01860e+00
8.01715e+02,2.37400e+03,1.55500e+03,8.19000e+02,3.13150e-13,1.02615e+00,2.78096e-13,1.02615e+00,1.91563e-13,1.02615e+00
8.01965e+02,1.93600e+03,1.56700e+03,3.69000e+02,2.75529e-13,1.03369e+00,2.10080e-13,1.03369e+00,1.53133e-13,1.03369e+00
8.02215e+02,1.81800e+03,1.36300e+03,4.55000e+02,1.14676e-13,1.04124e+00,2.30981e-13,1.04124e+00,1.84580e-13,1.04124e+00
8.02464e+02,2.14700e+03,1.43000e+03,7.17000e+02,1.01959e-13,1.04878e+00,1.80922e-13,1.04878e+00,8.88159e-14,1.04878e+00
8.02713e+02,2.55600e+03,1.90700e+03,6.49000e+02,2.08467e-13,1.05633e+00,2.51693e-13,1.05633e+00,1.01073e-13,1.05633e+00
8.02963e+02,2.55300e+03,2.68500e+03,-1.32000e+02,1.35627e-13,1.06387e+00,3.48675e-13,1.06387e+00,2.17658e-13,1.06387e+00
8.03212e+02,2.15300e+03,3.45700e+03,-1.30400e+03,1.26475e-13,1.07142e+00,2.35000e-13,1.07142e+00,2.43952e-13,1.07142e+00
8.03462e+02,1.94800e+03,3.44400e+03,-1.49600e+03,6.79290e-14,1.07896e+00,2.81815e-13,1.07896e+00,3.27055e-13,1.07896e+00
8.03711e+02,1.96200e+03,2.90100e+03,-9.39000e+02,7.46688e-14,1.08651e+00,2.12648e-13,1.08651e+00,2.47051e-13,1.08651e+00
8.03961e+02,1.81300e+03,2.24500e+03,-4.32000e+02,3.69256e-14,1.09405e+00,1.99729e-13,1.09405e+00,2.16324e-13,1.09405e+00
8.04210e+02,1.74400e+03,2.04600e+03,-3.02000e+02,1.70338e-13,1.10160e+00,2.38226e-13,1.10160e+00,3.93364e-13,1.10160e+00
8.04460e+02,2.05300e+03,2.49200e+03,-4.39000e+02,2.97892e-13,1.10914e+00,3.00218e-13,1.10914e+00,5.21391e-13,1.10914e+00
8.04709e+02,2.67000e+03,2.61800e+03,5.20000e+01,3.62401e-13,1.11669e+00,2.93701e-13,1.11669e+00,5.98111e-13,1.11669e+00
8.04958e+02,3.16500e+03,2.42500e+03,7.40000e+02,3.06489e-13,1.12423e+00,2.48260e-13,1.12423e+00,5.31915e-13,1.12423e+00
8.05208e+02,3.69900e+03,2.18300e+03,1.51600e+03,3.00300e-13,1.13178e+00,9.76813e-14,1.13178e+00,3.03359e-13,1.13178e+00
8.05457e+02,3.61200e+03,2.51400e+03,1.09800e+03,4.67253e-14,1.13932e+00,1.26044e-13,1.13932e+00,7.93292e-14,1.13932e+00
8.05707e+02,3.06600e+03,2.95300e+03,1.13000e+02,2.06205e-13,1.14687e+00,2.71588e-13,1.14687e+00,4.51522e-13,1.14687e+00
8.05956e+02,2.38200e+03,2.69600e+03,-3.14000e+02,3.55604e-13,1.15442e+00,3.05635e-13,1.15442e+00,6.15513e-13,1.15442e+00
8.06205e+02,2.33600e+03,2.20000e+03,1.36000e+02,2.81194e-13,1.16196e+00,2.57239e-13,1.16196e+00,4.76752e-13,1.16196e+00
8.06455e+02,2.75500e+03,2.39300e+03,3.62000e+02,2.94774e-13,1.16951e+00,2.83805e-13,1.16951e+00,4.45098e-13,1.16951e+00
8.06704e+02,2.73600e+03,3.28900e+03,-5.53000e+02,1.69049e-13,1.17705e+00,3.68559e-13,1.17705e+00,3.87318e-13,1.17705e+00
8.06953e+02,2.67700e+03,4.34900e+03,-1.67200e+03,1.64822e-13,1.18460e+00,2.48386e-13,1.18460e+00,2.09970e-13,1.18460e+00
8.07203e+02,2.77600e+03,5.14900e+03,-2.37300e+03,1.24732e-13,1.19214e+00,2.51573e-13,1.19214e+00,1.99150e-13,1.19214e+00
8.07452e+02,3.11000e+03,4.39800e+03,-1.28800e+03,4.21450e-14,1.19969e+00,1.59052e-13,1.19969e+00,1.59996e-13,1.19969e+00
8.07701e+02,3.25800e+03,3.36200e+03,-1.04000e+02,6.86032e-14,1.20723e+00,3.07152e-14,1.20723e+00,8.67615e-14,1.20723e+00
8.07951e+02,3.02700e+03,2.60000e+03,4.27000e+02,5.45197e-14,1.21478e+00,5.50880e-14,1.21478e+00,4.13915e-14,1.21478e+00
8.08200e+02,2.62900e+03,2.47400e+03,1.55000e+02,1.99471e-13,1.22232e+00,5.62878e-14,1.22232e+00,1.64546e-13,1.22232e+00
8.08449e+02,2.82000e+03,2.52900e+03,2.91000e+02,1.90054e-13,1.22987e+00,8.54521e-14,1.22987e+00,1.42804e-13,1.22987e+00
8.08698e+02,4.09000e+03,2.56400e+03,1.52600e+03,2.50147e-13,1.23741e+00,7.05964e-14,1.23741e+00,2.79856e-13,1.23741e+00
8.08948e+02,5.17300e+03,2.76200e+03,2.41100e+03,1.30274e-13,1.24496e+00,2.23544e-13,1.24496e+00,2.09600e-13,1.24496e+00
8.09197e+02,5.39700e+03,3.18700e+03,2.21000e+03,8.98985e-14,1.25250e+00,3.16263e-13,1.25250e+00,3.25141e-13,1.25250e+00
8.09446e+02,4.63700e+03,3.89700e+03,7.40000e+02,6.98007e-14,1.26005e+00,2.57814e-13,1.26005e+00,2.42402e-13,1.26005e+00
8.09695e+02,3.42200e+03,4.39200e+03,-9.70000e+02,1.32895e-14,1.26759e+00,1.89844e-13,1.26759e+00,1.87645e-13,1.26759e+00
8.09945e+02,2.84300e+03,3.85200e+03,-1.00900e+03,9.52370e-14,1.27514e+00,1.26414e-13,1.27514e+00,1.55096e-13,1.27514e+00
8.10194e+02,2.56900e+03,3.05200e+03,-4.83000e+02,4.14897e-14,1.28268e+00,1.14857e-13,1.28268e+00,1.47320e-13,1.28268e+00
8.10443e+02,2.51800e+03,3.14700e+03,-6.29000e+02,3.83248e-14,1.29023e+00,1.34054e-13,1.29023e+00,1.23946e-13,1.29023e+00
8.10692e+02,2.42000e+03,4.03800e+03,-1.61800e+03,1.73883e-14,1.29777e+00,5.33654e-14,1.29777e+00,6.17639e-14,1.29777e+00
8.10941e+02,2.62800e+03,4.78100e+03,-2.15300e+03,1.02915e-13,1.30532e+00,3.76757e-14,1.30532e+00,1.16125e-13,1.30532e+00
8.11191e+02,3.15600e+03,4.62400e+03,-1.46800e+03,8.05624e-14,1.31286e+00,1.71075e-13,1.31286e+00,1.85167e-13,1.31286e+00
8.11440e+02,3.73700e+03,3.59500e+03,1.42000e+02,2.85038e-14,-1.32041e+00,2.89514e-13,-1.32041e+00,2.61010e-13,-1.32041e+00
8.11689e+02,3.86300e+03,2.98900e+03,8.74000e+02,8.05624e-14,-1.31286e+00,1.71075e-13,-1.31286e+00,1.85167e-13,-1.31286e+00
8.11938e+02,3.44600e+03,2.67000e+03,7.76000e+02,1.02915e-13,-1.30532e+00,3.76757e-14,-1.30532e+00,1.16125e-13,-1.30532e+00
8.12187e+02,3.09300e+03,2.46600e+03,6.27000e+02,1.73883e-14,-1.29777e+00,5.33654e-14,-1.29777e+00,6.17639e-14,-1.29777e+00
8.12436e+02,2.86700e+03,2.21100e+03,6.56000e+02,3.83248e-14,-1.29023e+00,1.34054e-13,-1.29023e+00,1.23946e-13,-1.29023e+00
8.12685e+02,3.78800e+03,2.13100e+03,1.65700e+03,4.14897e-14,-1.28268e+00,1.14857e-13,-1.28268e+00,1.47320e-13,-1.28268e+00
8.12935e+02,4.49600e+03,2.46800e+03,2.02800e+03,9.52370e-14,-1.27514e+00,1.26414e-13,-1.27514e+00,1.55096e-13,-1.27514e+00
8.13184e+02,4.00500e+03,3.01400e+03,9.91000e+02,1.32895e-14,-1.26759e+00,1.89844e-13,-1.26759e+00,1.87645e-13,-1.26759e+00
8.13433e+02,3.33900e+03,3.96000e+03,-6.21000e+02,6.98007e-14,-1.26005e+00,2.57814e-13,-1.26005e+00,2.42402e-13,-1.26005e+00
8.13682e+02,2.82900e+03,4.34100e+03,-1.51200e+03,8.98985e-14,-1.25250e+00,3.16263e-13,-1.25250e+00,3.25141e-13,-1.25250e+00
8.13931e+02,2.42800e+03,3.85500e+03,-1.42700e+03,1.30274e-13,-1.24496e+00,2.23544e-13,-1.24496e+00,2.09600e-13,-1.24496e+00
8.14180e+02,2.38400e+03,3.01300e+03,-6.29000e+02,2.50147e-13,-1.23741e+00,7.05964e-14,-1.23741e+00,2.79856e-13,-1.23741e+00
8.14429e+02,2.13200e+03,2.76600e+03,-6.34000e+02,1.90054e-13,-1.22987e+00,8.54521e-14,-1.22987e+00,1.42804e-13,-1.22987e+00
8.14678e+02,1.96200e+03,2.91700e+03,-9.55000e+02,1.99471e-13,-1.22232e+00,5.62878e-14,-1.22232e+00,1.64546e-13,-1.22232e+00
8.14927e+02,2.53900e+03,3.70400e+03,-1.16500e+03,5.45197e-14,-1.21478e+00,5.50880e-14,-1.21478e+00,4.13915e-14,-1.21478e+00
8.15176e+02,3.44300e+03,3.45700e+03,-1.40000e+01,6.86032e-14,-1.20723e+00,3.07152e-14,-1.20723e+00,8.67615e-14,-1.20723e+00
8.15425e+02,4.26000e+03,2.83200e+03,1.42800e+03,4.21450e-14,-1.19969e+00,1.59052e-13,-1.19969e+00,1.59996e-13,-1.19969e+00
8.15674e+02,4.19500e+03,2.57800e+03,1.61700e+03,1.24732e-13,-1.19214e+00,2.51573e-13,-1.19214e+00,1.99150e-13,-1.19214e+00
8.15923e+02,3.63400e+03,2.15800e+03,1.47600e+03,1.64822e-13,-1.18460e+00,2.48386e-13,-1.18460e+00,2.09970e-13,-1.18460e+00
8.16172e+02,2.66700e+03,2.10300e+03,5.64000e+02,1.69049e-13,-1.17705e+00,3.68559e-13,-1.17705e+00,3.87318e-13,-1.17705e+00
8.16421e+02,2.30400e+03,1.83600e+03,4.68000e+02,2.94774e-13,-1.16951e+00,2.83805e-13,-1.16951e+00,4.45098e-13,-1.16951e+00
8.16670e+02,2.72600e+03,1.85900e+03,8.67000e+02,2.81194e-13,-1.16196e+00,2.57239e-13,-1.16196e+00,4.76752e-13,-1.16196e+00
8.16919e+02,2.92500e+03,2.08600e+03,8.39000e+02,3.55604e-13,-1.15442e+00,3.05635e-13,-1.15442e+00,6.15513e-13,-1.15442e+00
8.17168e+02,2.65200e+03,2.67900e+03,-2.70000e+01,2.06205e-13,-1.14687e+00,2.71588e-13,-1.14687e+00,4.51522e-13,-1.14687e+00
8.17417e+02,2.27600e+03,3.51000e+03,-1.23400e+03,4.67253e-14,-1.13932e+00,1.26044e-13,-1.13932e+00,7.93292e-14,-1.13932e+00
8.17666e+02,2.05700e+03,3.54800e+03,-1.49100e+03,3.00300e-13,-1.13178e+00,9.76813e-14,-1.13178e+00,3.03359e-13,-1.13178e+00
8.17915e+02,2.11600e+03,3.26800e+03,-1.15200e+03,3.06489e-13,-1.12423e+00,2.48260e-13,-1.12423e+00,5.31915e-13,-1.12423e+00
8.18164e+02,2.25600e+03,2.66300e+03,-4.07000e+02,3.62401e-13,-1.11669e+00,2.93701e-13,-1.11669e+00,5.98111e-13,-1.11669e+00
8.18413e+02,1.95500e+03,2.12000e+03,-1.65000e+02,2.97892e-13,-1.10914e+00,3.00218e-13,-1.10914e+00,5.21391e-13,-1.10914e+00
8.18662e+02,1.93800e+03,2.22700e+03,-2.89000e+02,1.70338e-13,-1.10160e+00,2.38226e-13,-1.10160e+00,3.93364e-13,-1.10160e+00
8.18911e+02,2.13300e+03,2.29000e+03,-1.57000e+02,3.69256e-14,-1.09405e+00,1.99729e-13,-1.09405e+00,2.16324e-13,-1.09405e+00
8.19160e+02,2.67100e+03,2.31000e+03,3.61000e+02,7.46688e-14,-1.08651e+00,2.12648e-13,-1.08651e+00,2.47051e-13,-1.08651e+00
8.19408e+02,3.21400e+03,2.07600e+03,1.13800e+03,6.79290e-14,-1.07896e+00,2.81815e-13,-1.07896e+00,3.27055e-13,-1.07896e+00
8.19657e+02,3.04600e+03,2.04000e+03,1.00600e+03,1.26475e-13,-1.07142e+00,2.35000e-13,-1.07142e+00,2.43952e-13,-1.07142e+00
8.19906e+02,2.89100e+03,2.11800e+03,7.73000e+02,1.35627e-13,-1.06387e+00,3.48675e-13,-1.06387e+00,2.17658e-13,-1.06387e+00
8.20155e+02,2.52300e+03,2.35500e+03,1.68000e+02,2.08467e-13,-1.05633e+00,2.51693e-13,-1.05633e+00,1.01073e-13,-1.05633e+00
8.20404e+02,2.12400e+03,2.24800e+03,-1.24000e+02,1.01959e-13,-1.04878e+00,1.80922e-13,-1.04878e+00,8.88159e-14,-1.04878e+00
8.20653e+02,2.14800e+03,2.07100e+03,7.70000e+01,1.14676e-13,-1.04124e+00,2.30981e-13,-1.04124e+00,1.84580e-13,-1.04124e+00
8.20901e+02,2.09800e+03,2.24700e+03,-1.49000e+02,2.75529e-13,-1.03369e+00,2.10080e-13,-1.03369e+00,1.53133e-13,-1.03369e+00
8.21150e+02,1.98000e+03,2.88700e+03,-9.07000e+02,3.13150e-13,-1.02615e+00,2.78096e-13,-1.02615e+00,1.91563e-13,-1.02615e+00
8.21399e+02,1.79200e+03,3.34200e+03,-1.55000e+03,2.35596e-13,-1.01860e+00,3.20498e-13,-1.01860e+00,1.52632e-13,-1.01860e+00
8.21648e+02,2.04400e+03,3.37800e+03,-1.33400e+03,1.56437e-13,-1.01106e+00,4.85433e-13,-1.01106e+00,3.76886e-13,-1.01106e+00
8.21897e+02,2.48700e+03,2.74600e+03,-2.59000e+02,2.92234e-13,-1.00351e+00,4.52093e-13,-1.00351e+00,5.27806e-13,-1.00351e+00
8.22145e+02,2.84400e+03,2.14000e+03,7.04000e+02,3.10947e-13,-9.95966e-01,4.23786e-13,-9.95966e-01,5.76739e-13,-9.95966e-01
8.22394e+02,2.68800e+03,1.71700e+03,9.71000e+02,4.07863e-13,-9.88421e-01,2.01099e-13,-9.88421e-01,4.73298e-13,-9.88421e-01
8.22643e+02,2.23700e+03,1.67500e+03,5.62000e+02,4.19421e-13,-9.80876e-01,8.03402e-14,-9.80876e-01,3.92484e-13,-9.80876e-01
8.22892e+02,2.24600e+03,1.80300e+03,4.43000e+02,3.08964e-13,-9.73331e-01,1.61652e-13,-9.73331e-01,2.47151e-13,-9.73331e-01
8.23140e+02,2.61300e+03,1.65700e+03,9.56000e+02,1.57100e-13,-9.65785e-01,2.02375e-13,-9.65785e-01,1.81107e-13,-9.65785e-01
8.23389e+02,3.31800e+03,1.56000e+03,1.75800e+03,7.76219e-14,-9.58240e-01,1.01889e-13,-9.58240e-01,1.07025e-13,-9.58240e-01
8.23638e+02,3.25700e+03,1.92400e+03,1.33300e+03,1.17318e-13,-9.50695e-01,1.44754e-13,-9.50695e-01,4.00011e-14,-9.50695e-01
8.23887e+02,2.67200e+03,2.63300e+03,3.90000e+01,1.97342e-13,-9.43150e-01,1.87911e-13,-9.43150e-01,1.04013e-14,-9.43150e-01
8.24135e+02,1.93600e+03,2.81000e+03,-8.74000e+02,2.69559e-13,-9.35605e-01,1.04399e-13,-9.35605e-01,2.70572e-13,-9.35605e-01
8.24384e+02,1.57500e+03,2.48800e+03,-9.13000e+02,3.08818e-13,-9.28059e-01,1.02567e-13,-9.28059e-01,3.29675e-13,-9.28059e-01
8.24633e+02,1.54700e+03,2.09100e+03,-5.44000e+02,2.67951e-13,-9.20514e-01,1.19214e-13,-9.20514e-01,2.90605e-13,-9.20514e-01
8.24881e+02,1.46400e+03,1.87400e+03,-4.10000e+02,4.72143e-13,-9.12969e-01,1.64849e-13,-9.12969e-01,3.63619e-13,-9.12969e-01
8.25130e+02,1.34500e+03,2.01400e+03,-6.69000e+02,3.68994e-13,-9.05424e-01,2.33270e-13,-9.05424e-01,1.35859e-13,-9.05424e-01
8.25379e+02,1.47500e+03,2.39400e+03,-9.19000e+02,2.47669e-13,-8.97879e-01,4.26786e-13,-8.97879e-01,2.73288e-13,-8.97879e-01
8.25627e+02,1.77800e+03,2.33600e+03,-5.58000e+02,2.14402e-13,-8.90333e-01,3.12594e-13,-8.90333e-01,1.37747e-13,-8.90333e-01
8.25876e+02,2.12500e+03,1.97200e+03,1.53000e+02,2.47564e-13,-8.82788e-01,3.33642e-13,-8.82788e-01,3.91852e-13,-8.82788e-01
8.26125e+02,2.44200e+03,1.80900e+03,6.33000e+02,9.68013e-14,-8.75243e-01,3.87266e-13,-8.75243e-01,3.68704e-13,-8.75243e-01
8.26373e+02,2.40700e+03,1.50800e+03,8.99000e+02,1.80464e-13,-8.67698e-01,2.54967e-13,-8.67698e-01,3.37233e-13,-8.67698e-01
8.26622e+02,2.01900e+03,1.50900e+03,5.10000e+02,2.79595e-13,-8.60153e-01,2.87726e-13,-8.60153e-01,2.87564e-13,-8.60153e-01
8.26870e+02,1.70000e+03,1.44800e+03,2.52000e+02,2.31697e-13,-8.52607e-01,3.08543e-13,-8.52607e-01,2.44283e-13,-8.52607e-01
8.27119e+02,1.66100e+03,1.30000e+03,3.61000e+02,1.86109e-13,-8.45062e-01,4.87789e-13,-8.45062e-01,4.85282e-13,-8.45062e-01
8.27368e+02,1.88000e+03,1.30900e+03,5.71000e+02,2.41130e-13,-8.37517e-01,3.71374e-13,-8.37517e-01,3.09939e-13,-8.37517e-01
8.27616e+02,1.95500e+03,1.56500e+03,3.90000e+02,3.83132e-13,-8.29972e-01,3.49425e-13,-8.29972e-01,2.71266e-13,-8.29972e-01
8.27865e+02,1.76800e+03,2.00900e+03,-2.41000e+02,3.22439e-13,-8.22427e-01,2.40495e-13,-8.22427e-01,9.73830e-14,-8.22427e-01
8.28113e+02,1.58300e+03,2.47400e+03,-8.91000e+02,5.20313e-13,-8.14881e-01,8.79009e-14,-8.14881e-01,4.51962e-13,-8.14881e-01
8.28362e+02,1.33100e+03,2.35300e+03,-1.02200e+03,4.98868e-13,-8.07336e-01,1.82336e-13,-8.07336e-01,6.70267e-13,-8.07336e-01
8.28610e+02,1.27500e+03,1.82800e+03,-5.53000e+02,3.89079e-13,-7.99791e-01,2.21760e-13,-7.99791e-01,5.95575e-13,-7.99791e-01
8.28859e+02,1.27100e+03,1.45000e+03,-1.79000e+02,2.56362e-13,-7.92246e-01,2.70793e-13,-7.92246e-01,4.38354e-13,-7.92246e-01
8.29108e+02,1.18300e+03,1.32600e+03,-1.43000e+02,2.05460e-13,-7.84701e-01,2.48557e-13,-7.84701e-01,2.29029e-13,-7.84701e-01
8.29356e+02,1.19400e+03,1.34000e+03,-1.46000e+02,1.05698e-13,-7.77155e-01,1.49862e-13,-7.77155e-01,1.15489e-13,-7.77155e-01
8.29605e+02,1.26400e+03,1.43500e+03,-1.71000e+02,2.90916e-14,-7.69610e-01,1.64663e-13,-7.69610e-01,1.52472e-13,-7.69610e-01
8.29853e+02,1.41400e+03,1.40900e+03,5.00000e+00,3.97206e-13,-7.62065e-01,3.71664e-13,-7.62065e-01,3.43280e-13,-7.62065e-01
8.30101e+02,1.53600e+03,1.31700e+03,2.19000e+02,2.56242e-13,-7.54520e-01,3.09042e-13,-7.54520e-01,6.91340e-14,-7.54520e-01
8.30350e+02,1.52900e+03,1.22900e+03,3.00000e+02,1.18518e-13,-7.46975e-01,2.50140e-13,-7.46975e-01,1.58748e-13,-7.46975e-01
8.30598e+02,1.38800e+03,1.17400e+03,2.14000e+02,2.67353e-13,-7.39429e-01,4.65307e-14,-7.39429e-01,2.96383e-13,-7.39429e-01
8.30847e+02,1.18300e+03,1.12200e+03,6.10000e+01,4.09307e-13,-7.31884e-01,1.85496e-13,-7.31884e-01,2.23884e-13,-7.31884e-01
8.31095e+02,1.03500e+03,1.05100e+03,-1.60000e+01,4.52303e-13,-7.24339e-01,3.87143e-13,-7.24339e-01,7.24903e-14,-7.24339e-01
8.31344e+02,1.00200e+03,9.85000e+02,1.70000e+01,2.36778e-13,-7.16794e-01,3.73880e-13,-7.16794e-01,1.41513e-13,-7.16794e-01
8.31592e+02,1.00800e+03,9.98000e+02,1.00000e+01,2.23269e-13,-7.09249e-01,4.24963e-13,-7.09249e-01,2.28863e-13,-7.09249e-01
8.31841e+02,9.98000e+02,1.09100e+03,-9.30000e+01,2.12038e-13,-7.01703e-01,2.45825e-13,-7.01703e-01,1.32296e-13,-7.01703e-01
8.32089e+02,9.62000e+02,1.29200e+03,-3.30000e+02,3.22687e-13,-6.94158e-01,1.32779e-13,-6.94158e-01,3.00952e-13,-6.94158e-01
8.32337e+02,9.50000e+02,1.31200e+03,-3.62000e+02,4.14640e-13,-6.86613e-01,1.48630e-13,-6.86613e-01,4.39410e-13,-6.86613e-01
8.32586e+02,9.57000e+02,1.17800e+03,-2.21000e+02,2.68527e-13,-6.79068e-01,1.54621e-13,-6.79068e-01,4.22703e-13,-6.79068e-01
8.32834e+02,9.49000e+02,1.02000e+03,-7.10000e+01,5.91067e-14,-6.71523e-01,3.35686e-13,-6.71523e-01,3.63283e-13,-6.71523e-01
8.33083e+02,9.12000e+02,8.62000e+02,5.00000e+01,5.59896e-14,-6.63977e-01,3.28831e-13,-6.63977e-01,2.99934e-13,-6.63977e-01
8.33331e+02,8.66000e+02,8.33000e+02,3.30000e+01,2.88699e-13,-6.56432e-01,5.92038e-13,-6.56432e-01,5.86543e-13,-6.56432e-01
8.33579e+02,8.44000e+02,8.30000e+02,1.40000e+01,5.75822e-13,-6.48887e-01,8.89768e-13,-6.48887e-01,3.40749e-13,-6.48887e-01
8.33828e+02,8.84000e+02,8.30000e+02,5.40000e+01,7.52390e-13,-6.41342e-01,8.12211e-13,-6.41342e-01,3.94485e-13,-6.41342e-01
8.34076e+02,9.42000e+02,8.33000e+02,1.09000e+02,8.33389e-13,-6.33797e-01,6.85212e-13,-6.33797e-01,4.87068e-13,-6.33797e-01
8.34324e+02,9.54000e+02,8.22000e+02,1.32000e+02,6.14197e-13,-6.26251e-01,3.99208e-13,-6.26251e-01,2.47999e-13,-6.26251e-01
8.34573e+02,8.91000e+02,8.37000e+02,5.40000e+01,4.35210e-13,-6.18706e-01,4.13514e-13,-6.18706e-01,3.31543e-13,-6.18706e-01
8.34821e+02,8.43000e+02,8.63000e+02,-2.00000e+01,1.22130e-13,-6.11161e-01,3.98628e-13,-6.11161e-01,4.61667e-13,-6.11161e-01
8.35069e+02,7.72000e+02,8.55000e+02,-8.30000e+01,2.98883e-13,-6.03616e-01,2.75309e-13,-6.03616e-01,5.37203e-13,-6.03616e-01
8.35318e+02,7.40000e+02,8.14000e+02,-7.40000e+01,5.27388e-13,-5.96071e-01,2.90928e-13,-5.96071e-01,7.87954e-13,-5.96071e-01
8.35566e+02,7.36000e+02,7.78000e+02,-4.20000e+01,5.30655e-13,-5.88525e-01,3.41393e-13,-5.88525e-01,8.12435e-13,-5.88525e-01
8.35814e+02,7.26000e+02,7.75000e+02,-4.90000e+01,3.01822e-13,-5.80980e-01,3.20332e-13,-5.80980e-01,6.13612e-13,-5.80980e-01
8.36062e+02,7.31000e+02,8.01000e+02,-7.00000e+01,2.36519e-13,-5.73435e-01,8.28617e-14,-5.73435e-01,1.90864e-13,-5.73435e-01
8.36311e+02,7.28000e+02,8.15000e+02,-8.70000e+01,2.49199e-13,-5.65890e-01,1.26623e-13,-5.65890e-01,2.65667e-13,-5.65890e-01
8.36559e+02,7.74000e+02,8.23000e+02,-4.90000e+01,1.42947e-13,-5.58345e-01,3.70303e-13,-5.58345e-01,4.33757e-13,-5.58345e-01
8.36807e+02,7.81000e+02,7.94000e+02,-1.30000e+01,7.45046e-13,-5.50799e-01,7.37872e-13,-5.50799e-01,1.31691e-12,-5.50799e-01
8.37055e+02,7.88000e+02,7.49000e+02,3.90000e+01,4.24799e-13,-5.43254e-01,8.75699e-13,-5.43254e-01,1.06978e-12,-5.43254e-01
8.37304e+02,7.69000e+02,7.22000e+02,4.70000e+01,1.09146e-12,-5.35709e-01,1.67530e-12,-5.35709e-01,2.73392e-12,-5.35709e-01
8.37552e+02,7.21000e+02,7.17000e+02,4.00000e+00,2.11813e-12,-5.28164e-01,2.29041e-12,-5.28164e-01,4.37091e-12,-5.28164e-01
8.37800e+02,7.01000e+02,7.00000e+02,1.00000e+00,3.33525e-12,-5.20619e-01,3.03881e-12,-5.20619e-01,6.36632e-12,-5.20619e-01
8.38048e+02,7.15000e+02,6.96000e+02,1.90000e+01,4.52749e-12,-5.13073e-01,4.89859e-12,-5.13073e-01,9.42279e-12,-5.13073e-01
8.38296e+02,7.26000e+02,6.99000e+02,2.70000e+01,4.78285e-12,-5.05528e-01,5.73974e-12,-5.05528e-01,1.05224e-11,-5.05528e-01
8.38545e+02,7.12000e+02,7.02000e+02,1.00000e+01,4.20416e-12,-4.97983e-01,5.23332e-12,-4.97983e-01,9.41934e-12,-4.97983e-01
8.38793e+02,7.15000e+02,7.18000e+02,-3.00000e+00,3.43442e-12,-4.90438e-01,3.68128e-12,-4.90438e-01,7.05385e-12,-4.90438e-01
8.39041e+02,6.96000e+02,7.42000e+02,-4.60000e+01,2.35118e-12,-4.82893e-01,1.70613e-12,-4.82893e-01,3.96495e-12,-4.82893e-01
8.39289e+02,6.79000e+02,7.33000e+02,-5.40000e+01,1.37208e-12,-4.75347e-01,4.52397e-13,-4.75347e-01,1.63765e-12,-4.75347e-01
8.39537e+02,6.83000e+02,7.10000e+02,-2.70000e+01,4.17474e-13,-4.67802e-01,7.41274e-13,-4.67802e-01,8.61073e-13,-4.67802e-01
8.39785e+02,6.90000e+02,6.89000e+02,1.00000e+00,5.62731e-13,-4.60257e-01,1.09589e-12,-4.60257e-01,1.60104e-12,-4.60257e-01
8.40033e+02,6.72000e+02,6.90000e+02,-1.80000e+01,8.81018e-13,-4.52712e-01,9.07651e-13,-4.52712e-01,1.65893e-12,-4.52712e-01
8.40281e+02,6.80000e+02,6.90000e+02,-1.00000e+01,5.78436e-13,-4.45167e-01,8.14677e-13,-4.45167e-01,1.08504e-12,-4.45167e-01
8.40530e+02,6.72000e+02,6.80000e+02,-8.00000e+00,2.23165e-13,-4.37621e-01,7.91412e-13,-4.37621e-01,1.01457e-12,-4.37621e-01
8.40778e+02,6.88000e+02,6.92000e+02,-4.00000e+00,6.64962e-13,-4.30076e-01,4.73456e-13,-4.30076e-01,8.78850e-13,-4.30076e-01
8.41026e+02,6.99000e+02,6.82000e+02,1.70000e+01,1.20263e-12,-4.22531e-01,4.40351e-13,-4.22531e-01,8.76158e-13,-4.22531e-01
8.41274e+02,6.86000e+02,6.70000e+02,1.60000e+01,1.31539e-12,-4.14986e-01,4.05347e-13,-4.14986e-01,1.07429e-12,-4.14986e-01
8.41522e+02,6.76000e+02,6.75000e+02,1.00000e+00,1.18448e-12,-4.07441e-01,5.74720e-13,-4.07441e-01,8.42322e-13,-4.07441e-01
8.41770e+02,6.96000e+02,6.71000e+02,2.50000e+01,8.10671e-13,-3.99895e-01,3.91448e-13,-3.99895e-01,5.54586e-13,-3.99895e-01
8.42018e+02,6.70000e+02,6.78000e+02,-8.00000e+00,3.49322e-13,-3.92350e-01,3.12971e-13,-3.92350e-01,2.77500e-13,-3.92350e-01
8.42266e+02,6.67000e+02,6.86000e+02,-1.90000e+01,3.58923e-13,-3.84805e-01,4.26366e-13,-3.84805e-01,6.62731e-13,-3.84805e-01
8.42514e+02,6.79000e+02,6.75000e+02,4.00000e+00,4.86323e-13,-3.77260e-01,7.77081e-13,-3.77260e-01,1.26340e-12,-3.77260e-01
8.42762e+02,6.78000e+02,6.74000e+02,4.00000e+00,3.91796e-13,-3.69715e-01,6.78894e-13,-3.69715e-01,1.02735e-12,-3.69715e-01
8.43010e+02,6.88000e+02,7.04000e+02,-1.60000e+01,1.05046e-12,-3.62169e-01,5.50951e-13,-3.62169e-01,8.27128e-13,-3.62169e-01
8.43258e+02,6.83000e+02,6.74000e+02,9.00000e+00,1.17426e-12,-3.54624e-01,1.07747e-12,-3.54624e-01,6.37099e-13,-3.54624e-01
8.43506e+02,6.82000e+02,6.83000e+02,-1.00000e+00,2.00271e-12,-3.47079e-01,1.64655e-12,-3.47079e-01,9.19253e-13,-3.47079e-01
8.43754e+02,6.65000e+02,6.78000e+02,-1.30000e+01,3.79132e-12,-3.39534e-01,3.85989e-12,-3.39534e-01,7.53747e-13,-3.39534e-01
8.44002e+02,6.67000e+02,6.70000e+02,-3.00000e+00,5.82223e-12,-3.31989e-01,5.91629e-12,-3.31989e-01,1.09538e-12,-3.31989e-01
8.44250e+02,6.61000e+02,6.60000e+02,1.00000e+00,7.68266e-12,-3.24444e-01,8.01595e-12,-3.24444e-01,1.56005e-12,-3.24444e-01
8.44498e+02,6.66000e+02,6.82000e+02,-1.60000e+01,7.86566e-12,-3.16898e-01,8.74121e-12,-3.16898e-01,1.48778e-12,-3.16898e-01
8.44746e+02,6.71000e+02,6.71000e+02,0.00000e+00,6.17522e-12,-3.09353e-01,6.54498e-12,-3.09353e-01,1.28889e-12,-3.09353e-01
8.44994e+02,6.65000e+02,6.61000e+02,4.00000e+00,3.61085e-12,-3.01808e-01,2.68909e-12,-3.01808e-01,9.56144e-13,-3.01808e-01
8.45242e+02,6.75000e+02,6.71000e+02,4.00000e+00,9.97964e-13,-2.94263e-01,7.73395e-13,-2.94263e-01,1.45385e-12,-2.94263e-01
8.45490e+02,6.82000e+02,6.48000e+02,3.40000e+01,3.55638e-13,-2.86718e-01,1.09042e-12,-2.86718e-01,1.38694e-12,-2.86718e-01
8.45738e+02,6.46000e+02,6.48000e+02,-2.00000e+00,1.16158e-12,-2.79172e-01,9.68719e-13,-2.79172e-01,8.07712e-13,-2.79172e-01
8.45985e+02,6.66000e+02,6.60000e+02,6.00000e+00,9.11793e-13,-2.71627e-01,1.17218e-12,-2.71627e-01,4.04455e-13,-2.71627e-01
8.46233e+02,6.68000e+02,6.64000e+02,4.00000e+00,3.58183e-13,-2.64082e-01,5.31527e-13,-2.64082e-01,7.92142e-13,-2.64082e-01
8.46481e+02,6.57000e+02,6.68000e+02,-1.10000e+01,6.03517e-13,-2.56537e-01,4.89152e-13,-2.56537e-01,3.91861e-13,-2.56537e-01
8.46729e+02,6.65000e+02,6.54000e+02,1.10000e+01,7.34975e-13,-2.48992e-01,6.48830e-13,-2.48992e-01,3.59311e-13,-2.48992e-01
8.46977e+02,6.66000e+02,6.70000e+02,-4.00000e+00,1.23585e-12,-2.41446e-01,8.44176e-13,-2.41446e-01,1.21892e-12,-2.41446e-01
8.47225e+02,6.54000e+02,6.66000e+02,-1.20000e+01,1.56967e-12,-2.33901e-01,6.45348e-13,-2.33901e-01,1.59070e-12,-2.33901e-01
8.47473e+02,6.78000e+02,6.66000e+02,1.20000e+01,1.08163e-12,-2.26356e-01,9.84162e-13,-2.26356e-01,1.05202e-12,-2.26356e-01
8.47720e+02,6.60000e+02,6.70000e+02,-1.00000e+01,1.13843e-12,-2.18811e-01,1.51969e-12,-2.18811e-01,1.66606e-12,-2.18811e-01
8.47968e+02,6.57000e+02,6.75000e+02,-1.80000e+01,7.76280e-13,-2.11266e-01,5.92133e-13,-2.11266e-01,7.02441e-13,-2.11266e-01
8.48216e+02,6.70000e+02,6.74000e+02,-4.00000e+00,1.74649e-12,-2.03720e-01,1.27234e-12,-2.03720e-01,3.01193e-12,-2.03720e-01
8.48464e+02,6.61000e+02,6.58000e+02,3.00000e+00,6.59120e-12,-1.96175e-01,6.38781e-12,-1.96175e-01,1.29520e-11,-1.96175e-01
8.48712e+02,6.63000e+02,6.53000e+02,1.00000e+01,1.17043e-11,-1.88630e-01,1.13508e-11,-1.88630e-01,2.30106e-11,-1.88630e-01
8.48960e+02,6.53000e+02,6.66000e+02,-1.30000e+01,1.00277e-11,-1.81085e-01,1.07169e-11,-1.81085e-01,2.06891e-11,-1.81085e-01
8.49207e+02,6.63000e+02,6.73000e+02,-1.00000e+01,5.81650e-12,-1.73540e-01,6.18870e-12,-1.73540e-01,1.19886e-11,-1.73540e-01
8.49455e+02,6.74000e+02,6.75000e+02,-1.00000e+00,1.41328e-12,-1.65994e-01,2.16782e-12,-1.65994e-01,3.57168e-12,-1.65994e-01
8.49703e+02,6.52000e+02,6.49000e+02,3.00000e+00,2.76409e-13,-1.58449e-01,8.65996e-13,-1.58449e-01,7.25025e-13,-1.58449e-01
8.49951e+02,6.57000e+02,6.62000e+02,-5.00000e+00,1.12406e-12,-1.50904e-01,1.60784e-12,-1.50904e-01,2.41186e-12,-1.50904e-01
8.50198e+02,6.74000e+02,6.67000e+02,7.00000e+00,1.43704e-12,-1.43359e-01,1.06066e-12,-1.43359e-01,2.34189e-12,-1.43359e-01
8.50446e+02,6.71000e+02,6.63000e+02,8.00000e+00,1.20476e-12,-1.35814e-01,1.30265e-12,-1.35814e-01,2.05530e-12,-1.35814e-01
8.50694e+02,6.54000e+02,6.75000e+02,-2.10000e+01,9.32731e-13,-1.28268e-01,6.56647e-13,-1.28268e-01,1.30028e-12,-1.28268e-01
8.50941e+02,6.88000e+02,6.71000e+02,1.70000e+01,4.37904e-13,-1.20723e-01,6.72968e-13,-1.20723e-01,2.35564e-13,-1.20723e-01
8.51189e+02,6.70000e+02,6.71000e+02,-1.00000e+00,1.37788e-12,-1.13178e-01,6.37752e-13,-1.13178e-01,7.64325e-13,-1.13178e-01
8.51437e+02,6.58000e+02,6.66000e+02,-8.00000e+00,2.44169e-12,-1.05633e-01,1.15122e-12,-1.05633e-01,1.30121e-12,-1.05633e-01
8.51685e+02,6.53000e+02,6.54000e+02,-1.00000e+00,1.91736e-12,-9.80876e-02,5.57208e-13,-9.80876e-02,1.37919e-12,-9.80876e-02
8.51932e+02,6.68000e+02,6.58000e+02,1.00000e+01,1.88605e-12,-9.05424e-02,2.02236e-13,-9.05424e-02,1.88808e-12,-9.05424e-02
8.52180e+02,6.58000e+02,6.75000e+02,-1.70000e+01,1.19299e-12,-8.29972e-02,1.08627e-12,-8.29972e-02,1.60706e-12,-8.29972e-02
8.52428e+02,6.71000e+02,6.66000e+02,5.00000e+00,7.30966e-13,-7.54520e-02,6.55989e-14,-7.54520e-02,7.07285e-13,-7.54520e-02
8.52675e+02,6.52000e+02,6.62000e+02,-1.00000e+01,3.96785e-13,-6.79068e-02,4.30908e-13,-6.79068e-02,8.27606e-13,-6.79068e-02
8.52923e+02,6.71000e+02,6.60000e+02,1.10000e+01,8.83564e-13,-6.03616e-02,1.22519e-12,-6.03616e-02,9.76500e-13,-6.03616e-02
8.53170e+02,6.68000e+02,6.74000e+02,-6.00000e+00,2.23805e-12,-5.28164e-02,1.45535e-12,-5.28164e-02,9.61148e-13,-5.28164e-02
8.53418e+02,6.72000e+02,6.50000e+02,2.20000e+01,4.49963e-12,-4.52712e-02,4.16072e-12,-4.52712e-02,4.23965e-13,-4.52712e-02
8.53666e+02,6.72000e+02,6.51000e+02,2.10000e+01,5.12856e-12,-3.77260e-02,5.42512e-12,-3.77260e-02,3.14877e-13,-3.77260e-02
8.53913e+02,6.84000e+02,6.77000e+02,7.00000e+00,6.64210e-12,-3.01808e-02,7.94832e-12,-3.01808e-02,1.30628e-12,-3.01808e-02
8.54161e+02,6.72000e+02,6.61000e+02,1.10000e+01,9.64947e-12,-2.26356e-02,9.86724e-12,-2.26356e-02,1.46282e-12,-2.26356e-02
8.54409e+02,6.49000e+02,6.70000e+02,-2.10000e+01,2.63494e-11,-1.50904e-02,2.58774e-11,-1.50904e-02,5.59594e-13,-1.50904e-02
8.54656e+02,6.60000e+02,6.71000e+02,-1.10000e+01,5.76261e-11,-7.54520e-03,5.73426e-11,-7.54520e-03,3.88156e-13,-7.54520e-03
