7.67698e+02,6.76000e+02,6.80000e+02,-4.00000e+00,2.04971e-10,0.00000e+00,2.03432e-10,0.00000e+00,1.53835e-12,0.00000e+00
7.67949e+02,6.74000e+02,6.89000e+02,-1.50000e+01,9.49243e-11,7.54520e-03,9.30316e-11,7.54520e-03,2.29171e-12,7.54520e-03
7.68199e+02,6.84000e+02,7.21000e+02,-3.70000e+01,4.10979e-11,1.50904e-02,3.87236e-11,1.50904e-02,3.04567e-12,1.50904e-02
7.68450e+02,7.00000e+02,6.92000e+02,8.00000e+00,1.49424e-11,2.26356e-02,1.21114e-11,2.26356e-02,3.08118e-12,2.26356e-02
7.68701e+02,7.21000e+02,6.97000e+02,2.40000e+01,5.12178e-12,3.01808e-02,4.06663e-12,3.01808e-02,2.50165e-12,3.01808e-02
7.68951e+02,7.10000e+02,6.72000e+02,3.80000e+01,3.56917e-12,3.77260e-02,2.92265e-12,3.77260e-02,1.53618e-12,3.77260e-02
7.69202e+02,7.05000e+02,6.80000e+02,2.50000e+01,3.84881e-12,4.52712e-02,3.97522e-12,4.52712e-02,2.35062e-12,4.52712e-02
7.69453e+02,7.08000e+02,6.77000e+02,3.10000e+01,3.01007e-12,5.28164e-02,2.34030e-12,5.28164e-02,2.77977e-12,5.28164e-02
7.69703e+02,7.00000e+02,6.81000e+02,1.90000e+01,1.33187e-12,6.03616e-02,1.68226e-12,6.03616e-02,2.83200e-12,6.03616e-02
7.69954e+02,7.26000e+02,7.05000e+02,2.10000e+01,1.34877e-12,6.79068e-02,2.04328e-12,6.79068e-02,3.26425e-12,6.79068e-02
7.70205e+02,7.28000e+02,7.02000e+02,2.60000e+01,1.08317e-12,7.54520e-02,2.92969e-12,7.54520e-02,3.76557e-12,7.54520e-02
7.70455e+02,7.17000e+02,7.47000e+02,-3.00000e+01,2.37063e-12,8.29972e-02,2.25935e-12,8.29972e-02,3.53922e-12,8.29972e-02
7.70706e+02,7.17000e+02,7.72000e+02,-5.50000e+01,3.73804e-12,9.05424e-02,1.86771e-12,9.05424e-02,2.82183e-12,9.05424e-02
7.70957e+02,7.20000e+02,7.82000e+02,-6.20000e+01,3.98757e-12,9.80876e-02,1.88407e-12,9.80876e-02,2.11904e-12,9.80876e-02
7.71207e+02,7.14000e+02,7.62000e+02,-4.80000e+01,4.62152e-12,1.05633e-01,3.74015e-12,1.05633e-01,8.95764e-13,1.05633e-01
7.71458e+02,7.01000e+02,7.59000e+02,-5.80000e+01,4.00419e-12,1.13178e-01,3.12083e-12,1.13178e-01,1.63638e-12,1.13178e-01
7.71708e+02,7.40000e+02,7.59000e+02,-1.90000e+01,3.59421e-12,1.20723e-01,1.63475e-12,1.20723e-01,2.57722e-12,1.20723e-01
7.71959e+02,7.95000e+02,7.59000e+02,3.60000e+01,2.64491e-12,1.28268e-01,5.45232e-13,1.28268e-01,2.30496e-12,1.28268e-01
7.72210e+02,8.85000e+02,7.55000e+02,1.30000e+02,2.21360e-12,1.35814e-01,7.90129e-13,1.35814e-01,2.62928e-12,1.35814e-01
7.72460e+02,8.92000e+02,7.60000e+02,1.32000e+02,8.10002e-13,1.43359e-01,7.80048e-13,1.43359e-01,1.54400e-12,1.43359e-01
7.72711e+02,8.39000e+02,7.74000e+02,6.50000e+01,2.20245e-12,1.50904e-01,8.65820e-13,1.50904e-01,1.41210e-12,1.50904e-01
7.72961e+02,7.73000e+02,7.59000e+02,1.40000e+01,2.65505e-12,1.58449e-01,1.71305e-12,1.58449e-01,1.71822e-12,1.58449e-01
7.73212e+02,7.79000e+02,7.67000e+02,1.20000e+01,4.19745e-12,1.65994e-01,1.80378e-12,1.65994e-01,5.96932e-12,1.65994e-01
7.73462e+02,8.29000e+02,7.78000e+02,5.10000e+01,8.90165e-12,1.73540e-01,8.62135e-12,1.73540e-01,1.73274e-11,1.73540e-01
7.73713e+02,8.25000e+02,8.20000e+02,5.00000e+00,1.71361e-11,1.81085e-01,1.78825e-11,1.81085e-01,3.45645e-11,1.81085e-01
7.73963e+02,8.25000e+02,9.13000e+02,-8.80000e+01,2.17279e-11,1.88630e-01,2.20316e-11,1.88630e-01,4.31567e-11,1.88630e-01
7.74214e+02,8.03000e+02,9.38000e+02,-1.35000e+02,1.52207e-11,1.96175e-01,1.28095e-11,1.96175e-01,2.73272e-11,1.96175e-01
7.74465e+02,8.04000e+02,9.17000e+02,-1.13000e+02,5.81186e-12,2.03720e-01,3.66967e-12,2.03720e-01,8.46030e-12,2.03720e-01
7.74715e+02,7.93000e+02,8.28000e+02,-3.50000e+01,1.27948e-12,2.11266e-01,1.66617e-12,2.11266e-01,1.10343e-12,2.11266e-01
7.74965e+02,7.83000e+02,7.93000e+02,-1.00000e+01,3.12305e-12,2.18811e-01,9.45068e-13,2.18811e-01,2.41066e-12,2.18811e-01
7.75216e+02,7.84000e+02,7.94000e+02,-1.00000e+01,3.20620e-12,2.26356e-01,1.79854e-12,2.26356e-01,2.00793e-12,2.26356e-01
7.75466e+02,8.36000e+02,8.38000e+02,-2.00000e+00,1.75810e-12,2.33901e-01,2.51315e-12,2.33901e-01,1.49913e-12,2.33901e-01
7.75717e+02,9.37000e+02,8.54000e+02,8.30000e+01,4.09107e-13,2.41446e-01,2.50022e-12,2.41446e-01,2.17189e-12,2.41446e-01
7.75967e+02,1.05800e+03,8.43000e+02,2.15000e+02,3.41384e-13,2.48992e-01,1.86398e-12,2.48992e-01,2.19907e-12,2.48992e-01
7.76218e+02,1.06000e+03,8.55000e+02,2.05000e+02,1.37204e-12,2.56537e-01,1.07223e-12,2.56537e-01,2.04101e-12,2.56537e-01
7.76468e+02,9.87000e+02,8.92000e+02,9.50000e+01,2.09728e-12,2.64082e-01,1.09907e-12,2.64082e-01,2.89121e-12,2.64082e-01
7.76719e+02,8.65000e+02,8.70000e+02,-5.00000e+00,2.05364e-12,2.71627e-01,1.70107e-12,2.71627e-01,3.65152e-12,2.71627e-01
7.76969e+02,8.57000e+02,8.57000e+02,0.00000e+00,1.51886e-12,2.79172e-01,1.38473e-12,2.79172e-01,2.76811e-12,2.79172e-01
7.77219e+02,9.07000e+02,8.82000e+02,2.50000e+01,1.98676e-12,2.86718e-01,4.35502e-13,2.86718e-01,1.55132e-12,2.86718e-01
7.77470e+02,9.39000e+02,1.01600e+03,-7.70000e+01,1.84760e-12,2.94263e-01,1.79335e-12,2.94263e-01,1.96590e-12,2.94263e-01
7.77720e+02,9.32000e+02,1.19600e+03,-2.64000e+02,2.94207e-12,3.01808e-01,4.68815e-12,3.01808e-01,1.87987e-12,3.01808e-01
7.77971e+02,8.90000e+02,1.24000e+03,-3.50000e+02,8.77592e-12,3.09353e-01,8.45444e-12,3.09353e-01,8.44337e-13,3.09353e-01
7.78221e+02,9.35000e+02,1.16100e+03,-2.26000e+02,1.30324e-11,3.16898e-01,1.21671e-11,3.16898e-01,8.94467e-13,3.16898e-01
7.78471e+02,9.73000e+02,1.01000e+03,-3.70000e+01,1.31076e-11,3.24444e-01,1.20516e-11,3.24444e-01,1.13003e-12,3.24444e-01
7.78722e+02,9.64000e+02,9.32000e+02,3.20000e+01,9.57891e-12,3.31989e-01,8.52104e-12,3.31989e-01,1.06718e-12,3.31989e-01
7.78972e+02,9.46000e+02,9.31000e+02,1.50000e+01,5.34757e-12,3.39534e-01,4.63348e-12,3.39534e-01,7.25316e-13,3.39534e-01
7.79222e+02,1.06900e+03,9.98000e+02,7.10000e+01,2.16525e-12,3.47079e-01,1.80320e-12,3.47079e-01,3.81391e-13,3.47079e-01
7.79473e+02,1.23000e+03,9.94000e+02,2.36000e+02,7.74406e-13,3.54624e-01,6.59331e-13,3.54624e-01,3.72953e-13,3.54624e-01
7.79723e+02,1.31900e+03,1.01300e+03,3.06000e+02,6.78352e-13,3.62169e-01,1.13853e-12,3.62169e-01,1.27446e-12,3.62169e-01
7.79973e+02,1.24400e+03,1.06700e+03,1.77000e+02,8.58861e-13,3.69715e-01,6.96036e-13,3.69715e-01,1.54713e-12,3.69715e-01
7.80224e+02,1.10600e+03,1.13400e+03,-2.80000e+01,3.79712e-13,3.77260e-01,1.36026e-12,3.77260e-01,1.49176e-12,3.77260e-01
7.80474e+02,9.56000e+02,1.11900e+03,-1.63000e+02,3.63254e-13,3.84805e-01,1.76574e-12,3.84805e-01,1.42327e-12,3.84805e-01
7.80724e+02,9.60000e+02,1.05300e+03,-9.30000e+01,1.23400e-12,3.92350e-01,1.94862e-12,3.92350e-01,7.16172e-13,3.92350e-01
7.80974e+02,1.03600e+03,1.10800e+03,-7.20000e+01,1.40646e-12,3.99895e-01,2.19758e-12,3.99895e-01,1.24209e-12,3.99895e-01
7.81225e+02,1.04600e+03,1.23000e+03,-1.84000e+02,7.06935e-13,4.07441e-01,1.95419e-12,4.07441e-01,1.30767e-12,4.07441e-01
7.81475e+02,1.06200e+03,1.34900e+03,-2.87000e+02,3.80247e-13,4.14986e-01,1.31824e-12,4.14986e-01,1.10259e-12,4.14986e-01
7.81725e+02,1.12600e+03,1.32400e+03,-1.98000e+02,4.27732e-13,4.22531e-01,7.18730e-13,4.22531e-01,3.65494e-13,4.22531e-01
7.81975e+02,1.20500e+03,1.21400e+03,-9.00000e+00,6.02187e-13,4.30076e-01,9.38777e-13,4.30076e-01,1.51423e-12,4.30076e-01
7.82226e+02,1.24800e+03,1.08700e+03,1.61000e+02,3.46655e-13,4.37621e-01,1.45934e-12,4.37621e-01,1.77838e-12,4.37621e-01
7.82476e+02,1.15600e+03,1.01500e+03,1.41000e+02,2.59203e-13,4.45167e-01,1.50717e-12,4.45167e-01,1.73288e-12,4.45167e-01
7.82726e+02,1.13300e+03,9.83000e+02,1.50000e+02,1.92766e-13,4.52712e-01,5.03199e-13,4.52712e-01,6.86834e-13,4.52712e-01
7.82976e+02,1.21800e+03,9.98000e+02,2.20000e+02,3.55659e-13,4.60257e-01,8.47278e-13,4.60257e-01,1.14733e-12,4.60257e-01
7.83226e+02,1.32500e+03,1.05100e+03,2.74000e+02,4.94425e-13,4.67802e-01,9.21089e-13,4.67802e-01,1.37383e-12,4.67802e-01
7.83477e+02,1.32800e+03,1.15200e+03,1.76000e+02,5.22225e-13,4.75347e-01,9.76382e-13,4.75347e-01,1.48114e-12,4.75347e-01
7.83727e+02,1.21200e+03,1.23800e+03,-2.60000e+01,2.18441e-12,4.82893e-01,3.25692e-12,4.82893e-01,5.43046e-12,4.82893e-01
7.83977e+02,1.07200e+03,1.29100e+03,-2.19000e+02,4.88970e-12,4.90438e-01,5.99730e-12,4.90438e-01,1.08739e-11,4.90438e-01
7.84227e+02,9.66000e+02,1.23200e+03,-2.66000e+02,7.47116e-12,4.97983e-01,8.15255e-12,4.97983e-01,1.56025e-11,4.97983e-01
7.84477e+02,1.03800e+03,1.22000e+03,-1.82000e+02,9.51846e-12,5.05528e-01,1.06645e-11,5.05528e-01,2.00975e-11,5.05528e-01
7.84727e+02,1.06000e+03,1.35600e+03,-2.96000e+02,9.51262e-12,5.13073e-01,1.03298e-11,5.13073e-01,1.97167e-11,5.13073e-01
7.84978e+02,1.09600e+03,1.59400e+03,-4.98000e+02,7.39409e-12,5.20619e-01,7.02174e-12,5.20619e-01,1.43669e-11,5.20619e-01
7.85228e+02,1.27100e+03,1.61200e+03,-3.41000e+02,4.34951e-12,5.28164e-01,3.31467e-12,5.28164e-01,7.66141e-12,5.28164e-01
7.85478e+02,1.57300e+03,1.42000e+03,1.53000e+02,1.63633e-12,5.35709e-01,2.02431e-12,5.35709e-01,3.63028e-12,5.35709e-01
7.85728e+02,1.79200e+03,1.19600e+03,5.96000e+02,1.91015e-13,5.43254e-01,9.17932e-13,5.43254e-01,8.31396e-13,5.43254e-01
7.85978e+02,1.67600e+03,1.06800e+03,6.08000e+02,1.46019e-13,5.50799e-01,9.89204e-13,5.50799e-01,8.66128e-13,5.50799e-01
7.86228e+02,1.42000e+03,1.05300e+03,3.67000e+02,7.24573e-13,5.58345e-01,4.51660e-13,5.58345e-01,5.74368e-13,5.58345e-01
7.86478e+02,1.22700e+03,1.05000e+03,1.77000e+02,8.50308e-13,5.65890e-01,2.81471e-13,5.65890e-01,6.42153e-13,5.65890e-01
7.86728e+02,1.29200e+03,9.92000e+02,3.00000e+02,6.29184e-14,5.73435e-01,6.01136e-13,5.73435e-01,6.26158e-13,5.73435e-01
7.86978e+02,1.37100e+03,1.08100e+03,2.90000e+02,9.67601e-13,5.80980e-01,5.90110e-13,5.80980e-01,1.54053e-12,5.80980e-01
7.87228e+02,1.44400e+03,1.36300e+03,8.10000e+01,1.28460e-12,5.88525e-01,4.30387e-13,5.88525e-01,1.71451e-12,5.88525e-01
7.87478e+02,1.27600e+03,1.59700e+03,-3.21000e+02,1.28656e-12,5.96071e-01,4.62636e-13,5.96071e-01,1.73227e-12,5.96071e-01
7.87728e+02,1.07400e+03,1.61800e+03,-5.44000e+02,1.35405e-12,6.03616e-01,4.64278e-13,6.03616e-01,1.77679e-12,6.03616e-01
7.87978e+02,1.03800e+03,1.40400e+03,-3.66000e+02,1.49853e-12,6.11161e-01,5.72703e-13,6.11161e-01,1.84393e-12,6.11161e-01
7.88228e+02,1.05800e+03,1.24100e+03,-1.83000e+02,1.53542e-12,6.18706e-01,5.44878e-13,6.18706e-01,1.47836e-12,6.18706e-01
7.88478e+02,1.04500e+03,1.22400e+03,-1.79000e+02,1.17267e-12,6.26251e-01,4.65659e-13,6.26251e-01,8.72040e-13,6.26251e-01
7.88728e+02,1.05400e+03,1.36800e+03,-3.14000e+02,1.04146e-12,6.33797e-01,4.37258e-13,6.33797e-01,7.38558e-13,6.33797e-01
7.88978e+02,1.27600e+03,1.43700e+03,-1.61000e+02,7.54364e-13,6.41342e-01,7.13125e-13,6.41342e-01,7.19155e-13,6.41342e-01
7.89228e+02,1.66100e+03,1.30700e+03,3.54000e+02,8.39872e-13,6.48887e-01,1.00003e-12,6.48887e-01,6.97034e-13,6.48887e-01
7.89478e+02,1.83600e+03,1.12400e+03,7.12000e+02,8.06293e-13,6.56432e-01,1.13496e-12,6.56432e-01,5.40813e-13,6.56432e-01
7.89728e+02,1.75600e+03,1.08600e+03,6.70000e+02,9.18979e-13,6.63977e-01,1.19065e-12,6.63977e-01,2.80182e-13,6.63977e-01
7.89978e+02,1.48300e+03,1.15500e+03,3.28000e+02,9.96958e-13,6.71523e-01,8.09150e-13,6.71523e-01,3.99284e-13,6.71523e-01
7.90228e+02,1.33500e+03,1.21200e+03,1.23000e+02,8.88601e-13,6.79068e-01,4.64257e-13,6.79068e-01,4.33339e-13,6.79068e-01
7.90478e+02,1.46100e+03,1.14700e+03,3.14000e+02,8.37597e-13,6.86613e-01,8.02066e-13,6.86613e-01,5.16524e-13,6.86613e-01
7.90728e+02,1.56400e+03,1.23800e+03,3.26000e+02,9.44813e-13,6.94158e-01,1.10553e-12,6.94158e-01,8.00788e-13,6.94158e-01
7.90978e+02,1.49900e+03,1.62500e+03,-1.26000e+02,1.05693e-12,7.01703e-01,1.09280e-12,7.01703e-01,1.25446e-12,7.01703e-01
7.91228e+02,1.30200e+03,2.02500e+03,-7.23000e+02,9.83656e-13,7.09249e-01,7.14921e-13,7.09249e-01,1.20298e-12,7.09249e-01
7.91478e+02,1.18800e+03,2.17900e+03,-9.91000e+02,6.10678e-13,7.16794e-01,4.51475e-13,7.16794e-01,9.91216e-13,7.16794e-01
7.91728e+02,1.18300e+03,1.89100e+03,-7.08000e+02,2.32810e-13,7.24339e-01,2.69428e-13,7.24339e-01,4.87782e-13,7.24339e-01
7.91977e+02,1.29900e+03,1.54000e+03,-2.41000e+02,5.12853e-13,7.31884e-01,4.27198e-13,7.31884e-01,5.89655e-13,7.31884e-01
7.92227e+02,1.29600e+03,1.35400e+03,-5.80000e+01,9.77240e-13,7.39429e-01,4.53271e-13,7.39429e-01,1.29161e-12,7.39429e-01
7.92477e+02,1.26700e+03,1.49600e+03,-2.29000e+02,1.04136e-12,7.46975e-01,2.28524e-13,7.46975e-01,1.23914e-12,7.46975e-01
7.92727e+02,1.53800e+03,1.56200e+03,-2.40000e+01,7.10885e-13,7.54520e-01,4.72210e-14,7.54520e-01,7.58105e-13,7.54520e-01
7.92977e+02,1.95700e+03,1.50200e+03,4.55000e+02,5.60549e-13,7.62065e-01,3.50669e-13,7.62065e-01,3.52048e-13,7.62065e-01
7.93227e+02,2.24000e+03,1.28600e+03,9.54000e+02,3.48396e-13,7.69610e-01,4.03697e-13,7.69610e-01,5.94372e-13,7.69610e-01
7.93476e+02,2.34900e+03,1.27300e+03,1.07600e+03,6.05918e-13,7.77155e-01,4.19179e-13,7.77155e-01,1.00335e-12,7.77155e-01
7.93726e+02,1.91500e+03,1.44100e+03,4.74000e+02,6.63266e-13,7.84701e-01,4.78428e-13,7.84701e-01,1.13997e-12,7.84701e-01
7.93976e+02,1.51400e+03,1.53600e+03,-2.20000e+01,6.97673e-13,7.92246e-01,3.88423e-13,7.92246e-01,1.06208e-12,7.92246e-01
7.94226e+02,1.36800e+03,1.44500e+03,-7.70000e+01,7.96605e-13,7.99791e-01,2.88554e-13,7.99791e-01,9.63558e-13,7.99791e-01
7.94476e+02,1.53100e+03,1.47600e+03,5.50000e+01,9.69051e-13,8.07336e-01,1.77685e-13,8.07336e-01,8.77429e-13,8.07336e-01
7.94725e+02,1.63400e+03,1.94300e+03,-3.09000e+02,1.02080e-12,8.14881e-01,2.46371e-14,8.14881e-01,1.00499e-12,8.14881e-01
7.94975e+02,1.59100e+03,2.65400e+03,-1.06300e+03,9.42558e-13,8.22427e-01,2.26122e-13,8.22427e-01,1.11641e-12,8.22427e-01
7.95225e+02,1.60600e+03,3.02700e+03,-1.42100e+03,6.46771e-13,8.29972e-01,3.97764e-13,8.29972e-01,9.66855e-13,8.29972e-01
7.95475e+02,1.82800e+03,2.48900e+03,-6.61000e+02,6.01911e-13,8.37517e-01,3.10711e-13,8.37517e-01,8.35812e-13,8.37517e-01
7.95724e+02,1.99900e+03,1.80400e+03,1.95000e+02,3.46300e-13,8.45062e-01,3.77692e-13,8.45062e-01,7.20925e-13,8.45062e-01
7.95974e+02,1.92600e+03,1.42900e+03,4.97000e+02,2.56160e-13,8.52607e-01,2.65997e-13,8.52607e-01,4.78365e-13,8.52607e-01
7.96224e+02,1.71500e+03,1.45600e+03,2.59000e+02,4.23957e-13,8.60153e-01,2.62876e-13,8.60153e-01,4.61624e-13,8.60153e-01
7.96474e+02,1.84300e+03,1.66000e+03,1.83000e+02,3.94625e-13,8.67698e-01,1.39840e-13,8.67698e-01,4.51176e-13,8.67698e-01
7.96723e+02,2.54900e+03,1.68800e+03,8.61000e+02,2.79601e-13,8.75243e-01,7.38201e-14,8.75243e-01,3.46304e-13,8.75243e-01
7.96973e+02,3.37100e+03,1.66900e+03,1.70200e+03,3.93426e-13,8.82788e-01,3.17810e-13,8.82788e-01,9.24988e-14,8.82788e-01
7.97223e+02,3.76700e+03,1.97700e+03,1.79000e+03,5.74185e-13,8.90333e-01,4.12271e-13,8.90333e-01,1.69125e-13,8.90333e-01
7.97472e+02,2.91500e+03,2.64900e+03,2.66000e+02,8.50972e-13,8.97879e-01,4.77986e-13,8.97879e-01,4.15790e-13,8.97879e-01
7.97722e+02,2.15400e+03,3.15400e+03,-1.00000e+03,8.05215e-13,9.05424e-01,4.20721e-13,9.05424e-01,5.58989e-13,9.05424e-01
7.97972e+02,1.79600e+03,3.03600e+03,-1.24000e+03,8.12732e-13,9.12969e-01,5.85619e-13,9.12969e-01,2.48221e-13,9.12969e-01
7.98221e+02,1.82300e+03,2.44000e+03,-6.17000e+02,6.55943e-13,9.20514e-01,5.69233e-13,9.20514e-01,1.89807e-13,9.20514e-01
7.98471e+02,1.77700e+03,2.54000e+03,-7.63000e+02,4.72711e-13,9.28059e-01,4.75967e-13,9.28059e-01,4.12938e-13,9.28059e-01
7.98721e+02,1.70500e+03,3.29000e+03,-1.58500e+03,1.48176e-13,9.35605e-01,2.31092e-13,9.35605e-01,3.47517e-13,9.35605e-01
7.98970e+02,1.94300e+03,4.00200e+03,-2.05900e+03,1.33438e-13,9.43150e-01,1.82831e-13,9.43150e-01,1.49988e-13,9.43150e-01
7.99220e+02,2.66800e+03,3.79400e+03,-1.12600e+03,2.22030e-13,9.50695e-01,3.00188e-13,9.50695e-01,7.84396e-14,9.50695e-01
7.99469e+02,3.09300e+03,2.76800e+03,3.25000e+02,2.14660e-13,9.58240e-01,2.25556e-13,9.58240e-01,5.14219e-14,9.58240e-01
7.99719e+02,3.12700e+03,1.86200e+03,1.26500e+03,3.30085e-13,9.65785e-01,2.78140e-13,9.65785e-01,7.17188e-14,9.65785e-01
7.99969e+02,2.60500e+03,1.58400e+03,1.02100e+03,4.03235e-13,9.73331e-01,2.94896e-13,9.73331e-01,1.09441e-13,9.73331e-01
8.00218e+02,2.16400e+03,1.54700e+03,6.17000e+02,3.22211e-13,9.80876e-01,3.26488e-13,9.80876e-01,2.39528e-13,9.80876e-01
8.00468e+02,2.65500e+03,1.62600e+03,1.02900e+03,3.24675e-13,9.88421e-01,4.82455e-13,9.88421e-01,5.00502e-13,9.88421e-01
8.00717e+02,3.67200e+03,1.76400e+03,1.90800e+03,2.36022e-13,9.95966e-01,5.54498e-13,9.95966e-01,3.76180e-13,9.95966e-01
8.00967e+02,4.07600e+03,2.43800e+03,1.63800e+03,2.08352e-13,1.00351e+00,3.76061e-13,1.00351e+00,1.69703e-13,1.00351e+00
8.01216e+02,3.32900e+03,3.46100e+03,-1.32000e+02,1.83201e-13,1.01106e+00,1.55195e-13,1.01106e+00,2.85354e-13,1.01106e+00
8.01466e+02,2.28100e+03,3.97200e+03,-1.69100e+03,3.06244e-13,1.01860e+00,3.26344e-13,1.01860e+00,4.40557e-13,1.01860e+00
8.01715e+02,1.83500e+03,4.01500e+03,-2.18000e+03,2.78357e-13,1.02615e+00,3.23684e-13,1.02615e+00,3.78089e-13,1.02615e+00
8.01965e+02,1.98200e+03,3.46700e+03,-1.48500e+03,2.36353e-13,1.03369e+00,2.62270e-13,1.03369e+00,3.85656e-13,1.03369e+00
8.02215e+02,2.12900e+03,2.93800e+03,-8.09000e+02,3.58335e-13,1.04124e+00,1.33635e-13,1.04124e+00,3.29751e-13,1.04124e+00
8.02464e+02,2.31700e+03,3.26700e+03,-9.50000e+02,2.91081e-13,1.04878e+00,1.66411e-13,1.04878e+00,3.98338e-13,1.04878e+00
8.02713e+02,3.26900e+03,4.02600e+03,-7.57000e+02,1.86336e-13,1.05633e+00,1.78162e-13,1.05633e+00,1.77232e-13,1.05633e+00
8.02963e+02,4.47000e+03,4.07600e+03,3.94000e+02,4.51351e-13,1.06387e+00,1.58322e-13,1.06387e+00,2.95975e-13,1.06387e+00
8.03212e+02,5.93200e+03,3.16700e+03,2.76500e+03,5.30626e-13,1.07142e+00,1.40462e-13,1.07142e+00,3.90342e-13,1.07142e+00
8.03462e+02,6.76400e+03,2.69400e+03,4.07000e+03,5.31971e-13,1.07896e+00,1.41033e-13,1.07896e+00,4.06246e-13,1.07896e+00
8.03711e+02,5.33400e+03,2.79700e+03,2.53700e+03,3.34369e-13,1.08651e+00,8.95272e-14,1.08651e+00,2.97861e-13,1.08651e+00
8.03961e+02,3.79300e+03,3.07600e+03,7.17000e+02,4.46236e-13,1.09405e+00,1.69541e-13,1.09405e+00,5.83344e-13,1.09405e+00
8.04210e+02,3.48700e+03,2.90000e+03,5.87000e+02,4.60159e-13,1.10160e+00,3.02485e-13,1.10160e+00,7.62637e-13,1.10160e+00
8.04460e+02,3.62300e+03,2.58300e+03,1.04000e+03,5.23434e-13,1.10914e+00,4.19054e-13,1.10914e+00,9.20934e-13,1.10914e+00
8.04709e+02,3.46300e+03,2.83400e+03,6.29000e+02,6.06711e-13,1.11669e+00,6.01847e-13,1.11669e+00,1.16034e-12,1.11669e+00
8.04958e+02,3.34500e+03,4.24900e+03,-9.04000e+02,7.03357e-13,1.12423e+00,4.81638e-13,1.12423e+00,1.12228e-12,1.12423e+00
8.05208e+02,2.91000e+03,5.51000e+03,-2.60000e+03,4.78736e-13,1.13178e+00,5.53399e-13,1.13178e+00,9.53273e-13,1.13178e+00
8.05457e+02,2.97600e+03,5.84300e+03,-2.86700e+03,4.36925e-13,1.13932e+00,4.57820e-13,1.13932e+00,8.13094e-13,1.13932e+00
8.05707e+02,3.41600e+03,4.94000e+03,-1.52400e+03,4.34032e-13,1.14687e+00,4.15100e-13,1.14687e+00,8.15255e-13,1.14687e+00
8.05956e+02,3.46200e+03,3.59800e+03,-1.36000e+02,2.78576e-13,1.15442e+00,3.59442e-13,1.15442e+00,5.38730e-13,1.15442e+00
8.06205e+02,3.26600e+03,3.30800e+03,-4.20000e+01,2.86469e-13,1.16196e+00,3.22789e-13,1.16196e+00,2.86744e-13,1.16196e+00
8.06455e+02,3.00400e+03,4.03900e+03,-1.03500e+03,2.40791e-13,1.16951e+00,3.25666e-13,1.16951e+00,1.50139e-13,1.16951e+00
8.06704e+02,3.64600e+03,4.32600e+03,-6.80000e+02,2.77414e-13,1.17705e+00,3.51967e-13,1.17705e+00,2.62726e-13,1.17705e+00
8.06953e+02,5.36900e+03,4.21700e+03,1.15200e+03,4.34511e-13,1.18460e+00,3.04373e-13,1.18460e+00,3.40703e-13,1.18460e+00
8.07203e+02,6.83600e+03,3.84500e+03,2.99100e+03,5.04370e-13,1.19214e+00,2.68179e-13,1.19214e+00,4.50079e-13,1.19214e+00
8.07452e+02,6.79300e+03,3.79800e+03,2.99500e+03,2.92398e-13,1.19969e+00,2.43852e-13,1.19969e+00,8.99782e-14,1.19969e+00
8.07701e+02,5.14600e+03,4.40500e+03,7.41000e+02,1.79884e-13,1.20723e+00,3.27551e-13,1.20723e+00,3.17371e-13,1.20723e+00
8.07951e+02,3.55700e+03,4.35700e+03,-8.00000e+02,2.33475e-13,1.21478e+00,2.30111e-13,1.21478e+00,3.42034e-13,1.21478e+00
8.08200e+02,3.09900e+03,3.69600e+03,-5.97000e+02,3.58323e-13,1.22232e+00,9.21607e-14,1.22232e+00,3.96165e-13,1.22232e+00
8.08449e+02,3.63700e+03,3.30300e+03,3.34000e+02,3.09490e-13,1.22987e+00,5.05258e-14,1.22987e+00,3.53472e-13,1.22987e+00
8.08698e+02,3.90900e+03,4.49000e+03,-5.81000e+02,1.92363e-13,1.23741e+00,2.19527e-13,1.23741e+00,3.65854e-13,1.23741e+00
8.08948e+02,3.78500e+03,7.07300e+03,-3.28800e+03,3.02908e-13,1.24496e+00,2.61772e-13,1.24496e+00,5.39743e-13,1.24496e+00
8.09197e+02,4.11400e+03,8.07600e+03,-3.96200e+03,2.60394e-13,1.25250e+00,1.35449e-13,1.25250e+00,3.81278e-13,1.25250e+00
8.09446e+02,5.17100e+03,7.71700e+03,-2.54600e+03,2.32254e-13,1.26005e+00,1.79012e-13,1.26005e+00,2.42558e-13,1.26005e+00
8.09695e+02,6.25300e+03,5.57200e+03,6.81000e+02,2.84391e-13,1.26759e+00,1.96348e-13,1.26759e+00,1.55782e-13,1.26759e+00
8.09945e+02,6.72100e+03,4.21100e+03,2.51000e+03,2.27264e-13,1.27514e+00,1.32042e-13,1.27514e+00,1.01564e-13,1.27514e+00
8.10194e+02,5.52600e+03,3.80200e+03,1.72400e+03,2.98893e-13,1.28268e+00,1.11591e-13,1.28268e+00,1.93354e-13,1.28268e+00
8.10443e+02,4.70600e+03,3.81600e+03,8.90000e+02,5.30729e-13,1.29023e+00,1.59419e-13,1.29023e+00,3.99665e-13,1.29023e+00
8.10692e+02,5.94500e+03,3.74800e+03,2.19700e+03,5.79325e-13,1.29777e+00,1.44348e-13,1.29777e+00,4.67261e-13,1.29777e+00
8.10941e+02,7.39100e+03,3.29400e+03,4.09700e+03,6.69444e-13,1.30532e+00,3.05439e-13,1.30532e+00,3.76112e-13,1.30532e+00
8.11191e+02,6.96300e+03,3.60200e+03,3.36100e+03,4.76653e-13,1.31286e+00,3.61071e-13,1.31286e+00,1.26897e-13,1.31286e+00
8.11440e+02,5.94700e+03,4.41600e+03,1.53100e+03,3.18723e-13,-1.32041e+00,4.44473e-13,-1.32041e+00,1.25749e-13,-1.32041e+00
8.11689e+02,4.38800e+03,5.33200e+03,-9.44000e+02,4.76653e-13,-1.31286e+00,3.61071e-13,-1.31286e+00,1.26897e-13,-1.31286e+00
8.11938e+02,3.28200e+03,5.31300e+03,-2.03100e+03,6.69444e-13,-1.30532e+00,3.05439e-13,-1.30532e+00,3.76112e-13,-1.30532e+00
8.12187e+02,3.24800e+03,4.85100e+03,-1.60300e+03,5.79325e-13,-1.29777e+00,1.44348e-13,-1.29777e+00,4.67261e-13,-1.29777e+00
8.12436e+02,3.32400e+03,4.26800e+03,-9.44000e+02,5.30729e-13,-1.29023e+00,1.59419e-13,-1.29023e+00,3.99665e-13,-1.29023e+00
8.12685e+02,3.27700e+03,4.78100e+03,-1.50400e+03,2.98893e-13,-1.28268e+00,1.11591e-13,-1.28268e+00,1.93354e-13,-1.28268e+00
8.12935e+02,3.64200e+03,6.28300e+03,-2.64100e+03,2.27264e-13,-1.27514e+00,1.32042e-13,-1.27514e+00,1.01564e-13,-1.27514e+00
8.13184e+02,4.43500e+03,6.01200e+03,-1.57700e+03,2.84391e-13,-1.26759e+00,1.96348e-13,-1.26759e+00,1.55782e-13,-1.26759e+00
8.13433e+02,5.50500e+03,4.93200e+03,5.73000e+02,2.32254e-13,-1.26005e+00,1.79012e-13,-1.26005e+00,2.42558e-13,-1.26005e+00
8.13682e+02,6.48400e+03,3.77800e+03,2.70600e+03,2.60394e-13,-1.25250e+00,1.35449e-13,-1.25250e+00,3.81278e-13,-1.25250e+00
8.13931e+02,6.89800e+03,3.16000e+03,3.73800e+03,3.02908e-13,-1.24496e+00,2.61772e-13,-1.24496e+00,5.39743e-13,-1.24496e+00
8.14180e+02,5.07300e+03,3.17700e+03,1.89600e+03,1.92363e-13,-1.23741e+00,2.19527e-13,-1.23741e+00,3.65854e-13,-1.23741e+00
8.14429e+02,4.31200e+03,3.24900e+03,1.06300e+03,3.09490e-13,-1.22987e+00,5.05258e-14,-1.22987e+00,3.53472e-13,-1.22987e+00
8.14678e+02,4.53900e+03,2.97000e+03,1.56900e+03,3.58323e-13,-1.22232e+00,9.21607e-14,-1.22232e+00,3.96165e-13,-1.22232e+00
8.14927e+02,6.40200e+03,3.11600e+03,3.28600e+03,2.33475e-13,-1.21478e+00,2.30111e-13,-1.21478e+00,3.42034e-13,-1.21478e+00
8.15176e+02,5.94400e+03,4.01200e+03,1.93200e+03,1.79884e-13,-1.20723e+00,3.27551e-13,-1.20723e+00,3.17371e-13,-1.20723e+00
8.15425e+02,4.49000e+03,5.44000e+03,-9.50000e+02,2.92398e-13,-1.19969e+00,2.43852e-13,-1.19969e+00,8.99782e-14,-1.19969e+00
8.15674e+02,3.76500e+03,6.89200e+03,-3.12700e+03,5.04370e-13,-1.19214e+00,2.68179e-13,-1.19214e+00,4.50079e-13,-1.19214e+00
8.15923e+02,3.21600e+03,6.88600e+03,-3.67000e+03,4.34511e-13,-1.18460e+00,3.04373e-13,-1.18460e+00,3.40703e-13,-1.18460e+00
8.16172e+02,3.17700e+03,4.98100e+03,-1.80400e+03,2.77414e-13,-1.17705e+00,3.51967e-13,-1.17705e+00,2.62726e-13,-1.17705e+00
8.16421e+02,3.01200e+03,3.74000e+03,-7.28000e+02,2.40791e-13,-1.16951e+00,3.25666e-13,-1.16951e+00,1.50139e-13,-1.16951e+00
8.16670e+02,2.87600e+03,3.72400e+03,-8.48000e+02,2.86469e-13,-1.16196e+00,3.22789e-13,-1.16196e+00,2.86744e-13,-1.16196e+00
8.16919e+02,3.23600e+03,4.88800e+03,-1.65200e+03,2.78576e-13,-1.15442e+00,3.59442e-13,-1.15442e+00,5.38730e-13,-1.15442e+00
8.17168e+02,4.30400e+03,4.94300e+03,-6.39000e+02,4.34032e-13,-1.14687e+00,4.15100e-13,-1.14687e+00,8.15255e-13,-1.14687e+00
8.17417e+02,5.94800e+03,3.93300e+03,2.01500e+03,4.36925e-13,-1.13932e+00,4.57820e-13,-1.13932e+00,8.13094e-13,-1.13932e+00
8.17666e+02,6.28100e+03,3.00200e+03,3.27900e+03,4.78736e-13,-1.13178e+00,5.53399e-13,-1.13178e+00,9.53273e-13,-1.13178e+00
8.17915e+02,5.52800e+03,2.90800e+03,2.62000e+03,7.03357e-13,-1.12423e+00,4.81638e-13,-1.12423e+00,1.12228e-12,-1.12423e+00
8.18164e+02,4.06100e+03,3.02600e+03,1.03500e+03,6.06711e-13,-1.11669e+00,6.01847e-13,-1.11669e+00,1.16034e-12,-1.11669e+00
8.18413e+02,3.20900e+03,2.90800e+03,3.01000e+02,5.23434e-13,-1.10914e+00,4.19054e-13,-1.10914e+00,9.20934e-13,-1.10914e+00
8.18662e+02,3.19700e+03,2.82500e+03,3.72000e+02,4.60159e-13,-1.10160e+00,3.02485e-13,-1.10160e+00,7.62637e-13,-1.10160e+00
8.18911e+02,3.14400e+03,3.05700e+03,8.70000e+01,4.46236e-13,-1.09405e+00,1.69541e-13,-1.09405e+00,5.83344e-13,-1.09405e+00
8.19160e+02,2.92600e+03,3.62000e+03,-6.94000e+02,3.34369e-13,-1.08651e+00,8.95272e-14,-1.08651e+00,2.97861e-13,-1.08651e+00
8.19408e+02,2.87000e+03,4.82300e+03,-1.95300e+03,5.31971e-13,-1.07896e+00,1.41033e-13,-1.07896e+00,4.06246e-13,-1.07896e+00
8.19657e+02,2.74900e+03,5.65400e+03,-2.90500e+03,5.30626e-13,-1.07142e+00,1.40462e-13,-1.07142e+00,3.90342e-13,-1.07142e+00
8.19906e+02,2.99400e+03,5.21600e+03,-2.22200e+03,4.51351e-13,-1.06387e+00,1.58322e-13,-1.06387e+00,2.95975e-13,-1.06387e+00
8.20155e+02,3.42800e+03,3.89400e+03,-4.66000e+02,1.86336e-13,-1.05633e+00,1.78162e-13,-1.05633e+00,1.77232e-13,-1.05633e+00
8.20404e+02,3.59700e+03,2.94100e+03,6.56000e+02,2.91081e-13,-1.04878e+00,1.66411e-13,-1.04878e+00,3.98338e-13,-1.04878e+00
8.20653e+02,3.11000e+03,2.87300e+03,2.37000e+02,3.58335e-13,-1.04124e+00,1.33635e-13,-1.04124e+00,3.29751e-13,-1.04124e+00
8.20901e+02,3.18500e+03,2.91400e+03,2.71000e+02,2.36353e-13,-1.03369e+00,2.62270e-13,-1.03369e+00,3.85656e-13,-1.03369e+00
8.21150e+02,3.56900e+03,2.68500e+03,8.84000e+02,2.78357e-13,-1.02615e+00,3.23684e-13,-1.02615e+00,3.78089e-13,-1.02615e+00
8.21399e+02,4.12600e+03,2.38800e+03,1.73800e+03,3.06244e-13,-1.01860e+00,3.26344e-13,-1.01860e+00,4.40557e-13,-1.01860e+00
8.21648e+02,4.47100e+03,2.50200e+03,1.96900e+03,1.83201e-13,-1.01106e+00,1.55195e-13,-1.01106e+00,2.85354e-13,-1.01106e+00
8.21897e+02,3.97200e+03,2.89300e+03,1.07900e+03,2.08352e-13,-1.00351e+00,3.76061e-13,-1.00351e+00,1.69703e-13,-1.00351e+00
8.22145e+02,2.98700e+03,3.58100e+03,-5.94000e+02,2.36022e-13,-9.95966e-01,5.54498e-13,-9.95966e-01,3.76180e-13,-9.95966e-01
8.22394e+02,2.22000e+03,3.68800e+03,-1.46800e+03,3.24675e-13,-9.88421e-01,4.82455e-13,-9.88421e-01,5.00502e-13,-9.88421e-01
8.22643e+02,2.08200e+03,3.08500e+03,-1.00300e+03,3.22211e-13,-9.80876e-01,3.26488e-13,-9.80876e-01,2.39528e-13,-9.80876e-01
8.22892e+02,2.14700e+03,2.86600e+03,-7.19000e+02,4.03235e-13,-9.73331e-01,2.94896e-13,-9.73331e-01,1.09441e-13,-9.73331e-01
8.23140e+02,2.15700e+03,3.38600e+03,-1.22900e+03,3.30085e-13,-9.65785e-01,2.78140e-13,-9.65785e-01,7.17188e-14,-9.65785e-01
8.23389e+02,2.23300e+03,4.27800e+03,-2.04500e+03,2.14660e-13,-9.58240e-01,2.25556e-13,-9.58240e-01,5.14219e-14,-9.58240e-01
8.23638e+02,2.83400e+03,4.53800e+03,-1.70400e+03,2.22030e-13,-9.50695e-01,3.00188e-13,-9.50695e-01,7.84396e-14,-9.50695e-01
8.23887e+02,3.47900e+03,3.73800e+03,-2.59000e+02,1.33438e-13,-9.43150e-01,1.82831e-13,-9.43150e-01,1.49988e-13,-9.43150e-01
8.24135e+02,3.94800e+03,2.88800e+03,1.06000e+03,1.48176e-13,-9.35605e-01,2.31092e-13,-9.35605e-01,3.47517e-13,-9.35605e-01
8.24384e+02,3.51200e+03,2.31100e+03,1.20100e+03,4.72711e-13,-9.28059e-01,4.75967e-13,-9.28059e-01,4.12938e-13,-9.28059e-01
8.24633e+02,2.91700e+03,2.02100e+03,8.96000e+02,6.55943e-13,-9.20514e-01,5.69233e-13,-9.20514e-01,1.89807e-13,-9.20514e-01
8.24881e+02,2.47000e+03,1.88100e+03,5.89000e+02,8.12732e-13,-9.12969e-01,5.85619e-13,-9.12969e-01,2.48221e-13,-9.12969e-01
8.25130e+02,2.52700e+03,1.71700e+03,8.10000e+02,8.05215e-13,-9.05424e-01,4.20721e-13,-9.05424e-01,5.58989e-13,-9.05424e-01
8.25379e+02,2.79500e+03,1.66800e+03,1.12700e+03,8.50972e-13,-8.97879e-01,4.77986e-13,-8.97879e-01,4.15790e-13,-8.97879e-01
8.25627e+02,2.90700e+03,2.04900e+03,8.58000e+02,5.74185e-13,-8.90333e-01,4.12271e-13,-8.90333e-01,1.69125e-13,-8.90333e-01
8.25876e+02,2.49200e+03,2.71500e+03,-2.23000e+02,3.93426e-13,-8.82788e-01,3.17810e-13,-8.82788e-01,9.24988e-14,-8.82788e-01
8.26125e+02,2.16400e+03,3.41100e+03,-1.24700e+03,2.79601e-13,-8.75243e-01,7.38201e-14,-8.75243e-01,3.46304e-13,-8.75243e-01
8.26373e+02,1.80200e+03,3.38500e+03,-1.58300e+03,3.94625e-13,-8.67698e-01,1.39840e-13,-8.67698e-01,4.51176e-13,-8.67698e-01
8.26622e+02,1.74900e+03,2.66000e+03,-9.11000e+02,4.23957e-13,-8.60153e-01,2.62876e-13,-8.60153e-01,4.61624e-13,-8.60153e-01
8.26870e+02,1.70000e+03,2.19600e+03,-4.96000e+02,2.56160e-13,-8.52607e-01,2.65997e-13,-8.52607e-01,4.78365e-13,-8.52607e-01
8.27119e+02,1.65300e+03,2.13000e+03,-4.77000e+02,3.46300e-13,-8.45062e-01,3.77692e-13,-8.45062e-01,7.20925e-13,-8.45062e-01
8.27368e+02,1.70800e+03,2.28300e+03,-5.75000e+02,6.01911e-13,-8.37517e-01,3.10711e-13,-8.37517e-01,8.35812e-13,-8.37517e-01
8.27616e+02,2.02500e+03,2.34500e+03,-3.20000e+02,6.46771e-13,-8.29972e-01,3.97764e-13,-8.29972e-01,9.66855e-13,-8.29972e-01
8.27865e+02,2.35200e+03,2.18600e+03,1.66000e+02,9.42558e-13,-8.22427e-01,2.26122e-13,-8.22427e-01,1.11641e-12,-8.22427e-01
8.28113e+02,2.53500e+03,1.76800e+03,7.67000e+02,1.02080e-12,-8.14881e-01,2.46371e-14,-8.14881e-01,1.00499e-12,-8.14881e-01
8.28362e+02,2.34200e+03,1.49800e+03,8.44000e+02,9.69051e-13,-8.07336e-01,1.77685e-13,-8.07336e-01,8.77429e-13,-8.07336e-01
8.28610e+02,2.00100e+03,1.49300e+03,5.08000e+02,7.96605e-13,-7.99791e-01,2.88554e-13,-7.99791e-01,9.63558e-13,-7.99791e-01
8.28859e+02,1.61200e+03,1.48800e+03,1.24000e+02,6.97673e-13,-7.92246e-01,3.88423e-13,-7.92246e-01,1.06208e-12,-7.92246e-01
8.29108e+02,1.42100e+03,1.34100e+03,8.00000e+01,6.63266e-13,-7.84701e-01,4.78428e-13,-7.84701e-01,1.13997e-12,-7.84701e-01
8.29356e+02,1.49400e+03,1.26200e+03,2.32000e+02,6.05918e-13,-7.77155e-01,4.19179e-13,-7.77155e-01,1.00335e-12,-7.77155e-01
8.29605e+02,1.52300e+03,1.33100e+03,1.92000e+02,3.48396e-13,-7.69610e-01,4.03697e-13,-7.69610e-01,5.94372e-13,-7.69610e-01
8.29853e+02,1.55400e+03,1.56200e+03,-8.00000e+00,5.60549e-13,-7.62065e-01,3.50669e-13,-7.62065e-01,3.52048e-13,-7.62065e-01
8.30101e+02,1.42400e+03,1.93700e+03,-5.13000e+02,7.10885e-13,-7.54520e-01,4.72210e-14,-7.54520e-01,7.58105e-13,-7.54520e-01
8.30350e+02,1.33600e+03,1.99700e+03,-6.61000e+02,1.04136e-12,-7.46975e-01,2.28524e-13,-7.46975e-01,1.23914e-12,-7.46975e-01
8.30598e+02,1.32800e+03,1.78200e+03,-4.54000e+02,9.77240e-13,-7.39429e-01,4.53271e-13,-7.39429e-01,1.29161e-12,-7.39429e-01
8.30847e+02,1.25400e+03,1.44800e+03,-1.94000e+02,5.12853e-13,-7.31884e-01,4.27198e-13,-7.31884e-01,5.89655e-13,-7.31884e-01
8.31095e+02,1.16000e+03,1.16600e+03,-6.00000e+00,2.32810e-13,-7.24339e-01,2.69428e-13,-7.24339e-01,4.87782e-13,-7.24339e-01
8.31344e+02,1.08200e+03,1.09900e+03,-1.70000e+01,6.10678e-13,-7.16794e-01,4.51475e-13,-7.16794e-01,9.91216e-13,-7.16794e-01
8.31592e+02,1.11400e+03,1.11800e+03,-4.00000e+00,9.83656e-13,-7.09249e-01,7.14921e-13,-7.09249e-01,1.20298e-12,-7.09249e-01
8.31841e+02,1.25200e+03,1.16900e+03,8.30000e+01,1.05693e-12,-7.01703e-01,1.09280e-12,-7.01703e-01,1.25446e-12,-7.01703e-01
8.32089e+02,1.46900e+03,1.12300e+03,3.46000e+02,9.44813e-13,-6.94158e-01,1.10553e-12,-6.94158e-01,8.00788e-13,-6.94158e-01
8.32337e+02,1.39300e+03,1.06600e+03,3.27000e+02,8.37597e-13,-6.86613e-01,8.02066e-13,-6.86613e-01,5.16524e-13,-6.86613e-01
8.32586e+02,1.31400e+03,1.07500e+03,2.39000e+02,8.88601e-13,-6.79068e-01,4.64257e-13,-6.79068e-01,4.33339e-13,-6.79068e-01
8.32834e+02,1.08000e+03,1.16900e+03,-8.90000e+01,9.96958e-13,-6.71523e-01,8.09150e-13,-6.71523e-01,3.99284e-13,-6.71523e-01
8.33083e+02,9.74000e+02,1.13500e+03,-1.61000e+02,9.18979e-13,-6.63977e-01,1.19065e-12,-6.63977e-01,2.80182e-13,-6.63977e-01
8.33331e+02,9.20000e+02,1.04500e+03,-1.25000e+02,8.06293e-13,-6.56432e-01,1.13496e-12,-6.56432e-01,5.40813e-13,-6.56432e-01
8.33579e+02,9.02000e+02,9.98000e+02,-9.60000e+01,8.39872e-13,-6.48887e-01,1.00003e-12,-6.48887e-01,6.97034e-13,-6.48887e-01
8.33828e+02,8.71000e+02,1.03900e+03,-1.68000e+02,7.54364e-13,-6.41342e-01,7.13125e-13,-6.41342e-01,7.19155e-13,-6.41342e-01
8.34076e+02,8.45000e+02,1.07200e+03,-2.27000e+02,1.04146e-12,-6.33797e-01,4.37258e-13,-6.33797e-01,7.38558e-13,-6.33797e-01
8.34324e+02,8.72000e+02,1.09100e+03,-2.19000e+02,1.17267e-12,-6.26251e-01,4.65659e-13,-6.26251e-01,8.72040e-13,-6.26251e-01
8.34573e+02,9.00000e+02,1.04700e+03,-1.47000e+02,1.53542e-12,-6.18706e-01,5.44878e-13,-6.18706e-01,1.47836e-12,-6.18706e-01
8.34821e+02,9.42000e+02,9.32000e+02,1.00000e+01,1.49853e-12,-6.11161e-01,5.72703e-13,-6.11161e-01,1.84393e-12,-6.11161e-01
8.35069e+02,9.48000e+02,8.56000e+02,9.20000e+01,1.35405e-12,-6.03616e-01,4.64278e-13,-6.03616e-01,1.77679e-12,-6.03616e-01
8.35318e+02,9.19000e+02,8.12000e+02,1.07000e+02,1.28656e-12,-5.96071e-01,4.62636e-13,-5.96071e-01,1.73227e-12,-5.96071e-01
8.35566e+02,8.41000e+02,7.89000e+02,5.20000e+01,1.28460e-12,-5.88525e-01,4.30387e-13,-5.88525e-01,1.71451e-12,-5.88525e-01
8.35814e+02,8.28000e+02,7.98000e+02,3.00000e+01,9.67601e-13,-5.80980e-01,5.90110e-13,-5.80980e-01,1.54053e-12,-5.80980e-01
8.36062e+02,8.49000e+02,7.81000e+02,6.80000e+01,6.29184e-14,-5.73435e-01,6.01136e-13,-5.73435e-01,6.26158e-13,-5.73435e-01
8.36311e+02,8.76000e+02,7.50000e+02,1.26000e+02,8.50308e-13,-5.65890e-01,2.81471e-13,-5.65890e-01,6.42153e-13,-5.65890e-01
8.36559e+02,9.05000e+02,7.84000e+02,1.21000e+02,7.24573e-13,-5.58345e-01,4.51660e-13,-5.58345e-01,5.74368e-13,-5.58345e-01
8.36807e+02,8.26000e+02,7.84000e+02,4.20000e+01,1.46019e-13,-5.50799e-01,9.89204e-13,-5.50799e-01,8.66128e-13,-5.50799e-01
8.37055e+02,7.66000e+02,8.18000e+02,-5.20000e+01,1.91015e-13,-5.43254e-01,9.17932e-13,-5.43254e-01,8.31396e-13,-5.43254e-01
8.37304e+02,7.35000e+02,7.89000e+02,-5.40000e+01,1.63633e-12,-5.35709e-01,2.02431e-12,-5.35709e-01,3.63028e-12,-5.35709e-01
8.37552e+02,7.16000e+02,7.72000e+02,-5.60000e+01,4.34951e-12,-5.28164e-01,3.31467e-12,-5.28164e-01,7.66141e-12,-5.28164e-01
8.37800e+02,7.18000e+02,7.39000e+02,-2.10000e+01,7.39409e-12,-5.20619e-01,7.02174e-12,-5.20619e-01,1.43669e-11,-5.20619e-01
8.38048e+02,7.15000e+02,7.32000e+02,-1.70000e+01,9.51262e-12,-5.13073e-01,1.03298e-11,-5.13073e-01,1.97167e-11,-5.13073e-01
8.38296e+02,6.95000e+02,7.49000e+02,-5.40000e+01,9.51846e-12,-5.05528e-01,1.06645e-11,-5.05528e-01,2.00975e-11,-5.05528e-01
8.38545e+02,7.26000e+02,7.72000e+02,-4.60000e+01,7.47116e-12,-4.97983e-01,8.15255e-12,-4.97983e-01,1.56025e-11,-4.97983e-01
8.38793e+02,7.32000e+02,7.70000e+02,-3.80000e+01,4.88970e-12,-4.90438e-01,5.99730e-12,-4.90438e-01,1.08739e-11,-4.90438e-01
8.39041e+02,7.61000e+02,7.31000e+02,3.00000e+01,2.18441e-12,-4.82893e-01,3.25692e-12,-4.82893e-01,5.43046e-12,-4.82893e-01
8.39289e+02,7.42000e+02,7.03000e+02,3.90000e+01,5.22225e-13,-4.75347e-01,9.76382e-13,-4.75347e-01,1.48114e-12,-4.75347e-01
8.39537e+02,7.39000e+02,7.09000e+02,3.00000e+01,4.94425e-13,-4.67802e-01,9.21089e-13,-4.67802e-01,1.37383e-12,-4.67802e-01
8.39785e+02,7.09000e+02,6.92000e+02,1.70000e+01,3.55659e-13,-4.60257e-01,8.47278e-13,-4.60257e-01,1.14733e-12,-4.60257e-01
8.40033e+02,7.17000e+02,7.02000e+02,1.50000e+01,1.92766e-13,-4.52712e-01,5.03199e-13,-4.52712e-01,6.86834e-13,-4.52712e-01
8.40281e+02,7.11000e+02,6.84000e+02,2.70000e+01,2.59203e-13,-4.45167e-01,1.50717e-12,-4.45167e-01,1.73288e-12,-4.45167e-01
8.40530e+02,7.11000e+02,6.92000e+02,1.90000e+01,3.46655e-13,-4.37621e-01,1.45934e-12,-4.37621e-01,1.77838e-12,-4.37621e-01
8.40778e+02,7.02000e+02,7.06000e+02,-4.00000e+00,6.02187e-13,-4.30076e-01,9.38777e-13,-4.30076e-01,1.51423e-12,-4.30076e-01
8.41026e+02,6.94000e+02,7.04000e+02,-1.00000e+01,4.27732e-13,-4.22531e-01,7.18730e-13,-4.22531e-01,3.65494e-13,-4.22531e-01
8.41274e+02,6.87000e+02,7.09000e+02,-2.20000e+01,3.80247e-13,-4.14986e-01,1.31824e-12,-4.14986e-01,1.10259e-12,-4.14986e-01
8.41522e+02,6.91000e+02,7.10000e+02,-1.90000e+01,7.06935e-13,-4.07441e-01,1.95419e-12,-4.07441e-01,1.30767e-12,-4.07441e-01
8.41770e+02,6.73000e+02,6.88000e+02,-1.50000e+01,1.40646e-12,-3.99895e-01,2.19758e-12,-3.99895e-01,1.24209e-12,-3.99895e-01
8.42018e+02,6.80000e+02,6.81000e+02,-1.00000e+00,1.23400e-12,-3.92350e-01,1.94862e-12,-3.92350e-01,7.16172e-13,-3.92350e-01
8.42266e+02,6.74000e+02,6.79000e+02,-5.00000e+00,3.63254e-13,-3.84805e-01,1.76574e-12,-3.84805e-01,1.42327e-12,-3.84805e-01
8.42514e+02,6.74000e+02,6.82000e+02,-8.00000e+00,3.79712e-13,-3.77260e-01,1.36026e-12,-3.77260e-01,1.49176e-12,-3.77260e-01
8.42762e+02,6.81000e+02,6.62000e+02,1.90000e+01,8.58861e-13,-3.69715e-01,6.96036e-13,-3.69715e-01,1.54713e-12,-3.69715e-01
8.43010e+02,7.08000e+02,6.72000e+02,3.60000e+01,6.78352e-13,-3.62169e-01,1.13853e-12,-3.62169e-01,1.27446e-12,-3.62169e-01
8.43258e+02,6.76000e+02,6.68000e+02,8.00000e+00,7.74406e-13,-3.54624e-01,6.59331e-13,-3.54624e-01,3.72953e-13,-3.54624e-01
8.43506e+02,6.98000e+02,6.62000e+02,3.60000e+01,2.16525e-12,-3.47079e-01,1.80320e-12,-3.47079e-01,3.81391e-13,-3.47079e-01
8.43754e+02,6.88000e+02,6.66000e+02,2.20000e+01,5.34757e-12,-3.39534e-01,4.63348e-12,-3.39534e-01,7.25316e-13,-3.39534e-01
8.44002e+02,6.72000e+02,6.72000e+02,0.00000e+00,9.57891e-12,-3.31989e-01,8.52104e-12,-3.31989e-01,1.06718e-12,-3.31989e-01
8.44250e+02,6.72000e+02,6.74000e+02,-2.00000e+00,1.31076e-11,-3.24444e-01,1.20516e-11,-3.24444e-01,1.13003e-12,-3.24444e-01
8.44498e+02,6.79000e+02,6.69000e+02,1.00000e+01,1.30324e-11,-3.16898e-01,1.21671e-11,-3.16898e-01,8.94467e-13,-3.16898e-01
8.44746e+02,6.61000e+02,6.74000e+02,-1.30000e+01,8.77592e-12,-3.09353e-01,8.45444e-12,-3.09353e-01,8.44337e-13,-3.09353e-01
8.44994e+02,6.76000e+02,6.69000e+02,7.00000e+00,2.94207e-12,-3.01808e-01,4.68815e-12,-3.01808e-01,1.87987e-12,-3.01808e-01
8.45242e+02,6.84000e+02,6.76000e+02,8.00000e+00,1.84760e-12,-2.94263e-01,1.79335e-12,-2.94263e-01,1.96590e-12,-2.94263e-01
8.45490e+02,6.69000e+02,6.84000e+02,-1.50000e+01,1.98676e-12,-2.86718e-01,4.35502e-13,-2.86718e-01,1.55132e-12,-2.86718e-01
8.45738e+02,6.64000e+02,6.70000e+02,-6.00000e+00,1.51886e-12,-2.79172e-01,1.38473e-12,-2.79172e-01,2.76811e-12,-2.79172e-01
8.45985e+02,6.88000e+02,6.67000e+02,2.10000e+01,2.05364e-12,-2.71627e-01,1.70107e-12,-2.71627e-01,3.65152e-12,-2.71627e-01
8.46233e+02,6.67000e+02,6.61000e+02,6.00000e+00,2.09728e-12,-2.64082e-01,1.09907e-12,-2.64082e-01,2.89121e-12,-2.64082e-01
8.46481e+02,6.60000e+02,6.71000e+02,-1.10000e+01,1.37204e-12,-2.56537e-01,1.07223e-12,-2.56537e-01,2.04101e-12,-2.56537e-01
8.46729e+02,6.69000e+02,6.63000e+02,6.00000e+00,3.41384e-13,-2.48992e-01,1.86398e-12,-2.48992e-01,2.19907e-12,-2.48992e-01
8.46977e+02,6.64000e+02,6.84000e+02,-2.00000e+01,4.09107e-13,-2.41446e-01,2.50022e-12,-2.41446e-01,2.17189e-12,-2.41446e-01
8.47225e+02,6.65000e+02,6.68000e+02,-3.00000e+00,1.75810e-12,-2.33901e-01,2.51315e-12,-2.33901e-01,1.49913e-12,-2.33901e-01
8.47473e+02,6.74000e+02,6.65000e+02,9.00000e+00,3.20620e-12,-2.26356e-01,1.79854e-12,-2.26356e-01,2.00793e-12,-2.26356e-01
8.47720e+02,6.71000e+02,6.64000e+02,7.00000e+00,3.12305e-12,-2.18811e-01,9.45068e-13,-2.18811e-01,2.41066e-12,-2.18811e-01
8.47968e+02,6.64000e+02,6.53000e+02,1.10000e+01,1.27948e-12,-2.11266e-01,1.66617e-12,-2.11266e-01,1.10343e-12,-2.11266e-01
8.48216e+02,6.71000e+02,6.67000e+02,4.00000e+00,5.81186e-12,-2.03720e-01,3.66967e-12,-2.03720e-01,8.46030e-12,-2.03720e-01
8.48464e+02,6.60000e+02,6.66000e+02,-6.00000e+00,1.52207e-11,-1.96175e-01,1.28095e-11,-1.96175e-01,2.73272e-11,-1.96175e-01
8.48712e+02,6.62000e+02,6.66000e+02,-4.00000e+00,2.17279e-11,-1.88630e-01,2.20316e-11,-1.88630e-01,4.31567e-11,-1.88630e-01
8.48960e+02,6.79000e+02,6.73000e+02,6.00000e+00,1.71361e-11,-1.81085e-01,1.78825e-11,-1.81085e-01,3.45645e-11,-1.81085e-01
8.49207e+02,6.85000e+02,6.74000e+02,1.10000e+01,8.90165e-12,-1.73540e-01,8.62135e-12,-1.73540e-01,1.73274e-11,-1.73540e-01
8.49455e+02,6.56000e+02,6.69000e+02,-1.30000e+01,4.19745e-12,-1.65994e-01,1.80378e-12,-1.65994e-01,5.96932e-12,-1.65994e-01
8.49703e+02,6.56000e+02,6.72000e+02,-1.60000e+01,2.65505e-12,-1.58449e-01,1.71305e-12,-1.58449e-01,1.71822e-12,-1.58449e-01
8.49951e+02,6.72000e+02,6.66000e+02,6.00000e+00,2.20245e-12,-1.50904e-01,8.65820e-13,-1.50904e-01,1.41210e-12,-1.50904e-01
8.50198e+02,6.75000e+02,6.71000e+02,4.00000e+00,8.10002e-13,-1.43359e-01,7.80048e-13,-1.43359e-01,1.54400e-12,-1.43359e-01
8.50446e+02,6.54000e+02,6.61000e+02,-7.00000e+00,2.21360e-12,-1.35814e-01,7.90129e-13,-1.35814e-01,2.62928e-12,-1.35814e-01
8.50694e+02,6.61000e+02,6.58000e+02,3.00000e+00,2.64491e-12,-1.28268e-01,5.45232e-13,-1.28268e-01,2.30496e-12,-1.28268e-01
8.50941e+02,6.69000e+02,6.82000e+02,-1.30000e+01,3.59421e-12,-1.20723e-01,1.63475e-12,-1.20723e-01,2.57722e-12,-1.20723e-01
8.51189e+02,6.74000e+02,6.69000e+02,5.00000e+00,4.00419e-12,-1.13178e-01,3.12083e-12,-1.13178e-01,1.63638e-12,-1.13178e-01
8.51437e+02,6.59000e+02,6.59000e+02,0.00000e+00,4.62152e-12,-1.05633e-01,3.74015e-12,-1.05633e-01,8.95764e-13,-1.05633e-01
8.51685e+02,6.55000e+02,6.65000e+02,-1.00000e+01,3.98757e-12,-9.80876e-02,1.88407e-12,-9.80876e-02,2.11904e-12,-9.80876e-02
8.51932e+02,6.62000e+02,6.60000e+02,2.00000e+00,3.73804e-12,-9.05424e-02,1.86771e-12,-9.05424e-02,2.82183e-12,-9.05424e-02
8.52180e+02,6.66000e+02,6.68000e+02,-2.00000e+00,2.37063e-12,-8.29972e-02,2.25935e-12,-8.29972e-02,3.53922e-12,-8.29972e-02
8.52428e+02,6.60000e+02,6.71000e+02,-1.10000e+01,1.08317e-12,-7.54520e-02,2.92969e-12,-7.54520e-02,3.76557e-12,-7.54520e-02
8.52675e+02,6.59000e+02,6.64000e+02,-5.00000e+00,1.34877e-12,-6.79068e-02,2.04328e-12,-6.79068e-02,3.26425e-12,-6.79068e-02
8.52923e+02,6.67000e+02,6.52000e+02,1.50000e+01,1.33187e-12,-6.03616e-02,1.68226e-12,-6.03616e-02,2.83200e-12,-6.03616e-02
8.53170e+02,6.72000e+02,6.71000e+02,1.00000e+00,3.01007e-12,-5.28164e-02,2.34030e-12,-5.28164e-02,2.77977e-12,-5.28164e-02
8.53418e+02,6.61000e+02,6.54000e+02,7.00000e+00,3.84881e-12,-4.52712e-02,3.97522e-12,-4.52712e-02,2.35062e-12,-4.52712e-02
8.53666e+02,6.62000e+02,6.61000e+02,1.00000e+00,3.56917e-12,-3.77260e-02,2.92265e-12,-3.77260e-02,1.53618e-12,-3.77260e-02
8.53913e+02,6.78000e+02,6.64000e+02,1.40000e+01,5.12178e-12,-3.01808e-02,4.06663e-12,-3.01808e-02,2.50165e-12,-3.01808e-02
8.54161e+02,6.61000e+02,6.81000e+02,-2.00000e+01,1.49424e-11,-2.26356e-02,1.21114e-11,-2.26356e-02,3.08118e-12,-2.26356e-02
8.54409e+02,6.64000e+02,6.70000e+02,-6.00000e+00,4.10979e-11,-1.50904e-02,3.87236e-11,-1.50904e-02,3.04567e-12,-1.50904e-02
8.54656e+02,6.57000e+02,6.65000e+02,-8.00000e+00,9.49243e-11,-7.54520e-03,9.30316e-11,-7.54520e-03,2.29171e-12,-7.54520e-03
