7.67698e+02,6.71000e+02,6.62000e+02,9.00000e+00,1.56041e-10,0.00000e+00,1.56673e-10,0.00000e+00,6.32112e-13,0.00000e+00
7.67949e+02,6.61000e+02,6.67000e+02,-6.00000e+00,5.99699e-11,7.54520e-03,6.04576e-11,7.54520e-03,6.98000e-13,7.54520e-03
7.68199e+02,6.85000e+02,6.83000e+02,2.00000e+00,2.56852e-11,1.50904e-02,2.59628e-11,1.50904e-02,6.38270e-13,1.50904e-02
7.68450e+02,6.79000e+02,6.86000e+02,-7.00000e+00,7.99652e-12,2.26356e-02,7.99975e-12,2.26356e-02,2.78019e-13,2.26356e-02
7.68701e+02,6.91000e+02,6.89000e+02,2.00000e+00,6.58830e-12,3.01808e-02,6.77356e-12,3.01808e-02,3.39156e-13,3.01808e-02
7.68951e+02,6.80000e+02,6.74000e+02,6.00000e+00,5.78742e-12,3.77260e-02,5.26725e-12,3.77260e-02,7.61558e-13,3.77260e-02
7.69202e+02,6.96000e+02,6.79000e+02,1.70000e+01,6.02990e-12,4.52712e-02,4.50872e-12,4.52712e-02,1.52484e-12,4.52712e-02
7.69453e+02,6.90000e+02,6.90000e+02,0.00000e+00,3.30767e-12,5.28164e-02,1.41457e-12,5.28164e-02,2.10217e-12,5.28164e-02
7.69703e+02,6.72000e+02,6.93000e+02,-2.10000e+01,2.16282e-12,6.03616e-02,1.91791e-13,6.03616e-02,2.31792e-12,6.03616e-02
7.69954e+02,6.96000e+02,7.16000e+02,-2.00000e+01,1.03146e-12,6.79068e-02,7.93455e-13,6.79068e-02,1.63706e-12,6.79068e-02
7.70205e+02,7.01000e+02,6.97000e+02,4.00000e+00,3.62619e-13,7.54520e-02,3.28642e-13,7.54520e-02,6.85789e-13,7.54520e-02
7.70455e+02,7.13000e+02,7.02000e+02,1.10000e+01,7.56274e-13,8.29972e-02,1.06485e-12,8.29972e-02,1.13735e-12,8.29972e-02
7.70706e+02,7.26000e+02,7.06000e+02,2.00000e+01,6.42898e-13,9.05424e-02,7.12299e-13,9.05424e-02,1.25647e-12,9.05424e-02
7.70957e+02,7.36000e+02,6.93000e+02,4.30000e+01,2.57734e-13,9.80876e-02,7.45639e-13,9.80876e-02,5.46914e-13,9.80876e-02
7.71207e+02,7.26000e+02,7.12000e+02,1.40000e+01,1.52684e-12,1.05633e-01,1.13150e-12,1.05633e-01,4.07897e-13,1.05633e-01
7.71458e+02,7.26000e+02,7.05000e+02,2.10000e+01,2.00501e-12,1.13178e-01,4.80814e-13,1.13178e-01,1.60386e-12,1.13178e-01
7.71708e+02,7.24000e+02,6.91000e+02,3.30000e+01,1.50789e-12,1.20723e-01,7.43380e-13,1.20723e-01,2.18439e-12,1.20723e-01
7.71959e+02,7.29000e+02,7.17000e+02,1.20000e+01,7.76876e-13,1.28268e-01,9.55679e-13,1.28268e-01,1.59132e-12,1.28268e-01
7.72210e+02,7.47000e+02,7.78000e+02,-3.10000e+01,6.91138e-13,1.35814e-01,7.92619e-13,1.35814e-01,9.83892e-13,1.35814e-01
7.72460e+02,7.38000e+02,7.78000e+02,-4.00000e+01,3.42100e-13,1.43359e-01,2.22736e-12,1.43359e-01,2.22039e-12,1.43359e-01
7.72711e+02,7.17000e+02,7.69000e+02,-5.20000e+01,9.54893e-13,1.50904e-01,3.45884e-12,1.50904e-01,4.30024e-12,1.50904e-01
7.72961e+02,7.10000e+02,7.53000e+02,-4.30000e+01,1.63959e-12,1.58449e-01,4.32491e-12,1.58449e-01,5.95562e-12,1.58449e-01
7.73212e+02,7.26000e+02,7.32000e+02,-6.00000e+00,1.87407e-12,1.65994e-01,3.92421e-12,1.65994e-01,5.79824e-12,1.65994e-01
7.73462e+02,7.16000e+02,7.32000e+02,-1.60000e+01,1.57665e-12,1.73540e-01,3.33808e-12,1.73540e-01,4.85920e-12,1.73540e-01
7.73713e+02,7.48000e+02,7.78000e+02,-3.00000e+01,3.43740e-12,1.81085e-01,3.95407e-12,1.81085e-01,7.31776e-12,1.81085e-01
7.73963e+02,7.77000e+02,7.90000e+02,-1.30000e+01,4.81040e-12,1.88630e-01,4.32676e-12,1.88630e-01,8.96071e-12,1.88630e-01
7.74214e+02,8.12000e+02,8.02000e+02,1.00000e+01,3.57390e-12,1.96175e-01,2.13753e-12,1.96175e-01,5.70890e-12,1.96175e-01
7.74465e+02,8.40000e+02,7.93000e+02,4.70000e+01,1.60782e-12,2.03720e-01,5.37532e-13,2.03720e-01,1.83734e-12,2.03720e-01
7.74715e+02,8.25000e+02,7.78000e+02,4.70000e+01,1.51959e-12,2.11266e-01,2.10045e-12,2.11266e-01,3.59833e-12,2.11266e-01
7.74965e+02,7.99000e+02,7.58000e+02,4.10000e+01,2.04660e-12,2.18811e-01,1.91310e-12,2.18811e-01,3.95426e-12,2.18811e-01
7.75216e+02,7.99000e+02,7.63000e+02,3.60000e+01,1.31246e-12,2.26356e-01,1.80713e-12,2.26356e-01,3.05326e-12,2.26356e-01
7.75466e+02,8.26000e+02,8.16000e+02,1.00000e+01,1.41561e-12,2.33901e-01,1.38897e-12,2.33901e-01,2.00375e-12,2.33901e-01
7.75717e+02,8.17000e+02,8.59000e+02,-4.20000e+01,1.54816e-12,2.41446e-01,1.70743e-12,2.41446e-01,5.68447e-13,2.41446e-01
7.75967e+02,8.27000e+02,8.92000e+02,-6.50000e+01,1.61391e-12,2.48992e-01,1.61756e-12,2.48992e-01,4.67816e-13,2.48992e-01
7.76218e+02,8.36000e+02,9.42000e+02,-1.06000e+02,1.56357e-12,2.56537e-01,1.53721e-12,2.56537e-01,5.81673e-13,2.56537e-01
7.76468e+02,8.61000e+02,9.02000e+02,-4.10000e+01,9.16629e-13,2.64082e-01,7.62639e-13,2.64082e-01,1.57606e-13,2.64082e-01
7.76719e+02,8.13000e+02,8.45000e+02,-3.20000e+01,3.98015e-13,2.71627e-01,5.38519e-13,2.71627e-01,2.57248e-13,2.71627e-01
7.76969e+02,8.14000e+02,8.33000e+02,-1.90000e+01,6.98139e-13,2.79172e-01,1.10539e-12,2.79172e-01,5.51496e-13,2.79172e-01
7.77219e+02,8.79000e+02,8.37000e+02,4.20000e+01,5.47726e-13,2.86718e-01,1.65584e-12,2.86718e-01,1.12059e-12,2.86718e-01
7.77470e+02,9.63000e+02,8.37000e+02,1.26000e+02,1.35438e-12,2.94263e-01,1.18280e-12,2.94263e-01,1.20950e-12,2.94263e-01
7.77720e+02,1.02500e+03,8.78000e+02,1.47000e+02,3.10411e-12,3.01808e-01,2.30101e-12,3.01808e-01,1.10908e-12,3.01808e-01
7.77971e+02,1.04300e+03,9.00000e+02,1.43000e+02,5.85272e-12,3.09353e-01,5.90908e-12,3.09353e-01,9.42836e-13,3.09353e-01
7.78221e+02,9.76000e+02,9.31000e+02,4.50000e+01,7.59403e-12,3.16898e-01,7.95087e-12,3.16898e-01,8.24978e-13,3.16898e-01
7.78471e+02,9.16000e+02,8.83000e+02,3.30000e+01,7.55911e-12,3.24444e-01,7.79288e-12,3.24444e-01,7.81645e-13,3.24444e-01
7.78722e+02,8.75000e+02,8.36000e+02,3.90000e+01,5.12325e-12,3.31989e-01,5.19089e-12,3.31989e-01,1.16152e-12,3.31989e-01
7.78972e+02,8.61000e+02,8.33000e+02,2.80000e+01,2.48315e-12,3.39534e-01,1.49784e-12,3.39534e-01,1.06206e-12,3.39534e-01
7.79222e+02,8.83000e+02,9.05000e+02,-2.20000e+01,2.10122e-12,3.47079e-01,1.44363e-12,3.47079e-01,1.09859e-12,3.47079e-01
7.79473e+02,9.22000e+02,1.01400e+03,-9.20000e+01,1.69206e-12,3.54624e-01,1.00291e-12,3.54624e-01,6.89310e-13,3.54624e-01
7.79723e+02,9.30000e+02,1.11500e+03,-1.85000e+02,2.35808e-12,3.62169e-01,2.01663e-12,3.62169e-01,5.75964e-13,3.62169e-01
7.79973e+02,9.61000e+02,1.10700e+03,-1.46000e+02,1.78771e-12,3.69715e-01,1.28492e-12,3.69715e-01,9.27293e-13,3.69715e-01
7.80224e+02,9.76000e+02,1.01400e+03,-3.80000e+01,1.65561e-12,3.77260e-01,1.12553e-12,3.77260e-01,7.79728e-13,3.77260e-01
7.80474e+02,9.60000e+02,9.44000e+02,1.60000e+01,8.34233e-13,3.84805e-01,8.40484e-13,3.84805e-01,4.82371e-13,3.84805e-01
7.80724e+02,9.37000e+02,9.12000e+02,2.50000e+01,8.02585e-13,3.92350e-01,6.21523e-13,3.92350e-01,3.31307e-13,3.92350e-01
7.80974e+02,9.69000e+02,9.27000e+02,4.20000e+01,8.98254e-13,3.99895e-01,4.39526e-13,3.99895e-01,4.95131e-13,3.99895e-01
7.81225e+02,1.08100e+03,9.81000e+02,1.00000e+02,9.04799e-13,4.07441e-01,4.83825e-13,4.07441e-01,4.72691e-13,4.07441e-01
7.81475e+02,1.15200e+03,1.03100e+03,1.21000e+02,6.72851e-13,4.14986e-01,3.26221e-13,4.14986e-01,3.64028e-13,4.14986e-01
7.81725e+02,1.13000e+03,1.07500e+03,5.50000e+01,8.86079e-13,4.22531e-01,3.72346e-13,4.22531e-01,7.93616e-13,4.22531e-01
7.81975e+02,1.09500e+03,1.04300e+03,5.20000e+01,7.93058e-13,4.30076e-01,3.18143e-13,4.30076e-01,6.25611e-13,4.30076e-01
7.82226e+02,1.03400e+03,1.02900e+03,5.00000e+00,5.59026e-13,4.37621e-01,5.03091e-13,4.37621e-01,9.94955e-14,4.37621e-01
7.82476e+02,9.24000e+02,9.69000e+02,-4.50000e+01,4.44210e-13,4.45167e-01,8.42450e-13,4.45167e-01,4.18195e-13,4.45167e-01
7.82726e+02,9.00000e+02,9.39000e+02,-3.90000e+01,3.27131e-13,4.52712e-01,9.40810e-13,4.52712e-01,7.02411e-13,4.52712e-01
7.82976e+02,9.30000e+02,9.92000e+02,-6.20000e+01,2.14090e-13,4.60257e-01,6.27830e-13,4.60257e-01,7.12007e-13,4.60257e-01
7.83226e+02,9.66000e+02,1.04100e+03,-7.50000e+01,2.09939e-13,4.67802e-01,8.65339e-13,4.67802e-01,1.03994e-12,4.67802e-01
7.83477e+02,1.02600e+03,1.08500e+03,-5.90000e+01,2.61550e-13,4.75347e-01,1.42371e-12,4.75347e-01,1.66240e-12,4.75347e-01
7.83727e+02,1.08800e+03,1.16900e+03,-8.10000e+01,4.66348e-13,4.82893e-01,1.71211e-12,4.82893e-01,2.17802e-12,4.82893e-01
7.83977e+02,1.06700e+03,1.08300e+03,-1.60000e+01,8.44740e-13,4.90438e-01,1.98745e-12,4.90438e-01,2.80704e-12,4.90438e-01
7.84227e+02,1.03000e+03,9.58000e+02,7.20000e+01,9.39825e-13,4.97983e-01,1.41848e-12,4.97983e-01,2.35198e-12,4.97983e-01
7.84477e+02,9.63000e+02,9.17000e+02,4.60000e+01,1.34149e-12,5.05528e-01,1.32361e-12,5.05528e-01,2.64347e-12,5.05528e-01
7.84727e+02,9.50000e+02,9.20000e+02,3.00000e+01,1.99366e-12,5.13073e-01,1.56203e-12,5.13073e-01,3.46698e-12,5.13073e-01
7.84978e+02,9.80000e+02,9.78000e+02,2.00000e+00,1.54741e-12,5.20619e-01,1.21071e-12,5.20619e-01,2.75719e-12,5.20619e-01
7.85228e+02,1.06400e+03,1.06200e+03,2.00000e+00,4.78286e-13,5.28164e-01,1.19235e-13,5.28164e-01,5.95048e-13,5.28164e-01
7.85478e+02,1.09300e+03,1.08300e+03,1.00000e+01,3.51513e-13,5.35709e-01,5.01111e-13,5.35709e-01,8.30223e-13,5.35709e-01
7.85728e+02,1.10400e+03,1.03000e+03,7.40000e+01,4.91051e-13,5.43254e-01,6.19578e-13,5.43254e-01,1.08755e-12,5.43254e-01
7.85978e+02,1.03400e+03,9.97000e+02,3.70000e+01,4.08869e-13,5.50799e-01,2.66384e-13,5.50799e-01,6.42918e-13,5.50799e-01
7.86228e+02,9.54000e+02,9.80000e+02,-2.60000e+01,4.17852e-13,5.58345e-01,4.25881e-13,5.58345e-01,7.67453e-13,5.58345e-01
7.86478e+02,9.05000e+02,9.24000e+02,-1.90000e+01,4.45546e-13,5.65890e-01,4.87579e-13,5.65890e-01,1.15150e-13,5.65890e-01
7.86728e+02,9.05000e+02,9.20000e+02,-1.50000e+01,1.97191e-13,5.73435e-01,7.56447e-13,5.73435e-01,7.05040e-13,5.73435e-01
7.86978e+02,9.79000e+02,1.00900e+03,-3.00000e+01,2.89652e-14,5.80980e-01,7.85035e-13,5.80980e-01,7.62770e-13,5.80980e-01
7.87228e+02,1.01700e+03,1.12300e+03,-1.06000e+02,2.56822e-13,5.88525e-01,5.77607e-13,5.88525e-01,6.45569e-13,5.88525e-01
7.87478e+02,1.01800e+03,1.28800e+03,-2.70000e+02,1.64961e-13,5.96071e-01,3.97728e-13,5.96071e-01,4.75797e-13,5.96071e-01
7.87728e+02,1.03100e+03,1.25000e+03,-2.19000e+02,7.56862e-14,6.03616e-01,1.99923e-13,6.03616e-01,1.39451e-13,6.03616e-01
7.87978e+02,1.00500e+03,1.09000e+03,-8.50000e+01,7.16987e-14,6.11161e-01,3.68747e-13,6.11161e-01,3.07796e-13,6.11161e-01
7.88228e+02,9.78000e+02,9.59000e+02,1.90000e+01,2.63575e-14,6.18706e-01,4.60382e-13,6.18706e-01,4.36473e-13,6.18706e-01
7.88478e+02,9.40000e+02,9.20000e+02,2.00000e+01,2.75990e-13,6.26251e-01,3.68639e-13,6.26251e-01,5.33806e-13,6.26251e-01
7.88728e+02,9.46000e+02,9.08000e+02,3.80000e+01,4.17826e-13,6.33797e-01,1.98094e-13,6.33797e-01,5.41230e-13,6.33797e-01
7.88978e+02,1.00400e+03,9.38000e+02,6.60000e+01,3.76514e-13,6.41342e-01,1.34638e-13,6.41342e-01,4.94997e-13,6.41342e-01
7.89228e+02,1.07900e+03,9.84000e+02,9.50000e+01,3.82304e-13,6.48887e-01,4.04592e-13,6.48887e-01,3.71397e-13,6.48887e-01
7.89478e+02,1.20200e+03,9.81000e+02,2.21000e+02,7.00139e-13,6.56432e-01,5.00368e-13,6.56432e-01,3.69612e-13,6.56432e-01
7.89728e+02,1.20000e+03,9.89000e+02,2.11000e+02,8.67983e-13,6.63977e-01,4.95428e-13,6.63977e-01,4.34666e-13,6.63977e-01
7.89978e+02,1.04300e+03,1.05600e+03,-1.30000e+01,6.24833e-13,6.71523e-01,2.24813e-13,6.71523e-01,4.57148e-13,6.71523e-01
7.90228e+02,9.49000e+02,1.05700e+03,-1.08000e+02,5.07573e-13,6.79068e-01,1.61944e-13,6.79068e-01,4.12241e-13,6.79068e-01
7.90478e+02,9.26000e+02,1.01600e+03,-9.00000e+01,7.35120e-14,6.86613e-01,9.66920e-14,6.86613e-01,2.56069e-14,6.86613e-01
7.90728e+02,9.83000e+02,1.02400e+03,-4.10000e+01,1.88590e-13,6.94158e-01,3.12554e-13,6.94158e-01,4.76671e-13,6.94158e-01
7.90978e+02,1.05600e+03,1.16400e+03,-1.08000e+02,1.39888e-13,7.01703e-01,1.98432e-13,7.01703e-01,3.27769e-13,7.01703e-01
7.91228e+02,1.08600e+03,1.32200e+03,-2.36000e+02,5.15775e-14,7.09249e-01,2.42351e-14,7.09249e-01,2.77768e-14,7.09249e-01
7.91478e+02,1.15200e+03,1.37700e+03,-2.25000e+02,6.81394e-14,7.16794e-01,1.34987e-13,7.16794e-01,1.53703e-13,7.16794e-01
7.91728e+02,1.22200e+03,1.25800e+03,-3.60000e+01,1.79542e-13,7.24339e-01,1.29995e-13,7.24339e-01,2.56599e-13,7.24339e-01
7.91977e+02,1.13100e+03,1.04500e+03,8.60000e+01,2.29621e-14,7.31884e-01,1.50292e-14,7.31884e-01,1.12095e-14,7.31884e-01
7.92227e+02,1.08900e+03,1.01300e+03,7.60000e+01,1.66433e-13,7.39429e-01,2.75520e-13,7.39429e-01,4.41834e-13,7.39429e-01
7.92477e+02,1.07600e+03,1.04200e+03,3.40000e+01,2.12132e-13,7.46975e-01,4.38161e-13,7.46975e-01,6.08941e-13,7.46975e-01
7.92727e+02,1.17800e+03,1.12900e+03,4.90000e+01,1.33162e-13,7.54520e-01,3.34662e-13,7.54520e-01,4.67728e-13,7.54520e-01
7.92977e+02,1.43000e+03,1.14600e+03,2.84000e+02,1.73007e-13,7.62065e-01,2.22472e-13,7.62065e-01,3.76759e-13,7.62065e-01
7.93227e+02,1.52000e+03,1.19100e+03,3.29000e+02,2.97698e-13,7.69610e-01,1.92505e-13,7.69610e-01,4.75204e-13,7.69610e-01
7.93476e+02,1.45700e+03,1.18600e+03,2.71000e+02,1.49297e-13,7.77155e-01,2.79813e-13,7.77155e-01,3.99173e-13,7.77155e-01
7.93726e+02,1.31800e+03,1.26500e+03,5.30000e+01,2.21200e-13,7.84701e-01,4.29310e-13,7.84701e-01,6.49194e-13,7.84701e-01
7.93976e+02,1.14200e+03,1.27400e+03,-1.32000e+02,2.95378e-13,7.92246e-01,4.20730e-13,7.92246e-01,7.07187e-13,7.92246e-01
7.94226e+02,1.08400e+03,1.18100e+03,-9.70000e+01,2.22794e-13,7.99791e-01,6.45517e-13,7.99791e-01,7.80472e-13,7.99791e-01
7.94476e+02,1.05800e+03,1.18700e+03,-1.29000e+02,3.47827e-13,8.07336e-01,4.92281e-13,8.07336e-01,7.49085e-13,8.07336e-01
7.94725e+02,1.16400e+03,1.27100e+03,-1.07000e+02,2.29365e-13,8.14881e-01,5.20385e-13,8.14881e-01,7.19652e-13,8.14881e-01
7.94975e+02,1.27300e+03,1.42000e+03,-1.47000e+02,3.20453e-13,8.22427e-01,2.26011e-13,8.22427e-01,5.07937e-13,8.22427e-01
7.95225e+02,1.31700e+03,1.44100e+03,-1.24000e+02,1.48640e-13,8.29972e-01,1.80213e-13,8.29972e-01,3.12092e-13,8.29972e-01
7.95475e+02,1.50700e+03,1.41600e+03,9.10000e+01,2.41577e-13,8.37517e-01,1.69929e-13,8.37517e-01,2.68416e-13,8.37517e-01
7.95724e+02,1.44900e+03,1.25900e+03,1.90000e+02,3.69214e-13,8.45062e-01,3.24833e-13,8.45062e-01,6.07423e-13,8.45062e-01
7.95974e+02,1.36500e+03,1.13800e+03,2.27000e+02,2.76755e-13,8.52607e-01,9.68628e-14,8.52607e-01,3.72971e-13,8.52607e-01
7.96224e+02,1.26800e+03,1.16300e+03,1.05000e+02,1.71111e-13,8.60153e-01,2.70367e-13,8.60153e-01,2.13653e-13,8.60153e-01
7.96474e+02,1.29800e+03,1.22100e+03,7.70000e+01,2.88386e-13,8.67698e-01,4.53050e-13,8.67698e-01,5.48756e-13,8.67698e-01
7.96723e+02,1.47600e+03,1.43000e+03,4.60000e+01,3.73159e-13,8.75243e-01,4.92332e-13,8.75243e-01,7.74393e-13,8.75243e-01
7.96973e+02,1.60900e+03,1.62900e+03,-2.00000e+01,2.91176e-13,8.82788e-01,4.83529e-13,8.82788e-01,7.03065e-13,8.82788e-01
7.97223e+02,1.68300e+03,1.71200e+03,-2.90000e+01,7.15838e-14,8.90333e-01,2.51622e-13,8.90333e-01,3.19514e-13,8.90333e-01
7.97472e+02,1.67500e+03,1.74400e+03,-6.90000e+01,2.09134e-13,8.97879e-01,1.60500e-13,8.97879e-01,3.16827e-13,8.97879e-01
7.97722e+02,1.55500e+03,1.66100e+03,-1.06000e+02,9.76784e-14,9.05424e-01,2.07039e-13,9.05424e-01,3.04717e-13,9.05424e-01
7.97972e+02,1.40100e+03,1.61400e+03,-2.13000e+02,1.00455e-13,9.12969e-01,1.48386e-13,9.12969e-01,1.83384e-13,9.12969e-01
7.98221e+02,1.38600e+03,1.47900e+03,-9.30000e+01,1.39940e-13,9.20514e-01,1.18548e-13,9.20514e-01,1.26641e-13,9.20514e-01
7.98471e+02,1.45100e+03,1.45500e+03,-4.00000e+00,1.85093e-13,9.28059e-01,1.12853e-13,9.28059e-01,2.97608e-13,9.28059e-01
7.98721e+02,1.61500e+03,1.68700e+03,-7.20000e+01,1.98866e-13,9.35605e-01,1.47682e-14,9.35605e-01,1.90608e-13,9.35605e-01
7.98970e+02,1.85400e+03,1.82100e+03,3.30000e+01,3.88910e-13,9.43150e-01,6.80724e-14,9.43150e-01,3.66389e-13,9.43150e-01
7.99220e+02,2.23000e+03,1.91200e+03,3.18000e+02,3.52984e-13,9.50695e-01,8.95461e-14,9.50695e-01,2.70712e-13,9.50695e-01
7.99469e+02,2.25600e+03,1.77800e+03,4.78000e+02,4.23554e-13,9.58240e-01,1.03451e-13,9.58240e-01,4.95544e-13,9.58240e-01
7.99719e+02,2.20500e+03,1.66000e+03,5.45000e+02,4.23536e-13,9.65785e-01,3.21642e-13,9.65785e-01,7.44065e-13,9.65785e-01
7.99969e+02,1.87900e+03,1.55300e+03,3.26000e+02,3.05429e-13,9.73331e-01,2.66158e-13,9.73331e-01,4.81838e-13,9.73331e-01
8.00218e+02,1.55600e+03,1.55200e+03,4.00000e+00,1.19827e-13,9.80876e-01,2.88142e-13,9.80876e-01,3.15912e-13,9.80876e-01
8.00468e+02,1.55100e+03,1.52400e+03,2.70000e+01,2.20762e-13,9.88421e-01,1.66374e-13,9.88421e-01,8.28491e-14,9.88421e-01
8.00717e+02,1.62200e+03,1.65200e+03,-3.00000e+01,3.36983e-13,9.95966e-01,1.40992e-13,9.95966e-01,1.97743e-13,9.95966e-01
8.00967e+02,1.92000e+03,1.96900e+03,-4.90000e+01,4.44792e-13,1.00351e+00,1.44775e-13,1.00351e+00,3.69096e-13,1.00351e+00
8.01216e+02,1.98700e+03,2.19000e+03,-2.03000e+02,2.27478e-13,1.01106e+00,1.61093e-13,1.01106e+00,2.87927e-13,1.01106e+00
8.01466e+02,1.91900e+03,2.22600e+03,-3.07000e+02,3.12144e-13,1.01860e+00,2.12258e-13,1.01860e+00,3.21010e-13,1.01860e+00
8.01715e+02,1.81000e+03,2.22500e+03,-4.15000e+02,2.71433e-13,1.02615e+00,1.30411e-13,1.02615e+00,2.39472e-13,1.02615e+00
8.01965e+02,2.04600e+03,1.83800e+03,2.08000e+02,1.90810e-13,1.03369e+00,8.32943e-14,1.03369e+00,1.10528e-13,1.03369e+00
8.02215e+02,2.10600e+03,1.65300e+03,4.53000e+02,2.57909e-13,1.04124e+00,1.36853e-13,1.04124e+00,1.75659e-13,1.04124e+00
8.02464e+02,2.00900e+03,1.73500e+03,2.74000e+02,1.50691e-13,1.04878e+00,1.95036e-13,1.04878e+00,2.29522e-13,1.04878e+00
8.02713e+02,2.18000e+03,1.93900e+03,2.41000e+02,5.03288e-14,1.05633e+00,1.56526e-13,1.05633e+00,1.78115e-13,1.05633e+00
8.02963e+02,2.45000e+03,2.30000e+03,1.50000e+02,1.41280e-13,1.06387e+00,2.59886e-13,1.06387e+00,1.39774e-13,1.06387e+00
8.03212e+02,2.71400e+03,2.63400e+03,8.00000e+01,2.16338e-13,1.07142e+00,2.42179e-13,1.07142e+00,9.79090e-14,1.07142e+00
8.03462e+02,2.72500e+03,2.94800e+03,-2.23000e+02,1.64556e-13,1.07896e+00,2.88315e-13,1.07896e+00,1.41708e-13,1.07896e+00
8.03711e+02,2.31500e+03,2.89000e+03,-5.75000e+02,7.64719e-14,1.08651e+00,1.34904e-13,1.08651e+00,1.57693e-13,1.08651e+00
8.03961e+02,2.01600e+03,2.89300e+03,-8.77000e+02,1.85728e-13,1.09405e+00,1.29097e-13,1.09405e+00,7.60060e-14,1.09405e+00
8.04210e+02,1.84100e+03,2.58700e+03,-7.46000e+02,3.29253e-13,1.10160e+00,3.23998e-13,1.10160e+00,1.34008e-13,1.10160e+00
8.04460e+02,1.95000e+03,2.60000e+03,-6.50000e+02,2.58749e-13,1.10914e+00,4.61587e-13,1.10914e+00,3.13606e-13,1.10914e+00
8.04709e+02,2.16600e+03,2.83700e+03,-6.71000e+02,2.29545e-13,1.11669e+00,4.32577e-13,1.11669e+00,4.17529e-13,1.11669e+00
8.04958e+02,2.61100e+03,3.17600e+03,-5.65000e+02,2.49035e-13,1.12423e+00,2.48483e-13,1.12423e+00,1.31960e-13,1.12423e+00
8.05208e+02,3.20000e+03,3.50100e+03,-3.01000e+02,1.63234e-13,1.13178e+00,2.58012e-13,1.13178e+00,1.32713e-13,1.13178e+00
8.05457e+02,3.38600e+03,3.28700e+03,9.90000e+01,1.49955e-13,1.13932e+00,2.50922e-13,1.13932e+00,3.14054e-13,1.13932e+00
8.05707e+02,3.52700e+03,2.74300e+03,7.84000e+02,1.81620e-13,1.14687e+00,2.77253e-13,1.14687e+00,4.36571e-13,1.14687e+00
8.05956e+02,3.41100e+03,2.32800e+03,1.08300e+03,8.30047e-14,1.15442e+00,2.04782e-13,1.15442e+00,2.80411e-13,1.15442e+00
8.06205e+02,2.96500e+03,2.13800e+03,8.27000e+02,1.68065e-13,1.16196e+00,1.94608e-13,1.16196e+00,4.76806e-14,1.16196e+00
8.06455e+02,2.54300e+03,1.98800e+03,5.55000e+02,1.20033e-13,1.16951e+00,2.69621e-13,1.16951e+00,1.61653e-13,1.16951e+00
8.06704e+02,2.87400e+03,2.28100e+03,5.93000e+02,6.08676e-14,1.17705e+00,3.48628e-13,1.17705e+00,2.88807e-13,1.17705e+00
8.06953e+02,3.47500e+03,3.18400e+03,2.91000e+02,8.23730e-14,1.18460e+00,2.36586e-13,1.18460e+00,3.09670e-13,1.18460e+00
8.07203e+02,3.93600e+03,3.88500e+03,5.10000e+01,1.27662e-13,1.19214e+00,1.95865e-13,1.19214e+00,3.16643e-13,1.19214e+00
8.07452e+02,4.05300e+03,4.46800e+03,-4.15000e+02,2.55429e-13,1.19969e+00,1.64898e-13,1.19969e+00,4.20124e-13,1.19969e+00
8.07701e+02,3.07200e+03,4.48800e+03,-1.41600e+03,2.55108e-13,1.20723e+00,1.42722e-13,1.20723e+00,3.68849e-13,1.20723e+00
8.07951e+02,2.60200e+03,3.92400e+03,-1.32200e+03,3.28320e-13,1.21478e+00,2.06875e-13,1.21478e+00,4.24337e-13,1.21478e+00
8.08200e+02,2.32500e+03,3.20500e+03,-8.80000e+02,2.95624e-13,1.22232e+00,1.78767e-13,1.22232e+00,2.34548e-13,1.22232e+00
8.08449e+02,2.43600e+03,2.85600e+03,-4.20000e+02,1.63918e-13,1.22987e+00,6.64453e-14,1.22987e+00,1.92888e-13,1.22987e+00
8.08698e+02,2.89400e+03,2.95900e+03,-6.50000e+01,8.44549e-14,1.23741e+00,1.64337e-13,1.23741e+00,2.48708e-13,1.23741e+00
8.08948e+02,3.75400e+03,3.27100e+03,4.83000e+02,1.27753e-13,1.24496e+00,3.16797e-13,1.24496e+00,3.74812e-13,1.24496e+00
8.09197e+02,4.26000e+03,3.67600e+03,5.84000e+02,1.37532e-13,1.25250e+00,1.60952e-13,1.25250e+00,2.97252e-13,1.25250e+00
8.09446e+02,4.52300e+03,3.54100e+03,9.82000e+02,7.45805e-14,1.26005e+00,1.52863e-13,1.26005e+00,1.85630e-13,1.26005e+00
8.09695e+02,4.28400e+03,3.02500e+03,1.25900e+03,5.44247e-14,1.26759e+00,1.32891e-13,1.26759e+00,1.70725e-13,1.26759e+00
8.09945e+02,3.93600e+03,2.84400e+03,1.09200e+03,9.27441e-14,1.27514e+00,1.35636e-13,1.27514e+00,1.25078e-13,1.27514e+00
8.10194e+02,3.54400e+03,2.84600e+03,6.98000e+02,1.38300e-13,1.28268e+00,1.33924e-13,1.28268e+00,2.02562e-13,1.28268e+00
8.10443e+02,3.27700e+03,3.19600e+03,8.10000e+01,7.88525e-14,1.29023e+00,7.77674e-14,1.29023e+00,8.19535e-14,1.29023e+00
8.10692e+02,3.41500e+03,3.33300e+03,8.20000e+01,7.13526e-14,1.29777e+00,1.64224e-13,1.29777e+00,1.63985e-13,1.29777e+00
8.10941e+02,3.74300e+03,3.46000e+03,2.83000e+02,2.42688e-13,1.30532e+00,2.79224e-13,1.30532e+00,4.32891e-14,1.30532e+00
8.11191e+02,3.80300e+03,3.58200e+03,2.21000e+02,2.88527e-13,1.31286e+00,2.21382e-13,1.31286e+00,7.80395e-14,1.31286e+00
8.11440e+02,3.69800e+03,3.96000e+03,-2.62000e+02,3.06889e-13,-1.32041e+00,1.39223e-13,-1.32041e+00,1.67666e-13,-1.32041e+00
8.11689e+02,3.22700e+03,4.23100e+03,-1.00400e+03,2.88527e-13,-1.31286e+00,2.21382e-13,-1.31286e+00,7.80395e-14,-1.31286e+00
8.11938e+02,2.99500e+03,4.17200e+03,-1.17700e+03,2.42688e-13,-1.30532e+00,2.79224e-13,-1.30532e+00,4.32891e-14,-1.30532e+00
8.12187e+02,3.17800e+03,3.53200e+03,-3.54000e+02,7.13526e-14,-1.29777e+00,1.64224e-13,-1.29777e+00,1.63985e-13,-1.29777e+00
8.12436e+02,3.05000e+03,3.01000e+03,4.00000e+01,7.88525e-14,-1.29023e+00,7.77674e-14,-1.29023e+00,8.19535e-14,-1.29023e+00
8.12685e+02,3.17400e+03,3.16700e+03,7.00000e+00,1.38300e-13,-1.28268e+00,1.33924e-13,-1.28268e+00,2.02562e-13,-1.28268e+00
8.12935e+02,3.43000e+03,3.44900e+03,-1.90000e+01,9.27441e-14,-1.27514e+00,1.35636e-13,-1.27514e+00,1.25078e-13,-1.27514e+00
8.13184e+02,3.50000e+03,3.43800e+03,6.20000e+01,5.44247e-14,-1.26759e+00,1.32891e-13,-1.26759e+00,1.70725e-13,-1.26759e+00
8.13433e+02,3.68600e+03,3.40300e+03,2.83000e+02,7.45805e-14,-1.26005e+00,1.52863e-13,-1.26005e+00,1.85630e-13,-1.26005e+00
8.13682e+02,3.45000e+03,2.95100e+03,4.99000e+02,1.37532e-13,-1.25250e+00,1.60952e-13,-1.25250e+00,2.97252e-13,-1.25250e+00
8.13931e+02,3.16900e+03,2.79600e+03,3.73000e+02,1.27753e-13,-1.24496e+00,3.16797e-13,-1.24496e+00,3.74812e-13,-1.24496e+00
8.14180e+02,2.65800e+03,2.57700e+03,8.10000e+01,8.44549e-14,-1.23741e+00,1.64337e-13,-1.23741e+00,2.48708e-13,-1.23741e+00
8.14429e+02,2.27500e+03,2.48600e+03,-2.11000e+02,1.63918e-13,-1.22987e+00,6.64453e-14,-1.22987e+00,1.92888e-13,-1.22987e+00
8.14678e+02,2.32400e+03,2.46600e+03,-1.42000e+02,2.95624e-13,-1.22232e+00,1.78767e-13,-1.22232e+00,2.34548e-13,-1.22232e+00
8.14927e+02,2.79900e+03,2.63100e+03,1.68000e+02,3.28320e-13,-1.21478e+00,2.06875e-13,-1.21478e+00,4.24337e-13,-1.21478e+00
8.15176e+02,3.05500e+03,3.16100e+03,-1.06000e+02,2.55108e-13,-1.20723e+00,1.42722e-13,-1.20723e+00,3.68849e-13,-1.20723e+00
8.15425e+02,3.12600e+03,3.27700e+03,-1.51000e+02,2.55429e-13,-1.19969e+00,1.64898e-13,-1.19969e+00,4.20124e-13,-1.19969e+00
8.15674e+02,2.95200e+03,3.76000e+03,-8.08000e+02,1.27662e-13,-1.19214e+00,1.95865e-13,-1.19214e+00,3.16643e-13,-1.19214e+00
8.15923e+02,2.80300e+03,3.98000e+03,-1.17700e+03,8.23730e-14,-1.18460e+00,2.36586e-13,-1.18460e+00,3.09670e-13,-1.18460e+00
8.16172e+02,2.78800e+03,3.21000e+03,-4.22000e+02,6.08676e-14,-1.17705e+00,3.48628e-13,-1.17705e+00,2.88807e-13,-1.17705e+00
8.16421e+02,2.60400e+03,2.49100e+03,1.13000e+02,1.20033e-13,-1.16951e+00,2.69621e-13,-1.16951e+00,1.61653e-13,-1.16951e+00
8.16670e+02,2.27400e+03,2.20800e+03,6.60000e+01,1.68065e-13,-1.16196e+00,1.94608e-13,-1.16196e+00,4.76806e-14,-1.16196e+00
8.16919e+02,2.26200e+03,2.35400e+03,-9.20000e+01,8.30047e-14,-1.15442e+00,2.04782e-13,-1.15442e+00,2.80411e-13,-1.15442e+00
8.17168e+02,2.60900e+03,2.46800e+03,1.41000e+02,1.81620e-13,-1.14687e+00,2.77253e-13,-1.14687e+00,4.36571e-13,-1.14687e+00
8.17417e+02,3.05400e+03,2.79000e+03,2.64000e+02,1.49955e-13,-1.13932e+00,2.50922e-13,-1.13932e+00,3.14054e-13,-1.13932e+00
8.17666e+02,3.27500e+03,2.71800e+03,5.57000e+02,1.63234e-13,-1.13178e+00,2.58012e-13,-1.13178e+00,1.32713e-13,-1.13178e+00
8.17915e+02,3.20600e+03,2.58100e+03,6.25000e+02,2.49035e-13,-1.12423e+00,2.48483e-13,-1.12423e+00,1.31960e-13,-1.12423e+00
8.18164e+02,2.69800e+03,2.61200e+03,8.60000e+01,2.29545e-13,-1.11669e+00,4.32577e-13,-1.11669e+00,4.17529e-13,-1.11669e+00
8.18413e+02,2.04400e+03,2.41800e+03,-3.74000e+02,2.58749e-13,-1.10914e+00,4.61587e-13,-1.10914e+00,3.13606e-13,-1.10914e+00
8.18662e+02,1.81900e+03,2.18200e+03,-3.63000e+02,3.29253e-13,-1.10160e+00,3.23998e-13,-1.10160e+00,1.34008e-13,-1.10160e+00
8.18911e+02,1.88100e+03,2.05800e+03,-1.77000e+02,1.85728e-13,-1.09405e+00,1.29097e-13,-1.09405e+00,7.60060e-14,-1.09405e+00
8.19160e+02,2.03500e+03,2.45600e+03,-4.21000e+02,7.64719e-14,-1.08651e+00,1.34904e-13,-1.08651e+00,1.57693e-13,-1.08651e+00
8.19408e+02,2.33200e+03,2.94800e+03,-6.16000e+02,1.64556e-13,-1.07896e+00,2.88315e-13,-1.07896e+00,1.41708e-13,-1.07896e+00
8.19657e+02,2.68200e+03,3.28200e+03,-6.00000e+02,2.16338e-13,-1.07142e+00,2.42179e-13,-1.07142e+00,9.79090e-14,-1.07142e+00
8.19906e+02,3.09500e+03,3.28400e+03,-1.89000e+02,1.41280e-13,-1.06387e+00,2.59886e-13,-1.06387e+00,1.39774e-13,-1.06387e+00
8.20155e+02,2.88100e+03,2.80800e+03,7.30000e+01,5.03288e-14,-1.05633e+00,1.56526e-13,-1.05633e+00,1.78115e-13,-1.05633e+00
8.20404e+02,2.62500e+03,2.19700e+03,4.28000e+02,1.50691e-13,-1.04878e+00,1.95036e-13,-1.04878e+00,2.29522e-13,-1.04878e+00
8.20653e+02,2.34500e+03,1.96700e+03,3.78000e+02,2.57909e-13,-1.04124e+00,1.36853e-13,-1.04124e+00,1.75659e-13,-1.04124e+00
8.20901e+02,2.20500e+03,2.05300e+03,1.52000e+02,1.90810e-13,-1.03369e+00,8.32943e-14,-1.03369e+00,1.10528e-13,-1.03369e+00
8.21150e+02,2.50100e+03,2.16300e+03,3.38000e+02,2.71433e-13,-1.02615e+00,1.30411e-13,-1.02615e+00,2.39472e-13,-1.02615e+00
8.21399e+02,2.74300e+03,2.45300e+03,2.90000e+02,3.12144e-13,-1.01860e+00,2.12258e-13,-1.01860e+00,3.21010e-13,-1.01860e+00
8.21648e+02,2.83500e+03,2.61800e+03,2.17000e+02,2.27478e-13,-1.01106e+00,1.61093e-13,-1.01106e+00,2.87927e-13,-1.01106e+00
8.21897e+02,2.90100e+03,3.08800e+03,-1.87000e+02,4.44792e-13,-1.00351e+00,1.44775e-13,-1.00351e+00,3.69096e-13,-1.00351e+00
8.22145e+02,2.63300e+03,2.75300e+03,-1.20000e+02,3.36983e-13,-9.95966e-01,1.40992e-13,-9.95966e-01,1.97743e-13,-9.95966e-01
8.22394e+02,2.37000e+03,2.45600e+03,-8.60000e+01,2.20762e-13,-9.88421e-01,1.66374e-13,-9.88421e-01,8.28491e-14,-9.88421e-01
8.22643e+02,2.11200e+03,2.08500e+03,2.70000e+01,1.19827e-13,-9.80876e-01,2.88142e-13,-9.80876e-01,3.15912e-13,-9.80876e-01
8.22892e+02,2.03600e+03,1.99200e+03,4.40000e+01,3.05429e-13,-9.73331e-01,2.66158e-13,-9.73331e-01,4.81838e-13,-9.73331e-01
8.23140e+02,2.31700e+03,2.12100e+03,1.96000e+02,4.23536e-13,-9.65785e-01,3.21642e-13,-9.65785e-01,7.44065e-13,-9.65785e-01
8.23389e+02,2.48000e+03,2.42600e+03,5.40000e+01,4.23554e-13,-9.58240e-01,1.03451e-13,-9.58240e-01,4.95544e-13,-9.58240e-01
8.23638e+02,2.84800e+03,2.69100e+03,1.57000e+02,3.52984e-13,-9.50695e-01,8.95461e-14,-9.50695e-01,2.70712e-13,-9.50695e-01
8.23887e+02,3.10300e+03,2.68800e+03,4.15000e+02,3.88910e-13,-9.43150e-01,6.80724e-14,-9.43150e-01,3.66389e-13,-9.43150e-01
8.24135e+02,2.75900e+03,2.68000e+03,7.90000e+01,1.98866e-13,-9.35605e-01,1.47682e-14,-9.35605e-01,1.90608e-13,-9.35605e-01
8.24384e+02,2.21400e+03,2.33100e+03,-1.17000e+02,1.85093e-13,-9.28059e-01,1.12853e-13,-9.28059e-01,2.97608e-13,-9.28059e-01
8.24633e+02,1.81000e+03,1.98200e+03,-1.72000e+02,1.39940e-13,-9.20514e-01,1.18548e-13,-9.20514e-01,1.26641e-13,-9.20514e-01
8.24881e+02,1.66700e+03,1.84500e+03,-1.78000e+02,1.00455e-13,-9.12969e-01,1.48386e-13,-9.12969e-01,1.83384e-13,-9.12969e-01
8.25130e+02,1.61400e+03,1.95600e+03,-3.42000e+02,9.76784e-14,-9.05424e-01,2.07039e-13,-9.05424e-01,3.04717e-13,-9.05424e-01
8.25379e+02,1.75900e+03,2.21100e+03,-4.52000e+02,2.09134e-13,-8.97879e-01,1.60500e-13,-8.97879e-01,3.16827e-13,-8.97879e-01
8.25627e+02,1.99000e+03,2.43600e+03,-4.46000e+02,7.15838e-14,-8.90333e-01,2.51622e-13,-8.90333e-01,3.19514e-13,-8.90333e-01
8.25876e+02,2.19000e+03,2.44900e+03,-2.59000e+02,2.91176e-13,-8.82788e-01,4.83529e-13,-8.82788e-01,7.03065e-13,-8.82788e-01
8.26125e+02,2.23300e+03,2.38700e+03,-1.54000e+02,3.73159e-13,-8.75243e-01,4.92332e-13,-8.75243e-01,7.74393e-13,-8.75243e-01
8.26373e+02,2.12600e+03,2.18000e+03,-5.40000e+01,2.88386e-13,-8.67698e-01,4.53050e-13,-8.67698e-01,5.48756e-13,-8.67698e-01
8.26622e+02,1.87900e+03,1.88900e+03,-1.00000e+01,1.71111e-13,-8.60153e-01,2.70367e-13,-8.60153e-01,2.13653e-13,-8.60153e-01
8.26870e+02,1.81600e+03,1.57500e+03,2.41000e+02,2.76755e-13,-8.52607e-01,9.68628e-14,-8.52607e-01,3.72971e-13,-8.52607e-01
8.27119e+02,1.66500e+03,1.42000e+03,2.45000e+02,3.69214e-13,-8.45062e-01,3.24833e-13,-8.45062e-01,6.07423e-13,-8.45062e-01
8.27368e+02,1.65800e+03,1.41200e+03,2.46000e+02,2.41577e-13,-8.37517e-01,1.69929e-13,-8.37517e-01,2.68416e-13,-8.37517e-01
8.27616e+02,1.81500e+03,1.59500e+03,2.20000e+02,1.48640e-13,-8.29972e-01,1.80213e-13,-8.29972e-01,3.12092e-13,-8.29972e-01
8.27865e+02,1.84200e+03,1.82700e+03,1.50000e+01,3.20453e-13,-8.22427e-01,2.26011e-13,-8.22427e-01,5.07937e-13,-8.22427e-01
8.28113e+02,1.73600e+03,2.06900e+03,-3.33000e+02,2.29365e-13,-8.14881e-01,5.20385e-13,-8.14881e-01,7.19652e-13,-8.14881e-01
8.28362e+02,1.68400e+03,1.84600e+03,-1.62000e+02,3.47827e-13,-8.07336e-01,4.92281e-13,-8.07336e-01,7.49085e-13,-8.07336e-01
8.28610e+02,1.54100e+03,1.71100e+03,-1.70000e+02,2.22794e-13,-7.99791e-01,6.45517e-13,-7.99791e-01,7.80472e-13,-7.99791e-01
8.28859e+02,1.42200e+03,1.67000e+03,-2.48000e+02,2.95378e-13,-7.92246e-01,4.20730e-13,-7.92246e-01,7.07187e-13,-7.92246e-01
8.29108e+02,1.31100e+03,1.47200e+03,-1.61000e+02,2.21200e-13,-7.84701e-01,4.29310e-13,-7.84701e-01,6.49194e-13,-7.84701e-01
8.29356e+02,1.21200e+03,1.41200e+03,-2.00000e+02,1.49297e-13,-7.77155e-01,2.79813e-13,-7.77155e-01,3.99173e-13,-7.77155e-01
8.29605e+02,1.26500e+03,1.40200e+03,-1.37000e+02,2.97698e-13,-7.69610e-01,1.92505e-13,-7.69610e-01,4.75204e-13,-7.69610e-01
8.29853e+02,1.51000e+03,1.38400e+03,1.26000e+02,1.73007e-13,-7.62065e-01,2.22472e-13,-7.62065e-01,3.76759e-13,-7.62065e-01
8.30101e+02,1.56000e+03,1.42900e+03,1.31000e+02,1.33162e-13,-7.54520e-01,3.34662e-13,-7.54520e-01,4.67728e-13,-7.54520e-01
8.30350e+02,1.52500e+03,1.31600e+03,2.09000e+02,2.12132e-13,-7.46975e-01,4.38161e-13,-7.46975e-01,6.08941e-13,-7.46975e-01
8.30598e+02,1.36700e+03,1.26600e+03,1.01000e+02,1.66433e-13,-7.39429e-01,2.75520e-13,-7.39429e-01,4.41834e-13,-7.39429e-01
8.30847e+02,1.23000e+03,1.20100e+03,2.90000e+01,2.29621e-14,-7.31884e-01,1.50292e-14,-7.31884e-01,1.12095e-14,-7.31884e-01
8.31095e+02,1.10500e+03,1.07300e+03,3.20000e+01,1.79542e-13,-7.24339e-01,1.29995e-13,-7.24339e-01,2.56599e-13,-7.24339e-01
8.31344e+02,9.91000e+02,9.85000e+02,6.00000e+00,6.81394e-14,-7.16794e-01,1.34987e-13,-7.16794e-01,1.53703e-13,-7.16794e-01
8.31592e+02,9.55000e+02,9.74000e+02,-1.90000e+01,5.15775e-14,-7.09249e-01,2.42351e-14,-7.09249e-01,2.77768e-14,-7.09249e-01
8.31841e+02,9.80000e+02,9.96000e+02,-1.60000e+01,1.39888e-13,-7.01703e-01,1.98432e-13,-7.01703e-01,3.27769e-13,-7.01703e-01
8.32089e+02,1.05400e+03,1.05400e+03,0.00000e+00,1.88590e-13,-6.94158e-01,3.12554e-13,-6.94158e-01,4.76671e-13,-6.94158e-01
8.32337e+02,1.04900e+03,1.06500e+03,-1.60000e+01,7.35120e-14,-6.86613e-01,9.66920e-14,-6.86613e-01,2.56069e-14,-6.86613e-01
8.32586e+02,1.07400e+03,1.03400e+03,4.00000e+01,5.07573e-13,-6.79068e-01,1.61944e-13,-6.79068e-01,4.12241e-13,-6.79068e-01
8.32834e+02,9.90000e+02,9.98000e+02,-8.00000e+00,6.24833e-13,-6.71523e-01,2.24813e-13,-6.71523e-01,4.57148e-13,-6.71523e-01
8.33083e+02,9.78000e+02,9.48000e+02,3.00000e+01,8.67983e-13,-6.63977e-01,4.95428e-13,-6.63977e-01,4.34666e-13,-6.63977e-01
8.33331e+02,8.80000e+02,8.82000e+02,-2.00000e+00,7.00139e-13,-6.56432e-01,5.00368e-13,-6.56432e-01,3.69612e-13,-6.56432e-01
8.33579e+02,8.59000e+02,8.84000e+02,-2.50000e+01,3.82304e-13,-6.48887e-01,4.04592e-13,-6.48887e-01,3.71397e-13,-6.48887e-01
8.33828e+02,9.03000e+02,8.97000e+02,6.00000e+00,3.76514e-13,-6.41342e-01,1.34638e-13,-6.41342e-01,4.94997e-13,-6.41342e-01
8.34076e+02,9.12000e+02,9.25000e+02,-1.30000e+01,4.17826e-13,-6.33797e-01,1.98094e-13,-6.33797e-01,5.41230e-13,-6.33797e-01
8.34324e+02,8.97000e+02,9.00000e+02,-3.00000e+00,2.75990e-13,-6.26251e-01,3.68639e-13,-6.26251e-01,5.33806e-13,-6.26251e-01
8.34573e+02,8.66000e+02,8.85000e+02,-1.90000e+01,2.63575e-14,-6.18706e-01,4.60382e-13,-6.18706e-01,4.36473e-13,-6.18706e-01
8.34821e+02,8.72000e+02,8.60000e+02,1.20000e+01,7.16987e-14,-6.11161e-01,3.68747e-13,-6.11161e-01,3.07796e-13,-6.11161e-01
8.35069e+02,8.60000e+02,8.49000e+02,1.10000e+01,7.56862e-14,-6.03616e-01,1.99923e-13,-6.03616e-01,1.39451e-13,-6.03616e-01
8.35318e+02,8.44000e+02,8.07000e+02,3.70000e+01,1.64961e-13,-5.96071e-01,3.97728e-13,-5.96071e-01,4.75797e-13,-5.96071e-01
8.35566e+02,7.93000e+02,7.70000e+02,2.30000e+01,2.56822e-13,-5.88525e-01,5.77607e-13,-5.88525e-01,6.45569e-13,-5.88525e-01
8.35814e+02,7.28000e+02,7.55000e+02,-2.70000e+01,2.89652e-14,-5.80980e-01,7.85035e-13,-5.80980e-01,7.62770e-13,-5.80980e-01
8.36062e+02,7.43000e+02,7.50000e+02,-7.00000e+00,1.97191e-13,-5.73435e-01,7.56447e-13,-5.73435e-01,7.05040e-13,-5.73435e-01
8.36311e+02,7.59000e+02,7.57000e+02,2.00000e+00,4.45546e-13,-5.65890e-01,4.87579e-13,-5.65890e-01,1.15150e-13,-5.65890e-01
8.36559e+02,7.73000e+02,7.70000e+02,3.00000e+00,4.17852e-13,-5.58345e-01,4.25881e-13,-5.58345e-01,7.67453e-13,-5.58345e-01
8.36807e+02,7.46000e+02,7.62000e+02,-1.60000e+01,4.08869e-13,-5.50799e-01,2.66384e-13,-5.50799e-01,6.42918e-13,-5.50799e-01
8.37055e+02,7.53000e+02,7.87000e+02,-3.40000e+01,4.91051e-13,-5.43254e-01,6.19578e-13,-5.43254e-01,1.08755e-12,-5.43254e-01
8.37304e+02,7.13000e+02,7.49000e+02,-3.60000e+01,3.51513e-13,-5.35709e-01,5.01111e-13,-5.35709e-01,8.30223e-13,-5.35709e-01
8.37552e+02,7.10000e+02,7.26000e+02,-1.60000e+01,4.78286e-13,-5.28164e-01,1.19235e-13,-5.28164e-01,5.95048e-13,-5.28164e-01
8.37800e+02,7.16000e+02,7.21000e+02,-5.00000e+00,1.54741e-12,-5.20619e-01,1.21071e-12,-5.20619e-01,2.75719e-12,-5.20619e-01
8.38048e+02,7.04000e+02,7.13000e+02,-9.00000e+00,1.99366e-12,-5.13073e-01,1.56203e-12,-5.13073e-01,3.46698e-12,-5.13073e-01
8.38296e+02,7.05000e+02,7.10000e+02,-5.00000e+00,1.34149e-12,-5.05528e-01,1.32361e-12,-5.05528e-01,2.64347e-12,-5.05528e-01
8.38545e+02,6.95000e+02,6.97000e+02,-2.00000e+00,9.39825e-13,-4.97983e-01,1.41848e-12,-4.97983e-01,2.35198e-12,-4.97983e-01
8.38793e+02,7.16000e+02,7.05000e+02,1.10000e+01,8.44740e-13,-4.90438e-01,1.98745e-12,-4.90438e-01,2.80704e-12,-4.90438e-01
8.39041e+02,7.26000e+02,7.10000e+02,1.60000e+01,4.66348e-13,-4.82893e-01,1.71211e-12,-4.82893e-01,2.17802e-12,-4.82893e-01
8.39289e+02,7.12000e+02,6.99000e+02,1.30000e+01,2.61550e-13,-4.75347e-01,1.42371e-12,-4.75347e-01,1.66240e-12,-4.75347e-01
8.39537e+02,7.02000e+02,7.05000e+02,-3.00000e+00,2.09939e-13,-4.67802e-01,8.65339e-13,-4.67802e-01,1.03994e-12,-4.67802e-01
8.39785e+02,6.70000e+02,6.84000e+02,-1.40000e+01,2.14090e-13,-4.60257e-01,6.27830e-13,-4.60257e-01,7.12007e-13,-4.60257e-01
8.40033e+02,6.81000e+02,6.89000e+02,-8.00000e+00,3.27131e-13,-4.52712e-01,9.40810e-13,-4.52712e-01,7.02411e-13,-4.52712e-01
8.40281e+02,6.96000e+02,6.78000e+02,1.80000e+01,4.44210e-13,-4.45167e-01,8.42450e-13,-4.45167e-01,4.18195e-13,-4.45167e-01
8.40530e+02,6.73000e+02,6.82000e+02,-9.00000e+00,5.59026e-13,-4.37621e-01,5.03091e-13,-4.37621e-01,9.94955e-14,-4.37621e-01
8.40778e+02,6.96000e+02,6.89000e+02,7.00000e+00,7.93058e-13,-4.30076e-01,3.18143e-13,-4.30076e-01,6.25611e-13,-4.30076e-01
8.41026e+02,6.92000e+02,7.01000e+02,-9.00000e+00,8.86079e-13,-4.22531e-01,3.72346e-13,-4.22531e-01,7.93616e-13,-4.22531e-01
8.41274e+02,6.92000e+02,6.91000e+02,1.00000e+00,6.72851e-13,-4.14986e-01,3.26221e-13,-4.14986e-01,3.64028e-13,-4.14986e-01
8.41522e+02,6.81000e+02,6.76000e+02,5.00000e+00,9.04799e-13,-4.07441e-01,4.83825e-13,-4.07441e-01,4.72691e-13,-4.07441e-01
8.41770e+02,6.63000e+02,6.82000e+02,-1.90000e+01,8.98254e-13,-3.99895e-01,4.39526e-13,-3.99895e-01,4.95131e-13,-3.99895e-01
8.42018e+02,6.88000e+02,6.75000e+02,1.30000e+01,8.02585e-13,-3.92350e-01,6.21523e-13,-3.92350e-01,3.31307e-13,-3.92350e-01
8.42266e+02,6.71000e+02,6.78000e+02,-7.00000e+00,8.34233e-13,-3.84805e-01,8.40484e-13,-3.84805e-01,4.82371e-13,-3.84805e-01
8.42514e+02,6.78000e+02,6.77000e+02,1.00000e+00,1.65561e-12,-3.77260e-01,1.12553e-12,-3.77260e-01,7.79728e-13,-3.77260e-01
8.42762e+02,6.73000e+02,6.74000e+02,-1.00000e+00,1.78771e-12,-3.69715e-01,1.28492e-12,-3.69715e-01,9.27293e-13,-3.69715e-01
8.43010e+02,6.77000e+02,6.90000e+02,-1.30000e+01,2.35808e-12,-3.62169e-01,2.01663e-12,-3.62169e-01,5.75964e-13,-3.62169e-01
8.43258e+02,6.84000e+02,6.68000e+02,1.60000e+01,1.69206e-12,-3.54624e-01,1.00291e-12,-3.54624e-01,6.89310e-13,-3.54624e-01
8.43506e+02,6.73000e+02,6.71000e+02,2.00000e+00,2.10122e-12,-3.47079e-01,1.44363e-12,-3.47079e-01,1.09859e-12,-3.47079e-01
8.43754e+02,6.75000e+02,6.69000e+02,6.00000e+00,2.48315e-12,-3.39534e-01,1.49784e-12,-3.39534e-01,1.06206e-12,-3.39534e-01
8.44002e+02,6.90000e+02,6.79000e+02,1.10000e+01,5.12325e-12,-3.31989e-01,5.19089e-12,-3.31989e-01,1.16152e-12,-3.31989e-01
8.44250e+02,6.61000e+02,6.65000e+02,-4.00000e+00,7.55911e-12,-3.24444e-01,7.79288e-12,-3.24444e-01,7.81645e-13,-3.24444e-01
8.44498e+02,6.69000e+02,6.69000e+02,0.00000e+00,7.59403e-12,-3.16898e-01,7.95087e-12,-3.16898e-01,8.24978e-13,-3.16898e-01
8.44746e+02,6.64000e+02,6.61000e+02,3.00000e+00,5.85272e-12,-3.09353e-01,5.90908e-12,-3.09353e-01,9.42836e-13,-3.09353e-01
8.44994e+02,6.62000e+02,6.71000e+02,-9.00000e+00,3.10411e-12,-3.01808e-01,2.30101e-12,-3.01808e-01,1.10908e-12,-3.01808e-01
8.45242e+02,6.76000e+02,6.75000e+02,1.00000e+00,1.35438e-12,-2.94263e-01,1.18280e-12,-2.94263e-01,1.20950e-12,-2.94263e-01
8.45490e+02,6.65000e+02,6.66000e+02,-1.00000e+00,5.47726e-13,-2.86718e-01,1.65584e-12,-2.86718e-01,1.12059e-12,-2.86718e-01
8.45738e+02,6.73000e+02,6.68000e+02,5.00000e+00,6.98139e-13,-2.79172e-01,1.10539e-12,-2.79172e-01,5.51496e-13,-2.79172e-01
8.45985e+02,6.74000e+02,6.77000e+02,-3.00000e+00,3.98015e-13,-2.71627e-01,5.38519e-13,-2.71627e-01,2.57248e-13,-2.71627e-01
8.46233e+02,6.83000e+02,6.69000e+02,1.40000e+01,9.16629e-13,-2.64082e-01,7.62639e-13,-2.64082e-01,1.57606e-13,-2.64082e-01
8.46481e+02,6.68000e+02,6.68000e+02,0.00000e+00,1.56357e-12,-2.56537e-01,1.53721e-12,-2.56537e-01,5.81673e-13,-2.56537e-01
8.46729e+02,6.71000e+02,6.70000e+02,1.00000e+00,1.61391e-12,-2.48992e-01,1.61756e-12,-2.48992e-01,4.67816e-13,-2.48992e-01
8.46977e+02,6.61000e+02,6.66000e+02,-5.00000e+00,1.54816e-12,-2.41446e-01,1.70743e-12,-2.41446e-01,5.68447e-13,-2.41446e-01
8.47225e+02,6.61000e+02,6.73000e+02,-1.20000e+01,1.41561e-12,-2.33901e-01,1.38897e-12,-2.33901e-01,2.00375e-12,-2.33901e-01
8.47473e+02,6.67000e+02,6.68000e+02,-1.00000e+00,1.31246e-12,-2.26356e-01,1.80713e-12,-2.26356e-01,3.05326e-12,-2.26356e-01
8.47720e+02,6.63000e+02,6.68000e+02,-5.00000e+00,2.04660e-12,-2.18811e-01,1.91310e-12,-2.18811e-01,3.95426e-12,-2.18811e-01
8.47968e+02,6.75000e+02,6.67000e+02,8.00000e+00,1.51959e-12,-2.11266e-01,2.10045e-12,-2.11266e-01,3.59833e-12,-2.11266e-01
8.48216e+02,6.70000e+02,6.68000e+02,2.00000e+00,1.60782e-12,-2.03720e-01,5.37532e-13,-2.03720e-01,1.83734e-12,-2.03720e-01
8.48464e+02,6.69000e+02,6.60000e+02,9.00000e+00,3.57390e-12,-1.96175e-01,2.13753e-12,-1.96175e-01,5.70890e-12,-1.96175e-01
8.48712e+02,6.59000e+02,6.61000e+02,-2.00000e+00,4.81040e-12,-1.88630e-01,4.32676e-12,-1.88630e-01,8.96071e-12,-1.88630e-01
8.48960e+02,6.74000e+02,6.65000e+02,9.00000e+00,3.43740e-12,-1.81085e-01,3.95407e-12,-1.81085e-01,7.31776e-12,-1.81085e-01
8.49207e+02,6.60000e+02,6.76000e+02,-1.60000e+01,1.57665e-12,-1.73540e-01,3.33808e-12,-1.73540e-01,4.85920e-12,-1.73540e-01
8.49455e+02,6.61000e+02,6.60000e+02,1.00000e+00,1.87407e-12,-1.65994e-01,3.92421e-12,-1.65994e-01,5.79824e-12,-1.65994e-01
8.49703e+02,6.63000e+02,6.63000e+02,0.00000e+00,1.63959e-12,-1.58449e-01,4.32491e-12,-1.58449e-01,5.95562e-12,-1.58449e-01
8.49951e+02,6.64000e+02,6.70000e+02,-6.00000e+00,9.54893e-13,-1.50904e-01,3.45884e-12,-1.50904e-01,4.30024e-12,-1.50904e-01
8.50198e+02,6.61000e+02,6.68000e+02,-7.00000e+00,3.42100e-13,-1.43359e-01,2.22736e-12,-1.43359e-01,2.22039e-12,-1.43359e-01
8.50446e+02,6.54000e+02,6.65000e+02,-1.10000e+01,6.91138e-13,-1.35814e-01,7.92619e-13,-1.35814e-01,9.83892e-13,-1.35814e-01
8.50694e+02,6.68000e+02,6.62000e+02,6.00000e+00,7.76876e-13,-1.28268e-01,9.55679e-13,-1.28268e-01,1.59132e-12,-1.28268e-01
8.50941e+02,6.92000e+02,6.94000e+02,-2.00000e+00,1.50789e-12,-1.20723e-01,7.43380e-13,-1.20723e-01,2.18439e-12,-1.20723e-01
8.51189e+02,6.72000e+02,6.70000e+02,2.00000e+00,2.00501e-12,-1.13178e-01,4.80814e-13,-1.13178e-01,1.60386e-12,-1.13178e-01
8.51437e+02,6.62000e+02,6.71000e+02,-9.00000e+00,1.52684e-12,-1.05633e-01,1.13150e-12,-1.05633e-01,4.07897e-13,-1.05633e-01
8.51685e+02,6.50000e+02,6.55000e+02,-5.00000e+00,2.57734e-13,-9.80876e-02,7.45639e-13,-9.80876e-02,5.46914e-13,-9.80876e-02
8.51932e+02,6.60000e+02,6.62000e+02,-2.00000e+00,6.42898e-13,-9.05424e-02,7.12299e-13,-9.05424e-02,1.25647e-12,-9.05424e-02
8.52180e+02,6.64000e+02,6.72000e+02,-8.00000e+00,7.56274e-13,-8.29972e-02,1.06485e-12,-8.29972e-02,1.13735e-12,-8.29972e-02
8.52428e+02,6.65000e+02,6.48000e+02,1.70000e+01,3.62619e-13,-7.54520e-02,3.28642e-13,-7.54520e-02,6.85789e-13,-7.54520e-02
8.52675e+02,6.70000e+02,6.56000e+02,1.40000e+01,1.03146e-12,-6.79068e-02,7.93455e-13,-6.79068e-02,1.63706e-12,-6.79068e-02
8.52923e+02,6.60000e+02,6.58000e+02,2.00000e+00,2.16282e-12,-6.03616e-02,1.91791e-13,-6.03616e-02,2.31792e-12,-6.03616e-02
8.53170e+02,6.65000e+02,6.50000e+02,1.50000e+01,3.30767e-12,-5.28164e-02,1.41457e-12,-5.28164e-02,2.10217e-12,-5.28164e-02
8.53418e+02,6.51000e+02,6.56000e+02,-5.00000e+00,6.02990e-12,-4.52712e-02,4.50872e-12,-4.52712e-02,1.52484e-12,-4.52712e-02
8.53666e+02,6.60000e+02,6.68000e+02,-8.00000e+00,5.78742e-12,-3.77260e-02,5.26725e-12,-3.77260e-02,7.61558e-13,-3.77260e-02
8.53913e+02,6.73000e+02,6.60000e+02,1.30000e+01,6.58830e-12,-3.01808e-02,6.77356e-12,-3.01808e-02,3.39156e-13,-3.01808e-02
8.54161e+02,6.68000e+02,6.69000e+02,-1.00000e+00,7.99652e-12,-2.26356e-02,7.99975e-12,-2.26356e-02,2.78019e-13,-2.26356e-02
8.54409e+02,6.61000e+02,6.65000e+02,-4.00000e+00,2.56852e-11,-1.50904e-02,2.59628e-11,-1.50904e-02,6.38270e-13,-1.50904e-02
8.54656e+02,6.56000e+02,6.73000e+02,-1.70000e+01,5.99699e-11,-7.54520e-03,6.04576e-11,-7.54520e-03,6.98000e-13,-7.54520e-03
