7.67698e+02,6.82000e+02,6.60000e+02,2.20000e+01,1.51573e-10,0.00000e+00,1.51365e-10,0.00000e+00,2.07603e-13,0.00000e+00
7.67949e+02,6.63000e+02,6.68000e+02,-5.00000e+00,5.85600e-11,7.54520e-03,5.84772e-11,7.54520e-03,1.89360e-12,7.54520e-03
7.68199e+02,6.74000e+02,6.91000e+02,-1.70000e+01,2.31637e-11,1.50904e-02,2.37459e-11,1.50904e-02,2.25955e-12,1.50904e-02
7.68450e+02,6.84000e+02,6.56000e+02,2.80000e+01,7.44478e-12,2.26356e-02,8.31859e-12,2.26356e-02,1.18020e-12,2.26356e-02
7.68701e+02,6.76000e+02,6.66000e+02,1.00000e+01,2.52334e-12,3.01808e-02,3.09904e-12,3.01808e-02,9.23848e-13,3.01808e-02
7.68951e+02,6.83000e+02,6.69000e+02,1.40000e+01,2.16355e-12,3.77260e-02,1.04545e-12,3.77260e-02,1.20738e-12,3.77260e-02
7.69202e+02,7.05000e+02,6.97000e+02,8.00000e+00,3.05639e-12,4.52712e-02,1.63734e-12,4.52712e-02,1.41929e-12,4.52712e-02
7.69453e+02,6.86000e+02,6.88000e+02,-2.00000e+00,1.77012e-12,5.28164e-02,8.64224e-13,5.28164e-02,1.60934e-12,5.28164e-02
7.69703e+02,6.80000e+02,6.84000e+02,-4.00000e+00,1.55372e-12,6.03616e-02,6.10792e-13,6.03616e-02,1.57535e-12,6.03616e-02
7.69954e+02,6.72000e+02,6.68000e+02,4.00000e+00,5.49262e-13,6.79068e-02,7.81550e-13,6.79068e-02,1.24500e-12,6.79068e-02
7.70205e+02,6.61000e+02,6.80000e+02,-1.90000e+01,6.96976e-13,7.54520e-02,2.34145e-13,7.54520e-02,5.92929e-13,7.54520e-02
7.70455e+02,7.06000e+02,7.01000e+02,5.00000e+00,7.02814e-13,8.29972e-02,3.48599e-13,8.29972e-02,4.79180e-13,8.29972e-02
7.70706e+02,6.72000e+02,6.87000e+02,-1.50000e+01,4.86529e-13,9.05424e-02,4.93455e-13,9.05424e-02,5.96939e-13,9.05424e-02
7.70957e+02,6.83000e+02,6.80000e+02,3.00000e+00,8.10095e-13,9.80876e-02,6.31438e-13,9.80876e-02,4.61702e-13,9.80876e-02
7.71207e+02,6.85000e+02,7.07000e+02,-2.20000e+01,7.02499e-13,1.05633e-01,1.00449e-12,1.05633e-01,3.05249e-13,1.05633e-01
7.71458e+02,7.02000e+02,7.06000e+02,-4.00000e+00,2.77360e-13,1.13178e-01,7.61227e-13,1.13178e-01,7.25261e-13,1.13178e-01
7.71708e+02,7.05000e+02,6.94000e+02,1.10000e+01,2.92594e-13,1.20723e-01,9.37675e-13,1.20723e-01,1.13693e-12,1.20723e-01
7.71959e+02,7.11000e+02,6.88000e+02,2.30000e+01,4.73704e-13,1.28268e-01,4.15629e-13,1.28268e-01,8.89324e-13,1.28268e-01
7.72210e+02,7.13000e+02,6.98000e+02,1.50000e+01,6.81663e-13,1.35814e-01,8.05840e-13,1.35814e-01,3.62167e-13,1.35814e-01
7.72460e+02,7.07000e+02,7.12000e+02,-5.00000e+00,1.47777e-12,1.43359e-01,1.84183e-12,1.43359e-01,5.25096e-13,1.43359e-01
7.72711e+02,7.24000e+02,7.30000e+02,-6.00000e+00,1.58464e-12,1.50904e-01,1.97421e-12,1.50904e-01,6.88453e-13,1.50904e-01
7.72961e+02,7.06000e+02,7.06000e+02,0.00000e+00,1.61028e-12,1.58449e-01,1.59156e-12,1.58449e-01,7.70093e-14,1.58449e-01
7.73212e+02,7.28000e+02,7.12000e+02,1.60000e+01,1.03428e-12,1.65994e-01,4.46081e-13,1.65994e-01,6.19318e-13,1.65994e-01
7.73462e+02,7.20000e+02,7.15000e+02,5.00000e+00,7.65362e-13,1.73540e-01,1.70628e-13,1.73540e-01,8.52700e-13,1.73540e-01
7.73713e+02,6.96000e+02,7.09000e+02,-1.30000e+01,1.14572e-12,1.81085e-01,3.74444e-13,1.81085e-01,9.08934e-13,1.81085e-01
7.73963e+02,6.98000e+02,7.08000e+02,-1.00000e+01,1.00164e-12,1.88630e-01,2.03532e-13,1.88630e-01,1.09807e-12,1.88630e-01
7.74214e+02,7.36000e+02,7.20000e+02,1.60000e+01,1.15130e-12,1.96175e-01,1.02875e-13,1.96175e-01,1.11416e-12,1.96175e-01
7.74465e+02,7.45000e+02,7.26000e+02,1.90000e+01,7.92192e-13,2.03720e-01,4.66360e-13,2.03720e-01,1.01667e-12,2.03720e-01
7.74715e+02,7.34000e+02,7.40000e+02,-6.00000e+00,5.33387e-13,2.11266e-01,8.53111e-13,2.11266e-01,5.16867e-13,2.11266e-01
7.74965e+02,7.28000e+02,7.37000e+02,-9.00000e+00,2.51258e-13,2.18811e-01,2.38953e-13,2.18811e-01,4.05614e-14,2.18811e-01
7.75216e+02,7.23000e+02,7.28000e+02,-5.00000e+00,2.16346e-13,2.26356e-01,8.19898e-13,2.26356e-01,1.03005e-12,2.26356e-01
7.75466e+02,7.40000e+02,7.30000e+02,1.00000e+01,2.94012e-13,2.33901e-01,1.56719e-12,2.33901e-01,1.77360e-12,2.33901e-01
7.75717e+02,7.55000e+02,7.28000e+02,2.70000e+01,5.34077e-13,2.41446e-01,1.48309e-12,2.41446e-01,1.49625e-12,2.41446e-01
7.75967e+02,7.33000e+02,7.48000e+02,-1.50000e+01,6.99129e-13,2.48992e-01,1.45042e-12,2.48992e-01,8.08489e-13,2.48992e-01
7.76218e+02,7.49000e+02,7.64000e+02,-1.50000e+01,6.21600e-13,2.56537e-01,1.57042e-12,2.56537e-01,9.52640e-13,2.56537e-01
7.76468e+02,7.46000e+02,7.87000e+02,-4.10000e+01,4.05652e-13,2.64082e-01,1.53923e-12,2.64082e-01,1.13424e-12,2.64082e-01
7.76719e+02,7.49000e+02,7.69000e+02,-2.00000e+01,4.44100e-13,2.71627e-01,1.16400e-12,2.71627e-01,7.50864e-13,2.71627e-01
7.76969e+02,7.46000e+02,7.54000e+02,-8.00000e+00,1.20859e-13,2.79172e-01,7.47704e-13,2.79172e-01,6.32472e-13,2.79172e-01
7.77219e+02,7.59000e+02,7.83000e+02,-2.40000e+01,2.31413e-13,2.86718e-01,3.02848e-13,2.86718e-01,4.82914e-13,2.86718e-01
7.77470e+02,7.57000e+02,7.80000e+02,-2.30000e+01,4.09610e-13,2.94263e-01,7.28044e-13,2.94263e-01,4.95958e-13,2.94263e-01
7.77720e+02,7.35000e+02,8.18000e+02,-8.30000e+01,8.25127e-14,3.01808e-01,8.75040e-13,3.01808e-01,8.07268e-13,3.01808e-01
7.77971e+02,7.38000e+02,7.74000e+02,-3.60000e+01,1.10387e-13,3.09353e-01,6.57827e-13,3.09353e-01,5.74563e-13,3.09353e-01
7.78221e+02,7.82000e+02,7.80000e+02,2.00000e+00,1.55129e-13,3.16898e-01,4.18018e-13,3.16898e-01,2.91882e-13,3.16898e-01
7.78471e+02,7.79000e+02,7.77000e+02,2.00000e+00,1.55321e-13,3.24444e-01,4.12450e-13,3.24444e-01,3.57300e-13,3.24444e-01
7.78722e+02,7.64000e+02,7.70000e+02,-6.00000e+00,3.39589e-13,3.31989e-01,4.45375e-13,3.31989e-01,2.19377e-13,3.31989e-01
7.78972e+02,7.63000e+02,7.87000e+02,-2.40000e+01,7.61941e-13,3.39534e-01,3.83976e-13,3.39534e-01,3.84651e-13,3.39534e-01
7.79222e+02,7.78000e+02,8.11000e+02,-3.30000e+01,5.93980e-13,3.47079e-01,1.84083e-13,3.47079e-01,4.31642e-13,3.47079e-01
7.79473e+02,7.82000e+02,8.10000e+02,-2.80000e+01,3.11070e-13,3.54624e-01,2.64732e-13,3.54624e-01,4.94023e-13,3.54624e-01
7.79723e+02,8.01000e+02,7.96000e+02,5.00000e+00,5.85872e-13,3.62169e-01,9.10975e-13,3.62169e-01,3.41997e-13,3.62169e-01
7.79973e+02,8.00000e+02,7.95000e+02,5.00000e+00,4.54258e-13,3.69715e-01,8.85038e-13,3.69715e-01,5.08039e-13,3.69715e-01
7.80224e+02,8.10000e+02,8.37000e+02,-2.70000e+01,3.41860e-13,3.77260e-01,8.04637e-13,3.77260e-01,5.30619e-13,3.77260e-01
7.80474e+02,7.75000e+02,8.19000e+02,-4.40000e+01,3.14632e-13,3.84805e-01,1.58514e-13,3.84805e-01,3.44947e-13,3.84805e-01
7.80724e+02,7.97000e+02,8.04000e+02,-7.00000e+00,7.19509e-13,3.92350e-01,3.11530e-13,3.92350e-01,4.17066e-13,3.92350e-01
7.80974e+02,7.93000e+02,7.86000e+02,7.00000e+00,9.83955e-13,3.99895e-01,5.93543e-13,3.99895e-01,3.91527e-13,3.99895e-01
7.81225e+02,8.15000e+02,8.06000e+02,9.00000e+00,8.16091e-13,4.07441e-01,4.89476e-13,4.07441e-01,3.76782e-13,4.07441e-01
7.81475e+02,8.00000e+02,8.18000e+02,-1.80000e+01,8.11463e-13,4.14986e-01,3.40857e-13,4.14986e-01,5.23092e-13,4.14986e-01
7.81725e+02,7.94000e+02,8.28000e+02,-3.40000e+01,6.84747e-13,4.22531e-01,4.24766e-13,4.22531e-01,4.99233e-13,4.22531e-01
7.81975e+02,7.88000e+02,8.12000e+02,-2.40000e+01,1.80828e-13,4.30076e-01,1.35260e-12,4.30076e-01,1.53338e-12,4.30076e-01
7.82226e+02,8.03000e+02,8.12000e+02,-9.00000e+00,1.20720e-12,4.37621e-01,2.56490e-12,4.37621e-01,3.53082e-12,4.37621e-01
7.82476e+02,8.33000e+02,8.06000e+02,2.70000e+01,2.63503e-12,4.45167e-01,3.60424e-12,4.45167e-01,5.74275e-12,4.45167e-01
7.82726e+02,8.14000e+02,8.16000e+02,-2.00000e+00,3.49870e-12,4.52712e-01,4.01087e-12,4.52712e-01,6.94462e-12,4.52712e-01
7.82976e+02,7.96000e+02,8.48000e+02,-5.20000e+01,4.16039e-12,4.60257e-01,4.16163e-12,4.60257e-01,7.70512e-12,4.60257e-01
7.83226e+02,7.93000e+02,8.43000e+02,-5.00000e+01,4.35751e-12,4.67802e-01,4.14238e-12,4.67802e-01,8.02629e-12,4.67802e-01
7.83477e+02,8.42000e+02,8.07000e+02,3.50000e+01,3.90724e-12,4.75347e-01,2.99886e-12,4.75347e-01,6.67823e-12,4.75347e-01
7.83727e+02,8.54000e+02,8.09000e+02,4.50000e+01,2.64896e-12,4.82893e-01,1.03605e-12,4.82893e-01,3.54676e-12,4.82893e-01
7.83977e+02,8.45000e+02,8.28000e+02,1.70000e+01,9.88842e-13,4.90438e-01,7.29844e-13,4.90438e-01,5.87653e-13,4.90438e-01
7.84227e+02,8.62000e+02,8.57000e+02,5.00000e+00,4.46625e-13,4.97983e-01,4.18105e-13,4.97983e-01,6.77259e-13,4.97983e-01
7.84477e+02,8.26000e+02,8.69000e+02,-4.30000e+01,8.38874e-13,5.05528e-01,3.04075e-13,5.05528e-01,1.11040e-12,5.05528e-01
7.84727e+02,8.16000e+02,8.20000e+02,-4.00000e+00,8.28339e-13,5.13073e-01,6.30044e-13,5.13073e-01,1.29055e-12,5.13073e-01
7.84978e+02,8.91000e+02,8.58000e+02,3.30000e+01,7.92443e-13,5.20619e-01,5.24098e-13,5.20619e-01,1.22141e-12,5.20619e-01
7.85228e+02,9.17000e+02,8.44000e+02,7.30000e+01,7.73989e-13,5.28164e-01,4.49954e-13,5.28164e-01,1.18754e-12,5.28164e-01
7.85478e+02,8.66000e+02,8.57000e+02,9.00000e+00,4.81926e-13,5.35709e-01,2.66869e-13,5.35709e-01,7.47733e-13,5.35709e-01
7.85728e+02,8.27000e+02,8.62000e+02,-3.50000e+01,1.55695e-13,5.43254e-01,6.05997e-14,5.43254e-01,1.44477e-13,5.43254e-01
7.85978e+02,8.18000e+02,8.48000e+02,-3.00000e+01,2.45188e-13,5.50799e-01,2.20440e-13,5.50799e-01,4.63755e-13,5.50799e-01
7.86228e+02,8.37000e+02,8.57000e+02,-2.00000e+01,4.56046e-13,5.58345e-01,2.32350e-13,5.58345e-01,6.74517e-13,5.58345e-01
7.86478e+02,8.78000e+02,8.14000e+02,6.40000e+01,2.13784e-13,5.65890e-01,2.81521e-13,5.65890e-01,4.79981e-13,5.65890e-01
7.86728e+02,9.52000e+02,8.56000e+02,9.60000e+01,1.67887e-13,5.73435e-01,1.54173e-13,5.73435e-01,1.53783e-13,5.73435e-01
7.86978e+02,9.08000e+02,9.29000e+02,-2.10000e+01,2.48489e-13,5.80980e-01,2.06646e-13,5.80980e-01,3.29642e-13,5.80980e-01
7.87228e+02,8.88000e+02,9.89000e+02,-1.01000e+02,4.46044e-13,5.88525e-01,4.01727e-13,5.88525e-01,4.73105e-13,5.88525e-01
7.87478e+02,8.72000e+02,8.97000e+02,-2.50000e+01,3.14787e-13,5.96071e-01,6.14386e-13,5.96071e-01,6.58176e-13,5.96071e-01
7.87728e+02,9.18000e+02,8.75000e+02,4.30000e+01,2.55648e-13,6.03616e-01,4.90878e-13,6.03616e-01,3.60205e-13,6.03616e-01
7.87978e+02,1.01800e+03,8.85000e+02,1.33000e+02,2.27802e-13,6.11161e-01,9.50289e-14,6.11161e-01,1.88506e-13,6.11161e-01
7.88228e+02,9.76000e+02,9.42000e+02,3.40000e+01,7.65151e-14,6.18706e-01,5.89297e-13,6.18706e-01,6.19374e-13,6.18706e-01
7.88478e+02,1.00300e+03,9.98000e+02,5.00000e+00,1.36740e-13,6.26251e-01,6.86472e-13,6.26251e-01,5.72914e-13,6.26251e-01
7.88728e+02,9.81000e+02,9.98000e+02,-1.70000e+01,2.68764e-13,6.33797e-01,7.61071e-13,6.33797e-01,5.19645e-13,6.33797e-01
7.88978e+02,9.63000e+02,9.60000e+02,3.00000e+00,1.55910e-13,6.41342e-01,3.58188e-13,6.41342e-01,2.09986e-13,6.41342e-01
7.89228e+02,1.02900e+03,9.22000e+02,1.07000e+02,1.62159e-13,6.48887e-01,3.31120e-13,6.48887e-01,2.35045e-13,6.48887e-01
7.89478e+02,1.04600e+03,9.80000e+02,6.60000e+01,3.46578e-13,6.56432e-01,5.74803e-13,6.56432e-01,2.31655e-13,6.56432e-01
7.89728e+02,1.00500e+03,1.00900e+03,-4.00000e+00,3.70600e-13,6.63977e-01,3.69297e-13,6.63977e-01,1.71469e-13,6.63977e-01
7.89978e+02,9.70000e+02,1.04900e+03,-7.90000e+01,2.72118e-13,6.71523e-01,9.02998e-14,6.71523e-01,1.84498e-13,6.71523e-01
7.90228e+02,9.63000e+02,1.04900e+03,-8.60000e+01,2.88943e-13,6.79068e-01,1.71925e-13,6.79068e-01,1.73781e-13,6.79068e-01
7.90478e+02,1.06200e+03,9.79000e+02,8.30000e+01,5.10861e-13,6.86613e-01,3.15957e-13,6.86613e-01,2.26622e-13,6.86613e-01
7.90728e+02,1.20000e+03,9.87000e+02,2.13000e+02,4.35076e-13,6.94158e-01,2.34545e-13,6.94158e-01,2.25077e-13,6.94158e-01
7.90978e+02,1.17500e+03,1.02000e+03,1.55000e+02,4.12890e-13,7.01703e-01,3.17068e-13,7.01703e-01,2.25365e-13,7.01703e-01
7.91228e+02,1.10700e+03,1.12100e+03,-1.40000e+01,3.10377e-13,7.09249e-01,5.24216e-13,7.09249e-01,2.62984e-13,7.09249e-01
7.91478e+02,1.07000e+03,1.17400e+03,-1.04000e+02,2.38606e-13,7.16794e-01,3.31961e-13,7.16794e-01,1.67173e-13,7.16794e-01
7.91728e+02,1.10000e+03,1.13200e+03,-3.20000e+01,2.30193e-13,7.24339e-01,1.72017e-13,7.24339e-01,1.03023e-13,7.24339e-01
7.91977e+02,1.24800e+03,1.04400e+03,2.04000e+02,1.25770e-13,7.31884e-01,1.13813e-13,7.31884e-01,1.99874e-13,7.31884e-01
7.92227e+02,1.31000e+03,1.12800e+03,1.82000e+02,1.60882e-13,7.39429e-01,3.01134e-13,7.39429e-01,3.14332e-13,7.39429e-01
7.92477e+02,1.22700e+03,1.18500e+03,4.20000e+01,1.57096e-13,7.46975e-01,4.22788e-13,7.46975e-01,5.30169e-13,7.46975e-01
7.92727e+02,1.10200e+03,1.25900e+03,-1.57000e+02,1.21360e-13,7.54520e-01,5.13670e-13,7.54520e-01,4.69704e-13,7.54520e-01
7.92977e+02,1.08900e+03,1.20500e+03,-1.16000e+02,1.31190e-13,7.62065e-01,3.07353e-13,7.62065e-01,3.06082e-13,7.62065e-01
7.93227e+02,1.23300e+03,1.12500e+03,1.08000e+02,9.76947e-14,7.69610e-01,1.47514e-13,7.69610e-01,2.04940e-13,7.69610e-01
7.93476e+02,1.38500e+03,1.08500e+03,3.00000e+02,2.04183e-13,7.77155e-01,2.68360e-13,7.77155e-01,4.49443e-13,7.77155e-01
7.93726e+02,1.42900e+03,1.24500e+03,1.84000e+02,4.69201e-14,7.84701e-01,1.98543e-13,7.84701e-01,2.06768e-13,7.84701e-01
7.93976e+02,1.26800e+03,1.33500e+03,-6.70000e+01,1.43098e-13,7.92246e-01,1.54219e-13,7.92246e-01,2.21301e-13,7.92246e-01
7.94226e+02,1.23500e+03,1.38800e+03,-1.53000e+02,2.11386e-13,7.99791e-01,1.98466e-13,7.99791e-01,2.42749e-13,7.99791e-01
7.94476e+02,1.29100e+03,1.31200e+03,-2.10000e+01,4.04999e-13,8.07336e-01,2.59589e-13,8.07336e-01,4.57086e-13,8.07336e-01
7.94725e+02,1.41700e+03,1.27000e+03,1.47000e+02,4.32306e-13,8.14881e-01,1.00438e-13,8.14881e-01,5.21762e-13,8.14881e-01
7.94975e+02,1.43700e+03,1.30700e+03,1.30000e+02,2.53466e-13,8.22427e-01,2.55329e-13,8.22427e-01,5.07117e-13,8.22427e-01
7.95225e+02,1.36700e+03,1.49100e+03,-1.24000e+02,1.82516e-13,8.29972e-01,2.50353e-13,8.29972e-01,2.35372e-13,8.29972e-01
7.95475e+02,1.25300e+03,1.49000e+03,-2.37000e+02,2.23893e-13,8.37517e-01,2.67944e-13,8.37517e-01,1.73756e-13,8.37517e-01
7.95724e+02,1.30000e+03,1.38500e+03,-8.50000e+01,1.58447e-13,8.45062e-01,1.37663e-13,8.45062e-01,7.09979e-14,8.45062e-01
7.95974e+02,1.42500e+03,1.23000e+03,1.95000e+02,3.92347e-14,8.52607e-01,1.46266e-13,8.52607e-01,1.41614e-13,8.52607e-01
7.96224e+02,1.58000e+03,1.24900e+03,3.31000e+02,2.26242e-13,8.60153e-01,1.13741e-14,8.60153e-01,2.24702e-13,8.60153e-01
7.96474e+02,1.60300e+03,1.39400e+03,2.09000e+02,1.31011e-13,8.67698e-01,1.38290e-13,8.67698e-01,2.66525e-13,8.67698e-01
7.96723e+02,1.38200e+03,1.45100e+03,-6.90000e+01,2.30513e-13,8.75243e-01,1.04351e-13,8.75243e-01,2.98491e-13,8.75243e-01
7.96973e+02,1.28000e+03,1.50400e+03,-2.24000e+02,5.63556e-13,8.82788e-01,2.13136e-13,8.82788e-01,3.96886e-13,8.82788e-01
7.97223e+02,1.35600e+03,1.38400e+03,-2.80000e+01,5.03073e-13,8.90333e-01,1.41430e-13,8.90333e-01,3.96108e-13,8.90333e-01
7.97472e+02,1.54400e+03,1.31400e+03,2.30000e+02,3.74939e-13,8.97879e-01,1.40881e-13,8.97879e-01,3.23679e-13,8.97879e-01
7.97722e+02,1.56400e+03,1.35600e+03,2.08000e+02,6.36984e-14,9.05424e-01,2.87930e-13,9.05424e-01,2.62729e-13,9.05424e-01
7.97972e+02,1.60600e+03,1.52100e+03,8.50000e+01,2.21008e-13,9.12969e-01,2.14542e-13,9.12969e-01,2.23313e-13,9.12969e-01
7.98221e+02,1.45500e+03,1.70800e+03,-2.53000e+02,3.40114e-13,9.20514e-01,1.24651e-13,9.20514e-01,2.56218e-13,9.20514e-01
7.98471e+02,1.41400e+03,1.56400e+03,-1.50000e+02,2.65359e-13,9.28059e-01,4.60585e-14,9.28059e-01,2.25111e-13,9.28059e-01
7.98721e+02,1.50400e+03,1.38500e+03,1.19000e+02,1.27435e-13,9.35605e-01,2.38384e-13,9.35605e-01,2.55872e-13,9.35605e-01
7.98970e+02,1.67700e+03,1.39300e+03,2.84000e+02,1.80118e-13,9.43150e-01,3.16101e-13,9.43150e-01,3.21467e-13,9.43150e-01
7.99220e+02,1.70000e+03,1.55000e+03,1.50000e+02,7.45235e-14,9.50695e-01,3.36551e-13,9.50695e-01,3.79489e-13,9.50695e-01
7.99469e+02,1.54200e+03,1.65400e+03,-1.12000e+02,9.45406e-14,9.58240e-01,3.44713e-13,9.58240e-01,2.72240e-13,9.58240e-01
7.99719e+02,1.46600e+03,1.65300e+03,-1.87000e+02,4.01738e-14,9.65785e-01,2.69746e-13,9.65785e-01,2.48117e-13,9.65785e-01
7.99969e+02,1.49400e+03,1.54800e+03,-5.40000e+01,4.64244e-14,9.73331e-01,1.65216e-13,9.73331e-01,1.32699e-13,9.73331e-01
8.00218e+02,1.72400e+03,1.52200e+03,2.02000e+02,1.31161e-13,9.80876e-01,1.51956e-13,9.80876e-01,1.96071e-13,9.80876e-01
8.00468e+02,2.00600e+03,1.56800e+03,4.38000e+02,2.47073e-13,9.88421e-01,3.95145e-13,9.88421e-01,3.29244e-13,9.88421e-01
8.00717e+02,1.74700e+03,1.75100e+03,-4.00000e+00,2.60871e-13,9.95966e-01,3.69351e-13,9.95966e-01,2.65521e-13,9.95966e-01
8.00967e+02,1.55400e+03,1.84300e+03,-2.89000e+02,2.89567e-13,1.00351e+00,2.00285e-13,1.00351e+00,3.78165e-13,1.00351e+00
8.01216e+02,1.56500e+03,1.84900e+03,-2.84000e+02,3.00415e-13,1.01106e+00,1.93574e-13,1.01106e+00,4.84279e-13,1.01106e+00
8.01466e+02,1.76600e+03,1.66000e+03,1.06000e+02,3.64105e-13,1.01860e+00,9.11208e-14,1.01860e+00,3.70103e-13,1.01860e+00
8.01715e+02,2.21400e+03,1.67600e+03,5.38000e+02,2.20954e-13,1.02615e+00,2.36297e-13,1.02615e+00,2.57380e-13,1.02615e+00
8.01965e+02,2.25600e+03,1.82000e+03,4.36000e+02,1.54111e-13,1.03369e+00,2.83777e-13,1.03369e+00,1.30554e-13,1.03369e+00
8.02215e+02,1.93300e+03,2.03300e+03,-1.00000e+02,1.59238e-13,1.04124e+00,3.45040e-13,1.04124e+00,3.85110e-13,1.04124e+00
8.02464e+02,1.74500e+03,2.20500e+03,-4.60000e+02,2.76560e-13,1.04878e+00,3.60236e-13,1.04878e+00,5.37845e-13,1.04878e+00
8.02713e+02,1.87400e+03,1.95900e+03,-8.50000e+01,1.14277e-13,1.05633e+00,2.14005e-13,1.05633e+00,2.43347e-13,1.05633e+00
8.02963e+02,2.18100e+03,1.83300e+03,3.48000e+02,2.07119e-13,1.06387e+00,1.78137e-13,1.06387e+00,8.49518e-14,1.06387e+00
8.03212e+02,2.30100e+03,2.08400e+03,2.17000e+02,2.45170e-13,1.07142e+00,1.55844e-13,1.07142e+00,1.80619e-13,1.07142e+00
8.03462e+02,2.29800e+03,2.51100e+03,-2.13000e+02,2.12100e-13,1.07896e+00,2.67062e-13,1.07896e+00,5.56587e-14,1.07896e+00
8.03711e+02,2.06800e+03,2.58800e+03,-5.20000e+02,1.28791e-13,1.08651e+00,2.40931e-13,1.08651e+00,1.17069e-13,1.08651e+00
8.03961e+02,1.99400e+03,2.27800e+03,-2.84000e+02,5.35735e-14,1.09405e+00,1.25034e-13,1.09405e+00,1.19675e-13,1.09405e+00
8.04210e+02,2.32600e+03,2.09000e+03,2.36000e+02,7.88082e-14,1.10160e+00,1.51043e-13,1.10160e+00,1.07878e-13,1.10160e+00
8.04460e+02,2.52100e+03,1.99100e+03,5.30000e+02,8.95299e-14,1.10914e+00,1.65622e-13,1.10914e+00,2.12071e-13,1.10914e+00
8.04709e+02,2.36500e+03,2.13300e+03,2.32000e+02,1.22849e-13,1.11669e+00,1.09374e-13,1.11669e+00,1.61131e-13,1.11669e+00
8.04958e+02,2.24100e+03,2.30000e+03,-5.90000e+01,1.32717e-13,1.12423e+00,1.08207e-13,1.12423e+00,8.26038e-14,1.12423e+00
8.05208e+02,2.03800e+03,2.31000e+03,-2.72000e+02,7.04025e-14,1.13178e+00,2.51516e-13,1.13178e+00,1.82428e-13,1.13178e+00
8.05457e+02,2.28000e+03,2.19000e+03,9.00000e+01,6.69955e-14,1.13932e+00,1.47404e-13,1.13932e+00,1.56123e-13,1.13932e+00
8.05707e+02,2.61300e+03,2.17100e+03,4.42000e+02,8.62544e-14,1.14687e+00,1.16856e-13,1.14687e+00,1.90156e-13,1.14687e+00
8.05956e+02,2.58100e+03,2.12300e+03,4.58000e+02,6.90079e-14,1.15442e+00,1.23981e-13,1.15442e+00,1.29136e-13,1.15442e+00
8.06205e+02,2.53000e+03,2.27300e+03,2.57000e+02,1.89908e-13,1.16196e+00,1.74054e-13,1.16196e+00,7.54188e-14,1.16196e+00
8.06455e+02,2.33800e+03,2.50900e+03,-1.71000e+02,1.48664e-13,1.16951e+00,1.38171e-13,1.16951e+00,1.01610e-13,1.16951e+00
8.06704e+02,2.27100e+03,2.46900e+03,-1.98000e+02,2.28200e-13,1.17705e+00,3.34116e-13,1.17705e+00,1.28484e-13,1.17705e+00
8.06953e+02,2.69100e+03,2.40100e+03,2.90000e+02,2.05208e-13,1.18460e+00,1.92460e-13,1.18460e+00,4.06800e-14,1.18460e+00
8.07203e+02,3.14200e+03,2.38200e+03,7.60000e+02,5.94771e-14,1.19214e+00,1.00158e-13,1.19214e+00,7.47355e-14,1.19214e+00
8.07452e+02,3.32000e+03,2.64000e+03,6.80000e+02,1.35095e-13,1.19969e+00,6.00331e-14,1.19969e+00,1.85934e-13,1.19969e+00
8.07701e+02,3.03000e+03,2.91700e+03,1.13000e+02,1.07051e-13,1.20723e+00,1.29558e-13,1.20723e+00,6.21828e-14,1.20723e+00
8.07951e+02,2.58200e+03,2.80600e+03,-2.24000e+02,1.54741e-13,1.21478e+00,1.96216e-13,1.21478e+00,6.89642e-14,1.21478e+00
8.08200e+02,2.41700e+03,2.58400e+03,-1.67000e+02,8.79151e-14,1.22232e+00,1.91677e-13,1.22232e+00,2.13487e-13,1.22232e+00
8.08449e+02,2.69900e+03,2.43500e+03,2.64000e+02,1.46315e-13,1.22987e+00,7.17975e-14,1.22987e+00,1.30407e-13,1.22987e+00
8.08698e+02,3.05800e+03,2.26000e+03,7.98000e+02,2.69813e-13,1.23741e+00,1.89202e-13,1.23741e+00,9.49571e-14,1.23741e+00
8.08948e+02,3.01800e+03,2.63300e+03,3.85000e+02,2.15873e-13,1.24496e+00,9.50570e-14,1.24496e+00,1.23249e-13,1.24496e+00
8.09197e+02,2.73300e+03,2.97000e+03,-2.37000e+02,8.19072e-14,1.25250e+00,1.45239e-14,1.25250e+00,8.90819e-14,1.25250e+00
8.09446e+02,2.40600e+03,2.79900e+03,-3.93000e+02,1.31311e-13,1.26005e+00,9.93682e-14,1.26005e+00,1.75814e-13,1.26005e+00
8.09695e+02,2.34800e+03,2.61700e+03,-2.69000e+02,8.08434e-14,1.26759e+00,1.41754e-13,1.26759e+00,1.12799e-13,1.26759e+00
8.09945e+02,2.76500e+03,2.40900e+03,3.56000e+02,1.49651e-14,1.27514e+00,1.72316e-13,1.27514e+00,1.68985e-13,1.27514e+00
8.10194e+02,3.32100e+03,2.51900e+03,8.02000e+02,1.45191e-13,1.28268e+00,2.46824e-13,1.28268e+00,1.16032e-13,1.28268e+00
8.10443e+02,3.05200e+03,2.77700e+03,2.75000e+02,6.90636e-14,1.29023e+00,1.41583e-13,1.29023e+00,1.33435e-13,1.29023e+00
8.10692e+02,2.75000e+03,3.00100e+03,-2.51000e+02,1.62651e-13,1.29777e+00,1.56253e-13,1.29777e+00,2.71400e-13,1.29777e+00
8.10941e+02,2.49700e+03,2.92300e+03,-4.26000e+02,9.37465e-14,1.30532e+00,1.88464e-13,1.30532e+00,2.77837e-13,1.30532e+00
8.11191e+02,2.52600e+03,2.62800e+03,-1.02000e+02,1.05265e-13,1.31286e+00,1.97926e-13,1.31286e+00,3.03180e-13,1.31286e+00
8.11440e+02,3.01100e+03,2.27200e+03,7.39000e+02,1.29851e-13,-1.32041e+00,3.56548e-14,-1.32041e+00,9.41965e-14,-1.32041e+00
8.11689e+02,3.24600e+03,2.40600e+03,8.40000e+02,1.05265e-13,-1.31286e+00,1.97926e-13,-1.31286e+00,3.03180e-13,-1.31286e+00
8.11938e+02,3.07900e+03,3.09200e+03,-1.30000e+01,9.37465e-14,-1.30532e+00,1.88464e-13,-1.30532e+00,2.77837e-13,-1.30532e+00
8.12187e+02,2.75600e+03,3.56600e+03,-8.10000e+02,1.62651e-13,-1.29777e+00,1.56253e-13,-1.29777e+00,2.71400e-13,-1.29777e+00
8.12436e+02,2.42400e+03,3.20100e+03,-7.77000e+02,6.90636e-14,-1.29023e+00,1.41583e-13,-1.29023e+00,1.33435e-13,-1.29023e+00
8.12685e+02,2.70100e+03,2.79700e+03,-9.60000e+01,1.45191e-13,-1.28268e+00,2.46824e-13,-1.28268e+00,1.16032e-13,-1.28268e+00
8.12935e+02,3.23700e+03,2.60000e+03,6.37000e+02,1.49651e-14,-1.27514e+00,1.72316e-13,-1.27514e+00,1.68985e-13,-1.27514e+00
8.13184e+02,3.31300e+03,2.72900e+03,5.84000e+02,8.08434e-14,-1.26759e+00,1.41754e-13,-1.26759e+00,1.12799e-13,-1.26759e+00
8.13433e+02,2.91000e+03,2.98600e+03,-7.60000e+01,1.31311e-13,-1.26005e+00,9.93682e-14,-1.26005e+00,1.75814e-13,-1.26005e+00
8.13682e+02,2.47800e+03,3.09800e+03,-6.20000e+02,8.19072e-14,-1.25250e+00,1.45239e-14,-1.25250e+00,8.90819e-14,-1.25250e+00
8.13931e+02,2.54000e+03,2.96600e+03,-4.26000e+02,2.15873e-13,-1.24496e+00,9.50570e-14,-1.24496e+00,1.23249e-13,-1.24496e+00
8.14180e+02,2.89400e+03,2.53900e+03,3.55000e+02,2.69813e-13,-1.23741e+00,1.89202e-13,-1.23741e+00,9.49571e-14,-1.23741e+00
8.14429e+02,3.19400e+03,2.61300e+03,5.81000e+02,1.46315e-13,-1.22987e+00,7.17975e-14,-1.22987e+00,1.30407e-13,-1.22987e+00
8.14678e+02,3.08000e+03,3.14200e+03,-6.20000e+01,8.79151e-14,-1.22232e+00,1.91677e-13,-1.22232e+00,2.13487e-13,-1.22232e+00
8.14927e+02,2.69200e+03,3.53600e+03,-8.44000e+02,1.54741e-13,-1.21478e+00,1.96216e-13,-1.21478e+00,6.89642e-14,-1.21478e+00
8.15176e+02,2.56200e+03,3.64900e+03,-1.08700e+03,1.07051e-13,-1.20723e+00,1.29558e-13,-1.20723e+00,6.21828e-14,-1.20723e+00
8.15425e+02,2.74000e+03,3.20500e+03,-4.65000e+02,1.35095e-13,-1.19969e+00,6.00331e-14,-1.19969e+00,1.85934e-13,-1.19969e+00
8.15674e+02,3.21200e+03,2.72100e+03,4.91000e+02,5.94771e-14,-1.19214e+00,1.00158e-13,-1.19214e+00,7.47355e-14,-1.19214e+00
8.15923e+02,3.32800e+03,2.69700e+03,6.31000e+02,2.05208e-13,-1.18460e+00,1.92460e-13,-1.18460e+00,4.06800e-14,-1.18460e+00
8.16172e+02,2.94100e+03,3.06300e+03,-1.22000e+02,2.28200e-13,-1.17705e+00,3.34116e-13,-1.17705e+00,1.28484e-13,-1.17705e+00
8.16421e+02,2.71100e+03,3.55100e+03,-8.40000e+02,1.48664e-13,-1.16951e+00,1.38171e-13,-1.16951e+00,1.01610e-13,-1.16951e+00
8.16670e+02,2.86900e+03,3.39300e+03,-5.24000e+02,1.89908e-13,-1.16196e+00,1.74054e-13,-1.16196e+00,7.54188e-14,-1.16196e+00
8.16919e+02,3.11700e+03,3.10200e+03,1.50000e+01,6.90079e-14,-1.15442e+00,1.23981e-13,-1.15442e+00,1.29136e-13,-1.15442e+00
8.17168e+02,3.38500e+03,2.80500e+03,5.80000e+02,8.62544e-14,-1.14687e+00,1.16856e-13,-1.14687e+00,1.90156e-13,-1.14687e+00
8.17417e+02,3.42400e+03,2.98200e+03,4.42000e+02,6.69955e-14,-1.13932e+00,1.47404e-13,-1.13932e+00,1.56123e-13,-1.13932e+00
8.17666e+02,3.09800e+03,3.30500e+03,-2.07000e+02,7.04025e-14,-1.13178e+00,2.51516e-13,-1.13178e+00,1.82428e-13,-1.13178e+00
8.17915e+02,2.66100e+03,3.39600e+03,-7.35000e+02,1.32717e-13,-1.12423e+00,1.08207e-13,-1.12423e+00,8.26038e-14,-1.12423e+00
8.18164e+02,2.83300e+03,3.19600e+03,-3.63000e+02,1.22849e-13,-1.11669e+00,1.09374e-13,-1.11669e+00,1.61131e-13,-1.11669e+00
8.18413e+02,2.96900e+03,2.73600e+03,2.33000e+02,8.95299e-14,-1.10914e+00,1.65622e-13,-1.10914e+00,2.12071e-13,-1.10914e+00
8.18662e+02,3.14200e+03,2.36000e+03,7.82000e+02,7.88082e-14,-1.10160e+00,1.51043e-13,-1.10160e+00,1.07878e-13,-1.10160e+00
8.18911e+02,2.99300e+03,2.58000e+03,4.13000e+02,5.35735e-14,-1.09405e+00,1.25034e-13,-1.09405e+00,1.19675e-13,-1.09405e+00
8.19160e+02,2.82000e+03,2.98800e+03,-1.68000e+02,1.28791e-13,-1.08651e+00,2.40931e-13,-1.08651e+00,1.17069e-13,-1.08651e+00
8.19408e+02,2.71300e+03,3.29200e+03,-5.79000e+02,2.12100e-13,-1.07896e+00,2.67062e-13,-1.07896e+00,5.56587e-14,-1.07896e+00
8.19657e+02,2.88400e+03,3.29200e+03,-4.08000e+02,2.45170e-13,-1.07142e+00,1.55844e-13,-1.07142e+00,1.80619e-13,-1.07142e+00
8.19906e+02,3.15500e+03,2.96300e+03,1.92000e+02,2.07119e-13,-1.06387e+00,1.78137e-13,-1.06387e+00,8.49518e-14,-1.06387e+00
8.20155e+02,3.31800e+03,3.03600e+03,2.82000e+02,1.14277e-13,-1.05633e+00,2.14005e-13,-1.05633e+00,2.43347e-13,-1.05633e+00
8.20404e+02,3.34000e+03,3.17300e+03,1.67000e+02,2.76560e-13,-1.04878e+00,3.60236e-13,-1.04878e+00,5.37845e-13,-1.04878e+00
8.20653e+02,3.22100e+03,3.20100e+03,2.00000e+01,1.59238e-13,-1.04124e+00,3.45040e-13,-1.04124e+00,3.85110e-13,-1.04124e+00
8.20901e+02,3.01900e+03,3.46500e+03,-4.46000e+02,1.54111e-13,-1.03369e+00,2.83777e-13,-1.03369e+00,1.30554e-13,-1.03369e+00
8.21150e+02,2.89200e+03,3.03400e+03,-1.42000e+02,2.20954e-13,-1.02615e+00,2.36297e-13,-1.02615e+00,2.57380e-13,-1.02615e+00
8.21399e+02,3.16500e+03,2.88200e+03,2.83000e+02,3.64105e-13,-1.01860e+00,9.11208e-14,-1.01860e+00,3.70103e-13,-1.01860e+00
8.21648e+02,3.03300e+03,2.49800e+03,5.35000e+02,3.00415e-13,-1.01106e+00,1.93574e-13,-1.01106e+00,4.84279e-13,-1.01106e+00
8.21897e+02,2.90800e+03,2.53400e+03,3.74000e+02,2.89567e-13,-1.00351e+00,2.00285e-13,-1.00351e+00,3.78165e-13,-1.00351e+00
8.22145e+02,2.66000e+03,2.90000e+03,-2.40000e+02,2.60871e-13,-9.95966e-01,3.69351e-13,-9.95966e-01,2.65521e-13,-9.95966e-01
8.22394e+02,2.42700e+03,3.05600e+03,-6.29000e+02,2.47073e-13,-9.88421e-01,3.95145e-13,-9.88421e-01,3.29244e-13,-9.88421e-01
8.22643e+02,2.34000e+03,2.74400e+03,-4.04000e+02,1.31161e-13,-9.80876e-01,1.51956e-13,-9.80876e-01,1.96071e-13,-9.80876e-01
8.22892e+02,2.49900e+03,2.49000e+03,9.00000e+00,4.64244e-14,-9.73331e-01,1.65216e-13,-9.73331e-01,1.32699e-13,-9.73331e-01
8.23140e+02,2.75600e+03,2.46800e+03,2.88000e+02,4.01738e-14,-9.65785e-01,2.69746e-13,-9.65785e-01,2.48117e-13,-9.65785e-01
8.23389e+02,2.68300e+03,2.75000e+03,-6.70000e+01,9.45406e-14,-9.58240e-01,3.44713e-13,-9.58240e-01,2.72240e-13,-9.58240e-01
8.23638e+02,2.41500e+03,2.79000e+03,-3.75000e+02,7.45235e-14,-9.50695e-01,3.36551e-13,-9.50695e-01,3.79489e-13,-9.50695e-01
8.23887e+02,2.17000e+03,2.38700e+03,-2.17000e+02,1.80118e-13,-9.43150e-01,3.16101e-13,-9.43150e-01,3.21467e-13,-9.43150e-01
8.24135e+02,2.28600e+03,2.19300e+03,9.30000e+01,1.27435e-13,-9.35605e-01,2.38384e-13,-9.35605e-01,2.55872e-13,-9.35605e-01
8.24384e+02,2.47300e+03,2.15600e+03,3.17000e+02,2.65359e-13,-9.28059e-01,4.60585e-14,-9.28059e-01,2.25111e-13,-9.28059e-01
8.24633e+02,2.51500e+03,2.20500e+03,3.10000e+02,3.40114e-13,-9.20514e-01,1.24651e-13,-9.20514e-01,2.56218e-13,-9.20514e-01
8.24881e+02,2.45500e+03,2.51700e+03,-6.20000e+01,2.21008e-13,-9.12969e-01,2.14542e-13,-9.12969e-01,2.23313e-13,-9.12969e-01
8.25130e+02,2.27700e+03,2.75400e+03,-4.77000e+02,6.36984e-14,-9.05424e-01,2.87930e-13,-9.05424e-01,2.62729e-13,-9.05424e-01
8.25379e+02,2.16400e+03,2.76800e+03,-6.04000e+02,3.74939e-13,-8.97879e-01,1.40881e-13,-8.97879e-01,3.23679e-13,-8.97879e-01
8.25627e+02,2.11200e+03,2.50000e+03,-3.88000e+02,5.03073e-13,-8.90333e-01,1.41430e-13,-8.90333e-01,3.96108e-13,-8.90333e-01
8.25876e+02,1.90900e+03,2.08400e+03,-1.75000e+02,5.63556e-13,-8.82788e-01,2.13136e-13,-8.82788e-01,3.96886e-13,-8.82788e-01
8.26125e+02,1.99700e+03,2.03400e+03,-3.70000e+01,2.30513e-13,-8.75243e-01,1.04351e-13,-8.75243e-01,2.98491e-13,-8.75243e-01
8.26373e+02,2.07300e+03,2.11300e+03,-4.00000e+01,1.31011e-13,-8.67698e-01,1.38290e-13,-8.67698e-01,2.66525e-13,-8.67698e-01
8.26622e+02,1.77900e+03,2.11400e+03,-3.35000e+02,2.26242e-13,-8.60153e-01,1.13741e-14,-8.60153e-01,2.24702e-13,-8.60153e-01
8.26870e+02,1.65900e+03,2.02300e+03,-3.64000e+02,3.92347e-14,-8.52607e-01,1.46266e-13,-8.52607e-01,1.41614e-13,-8.52607e-01
8.27119e+02,1.79600e+03,1.89400e+03,-9.80000e+01,1.58447e-13,-8.45062e-01,1.37663e-13,-8.45062e-01,7.09979e-14,-8.45062e-01
8.27368e+02,1.92300e+03,1.69800e+03,2.25000e+02,2.23893e-13,-8.37517e-01,2.67944e-13,-8.37517e-01,1.73756e-13,-8.37517e-01
8.27616e+02,1.95100e+03,1.73500e+03,2.16000e+02,1.82516e-13,-8.29972e-01,2.50353e-13,-8.29972e-01,2.35372e-13,-8.29972e-01
8.27865e+02,1.84800e+03,1.82400e+03,2.40000e+01,2.53466e-13,-8.22427e-01,2.55329e-13,-8.22427e-01,5.07117e-13,-8.22427e-01
8.28113e+02,1.78900e+03,1.74100e+03,4.80000e+01,4.32306e-13,-8.14881e-01,1.00438e-13,-8.14881e-01,5.21762e-13,-8.14881e-01
8.28362e+02,1.67400e+03,1.72900e+03,-5.50000e+01,4.04999e-13,-8.07336e-01,2.59589e-13,-8.07336e-01,4.57086e-13,-8.07336e-01
8.28610e+02,1.75700e+03,1.83200e+03,-7.50000e+01,2.11386e-13,-7.99791e-01,1.98466e-13,-7.99791e-01,2.42749e-13,-7.99791e-01
8.28859e+02,1.71300e+03,1.67600e+03,3.70000e+01,1.43098e-13,-7.92246e-01,1.54219e-13,-7.92246e-01,2.21301e-13,-7.92246e-01
8.29108e+02,1.70100e+03,1.56700e+03,1.34000e+02,4.69201e-14,-7.84701e-01,1.98543e-13,-7.84701e-01,2.06768e-13,-7.84701e-01
8.29356e+02,1.64200e+03,1.58800e+03,5.40000e+01,2.04183e-13,-7.77155e-01,2.68360e-13,-7.77155e-01,4.49443e-13,-7.77155e-01
8.29605e+02,1.43300e+03,1.67600e+03,-2.43000e+02,9.76947e-14,-7.69610e-01,1.47514e-13,-7.69610e-01,2.04940e-13,-7.69610e-01
8.29853e+02,1.37200e+03,1.61500e+03,-2.43000e+02,1.31190e-13,-7.62065e-01,3.07353e-13,-7.62065e-01,3.06082e-13,-7.62065e-01
8.30101e+02,1.43600e+03,1.48800e+03,-5.20000e+01,1.21360e-13,-7.54520e-01,5.13670e-13,-7.54520e-01,4.69704e-13,-7.54520e-01
8.30350e+02,1.40000e+03,1.42800e+03,-2.80000e+01,1.57096e-13,-7.46975e-01,4.22788e-13,-7.46975e-01,5.30169e-13,-7.46975e-01
8.30598e+02,1.34200e+03,1.26700e+03,7.50000e+01,1.60882e-13,-7.39429e-01,3.01134e-13,-7.39429e-01,3.14332e-13,-7.39429e-01
8.30847e+02,1.29700e+03,1.23600e+03,6.10000e+01,1.25770e-13,-7.31884e-01,1.13813e-13,-7.31884e-01,1.99874e-13,-7.31884e-01
8.31095e+02,1.16600e+03,1.27300e+03,-1.07000e+02,2.30193e-13,-7.24339e-01,1.72017e-13,-7.24339e-01,1.03023e-13,-7.24339e-01
8.31344e+02,1.11800e+03,1.30600e+03,-1.88000e+02,2.38606e-13,-7.16794e-01,3.31961e-13,-7.16794e-01,1.67173e-13,-7.16794e-01
8.31592e+02,1.11900e+03,1.22600e+03,-1.07000e+02,3.10377e-13,-7.09249e-01,5.24216e-13,-7.09249e-01,2.62984e-13,-7.09249e-01
8.31841e+02,1.19000e+03,1.10900e+03,8.10000e+01,4.12890e-13,-7.01703e-01,3.17068e-13,-7.01703e-01,2.25365e-13,-7.01703e-01
8.32089e+02,1.21600e+03,1.16400e+03,5.20000e+01,4.35076e-13,-6.94158e-01,2.34545e-13,-6.94158e-01,2.25077e-13,-6.94158e-01
8.32337e+02,1.11100e+03,1.12800e+03,-1.70000e+01,5.10861e-13,-6.86613e-01,3.15957e-13,-6.86613e-01,2.26622e-13,-6.86613e-01
8.32586e+02,1.04300e+03,1.08900e+03,-4.60000e+01,2.88943e-13,-6.79068e-01,1.71925e-13,-6.79068e-01,1.73781e-13,-6.79068e-01
8.32834e+02,1.01800e+03,1.10600e+03,-8.80000e+01,2.72118e-13,-6.71523e-01,9.02998e-14,-6.71523e-01,1.84498e-13,-6.71523e-01
8.33083e+02,1.01300e+03,1.06200e+03,-4.90000e+01,3.70600e-13,-6.63977e-01,3.69297e-13,-6.63977e-01,1.71469e-13,-6.63977e-01
8.33331e+02,1.00800e+03,9.57000e+02,5.10000e+01,3.46578e-13,-6.56432e-01,5.74803e-13,-6.56432e-01,2.31655e-13,-6.56432e-01
8.33579e+02,9.93000e+02,9.41000e+02,5.20000e+01,1.62159e-13,-6.48887e-01,3.31120e-13,-6.48887e-01,2.35045e-13,-6.48887e-01
8.33828e+02,9.51000e+02,9.93000e+02,-4.20000e+01,1.55910e-13,-6.41342e-01,3.58188e-13,-6.41342e-01,2.09986e-13,-6.41342e-01
8.34076e+02,9.29000e+02,1.01900e+03,-9.00000e+01,2.68764e-13,-6.33797e-01,7.61071e-13,-6.33797e-01,5.19645e-13,-6.33797e-01
8.34324e+02,9.13000e+02,1.01700e+03,-1.04000e+02,1.36740e-13,-6.26251e-01,6.86472e-13,-6.26251e-01,5.72914e-13,-6.26251e-01
8.34573e+02,9.02000e+02,9.51000e+02,-4.90000e+01,7.65151e-14,-6.18706e-01,5.89297e-13,-6.18706e-01,6.19374e-13,-6.18706e-01
8.34821e+02,9.16000e+02,9.05000e+02,1.10000e+01,2.27802e-13,-6.11161e-01,9.50289e-14,-6.11161e-01,1.88506e-13,-6.11161e-01
8.35069e+02,9.18000e+02,8.60000e+02,5.80000e+01,2.55648e-13,-6.03616e-01,4.90878e-13,-6.03616e-01,3.60205e-13,-6.03616e-01
8.35318e+02,8.84000e+02,8.65000e+02,1.90000e+01,3.14787e-13,-5.96071e-01,6.14386e-13,-5.96071e-01,6.58176e-13,-5.96071e-01
8.35566e+02,8.31000e+02,8.85000e+02,-5.40000e+01,4.46044e-13,-5.88525e-01,4.01727e-13,-5.88525e-01,4.73105e-13,-5.88525e-01
8.35814e+02,8.08000e+02,8.78000e+02,-7.00000e+01,2.48489e-13,-5.80980e-01,2.06646e-13,-5.80980e-01,3.29642e-13,-5.80980e-01
8.36062e+02,8.26000e+02,8.43000e+02,-1.70000e+01,1.67887e-13,-5.73435e-01,1.54173e-13,-5.73435e-01,1.53783e-13,-5.73435e-01
8.36311e+02,8.03000e+02,7.90000e+02,1.30000e+01,2.13784e-13,-5.65890e-01,2.81521e-13,-5.65890e-01,4.79981e-13,-5.65890e-01
8.36559e+02,8.04000e+02,7.47000e+02,5.70000e+01,4.56046e-13,-5.58345e-01,2.32350e-13,-5.58345e-01,6.74517e-13,-5.58345e-01
8.36807e+02,8.01000e+02,7.75000e+02,2.60000e+01,2.45188e-13,-5.50799e-01,2.20440e-13,-5.50799e-01,4.63755e-13,-5.50799e-01
8.37055e+02,7.88000e+02,7.96000e+02,-8.00000e+00,1.55695e-13,-5.43254e-01,6.05997e-14,-5.43254e-01,1.44477e-13,-5.43254e-01
8.37304e+02,7.32000e+02,7.90000e+02,-5.80000e+01,4.81926e-13,-5.35709e-01,2.66869e-13,-5.35709e-01,7.47733e-13,-5.35709e-01
8.37552e+02,7.52000e+02,7.72000e+02,-2.00000e+01,7.73989e-13,-5.28164e-01,4.49954e-13,-5.28164e-01,1.18754e-12,-5.28164e-01
8.37800e+02,7.59000e+02,7.48000e+02,1.10000e+01,7.92443e-13,-5.20619e-01,5.24098e-13,-5.20619e-01,1.22141e-12,-5.20619e-01
8.38048e+02,7.78000e+02,7.45000e+02,3.30000e+01,8.28339e-13,-5.13073e-01,6.30044e-13,-5.13073e-01,1.29055e-12,-5.13073e-01
8.38296e+02,7.69000e+02,7.57000e+02,1.20000e+01,8.38874e-13,-5.05528e-01,3.04075e-13,-5.05528e-01,1.11040e-12,-5.05528e-01
8.38545e+02,7.52000e+02,7.50000e+02,2.00000e+00,4.46625e-13,-4.97983e-01,4.18105e-13,-4.97983e-01,6.77259e-13,-4.97983e-01
8.38793e+02,7.44000e+02,7.51000e+02,-7.00000e+00,9.88842e-13,-4.90438e-01,7.29844e-13,-4.90438e-01,5.87653e-13,-4.90438e-01
8.39041e+02,7.18000e+02,7.26000e+02,-8.00000e+00,2.64896e-12,-4.82893e-01,1.03605e-12,-4.82893e-01,3.54676e-12,-4.82893e-01
8.39289e+02,7.39000e+02,7.17000e+02,2.20000e+01,3.90724e-12,-4.75347e-01,2.99886e-12,-4.75347e-01,6.67823e-12,-4.75347e-01
8.39537e+02,7.41000e+02,7.07000e+02,3.40000e+01,4.35751e-12,-4.67802e-01,4.14238e-12,-4.67802e-01,8.02629e-12,-4.67802e-01
8.39785e+02,7.04000e+02,7.15000e+02,-1.10000e+01,4.16039e-12,-4.60257e-01,4.16163e-12,-4.60257e-01,7.70512e-12,-4.60257e-01
8.40033e+02,7.07000e+02,7.30000e+02,-2.30000e+01,3.49870e-12,-4.52712e-01,4.01087e-12,-4.52712e-01,6.94462e-12,-4.52712e-01
8.40281e+02,7.11000e+02,7.18000e+02,-7.00000e+00,2.63503e-12,-4.45167e-01,3.60424e-12,-4.45167e-01,5.74275e-12,-4.45167e-01
8.40530e+02,7.12000e+02,7.04000e+02,8.00000e+00,1.20720e-12,-4.37621e-01,2.56490e-12,-4.37621e-01,3.53082e-12,-4.37621e-01
8.40778e+02,7.17000e+02,7.05000e+02,1.20000e+01,1.80828e-13,-4.30076e-01,1.35260e-12,-4.30076e-01,1.53338e-12,-4.30076e-01
8.41026e+02,7.22000e+02,7.00000e+02,2.20000e+01,6.84747e-13,-4.22531e-01,4.24766e-13,-4.22531e-01,4.99233e-13,-4.22531e-01
8.41274e+02,7.03000e+02,6.90000e+02,1.30000e+01,8.11463e-13,-4.14986e-01,3.40857e-13,-4.14986e-01,5.23092e-13,-4.14986e-01
8.41522e+02,7.00000e+02,7.08000e+02,-8.00000e+00,8.16091e-13,-4.07441e-01,4.89476e-13,-4.07441e-01,3.76782e-13,-4.07441e-01
8.41770e+02,6.89000e+02,7.09000e+02,-2.00000e+01,9.83955e-13,-3.99895e-01,5.93543e-13,-3.99895e-01,3.91527e-13,-3.99895e-01
8.42018e+02,7.07000e+02,7.01000e+02,6.00000e+00,7.19509e-13,-3.92350e-01,3.11530e-13,-3.92350e-01,4.17066e-13,-3.92350e-01
8.42266e+02,6.84000e+02,6.81000e+02,3.00000e+00,3.14632e-13,-3.84805e-01,1.58514e-13,-3.84805e-01,3.44947e-13,-3.84805e-01
8.42514e+02,6.75000e+02,6.84000e+02,-9.00000e+00,3.41860e-13,-3.77260e-01,8.04637e-13,-3.77260e-01,5.30619e-13,-3.77260e-01
8.42762e+02,6.76000e+02,6.79000e+02,-3.00000e+00,4.54258e-13,-3.69715e-01,8.85038e-13,-3.69715e-01,5.08039e-13,-3.69715e-01
8.43010e+02,6.95000e+02,7.03000e+02,-8.00000e+00,5.85872e-13,-3.62169e-01,9.10975e-13,-3.62169e-01,3.41997e-13,-3.62169e-01
8.43258e+02,6.70000e+02,6.90000e+02,-2.00000e+01,3.11070e-13,-3.54624e-01,2.64732e-13,-3.54624e-01,4.94023e-13,-3.54624e-01
8.43506e+02,6.89000e+02,6.88000e+02,1.00000e+00,5.93980e-13,-3.47079e-01,1.84083e-13,-3.47079e-01,4.31642e-13,-3.47079e-01
8.43754e+02,6.80000e+02,6.86000e+02,-6.00000e+00,7.61941e-13,-3.39534e-01,3.83976e-13,-3.39534e-01,3.84651e-13,-3.39534e-01
8.44002e+02,6.85000e+02,6.72000e+02,1.30000e+01,3.39589e-13,-3.31989e-01,4.45375e-13,-3.31989e-01,2.19377e-13,-3.31989e-01
8.44250e+02,6.82000e+02,6.76000e+02,6.00000e+00,1.55321e-13,-3.24444e-01,4.12450e-13,-3.24444e-01,3.57300e-13,-3.24444e-01
8.44498e+02,6.89000e+02,6.75000e+02,1.40000e+01,1.55129e-13,-3.16898e-01,4.18018e-13,-3.16898e-01,2.91882e-13,-3.16898e-01
8.44746e+02,6.76000e+02,6.82000e+02,-6.00000e+00,1.10387e-13,-3.09353e-01,6.57827e-13,-3.09353e-01,5.74563e-13,-3.09353e-01
8.44994e+02,6.72000e+02,6.83000e+02,-1.10000e+01,8.25127e-14,-3.01808e-01,8.75040e-13,-3.01808e-01,8.07268e-13,-3.01808e-01
8.45242e+02,6.72000e+02,6.84000e+02,-1.20000e+01,4.09610e-13,-2.94263e-01,7.28044e-13,-2.94263e-01,4.95958e-13,-2.94263e-01
8.45490e+02,6.79000e+02,6.79000e+02,0.00000e+00,2.31413e-13,-2.86718e-01,3.02848e-13,-2.86718e-01,4.82914e-13,-2.86718e-01
8.45738e+02,6.68000e+02,6.66000e+02,2.00000e+00,1.20859e-13,-2.79172e-01,7.47704e-13,-2.79172e-01,6.32472e-13,-2.79172e-01
8.45985e+02,6.74000e+02,6.74000e+02,0.00000e+00,4.44100e-13,-2.71627e-01,1.16400e-12,-2.71627e-01,7.50864e-13,-2.71627e-01
8.46233e+02,6.84000e+02,6.71000e+02,1.30000e+01,4.05652e-13,-2.64082e-01,1.53923e-12,-2.64082e-01,1.13424e-12,-2.64082e-01
8.46481e+02,6.75000e+02,6.68000e+02,7.00000e+00,6.21600e-13,-2.56537e-01,1.57042e-12,-2.56537e-01,9.52640e-13,-2.56537e-01
8.46729e+02,6.84000e+02,6.68000e+02,1.60000e+01,6.99129e-13,-2.48992e-01,1.45042e-12,-2.48992e-01,8.08489e-13,-2.48992e-01
8.46977e+02,6.76000e+02,6.56000e+02,2.00000e+01,5.34077e-13,-2.41446e-01,1.48309e-12,-2.41446e-01,1.49625e-12,-2.41446e-01
8.47225e+02,6.66000e+02,6.64000e+02,2.00000e+00,2.94012e-13,-2.33901e-01,1.56719e-12,-2.33901e-01,1.77360e-12,-2.33901e-01
8.47473e+02,6.77000e+02,6.84000e+02,-7.00000e+00,2.16346e-13,-2.26356e-01,8.19898e-13,-2.26356e-01,1.03005e-12,-2.26356e-01
8.47720e+02,6.77000e+02,6.84000e+02,-7.00000e+00,2.51258e-13,-2.18811e-01,2.38953e-13,-2.18811e-01,4.05614e-14,-2.18811e-01
8.47968e+02,6.79000e+02,6.76000e+02,3.00000e+00,5.33387e-13,-2.11266e-01,8.53111e-13,-2.11266e-01,5.16867e-13,-2.11266e-01
8.48216e+02,6.77000e+02,6.73000e+02,4.00000e+00,7.92192e-13,-2.03720e-01,4.66360e-13,-2.03720e-01,1.01667e-12,-2.03720e-01
8.48464e+02,6.57000e+02,6.57000e+02,0.00000e+00,1.15130e-12,-1.96175e-01,1.02875e-13,-1.96175e-01,1.11416e-12,-1.96175e-01
8.48712e+02,6.59000e+02,6.65000e+02,-6.00000e+00,1.00164e-12,-1.88630e-01,2.03532e-13,-1.88630e-01,1.09807e-12,-1.88630e-01
8.48960e+02,6.56000e+02,6.59000e+02,-3.00000e+00,1.14572e-12,-1.81085e-01,3.74444e-13,-1.81085e-01,9.08934e-13,-1.81085e-01
8.49207e+02,6.50000e+02,6.79000e+02,-2.90000e+01,7.65362e-13,-1.73540e-01,1.70628e-13,-1.73540e-01,8.52700e-13,-1.73540e-01
8.49455e+02,6.74000e+02,6.65000e+02,9.00000e+00,1.03428e-12,-1.65994e-01,4.46081e-13,-1.65994e-01,6.19318e-13,-1.65994e-01
8.49703e+02,6.62000e+02,6.77000e+02,-1.50000e+01,1.61028e-12,-1.58449e-01,1.59156e-12,-1.58449e-01,7.70093e-14,-1.58449e-01
8.49951e+02,6.82000e+02,6.72000e+02,1.00000e+01,1.58464e-12,-1.50904e-01,1.97421e-12,-1.50904e-01,6.88453e-13,-1.50904e-01
8.50198e+02,6.69000e+02,6.66000e+02,3.00000e+00,1.47777e-12,-1.43359e-01,1.84183e-12,-1.43359e-01,5.25096e-13,-1.43359e-01
8.50446e+02,6.71000e+02,6.63000e+02,8.00000e+00,6.81663e-13,-1.35814e-01,8.05840e-13,-1.35814e-01,3.62167e-13,-1.35814e-01
8.50694e+02,6.68000e+02,6.54000e+02,1.40000e+01,4.73704e-13,-1.28268e-01,4.15629e-13,-1.28268e-01,8.89324e-13,-1.28268e-01
8.50941e+02,6.92000e+02,6.89000e+02,3.00000e+00,2.92594e-13,-1.20723e-01,9.37675e-13,-1.20723e-01,1.13693e-12,-1.20723e-01
8.51189e+02,6.77000e+02,6.78000e+02,-1.00000e+00,2.77360e-13,-1.13178e-01,7.61227e-13,-1.13178e-01,7.25261e-13,-1.13178e-01
8.51437e+02,6.58000e+02,6.62000e+02,-4.00000e+00,7.02499e-13,-1.05633e-01,1.00449e-12,-1.05633e-01,3.05249e-13,-1.05633e-01
8.51685e+02,6.56000e+02,6.61000e+02,-5.00000e+00,8.10095e-13,-9.80876e-02,6.31438e-13,-9.80876e-02,4.61702e-13,-9.80876e-02
8.51932e+02,6.69000e+02,6.60000e+02,9.00000e+00,4.86529e-13,-9.05424e-02,4.93455e-13,-9.05424e-02,5.96939e-13,-9.05424e-02
8.52180e+02,6.81000e+02,6.76000e+02,5.00000e+00,7.02814e-13,-8.29972e-02,3.48599e-13,-8.29972e-02,4.79180e-13,-8.29972e-02
8.52428e+02,6.75000e+02,6.67000e+02,8.00000e+00,6.96976e-13,-7.54520e-02,2.34145e-13,-7.54520e-02,5.92929e-13,-7.54520e-02
8.52675e+02,6.61000e+02,6.54000e+02,7.00000e+00,5.49262e-13,-6.79068e-02,7.81550e-13,-6.79068e-02,1.24500e-12,-6.79068e-02
8.52923e+02,6.71000e+02,6.73000e+02,-2.00000e+00,1.55372e-12,-6.03616e-02,6.10792e-13,-6.03616e-02,1.57535e-12,-6.03616e-02
8.53170e+02,6.85000e+02,6.71000e+02,1.40000e+01,1.77012e-12,-5.28164e-02,8.64224e-13,-5.28164e-02,1.60934e-12,-5.28164e-02
8.53418e+02,6.54000e+02,6.59000e+02,-5.00000e+00,3.05639e-12,-4.52712e-02,1.63734e-12,-4.52712e-02,1.41929e-12,-4.52712e-02
8.53666e+02,6.58000e+02,6.50000e+02,8.00000e+00,2.16355e-12,-3.77260e-02,1.04545e-12,-3.77260e-02,1.20738e-12,-3.77260e-02
8.53913e+02,6.69000e+02,6.66000e+02,3.00000e+00,2.52334e-12,-3.01808e-02,3.09904e-12,-3.01808e-02,9.23848e-13,-3.01808e-02
8.54161e+02,6.61000e+02,6.63000e+02,-2.00000e+00,7.44478e-12,-2.26356e-02,8.31859e-12,-2.26356e-02,1.18020e-12,-2.26356e-02
8.54409e+02,6.58000e+02,6.67000e+02,-9.00000e+00,2.31637e-11,-1.50904e-02,2.37459e-11,-1.50904e-02,2.25955e-12,-1.50904e-02
8.54656e+02,6.64000e+02,6.64000e+02,0.00000e+00,5.85600e-11,-7.54520e-03,5.84772e-11,-7.54520e-03,1.89360e-12,-7.54520e-03
