7.67698e+02,6.92000e+02,7.29000e+02,-3.70000e+01,4.73619e-10,0.00000e+00,4.71945e-10,0.00000e+00,1.67411e-12,0.00000e+00
7.67949e+02,7.17000e+02,6.98000e+02,1.90000e+01,2.82530e-10,7.54520e-03,2.79710e-10,7.54520e-03,1.08343e-11,7.54520e-03
7.68199e+02,7.35000e+02,7.34000e+02,1.00000e+00,9.63133e-11,1.50904e-02,9.70029e-11,1.50904e-02,1.21048e-11,1.50904e-02
7.68450e+02,7.31000e+02,7.14000e+02,1.70000e+01,3.30777e-11,2.26356e-02,3.61320e-11,2.26356e-02,3.91238e-12,2.26356e-02
7.68701e+02,7.26000e+02,7.48000e+02,-2.20000e+01,1.91484e-11,3.01808e-02,1.78380e-11,3.01808e-02,5.22858e-12,3.01808e-02
7.68951e+02,6.97000e+02,7.50000e+02,-5.30000e+01,5.81617e-12,3.77260e-02,5.64245e-12,3.77260e-02,7.00630e-12,3.77260e-02
7.69202e+02,7.46000e+02,7.40000e+02,6.00000e+00,8.55169e-12,4.52712e-02,5.05114e-12,4.52712e-02,5.53504e-12,4.52712e-02
7.69453e+02,7.41000e+02,7.40000e+02,1.00000e+00,1.18370e-11,5.28164e-02,1.09821e-11,5.28164e-02,5.05470e-12,5.28164e-02
7.69703e+02,7.58000e+02,7.47000e+02,1.10000e+01,1.38499e-11,6.03616e-02,1.35665e-11,6.03616e-02,5.10034e-12,6.03616e-02
7.69954e+02,7.35000e+02,7.62000e+02,-2.70000e+01,1.23345e-11,6.79068e-02,1.02451e-11,6.79068e-02,2.65176e-12,6.79068e-02
7.70205e+02,7.22000e+02,7.92000e+02,-7.00000e+01,5.99787e-12,7.54520e-02,6.69263e-12,7.54520e-02,2.17387e-12,7.54520e-02
7.70455e+02,7.59000e+02,7.84000e+02,-2.50000e+01,1.26286e-11,8.29972e-02,1.34068e-11,8.29972e-02,1.77139e-12,8.29972e-02
7.70706e+02,7.74000e+02,7.43000e+02,3.10000e+01,2.08923e-11,9.05424e-02,1.97198e-11,9.05424e-02,1.76724e-12,9.05424e-02
7.70957e+02,7.71000e+02,7.43000e+02,2.80000e+01,1.60986e-11,9.80876e-02,1.48047e-11,9.80876e-02,2.02330e-12,9.80876e-02
7.71207e+02,7.49000e+02,7.91000e+02,-4.20000e+01,4.45745e-12,1.05633e-01,3.30375e-12,1.05633e-01,1.40723e-12,1.05633e-01
7.71458e+02,7.62000e+02,8.66000e+02,-1.04000e+02,2.19489e-12,1.13178e-01,2.75380e-12,1.13178e-01,9.51267e-13,1.13178e-01
7.71708e+02,7.90000e+02,8.30000e+02,-4.00000e+01,4.23497e-12,1.20723e-01,3.65115e-12,1.20723e-01,1.99875e-12,1.20723e-01
7.71959e+02,8.34000e+02,7.81000e+02,5.30000e+01,2.01080e-12,1.28268e-01,1.32527e-12,1.28268e-01,2.28656e-12,1.28268e-01
7.72210e+02,8.49000e+02,7.82000e+02,6.70000e+01,3.04464e-12,1.35814e-01,6.31590e-12,1.35814e-01,3.28889e-12,1.35814e-01
7.72460e+02,8.18000e+02,7.90000e+02,2.80000e+01,8.77627e-12,1.43359e-01,1.25574e-11,1.43359e-01,4.11499e-12,1.43359e-01
7.72711e+02,7.72000e+02,8.45000e+02,-7.30000e+01,1.13813e-11,1.50904e-01,1.48975e-11,1.50904e-01,5.11892e-12,1.50904e-01
7.72961e+02,7.74000e+02,8.31000e+02,-5.70000e+01,8.84793e-12,1.58449e-01,1.27520e-11,1.58449e-01,4.69305e-12,1.58449e-01
7.73212e+02,8.49000e+02,8.00000e+02,4.90000e+01,6.00397e-12,1.65994e-01,5.44877e-12,1.65994e-01,2.07703e-12,1.65994e-01
7.73462e+02,8.73000e+02,7.81000e+02,9.20000e+01,1.03764e-11,1.73540e-01,5.61723e-12,1.73540e-01,5.64290e-12,1.73540e-01
7.73713e+02,8.68000e+02,8.04000e+02,6.40000e+01,9.98749e-12,1.81085e-01,5.53359e-12,1.81085e-01,5.15487e-12,1.81085e-01
7.73963e+02,8.05000e+02,8.43000e+02,-3.80000e+01,6.40638e-12,1.88630e-01,5.21582e-12,1.88630e-01,1.32369e-12,1.88630e-01
7.74214e+02,8.30000e+02,9.07000e+02,-7.70000e+01,3.95350e-12,1.96175e-01,4.92641e-12,1.96175e-01,1.53924e-12,1.96175e-01
7.74465e+02,8.73000e+02,9.04000e+02,-3.10000e+01,2.44066e-12,2.03720e-01,3.00228e-12,2.03720e-01,2.40126e-12,2.03720e-01
7.74715e+02,9.06000e+02,8.80000e+02,2.60000e+01,1.43369e-12,2.11266e-01,3.13960e-12,2.11266e-01,4.23418e-12,2.11266e-01
7.74965e+02,9.23000e+02,8.52000e+02,7.10000e+01,1.88204e-12,2.18811e-01,5.11732e-12,2.18811e-01,4.59495e-12,2.18811e-01
7.75216e+02,8.65000e+02,9.02000e+02,-3.70000e+01,2.92823e-12,2.26356e-01,5.22852e-12,2.26356e-01,2.30835e-12,2.26356e-01
7.75466e+02,8.49000e+02,9.37000e+02,-8.80000e+01,2.28983e-12,2.33901e-01,3.74482e-12,2.33901e-01,3.40488e-12,2.33901e-01
7.75717e+02,8.82000e+02,9.57000e+02,-7.50000e+01,1.75519e-12,2.41446e-01,1.96157e-12,2.41446e-01,3.71075e-12,2.41446e-01
7.75967e+02,1.00800e+03,8.75000e+02,1.33000e+02,2.16604e-12,2.48992e-01,1.15404e-12,2.48992e-01,2.35097e-12,2.48992e-01
7.76218e+02,1.04800e+03,8.88000e+02,1.60000e+02,1.83121e-12,2.56537e-01,1.05363e-12,2.56537e-01,8.89695e-13,2.56537e-01
7.76468e+02,1.04900e+03,9.78000e+02,7.10000e+01,3.87873e-12,2.64082e-01,2.82349e-12,2.64082e-01,1.08059e-12,2.64082e-01
7.76719e+02,9.52000e+02,1.05300e+03,-1.01000e+02,6.34660e-12,2.71627e-01,4.01818e-12,2.71627e-01,2.38411e-12,2.71627e-01
7.76969e+02,9.45000e+02,1.06500e+03,-1.20000e+02,5.63835e-12,2.79172e-01,1.90955e-12,2.79172e-01,4.18966e-12,2.79172e-01
7.77219e+02,1.07200e+03,1.01700e+03,5.50000e+01,1.37996e-12,2.86718e-01,3.73859e-12,2.86718e-01,4.43547e-12,2.86718e-01
7.77470e+02,1.13300e+03,9.87000e+02,1.46000e+02,4.53122e-12,2.94263e-01,6.76786e-12,2.94263e-01,2.71490e-12,2.94263e-01
7.77720e+02,1.10000e+03,1.06500e+03,3.50000e+01,6.12355e-12,3.01808e-01,6.21182e-12,3.01808e-01,6.68967e-13,3.01808e-01
7.77971e+02,1.04700e+03,1.19500e+03,-1.48000e+02,4.79558e-12,3.09353e-01,4.14995e-12,3.09353e-01,6.73291e-13,3.09353e-01
7.78221e+02,1.09400e+03,1.32100e+03,-2.27000e+02,2.03469e-12,3.16898e-01,2.47986e-12,3.16898e-01,7.69523e-13,3.16898e-01
7.78471e+02,1.25200e+03,1.22500e+03,2.70000e+01,1.70405e-12,3.24444e-01,9.37957e-13,3.24444e-01,1.91164e-12,3.24444e-01
7.78722e+02,1.38800e+03,1.12300e+03,2.65000e+02,2.79476e-12,3.31989e-01,5.58273e-13,3.31989e-01,2.23706e-12,3.31989e-01
7.78972e+02,1.34600e+03,1.13700e+03,2.09000e+02,3.46517e-12,3.39534e-01,1.82602e-12,3.39534e-01,3.27455e-12,3.39534e-01
7.79222e+02,1.20900e+03,1.34100e+03,-1.32000e+02,4.18777e-12,3.47079e-01,2.93608e-12,3.47079e-01,4.22834e-12,3.47079e-01
7.79473e+02,1.10100e+03,1.51000e+03,-4.09000e+02,4.50480e-12,3.54624e-01,1.48560e-12,3.54624e-01,3.58353e-12,3.54624e-01
7.79723e+02,1.23400e+03,1.42800e+03,-1.94000e+02,4.57643e-12,3.62169e-01,2.14396e-12,3.62169e-01,6.16644e-12,3.62169e-01
7.79973e+02,1.40600e+03,1.21000e+03,1.96000e+02,5.91604e-12,3.69715e-01,5.53629e-12,3.69715e-01,1.12739e-11,3.69715e-01
7.80224e+02,1.37900e+03,1.16500e+03,2.14000e+02,4.81851e-12,3.77260e-01,7.83380e-12,3.77260e-01,1.24319e-11,3.77260e-01
7.80474e+02,1.31000e+03,1.30900e+03,1.00000e+00,2.07764e-12,3.84805e-01,5.86613e-12,3.84805e-01,6.86100e-12,3.84805e-01
7.80724e+02,1.12800e+03,1.53400e+03,-4.06000e+02,4.38013e-12,3.92350e-01,3.09070e-12,3.92350e-01,5.42417e-12,3.92350e-01
7.80974e+02,1.21400e+03,1.55500e+03,-3.41000e+02,6.61177e-12,3.99895e-01,3.78550e-12,3.99895e-01,8.45270e-12,3.99895e-01
7.81225e+02,1.42800e+03,1.42600e+03,2.00000e+00,6.74883e-12,4.07441e-01,3.48878e-12,4.07441e-01,7.18733e-12,4.07441e-01
7.81475e+02,1.67400e+03,1.36200e+03,3.12000e+02,3.56020e-12,4.14986e-01,2.11115e-12,4.14986e-01,3.86747e-12,4.14986e-01
7.81725e+02,1.55200e+03,1.39400e+03,1.58000e+02,5.26206e-12,4.22531e-01,3.56713e-12,4.22531e-01,6.36852e-12,4.22531e-01
7.81975e+02,1.36300e+03,1.57300e+03,-2.10000e+02,6.02975e-12,4.30076e-01,7.91312e-12,4.30076e-01,1.12122e-11,4.30076e-01
7.82226e+02,1.27500e+03,1.69500e+03,-4.20000e+02,7.51834e-12,4.37621e-01,1.31930e-11,4.37621e-01,2.05911e-11,4.37621e-01
7.82476e+02,1.50500e+03,1.48600e+03,1.90000e+01,1.91144e-11,4.45167e-01,2.03949e-11,4.45167e-01,3.94496e-11,4.45167e-01
7.82726e+02,1.80200e+03,1.36200e+03,4.40000e+02,2.73663e-11,4.52712e-01,2.54645e-11,4.52712e-01,5.24543e-11,4.52712e-01
7.82976e+02,1.85500e+03,1.46700e+03,3.88000e+02,3.12675e-11,4.60257e-01,3.01649e-11,4.60257e-01,6.04498e-11,4.60257e-01
7.83226e+02,1.73800e+03,2.01300e+03,-2.75000e+02,3.16464e-11,4.67802e-01,3.27055e-11,4.67802e-01,6.35152e-11,4.67802e-01
7.83477e+02,1.50200e+03,2.32100e+03,-8.19000e+02,2.32441e-11,4.75347e-01,2.43022e-11,4.75347e-01,4.69914e-11,4.75347e-01
7.83727e+02,1.68300e+03,2.12000e+03,-4.37000e+02,1.23552e-11,4.82893e-01,1.06738e-11,4.82893e-01,2.26579e-11,4.82893e-01
7.83977e+02,2.07700e+03,1.73600e+03,3.41000e+02,9.58599e-12,4.90438e-01,9.50303e-12,4.90438e-01,1.90796e-11,4.90438e-01
7.84227e+02,2.32800e+03,1.78000e+03,5.48000e+02,9.55704e-12,4.97983e-01,1.02229e-11,4.97983e-01,1.86860e-11,4.97983e-01
7.84477e+02,2.19300e+03,2.25200e+03,-5.90000e+01,7.87785e-12,5.05528e-01,7.89331e-12,5.05528e-01,1.21373e-11,5.05528e-01
7.84727e+02,1.92900e+03,2.83500e+03,-9.06000e+02,4.30913e-12,5.13073e-01,4.11966e-12,5.13073e-01,3.77312e-12,5.13073e-01
7.84978e+02,2.00900e+03,3.04300e+03,-1.03400e+03,3.83384e-12,5.20619e-01,2.74695e-12,5.20619e-01,6.35402e-12,5.20619e-01
7.85228e+02,2.41400e+03,2.42600e+03,-1.20000e+01,6.09828e-12,5.28164e-01,2.94202e-12,5.28164e-01,8.96407e-12,5.28164e-01
7.85478e+02,2.75800e+03,1.91800e+03,8.40000e+02,4.63312e-12,5.35709e-01,1.27038e-12,5.35709e-01,5.02752e-12,5.35709e-01
7.85728e+02,2.55700e+03,2.09200e+03,4.65000e+02,1.47119e-12,5.43254e-01,1.75283e-12,5.43254e-01,1.49672e-12,5.43254e-01
7.85978e+02,2.17300e+03,2.58200e+03,-4.09000e+02,7.50160e-13,5.50799e-01,1.83094e-12,5.50799e-01,2.20005e-12,5.50799e-01
7.86228e+02,1.84600e+03,2.90100e+03,-1.05500e+03,8.91855e-13,5.58345e-01,2.11463e-12,5.58345e-01,2.91485e-12,5.58345e-01
7.86478e+02,2.07600e+03,2.72000e+03,-6.44000e+02,7.89277e-13,5.65890e-01,1.62758e-12,5.65890e-01,1.54362e-12,5.65890e-01
7.86728e+02,2.52600e+03,2.13400e+03,3.92000e+02,2.52466e-12,5.73435e-01,1.98833e-13,5.73435e-01,2.56209e-12,5.73435e-01
7.86978e+02,2.93700e+03,2.03400e+03,9.03000e+02,3.45270e-12,5.80980e-01,2.20553e-12,5.80980e-01,5.21364e-12,5.80980e-01
7.87228e+02,2.65900e+03,2.67800e+03,-1.90000e+01,3.55341e-12,5.88525e-01,2.71853e-12,5.88525e-01,5.86284e-12,5.88525e-01
7.87478e+02,2.21400e+03,3.12100e+03,-9.07000e+02,3.68768e-12,5.96071e-01,1.86921e-12,5.96071e-01,4.30343e-12,5.96071e-01
7.87728e+02,2.39900e+03,3.49900e+03,-1.10000e+03,2.66684e-12,6.03616e-01,3.32372e-12,6.03616e-01,2.72982e-12,6.03616e-01
7.87978e+02,3.04300e+03,3.08600e+03,-4.30000e+01,1.00381e-12,6.11161e-01,3.73779e-12,6.11161e-01,2.87732e-12,6.11161e-01
7.88228e+02,3.38100e+03,2.36000e+03,1.02100e+03,9.26661e-13,6.18706e-01,2.31363e-12,6.18706e-01,1.94200e-12,6.18706e-01
7.88478e+02,3.37200e+03,2.59700e+03,7.75000e+02,1.14907e-12,6.26251e-01,1.09571e-12,6.26251e-01,1.00952e-13,6.26251e-01
7.88728e+02,2.75700e+03,3.12100e+03,-3.64000e+02,9.98203e-13,6.33797e-01,9.60950e-13,6.33797e-01,1.50847e-12,6.33797e-01
7.88978e+02,2.34800e+03,3.34900e+03,-1.00100e+03,7.41184e-13,6.41342e-01,9.15714e-13,6.41342e-01,1.64257e-12,6.41342e-01
7.89228e+02,2.66200e+03,2.99800e+03,-3.36000e+02,1.06890e-12,6.48887e-01,4.54192e-13,6.48887e-01,7.99656e-13,6.48887e-01
7.89478e+02,3.37600e+03,2.67200e+03,7.04000e+02,2.49167e-12,6.56432e-01,4.54144e-13,6.56432e-01,2.90886e-12,6.56432e-01
7.89728e+02,3.63000e+03,2.47900e+03,1.15100e+03,2.76426e-12,6.63977e-01,5.08526e-13,6.63977e-01,3.18319e-12,6.63977e-01
7.89978e+02,3.58500e+03,2.89600e+03,6.89000e+02,1.87071e-12,6.71523e-01,3.52902e-13,6.71523e-01,1.70326e-12,6.71523e-01
7.90228e+02,3.19000e+03,3.77400e+03,-5.84000e+02,1.10567e-12,6.79068e-01,1.68741e-13,6.79068e-01,9.62858e-13,6.79068e-01
7.90478e+02,3.20700e+03,4.31300e+03,-1.10600e+03,2.50833e-12,6.86613e-01,4.22624e-13,6.86613e-01,2.27316e-12,6.86613e-01
7.90728e+02,4.18300e+03,3.86900e+03,3.14000e+02,2.79777e-12,6.94158e-01,9.76820e-13,6.94158e-01,3.34427e-12,6.94158e-01
7.90978e+02,5.44600e+03,3.23200e+03,2.21400e+03,2.19999e-12,7.01703e-01,7.02014e-13,7.01703e-01,2.88361e-12,7.01703e-01
7.91228e+02,5.51300e+03,3.44000e+03,2.07300e+03,1.53021e-12,7.09249e-01,1.41910e-12,7.09249e-01,7.44495e-13,7.09249e-01
7.91478e+02,4.65800e+03,4.68000e+03,-2.20000e+01,1.94961e-12,7.16794e-01,2.25503e-12,7.16794e-01,1.11721e-12,7.16794e-01
7.91728e+02,3.83700e+03,5.62800e+03,-1.79100e+03,1.87266e-12,7.24339e-01,8.80371e-13,7.24339e-01,1.18357e-12,7.24339e-01
7.91977e+02,4.50700e+03,5.57200e+03,-1.06500e+03,1.54342e-12,7.31884e-01,7.86383e-13,7.31884e-01,2.30994e-12,7.31884e-01
7.92227e+02,6.02000e+03,4.59600e+03,1.42400e+03,1.96049e-12,7.39429e-01,1.37350e-12,7.39429e-01,2.91085e-12,7.39429e-01
7.92477e+02,6.16900e+03,3.82700e+03,2.34200e+03,1.11144e-12,7.46975e-01,9.13899e-13,7.46975e-01,1.77020e-12,7.46975e-01
7.92727e+02,5.40700e+03,4.33200e+03,1.07500e+03,5.52036e-13,7.54520e-01,4.91837e-13,7.54520e-01,8.12052e-13,7.54520e-01
7.92977e+02,4.07100e+03,5.14300e+03,-1.07200e+03,1.79936e-12,7.62065e-01,9.18753e-13,7.62065e-01,2.60399e-12,7.62065e-01
7.93227e+02,3.77200e+03,5.67600e+03,-1.90400e+03,1.81358e-12,7.69610e-01,1.46700e-12,7.69610e-01,3.20547e-12,7.69610e-01
7.93476e+02,4.18500e+03,4.80900e+03,-6.24000e+02,6.47452e-13,7.77155e-01,1.26163e-12,7.77155e-01,1.82720e-12,7.77155e-01
7.93726e+02,5.66500e+03,3.73100e+03,1.93400e+03,8.00663e-13,7.84701e-01,4.06547e-13,7.84701e-01,6.38510e-13,7.84701e-01
7.93976e+02,7.16400e+03,3.83700e+03,3.32700e+03,1.10431e-12,7.92246e-01,6.06104e-13,7.92246e-01,1.70954e-12,7.92246e-01
7.94226e+02,6.55900e+03,5.23200e+03,1.32700e+03,7.47355e-13,7.99791e-01,1.34078e-12,7.99791e-01,1.74941e-12,7.99791e-01
7.94476e+02,5.14400e+03,6.56900e+03,-1.42500e+03,6.51017e-13,8.07336e-01,1.69558e-12,8.07336e-01,1.72678e-12,8.07336e-01
7.94725e+02,5.64500e+03,6.32500e+03,-6.80000e+02,7.32327e-13,8.14881e-01,1.62130e-12,8.14881e-01,1.84974e-12,8.14881e-01
7.94975e+02,7.15200e+03,5.50000e+03,1.65200e+03,9.28478e-13,8.22427e-01,1.08934e-12,8.22427e-01,1.94090e-12,8.22427e-01
7.95225e+02,7.20600e+03,4.98200e+03,2.22400e+03,8.70899e-13,8.29972e-01,4.24110e-13,8.29972e-01,1.12122e-12,8.29972e-01
7.95475e+02,5.81300e+03,4.76300e+03,1.05000e+03,8.50307e-13,8.37517e-01,1.19425e-12,8.37517e-01,4.11063e-13,8.37517e-01
7.95724e+02,5.08100e+03,5.75100e+03,-6.70000e+02,1.15923e-12,8.45062e-01,1.83533e-12,8.45062e-01,1.49869e-12,8.45062e-01
7.95974e+02,4.58100e+03,6.24500e+03,-1.66400e+03,6.84784e-13,8.52607e-01,1.31179e-12,8.52607e-01,1.34183e-12,8.52607e-01
7.96224e+02,4.84100e+03,5.42900e+03,-5.88000e+02,4.15689e-13,8.60153e-01,1.96715e-13,8.60153e-01,5.85979e-13,8.60153e-01
7.96474e+02,5.96100e+03,4.85300e+03,1.10800e+03,5.12135e-13,8.67698e-01,8.21263e-13,8.67698e-01,4.62330e-13,8.67698e-01
7.96723e+02,6.42500e+03,4.95100e+03,1.47400e+03,2.37652e-13,8.75243e-01,9.64811e-13,8.75243e-01,8.13451e-13,8.75243e-01
7.96973e+02,5.85500e+03,6.24700e+03,-3.92000e+02,2.59060e-13,8.82788e-01,1.09156e-12,8.82788e-01,1.20178e-12,8.82788e-01
7.97223e+02,5.97400e+03,7.95200e+03,-1.97800e+03,8.62026e-13,8.90333e-01,7.22854e-13,8.90333e-01,1.14532e-12,8.90333e-01
7.97472e+02,6.87700e+03,7.44800e+03,-5.71000e+02,1.13182e-12,8.97879e-01,6.78080e-13,8.97879e-01,4.89306e-13,8.97879e-01
7.97722e+02,8.96100e+03,5.77200e+03,3.18900e+03,8.86993e-13,9.05424e-01,1.01316e-12,9.05424e-01,5.59412e-13,9.05424e-01
7.97972e+02,9.99800e+03,5.50600e+03,4.49200e+03,5.91696e-13,9.12969e-01,5.98430e-13,9.12969e-01,7.18687e-13,9.12969e-01
7.98221e+02,8.28500e+03,6.99900e+03,1.28600e+03,6.68415e-13,9.20514e-01,5.99515e-13,9.20514e-01,5.00237e-13,9.20514e-01
7.98471e+02,6.63200e+03,9.72000e+03,-3.08800e+03,6.20623e-13,9.28059e-01,5.95441e-13,9.28059e-01,6.80122e-13,9.28059e-01
7.98721e+02,7.49200e+03,1.11820e+04,-3.69000e+03,1.04683e-12,9.35605e-01,6.11776e-13,9.35605e-01,4.48099e-13,9.35605e-01
7.98970e+02,1.04290e+04,9.60500e+03,8.24000e+02,1.44620e-12,9.43150e-01,1.30462e-12,9.43150e-01,5.15263e-13,9.43150e-01
7.99220e+02,1.24130e+04,7.08100e+03,5.33200e+03,1.46869e-12,9.50695e-01,1.51512e-12,9.50695e-01,1.26302e-12,9.50695e-01
7.99469e+02,1.04610e+04,6.80700e+03,3.65400e+03,1.52521e-12,9.58240e-01,1.57013e-12,9.58240e-01,2.00326e-12,9.58240e-01
7.99719e+02,7.55600e+03,9.20600e+03,-1.65000e+03,1.02527e-12,9.65785e-01,1.04340e-12,9.65785e-01,1.45434e-12,9.65785e-01
7.99969e+02,6.15500e+03,1.00200e+04,-3.86500e+03,4.39795e-13,9.73331e-01,4.17134e-13,9.73331e-01,1.62205e-13,9.73331e-01
8.00218e+02,7.33200e+03,8.54800e+03,-1.21600e+03,2.53888e-13,9.80876e-01,3.45277e-13,9.80876e-01,4.86937e-13,9.80876e-01
8.00468e+02,1.01690e+04,7.05300e+03,3.11600e+03,9.63938e-13,9.88421e-01,4.37028e-13,9.88421e-01,7.25180e-13,9.88421e-01
8.00717e+02,9.35800e+03,5.44900e+03,3.90900e+03,1.62257e-12,9.95966e-01,1.25606e-12,9.95966e-01,4.43543e-13,9.95966e-01
8.00967e+02,7.42800e+03,5.65900e+03,1.76900e+03,1.63139e-12,1.00351e+00,1.13513e-12,1.00351e+00,5.00906e-13,1.00351e+00
8.01216e+02,5.84700e+03,7.43400e+03,-1.58700e+03,1.16657e-12,1.01106e+00,3.75863e-13,1.01106e+00,7.98386e-13,1.01106e+00
8.01466e+02,6.38700e+03,8.39100e+03,-2.00400e+03,4.42060e-13,1.01860e+00,2.26586e-13,1.01860e+00,3.64676e-13,1.01860e+00
8.01715e+02,8.98100e+03,7.73600e+03,1.24500e+03,5.95007e-13,1.02615e+00,2.41706e-13,1.02615e+00,6.27859e-13,1.02615e+00
8.01965e+02,9.94700e+03,6.55500e+03,3.39200e+03,7.16119e-13,1.03369e+00,4.31652e-13,1.03369e+00,1.09993e-12,1.03369e+00
8.02215e+02,7.89600e+03,6.20200e+03,1.69400e+03,1.84483e-13,1.04124e+00,8.39511e-13,1.04124e+00,6.72129e-13,1.04124e+00
8.02464e+02,6.93000e+03,7.12500e+03,-1.95000e+02,1.06714e-12,1.04878e+00,4.91357e-13,1.04878e+00,6.78327e-13,1.04878e+00
8.02713e+02,6.13200e+03,8.38500e+03,-2.25300e+03,1.71304e-12,1.05633e+00,3.76466e-13,1.05633e+00,1.66782e-12,1.05633e+00
8.02963e+02,7.13800e+03,8.49900e+03,-1.36100e+03,1.73217e-12,1.06387e+00,2.41557e-13,1.06387e+00,1.76392e-12,1.06387e+00
8.03212e+02,8.85700e+03,7.45500e+03,1.40200e+03,1.68102e-12,1.07142e+00,2.15446e-13,1.07142e+00,1.46802e-12,1.07142e+00
8.03462e+02,9.46200e+03,6.92400e+03,2.53800e+03,1.24839e-12,1.07896e+00,2.43844e-13,1.07896e+00,1.18412e-12,1.07896e+00
8.03711e+02,7.76100e+03,7.75100e+03,1.00000e+01,9.27214e-13,1.08651e+00,3.37721e-13,1.08651e+00,1.15236e-12,1.08651e+00
8.03961e+02,6.60600e+03,1.05520e+04,-3.94600e+03,7.00545e-13,1.09405e+00,4.86105e-13,1.09405e+00,1.02533e-12,1.09405e+00
8.04210e+02,7.04600e+03,1.04850e+04,-3.43900e+03,9.13247e-13,1.10160e+00,5.94156e-13,1.10160e+00,5.72770e-13,1.10160e+00
8.04460e+02,9.34400e+03,8.28100e+03,1.06300e+03,1.07832e-12,1.10914e+00,8.20788e-13,1.10914e+00,3.48132e-13,1.10914e+00
8.04709e+02,1.00340e+04,6.38800e+03,3.64600e+03,7.56994e-13,1.11669e+00,4.97416e-13,1.11669e+00,2.96127e-13,1.11669e+00
8.04958e+02,9.50900e+03,7.06000e+03,2.44900e+03,4.54571e-13,1.12423e+00,1.97380e-13,1.12423e+00,3.17487e-13,1.12423e+00
8.05208e+02,8.57700e+03,9.59600e+03,-1.01900e+03,7.29003e-13,1.13178e+00,2.04871e-13,1.13178e+00,5.88645e-13,1.13178e+00
8.05457e+02,7.93700e+03,1.23040e+04,-4.36700e+03,8.24398e-13,1.13932e+00,2.93774e-13,1.13932e+00,5.74859e-13,1.13932e+00
8.05707e+02,9.45200e+03,1.18050e+04,-2.35300e+03,4.71682e-13,1.14687e+00,3.36910e-13,1.14687e+00,3.28442e-13,1.14687e+00
8.05956e+02,1.21090e+04,9.67400e+03,2.43500e+03,4.78037e-13,1.15442e+00,5.37685e-13,1.15442e+00,5.44527e-13,1.15442e+00
8.06205e+02,1.30650e+04,7.89900e+03,5.16600e+03,5.07456e-13,1.16196e+00,9.41634e-13,1.16196e+00,5.37313e-13,1.16196e+00
8.06455e+02,1.04930e+04,8.73500e+03,1.75800e+03,6.42572e-13,1.16951e+00,1.34681e-12,1.16951e+00,7.27641e-13,1.16951e+00
8.06704e+02,8.36400e+03,1.03200e+04,-1.95600e+03,3.39373e-13,1.17705e+00,1.23063e-12,1.17705e+00,9.22054e-13,1.17705e+00
8.06953e+02,8.31700e+03,1.19060e+04,-3.58900e+03,7.03712e-13,1.18460e+00,1.35497e-12,1.18460e+00,6.96421e-13,1.18460e+00
8.07203e+02,1.02150e+04,1.12080e+04,-9.93000e+02,7.97494e-13,1.19214e+00,1.51934e-12,1.19214e+00,7.35567e-13,1.19214e+00
8.07452e+02,1.22280e+04,9.76800e+03,2.46000e+03,7.13245e-13,1.19969e+00,1.16305e-12,1.19969e+00,8.26308e-13,1.19969e+00
8.07701e+02,1.25340e+04,9.33200e+03,3.20200e+03,8.16992e-13,1.20723e+00,5.04554e-13,1.20723e+00,6.23221e-13,1.20723e+00
8.07951e+02,1.18920e+04,1.03470e+04,1.54500e+03,7.61591e-13,1.21478e+00,2.77135e-13,1.21478e+00,5.95914e-13,1.21478e+00
8.08200e+02,1.01760e+04,1.30190e+04,-2.84300e+03,7.11085e-13,1.22232e+00,8.30945e-13,1.22232e+00,1.30351e-12,1.22232e+00
8.08449e+02,9.24000e+03,1.32860e+04,-4.04600e+03,1.21257e-13,1.22987e+00,1.38169e-12,1.22987e+00,1.47760e-12,1.22987e+00
8.08698e+02,1.09400e+04,1.21730e+04,-1.23300e+03,3.79688e-13,1.23741e+00,1.45428e-12,1.23741e+00,1.14040e-12,1.23741e+00
8.08948e+02,1.32840e+04,9.88700e+03,3.39700e+03,6.01430e-13,1.24496e+00,1.10172e-12,1.24496e+00,7.22593e-13,1.24496e+00
8.09197e+02,1.46060e+04,9.82200e+03,4.78400e+03,7.37502e-13,1.25250e+00,6.65126e-13,1.25250e+00,5.47166e-13,1.25250e+00
8.09446e+02,1.18500e+04,1.07420e+04,1.10800e+03,7.35533e-13,1.26005e+00,3.73020e-13,1.26005e+00,6.65385e-13,1.26005e+00
8.09695e+02,9.34400e+03,1.24690e+04,-3.12500e+03,4.24734e-13,1.26759e+00,5.55938e-13,1.26759e+00,4.84286e-13,1.26759e+00
8.09945e+02,9.15400e+03,1.13080e+04,-2.15400e+03,8.62407e-13,1.27514e+00,8.48567e-13,1.27514e+00,3.70707e-14,1.27514e+00
8.10194e+02,1.10340e+04,9.36800e+03,1.66600e+03,1.11125e-12,1.28268e+00,7.69197e-13,1.28268e+00,3.45499e-13,1.28268e+00
8.10443e+02,1.29850e+04,8.52600e+03,4.45900e+03,5.07091e-13,1.29023e+00,4.64898e-13,1.29023e+00,3.43445e-13,1.29023e+00
8.10692e+02,1.21660e+04,9.06300e+03,3.10300e+03,3.01036e-13,1.29777e+00,3.43601e-13,1.29777e+00,6.44358e-13,1.29777e+00
8.10941e+02,1.08800e+04,1.11740e+04,-2.94000e+02,4.56500e-13,1.30532e+00,4.75008e-13,1.30532e+00,7.59297e-13,1.30532e+00
8.11191e+02,9.46500e+03,1.20480e+04,-2.58300e+03,5.33594e-13,1.31286e+00,8.76321e-13,1.31286e+00,1.24827e-12,1.31286e+00
8.11440e+02,1.09640e+04,1.23300e+04,-1.36600e+03,1.21299e-13,-1.32041e+00,9.02462e-13,-1.32041e+00,1.02376e-12,-1.32041e+00
8.11689e+02,1.44760e+04,1.14880e+04,2.98800e+03,5.33594e-13,-1.31286e+00,8.76321e-13,-1.31286e+00,1.24827e-12,-1.31286e+00
8.11938e+02,1.51880e+04,1.13730e+04,3.81500e+03,4.56500e-13,-1.30532e+00,4.75008e-13,-1.30532e+00,7.59297e-13,-1.30532e+00
8.12187e+02,1.40950e+04,1.27140e+04,1.38100e+03,3.01036e-13,-1.29777e+00,3.43601e-13,-1.29777e+00,6.44358e-13,-1.29777e+00
8.12436e+02,1.16300e+04,1.50520e+04,-3.42200e+03,5.07091e-13,-1.29023e+00,4.64898e-13,-1.29023e+00,3.43445e-13,-1.29023e+00
8.12685e+02,1.15870e+04,1.56690e+04,-4.08200e+03,1.11125e-12,-1.28268e+00,7.69197e-13,-1.28268e+00,3.45499e-13,-1.28268e+00
8.12935e+02,1.37040e+04,1.44140e+04,-7.10000e+02,8.62407e-13,-1.27514e+00,8.48567e-13,-1.27514e+00,3.70707e-14,-1.27514e+00
8.13184e+02,1.48090e+04,1.08840e+04,3.92500e+03,4.24734e-13,-1.26759e+00,5.55938e-13,-1.26759e+00,4.84286e-13,-1.26759e+00
8.13433e+02,1.50380e+04,9.44100e+03,5.59700e+03,7.35533e-13,-1.26005e+00,3.73020e-13,-1.26005e+00,6.65385e-13,-1.26005e+00
8.13682e+02,1.36350e+04,1.17480e+04,1.88700e+03,7.37502e-13,-1.25250e+00,6.65126e-13,-1.25250e+00,5.47166e-13,-1.25250e+00
8.13931e+02,1.08170e+04,1.36900e+04,-2.87300e+03,6.01430e-13,-1.24496e+00,1.10172e-12,-1.24496e+00,7.22593e-13,-1.24496e+00
8.14180e+02,1.03440e+04,1.42640e+04,-3.92000e+03,3.79688e-13,-1.23741e+00,1.45428e-12,-1.23741e+00,1.14040e-12,-1.23741e+00
8.14429e+02,1.12810e+04,1.25230e+04,-1.24200e+03,1.21257e-13,-1.22987e+00,1.38169e-12,-1.22987e+00,1.47760e-12,-1.22987e+00
8.14678e+02,1.28000e+04,9.22500e+03,3.57500e+03,7.11085e-13,-1.22232e+00,8.30945e-13,-1.22232e+00,1.30351e-12,-1.22232e+00
8.14927e+02,1.30670e+04,8.53400e+03,4.53300e+03,7.61591e-13,-1.21478e+00,2.77135e-13,-1.21478e+00,5.95914e-13,-1.21478e+00
8.15176e+02,1.03880e+04,1.03460e+04,4.20000e+01,8.16992e-13,-1.20723e+00,5.04554e-13,-1.20723e+00,6.23221e-13,-1.20723e+00
8.15425e+02,8.02700e+03,1.25120e+04,-4.48500e+03,7.13245e-13,-1.19969e+00,1.16305e-12,-1.19969e+00,8.26308e-13,-1.19969e+00
8.15674e+02,8.53100e+03,1.21410e+04,-3.61000e+03,7.97494e-13,-1.19214e+00,1.51934e-12,-1.19214e+00,7.35567e-13,-1.19214e+00
8.15923e+02,1.15700e+04,1.08940e+04,6.76000e+02,7.03712e-13,-1.18460e+00,1.35497e-12,-1.18460e+00,6.96421e-13,-1.18460e+00
8.16172e+02,1.31320e+04,8.90200e+03,4.23000e+03,3.39373e-13,-1.17705e+00,1.23063e-12,-1.17705e+00,9.22054e-13,-1.17705e+00
8.16421e+02,1.27020e+04,9.05300e+03,3.64900e+03,6.42572e-13,-1.16951e+00,1.34681e-12,-1.16951e+00,7.27641e-13,-1.16951e+00
8.16670e+02,1.05170e+04,1.13970e+04,-8.80000e+02,5.07456e-13,-1.16196e+00,9.41634e-13,-1.16196e+00,5.37313e-13,-1.16196e+00
8.16919e+02,9.46300e+03,1.43240e+04,-4.86100e+03,4.78037e-13,-1.15442e+00,5.37685e-13,-1.15442e+00,5.44527e-13,-1.15442e+00
8.17168e+02,1.08840e+04,1.41730e+04,-3.28900e+03,4.71682e-13,-1.14687e+00,3.36910e-13,-1.14687e+00,3.28442e-13,-1.14687e+00
8.17417e+02,1.12290e+04,1.08640e+04,3.65000e+02,8.24398e-13,-1.13932e+00,2.93774e-13,-1.13932e+00,5.74859e-13,-1.13932e+00
8.17666e+02,1.17160e+04,8.63600e+03,3.08000e+03,7.29003e-13,-1.13178e+00,2.04871e-13,-1.13178e+00,5.88645e-13,-1.13178e+00
8.17915e+02,1.00250e+04,8.76900e+03,1.25600e+03,4.54571e-13,-1.12423e+00,1.97380e-13,-1.12423e+00,3.17487e-13,-1.12423e+00
8.18164e+02,7.94700e+03,1.18690e+04,-3.92200e+03,7.56994e-13,-1.11669e+00,4.97416e-13,-1.11669e+00,2.96127e-13,-1.11669e+00
8.18413e+02,7.92400e+03,1.40660e+04,-6.14200e+03,1.07832e-12,-1.10914e+00,8.20788e-13,-1.10914e+00,3.48132e-13,-1.10914e+00
8.18662e+02,1.04530e+04,1.25680e+04,-2.11500e+03,9.13247e-13,-1.10160e+00,5.94156e-13,-1.10160e+00,5.72770e-13,-1.10160e+00
8.18911e+02,1.34630e+04,9.27400e+03,4.18900e+03,7.00545e-13,-1.09405e+00,4.86105e-13,-1.09405e+00,1.02533e-12,-1.09405e+00
8.19160e+02,1.32720e+04,8.29000e+03,4.98200e+03,9.27214e-13,-1.08651e+00,3.37721e-13,-1.08651e+00,1.15236e-12,-1.08651e+00
8.19408e+02,1.01100e+04,1.00190e+04,9.10000e+01,1.24839e-12,-1.07896e+00,2.43844e-13,-1.07896e+00,1.18412e-12,-1.07896e+00
8.19657e+02,7.87700e+03,1.24540e+04,-4.57700e+03,1.68102e-12,-1.07142e+00,2.15446e-13,-1.07142e+00,1.46802e-12,-1.07142e+00
8.19906e+02,8.57200e+03,1.46600e+04,-6.08800e+03,1.73217e-12,-1.06387e+00,2.41557e-13,-1.06387e+00,1.76392e-12,-1.06387e+00
8.20155e+02,1.16030e+04,1.25140e+04,-9.11000e+02,1.71304e-12,-1.05633e+00,3.76466e-13,-1.05633e+00,1.66782e-12,-1.05633e+00
8.20404e+02,1.46510e+04,1.01550e+04,4.49600e+03,1.06714e-12,-1.04878e+00,4.91357e-13,-1.04878e+00,6.78327e-13,-1.04878e+00
8.20653e+02,1.47990e+04,9.87500e+03,4.92400e+03,1.84483e-13,-1.04124e+00,8.39511e-13,-1.04124e+00,6.72129e-13,-1.04124e+00
8.20901e+02,1.25220e+04,1.30920e+04,-5.70000e+02,7.16119e-13,-1.03369e+00,4.31652e-13,-1.03369e+00,1.09993e-12,-1.03369e+00
8.21150e+02,9.40500e+03,1.49830e+04,-5.57800e+03,5.95007e-13,-1.02615e+00,2.41706e-13,-1.02615e+00,6.27859e-13,-1.02615e+00
8.21399e+02,9.90600e+03,1.47640e+04,-4.85800e+03,4.42060e-13,-1.01860e+00,2.26586e-13,-1.01860e+00,3.64676e-13,-1.01860e+00
8.21648e+02,1.12130e+04,1.11390e+04,7.40000e+01,1.16657e-12,-1.01106e+00,3.75863e-13,-1.01106e+00,7.98386e-13,-1.01106e+00
8.21897e+02,1.11530e+04,8.15600e+03,2.99700e+03,1.63139e-12,-1.00351e+00,1.13513e-12,-1.00351e+00,5.00906e-13,-1.00351e+00
8.22145e+02,9.82800e+03,7.41800e+03,2.41000e+03,1.62257e-12,-9.95966e-01,1.25606e-12,-9.95966e-01,4.43543e-13,-9.95966e-01
8.22394e+02,7.77800e+03,8.58300e+03,-8.05000e+02,9.63938e-13,-9.88421e-01,4.37028e-13,-9.88421e-01,7.25180e-13,-9.88421e-01
8.22643e+02,6.19400e+03,9.89700e+03,-3.70300e+03,2.53888e-13,-9.80876e-01,3.45277e-13,-9.80876e-01,4.86937e-13,-9.80876e-01
8.22892e+02,6.27200e+03,9.08600e+03,-2.81400e+03,4.39795e-13,-9.73331e-01,4.17134e-13,-9.73331e-01,1.62205e-13,-9.73331e-01
8.23140e+02,7.46300e+03,7.29100e+03,1.72000e+02,1.02527e-12,-9.65785e-01,1.04340e-12,-9.65785e-01,1.45434e-12,-9.65785e-01
8.23389e+02,8.27500e+03,6.33300e+03,1.94200e+03,1.52521e-12,-9.58240e-01,1.57013e-12,-9.58240e-01,2.00326e-12,-9.58240e-01
8.23638e+02,7.68800e+03,6.39900e+03,1.28900e+03,1.46869e-12,-9.50695e-01,1.51512e-12,-9.50695e-01,1.26302e-12,-9.50695e-01
8.23887e+02,5.80100e+03,6.08300e+03,-2.82000e+02,1.44620e-12,-9.43150e-01,1.30462e-12,-9.43150e-01,5.15263e-13,-9.43150e-01
8.24135e+02,5.08300e+03,6.61800e+03,-1.53500e+03,1.04683e-12,-9.35605e-01,6.11776e-13,-9.35605e-01,4.48099e-13,-9.35605e-01
8.24384e+02,4.90600e+03,6.73400e+03,-1.82800e+03,6.20623e-13,-9.28059e-01,5.95441e-13,-9.28059e-01,6.80122e-13,-9.28059e-01
8.24633e+02,6.07900e+03,6.17000e+03,-9.10000e+01,6.68415e-13,-9.20514e-01,5.99515e-13,-9.20514e-01,5.00237e-13,-9.20514e-01
8.24881e+02,6.80900e+03,5.30700e+03,1.50200e+03,5.91696e-13,-9.12969e-01,5.98430e-13,-9.12969e-01,7.18687e-13,-9.12969e-01
8.25130e+02,6.78500e+03,5.07700e+03,1.70800e+03,8.86993e-13,-9.05424e-01,1.01316e-12,-9.05424e-01,5.59412e-13,-9.05424e-01
8.25379e+02,5.56500e+03,6.11700e+03,-5.52000e+02,1.13182e-12,-8.97879e-01,6.78080e-13,-8.97879e-01,4.89306e-13,-8.97879e-01
8.25627e+02,4.61800e+03,6.94900e+03,-2.33100e+03,8.62026e-13,-8.90333e-01,7.22854e-13,-8.90333e-01,1.14532e-12,-8.90333e-01
8.25876e+02,5.00300e+03,6.56200e+03,-1.55900e+03,2.59060e-13,-8.82788e-01,1.09156e-12,-8.82788e-01,1.20178e-12,-8.82788e-01
8.26125e+02,5.62000e+03,5.85900e+03,-2.39000e+02,2.37652e-13,-8.75243e-01,9.64811e-13,-8.75243e-01,8.13451e-13,-8.75243e-01
8.26373e+02,5.90000e+03,5.37600e+03,5.24000e+02,5.12135e-13,-8.67698e-01,8.21263e-13,-8.67698e-01,4.62330e-13,-8.67698e-01
8.26622e+02,5.47000e+03,5.01500e+03,4.55000e+02,4.15689e-13,-8.60153e-01,1.96715e-13,-8.60153e-01,5.85979e-13,-8.60153e-01
8.26870e+02,4.02800e+03,5.18000e+03,-1.15200e+03,6.84784e-13,-8.52607e-01,1.31179e-12,-8.52607e-01,1.34183e-12,-8.52607e-01
8.27119e+02,3.36700e+03,4.99100e+03,-1.62400e+03,1.15923e-12,-8.45062e-01,1.83533e-12,-8.45062e-01,1.49869e-12,-8.45062e-01
8.27368e+02,3.77300e+03,4.72800e+03,-9.55000e+02,8.50307e-13,-8.37517e-01,1.19425e-12,-8.37517e-01,4.11063e-13,-8.37517e-01
8.27616e+02,5.10800e+03,4.17200e+03,9.36000e+02,8.70899e-13,-8.29972e-01,4.24110e-13,-8.29972e-01,1.12122e-12,-8.29972e-01
8.27865e+02,5.45300e+03,3.56600e+03,1.88700e+03,9.28478e-13,-8.22427e-01,1.08934e-12,-8.22427e-01,1.94090e-12,-8.22427e-01
8.28113e+02,4.70900e+03,3.89800e+03,8.11000e+02,7.32327e-13,-8.14881e-01,1.62130e-12,-8.14881e-01,1.84974e-12,-8.14881e-01
8.28362e+02,3.67300e+03,4.70700e+03,-1.03400e+03,6.51017e-13,-8.07336e-01,1.69558e-12,-8.07336e-01,1.72678e-12,-8.07336e-01
8.28610e+02,3.38600e+03,5.16400e+03,-1.77800e+03,7.47355e-13,-7.99791e-01,1.34078e-12,-7.99791e-01,1.74941e-12,-7.99791e-01
8.28859e+02,3.93900e+03,5.09600e+03,-1.15700e+03,1.10431e-12,-7.92246e-01,6.06104e-13,-7.92246e-01,1.70954e-12,-7.92246e-01
8.29108e+02,4.62400e+03,4.08200e+03,5.42000e+02,8.00663e-13,-7.84701e-01,4.06547e-13,-7.84701e-01,6.38510e-13,-7.84701e-01
8.29356e+02,4.26400e+03,3.45800e+03,8.06000e+02,6.47452e-13,-7.77155e-01,1.26163e-12,-7.77155e-01,1.82720e-12,-7.77155e-01
8.29605e+02,3.49100e+03,3.48900e+03,2.00000e+00,1.81358e-12,-7.69610e-01,1.46700e-12,-7.69610e-01,3.20547e-12,-7.69610e-01
8.29853e+02,2.81400e+03,3.93700e+03,-1.12300e+03,1.79936e-12,-7.62065e-01,9.18753e-13,-7.62065e-01,2.60399e-12,-7.62065e-01
8.30101e+02,2.66300e+03,4.21700e+03,-1.55400e+03,5.52036e-13,-7.54520e-01,4.91837e-13,-7.54520e-01,8.12052e-13,-7.54520e-01
8.30350e+02,2.64300e+03,3.30100e+03,-6.58000e+02,1.11144e-12,-7.46975e-01,9.13899e-13,-7.46975e-01,1.77020e-12,-7.46975e-01
8.30598e+02,2.80100e+03,2.58300e+03,2.18000e+02,1.96049e-12,-7.39429e-01,1.37350e-12,-7.39429e-01,2.91085e-12,-7.39429e-01
8.30847e+02,2.63300e+03,2.22700e+03,4.06000e+02,1.54342e-12,-7.31884e-01,7.86383e-13,-7.31884e-01,2.30994e-12,-7.31884e-01
8.31095e+02,2.35000e+03,2.36600e+03,-1.60000e+01,1.87266e-12,-7.24339e-01,8.80371e-13,-7.24339e-01,1.18357e-12,-7.24339e-01
8.31344e+02,2.14100e+03,2.65300e+03,-5.12000e+02,1.94961e-12,-7.16794e-01,2.25503e-12,-7.16794e-01,1.11721e-12,-7.16794e-01
8.31592e+02,1.94400e+03,2.46300e+03,-5.19000e+02,1.53021e-12,-7.09249e-01,1.41910e-12,-7.09249e-01,7.44495e-13,-7.09249e-01
8.31841e+02,1.85300e+03,2.14400e+03,-2.91000e+02,2.19999e-12,-7.01703e-01,7.02014e-13,-7.01703e-01,2.88361e-12,-7.01703e-01
8.32089e+02,1.95000e+03,1.81100e+03,1.39000e+02,2.79777e-12,-6.94158e-01,9.76820e-13,-6.94158e-01,3.34427e-12,-6.94158e-01
8.32337e+02,2.00100e+03,1.69700e+03,3.04000e+02,2.50833e-12,-6.86613e-01,4.22624e-13,-6.86613e-01,2.27316e-12,-6.86613e-01
8.32586e+02,1.85600e+03,1.80300e+03,5.30000e+01,1.10567e-12,-6.79068e-01,1.68741e-13,-6.79068e-01,9.62858e-13,-6.79068e-01
8.32834e+02,1.73200e+03,2.10300e+03,-3.71000e+02,1.87071e-12,-6.71523e-01,3.52902e-13,-6.71523e-01,1.70326e-12,-6.71523e-01
8.33083e+02,1.69700e+03,2.13000e+03,-4.33000e+02,2.76426e-12,-6.63977e-01,5.08526e-13,-6.63977e-01,3.18319e-12,-6.63977e-01
8.33331e+02,1.78100e+03,1.88400e+03,-1.03000e+02,2.49167e-12,-6.56432e-01,4.54144e-13,-6.56432e-01,2.90886e-12,-6.56432e-01
8.33579e+02,1.70200e+03,1.50800e+03,1.94000e+02,1.06890e-12,-6.48887e-01,4.54192e-13,-6.48887e-01,7.99656e-13,-6.48887e-01
8.33828e+02,1.56900e+03,1.39200e+03,1.77000e+02,7.41184e-13,-6.41342e-01,9.15714e-13,-6.41342e-01,1.64257e-12,-6.41342e-01
8.34076e+02,1.51900e+03,1.44500e+03,7.40000e+01,9.98203e-13,-6.33797e-01,9.60950e-13,-6.33797e-01,1.50847e-12,-6.33797e-01
8.34324e+02,1.33700e+03,1.52800e+03,-1.91000e+02,1.14907e-12,-6.26251e-01,1.09571e-12,-6.26251e-01,1.00952e-13,-6.26251e-01
8.34573e+02,1.25100e+03,1.53600e+03,-2.85000e+02,9.26661e-13,-6.18706e-01,2.31363e-12,-6.18706e-01,1.94200e-12,-6.18706e-01
8.34821e+02,1.28000e+03,1.40600e+03,-1.26000e+02,1.00381e-12,-6.11161e-01,3.73779e-12,-6.11161e-01,2.87732e-12,-6.11161e-01
8.35069e+02,1.41400e+03,1.26400e+03,1.50000e+02,2.66684e-12,-6.03616e-01,3.32372e-12,-6.03616e-01,2.72982e-12,-6.03616e-01
8.35318e+02,1.43400e+03,1.21900e+03,2.15000e+02,3.68768e-12,-5.96071e-01,1.86921e-12,-5.96071e-01,4.30343e-12,-5.96071e-01
8.35566e+02,1.27100e+03,1.26500e+03,6.00000e+00,3.55341e-12,-5.88525e-01,2.71853e-12,-5.88525e-01,5.86284e-12,-5.88525e-01
8.35814e+02,1.18800e+03,1.24300e+03,-5.50000e+01,3.45270e-12,-5.80980e-01,2.20553e-12,-5.80980e-01,5.21364e-12,-5.80980e-01
8.36062e+02,1.14800e+03,1.30700e+03,-1.59000e+02,2.52466e-12,-5.73435e-01,1.98833e-13,-5.73435e-01,2.56209e-12,-5.73435e-01
8.36311e+02,1.19100e+03,1.28300e+03,-9.20000e+01,7.89277e-13,-5.65890e-01,1.62758e-12,-5.65890e-01,1.54362e-12,-5.65890e-01
8.36559e+02,1.21000e+03,1.12600e+03,8.40000e+01,8.91855e-13,-5.58345e-01,2.11463e-12,-5.58345e-01,2.91485e-12,-5.58345e-01
8.36807e+02,1.21100e+03,1.02600e+03,1.85000e+02,7.50160e-13,-5.50799e-01,1.83094e-12,-5.50799e-01,2.20005e-12,-5.50799e-01
8.37055e+02,1.12200e+03,1.03600e+03,8.60000e+01,1.47119e-12,-5.43254e-01,1.75283e-12,-5.43254e-01,1.49672e-12,-5.43254e-01
8.37304e+02,1.03400e+03,1.10800e+03,-7.40000e+01,4.63312e-12,-5.35709e-01,1.27038e-12,-5.35709e-01,5.02752e-12,-5.35709e-01
8.37552e+02,9.94000e+02,1.15200e+03,-1.58000e+02,6.09828e-12,-5.28164e-01,2.94202e-12,-5.28164e-01,8.96407e-12,-5.28164e-01
8.37800e+02,1.00500e+03,1.09100e+03,-8.60000e+01,3.83384e-12,-5.20619e-01,2.74695e-12,-5.20619e-01,6.35402e-12,-5.20619e-01
8.38048e+02,1.02700e+03,9.82000e+02,4.50000e+01,4.30913e-12,-5.13073e-01,4.11966e-12,-5.13073e-01,3.77312e-12,-5.13073e-01
8.38296e+02,1.01500e+03,9.50000e+02,6.50000e+01,7.87785e-12,-5.05528e-01,7.89331e-12,-5.05528e-01,1.21373e-11,-5.05528e-01
8.38545e+02,9.43000e+02,9.45000e+02,-2.00000e+00,9.55704e-12,-4.97983e-01,1.02229e-11,-4.97983e-01,1.86860e-11,-4.97983e-01
8.38793e+02,8.80000e+02,9.64000e+02,-8.40000e+01,9.58599e-12,-4.90438e-01,9.50303e-12,-4.90438e-01,1.90796e-11,-4.90438e-01
8.39041e+02,8.45000e+02,9.58000e+02,-1.13000e+02,1.23552e-11,-4.82893e-01,1.06738e-11,-4.82893e-01,2.26579e-11,-4.82893e-01
8.39289e+02,8.40000e+02,8.82000e+02,-4.20000e+01,2.32441e-11,-4.75347e-01,2.43022e-11,-4.75347e-01,4.69914e-11,-4.75347e-01
8.39537e+02,8.54000e+02,8.40000e+02,1.40000e+01,3.16464e-11,-4.67802e-01,3.27055e-11,-4.67802e-01,6.35152e-11,-4.67802e-01
8.39785e+02,8.48000e+02,8.09000e+02,3.90000e+01,3.12675e-11,-4.60257e-01,3.01649e-11,-4.60257e-01,6.04498e-11,-4.60257e-01
8.40033e+02,8.43000e+02,8.09000e+02,3.40000e+01,2.73663e-11,-4.52712e-01,2.54645e-11,-4.52712e-01,5.24543e-11,-4.52712e-01
8.40281e+02,8.01000e+02,8.26000e+02,-2.50000e+01,1.91144e-11,-4.45167e-01,2.03949e-11,-4.45167e-01,3.94496e-11,-4.45167e-01
8.40530e+02,7.79000e+02,8.28000e+02,-4.90000e+01,7.51834e-12,-4.37621e-01,1.31930e-11,-4.37621e-01,2.05911e-11,-4.37621e-01
8.40778e+02,7.85000e+02,8.45000e+02,-6.00000e+01,6.02975e-12,-4.30076e-01,7.91312e-12,-4.30076e-01,1.12122e-11,-4.30076e-01
8.41026e+02,8.21000e+02,8.03000e+02,1.80000e+01,5.26206e-12,-4.22531e-01,3.56713e-12,-4.22531e-01,6.36852e-12,-4.22531e-01
8.41274e+02,8.25000e+02,7.94000e+02,3.10000e+01,3.56020e-12,-4.14986e-01,2.11115e-12,-4.14986e-01,3.86747e-12,-4.14986e-01
8.41522e+02,7.98000e+02,7.60000e+02,3.80000e+01,6.74883e-12,-4.07441e-01,3.48878e-12,-4.07441e-01,7.18733e-12,-4.07441e-01
8.41770e+02,7.54000e+02,7.72000e+02,-1.80000e+01,6.61177e-12,-3.99895e-01,3.78550e-12,-3.99895e-01,8.45270e-12,-3.99895e-01
8.42018e+02,7.34000e+02,7.83000e+02,-4.90000e+01,4.38013e-12,-3.92350e-01,3.09070e-12,-3.92350e-01,5.42417e-12,-3.92350e-01
8.42266e+02,7.38000e+02,7.56000e+02,-1.80000e+01,2.07764e-12,-3.84805e-01,5.86613e-12,-3.84805e-01,6.86100e-12,-3.84805e-01
8.42514e+02,7.45000e+02,7.32000e+02,1.30000e+01,4.81851e-12,-3.77260e-01,7.83380e-12,-3.77260e-01,1.24319e-11,-3.77260e-01
8.42762e+02,7.54000e+02,7.21000e+02,3.30000e+01,5.91604e-12,-3.69715e-01,5.53629e-12,-3.69715e-01,1.12739e-11,-3.69715e-01
8.43010e+02,7.57000e+02,7.17000e+02,4.00000e+01,4.57643e-12,-3.62169e-01,2.14396e-12,-3.62169e-01,6.16644e-12,-3.62169e-01
8.43258e+02,7.35000e+02,7.18000e+02,1.70000e+01,4.50480e-12,-3.54624e-01,1.48560e-12,-3.54624e-01,3.58353e-12,-3.54624e-01
8.43506e+02,7.06000e+02,7.17000e+02,-1.10000e+01,4.18777e-12,-3.47079e-01,2.93608e-12,-3.47079e-01,4.22834e-12,-3.47079e-01
8.43754e+02,7.16000e+02,7.30000e+02,-1.40000e+01,3.46517e-12,-3.39534e-01,1.82602e-12,-3.39534e-01,3.27455e-12,-3.39534e-01
8.44002e+02,7.08000e+02,7.04000e+02,4.00000e+00,2.79476e-12,-3.31989e-01,5.58273e-13,-3.31989e-01,2.23706e-12,-3.31989e-01
8.44250e+02,7.09000e+02,6.82000e+02,2.70000e+01,1.70405e-12,-3.24444e-01,9.37957e-13,-3.24444e-01,1.91164e-12,-3.24444e-01
8.44498e+02,7.16000e+02,6.90000e+02,2.60000e+01,2.03469e-12,-3.16898e-01,2.47986e-12,-3.16898e-01,7.69523e-13,-3.16898e-01
8.44746e+02,6.93000e+02,7.21000e+02,-2.80000e+01,4.79558e-12,-3.09353e-01,4.14995e-12,-3.09353e-01,6.73291e-13,-3.09353e-01
8.44994e+02,6.93000e+02,6.91000e+02,2.00000e+00,6.12355e-12,-3.01808e-01,6.21182e-12,-3.01808e-01,6.68967e-13,-3.01808e-01
8.45242e+02,6.81000e+02,7.02000e+02,-2.10000e+01,4.53122e-12,-2.94263e-01,6.76786e-12,-2.94263e-01,2.71490e-12,-2.94263e-01
8.45490e+02,7.18000e+02,6.98000e+02,2.00000e+01,1.37996e-12,-2.86718e-01,3.73859e-12,-2.86718e-01,4.43547e-12,-2.86718e-01
8.45738e+02,6.95000e+02,6.89000e+02,6.00000e+00,5.63835e-12,-2.79172e-01,1.90955e-12,-2.79172e-01,4.18966e-12,-2.79172e-01
8.45985e+02,7.00000e+02,6.95000e+02,5.00000e+00,6.34660e-12,-2.71627e-01,4.01818e-12,-2.71627e-01,2.38411e-12,-2.71627e-01
8.46233e+02,6.88000e+02,7.04000e+02,-1.60000e+01,3.87873e-12,-2.64082e-01,2.82349e-12,-2.64082e-01,1.08059e-12,-2.64082e-01
8.46481e+02,6.96000e+02,7.00000e+02,-4.00000e+00,1.83121e-12,-2.56537e-01,1.05363e-12,-2.56537e-01,8.89695e-13,-2.56537e-01
8.46729e+02,6.85000e+02,6.92000e+02,-7.00000e+00,2.16604e-12,-2.48992e-01,1.15404e-12,-2.48992e-01,2.35097e-12,-2.48992e-01
8.46977e+02,6.84000e+02,6.84000e+02,0.00000e+00,1.75519e-12,-2.41446e-01,1.96157e-12,-2.41446e-01,3.71075e-12,-2.41446e-01
8.47225e+02,6.88000e+02,6.97000e+02,-9.00000e+00,2.28983e-12,-2.33901e-01,3.74482e-12,-2.33901e-01,3.40488e-12,-2.33901e-01
8.47473e+02,6.70000e+02,6.93000e+02,-2.30000e+01,2.92823e-12,-2.26356e-01,5.22852e-12,-2.26356e-01,2.30835e-12,-2.26356e-01
8.47720e+02,6.84000e+02,6.78000e+02,6.00000e+00,1.88204e-12,-2.18811e-01,5.11732e-12,-2.18811e-01,4.59495e-12,-2.18811e-01
8.47968e+02,6.89000e+02,6.83000e+02,6.00000e+00,1.43369e-12,-2.11266e-01,3.13960e-12,-2.11266e-01,4.23418e-12,-2.11266e-01
8.48216e+02,6.80000e+02,6.70000e+02,1.00000e+01,2.44066e-12,-2.03720e-01,3.00228e-12,-2.03720e-01,2.40126e-12,-2.03720e-01
8.48464e+02,6.77000e+02,6.73000e+02,4.00000e+00,3.95350e-12,-1.96175e-01,4.92641e-12,-1.96175e-01,1.53924e-12,-1.96175e-01
8.48712e+02,6.72000e+02,6.78000e+02,-6.00000e+00,6.40638e-12,-1.88630e-01,5.21582e-12,-1.88630e-01,1.32369e-12,-1.88630e-01
8.48960e+02,6.85000e+02,6.73000e+02,1.20000e+01,9.98749e-12,-1.81085e-01,5.53359e-12,-1.81085e-01,5.15487e-12,-1.81085e-01
8.49207e+02,6.96000e+02,6.85000e+02,1.10000e+01,1.03764e-11,-1.73540e-01,5.61723e-12,-1.73540e-01,5.64290e-12,-1.73540e-01
8.49455e+02,6.72000e+02,6.69000e+02,3.00000e+00,6.00397e-12,-1.65994e-01,5.44877e-12,-1.65994e-01,2.07703e-12,-1.65994e-01
8.49703e+02,6.73000e+02,6.71000e+02,2.00000e+00,8.84793e-12,-1.58449e-01,1.27520e-11,-1.58449e-01,4.69305e-12,-1.58449e-01
8.49951e+02,6.73000e+02,6.68000e+02,5.00000e+00,1.13813e-11,-1.50904e-01,1.48975e-11,-1.50904e-01,5.11892e-12,-1.50904e-01
8.50198e+02,6.76000e+02,6.82000e+02,-6.00000e+00,8.77627e-12,-1.43359e-01,1.25574e-11,-1.43359e-01,4.11499e-12,-1.43359e-01
8.50446e+02,6.74000e+02,6.67000e+02,7.00000e+00,3.04464e-12,-1.35814e-01,6.31590e-12,-1.35814e-01,3.28889e-12,-1.35814e-01
8.50694e+02,6.89000e+02,6.77000e+02,1.20000e+01,2.01080e-12,-1.28268e-01,1.32527e-12,-1.28268e-01,2.28656e-12,-1.28268e-01
8.50941e+02,6.97000e+02,6.99000e+02,-2.00000e+00,4.23497e-12,-1.20723e-01,3.65115e-12,-1.20723e-01,1.99875e-12,-1.20723e-01
8.51189e+02,6.89000e+02,6.90000e+02,-1.00000e+00,2.19489e-12,-1.13178e-01,2.75380e-12,-1.13178e-01,9.51267e-13,-1.13178e-01
8.51437e+02,6.79000e+02,6.75000e+02,4.00000e+00,4.45745e-12,-1.05633e-01,3.30375e-12,-1.05633e-01,1.40723e-12,-1.05633e-01
8.51685e+02,6.69000e+02,6.70000e+02,-1.00000e+00,1.60986e-11,-9.80876e-02,1.48047e-11,-9.80876e-02,2.02330e-12,-9.80876e-02
8.51932e+02,6.72000e+02,6.93000e+02,-2.10000e+01,2.08923e-11,-9.05424e-02,1.97198e-11,-9.05424e-02,1.76724e-12,-9.05424e-02
8.52180e+02,6.72000e+02,6.81000e+02,-9.00000e+00,1.26286e-11,-8.29972e-02,1.34068e-11,-8.29972e-02,1.77139e-12,-8.29972e-02
8.52428e+02,6.64000e+02,6.64000e+02,0.00000e+00,5.99787e-12,-7.54520e-02,6.69263e-12,-7.54520e-02,2.17387e-12,-7.54520e-02
8.52675e+02,6.67000e+02,6.76000e+02,-9.00000e+00,1.23345e-11,-6.79068e-02,1.02451e-11,-6.79068e-02,2.65176e-12,-6.79068e-02
8.52923e+02,6.76000e+02,6.86000e+02,-1.00000e+01,1.38499e-11,-6.03616e-02,1.35665e-11,-6.03616e-02,5.10034e-12,-6.03616e-02
8.53170e+02,6.80000e+02,6.95000e+02,-1.50000e+01,1.18370e-11,-5.28164e-02,1.09821e-11,-5.28164e-02,5.05470e-12,-5.28164e-02
8.53418e+02,6.69000e+02,6.76000e+02,-7.00000e+00,8.55169e-12,-4.52712e-02,5.05114e-12,-4.52712e-02,5.53504e-12,-4.52712e-02
8.53666e+02,6.70000e+02,6.71000e+02,-1.00000e+00,5.81617e-12,-3.77260e-02,5.64245e-12,-3.77260e-02,7.00630e-12,-3.77260e-02
8.53913e+02,6.84000e+02,6.98000e+02,-1.40000e+01,1.91484e-11,-3.01808e-02,1.78380e-11,-3.01808e-02,5.22858e-12,-3.01808e-02
8.54161e+02,6.84000e+02,6.86000e+02,-2.00000e+00,3.30777e-11,-2.26356e-02,3.61320e-11,-2.26356e-02,3.91238e-12,-2.26356e-02
8.54409e+02,6.63000e+02,6.81000e+02,-1.80000e+01,9.63133e-11,-1.50904e-02,9.70029e-11,-1.50904e-02,1.21048e-11,-1.50904e-02
8.54656e+02,6.76000e+02,6.69000e+02,7.00000e+00,2.82530e-10,-7.54520e-03,2.79710e-10,-7.54520e-03,1.08343e-11,-7.54520e-03
