7.67698e+02,6.72000e+02,6.55000e+02,1.70000e+01,1.08938e-10,0.00000e+00,1.08755e-10,0.00000e+00,1.82942e-13,0.00000e+00
7.67949e+02,6.76000e+02,6.73000e+02,3.00000e+00,2.82921e-11,7.54520e-03,2.84803e-11,7.54520e-03,4.81320e-13,7.54520e-03
7.68199e+02,6.77000e+02,6.73000e+02,4.00000e+00,1.21007e-11,1.50904e-02,1.24620e-11,1.50904e-02,5.81697e-13,1.50904e-02
7.68450e+02,6.69000e+02,6.71000e+02,-2.00000e+00,4.80830e-12,2.26356e-02,5.43349e-12,2.26356e-02,6.50588e-13,2.26356e-02
7.68701e+02,6.82000e+02,6.60000e+02,2.20000e+01,3.56344e-12,3.01808e-02,3.87672e-12,3.01808e-02,8.07961e-13,3.01808e-02
7.68951e+02,6.85000e+02,6.72000e+02,1.30000e+01,2.16852e-12,3.77260e-02,2.10926e-12,3.77260e-02,4.79630e-13,3.77260e-02
7.69202e+02,6.82000e+02,6.82000e+02,0.00000e+00,2.15318e-12,4.52712e-02,2.15410e-12,4.52712e-02,2.73285e-13,4.52712e-02
7.69453e+02,6.75000e+02,6.71000e+02,4.00000e+00,3.07209e-13,5.28164e-02,2.55461e-13,5.28164e-02,1.29161e-13,5.28164e-02
7.69703e+02,6.81000e+02,6.94000e+02,-1.30000e+01,6.08226e-13,6.03616e-02,4.35173e-13,6.03616e-02,1.95222e-13,6.03616e-02
7.69954e+02,6.69000e+02,6.85000e+02,-1.60000e+01,2.28108e-13,6.79068e-02,3.68201e-13,6.79068e-02,1.40990e-13,6.79068e-02
7.70205e+02,6.73000e+02,6.79000e+02,-6.00000e+00,4.02814e-13,7.54520e-02,4.80949e-14,7.54520e-02,3.59379e-13,7.54520e-02
7.70455e+02,6.99000e+02,6.67000e+02,3.20000e+01,7.47934e-13,8.29972e-02,5.13855e-13,8.29972e-02,5.46101e-13,8.29972e-02
7.70706e+02,6.81000e+02,6.79000e+02,2.00000e+00,2.95330e-13,9.05424e-02,3.94154e-13,9.05424e-02,6.04662e-13,9.05424e-02
7.70957e+02,6.85000e+02,6.81000e+02,4.00000e+00,6.13346e-13,9.80876e-02,2.70595e-13,9.80876e-02,8.23282e-13,9.80876e-02
7.71207e+02,6.94000e+02,7.03000e+02,-9.00000e+00,3.67201e-13,1.05633e-01,5.16431e-13,1.05633e-01,8.32353e-13,1.05633e-01
7.71458e+02,6.96000e+02,6.91000e+02,5.00000e+00,6.72975e-13,1.13178e-01,2.46728e-13,1.13178e-01,7.52816e-13,1.13178e-01
7.71708e+02,6.86000e+02,6.69000e+02,1.70000e+01,6.21048e-13,1.20723e-01,2.28079e-13,1.20723e-01,6.38398e-13,1.20723e-01
7.71959e+02,6.96000e+02,6.79000e+02,1.70000e+01,4.50657e-13,1.28268e-01,3.65037e-13,1.28268e-01,6.92674e-13,1.28268e-01
7.72210e+02,6.97000e+02,6.98000e+02,-1.00000e+00,9.99469e-13,1.35814e-01,5.03863e-13,1.35814e-01,1.09842e-12,1.35814e-01
7.72460e+02,6.86000e+02,6.88000e+02,-2.00000e+00,1.10664e-12,1.43359e-01,2.53641e-13,1.43359e-01,1.23696e-12,1.43359e-01
7.72711e+02,6.86000e+02,7.01000e+02,-1.50000e+01,1.05806e-12,1.50904e-01,2.82065e-13,1.50904e-01,8.78295e-13,1.50904e-01
7.72961e+02,6.99000e+02,6.88000e+02,1.10000e+01,9.08231e-13,1.58449e-01,5.17426e-13,1.58449e-01,3.90822e-13,1.58449e-01
7.73212e+02,7.04000e+02,7.18000e+02,-1.40000e+01,4.57248e-13,1.65994e-01,4.44670e-13,1.65994e-01,4.74558e-14,1.65994e-01
7.73462e+02,7.02000e+02,6.94000e+02,8.00000e+00,3.81838e-13,1.73540e-01,4.22443e-13,1.73540e-01,4.87973e-14,1.73540e-01
7.73713e+02,7.08000e+02,7.14000e+02,-6.00000e+00,1.70543e-13,1.81085e-01,8.47520e-14,1.81085e-01,9.38422e-14,1.81085e-01
7.73963e+02,6.93000e+02,7.08000e+02,-1.50000e+01,4.00011e-13,1.88630e-01,1.85861e-13,1.88630e-01,5.01277e-13,1.88630e-01
7.74214e+02,7.15000e+02,7.13000e+02,2.00000e+00,6.45281e-13,1.96175e-01,1.11060e-13,1.96175e-01,6.44825e-13,1.96175e-01
7.74465e+02,7.24000e+02,7.09000e+02,1.50000e+01,5.05360e-13,2.03720e-01,1.04350e-13,2.03720e-01,5.99661e-13,2.03720e-01
7.74715e+02,7.13000e+02,7.20000e+02,-7.00000e+00,8.79264e-13,2.11266e-01,1.79208e-13,2.11266e-01,8.43411e-13,2.11266e-01
7.74965e+02,7.28000e+02,7.08000e+02,2.00000e+01,8.25783e-13,2.18811e-01,1.22407e-13,2.18811e-01,9.11565e-13,2.18811e-01
7.75216e+02,7.15000e+02,7.29000e+02,-1.40000e+01,3.69530e-13,2.26356e-01,2.16655e-13,2.26356e-01,3.92306e-13,2.26356e-01
7.75466e+02,7.18000e+02,7.38000e+02,-2.00000e+01,5.13804e-13,2.33901e-01,5.08266e-13,2.33901e-01,3.25788e-14,2.33901e-01
7.75717e+02,7.27000e+02,7.31000e+02,-4.00000e+00,7.42122e-13,2.41446e-01,4.07968e-13,2.41446e-01,3.58946e-13,2.41446e-01
7.75967e+02,7.35000e+02,7.14000e+02,2.10000e+01,5.93163e-13,2.48992e-01,3.23165e-13,2.48992e-01,3.58576e-13,2.48992e-01
7.76218e+02,7.37000e+02,7.35000e+02,2.00000e+00,2.41357e-13,2.56537e-01,2.64185e-13,2.56537e-01,3.79271e-13,2.56537e-01
7.76468e+02,7.40000e+02,7.59000e+02,-1.90000e+01,9.13575e-14,2.64082e-01,4.61023e-13,2.64082e-01,4.98772e-13,2.64082e-01
7.76719e+02,7.20000e+02,7.44000e+02,-2.40000e+01,1.38715e-13,2.71627e-01,4.73667e-13,2.71627e-01,5.70728e-13,2.71627e-01
7.76969e+02,7.23000e+02,7.35000e+02,-1.20000e+01,3.41396e-13,2.79172e-01,4.66899e-13,2.79172e-01,4.53027e-13,2.79172e-01
7.77219e+02,7.47000e+02,7.42000e+02,5.00000e+00,5.34728e-13,2.86718e-01,2.97694e-13,2.86718e-01,4.99867e-13,2.86718e-01
7.77470e+02,7.58000e+02,7.32000e+02,2.60000e+01,6.91118e-13,2.94263e-01,5.33591e-13,2.94263e-01,7.64829e-13,2.94263e-01
7.77720e+02,7.47000e+02,7.43000e+02,4.00000e+00,5.58530e-13,3.01808e-01,5.25761e-13,3.01808e-01,7.17974e-13,3.01808e-01
7.77971e+02,7.37000e+02,7.56000e+02,-1.90000e+01,5.42404e-13,3.09353e-01,5.88207e-13,3.09353e-01,5.11957e-13,3.09353e-01
7.78221e+02,7.49000e+02,7.51000e+02,-2.00000e+00,3.88482e-13,3.16898e-01,3.47113e-13,3.16898e-01,1.48664e-13,3.16898e-01
7.78471e+02,7.54000e+02,7.35000e+02,1.90000e+01,4.08247e-13,3.24444e-01,2.04076e-13,3.24444e-01,2.04281e-13,3.24444e-01
7.78722e+02,7.65000e+02,7.44000e+02,2.10000e+01,2.77811e-13,3.31989e-01,2.34098e-13,3.31989e-01,1.10713e-13,3.31989e-01
7.78972e+02,7.45000e+02,7.42000e+02,3.00000e+00,9.79035e-14,3.39534e-01,5.68381e-14,3.39534e-01,6.35360e-14,3.39534e-01
7.79222e+02,7.57000e+02,7.66000e+02,-9.00000e+00,1.62001e-13,3.47079e-01,1.89737e-13,3.47079e-01,6.04108e-14,3.47079e-01
7.79473e+02,7.47000e+02,7.64000e+02,-1.70000e+01,1.30206e-13,3.54624e-01,2.70750e-13,3.54624e-01,1.87304e-13,3.54624e-01
7.79723e+02,7.69000e+02,7.50000e+02,1.90000e+01,4.78010e-13,3.62169e-01,4.27639e-13,3.62169e-01,2.12444e-13,3.62169e-01
7.79973e+02,7.78000e+02,7.45000e+02,3.30000e+01,5.17747e-13,3.69715e-01,4.29248e-13,3.69715e-01,3.21863e-13,3.69715e-01
7.80224e+02,7.81000e+02,7.70000e+02,1.10000e+01,6.42959e-13,3.77260e-01,4.40187e-13,3.77260e-01,5.45544e-13,3.77260e-01
7.80474e+02,7.56000e+02,7.57000e+02,-1.00000e+00,4.86042e-13,3.84805e-01,5.04715e-13,3.84805e-01,4.70441e-13,3.84805e-01
7.80724e+02,7.62000e+02,7.66000e+02,-4.00000e+00,2.67489e-13,3.92350e-01,4.97120e-13,3.92350e-01,5.00176e-13,3.92350e-01
7.80974e+02,7.56000e+02,7.84000e+02,-2.80000e+01,8.64820e-14,3.99895e-01,5.62058e-13,3.99895e-01,5.21080e-13,3.99895e-01
7.81225e+02,7.85000e+02,7.64000e+02,2.10000e+01,1.53402e-13,4.07441e-01,4.91081e-13,4.07441e-01,3.46774e-13,4.07441e-01
7.81475e+02,7.61000e+02,7.38000e+02,2.30000e+01,3.17750e-13,4.14986e-01,3.58047e-13,4.14986e-01,3.70247e-13,4.14986e-01
7.81725e+02,7.52000e+02,7.62000e+02,-1.00000e+01,4.52152e-13,4.22531e-01,6.18877e-13,4.22531e-01,8.01371e-13,4.22531e-01
7.81975e+02,7.35000e+02,7.58000e+02,-2.30000e+01,4.56097e-13,4.30076e-01,5.83666e-13,4.30076e-01,9.42847e-13,4.30076e-01
7.82226e+02,7.56000e+02,7.45000e+02,1.10000e+01,3.21860e-13,4.37621e-01,1.46462e-13,4.37621e-01,4.20086e-13,4.37621e-01
7.82476e+02,7.80000e+02,7.53000e+02,2.70000e+01,6.50537e-13,4.45167e-01,4.37118e-13,4.45167e-01,1.06067e-12,4.45167e-01
7.82726e+02,7.62000e+02,7.52000e+02,1.00000e+01,1.18044e-12,4.52712e-01,1.18295e-12,4.52712e-01,2.31067e-12,4.52712e-01
7.82976e+02,7.63000e+02,7.48000e+02,1.50000e+01,1.84612e-12,4.60257e-01,1.73766e-12,4.60257e-01,3.46853e-12,4.60257e-01
7.83226e+02,7.56000e+02,7.61000e+02,-5.00000e+00,1.94285e-12,4.67802e-01,1.79713e-12,4.67802e-01,3.53504e-12,4.67802e-01
7.83477e+02,7.58000e+02,7.69000e+02,-1.10000e+01,1.50435e-12,4.75347e-01,1.16860e-12,4.75347e-01,2.52417e-12,4.75347e-01
7.83727e+02,7.76000e+02,7.44000e+02,3.20000e+01,8.31750e-13,4.82893e-01,6.80044e-13,4.82893e-01,1.33739e-12,4.82893e-01
7.83977e+02,7.53000e+02,7.40000e+02,1.30000e+01,1.67274e-13,4.90438e-01,6.40936e-13,4.90438e-01,7.58145e-13,4.90438e-01
7.84227e+02,7.71000e+02,7.64000e+02,7.00000e+00,8.84433e-14,4.97983e-01,3.04148e-13,4.97983e-01,2.46276e-13,4.97983e-01
7.84477e+02,7.53000e+02,7.61000e+02,-8.00000e+00,9.39608e-14,5.05528e-01,2.99494e-13,5.05528e-01,3.06868e-13,5.05528e-01
7.84727e+02,7.52000e+02,7.72000e+02,-2.00000e+01,2.49287e-13,5.13073e-01,1.03638e-13,5.13073e-01,3.39309e-13,5.13073e-01
7.84978e+02,7.73000e+02,7.68000e+02,5.00000e+00,1.69594e-13,5.20619e-01,2.17531e-13,5.20619e-01,2.76700e-13,5.20619e-01
7.85228e+02,7.79000e+02,7.44000e+02,3.50000e+01,2.96143e-13,5.28164e-01,1.99672e-13,5.28164e-01,4.87654e-13,5.28164e-01
7.85478e+02,7.55000e+02,7.55000e+02,0.00000e+00,1.97186e-13,5.35709e-01,1.85711e-13,5.35709e-01,3.53256e-13,5.35709e-01
7.85728e+02,7.58000e+02,7.54000e+02,4.00000e+00,1.74739e-13,5.43254e-01,7.62004e-14,5.43254e-01,1.51018e-13,5.43254e-01
7.85978e+02,7.51000e+02,7.54000e+02,-3.00000e+00,1.03156e-13,5.50799e-01,6.86685e-14,5.50799e-01,4.81043e-14,5.50799e-01
7.86228e+02,7.76000e+02,7.55000e+02,2.10000e+01,2.12245e-14,5.58345e-01,1.89416e-13,5.58345e-01,1.84188e-13,5.58345e-01
7.86478e+02,7.73000e+02,7.47000e+02,2.60000e+01,1.47203e-13,5.65890e-01,3.10910e-13,5.65890e-01,2.12970e-13,5.65890e-01
7.86728e+02,7.86000e+02,7.45000e+02,4.10000e+01,1.57904e-13,5.73435e-01,1.38315e-13,5.73435e-01,8.80531e-14,5.73435e-01
7.86978e+02,7.36000e+02,7.50000e+02,-1.40000e+01,2.40787e-13,5.80980e-01,1.44484e-13,5.80980e-01,9.95250e-14,5.80980e-01
7.87228e+02,7.52000e+02,7.64000e+02,-1.20000e+01,2.67696e-13,5.88525e-01,4.24310e-14,5.88525e-01,2.30327e-13,5.88525e-01
7.87478e+02,7.73000e+02,7.60000e+02,1.30000e+01,2.73649e-13,5.96071e-01,4.36763e-14,5.96071e-01,2.44846e-13,5.96071e-01
7.87728e+02,7.93000e+02,7.45000e+02,4.80000e+01,6.44774e-14,6.03616e-01,9.30446e-14,6.03616e-01,1.19861e-13,6.03616e-01
7.87978e+02,7.98000e+02,7.49000e+02,4.90000e+01,2.85139e-13,6.11161e-01,1.29305e-13,6.11161e-01,2.41287e-13,6.11161e-01
7.88228e+02,7.76000e+02,7.87000e+02,-1.10000e+01,1.86689e-13,6.18706e-01,1.04249e-14,6.18706e-01,1.83294e-13,6.18706e-01
7.88478e+02,7.70000e+02,7.92000e+02,-2.20000e+01,1.65273e-13,6.26251e-01,1.11712e-13,6.26251e-01,2.76644e-13,6.26251e-01
7.88728e+02,7.63000e+02,7.70000e+02,-7.00000e+00,3.77122e-13,6.33797e-01,2.40701e-13,6.33797e-01,3.32752e-13,6.33797e-01
7.88978e+02,7.69000e+02,7.56000e+02,1.30000e+01,3.59580e-13,6.41342e-01,1.99381e-13,6.41342e-01,2.65315e-13,6.41342e-01
7.89228e+02,8.01000e+02,7.78000e+02,2.30000e+01,3.38861e-13,6.48887e-01,2.38414e-13,6.48887e-01,2.81351e-13,6.48887e-01
7.89478e+02,8.05000e+02,7.87000e+02,1.80000e+01,3.29691e-13,6.56432e-01,5.04275e-13,6.56432e-01,2.79774e-13,6.56432e-01
7.89728e+02,8.04000e+02,7.91000e+02,1.30000e+01,2.64411e-13,6.63977e-01,3.80528e-13,6.63977e-01,1.16972e-13,6.63977e-01
7.89978e+02,7.72000e+02,8.09000e+02,-3.70000e+01,1.27946e-13,6.71523e-01,2.09837e-13,6.71523e-01,9.11671e-14,6.71523e-01
7.90228e+02,7.95000e+02,8.09000e+02,-1.40000e+01,1.32238e-14,6.79068e-01,1.53152e-13,6.79068e-01,1.43569e-13,6.79068e-01
7.90478e+02,8.23000e+02,7.83000e+02,4.00000e+01,1.76784e-13,6.86613e-01,1.94114e-13,6.86613e-01,3.25736e-13,6.86613e-01
7.90728e+02,8.49000e+02,8.09000e+02,4.00000e+01,3.50080e-13,6.94158e-01,1.75074e-13,6.94158e-01,3.53666e-13,6.94158e-01
7.90978e+02,8.28000e+02,8.49000e+02,-2.10000e+01,2.81456e-13,7.01703e-01,2.23662e-13,7.01703e-01,2.91041e-13,7.01703e-01
7.91228e+02,8.05000e+02,8.70000e+02,-6.50000e+01,2.87589e-13,7.09249e-01,1.83503e-13,7.09249e-01,3.09557e-13,7.09249e-01
7.91478e+02,8.10000e+02,8.48000e+02,-3.80000e+01,3.57745e-13,7.16794e-01,3.28094e-14,7.16794e-01,3.44548e-13,7.16794e-01
7.91728e+02,8.28000e+02,8.01000e+02,2.70000e+01,1.48910e-13,7.24339e-01,1.40557e-13,7.24339e-01,2.75401e-13,7.24339e-01
7.91977e+02,8.77000e+02,8.19000e+02,5.80000e+01,1.50789e-13,7.31884e-01,1.44877e-13,7.31884e-01,2.93709e-13,7.31884e-01
7.92227e+02,9.09000e+02,8.77000e+02,3.20000e+01,1.90203e-13,7.39429e-01,1.08746e-13,7.39429e-01,2.92564e-13,7.39429e-01
7.92477e+02,8.69000e+02,8.89000e+02,-2.00000e+01,1.23557e-13,7.46975e-01,9.65955e-14,7.46975e-01,2.19400e-13,7.46975e-01
7.92727e+02,8.42000e+02,8.74000e+02,-3.20000e+01,3.04298e-13,7.54520e-01,8.82056e-14,7.54520e-01,3.89609e-13,7.54520e-01
7.92977e+02,8.80000e+02,8.33000e+02,4.70000e+01,3.85170e-13,7.62065e-01,1.06606e-14,7.62065e-01,3.74549e-13,7.62065e-01
7.93227e+02,9.26000e+02,8.20000e+02,1.06000e+02,2.52598e-13,7.69610e-01,3.75578e-14,7.69610e-01,2.44766e-13,7.69610e-01
7.93476e+02,9.22000e+02,8.40000e+02,8.20000e+01,1.44298e-13,7.77155e-01,2.00471e-13,7.77155e-01,2.05526e-13,7.77155e-01
7.93726e+02,8.82000e+02,8.65000e+02,1.70000e+01,7.86048e-14,7.84701e-01,1.31759e-13,7.84701e-01,6.37635e-14,7.84701e-01
7.93976e+02,8.86000e+02,9.01000e+02,-1.50000e+01,2.18142e-13,7.92246e-01,1.37314e-13,7.92246e-01,1.88465e-13,7.92246e-01
7.94226e+02,8.64000e+02,9.30000e+02,-6.60000e+01,1.48983e-13,7.99791e-01,1.40287e-13,7.99791e-01,2.35974e-13,7.99791e-01
7.94476e+02,8.61000e+02,8.84000e+02,-2.30000e+01,5.61814e-14,8.07336e-01,2.15704e-13,8.07336e-01,2.71875e-13,8.07336e-01
7.94725e+02,9.12000e+02,8.66000e+02,4.60000e+01,1.64946e-13,8.14881e-01,2.18828e-13,8.14881e-01,2.23318e-13,8.14881e-01
7.94975e+02,9.30000e+02,8.92000e+02,3.80000e+01,1.26956e-14,8.22427e-01,1.37827e-13,8.22427e-01,1.50442e-13,8.22427e-01
7.95225e+02,9.00000e+02,9.74000e+02,-7.40000e+01,7.07139e-14,8.29972e-01,9.48104e-14,8.29972e-01,4.98576e-14,8.29972e-01
7.95475e+02,8.72000e+02,9.50000e+02,-7.80000e+01,8.86215e-14,8.37517e-01,8.35780e-14,8.37517e-01,1.03698e-13,8.37517e-01
7.95724e+02,9.08000e+02,8.75000e+02,3.30000e+01,1.40904e-13,8.45062e-01,4.93205e-14,8.45062e-01,9.44711e-14,8.45062e-01
7.95974e+02,1.00200e+03,8.56000e+02,1.46000e+02,1.32403e-13,8.52607e-01,3.56927e-14,8.52607e-01,1.13920e-13,8.52607e-01
7.96224e+02,1.03300e+03,9.14000e+02,1.19000e+02,8.39677e-14,8.60153e-01,4.55140e-14,8.60153e-01,1.06926e-13,8.60153e-01
7.96474e+02,1.00400e+03,9.74000e+02,3.00000e+01,1.11986e-13,8.67698e-01,1.56773e-13,8.67698e-01,2.16266e-13,8.67698e-01
7.96723e+02,8.98000e+02,9.80000e+02,-8.20000e+01,5.96781e-14,8.75243e-01,9.02381e-14,8.75243e-01,1.34467e-13,8.75243e-01
7.96973e+02,8.69000e+02,9.83000e+02,-1.14000e+02,9.08604e-14,8.82788e-01,4.56058e-14,8.82788e-01,5.19167e-14,8.82788e-01
7.97223e+02,9.08000e+02,9.04000e+02,4.00000e+00,7.34595e-14,8.90333e-01,1.23728e-13,8.90333e-01,1.42545e-13,8.90333e-01
7.97472e+02,1.00100e+03,8.97000e+02,1.04000e+02,5.34026e-14,8.97879e-01,1.54641e-13,8.97879e-01,1.83667e-13,8.97879e-01
7.97722e+02,9.63000e+02,9.28000e+02,3.50000e+01,1.59193e-13,9.05424e-01,1.79842e-13,9.05424e-01,4.20717e-14,9.05424e-01
7.97972e+02,8.91000e+02,9.48000e+02,-5.70000e+01,2.09900e-13,9.12969e-01,2.38767e-13,9.12969e-01,1.43234e-13,9.12969e-01
7.98221e+02,8.90000e+02,9.87000e+02,-9.70000e+01,1.96752e-13,9.20514e-01,1.55020e-13,9.20514e-01,1.35652e-13,9.20514e-01
7.98471e+02,9.13000e+02,9.45000e+02,-3.20000e+01,2.57107e-13,9.28059e-01,1.21683e-13,9.28059e-01,1.90573e-13,9.28059e-01
7.98721e+02,1.00600e+03,9.15000e+02,9.10000e+01,2.01177e-13,9.35605e-01,1.50538e-13,9.35605e-01,1.50164e-13,9.35605e-01
7.98970e+02,1.04500e+03,9.12000e+02,1.33000e+02,2.04109e-13,9.43150e-01,8.58779e-14,9.43150e-01,1.79164e-13,9.43150e-01
7.99220e+02,9.82000e+02,9.89000e+02,-7.00000e+00,1.55604e-13,9.50695e-01,3.54446e-14,9.50695e-01,1.83855e-13,9.50695e-01
7.99469e+02,9.46000e+02,1.07200e+03,-1.26000e+02,1.33663e-13,9.58240e-01,5.17444e-14,9.58240e-01,1.43705e-13,9.58240e-01
7.99719e+02,9.38000e+02,1.04000e+03,-1.02000e+02,1.06654e-13,9.65785e-01,7.33761e-14,9.65785e-01,9.23311e-14,9.65785e-01
7.99969e+02,9.65000e+02,9.65000e+02,0.00000e+00,3.61390e-14,9.73331e-01,3.39798e-14,9.73331e-01,6.10183e-14,9.73331e-01
8.00218e+02,1.03800e+03,9.41000e+02,9.70000e+01,1.25330e-13,9.80876e-01,6.10830e-14,9.80876e-01,6.67092e-14,9.80876e-01
8.00468e+02,1.06600e+03,1.00900e+03,5.70000e+01,1.43527e-13,9.88421e-01,1.47575e-13,9.88421e-01,1.36532e-13,9.88421e-01
8.00717e+02,1.03100e+03,1.08000e+03,-4.90000e+01,3.80772e-14,9.95966e-01,1.17980e-13,9.95966e-01,1.26556e-13,9.95966e-01
8.00967e+02,9.64000e+02,1.14000e+03,-1.76000e+02,7.01296e-14,1.00351e+00,8.66642e-14,1.00351e+00,1.42514e-13,1.00351e+00
8.01216e+02,1.02500e+03,1.12300e+03,-9.80000e+01,1.03121e-13,1.01106e+00,1.38318e-13,1.01106e+00,1.66368e-13,1.01106e+00
8.01466e+02,1.12400e+03,1.02500e+03,9.90000e+01,6.83682e-14,1.01860e+00,4.39761e-14,1.01860e+00,3.91227e-14,1.01860e+00
8.01715e+02,1.24300e+03,1.05700e+03,1.86000e+02,2.32073e-14,1.02615e+00,6.69344e-14,1.02615e+00,6.15942e-14,1.02615e+00
8.01965e+02,1.18500e+03,1.12200e+03,6.30000e+01,7.27122e-14,1.03369e+00,1.09610e-13,1.03369e+00,4.68417e-14,1.03369e+00
8.02215e+02,1.16000e+03,1.22200e+03,-6.20000e+01,1.27538e-13,1.04124e+00,1.29021e-13,1.04124e+00,6.09008e-14,1.04124e+00
8.02464e+02,1.09600e+03,1.19400e+03,-9.80000e+01,8.33583e-14,1.04878e+00,1.08216e-13,1.04878e+00,2.64204e-14,1.04878e+00
8.02713e+02,1.17000e+03,1.09300e+03,7.70000e+01,1.36783e-13,1.05633e+00,1.11460e-13,1.05633e+00,2.55191e-14,1.05633e+00
8.02963e+02,1.28800e+03,1.08900e+03,1.99000e+02,1.58073e-13,1.06387e+00,8.63040e-14,1.06387e+00,8.30311e-14,1.06387e+00
8.03212e+02,1.26600e+03,1.17100e+03,9.50000e+01,1.01725e-13,1.07142e+00,9.27583e-14,1.07142e+00,8.80524e-14,1.07142e+00
8.03462e+02,1.21700e+03,1.32200e+03,-1.05000e+02,1.39627e-13,1.07896e+00,1.42855e-13,1.07896e+00,7.07604e-14,1.07896e+00
8.03711e+02,1.19500e+03,1.44700e+03,-2.52000e+02,1.48444e-13,1.08651e+00,8.64436e-14,1.08651e+00,6.88788e-14,1.08651e+00
8.03961e+02,1.24200e+03,1.38000e+03,-1.38000e+02,1.64343e-13,1.09405e+00,1.30686e-13,1.09405e+00,1.07426e-13,1.09405e+00
8.04210e+02,1.37000e+03,1.27100e+03,9.90000e+01,1.03272e-13,1.10160e+00,2.73330e-14,1.10160e+00,1.20976e-13,1.10160e+00
8.04460e+02,1.46300e+03,1.20000e+03,2.63000e+02,1.03731e-13,1.10914e+00,7.97005e-14,1.10914e+00,1.22894e-13,1.10914e+00
8.04709e+02,1.52700e+03,1.32600e+03,2.01000e+02,1.27924e-13,1.11669e+00,8.53180e-14,1.11669e+00,1.27556e-13,1.11669e+00
8.04958e+02,1.33700e+03,1.46200e+03,-1.25000e+02,1.51885e-13,1.12423e+00,6.58851e-14,1.12423e+00,1.90764e-13,1.12423e+00
8.05208e+02,1.19800e+03,1.50100e+03,-3.03000e+02,1.34508e-13,1.13178e+00,2.25505e-14,1.13178e+00,1.38229e-13,1.13178e+00
8.05457e+02,1.30900e+03,1.38800e+03,-7.90000e+01,2.74662e-14,1.13932e+00,1.04584e-13,1.13932e+00,7.72880e-14,1.13932e+00
8.05707e+02,1.44000e+03,1.22800e+03,2.12000e+02,8.46530e-14,1.14687e+00,7.42448e-14,1.14687e+00,2.39574e-14,1.14687e+00
8.05956e+02,1.57600e+03,1.27800e+03,2.98000e+02,1.67274e-13,1.15442e+00,6.44605e-14,1.15442e+00,1.04126e-13,1.15442e+00
8.06205e+02,1.57000e+03,1.45300e+03,1.17000e+02,6.47012e-14,1.16196e+00,1.12056e-13,1.16196e+00,6.40163e-14,1.16196e+00
8.06455e+02,1.42600e+03,1.54400e+03,-1.18000e+02,9.08357e-14,1.16951e+00,1.46170e-13,1.16951e+00,1.99143e-13,1.16951e+00
8.06704e+02,1.34000e+03,1.57500e+03,-2.35000e+02,7.65006e-14,1.17705e+00,1.42532e-13,1.17705e+00,2.16921e-13,1.17705e+00
8.06953e+02,1.56500e+03,1.43500e+03,1.30000e+02,9.56620e-14,1.18460e+00,6.88008e-14,1.18460e+00,1.46065e-13,1.18460e+00
8.07203e+02,1.77200e+03,1.34000e+03,4.32000e+02,6.78606e-14,1.19214e+00,1.27878e-13,1.19214e+00,1.95529e-13,1.19214e+00
8.07452e+02,1.73800e+03,1.39200e+03,3.46000e+02,1.06270e-13,1.19969e+00,9.80868e-14,1.19969e+00,1.64843e-13,1.19969e+00
8.07701e+02,1.61600e+03,1.60100e+03,1.50000e+01,8.62929e-14,1.20723e+00,3.89649e-14,1.20723e+00,9.72901e-14,1.20723e+00
8.07951e+02,1.42100e+03,1.68700e+03,-2.66000e+02,1.38106e-13,1.21478e+00,2.25943e-14,1.21478e+00,1.56284e-13,1.21478e+00
8.08200e+02,1.36300e+03,1.58000e+03,-2.17000e+02,1.20178e-13,1.22232e+00,5.35519e-14,1.22232e+00,1.47367e-13,1.22232e+00
8.08449e+02,1.46000e+03,1.43600e+03,2.40000e+01,1.24988e-13,1.22987e+00,2.58429e-14,1.22987e+00,1.50831e-13,1.22987e+00
8.08698e+02,1.65300e+03,1.35400e+03,2.99000e+02,4.41069e-14,1.23741e+00,7.79503e-14,1.23741e+00,7.20437e-14,1.23741e+00
8.08948e+02,1.59500e+03,1.51200e+03,8.30000e+01,1.20806e-13,1.24496e+00,4.74459e-14,1.24496e+00,1.29082e-13,1.24496e+00
8.09197e+02,1.51200e+03,1.73200e+03,-2.20000e+02,2.14565e-13,1.25250e+00,9.42701e-14,1.25250e+00,1.86853e-13,1.25250e+00
8.09446e+02,1.42000e+03,1.70600e+03,-2.86000e+02,1.31668e-13,1.26005e+00,1.23366e-13,1.26005e+00,2.22949e-13,1.26005e+00
8.09695e+02,1.50900e+03,1.56000e+03,-5.10000e+01,6.81065e-14,1.26759e+00,1.08646e-13,1.26759e+00,1.13896e-13,1.26759e+00
8.09945e+02,1.61700e+03,1.41600e+03,2.01000e+02,8.90374e-14,1.27514e+00,1.85707e-13,1.27514e+00,1.05147e-13,1.27514e+00
8.10194e+02,1.65800e+03,1.42500e+03,2.33000e+02,5.18650e-14,1.28268e+00,8.76638e-14,1.28268e+00,4.07602e-14,1.28268e+00
8.10443e+02,1.62500e+03,1.54500e+03,8.00000e+01,1.15383e-13,1.29023e+00,1.49275e-13,1.29023e+00,2.35085e-13,1.29023e+00
8.10692e+02,1.55100e+03,1.61600e+03,-6.50000e+01,1.63329e-13,1.29777e+00,2.06621e-13,1.29777e+00,4.45012e-14,1.29777e+00
8.10941e+02,1.49000e+03,1.52200e+03,-3.20000e+01,1.32640e-13,1.30532e+00,7.77053e-14,1.30532e+00,5.49753e-14,1.30532e+00
8.11191e+02,1.61500e+03,1.44500e+03,1.70000e+02,1.10245e-13,1.31286e+00,5.67067e-14,1.31286e+00,8.31752e-14,1.31286e+00
8.11440e+02,1.78900e+03,1.49800e+03,2.91000e+02,2.74373e-14,-1.32041e+00,7.54018e-14,-1.32041e+00,4.79645e-14,-1.32041e+00
8.11689e+02,1.76300e+03,1.57300e+03,1.90000e+02,1.10245e-13,-1.31286e+00,5.67067e-14,-1.31286e+00,8.31752e-14,-1.31286e+00
8.11938e+02,1.57100e+03,1.66400e+03,-9.30000e+01,1.32640e-13,-1.30532e+00,7.77053e-14,-1.30532e+00,5.49753e-14,-1.30532e+00
8.12187e+02,1.54600e+03,1.72400e+03,-1.78000e+02,1.63329e-13,-1.29777e+00,2.06621e-13,-1.29777e+00,4.45012e-14,-1.29777e+00
8.12436e+02,1.52700e+03,1.65300e+03,-1.26000e+02,1.15383e-13,-1.29023e+00,1.49275e-13,-1.29023e+00,2.35085e-13,-1.29023e+00
8.12685e+02,1.59900e+03,1.49200e+03,1.07000e+02,5.18650e-14,-1.28268e+00,8.76638e-14,-1.28268e+00,4.07602e-14,-1.28268e+00
8.12935e+02,1.73900e+03,1.46300e+03,2.76000e+02,8.90374e-14,-1.27514e+00,1.85707e-13,-1.27514e+00,1.05147e-13,-1.27514e+00
8.13184e+02,1.75100e+03,1.57300e+03,1.78000e+02,6.81065e-14,-1.26759e+00,1.08646e-13,-1.26759e+00,1.13896e-13,-1.26759e+00
8.13433e+02,1.59400e+03,1.69000e+03,-9.60000e+01,1.31668e-13,-1.26005e+00,1.23366e-13,-1.26005e+00,2.22949e-13,-1.26005e+00
8.13682e+02,1.49300e+03,1.69400e+03,-2.01000e+02,2.14565e-13,-1.25250e+00,9.42701e-14,-1.25250e+00,1.86853e-13,-1.25250e+00
8.13931e+02,1.58700e+03,1.59200e+03,-5.00000e+00,1.20806e-13,-1.24496e+00,4.74459e-14,-1.24496e+00,1.29082e-13,-1.24496e+00
8.14180e+02,1.70100e+03,1.60600e+03,9.50000e+01,4.41069e-14,-1.23741e+00,7.79503e-14,-1.23741e+00,7.20437e-14,-1.23741e+00
8.14429e+02,1.79400e+03,1.60300e+03,1.91000e+02,1.24988e-13,-1.22987e+00,2.58429e-14,-1.22987e+00,1.50831e-13,-1.22987e+00
8.14678e+02,1.69700e+03,1.64600e+03,5.10000e+01,1.20178e-13,-1.22232e+00,5.35519e-14,-1.22232e+00,1.47367e-13,-1.22232e+00
8.14927e+02,1.66000e+03,1.78600e+03,-1.26000e+02,1.38106e-13,-1.21478e+00,2.25943e-14,-1.21478e+00,1.56284e-13,-1.21478e+00
8.15176e+02,1.57700e+03,1.78100e+03,-2.04000e+02,8.62929e-14,-1.20723e+00,3.89649e-14,-1.20723e+00,9.72901e-14,-1.20723e+00
8.15425e+02,1.58500e+03,1.65300e+03,-6.80000e+01,1.06270e-13,-1.19969e+00,9.80868e-14,-1.19969e+00,1.64843e-13,-1.19969e+00
8.15674e+02,1.73400e+03,1.63700e+03,9.70000e+01,6.78606e-14,-1.19214e+00,1.27878e-13,-1.19214e+00,1.95529e-13,-1.19214e+00
8.15923e+02,1.86100e+03,1.60500e+03,2.56000e+02,9.56620e-14,-1.18460e+00,6.88008e-14,-1.18460e+00,1.46065e-13,-1.18460e+00
8.16172e+02,1.81600e+03,1.82700e+03,-1.10000e+01,7.65006e-14,-1.17705e+00,1.42532e-13,-1.17705e+00,2.16921e-13,-1.17705e+00
8.16421e+02,1.72200e+03,1.96200e+03,-2.40000e+02,9.08357e-14,-1.16951e+00,1.46170e-13,-1.16951e+00,1.99143e-13,-1.16951e+00
8.16670e+02,1.54500e+03,1.84800e+03,-3.03000e+02,6.47012e-14,-1.16196e+00,1.12056e-13,-1.16196e+00,6.40163e-14,-1.16196e+00
8.16919e+02,1.68000e+03,1.68500e+03,-5.00000e+00,1.67274e-13,-1.15442e+00,6.44605e-14,-1.15442e+00,1.04126e-13,-1.15442e+00
8.17168e+02,1.81900e+03,1.68600e+03,1.33000e+02,8.46530e-14,-1.14687e+00,7.42448e-14,-1.14687e+00,2.39574e-14,-1.14687e+00
8.17417e+02,1.70400e+03,1.67700e+03,2.70000e+01,2.74662e-14,-1.13932e+00,1.04584e-13,-1.13932e+00,7.72880e-14,-1.13932e+00
8.17666e+02,1.60000e+03,1.65700e+03,-5.70000e+01,1.34508e-13,-1.13178e+00,2.25505e-14,-1.13178e+00,1.38229e-13,-1.13178e+00
8.17915e+02,1.61000e+03,1.78400e+03,-1.74000e+02,1.51885e-13,-1.12423e+00,6.58851e-14,-1.12423e+00,1.90764e-13,-1.12423e+00
8.18164e+02,1.78000e+03,1.98700e+03,-2.07000e+02,1.27924e-13,-1.11669e+00,8.53180e-14,-1.11669e+00,1.27556e-13,-1.11669e+00
8.18413e+02,1.85200e+03,1.94900e+03,-9.70000e+01,1.03731e-13,-1.10914e+00,7.97005e-14,-1.10914e+00,1.22894e-13,-1.10914e+00
8.18662e+02,1.81300e+03,1.89400e+03,-8.10000e+01,1.03272e-13,-1.10160e+00,2.73330e-14,-1.10160e+00,1.20976e-13,-1.10160e+00
8.18911e+02,1.73400e+03,1.85700e+03,-1.23000e+02,1.64343e-13,-1.09405e+00,1.30686e-13,-1.09405e+00,1.07426e-13,-1.09405e+00
8.19160e+02,1.66600e+03,1.85200e+03,-1.86000e+02,1.48444e-13,-1.08651e+00,8.64436e-14,-1.08651e+00,6.88788e-14,-1.08651e+00
8.19408e+02,1.75900e+03,1.86100e+03,-1.02000e+02,1.39627e-13,-1.07896e+00,1.42855e-13,-1.07896e+00,7.07604e-14,-1.07896e+00
8.19657e+02,1.90500e+03,1.79000e+03,1.15000e+02,1.01725e-13,-1.07142e+00,9.27583e-14,-1.07142e+00,8.80524e-14,-1.07142e+00
8.19906e+02,2.33400e+03,1.79700e+03,5.37000e+02,1.58073e-13,-1.06387e+00,8.63040e-14,-1.06387e+00,8.30311e-14,-1.06387e+00
8.20155e+02,2.33300e+03,1.98700e+03,3.46000e+02,1.36783e-13,-1.05633e+00,1.11460e-13,-1.05633e+00,2.55191e-14,-1.05633e+00
8.20404e+02,2.10600e+03,2.02400e+03,8.20000e+01,8.33583e-14,-1.04878e+00,1.08216e-13,-1.04878e+00,2.64204e-14,-1.04878e+00
8.20653e+02,1.99600e+03,2.07100e+03,-7.50000e+01,1.27538e-13,-1.04124e+00,1.29021e-13,-1.04124e+00,6.09008e-14,-1.04124e+00
8.20901e+02,1.86000e+03,1.94500e+03,-8.50000e+01,7.27122e-14,-1.03369e+00,1.09610e-13,-1.03369e+00,4.68417e-14,-1.03369e+00
8.21150e+02,1.83400e+03,1.85100e+03,-1.70000e+01,2.32073e-14,-1.02615e+00,6.69344e-14,-1.02615e+00,6.15942e-14,-1.02615e+00
8.21399e+02,1.79800e+03,1.88700e+03,-8.90000e+01,6.83682e-14,-1.01860e+00,4.39761e-14,-1.01860e+00,3.91227e-14,-1.01860e+00
8.21648e+02,1.79900e+03,1.81400e+03,-1.50000e+01,1.03121e-13,-1.01106e+00,1.38318e-13,-1.01106e+00,1.66368e-13,-1.01106e+00
8.21897e+02,1.69900e+03,1.93000e+03,-2.31000e+02,7.01296e-14,-1.00351e+00,8.66642e-14,-1.00351e+00,1.42514e-13,-1.00351e+00
8.22145e+02,1.61200e+03,1.97100e+03,-3.59000e+02,3.80772e-14,-9.95966e-01,1.17980e-13,-9.95966e-01,1.26556e-13,-9.95966e-01
8.22394e+02,1.64800e+03,1.94000e+03,-2.92000e+02,1.43527e-13,-9.88421e-01,1.47575e-13,-9.88421e-01,1.36532e-13,-9.88421e-01
8.22643e+02,1.78100e+03,1.72400e+03,5.70000e+01,1.25330e-13,-9.80876e-01,6.10830e-14,-9.80876e-01,6.67092e-14,-9.80876e-01
8.22892e+02,1.92300e+03,1.89000e+03,3.30000e+01,3.61390e-14,-9.73331e-01,3.39798e-14,-9.73331e-01,6.10183e-14,-9.73331e-01
8.23140e+02,1.87300e+03,1.96800e+03,-9.50000e+01,1.06654e-13,-9.65785e-01,7.33761e-14,-9.65785e-01,9.23311e-14,-9.65785e-01
8.23389e+02,1.84200e+03,2.06900e+03,-2.27000e+02,1.33663e-13,-9.58240e-01,5.17444e-14,-9.58240e-01,1.43705e-13,-9.58240e-01
8.23638e+02,1.73100e+03,2.02800e+03,-2.97000e+02,1.55604e-13,-9.50695e-01,3.54446e-14,-9.50695e-01,1.83855e-13,-9.50695e-01
8.23887e+02,1.64100e+03,1.90200e+03,-2.61000e+02,2.04109e-13,-9.43150e-01,8.58779e-14,-9.43150e-01,1.79164e-13,-9.43150e-01
8.24135e+02,1.79600e+03,1.75200e+03,4.40000e+01,2.01177e-13,-9.35605e-01,1.50538e-13,-9.35605e-01,1.50164e-13,-9.35605e-01
8.24384e+02,1.92600e+03,1.69100e+03,2.35000e+02,2.57107e-13,-9.28059e-01,1.21683e-13,-9.28059e-01,1.90573e-13,-9.28059e-01
8.24633e+02,1.74500e+03,1.67700e+03,6.80000e+01,1.96752e-13,-9.20514e-01,1.55020e-13,-9.20514e-01,1.35652e-13,-9.20514e-01
8.24881e+02,1.73600e+03,1.78900e+03,-5.30000e+01,2.09900e-13,-9.12969e-01,2.38767e-13,-9.12969e-01,1.43234e-13,-9.12969e-01
8.25130e+02,1.67200e+03,1.77700e+03,-1.05000e+02,1.59193e-13,-9.05424e-01,1.79842e-13,-9.05424e-01,4.20717e-14,-9.05424e-01
8.25379e+02,1.74800e+03,1.68700e+03,6.10000e+01,5.34026e-14,-8.97879e-01,1.54641e-13,-8.97879e-01,1.83667e-13,-8.97879e-01
8.25627e+02,1.65800e+03,1.57400e+03,8.40000e+01,7.34595e-14,-8.90333e-01,1.23728e-13,-8.90333e-01,1.42545e-13,-8.90333e-01
8.25876e+02,1.60000e+03,1.45700e+03,1.43000e+02,9.08604e-14,-8.82788e-01,4.56058e-14,-8.82788e-01,5.19167e-14,-8.82788e-01
8.26125e+02,1.66500e+03,1.47700e+03,1.88000e+02,5.96781e-14,-8.75243e-01,9.02381e-14,-8.75243e-01,1.34467e-13,-8.75243e-01
8.26373e+02,1.71400e+03,1.64800e+03,6.60000e+01,1.11986e-13,-8.67698e-01,1.56773e-13,-8.67698e-01,2.16266e-13,-8.67698e-01
8.26622e+02,1.44600e+03,1.59600e+03,-1.50000e+02,8.39677e-14,-8.60153e-01,4.55140e-14,-8.60153e-01,1.06926e-13,-8.60153e-01
8.26870e+02,1.48000e+03,1.47300e+03,7.00000e+00,1.32403e-13,-8.52607e-01,3.56927e-14,-8.52607e-01,1.13920e-13,-8.52607e-01
8.27119e+02,1.51100e+03,1.35200e+03,1.59000e+02,1.40904e-13,-8.45062e-01,4.93205e-14,-8.45062e-01,9.44711e-14,-8.45062e-01
8.27368e+02,1.47800e+03,1.40400e+03,7.40000e+01,8.86215e-14,-8.37517e-01,8.35780e-14,-8.37517e-01,1.03698e-13,-8.37517e-01
8.27616e+02,1.36100e+03,1.43000e+03,-6.90000e+01,7.07139e-14,-8.29972e-01,9.48104e-14,-8.29972e-01,4.98576e-14,-8.29972e-01
8.27865e+02,1.24400e+03,1.47800e+03,-2.34000e+02,1.26956e-14,-8.22427e-01,1.37827e-13,-8.22427e-01,1.50442e-13,-8.22427e-01
8.28113e+02,1.28000e+03,1.47600e+03,-1.96000e+02,1.64946e-13,-8.14881e-01,2.18828e-13,-8.14881e-01,2.23318e-13,-8.14881e-01
8.28362e+02,1.35500e+03,1.37900e+03,-2.40000e+01,5.61814e-14,-8.07336e-01,2.15704e-13,-8.07336e-01,2.71875e-13,-8.07336e-01
8.28610e+02,1.44100e+03,1.36000e+03,8.10000e+01,1.48983e-13,-7.99791e-01,1.40287e-13,-7.99791e-01,2.35974e-13,-7.99791e-01
8.28859e+02,1.39400e+03,1.31300e+03,8.10000e+01,2.18142e-13,-7.92246e-01,1.37314e-13,-7.92246e-01,1.88465e-13,-7.92246e-01
8.29108e+02,1.38600e+03,1.33900e+03,4.70000e+01,7.86048e-14,-7.84701e-01,1.31759e-13,-7.84701e-01,6.37635e-14,-7.84701e-01
8.29356e+02,1.29000e+03,1.33400e+03,-4.40000e+01,1.44298e-13,-7.77155e-01,2.00471e-13,-7.77155e-01,2.05526e-13,-7.77155e-01
8.29605e+02,1.23000e+03,1.20900e+03,2.10000e+01,2.52598e-13,-7.69610e-01,3.75578e-14,-7.69610e-01,2.44766e-13,-7.69610e-01
8.29853e+02,1.13100e+03,1.09300e+03,3.80000e+01,3.85170e-13,-7.62065e-01,1.06606e-14,-7.62065e-01,3.74549e-13,-7.62065e-01
8.30101e+02,1.14200e+03,1.09700e+03,4.50000e+01,3.04298e-13,-7.54520e-01,8.82056e-14,-7.54520e-01,3.89609e-13,-7.54520e-01
8.30350e+02,1.16800e+03,1.05200e+03,1.16000e+02,1.23557e-13,-7.46975e-01,9.65955e-14,-7.46975e-01,2.19400e-13,-7.46975e-01
8.30598e+02,1.10800e+03,1.03000e+03,7.80000e+01,1.90203e-13,-7.39429e-01,1.08746e-13,-7.39429e-01,2.92564e-13,-7.39429e-01
8.30847e+02,9.90000e+02,1.03200e+03,-4.20000e+01,1.50789e-13,-7.31884e-01,1.44877e-13,-7.31884e-01,2.93709e-13,-7.31884e-01
8.31095e+02,9.66000e+02,1.05500e+03,-8.90000e+01,1.48910e-13,-7.24339e-01,1.40557e-13,-7.24339e-01,2.75401e-13,-7.24339e-01
8.31344e+02,9.78000e+02,1.04100e+03,-6.30000e+01,3.57745e-13,-7.16794e-01,3.28094e-14,-7.16794e-01,3.44548e-13,-7.16794e-01
8.31592e+02,9.61000e+02,9.53000e+02,8.00000e+00,2.87589e-13,-7.09249e-01,1.83503e-13,-7.09249e-01,3.09557e-13,-7.09249e-01
8.31841e+02,9.58000e+02,9.17000e+02,4.10000e+01,2.81456e-13,-7.01703e-01,2.23662e-13,-7.01703e-01,2.91041e-13,-7.01703e-01
8.32089e+02,9.57000e+02,9.10000e+02,4.70000e+01,3.50080e-13,-6.94158e-01,1.75074e-13,-6.94158e-01,3.53666e-13,-6.94158e-01
8.32337e+02,8.99000e+02,9.09000e+02,-1.00000e+01,1.76784e-13,-6.86613e-01,1.94114e-13,-6.86613e-01,3.25736e-13,-6.86613e-01
8.32586e+02,8.53000e+02,9.03000e+02,-5.00000e+01,1.32238e-14,-6.79068e-01,1.53152e-13,-6.79068e-01,1.43569e-13,-6.79068e-01
8.32834e+02,8.51000e+02,8.67000e+02,-1.60000e+01,1.27946e-13,-6.71523e-01,2.09837e-13,-6.71523e-01,9.11671e-14,-6.71523e-01
8.33083e+02,8.58000e+02,8.52000e+02,6.00000e+00,2.64411e-13,-6.63977e-01,3.80528e-13,-6.63977e-01,1.16972e-13,-6.63977e-01
8.33331e+02,8.15000e+02,7.96000e+02,1.90000e+01,3.29691e-13,-6.56432e-01,5.04275e-13,-6.56432e-01,2.79774e-13,-6.56432e-01
8.33579e+02,8.08000e+02,8.02000e+02,6.00000e+00,3.38861e-13,-6.48887e-01,2.38414e-13,-6.48887e-01,2.81351e-13,-6.48887e-01
8.33828e+02,8.25000e+02,8.03000e+02,2.20000e+01,3.59580e-13,-6.41342e-01,1.99381e-13,-6.41342e-01,2.65315e-13,-6.41342e-01
8.34076e+02,8.05000e+02,8.45000e+02,-4.00000e+01,3.77122e-13,-6.33797e-01,2.40701e-13,-6.33797e-01,3.32752e-13,-6.33797e-01
8.34324e+02,8.05000e+02,8.09000e+02,-4.00000e+00,1.65273e-13,-6.26251e-01,1.11712e-13,-6.26251e-01,2.76644e-13,-6.26251e-01
8.34573e+02,7.80000e+02,7.80000e+02,0.00000e+00,1.86689e-13,-6.18706e-01,1.04249e-14,-6.18706e-01,1.83294e-13,-6.18706e-01
8.34821e+02,7.81000e+02,7.55000e+02,2.60000e+01,2.85139e-13,-6.11161e-01,1.29305e-13,-6.11161e-01,2.41287e-13,-6.11161e-01
8.35069e+02,7.74000e+02,7.43000e+02,3.10000e+01,6.44774e-14,-6.03616e-01,9.30446e-14,-6.03616e-01,1.19861e-13,-6.03616e-01
8.35318e+02,7.34000e+02,7.44000e+02,-1.00000e+01,2.73649e-13,-5.96071e-01,4.36763e-14,-5.96071e-01,2.44846e-13,-5.96071e-01
8.35566e+02,7.38000e+02,7.53000e+02,-1.50000e+01,2.67696e-13,-5.88525e-01,4.24310e-14,-5.88525e-01,2.30327e-13,-5.88525e-01
8.35814e+02,7.20000e+02,7.36000e+02,-1.60000e+01,2.40787e-13,-5.80980e-01,1.44484e-13,-5.80980e-01,9.95250e-14,-5.80980e-01
8.36062e+02,7.36000e+02,7.48000e+02,-1.20000e+01,1.57904e-13,-5.73435e-01,1.38315e-13,-5.73435e-01,8.80531e-14,-5.73435e-01
8.36311e+02,7.30000e+02,7.24000e+02,6.00000e+00,1.47203e-13,-5.65890e-01,3.10910e-13,-5.65890e-01,2.12970e-13,-5.65890e-01
8.36559e+02,7.26000e+02,7.28000e+02,-2.00000e+00,2.12245e-14,-5.58345e-01,1.89416e-13,-5.58345e-01,1.84188e-13,-5.58345e-01
8.36807e+02,7.16000e+02,7.00000e+02,1.60000e+01,1.03156e-13,-5.50799e-01,6.86685e-14,-5.50799e-01,4.81043e-14,-5.50799e-01
8.37055e+02,7.10000e+02,7.27000e+02,-1.70000e+01,1.74739e-13,-5.43254e-01,7.62004e-14,-5.43254e-01,1.51018e-13,-5.43254e-01
8.37304e+02,7.11000e+02,7.14000e+02,-3.00000e+00,1.97186e-13,-5.35709e-01,1.85711e-13,-5.35709e-01,3.53256e-13,-5.35709e-01
8.37552e+02,6.98000e+02,6.95000e+02,3.00000e+00,2.96143e-13,-5.28164e-01,1.99672e-13,-5.28164e-01,4.87654e-13,-5.28164e-01
8.37800e+02,7.18000e+02,6.93000e+02,2.50000e+01,1.69594e-13,-5.20619e-01,2.17531e-13,-5.20619e-01,2.76700e-13,-5.20619e-01
8.38048e+02,7.12000e+02,6.92000e+02,2.00000e+01,2.49287e-13,-5.13073e-01,1.03638e-13,-5.13073e-01,3.39309e-13,-5.13073e-01
8.38296e+02,6.90000e+02,6.96000e+02,-6.00000e+00,9.39608e-14,-5.05528e-01,2.99494e-13,-5.05528e-01,3.06868e-13,-5.05528e-01
8.38545e+02,6.82000e+02,6.94000e+02,-1.20000e+01,8.84433e-14,-4.97983e-01,3.04148e-13,-4.97983e-01,2.46276e-13,-4.97983e-01
8.38793e+02,6.92000e+02,6.80000e+02,1.20000e+01,1.67274e-13,-4.90438e-01,6.40936e-13,-4.90438e-01,7.58145e-13,-4.90438e-01
8.39041e+02,6.91000e+02,6.88000e+02,3.00000e+00,8.31750e-13,-4.82893e-01,6.80044e-13,-4.82893e-01,1.33739e-12,-4.82893e-01
8.39289e+02,6.82000e+02,6.68000e+02,1.40000e+01,1.50435e-12,-4.75347e-01,1.16860e-12,-4.75347e-01,2.52417e-12,-4.75347e-01
8.39537e+02,6.69000e+02,6.68000e+02,1.00000e+00,1.94285e-12,-4.67802e-01,1.79713e-12,-4.67802e-01,3.53504e-12,-4.67802e-01
8.39785e+02,6.64000e+02,6.73000e+02,-9.00000e+00,1.84612e-12,-4.60257e-01,1.73766e-12,-4.60257e-01,3.46853e-12,-4.60257e-01
8.40033e+02,6.69000e+02,6.89000e+02,-2.00000e+01,1.18044e-12,-4.52712e-01,1.18295e-12,-4.52712e-01,2.31067e-12,-4.52712e-01
8.40281e+02,6.71000e+02,6.78000e+02,-7.00000e+00,6.50537e-13,-4.45167e-01,4.37118e-13,-4.45167e-01,1.06067e-12,-4.45167e-01
8.40530e+02,6.66000e+02,6.73000e+02,-7.00000e+00,3.21860e-13,-4.37621e-01,1.46462e-13,-4.37621e-01,4.20086e-13,-4.37621e-01
8.40778e+02,6.75000e+02,6.81000e+02,-6.00000e+00,4.56097e-13,-4.30076e-01,5.83666e-13,-4.30076e-01,9.42847e-13,-4.30076e-01
8.41026e+02,6.96000e+02,6.91000e+02,5.00000e+00,4.52152e-13,-4.22531e-01,6.18877e-13,-4.22531e-01,8.01371e-13,-4.22531e-01
8.41274e+02,6.76000e+02,6.67000e+02,9.00000e+00,3.17750e-13,-4.14986e-01,3.58047e-13,-4.14986e-01,3.70247e-13,-4.14986e-01
8.41522e+02,6.88000e+02,6.91000e+02,-3.00000e+00,1.53402e-13,-4.07441e-01,4.91081e-13,-4.07441e-01,3.46774e-13,-4.07441e-01
8.41770e+02,6.77000e+02,6.73000e+02,4.00000e+00,8.64820e-14,-3.99895e-01,5.62058e-13,-3.99895e-01,5.21080e-13,-3.99895e-01
8.42018e+02,6.71000e+02,6.62000e+02,9.00000e+00,2.67489e-13,-3.92350e-01,4.97120e-13,-3.92350e-01,5.00176e-13,-3.92350e-01
8.42266e+02,6.68000e+02,6.58000e+02,1.00000e+01,4.86042e-13,-3.84805e-01,5.04715e-13,-3.84805e-01,4.70441e-13,-3.84805e-01
8.42514e+02,6.66000e+02,6.70000e+02,-4.00000e+00,6.42959e-13,-3.77260e-01,4.40187e-13,-3.77260e-01,5.45544e-13,-3.77260e-01
8.42762e+02,6.69000e+02,6.64000e+02,5.00000e+00,5.17747e-13,-3.69715e-01,4.29248e-13,-3.69715e-01,3.21863e-13,-3.69715e-01
8.43010e+02,6.64000e+02,6.79000e+02,-1.50000e+01,4.78010e-13,-3.62169e-01,4.27639e-13,-3.62169e-01,2.12444e-13,-3.62169e-01
8.43258e+02,6.66000e+02,6.81000e+02,-1.50000e+01,1.30206e-13,-3.54624e-01,2.70750e-13,-3.54624e-01,1.87304e-13,-3.54624e-01
8.43506e+02,6.71000e+02,6.68000e+02,3.00000e+00,1.62001e-13,-3.47079e-01,1.89737e-13,-3.47079e-01,6.04108e-14,-3.47079e-01
8.43754e+02,6.68000e+02,6.76000e+02,-8.00000e+00,9.79035e-14,-3.39534e-01,5.68381e-14,-3.39534e-01,6.35360e-14,-3.39534e-01
8.44002e+02,6.65000e+02,6.71000e+02,-6.00000e+00,2.77811e-13,-3.31989e-01,2.34098e-13,-3.31989e-01,1.10713e-13,-3.31989e-01
8.44250e+02,6.70000e+02,6.76000e+02,-6.00000e+00,4.08247e-13,-3.24444e-01,2.04076e-13,-3.24444e-01,2.04281e-13,-3.24444e-01
8.44498e+02,6.69000e+02,6.56000e+02,1.30000e+01,3.88482e-13,-3.16898e-01,3.47113e-13,-3.16898e-01,1.48664e-13,-3.16898e-01
8.44746e+02,6.60000e+02,6.60000e+02,0.00000e+00,5.42404e-13,-3.09353e-01,5.88207e-13,-3.09353e-01,5.11957e-13,-3.09353e-01
8.44994e+02,6.76000e+02,6.70000e+02,6.00000e+00,5.58530e-13,-3.01808e-01,5.25761e-13,-3.01808e-01,7.17974e-13,-3.01808e-01
8.45242e+02,6.63000e+02,6.76000e+02,-1.30000e+01,6.91118e-13,-2.94263e-01,5.33591e-13,-2.94263e-01,7.64829e-13,-2.94263e-01
8.45490e+02,6.81000e+02,6.70000e+02,1.10000e+01,5.34728e-13,-2.86718e-01,2.97694e-13,-2.86718e-01,4.99867e-13,-2.86718e-01
8.45738e+02,6.73000e+02,6.61000e+02,1.20000e+01,3.41396e-13,-2.79172e-01,4.66899e-13,-2.79172e-01,4.53027e-13,-2.79172e-01
8.45985e+02,6.70000e+02,6.80000e+02,-1.00000e+01,1.38715e-13,-2.71627e-01,4.73667e-13,-2.71627e-01,5.70728e-13,-2.71627e-01
8.46233e+02,6.55000e+02,6.70000e+02,-1.50000e+01,9.13575e-14,-2.64082e-01,4.61023e-13,-2.64082e-01,4.98772e-13,-2.64082e-01
8.46481e+02,6.57000e+02,6.88000e+02,-3.10000e+01,2.41357e-13,-2.56537e-01,2.64185e-13,-2.56537e-01,3.79271e-13,-2.56537e-01
8.46729e+02,6.76000e+02,6.78000e+02,-2.00000e+00,5.93163e-13,-2.48992e-01,3.23165e-13,-2.48992e-01,3.58576e-13,-2.48992e-01
8.46977e+02,6.79000e+02,6.60000e+02,1.90000e+01,7.42122e-13,-2.41446e-01,4.07968e-13,-2.41446e-01,3.58946e-13,-2.41446e-01
8.47225e+02,6.71000e+02,6.57000e+02,1.40000e+01,5.13804e-13,-2.33901e-01,5.08266e-13,-2.33901e-01,3.25788e-14,-2.33901e-01
8.47473e+02,6.79000e+02,6.66000e+02,1.30000e+01,3.69530e-13,-2.26356e-01,2.16655e-13,-2.26356e-01,3.92306e-13,-2.26356e-01
8.47720e+02,6.47000e+02,6.59000e+02,-1.20000e+01,8.25783e-13,-2.18811e-01,1.22407e-13,-2.18811e-01,9.11565e-13,-2.18811e-01
8.47968e+02,6.72000e+02,6.80000e+02,-8.00000e+00,8.79264e-13,-2.11266e-01,1.79208e-13,-2.11266e-01,8.43411e-13,-2.11266e-01
8.48216e+02,6.69000e+02,6.71000e+02,-2.00000e+00,5.05360e-13,-2.03720e-01,1.04350e-13,-2.03720e-01,5.99661e-13,-2.03720e-01
8.48464e+02,6.67000e+02,6.48000e+02,1.90000e+01,6.45281e-13,-1.96175e-01,1.11060e-13,-1.96175e-01,6.44825e-13,-1.96175e-01
8.48712e+02,6.46000e+02,6.67000e+02,-2.10000e+01,4.00011e-13,-1.88630e-01,1.85861e-13,-1.88630e-01,5.01277e-13,-1.88630e-01
8.48960e+02,6.74000e+02,6.58000e+02,1.60000e+01,1.70543e-13,-1.81085e-01,8.47520e-14,-1.81085e-01,9.38422e-14,-1.81085e-01
8.49207e+02,6.73000e+02,6.75000e+02,-2.00000e+00,3.81838e-13,-1.73540e-01,4.22443e-13,-1.73540e-01,4.87973e-14,-1.73540e-01
8.49455e+02,6.66000e+02,6.60000e+02,6.00000e+00,4.57248e-13,-1.65994e-01,4.44670e-13,-1.65994e-01,4.74558e-14,-1.65994e-01
8.49703e+02,6.74000e+02,6.68000e+02,6.00000e+00,9.08231e-13,-1.58449e-01,5.17426e-13,-1.58449e-01,3.90822e-13,-1.58449e-01
8.49951e+02,6.69000e+02,6.74000e+02,-5.00000e+00,1.05806e-12,-1.50904e-01,2.82065e-13,-1.50904e-01,8.78295e-13,-1.50904e-01
8.50198e+02,6.71000e+02,6.72000e+02,-1.00000e+00,1.10664e-12,-1.43359e-01,2.53641e-13,-1.43359e-01,1.23696e-12,-1.43359e-01
8.50446e+02,6.64000e+02,6.58000e+02,6.00000e+00,9.99469e-13,-1.35814e-01,5.03863e-13,-1.35814e-01,1.09842e-12,-1.35814e-01
8.50694e+02,6.66000e+02,6.66000e+02,0.00000e+00,4.50657e-13,-1.28268e-01,3.65037e-13,-1.28268e-01,6.92674e-13,-1.28268e-01
8.50941e+02,7.05000e+02,6.78000e+02,2.70000e+01,6.21048e-13,-1.20723e-01,2.28079e-13,-1.20723e-01,6.38398e-13,-1.20723e-01
8.51189e+02,6.95000e+02,6.81000e+02,1.40000e+01,6.72975e-13,-1.13178e-01,2.46728e-13,-1.13178e-01,7.52816e-13,-1.13178e-01
8.51437e+02,6.68000e+02,6.69000e+02,-1.00000e+00,3.67201e-13,-1.05633e-01,5.16431e-13,-1.05633e-01,8.32353e-13,-1.05633e-01
8.51685e+02,6.52000e+02,6.66000e+02,-1.40000e+01,6.13346e-13,-9.80876e-02,2.70595e-13,-9.80876e-02,8.23282e-13,-9.80876e-02
8.51932e+02,6.60000e+02,6.53000e+02,7.00000e+00,2.95330e-13,-9.05424e-02,3.94154e-13,-9.05424e-02,6.04662e-13,-9.05424e-02
8.52180e+02,6.71000e+02,6.80000e+02,-9.00000e+00,7.47934e-13,-8.29972e-02,5.13855e-13,-8.29972e-02,5.46101e-13,-8.29972e-02
8.52428e+02,6.53000e+02,6.57000e+02,-4.00000e+00,4.02814e-13,-7.54520e-02,4.80949e-14,-7.54520e-02,3.59379e-13,-7.54520e-02
8.52675e+02,6.58000e+02,6.66000e+02,-8.00000e+00,2.28108e-13,-6.79068e-02,3.68201e-13,-6.79068e-02,1.40990e-13,-6.79068e-02
8.52923e+02,6.79000e+02,6.56000e+02,2.30000e+01,6.08226e-13,-6.03616e-02,4.35173e-13,-6.03616e-02,1.95222e-13,-6.03616e-02
8.53170e+02,6.65000e+02,6.63000e+02,2.00000e+00,3.07209e-13,-5.28164e-02,2.55461e-13,-5.28164e-02,1.29161e-13,-5.28164e-02
8.53418e+02,6.67000e+02,6.51000e+02,1.60000e+01,2.15318e-12,-4.52712e-02,2.15410e-12,-4.52712e-02,2.73285e-13,-4.52712e-02
8.53666e+02,6.70000e+02,6.64000e+02,6.00000e+00,2.16852e-12,-3.77260e-02,2.10926e-12,-3.77260e-02,4.79630e-13,-3.77260e-02
8.53913e+02,6.75000e+02,6.63000e+02,1.20000e+01,3.56344e-12,-3.01808e-02,3.87672e-12,-3.01808e-02,8.07961e-13,-3.01808e-02
8.54161e+02,6.79000e+02,6.62000e+02,1.70000e+01,4.80830e-12,-2.26356e-02,5.43349e-12,-2.26356e-02,6.50588e-13,-2.26356e-02
8.54409e+02,6.60000e+02,6.60000e+02,0.00000e+00,1.21007e-11,-1.50904e-02,1.24620e-11,-1.50904e-02,5.81697e-13,-1.50904e-02
8.54656e+02,6.47000e+02,6.43000e+02,4.00000e+00,2.82921e-11,-7.54520e-03,2.84803e-11,-7.54520e-03,4.81320e-13,-7.54520e-03
