7.67698e+02,6.70000e+02,6.72000e+02,-2.00000e+00,9.32403e-11,0.00000e+00,9.39039e-11,0.00000e+00,6.63626e-13,0.00000e+00
7.67949e+02,6.68000e+02,6.53000e+02,1.50000e+01,1.75016e-11,7.54520e-03,1.81789e-11,7.54520e-03,6.83948e-13,7.54520e-03
7.68199e+02,6.60000e+02,6.64000e+02,-4.00000e+00,8.09104e-12,1.50904e-02,8.36215e-12,1.50904e-02,3.09170e-13,1.50904e-02
7.68450e+02,6.58000e+02,6.81000e+02,-2.30000e+01,2.70390e-12,2.26356e-02,2.70218e-12,2.26356e-02,1.13065e-13,2.26356e-02
7.68701e+02,6.67000e+02,6.71000e+02,-4.00000e+00,3.52910e-12,3.01808e-02,3.70189e-12,3.01808e-02,2.74818e-13,3.01808e-02
7.68951e+02,6.58000e+02,6.43000e+02,1.50000e+01,1.97988e-12,3.77260e-02,2.37538e-12,3.77260e-02,4.65679e-13,3.77260e-02
7.69202e+02,6.94000e+02,6.91000e+02,3.00000e+00,1.91123e-12,4.52712e-02,2.14054e-12,4.52712e-02,2.91397e-13,4.52712e-02
7.69453e+02,6.85000e+02,6.76000e+02,9.00000e+00,1.33699e-13,5.28164e-02,1.94165e-13,5.28164e-02,6.56185e-14,5.28164e-02
7.69703e+02,6.68000e+02,6.65000e+02,3.00000e+00,4.62642e-14,6.03616e-02,4.68095e-13,6.03616e-02,4.26327e-13,6.03616e-02
7.69954e+02,6.82000e+02,6.74000e+02,8.00000e+00,4.45217e-13,6.79068e-02,5.98050e-13,6.79068e-02,4.22658e-13,6.79068e-02
7.70205e+02,6.74000e+02,6.81000e+02,-7.00000e+00,2.99337e-13,7.54520e-02,5.24973e-13,7.54520e-02,3.70409e-13,7.54520e-02
7.70455e+02,6.93000e+02,6.81000e+02,1.20000e+01,3.26671e-13,8.29972e-02,3.03271e-13,8.29972e-02,1.43840e-13,8.29972e-02
7.70706e+02,6.90000e+02,6.86000e+02,4.00000e+00,5.63093e-13,9.05424e-02,6.47783e-13,9.05424e-02,8.61534e-14,9.05424e-02
7.70957e+02,6.89000e+02,6.88000e+02,1.00000e+00,6.57856e-13,9.80876e-02,8.18900e-13,9.80876e-02,2.25625e-13,9.80876e-02
7.71207e+02,6.76000e+02,6.89000e+02,-1.30000e+01,3.96985e-13,1.05633e-01,5.09112e-13,1.05633e-01,1.52371e-13,1.05633e-01
7.71458e+02,6.94000e+02,6.83000e+02,1.10000e+01,5.25482e-13,1.13178e-01,3.44504e-13,1.13178e-01,1.80994e-13,1.13178e-01
7.71708e+02,6.99000e+02,6.92000e+02,7.00000e+00,2.74764e-13,1.20723e-01,2.92242e-13,1.20723e-01,2.54553e-13,1.20723e-01
7.71959e+02,7.05000e+02,6.95000e+02,1.00000e+01,2.09569e-13,1.28268e-01,3.47504e-13,1.28268e-01,2.82650e-13,1.28268e-01
7.72210e+02,6.97000e+02,6.93000e+02,4.00000e+00,4.85334e-13,1.35814e-01,7.59638e-13,1.35814e-01,2.90632e-13,1.35814e-01
7.72460e+02,6.87000e+02,7.13000e+02,-2.60000e+01,1.66737e-13,1.43359e-01,3.31915e-13,1.43359e-01,3.16266e-13,1.43359e-01
7.72711e+02,6.80000e+02,7.00000e+02,-2.00000e+01,1.77159e-13,1.50904e-01,3.23863e-13,1.50904e-01,2.35842e-13,1.50904e-01
7.72961e+02,7.00000e+02,6.81000e+02,1.90000e+01,3.48772e-13,1.58449e-01,1.46049e-13,1.58449e-01,2.08853e-13,1.58449e-01
7.73212e+02,6.92000e+02,6.95000e+02,-3.00000e+00,2.37403e-13,1.65994e-01,2.08175e-13,1.65994e-01,3.30278e-14,1.65994e-01
7.73462e+02,6.93000e+02,7.06000e+02,-1.30000e+01,2.06616e-13,1.73540e-01,6.11422e-14,1.73540e-01,1.66191e-13,1.73540e-01
7.73713e+02,7.00000e+02,7.09000e+02,-9.00000e+00,5.50675e-13,1.81085e-01,3.55990e-13,1.81085e-01,1.97041e-13,1.81085e-01
7.73963e+02,6.94000e+02,7.06000e+02,-1.20000e+01,3.87853e-13,1.88630e-01,2.32589e-13,1.88630e-01,2.59028e-13,1.88630e-01
7.74214e+02,7.10000e+02,7.16000e+02,-6.00000e+00,2.92941e-13,1.96175e-01,2.84065e-13,1.96175e-01,1.82985e-13,1.96175e-01
7.74465e+02,7.27000e+02,7.18000e+02,9.00000e+00,2.10915e-13,2.03720e-01,3.28081e-13,2.03720e-01,1.17618e-13,2.03720e-01
7.74715e+02,7.13000e+02,7.21000e+02,-8.00000e+00,4.25946e-14,2.11266e-01,1.07289e-13,2.11266e-01,6.55397e-14,2.11266e-01
7.74965e+02,7.17000e+02,7.21000e+02,-4.00000e+00,1.47297e-13,2.18811e-01,3.48890e-13,2.18811e-01,2.26636e-13,2.18811e-01
7.75216e+02,7.22000e+02,7.12000e+02,1.00000e+01,1.27624e-13,2.26356e-01,4.06656e-13,2.26356e-01,2.85799e-13,2.26356e-01
7.75466e+02,7.26000e+02,7.23000e+02,3.00000e+00,2.99697e-13,2.33901e-01,5.11834e-13,2.33901e-01,2.35659e-13,2.33901e-01
7.75717e+02,7.29000e+02,7.13000e+02,1.60000e+01,1.32650e-13,2.41446e-01,2.93606e-13,2.41446e-01,2.12395e-13,2.41446e-01
7.75967e+02,7.33000e+02,7.11000e+02,2.20000e+01,2.43454e-13,2.48992e-01,2.40234e-13,2.48992e-01,2.56221e-13,2.48992e-01
7.76218e+02,7.24000e+02,7.40000e+02,-1.60000e+01,1.85463e-13,2.56537e-01,5.31765e-13,2.56537e-01,3.53425e-13,2.56537e-01
7.76468e+02,7.42000e+02,7.39000e+02,3.00000e+00,1.77378e-13,2.64082e-01,4.56135e-13,2.64082e-01,3.35135e-13,2.64082e-01
7.76719e+02,7.20000e+02,7.20000e+02,0.00000e+00,3.41334e-13,2.71627e-01,4.13359e-13,2.71627e-01,1.63309e-13,2.71627e-01
7.76969e+02,7.30000e+02,7.12000e+02,1.80000e+01,1.84868e-13,2.79172e-01,1.48689e-13,2.79172e-01,1.84826e-13,2.79172e-01
7.77219e+02,7.45000e+02,7.33000e+02,1.20000e+01,2.36890e-13,2.86718e-01,3.96774e-14,2.86718e-01,2.55124e-13,2.86718e-01
7.77470e+02,7.53000e+02,7.29000e+02,2.40000e+01,7.16198e-14,2.94263e-01,3.49604e-13,2.94263e-01,3.00358e-13,2.94263e-01
7.77720e+02,7.26000e+02,7.44000e+02,-1.80000e+01,2.42622e-14,3.01808e-01,2.29823e-13,3.01808e-01,2.18763e-13,3.01808e-01
7.77971e+02,7.35000e+02,7.43000e+02,-8.00000e+00,1.96918e-13,3.09353e-01,4.05929e-13,3.09353e-01,2.66859e-13,3.09353e-01
7.78221e+02,7.42000e+02,7.46000e+02,-4.00000e+00,1.20430e-13,3.16898e-01,3.98753e-13,3.16898e-01,2.81613e-13,3.16898e-01
7.78471e+02,7.37000e+02,7.27000e+02,1.00000e+01,1.95320e-13,3.24444e-01,2.54748e-13,3.24444e-01,7.86488e-14,3.24444e-01
7.78722e+02,7.52000e+02,7.37000e+02,1.50000e+01,2.25740e-13,3.31989e-01,1.26309e-13,3.31989e-01,9.94317e-14,3.31989e-01
7.78972e+02,7.32000e+02,7.39000e+02,-7.00000e+00,2.37450e-13,3.39534e-01,8.00984e-14,3.39534e-01,2.53393e-13,3.39534e-01
7.79222e+02,7.43000e+02,7.52000e+02,-9.00000e+00,2.68503e-13,3.47079e-01,1.48337e-13,3.47079e-01,2.28838e-13,3.47079e-01
7.79473e+02,7.72000e+02,7.50000e+02,2.20000e+01,1.95682e-13,3.54624e-01,3.00739e-14,3.54624e-01,1.79936e-13,3.54624e-01
7.79723e+02,7.66000e+02,7.42000e+02,2.40000e+01,1.95857e-13,3.62169e-01,1.79536e-13,3.62169e-01,1.64317e-14,3.62169e-01
7.79973e+02,7.49000e+02,7.46000e+02,3.00000e+00,7.22742e-14,3.69715e-01,8.04737e-14,3.69715e-01,7.44749e-14,3.69715e-01
7.80224e+02,7.78000e+02,7.77000e+02,1.00000e+00,9.54950e-14,3.77260e-01,2.11045e-13,3.77260e-01,1.27792e-13,3.77260e-01
7.80474e+02,7.68000e+02,7.59000e+02,9.00000e+00,4.93021e-14,3.84805e-01,3.99224e-14,3.84805e-01,7.90052e-14,3.84805e-01
7.80724e+02,7.53000e+02,7.69000e+02,-1.60000e+01,5.25222e-14,3.92350e-01,1.28607e-13,3.92350e-01,1.60040e-13,3.92350e-01
7.80974e+02,7.59000e+02,7.51000e+02,8.00000e+00,6.77054e-14,3.99895e-01,1.61549e-13,3.99895e-01,1.14238e-13,3.99895e-01
7.81225e+02,7.54000e+02,7.53000e+02,1.00000e+00,3.75678e-14,4.07441e-01,9.18156e-14,4.07441e-01,7.42746e-14,4.07441e-01
7.81475e+02,7.62000e+02,7.39000e+02,2.30000e+01,2.94392e-13,4.14986e-01,5.01203e-14,4.14986e-01,3.27619e-13,4.14986e-01
7.81725e+02,7.43000e+02,7.42000e+02,1.00000e+00,3.50061e-13,4.22531e-01,1.72416e-13,4.22531e-01,4.87303e-13,4.22531e-01
7.81975e+02,7.41000e+02,7.37000e+02,4.00000e+00,1.77268e-13,4.30076e-01,2.33580e-13,4.30076e-01,4.02736e-13,4.30076e-01
7.82226e+02,7.63000e+02,7.66000e+02,-3.00000e+00,2.04208e-13,4.37621e-01,1.01246e-13,4.37621e-01,2.96455e-13,4.37621e-01
7.82476e+02,7.60000e+02,7.54000e+02,6.00000e+00,2.42801e-13,4.45167e-01,3.48435e-13,4.45167e-01,5.54347e-13,4.45167e-01
7.82726e+02,7.60000e+02,7.49000e+02,1.10000e+01,5.73923e-13,4.52712e-01,6.97153e-13,4.52712e-01,1.20798e-12,4.52712e-01
7.82976e+02,7.45000e+02,7.50000e+02,-5.00000e+00,7.98924e-13,4.60257e-01,7.99282e-13,4.60257e-01,1.51466e-12,4.60257e-01
7.83226e+02,7.34000e+02,7.14000e+02,2.00000e+01,7.37208e-13,4.67802e-01,4.15381e-13,4.67802e-01,1.11475e-12,4.67802e-01
7.83477e+02,7.34000e+02,7.37000e+02,-3.00000e+00,4.24850e-13,4.75347e-01,8.37942e-14,4.75347e-01,4.85894e-13,4.75347e-01
7.83727e+02,7.44000e+02,7.31000e+02,1.30000e+01,3.31116e-13,4.82893e-01,2.80424e-13,4.82893e-01,4.79530e-13,4.82893e-01
7.83977e+02,7.31000e+02,7.24000e+02,7.00000e+00,1.81364e-13,4.90438e-01,4.55898e-13,4.90438e-01,5.83236e-13,4.90438e-01
7.84227e+02,7.35000e+02,7.23000e+02,1.20000e+01,1.68108e-13,4.97983e-01,3.05710e-13,4.97983e-01,4.34458e-13,4.97983e-01
7.84477e+02,7.17000e+02,7.37000e+02,-2.00000e+01,1.00111e-13,5.05528e-01,3.29732e-13,5.05528e-01,4.25594e-13,5.05528e-01
7.84727e+02,7.18000e+02,7.49000e+02,-3.10000e+01,1.40182e-13,5.13073e-01,2.12414e-13,5.13073e-01,2.99612e-13,5.13073e-01
7.84978e+02,7.34000e+02,7.59000e+02,-2.50000e+01,6.56293e-14,5.20619e-01,2.05163e-13,5.20619e-01,1.80008e-13,5.20619e-01
7.85228e+02,7.45000e+02,7.36000e+02,9.00000e+00,1.29380e-13,5.28164e-01,2.51286e-13,5.28164e-01,1.37210e-13,5.28164e-01
7.85478e+02,7.24000e+02,7.17000e+02,7.00000e+00,6.38800e-14,5.35709e-01,2.21644e-13,5.35709e-01,2.41309e-13,5.35709e-01
7.85728e+02,7.09000e+02,7.10000e+02,-1.00000e+00,7.79212e-14,5.43254e-01,1.12011e-13,5.43254e-01,1.89774e-13,5.43254e-01
7.85978e+02,7.20000e+02,7.27000e+02,-7.00000e+00,2.43494e-13,5.50799e-01,9.93502e-14,5.50799e-01,1.51566e-13,5.50799e-01
7.86228e+02,7.16000e+02,7.20000e+02,-4.00000e+00,1.50523e-13,5.58345e-01,1.15989e-13,5.58345e-01,1.42464e-13,5.58345e-01
7.86478e+02,7.12000e+02,7.11000e+02,1.00000e+00,2.08760e-13,5.65890e-01,2.00620e-13,5.65890e-01,1.04649e-13,5.65890e-01
7.86728e+02,7.23000e+02,7.00000e+02,2.30000e+01,1.32196e-13,5.73435e-01,1.46260e-13,5.73435e-01,1.26936e-13,5.73435e-01
7.86978e+02,7.14000e+02,6.96000e+02,1.80000e+01,1.19550e-13,5.80980e-01,7.10362e-14,5.80980e-01,1.66609e-13,5.80980e-01
7.87228e+02,7.17000e+02,7.01000e+02,1.60000e+01,2.78808e-14,5.88525e-01,1.41071e-13,5.88525e-01,1.64305e-13,5.88525e-01
7.87478e+02,6.94000e+02,7.10000e+02,-1.60000e+01,1.42248e-13,5.96071e-01,3.18626e-13,5.96071e-01,2.37751e-13,5.96071e-01
7.87728e+02,7.05000e+02,7.15000e+02,-1.00000e+01,3.18261e-14,6.03616e-01,2.73023e-13,6.03616e-01,2.41510e-13,6.03616e-01
7.87978e+02,7.16000e+02,7.04000e+02,1.20000e+01,1.71855e-13,6.11161e-01,3.85718e-13,6.11161e-01,2.98898e-13,6.11161e-01
7.88228e+02,7.22000e+02,7.12000e+02,1.00000e+01,1.29363e-13,6.18706e-01,2.55629e-13,6.18706e-01,2.54882e-13,6.18706e-01
7.88478e+02,7.14000e+02,7.15000e+02,-1.00000e+00,8.72178e-14,6.26251e-01,1.46806e-13,6.26251e-01,1.76392e-13,6.26251e-01
7.88728e+02,7.08000e+02,6.97000e+02,1.10000e+01,8.70007e-14,6.33797e-01,8.56060e-14,6.33797e-01,7.54086e-14,6.33797e-01
7.88978e+02,7.02000e+02,7.10000e+02,-8.00000e+00,1.99256e-13,6.41342e-01,1.00256e-13,6.41342e-01,1.69034e-13,6.41342e-01
7.89228e+02,7.27000e+02,7.17000e+02,1.00000e+01,1.96695e-13,6.48887e-01,4.58156e-14,6.48887e-01,1.57970e-13,6.48887e-01
7.89478e+02,7.18000e+02,7.18000e+02,0.00000e+00,1.98074e-13,6.56432e-01,1.72716e-13,6.56432e-01,4.24886e-14,6.56432e-01
7.89728e+02,7.12000e+02,7.12000e+02,0.00000e+00,8.07648e-14,6.63977e-01,1.68773e-13,6.63977e-01,9.78107e-14,6.63977e-01
7.89978e+02,7.30000e+02,7.20000e+02,1.00000e+01,6.69108e-14,6.71523e-01,9.82417e-14,6.71523e-01,1.49533e-13,6.71523e-01
7.90228e+02,7.23000e+02,7.31000e+02,-8.00000e+00,1.95271e-13,6.79068e-01,1.38636e-13,6.79068e-01,1.28316e-13,6.79068e-01
7.90478e+02,7.09000e+02,6.93000e+02,1.60000e+01,1.68655e-13,6.86613e-01,9.91373e-14,6.86613e-01,7.90967e-14,6.86613e-01
7.90728e+02,7.22000e+02,7.18000e+02,4.00000e+00,6.65929e-14,6.94158e-01,2.77931e-13,6.94158e-01,2.15624e-13,6.94158e-01
7.90978e+02,7.20000e+02,7.14000e+02,6.00000e+00,5.94005e-14,7.01703e-01,1.42429e-13,7.01703e-01,1.76231e-13,7.01703e-01
7.91228e+02,7.11000e+02,7.45000e+02,-3.40000e+01,6.04178e-14,7.09249e-01,3.64185e-14,7.09249e-01,2.76237e-14,7.09249e-01
7.91478e+02,7.12000e+02,7.24000e+02,-1.20000e+01,1.01653e-13,7.16794e-01,1.24324e-13,7.16794e-01,2.43237e-14,7.16794e-01
7.91728e+02,7.34000e+02,7.36000e+02,-2.00000e+00,1.05856e-13,7.24339e-01,1.75710e-13,7.24339e-01,1.19713e-13,7.24339e-01
7.91977e+02,7.38000e+02,7.24000e+02,1.40000e+01,3.15132e-14,7.31884e-01,1.08939e-13,7.31884e-01,1.18749e-13,7.31884e-01
7.92227e+02,7.33000e+02,7.48000e+02,-1.50000e+01,5.49115e-14,7.39429e-01,1.00533e-13,7.39429e-01,5.54366e-14,7.39429e-01
7.92477e+02,7.42000e+02,7.56000e+02,-1.40000e+01,8.66178e-14,7.46975e-01,9.00295e-14,7.46975e-01,6.34199e-15,7.46975e-01
7.92727e+02,7.10000e+02,7.27000e+02,-1.70000e+01,6.83442e-14,7.54520e-01,8.48374e-14,7.54520e-01,3.26193e-14,7.54520e-01
7.92977e+02,7.32000e+02,7.36000e+02,-4.00000e+00,6.87937e-14,7.62065e-01,5.42583e-14,7.62065e-01,1.09620e-13,7.62065e-01
7.93227e+02,7.59000e+02,7.44000e+02,1.50000e+01,4.59894e-14,7.69610e-01,9.44975e-14,7.69610e-01,1.34112e-13,7.69610e-01
7.93476e+02,7.65000e+02,7.44000e+02,2.10000e+01,3.32818e-14,7.77155e-01,1.09065e-13,7.77155e-01,1.07162e-13,7.77155e-01
7.93726e+02,7.37000e+02,7.57000e+02,-2.00000e+01,2.31084e-14,7.84701e-01,1.04773e-13,7.84701e-01,1.05165e-13,7.84701e-01
7.93976e+02,7.35000e+02,7.40000e+02,-5.00000e+00,6.32345e-14,7.92246e-01,1.09255e-13,7.92246e-01,4.73825e-14,7.92246e-01
7.94226e+02,7.35000e+02,7.52000e+02,-1.70000e+01,8.17678e-14,7.99791e-01,8.91917e-14,7.99791e-01,3.25283e-14,7.99791e-01
7.94476e+02,7.38000e+02,7.50000e+02,-1.20000e+01,9.63284e-14,8.07336e-01,9.02751e-14,8.07336e-01,7.49576e-14,8.07336e-01
7.94725e+02,7.69000e+02,7.35000e+02,3.40000e+01,1.27794e-13,8.14881e-01,5.08749e-14,8.14881e-01,7.69581e-14,8.14881e-01
7.94975e+02,7.69000e+02,7.43000e+02,2.60000e+01,9.30154e-14,8.22427e-01,1.06496e-13,8.22427e-01,2.20313e-14,8.22427e-01
7.95225e+02,7.33000e+02,7.61000e+02,-2.80000e+01,7.16800e-14,8.29972e-01,5.34466e-14,8.29972e-01,4.67624e-14,8.29972e-01
7.95475e+02,7.25000e+02,7.49000e+02,-2.40000e+01,7.86438e-14,8.37517e-01,3.12501e-14,8.37517e-01,6.07282e-14,8.37517e-01
7.95724e+02,7.29000e+02,7.58000e+02,-2.90000e+01,1.14443e-13,8.45062e-01,1.01122e-13,8.45062e-01,3.94625e-14,8.45062e-01
7.95974e+02,7.45000e+02,7.40000e+02,5.00000e+00,9.38044e-14,8.52607e-01,1.13482e-13,8.52607e-01,8.26661e-14,8.52607e-01
7.96224e+02,7.62000e+02,7.56000e+02,6.00000e+00,1.21419e-13,8.60153e-01,1.77623e-13,8.60153e-01,9.43092e-14,8.60153e-01
7.96474e+02,7.61000e+02,7.55000e+02,6.00000e+00,2.24857e-14,8.67698e-01,1.42761e-13,8.67698e-01,1.56676e-13,8.67698e-01
7.96723e+02,7.49000e+02,7.42000e+02,7.00000e+00,5.88559e-14,8.75243e-01,7.27351e-14,8.75243e-01,8.67534e-14,8.75243e-01
7.96973e+02,7.36000e+02,7.56000e+02,-2.00000e+01,6.47310e-14,8.82788e-01,5.31830e-14,8.82788e-01,5.54321e-14,8.82788e-01
7.97223e+02,7.56000e+02,7.50000e+02,6.00000e+00,1.09503e-14,8.90333e-01,1.44152e-13,8.90333e-01,1.35091e-13,8.90333e-01
7.97472e+02,7.48000e+02,7.47000e+02,1.00000e+00,5.41381e-14,8.97879e-01,7.78724e-14,8.97879e-01,5.32764e-14,8.97879e-01
7.97722e+02,7.49000e+02,7.56000e+02,-7.00000e+00,1.05549e-13,9.05424e-01,8.82106e-14,9.05424e-01,4.16687e-14,9.05424e-01
7.97972e+02,7.64000e+02,7.84000e+02,-2.00000e+01,1.50825e-13,9.12969e-01,1.11252e-13,9.12969e-01,9.25364e-14,9.12969e-01
7.98221e+02,7.57000e+02,7.91000e+02,-3.40000e+01,1.03099e-13,9.20514e-01,2.08420e-13,9.20514e-01,1.30224e-13,9.20514e-01
7.98471e+02,7.53000e+02,7.79000e+02,-2.60000e+01,2.16513e-13,9.28059e-01,2.04289e-13,9.28059e-01,1.93816e-14,9.28059e-01
7.98721e+02,7.88000e+02,7.62000e+02,2.60000e+01,1.55610e-13,9.35605e-01,1.08825e-13,9.35605e-01,1.57401e-13,9.35605e-01
7.98970e+02,8.30000e+02,7.71000e+02,5.90000e+01,5.11737e-14,9.43150e-01,5.07940e-14,9.43150e-01,5.04278e-14,9.43150e-01
7.99220e+02,8.33000e+02,7.61000e+02,7.20000e+01,9.43651e-14,9.50695e-01,2.33301e-14,9.50695e-01,1.04123e-13,9.50695e-01
7.99469e+02,8.16000e+02,8.11000e+02,5.00000e+00,1.15722e-13,9.58240e-01,5.95927e-14,9.58240e-01,1.02294e-13,9.58240e-01
7.99719e+02,7.98000e+02,8.41000e+02,-4.30000e+01,1.61283e-14,9.65785e-01,2.96860e-14,9.65785e-01,2.66666e-14,9.65785e-01
7.99969e+02,7.86000e+02,8.21000e+02,-3.50000e+01,5.06530e-14,9.73331e-01,8.38269e-14,9.73331e-01,4.24147e-14,9.73331e-01
8.00218e+02,8.69000e+02,8.15000e+02,5.40000e+01,6.29231e-14,9.80876e-01,9.39542e-14,9.80876e-01,4.69266e-14,9.80876e-01
8.00468e+02,9.33000e+02,8.46000e+02,8.70000e+01,5.01621e-14,9.88421e-01,4.19599e-14,9.88421e-01,8.98643e-14,9.88421e-01
8.00717e+02,8.87000e+02,9.01000e+02,-1.40000e+01,9.10409e-14,9.95966e-01,6.52109e-14,9.95966e-01,9.85207e-14,9.95966e-01
8.00967e+02,8.85000e+02,8.96000e+02,-1.10000e+01,6.67856e-14,1.00351e+00,5.19395e-14,1.00351e+00,6.38839e-14,1.00351e+00
8.01216e+02,8.65000e+02,8.97000e+02,-3.20000e+01,2.80156e-14,1.01106e+00,4.59093e-14,1.01106e+00,5.47814e-14,1.01106e+00
8.01466e+02,8.95000e+02,8.57000e+02,3.80000e+01,2.87285e-14,1.01860e+00,5.66689e-14,1.01860e+00,2.92494e-14,1.01860e+00
8.01715e+02,9.28000e+02,8.74000e+02,5.40000e+01,1.27238e-13,1.02615e+00,1.65876e-13,1.02615e+00,4.37400e-14,1.02615e+00
8.01965e+02,9.50000e+02,9.06000e+02,4.40000e+01,7.43024e-15,1.03369e+00,6.12011e-14,1.03369e+00,6.64089e-14,1.03369e+00
8.02215e+02,9.26000e+02,9.50000e+02,-2.40000e+01,9.33659e-14,1.04124e+00,5.86681e-14,1.04124e+00,4.39505e-14,1.04124e+00
8.02464e+02,9.13000e+02,9.66000e+02,-5.30000e+01,3.20108e-14,1.04878e+00,8.71186e-14,1.04878e+00,9.29963e-14,1.04878e+00
8.02713e+02,9.63000e+02,9.50000e+02,1.30000e+01,5.28785e-14,1.05633e+00,8.11893e-14,1.05633e+00,8.19112e-14,1.05633e+00
8.02963e+02,1.03000e+03,9.48000e+02,8.20000e+01,7.52043e-14,1.06387e+00,6.57572e-14,1.06387e+00,8.84856e-14,1.06387e+00
8.03212e+02,1.11100e+03,9.62000e+02,1.49000e+02,4.66499e-14,1.07142e+00,3.13124e-14,1.07142e+00,5.31784e-14,1.07142e+00
8.03462e+02,1.13000e+03,1.11400e+03,1.60000e+01,8.60684e-14,1.07896e+00,5.74318e-14,1.07896e+00,1.34765e-13,1.07896e+00
8.03711e+02,1.03300e+03,1.16400e+03,-1.31000e+02,6.61848e-14,1.08651e+00,8.35846e-14,1.08651e+00,3.10954e-14,1.08651e+00
8.03961e+02,1.03000e+03,1.10000e+03,-7.00000e+01,1.85238e-14,1.09405e+00,4.86704e-14,1.09405e+00,3.82209e-14,1.09405e+00
8.04210e+02,1.09500e+03,1.04000e+03,5.50000e+01,5.97178e-14,1.10160e+00,5.67696e-14,1.10160e+00,9.83199e-15,1.10160e+00
8.04460e+02,1.17800e+03,1.08900e+03,8.90000e+01,8.44496e-14,1.10914e+00,3.17209e-14,1.10914e+00,7.10641e-14,1.10914e+00
8.04709e+02,1.17600e+03,1.12000e+03,5.60000e+01,7.07610e-14,1.11669e+00,3.30659e-14,1.11669e+00,1.01785e-13,1.11669e+00
8.04958e+02,1.10100e+03,1.20200e+03,-1.01000e+02,1.02539e-13,1.12423e+00,4.52574e-14,1.12423e+00,5.91838e-14,1.12423e+00
8.05208e+02,1.08300e+03,1.29900e+03,-2.16000e+02,9.31632e-14,1.13178e+00,7.80590e-14,1.13178e+00,1.43683e-13,1.13178e+00
8.05457e+02,1.10800e+03,1.23200e+03,-1.24000e+02,8.09577e-14,1.13932e+00,9.88587e-14,1.13932e+00,7.60381e-14,1.13932e+00
8.05707e+02,1.20100e+03,1.25300e+03,-5.20000e+01,5.86824e-14,1.14687e+00,2.02888e-14,1.14687e+00,7.57913e-14,1.14687e+00
8.05956e+02,1.25200e+03,1.21000e+03,4.20000e+01,1.06692e-13,1.15442e+00,7.10585e-14,1.15442e+00,3.79343e-14,1.15442e+00
8.06205e+02,1.23800e+03,1.25800e+03,-2.00000e+01,8.48534e-14,1.16196e+00,4.35762e-14,1.16196e+00,1.11460e-13,1.16196e+00
8.06455e+02,1.18900e+03,1.29700e+03,-1.08000e+02,8.25830e-14,1.16951e+00,5.07355e-14,1.16951e+00,4.92221e-14,1.16951e+00
8.06704e+02,1.12500e+03,1.22500e+03,-1.00000e+02,7.48735e-14,1.17705e+00,1.14803e-13,1.17705e+00,1.59766e-13,1.17705e+00
8.06953e+02,1.13100e+03,1.11300e+03,1.80000e+01,4.11932e-14,1.18460e+00,5.61372e-14,1.18460e+00,4.59459e-14,1.18460e+00
8.07203e+02,1.23300e+03,1.14800e+03,8.50000e+01,5.53214e-14,1.19214e+00,6.50713e-14,1.19214e+00,1.09923e-13,1.19214e+00
8.07452e+02,1.25200e+03,1.19000e+03,6.20000e+01,9.34736e-14,1.19969e+00,7.82641e-14,1.19969e+00,7.68214e-14,1.19969e+00
8.07701e+02,1.16700e+03,1.17200e+03,-5.00000e+00,9.67772e-14,1.20723e+00,4.22830e-14,1.20723e+00,5.79560e-14,1.20723e+00
8.07951e+02,1.15300e+03,1.26200e+03,-1.09000e+02,7.46873e-14,1.21478e+00,1.54669e-13,1.21478e+00,9.78473e-14,1.21478e+00
8.08200e+02,1.19100e+03,1.31000e+03,-1.19000e+02,9.22014e-14,1.22232e+00,1.39829e-13,1.22232e+00,5.27195e-14,1.22232e+00
8.08449e+02,1.22200e+03,1.24000e+03,-1.80000e+01,8.78125e-14,1.22987e+00,6.14727e-14,1.22987e+00,3.37310e-14,1.22987e+00
8.08698e+02,1.25200e+03,1.18300e+03,6.90000e+01,1.03219e-13,1.23741e+00,9.06511e-14,1.23741e+00,3.07459e-14,1.23741e+00
8.08948e+02,1.22000e+03,1.16800e+03,5.20000e+01,2.13931e-14,1.24496e+00,8.62530e-14,1.24496e+00,7.75558e-14,1.24496e+00
8.09197e+02,1.23200e+03,1.28200e+03,-5.00000e+01,8.80072e-14,1.25250e+00,9.85312e-14,1.25250e+00,8.81555e-14,1.25250e+00
8.09446e+02,1.14800e+03,1.31500e+03,-1.67000e+02,1.07764e-13,1.26005e+00,9.69721e-14,1.26005e+00,1.45169e-13,1.26005e+00
8.09695e+02,1.12400e+03,1.23600e+03,-1.12000e+02,2.23257e-14,1.26759e+00,1.22311e-13,1.26759e+00,1.10510e-13,1.26759e+00
8.09945e+02,1.21700e+03,1.21000e+03,7.00000e+00,2.72151e-14,1.27514e+00,2.99120e-14,1.27514e+00,5.32156e-15,1.27514e+00
8.10194e+02,1.29800e+03,1.25100e+03,4.70000e+01,4.59579e-14,1.28268e+00,9.39164e-14,1.28268e+00,5.73546e-14,1.28268e+00
8.10443e+02,1.36300e+03,1.36400e+03,-1.00000e+00,5.33450e-14,1.29023e+00,5.32744e-14,1.29023e+00,5.44109e-14,1.29023e+00
8.10692e+02,1.30200e+03,1.35900e+03,-5.70000e+01,1.11046e-13,1.29777e+00,6.91345e-14,1.29777e+00,4.19423e-14,1.29777e+00
8.10941e+02,1.21100e+03,1.28800e+03,-7.70000e+01,6.90702e-14,1.30532e+00,2.36900e-14,1.30532e+00,8.77444e-14,1.30532e+00
8.11191e+02,1.21700e+03,1.26500e+03,-4.80000e+01,9.07389e-15,1.31286e+00,5.51383e-14,1.31286e+00,5.68671e-14,1.31286e+00
8.11440e+02,1.25100e+03,1.23800e+03,1.30000e+01,8.28392e-15,-1.32041e+00,1.03293e-13,-1.32041e+00,1.11577e-13,-1.32041e+00
8.11689e+02,1.29200e+03,1.26900e+03,2.30000e+01,9.07389e-15,-1.31286e+00,5.51383e-14,-1.31286e+00,5.68671e-14,-1.31286e+00
8.11938e+02,1.27300e+03,1.28000e+03,-7.00000e+00,6.90702e-14,-1.30532e+00,2.36900e-14,-1.30532e+00,8.77444e-14,-1.30532e+00
8.12187e+02,1.24100e+03,1.27200e+03,-3.10000e+01,1.11046e-13,-1.29777e+00,6.91345e-14,-1.29777e+00,4.19423e-14,-1.29777e+00
8.12436e+02,1.21900e+03,1.24700e+03,-2.80000e+01,5.33450e-14,-1.29023e+00,5.32744e-14,-1.29023e+00,5.44109e-14,-1.29023e+00
8.12685e+02,1.25300e+03,1.21800e+03,3.50000e+01,4.59579e-14,-1.28268e+00,9.39164e-14,-1.28268e+00,5.73546e-14,-1.28268e+00
8.12935e+02,1.22000e+03,1.15900e+03,6.10000e+01,2.72151e-14,-1.27514e+00,2.99120e-14,-1.27514e+00,5.32156e-15,-1.27514e+00
8.13184e+02,1.24000e+03,1.17900e+03,6.10000e+01,2.23257e-14,-1.26759e+00,1.22311e-13,-1.26759e+00,1.10510e-13,-1.26759e+00
8.13433e+02,1.19800e+03,1.15500e+03,4.30000e+01,1.07764e-13,-1.26005e+00,9.69721e-14,-1.26005e+00,1.45169e-13,-1.26005e+00
8.13682e+02,1.18100e+03,1.20800e+03,-2.70000e+01,8.80072e-14,-1.25250e+00,9.85312e-14,-1.25250e+00,8.81555e-14,-1.25250e+00
8.13931e+02,1.22100e+03,1.19400e+03,2.70000e+01,2.13931e-14,-1.24496e+00,8.62530e-14,-1.24496e+00,7.75558e-14,-1.24496e+00
8.14180e+02,1.27000e+03,1.25500e+03,1.50000e+01,1.03219e-13,-1.23741e+00,9.06511e-14,-1.23741e+00,3.07459e-14,-1.23741e+00
8.14429e+02,1.27300e+03,1.29100e+03,-1.80000e+01,8.78125e-14,-1.22987e+00,6.14727e-14,-1.22987e+00,3.37310e-14,-1.22987e+00
8.14678e+02,1.23600e+03,1.29200e+03,-5.60000e+01,9.22014e-14,-1.22232e+00,1.39829e-13,-1.22232e+00,5.27195e-14,-1.22232e+00
8.14927e+02,1.25200e+03,1.30100e+03,-4.90000e+01,7.46873e-14,-1.21478e+00,1.54669e-13,-1.21478e+00,9.78473e-14,-1.21478e+00
8.15176e+02,1.19800e+03,1.25400e+03,-5.60000e+01,9.67772e-14,-1.20723e+00,4.22830e-14,-1.20723e+00,5.79560e-14,-1.20723e+00
8.15425e+02,1.16700e+03,1.21600e+03,-4.90000e+01,9.34736e-14,-1.19969e+00,7.82641e-14,-1.19969e+00,7.68214e-14,-1.19969e+00
8.15674e+02,1.18200e+03,1.28500e+03,-1.03000e+02,5.53214e-14,-1.19214e+00,6.50713e-14,-1.19214e+00,1.09923e-13,-1.19214e+00
8.15923e+02,1.23500e+03,1.24900e+03,-1.40000e+01,4.11932e-14,-1.18460e+00,5.61372e-14,-1.18460e+00,4.59459e-14,-1.18460e+00
8.16172e+02,1.22000e+03,1.21400e+03,6.00000e+00,7.48735e-14,-1.17705e+00,1.14803e-13,-1.17705e+00,1.59766e-13,-1.17705e+00
8.16421e+02,1.24700e+03,1.27300e+03,-2.60000e+01,8.25830e-14,-1.16951e+00,5.07355e-14,-1.16951e+00,4.92221e-14,-1.16951e+00
8.16670e+02,1.19400e+03,1.28800e+03,-9.40000e+01,8.48534e-14,-1.16196e+00,4.35762e-14,-1.16196e+00,1.11460e-13,-1.16196e+00
8.16919e+02,1.21800e+03,1.29300e+03,-7.50000e+01,1.06692e-13,-1.15442e+00,7.10585e-14,-1.15442e+00,3.79343e-14,-1.15442e+00
8.17168e+02,1.33400e+03,1.31100e+03,2.30000e+01,5.86824e-14,-1.14687e+00,2.02888e-14,-1.14687e+00,7.57913e-14,-1.14687e+00
8.17417e+02,1.39600e+03,1.25400e+03,1.42000e+02,8.09577e-14,-1.13932e+00,9.88587e-14,-1.13932e+00,7.60381e-14,-1.13932e+00
8.17666e+02,1.38600e+03,1.32700e+03,5.90000e+01,9.31632e-14,-1.13178e+00,7.80590e-14,-1.13178e+00,1.43683e-13,-1.13178e+00
8.17915e+02,1.36500e+03,1.46200e+03,-9.70000e+01,1.02539e-13,-1.12423e+00,4.52574e-14,-1.12423e+00,5.91838e-14,-1.12423e+00
8.18164e+02,1.40400e+03,1.54900e+03,-1.45000e+02,7.07610e-14,-1.11669e+00,3.30659e-14,-1.11669e+00,1.01785e-13,-1.11669e+00
8.18413e+02,1.39500e+03,1.42800e+03,-3.30000e+01,8.44496e-14,-1.10914e+00,3.17209e-14,-1.10914e+00,7.10641e-14,-1.10914e+00
8.18662e+02,1.43600e+03,1.36500e+03,7.10000e+01,5.97178e-14,-1.10160e+00,5.67696e-14,-1.10160e+00,9.83199e-15,-1.10160e+00
8.18911e+02,1.36800e+03,1.34000e+03,2.80000e+01,1.85238e-14,-1.09405e+00,4.86704e-14,-1.09405e+00,3.82209e-14,-1.09405e+00
8.19160e+02,1.33400e+03,1.37800e+03,-4.40000e+01,6.61848e-14,-1.08651e+00,8.35846e-14,-1.08651e+00,3.10954e-14,-1.08651e+00
8.19408e+02,1.33100e+03,1.37400e+03,-4.30000e+01,8.60684e-14,-1.07896e+00,5.74318e-14,-1.07896e+00,1.34765e-13,-1.07896e+00
8.19657e+02,1.37400e+03,1.40500e+03,-3.10000e+01,4.66499e-14,-1.07142e+00,3.13124e-14,-1.07142e+00,5.31784e-14,-1.07142e+00
8.19906e+02,1.45200e+03,1.40800e+03,4.40000e+01,7.52043e-14,-1.06387e+00,6.57572e-14,-1.06387e+00,8.84856e-14,-1.06387e+00
8.20155e+02,1.49400e+03,1.40800e+03,8.60000e+01,5.28785e-14,-1.05633e+00,8.11893e-14,-1.05633e+00,8.19112e-14,-1.05633e+00
8.20404e+02,1.47200e+03,1.41700e+03,5.50000e+01,3.20108e-14,-1.04878e+00,8.71186e-14,-1.04878e+00,9.29963e-14,-1.04878e+00
8.20653e+02,1.44600e+03,1.50800e+03,-6.20000e+01,9.33659e-14,-1.04124e+00,5.86681e-14,-1.04124e+00,4.39505e-14,-1.04124e+00
8.20901e+02,1.37100e+03,1.53700e+03,-1.66000e+02,7.43024e-15,-1.03369e+00,6.12011e-14,-1.03369e+00,6.64089e-14,-1.03369e+00
8.21150e+02,1.36400e+03,1.45200e+03,-8.80000e+01,1.27238e-13,-1.02615e+00,1.65876e-13,-1.02615e+00,4.37400e-14,-1.02615e+00
8.21399e+02,1.43300e+03,1.41400e+03,1.90000e+01,2.87285e-14,-1.01860e+00,5.66689e-14,-1.01860e+00,2.92494e-14,-1.01860e+00
8.21648e+02,1.43400e+03,1.22800e+03,2.06000e+02,2.80156e-14,-1.01106e+00,4.59093e-14,-1.01106e+00,5.47814e-14,-1.01106e+00
8.21897e+02,1.42000e+03,1.27000e+03,1.50000e+02,6.67856e-14,-1.00351e+00,5.19395e-14,-1.00351e+00,6.38839e-14,-1.00351e+00
8.22145e+02,1.36800e+03,1.38400e+03,-1.60000e+01,9.10409e-14,-9.95966e-01,6.52109e-14,-9.95966e-01,9.85207e-14,-9.95966e-01
8.22394e+02,1.36000e+03,1.45600e+03,-9.60000e+01,5.01621e-14,-9.88421e-01,4.19599e-14,-9.88421e-01,8.98643e-14,-9.88421e-01
8.22643e+02,1.33800e+03,1.40900e+03,-7.10000e+01,6.29231e-14,-9.80876e-01,9.39542e-14,-9.80876e-01,4.69266e-14,-9.80876e-01
8.22892e+02,1.44200e+03,1.41200e+03,3.00000e+01,5.06530e-14,-9.73331e-01,8.38269e-14,-9.73331e-01,4.24147e-14,-9.73331e-01
8.23140e+02,1.39200e+03,1.41400e+03,-2.20000e+01,1.61283e-14,-9.65785e-01,2.96860e-14,-9.65785e-01,2.66666e-14,-9.65785e-01
8.23389e+02,1.44900e+03,1.54300e+03,-9.40000e+01,1.15722e-13,-9.58240e-01,5.95927e-14,-9.58240e-01,1.02294e-13,-9.58240e-01
8.23638e+02,1.40200e+03,1.53100e+03,-1.29000e+02,9.43651e-14,-9.50695e-01,2.33301e-14,-9.50695e-01,1.04123e-13,-9.50695e-01
8.23887e+02,1.35300e+03,1.43500e+03,-8.20000e+01,5.11737e-14,-9.43150e-01,5.07940e-14,-9.43150e-01,5.04278e-14,-9.43150e-01
8.24135e+02,1.35200e+03,1.40000e+03,-4.80000e+01,1.55610e-13,-9.35605e-01,1.08825e-13,-9.35605e-01,1.57401e-13,-9.35605e-01
8.24384e+02,1.48800e+03,1.45900e+03,2.90000e+01,2.16513e-13,-9.28059e-01,2.04289e-13,-9.28059e-01,1.93816e-14,-9.28059e-01
8.24633e+02,1.53600e+03,1.47100e+03,6.50000e+01,1.03099e-13,-9.20514e-01,2.08420e-13,-9.20514e-01,1.30224e-13,-9.20514e-01
8.24881e+02,1.46800e+03,1.50000e+03,-3.20000e+01,1.50825e-13,-9.12969e-01,1.11252e-13,-9.12969e-01,9.25364e-14,-9.12969e-01
8.25130e+02,1.40000e+03,1.51400e+03,-1.14000e+02,1.05549e-13,-9.05424e-01,8.82106e-14,-9.05424e-01,4.16687e-14,-9.05424e-01
8.25379e+02,1.34000e+03,1.49500e+03,-1.55000e+02,5.41381e-14,-8.97879e-01,7.78724e-14,-8.97879e-01,5.32764e-14,-8.97879e-01
8.25627e+02,1.41100e+03,1.50400e+03,-9.30000e+01,1.09503e-14,-8.90333e-01,1.44152e-13,-8.90333e-01,1.35091e-13,-8.90333e-01
8.25876e+02,1.36100e+03,1.36100e+03,0.00000e+00,6.47310e-14,-8.82788e-01,5.31830e-14,-8.82788e-01,5.54321e-14,-8.82788e-01
8.26125e+02,1.26100e+03,1.29000e+03,-2.90000e+01,5.88559e-14,-8.75243e-01,7.27351e-14,-8.75243e-01,8.67534e-14,-8.75243e-01
8.26373e+02,1.25300e+03,1.32100e+03,-6.80000e+01,2.24857e-14,-8.67698e-01,1.42761e-13,-8.67698e-01,1.56676e-13,-8.67698e-01
8.26622e+02,1.17100e+03,1.32600e+03,-1.55000e+02,1.21419e-13,-8.60153e-01,1.77623e-13,-8.60153e-01,9.43092e-14,-8.60153e-01
8.26870e+02,1.12300e+03,1.21200e+03,-8.90000e+01,9.38044e-14,-8.52607e-01,1.13482e-13,-8.52607e-01,8.26661e-14,-8.52607e-01
8.27119e+02,1.12900e+03,1.17900e+03,-5.00000e+01,1.14443e-13,-8.45062e-01,1.01122e-13,-8.45062e-01,3.94625e-14,-8.45062e-01
8.27368e+02,1.14300e+03,1.10400e+03,3.90000e+01,7.86438e-14,-8.37517e-01,3.12501e-14,-8.37517e-01,6.07282e-14,-8.37517e-01
8.27616e+02,1.14000e+03,1.09500e+03,4.50000e+01,7.16800e-14,-8.29972e-01,5.34466e-14,-8.29972e-01,4.67624e-14,-8.29972e-01
8.27865e+02,1.13900e+03,1.15300e+03,-1.40000e+01,9.30154e-14,-8.22427e-01,1.06496e-13,-8.22427e-01,2.20313e-14,-8.22427e-01
8.28113e+02,1.05400e+03,1.19800e+03,-1.44000e+02,1.27794e-13,-8.14881e-01,5.08749e-14,-8.14881e-01,7.69581e-14,-8.14881e-01
8.28362e+02,1.04700e+03,1.13400e+03,-8.70000e+01,9.63284e-14,-8.07336e-01,9.02751e-14,-8.07336e-01,7.49576e-14,-8.07336e-01
8.28610e+02,1.09800e+03,1.07400e+03,2.40000e+01,8.17678e-14,-7.99791e-01,8.91917e-14,-7.99791e-01,3.25283e-14,-7.99791e-01
8.28859e+02,1.05600e+03,1.04300e+03,1.30000e+01,6.32345e-14,-7.92246e-01,1.09255e-13,-7.92246e-01,4.73825e-14,-7.92246e-01
8.29108e+02,1.06500e+03,1.04200e+03,2.30000e+01,2.31084e-14,-7.84701e-01,1.04773e-13,-7.84701e-01,1.05165e-13,-7.84701e-01
8.29356e+02,1.01700e+03,1.03100e+03,-1.40000e+01,3.32818e-14,-7.77155e-01,1.09065e-13,-7.77155e-01,1.07162e-13,-7.77155e-01
8.29605e+02,9.62000e+02,9.88000e+02,-2.60000e+01,4.59894e-14,-7.69610e-01,9.44975e-14,-7.69610e-01,1.34112e-13,-7.69610e-01
8.29853e+02,9.25000e+02,9.74000e+02,-4.90000e+01,6.87937e-14,-7.62065e-01,5.42583e-14,-7.62065e-01,1.09620e-13,-7.62065e-01
8.30101e+02,9.34000e+02,9.33000e+02,1.00000e+00,6.83442e-14,-7.54520e-01,8.48374e-14,-7.54520e-01,3.26193e-14,-7.54520e-01
8.30350e+02,9.29000e+02,8.81000e+02,4.80000e+01,8.66178e-14,-7.46975e-01,9.00295e-14,-7.46975e-01,6.34199e-15,-7.46975e-01
8.30598e+02,9.26000e+02,8.79000e+02,4.70000e+01,5.49115e-14,-7.39429e-01,1.00533e-13,-7.39429e-01,5.54366e-14,-7.39429e-01
8.30847e+02,8.93000e+02,9.23000e+02,-3.00000e+01,3.15132e-14,-7.31884e-01,1.08939e-13,-7.31884e-01,1.18749e-13,-7.31884e-01
8.31095e+02,8.57000e+02,9.13000e+02,-5.60000e+01,1.05856e-13,-7.24339e-01,1.75710e-13,-7.24339e-01,1.19713e-13,-7.24339e-01
8.31344e+02,8.44000e+02,8.69000e+02,-2.50000e+01,1.01653e-13,-7.16794e-01,1.24324e-13,-7.16794e-01,2.43237e-14,-7.16794e-01
8.31592e+02,8.32000e+02,8.31000e+02,1.00000e+00,6.04178e-14,-7.09249e-01,3.64185e-14,-7.09249e-01,2.76237e-14,-7.09249e-01
8.31841e+02,8.12000e+02,8.17000e+02,-5.00000e+00,5.94005e-14,-7.01703e-01,1.42429e-13,-7.01703e-01,1.76231e-13,-7.01703e-01
8.32089e+02,8.22000e+02,7.98000e+02,2.40000e+01,6.65929e-14,-6.94158e-01,2.77931e-13,-6.94158e-01,2.15624e-13,-6.94158e-01
8.32337e+02,7.94000e+02,8.03000e+02,-9.00000e+00,1.68655e-13,-6.86613e-01,9.91373e-14,-6.86613e-01,7.90967e-14,-6.86613e-01
8.32586e+02,7.83000e+02,7.94000e+02,-1.10000e+01,1.95271e-13,-6.79068e-01,1.38636e-13,-6.79068e-01,1.28316e-13,-6.79068e-01
8.32834e+02,7.99000e+02,7.93000e+02,6.00000e+00,6.69108e-14,-6.71523e-01,9.82417e-14,-6.71523e-01,1.49533e-13,-6.71523e-01
8.33083e+02,7.68000e+02,7.74000e+02,-6.00000e+00,8.07648e-14,-6.63977e-01,1.68773e-13,-6.63977e-01,9.78107e-14,-6.63977e-01
8.33331e+02,7.61000e+02,7.41000e+02,2.00000e+01,1.98074e-13,-6.56432e-01,1.72716e-13,-6.56432e-01,4.24886e-14,-6.56432e-01
8.33579e+02,7.48000e+02,7.57000e+02,-9.00000e+00,1.96695e-13,-6.48887e-01,4.58156e-14,-6.48887e-01,1.57970e-13,-6.48887e-01
8.33828e+02,7.27000e+02,7.30000e+02,-3.00000e+00,1.99256e-13,-6.41342e-01,1.00256e-13,-6.41342e-01,1.69034e-13,-6.41342e-01
8.34076e+02,7.34000e+02,7.39000e+02,-5.00000e+00,8.70007e-14,-6.33797e-01,8.56060e-14,-6.33797e-01,7.54086e-14,-6.33797e-01
8.34324e+02,7.26000e+02,7.33000e+02,-7.00000e+00,8.72178e-14,-6.26251e-01,1.46806e-13,-6.26251e-01,1.76392e-13,-6.26251e-01
8.34573e+02,7.20000e+02,7.11000e+02,9.00000e+00,1.29363e-13,-6.18706e-01,2.55629e-13,-6.18706e-01,2.54882e-13,-6.18706e-01
8.34821e+02,7.07000e+02,7.18000e+02,-1.10000e+01,1.71855e-13,-6.11161e-01,3.85718e-13,-6.11161e-01,2.98898e-13,-6.11161e-01
8.35069e+02,7.06000e+02,7.06000e+02,0.00000e+00,3.18261e-14,-6.03616e-01,2.73023e-13,-6.03616e-01,2.41510e-13,-6.03616e-01
8.35318e+02,7.06000e+02,7.16000e+02,-1.00000e+01,1.42248e-13,-5.96071e-01,3.18626e-13,-5.96071e-01,2.37751e-13,-5.96071e-01
8.35566e+02,7.04000e+02,6.99000e+02,5.00000e+00,2.78808e-14,-5.88525e-01,1.41071e-13,-5.88525e-01,1.64305e-13,-5.88525e-01
8.35814e+02,6.83000e+02,6.92000e+02,-9.00000e+00,1.19550e-13,-5.80980e-01,7.10362e-14,-5.80980e-01,1.66609e-13,-5.80980e-01
8.36062e+02,6.96000e+02,6.96000e+02,0.00000e+00,1.32196e-13,-5.73435e-01,1.46260e-13,-5.73435e-01,1.26936e-13,-5.73435e-01
8.36311e+02,6.96000e+02,6.82000e+02,1.40000e+01,2.08760e-13,-5.65890e-01,2.00620e-13,-5.65890e-01,1.04649e-13,-5.65890e-01
8.36559e+02,6.70000e+02,6.80000e+02,-1.00000e+01,1.50523e-13,-5.58345e-01,1.15989e-13,-5.58345e-01,1.42464e-13,-5.58345e-01
8.36807e+02,6.80000e+02,6.88000e+02,-8.00000e+00,2.43494e-13,-5.50799e-01,9.93502e-14,-5.50799e-01,1.51566e-13,-5.50799e-01
8.37055e+02,6.86000e+02,6.95000e+02,-9.00000e+00,7.79212e-14,-5.43254e-01,1.12011e-13,-5.43254e-01,1.89774e-13,-5.43254e-01
8.37304e+02,6.76000e+02,6.88000e+02,-1.20000e+01,6.38800e-14,-5.35709e-01,2.21644e-13,-5.35709e-01,2.41309e-13,-5.35709e-01
8.37552e+02,6.83000e+02,6.80000e+02,3.00000e+00,1.29380e-13,-5.28164e-01,2.51286e-13,-5.28164e-01,1.37210e-13,-5.28164e-01
8.37800e+02,6.73000e+02,6.85000e+02,-1.20000e+01,6.56293e-14,-5.20619e-01,2.05163e-13,-5.20619e-01,1.80008e-13,-5.20619e-01
8.38048e+02,6.76000e+02,6.92000e+02,-1.60000e+01,1.40182e-13,-5.13073e-01,2.12414e-13,-5.13073e-01,2.99612e-13,-5.13073e-01
8.38296e+02,6.69000e+02,6.69000e+02,0.00000e+00,1.00111e-13,-5.05528e-01,3.29732e-13,-5.05528e-01,4.25594e-13,-5.05528e-01
8.38545e+02,6.73000e+02,6.86000e+02,-1.30000e+01,1.68108e-13,-4.97983e-01,3.05710e-13,-4.97983e-01,4.34458e-13,-4.97983e-01
8.38793e+02,6.68000e+02,6.77000e+02,-9.00000e+00,1.81364e-13,-4.90438e-01,4.55898e-13,-4.90438e-01,5.83236e-13,-4.90438e-01
8.39041e+02,6.80000e+02,6.76000e+02,4.00000e+00,3.31116e-13,-4.82893e-01,2.80424e-13,-4.82893e-01,4.79530e-13,-4.82893e-01
8.39289e+02,6.74000e+02,6.77000e+02,-3.00000e+00,4.24850e-13,-4.75347e-01,8.37942e-14,-4.75347e-01,4.85894e-13,-4.75347e-01
8.39537e+02,6.71000e+02,6.74000e+02,-3.00000e+00,7.37208e-13,-4.67802e-01,4.15381e-13,-4.67802e-01,1.11475e-12,-4.67802e-01
8.39785e+02,6.67000e+02,6.63000e+02,4.00000e+00,7.98924e-13,-4.60257e-01,7.99282e-13,-4.60257e-01,1.51466e-12,-4.60257e-01
8.40033e+02,6.84000e+02,6.68000e+02,1.60000e+01,5.73923e-13,-4.52712e-01,6.97153e-13,-4.52712e-01,1.20798e-12,-4.52712e-01
8.40281e+02,6.70000e+02,6.69000e+02,1.00000e+00,2.42801e-13,-4.45167e-01,3.48435e-13,-4.45167e-01,5.54347e-13,-4.45167e-01
8.40530e+02,6.70000e+02,6.61000e+02,9.00000e+00,2.04208e-13,-4.37621e-01,1.01246e-13,-4.37621e-01,2.96455e-13,-4.37621e-01
8.40778e+02,6.74000e+02,6.74000e+02,0.00000e+00,1.77268e-13,-4.30076e-01,2.33580e-13,-4.30076e-01,4.02736e-13,-4.30076e-01
8.41026e+02,6.76000e+02,6.72000e+02,4.00000e+00,3.50061e-13,-4.22531e-01,1.72416e-13,-4.22531e-01,4.87303e-13,-4.22531e-01
8.41274e+02,6.68000e+02,6.93000e+02,-2.50000e+01,2.94392e-13,-4.14986e-01,5.01203e-14,-4.14986e-01,3.27619e-13,-4.14986e-01
8.41522e+02,6.74000e+02,6.73000e+02,1.00000e+00,3.75678e-14,-4.07441e-01,9.18156e-14,-4.07441e-01,7.42746e-14,-4.07441e-01
8.41770e+02,6.63000e+02,6.50000e+02,1.30000e+01,6.77054e-14,-3.99895e-01,1.61549e-13,-3.99895e-01,1.14238e-13,-3.99895e-01
8.42018e+02,6.77000e+02,6.65000e+02,1.20000e+01,5.25222e-14,-3.92350e-01,1.28607e-13,-3.92350e-01,1.60040e-13,-3.92350e-01
8.42266e+02,6.58000e+02,6.63000e+02,-5.00000e+00,4.93021e-14,-3.84805e-01,3.99224e-14,-3.84805e-01,7.90052e-14,-3.84805e-01
8.42514e+02,6.71000e+02,6.71000e+02,0.00000e+00,9.54950e-14,-3.77260e-01,2.11045e-13,-3.77260e-01,1.27792e-13,-3.77260e-01
8.42762e+02,6.62000e+02,6.64000e+02,-2.00000e+00,7.22742e-14,-3.69715e-01,8.04737e-14,-3.69715e-01,7.44749e-14,-3.69715e-01
8.43010e+02,6.66000e+02,6.74000e+02,-8.00000e+00,1.95857e-13,-3.62169e-01,1.79536e-13,-3.62169e-01,1.64317e-14,-3.62169e-01
8.43258e+02,6.71000e+02,6.84000e+02,-1.30000e+01,1.95682e-13,-3.54624e-01,3.00739e-14,-3.54624e-01,1.79936e-13,-3.54624e-01
8.43506e+02,6.62000e+02,6.71000e+02,-9.00000e+00,2.68503e-13,-3.47079e-01,1.48337e-13,-3.47079e-01,2.28838e-13,-3.47079e-01
8.43754e+02,6.65000e+02,6.72000e+02,-7.00000e+00,2.37450e-13,-3.39534e-01,8.00984e-14,-3.39534e-01,2.53393e-13,-3.39534e-01
8.44002e+02,6.72000e+02,6.73000e+02,-1.00000e+00,2.25740e-13,-3.31989e-01,1.26309e-13,-3.31989e-01,9.94317e-14,-3.31989e-01
8.44250e+02,6.64000e+02,6.66000e+02,-2.00000e+00,1.95320e-13,-3.24444e-01,2.54748e-13,-3.24444e-01,7.86488e-14,-3.24444e-01
8.44498e+02,6.47000e+02,6.66000e+02,-1.90000e+01,1.20430e-13,-3.16898e-01,3.98753e-13,-3.16898e-01,2.81613e-13,-3.16898e-01
8.44746e+02,6.76000e+02,6.63000e+02,1.30000e+01,1.96918e-13,-3.09353e-01,4.05929e-13,-3.09353e-01,2.66859e-13,-3.09353e-01
8.44994e+02,6.78000e+02,6.71000e+02,7.00000e+00,2.42622e-14,-3.01808e-01,2.29823e-13,-3.01808e-01,2.18763e-13,-3.01808e-01
8.45242e+02,6.60000e+02,6.67000e+02,-7.00000e+00,7.16198e-14,-2.94263e-01,3.49604e-13,-2.94263e-01,3.00358e-13,-2.94263e-01
8.45490e+02,6.75000e+02,6.66000e+02,9.00000e+00,2.36890e-13,-2.86718e-01,3.96774e-14,-2.86718e-01,2.55124e-13,-2.86718e-01
8.45738e+02,6.66000e+02,6.46000e+02,2.00000e+01,1.84868e-13,-2.79172e-01,1.48689e-13,-2.79172e-01,1.84826e-13,-2.79172e-01
8.45985e+02,6.57000e+02,6.52000e+02,5.00000e+00,3.41334e-13,-2.71627e-01,4.13359e-13,-2.71627e-01,1.63309e-13,-2.71627e-01
8.46233e+02,6.62000e+02,6.55000e+02,7.00000e+00,1.77378e-13,-2.64082e-01,4.56135e-13,-2.64082e-01,3.35135e-13,-2.64082e-01
8.46481e+02,6.74000e+02,6.57000e+02,1.70000e+01,1.85463e-13,-2.56537e-01,5.31765e-13,-2.56537e-01,3.53425e-13,-2.56537e-01
8.46729e+02,6.77000e+02,6.57000e+02,2.00000e+01,2.43454e-13,-2.48992e-01,2.40234e-13,-2.48992e-01,2.56221e-13,-2.48992e-01
8.46977e+02,6.71000e+02,6.67000e+02,4.00000e+00,1.32650e-13,-2.41446e-01,2.93606e-13,-2.41446e-01,2.12395e-13,-2.41446e-01
8.47225e+02,6.69000e+02,6.60000e+02,9.00000e+00,2.99697e-13,-2.33901e-01,5.11834e-13,-2.33901e-01,2.35659e-13,-2.33901e-01
8.47473e+02,6.46000e+02,6.52000e+02,-6.00000e+00,1.27624e-13,-2.26356e-01,4.06656e-13,-2.26356e-01,2.85799e-13,-2.26356e-01
8.47720e+02,6.55000e+02,6.59000e+02,-4.00000e+00,1.47297e-13,-2.18811e-01,3.48890e-13,-2.18811e-01,2.26636e-13,-2.18811e-01
8.47968e+02,6.65000e+02,6.49000e+02,1.60000e+01,4.25946e-14,-2.11266e-01,1.07289e-13,-2.11266e-01,6.55397e-14,-2.11266e-01
8.48216e+02,6.68000e+02,6.64000e+02,4.00000e+00,2.10915e-13,-2.03720e-01,3.28081e-13,-2.03720e-01,1.17618e-13,-2.03720e-01
8.48464e+02,6.73000e+02,6.57000e+02,1.60000e+01,2.92941e-13,-1.96175e-01,2.84065e-13,-1.96175e-01,1.82985e-13,-1.96175e-01
8.48712e+02,6.41000e+02,6.51000e+02,-1.00000e+01,3.87853e-13,-1.88630e-01,2.32589e-13,-1.88630e-01,2.59028e-13,-1.88630e-01
8.48960e+02,6.62000e+02,6.52000e+02,1.00000e+01,5.50675e-13,-1.81085e-01,3.55990e-13,-1.81085e-01,1.97041e-13,-1.81085e-01
8.49207e+02,6.62000e+02,6.65000e+02,-3.00000e+00,2.06616e-13,-1.73540e-01,6.11422e-14,-1.73540e-01,1.66191e-13,-1.73540e-01
8.49455e+02,6.65000e+02,6.63000e+02,2.00000e+00,2.37403e-13,-1.65994e-01,2.08175e-13,-1.65994e-01,3.30278e-14,-1.65994e-01
8.49703e+02,6.68000e+02,6.60000e+02,8.00000e+00,3.48772e-13,-1.58449e-01,1.46049e-13,-1.58449e-01,2.08853e-13,-1.58449e-01
8.49951e+02,6.60000e+02,6.67000e+02,-7.00000e+00,1.77159e-13,-1.50904e-01,3.23863e-13,-1.50904e-01,2.35842e-13,-1.50904e-01
8.50198e+02,6.73000e+02,6.77000e+02,-4.00000e+00,1.66737e-13,-1.43359e-01,3.31915e-13,-1.43359e-01,3.16266e-13,-1.43359e-01
8.50446e+02,6.61000e+02,6.61000e+02,0.00000e+00,4.85334e-13,-1.35814e-01,7.59638e-13,-1.35814e-01,2.90632e-13,-1.35814e-01
8.50694e+02,6.57000e+02,6.71000e+02,-1.40000e+01,2.09569e-13,-1.28268e-01,3.47504e-13,-1.28268e-01,2.82650e-13,-1.28268e-01
8.50941e+02,6.81000e+02,6.84000e+02,-3.00000e+00,2.74764e-13,-1.20723e-01,2.92242e-13,-1.20723e-01,2.54553e-13,-1.20723e-01
8.51189e+02,6.66000e+02,6.53000e+02,1.30000e+01,5.25482e-13,-1.13178e-01,3.44504e-13,-1.13178e-01,1.80994e-13,-1.13178e-01
8.51437e+02,6.43000e+02,6.57000e+02,-1.40000e+01,3.96985e-13,-1.05633e-01,5.09112e-13,-1.05633e-01,1.52371e-13,-1.05633e-01
8.51685e+02,6.62000e+02,6.52000e+02,1.00000e+01,6.57856e-13,-9.80876e-02,8.18900e-13,-9.80876e-02,2.25625e-13,-9.80876e-02
8.51932e+02,6.75000e+02,6.72000e+02,3.00000e+00,5.63093e-13,-9.05424e-02,6.47783e-13,-9.05424e-02,8.61534e-14,-9.05424e-02
8.52180e+02,6.65000e+02,6.74000e+02,-9.00000e+00,3.26671e-13,-8.29972e-02,3.03271e-13,-8.29972e-02,1.43840e-13,-8.29972e-02
8.52428e+02,6.74000e+02,6.68000e+02,6.00000e+00,2.99337e-13,-7.54520e-02,5.24973e-13,-7.54520e-02,3.70409e-13,-7.54520e-02
8.52675e+02,6.75000e+02,6.62000e+02,1.30000e+01,4.45217e-13,-6.79068e-02,5.98050e-13,-6.79068e-02,4.22658e-13,-6.79068e-02
8.52923e+02,6.66000e+02,6.65000e+02,1.00000e+00,4.62642e-14,-6.03616e-02,4.68095e-13,-6.03616e-02,4.26327e-13,-6.03616e-02
8.53170e+02,6.62000e+02,6.66000e+02,-4.00000e+00,1.33699e-13,-5.28164e-02,1.94165e-13,-5.28164e-02,6.56185e-14,-5.28164e-02
8.53418e+02,6.78000e+02,6.62000e+02,1.60000e+01,1.91123e-12,-4.52712e-02,2.14054e-12,-4.52712e-02,2.91397e-13,-4.52712e-02
8.53666e+02,6.72000e+02,6.78000e+02,-6.00000e+00,1.97988e-12,-3.77260e-02,2.37538e-12,-3.77260e-02,4.65679e-13,-3.77260e-02
8.53913e+02,6.75000e+02,6.71000e+02,4.00000e+00,3.52910e-12,-3.01808e-02,3.70189e-12,-3.01808e-02,2.74818e-13,-3.01808e-02
8.54161e+02,6.69000e+02,6.63000e+02,6.00000e+00,2.70390e-12,-2.26356e-02,2.70218e-12,-2.26356e-02,1.13065e-13,-2.26356e-02
8.54409e+02,6.56000e+02,6.55000e+02,1.00000e+00,8.09104e-12,-1.50904e-02,8.36215e-12,-1.50904e-02,3.09170e-13,-1.50904e-02
8.54656e+02,6.73000e+02,6.55000e+02,1.80000e+01,1.75016e-11,-7.54520e-03,1.81789e-11,-7.54520e-03,6.83948e-13,-7.54520e-03
