7.67698e+02,6.77000e+02,6.77000e+02,0.00000e+00,2.12729e-10,0.00000e+00,2.11601e-10,0.00000e+00,1.12854e-12,0.00000e+00
7.67949e+02,6.70000e+02,6.75000e+02,-5.00000e+00,1.00965e-10,7.54520e-03,9.94468e-11,7.54520e-03,3.51222e-12,7.54520e-03
7.68199e+02,6.84000e+02,6.77000e+02,7.00000e+00,3.76932e-11,1.50904e-02,3.73624e-11,1.50904e-02,4.25431e-12,1.50904e-02
7.68450e+02,6.88000e+02,6.85000e+02,3.00000e+00,1.11950e-11,2.26356e-02,1.24135e-11,2.26356e-02,2.55580e-12,2.26356e-02
7.68701e+02,6.88000e+02,6.84000e+02,4.00000e+00,1.43731e-12,3.01808e-02,3.06584e-12,3.01808e-02,1.93704e-12,3.01808e-02
7.68951e+02,6.82000e+02,6.81000e+02,1.00000e+00,2.09774e-12,3.77260e-02,9.97462e-13,3.77260e-02,1.84742e-12,3.77260e-02
7.69202e+02,6.93000e+02,6.89000e+02,4.00000e+00,2.67756e-12,4.52712e-02,1.55760e-12,4.52712e-02,1.19555e-12,4.52712e-02
7.69453e+02,6.80000e+02,6.96000e+02,-1.60000e+01,2.63663e-12,5.28164e-02,1.92293e-12,5.28164e-02,7.86304e-13,5.28164e-02
7.69703e+02,6.89000e+02,6.97000e+02,-8.00000e+00,2.76377e-12,6.03616e-02,1.97264e-12,6.03616e-02,8.30785e-13,6.03616e-02
7.69954e+02,6.93000e+02,7.05000e+02,-1.20000e+01,2.88311e-12,6.79068e-02,3.03819e-12,6.79068e-02,1.65627e-13,6.79068e-02
7.70205e+02,7.09000e+02,6.99000e+02,1.00000e+01,1.61721e-12,7.54520e-02,2.56312e-12,7.54520e-02,9.47248e-13,7.54520e-02
7.70455e+02,6.97000e+02,7.09000e+02,-1.20000e+01,1.39666e-12,8.29972e-02,2.66384e-12,8.29972e-02,1.39634e-12,8.29972e-02
7.70706e+02,7.16000e+02,6.96000e+02,2.00000e+01,1.44470e-12,9.05424e-02,2.03820e-12,9.05424e-02,1.56096e-12,9.05424e-02
7.70957e+02,7.01000e+02,7.10000e+02,-9.00000e+00,1.35801e-12,9.80876e-02,2.29891e-12,9.80876e-02,1.89646e-12,9.80876e-02
7.71207e+02,7.10000e+02,7.08000e+02,2.00000e+00,1.09383e-12,1.05633e-01,2.65316e-12,1.05633e-01,1.74880e-12,1.05633e-01
7.71458e+02,6.98000e+02,7.37000e+02,-3.90000e+01,3.01402e-12,1.13178e-01,3.57131e-12,1.13178e-01,6.22651e-13,1.13178e-01
7.71708e+02,6.86000e+02,7.25000e+02,-3.90000e+01,3.20961e-12,1.20723e-01,2.70071e-12,1.20723e-01,6.05994e-13,1.20723e-01
7.71959e+02,7.14000e+02,7.17000e+02,-3.00000e+00,1.92359e-12,1.28268e-01,1.44235e-12,1.28268e-01,8.40442e-13,1.28268e-01
7.72210e+02,7.41000e+02,7.22000e+02,1.90000e+01,4.36788e-13,1.35814e-01,9.13152e-13,1.35814e-01,5.23149e-13,1.35814e-01
7.72460e+02,7.17000e+02,7.38000e+02,-2.10000e+01,4.58913e-13,1.43359e-01,1.52227e-12,1.43359e-01,1.14439e-12,1.43359e-01
7.72711e+02,7.18000e+02,7.38000e+02,-2.00000e+01,5.67404e-13,1.50904e-01,6.44776e-13,1.50904e-01,7.26255e-13,1.50904e-01
7.72961e+02,7.27000e+02,7.45000e+02,-1.80000e+01,8.31041e-13,1.58449e-01,8.58575e-13,1.58449e-01,1.38571e-12,1.58449e-01
7.73212e+02,7.24000e+02,7.45000e+02,-2.10000e+01,1.36011e-12,1.65994e-01,4.39558e-13,1.65994e-01,1.79718e-12,1.65994e-01
7.73462e+02,7.45000e+02,7.50000e+02,-5.00000e+00,1.96364e-12,1.73540e-01,1.25122e-12,1.73540e-01,1.10529e-12,1.73540e-01
7.73713e+02,7.34000e+02,7.66000e+02,-3.20000e+01,1.63743e-12,1.81085e-01,2.00464e-12,1.81085e-01,5.95622e-13,1.81085e-01
7.73963e+02,7.14000e+02,7.54000e+02,-4.00000e+01,1.63634e-12,1.88630e-01,2.93946e-12,1.88630e-01,1.84614e-12,1.88630e-01
7.74214e+02,7.45000e+02,7.68000e+02,-2.30000e+01,1.76518e-12,1.96175e-01,3.00726e-12,1.96175e-01,2.01359e-12,1.96175e-01
7.74465e+02,7.63000e+02,7.53000e+02,1.00000e+01,1.61092e-12,2.03720e-01,1.66521e-12,2.03720e-01,1.01502e-12,2.03720e-01
7.74715e+02,7.78000e+02,7.45000e+02,3.30000e+01,1.54911e-12,2.11266e-01,1.29483e-12,2.11266e-01,9.93262e-13,2.11266e-01
7.74965e+02,7.69000e+02,7.74000e+02,-5.00000e+00,2.29487e-12,2.18811e-01,2.62202e-12,2.18811e-01,1.61823e-12,2.18811e-01
7.75216e+02,7.53000e+02,8.09000e+02,-5.60000e+01,2.10278e-12,2.26356e-01,2.86457e-12,2.26356e-01,1.46277e-12,2.26356e-01
7.75466e+02,7.55000e+02,8.00000e+02,-4.50000e+01,9.13311e-13,2.33901e-01,1.53527e-12,2.33901e-01,8.25204e-13,2.33901e-01
7.75717e+02,7.89000e+02,7.95000e+02,-6.00000e+00,1.32378e-12,2.41446e-01,2.15528e-12,2.41446e-01,1.08075e-12,2.41446e-01
7.75967e+02,7.79000e+02,7.99000e+02,-2.00000e+01,2.16686e-12,2.48992e-01,3.08177e-12,2.48992e-01,9.16842e-13,2.48992e-01
7.76218e+02,7.92000e+02,8.02000e+02,-1.00000e+01,1.65092e-12,2.56537e-01,1.80159e-12,2.56537e-01,7.36569e-13,2.56537e-01
7.76468e+02,7.97000e+02,8.02000e+02,-5.00000e+00,1.09856e-12,2.64082e-01,3.48531e-13,2.64082e-01,1.18180e-12,2.64082e-01
7.76719e+02,7.98000e+02,7.99000e+02,-1.00000e+00,1.12797e-12,2.71627e-01,8.42072e-13,2.71627e-01,1.91965e-12,2.71627e-01
7.76969e+02,7.71000e+02,8.02000e+02,-3.10000e+01,1.61257e-12,2.79172e-01,9.37613e-13,2.79172e-01,2.32289e-12,2.79172e-01
7.77219e+02,8.25000e+02,7.94000e+02,3.10000e+01,1.57548e-12,2.86718e-01,2.03796e-12,2.86718e-01,2.16531e-12,2.86718e-01
7.77470e+02,8.56000e+02,7.99000e+02,5.70000e+01,1.55316e-12,2.94263e-01,2.68599e-12,2.94263e-01,2.15024e-12,2.94263e-01
7.77720e+02,8.43000e+02,8.40000e+02,3.00000e+00,1.42927e-12,3.01808e-01,1.54232e-12,3.01808e-01,1.39033e-12,3.01808e-01
7.77971e+02,8.18000e+02,8.68000e+02,-5.00000e+01,1.49336e-12,3.09353e-01,1.23390e-12,3.09353e-01,4.80035e-13,3.09353e-01
7.78221e+02,8.20000e+02,8.88000e+02,-6.80000e+01,2.18220e-12,3.16898e-01,1.56137e-12,3.16898e-01,6.23173e-13,3.16898e-01
7.78471e+02,8.66000e+02,8.29000e+02,3.70000e+01,3.20976e-12,3.24444e-01,1.72013e-12,3.24444e-01,1.54304e-12,3.24444e-01
7.78722e+02,8.72000e+02,8.24000e+02,4.80000e+01,3.32279e-12,3.31989e-01,1.13181e-12,3.31989e-01,2.20463e-12,3.31989e-01
7.78972e+02,8.78000e+02,8.57000e+02,2.10000e+01,2.48112e-12,3.39534e-01,5.87944e-13,3.39534e-01,1.95026e-12,3.39534e-01
7.79222e+02,8.66000e+02,9.22000e+02,-5.60000e+01,1.64636e-12,3.47079e-01,8.53846e-13,3.47079e-01,2.13570e-12,3.47079e-01
7.79473e+02,8.43000e+02,9.22000e+02,-7.90000e+01,1.71369e-12,3.54624e-01,9.05493e-13,3.54624e-01,2.36590e-12,3.54624e-01
7.79723e+02,8.68000e+02,9.04000e+02,-3.60000e+01,1.54718e-12,3.62169e-01,1.66020e-13,3.62169e-01,1.70727e-12,3.62169e-01
7.79973e+02,8.85000e+02,8.78000e+02,7.00000e+00,1.21646e-12,3.69715e-01,6.65100e-13,3.69715e-01,1.36311e-12,3.69715e-01
7.80224e+02,9.21000e+02,8.90000e+02,3.10000e+01,1.21086e-12,3.77260e-01,6.35926e-13,3.77260e-01,1.83381e-12,3.77260e-01
7.80474e+02,8.55000e+02,9.38000e+02,-8.30000e+01,1.39548e-12,3.84805e-01,4.26660e-13,3.84805e-01,1.80553e-12,3.84805e-01
7.80724e+02,8.44000e+02,9.21000e+02,-7.70000e+01,1.23865e-12,3.92350e-01,1.69020e-13,3.92350e-01,1.40300e-12,3.92350e-01
7.80974e+02,8.77000e+02,9.29000e+02,-5.20000e+01,1.63760e-12,3.99895e-01,4.42332e-13,3.99895e-01,1.88445e-12,3.99895e-01
7.81225e+02,9.22000e+02,8.95000e+02,2.70000e+01,1.96290e-12,4.07441e-01,1.09681e-12,4.07441e-01,2.02695e-12,4.07441e-01
7.81475e+02,9.47000e+02,8.90000e+02,5.70000e+01,1.87229e-12,4.14986e-01,7.18146e-13,4.14986e-01,1.62507e-12,4.14986e-01
7.81725e+02,9.52000e+02,9.56000e+02,-4.00000e+00,9.44191e-13,4.22531e-01,4.55103e-13,4.22531e-01,1.00325e-12,4.22531e-01
7.81975e+02,8.78000e+02,9.79000e+02,-1.01000e+02,1.52935e-12,4.30076e-01,1.46168e-12,4.30076e-01,2.96945e-12,4.30076e-01
7.82226e+02,8.84000e+02,9.68000e+02,-8.40000e+01,3.05319e-12,4.37621e-01,3.19772e-12,4.37621e-01,6.21908e-12,4.37621e-01
7.82476e+02,9.40000e+02,9.53000e+02,-1.30000e+01,6.67325e-12,4.45167e-01,6.68188e-12,4.45167e-01,1.32482e-11,4.45167e-01
7.82726e+02,1.00900e+03,9.26000e+02,8.30000e+01,9.29619e-12,4.52712e-01,8.65504e-12,4.52712e-01,1.78315e-11,4.52712e-01
7.82976e+02,9.62000e+02,9.61000e+02,1.00000e+00,1.06598e-11,4.60257e-01,9.12114e-12,4.60257e-01,1.97586e-11,4.60257e-01
7.83226e+02,9.30000e+02,1.07900e+03,-1.49000e+02,1.10770e-11,4.67802e-01,8.97522e-12,4.67802e-01,2.00522e-11,4.67802e-01
7.83477e+02,9.24000e+02,1.08100e+03,-1.57000e+02,9.03227e-12,4.75347e-01,6.72255e-12,4.75347e-01,1.57482e-11,4.75347e-01
7.83727e+02,1.01400e+03,9.87000e+02,2.70000e+01,4.65762e-12,4.82893e-01,3.96695e-12,4.82893e-01,8.55577e-12,4.82893e-01
7.83977e+02,1.12900e+03,9.49000e+02,1.80000e+02,1.75258e-12,4.90438e-01,2.04664e-12,4.90438e-01,3.78613e-12,4.90438e-01
7.84227e+02,1.14700e+03,1.04700e+03,1.00000e+02,1.55235e-12,4.97983e-01,6.70946e-13,4.97983e-01,2.05275e-12,4.97983e-01
7.84477e+02,1.05200e+03,1.16300e+03,-1.11000e+02,8.62241e-13,5.05528e-01,1.26659e-13,5.05528e-01,8.67008e-13,5.05528e-01
7.84727e+02,9.83000e+02,1.22600e+03,-2.43000e+02,2.22127e-13,5.13073e-01,7.10686e-13,5.13073e-01,5.63226e-13,5.13073e-01
7.84978e+02,1.04900e+03,1.20200e+03,-1.53000e+02,5.16247e-13,5.20619e-01,1.45704e-12,5.20619e-01,1.89842e-12,5.20619e-01
7.85228e+02,1.17300e+03,1.13200e+03,4.10000e+01,5.19266e-13,5.28164e-01,1.75761e-12,5.28164e-01,1.96436e-12,5.28164e-01
7.85478e+02,1.24100e+03,1.06200e+03,1.79000e+02,7.44313e-13,5.35709e-01,1.34910e-12,5.35709e-01,1.71414e-12,5.35709e-01
7.85728e+02,1.17800e+03,1.08800e+03,9.00000e+01,6.97596e-13,5.43254e-01,1.12884e-12,5.43254e-01,1.81701e-12,5.43254e-01
7.85978e+02,1.06600e+03,1.14100e+03,-7.50000e+01,6.81239e-13,5.50799e-01,1.22576e-12,5.50799e-01,1.45802e-12,5.50799e-01
7.86228e+02,1.02700e+03,1.22100e+03,-1.94000e+02,3.75488e-13,5.58345e-01,1.31353e-12,5.58345e-01,1.22333e-12,5.58345e-01
7.86478e+02,1.09200e+03,1.17400e+03,-8.20000e+01,1.36578e-12,5.65890e-01,1.08797e-12,5.65890e-01,2.31232e-12,5.65890e-01
7.86728e+02,1.21800e+03,1.06900e+03,1.49000e+02,1.92917e-12,5.73435e-01,7.66436e-13,5.73435e-01,2.68961e-12,5.73435e-01
7.86978e+02,1.24600e+03,1.05000e+03,1.96000e+02,1.10690e-12,5.80980e-01,3.24002e-13,5.80980e-01,1.40673e-12,5.80980e-01
7.87228e+02,1.14700e+03,1.19000e+03,-4.30000e+01,1.26219e-13,5.88525e-01,4.24754e-13,5.88525e-01,5.33925e-13,5.88525e-01
7.87478e+02,1.07600e+03,1.31800e+03,-2.42000e+02,7.19845e-13,5.96071e-01,5.41225e-13,5.96071e-01,1.15127e-12,5.96071e-01
7.87728e+02,1.17600e+03,1.33800e+03,-1.62000e+02,3.93506e-13,6.03616e-01,7.30176e-13,6.03616e-01,9.44419e-13,6.03616e-01
7.87978e+02,1.37200e+03,1.20200e+03,1.70000e+02,3.87042e-13,6.11161e-01,8.21265e-13,6.11161e-01,1.09887e-12,6.11161e-01
7.88228e+02,1.56300e+03,1.17300e+03,3.90000e+02,6.33156e-13,6.18706e-01,5.04456e-13,6.18706e-01,4.09811e-13,6.18706e-01
7.88478e+02,1.55500e+03,1.34900e+03,2.06000e+02,4.99663e-13,6.26251e-01,5.71821e-13,6.26251e-01,7.22773e-14,6.26251e-01
7.88728e+02,1.34700e+03,1.55200e+03,-2.05000e+02,4.54708e-13,6.33797e-01,5.16589e-13,6.33797e-01,2.97337e-13,6.33797e-01
7.88978e+02,1.29500e+03,1.64700e+03,-3.52000e+02,2.72915e-13,6.41342e-01,5.65977e-13,6.41342e-01,6.63060e-13,6.41342e-01
7.89228e+02,1.37000e+03,1.48100e+03,-1.11000e+02,3.30349e-13,6.48887e-01,5.06025e-13,6.48887e-01,7.40972e-13,6.48887e-01
7.89478e+02,1.58800e+03,1.31100e+03,2.77000e+02,8.41732e-13,6.56432e-01,9.11297e-13,6.56432e-01,8.30946e-13,6.56432e-01
7.89728e+02,1.68800e+03,1.28400e+03,4.04000e+02,7.99108e-13,6.63977e-01,1.04066e-12,6.63977e-01,9.23116e-13,6.63977e-01
7.89978e+02,1.57800e+03,1.40600e+03,1.72000e+02,3.61451e-13,6.71523e-01,7.91469e-13,6.71523e-01,8.69330e-13,6.71523e-01
7.90228e+02,1.42200e+03,1.61100e+03,-1.89000e+02,1.67631e-13,6.79068e-01,9.60371e-13,6.79068e-01,8.12975e-13,6.79068e-01
7.90478e+02,1.35800e+03,1.56900e+03,-2.11000e+02,4.18408e-13,6.86613e-01,9.67185e-13,6.86613e-01,5.53235e-13,6.86613e-01
7.90728e+02,1.51200e+03,1.49800e+03,1.40000e+01,7.20659e-13,6.94158e-01,1.01722e-12,6.94158e-01,2.97977e-13,6.94158e-01
7.90978e+02,1.88000e+03,1.40100e+03,4.79000e+02,8.64073e-13,7.01703e-01,9.41269e-13,7.01703e-01,5.97976e-13,7.01703e-01
7.91228e+02,1.84100e+03,1.47300e+03,3.68000e+02,5.86120e-13,7.09249e-01,1.13642e-12,7.09249e-01,1.31986e-12,7.09249e-01
7.91478e+02,1.68100e+03,1.67500e+03,6.00000e+00,1.67784e-13,7.16794e-01,1.08131e-12,7.16794e-01,1.22509e-12,7.16794e-01
7.91728e+02,1.50500e+03,1.86000e+03,-3.55000e+02,4.80284e-13,7.24339e-01,5.36512e-13,7.24339e-01,6.98928e-13,7.24339e-01
7.91977e+02,1.60600e+03,1.70800e+03,-1.02000e+02,6.67407e-13,7.31884e-01,2.99384e-13,7.31884e-01,9.63985e-13,7.31884e-01
7.92227e+02,1.84100e+03,1.58300e+03,2.58000e+02,3.23053e-13,7.39429e-01,5.78978e-13,7.39429e-01,8.88058e-13,7.39429e-01
7.92477e+02,2.01500e+03,1.50900e+03,5.06000e+02,1.64140e-13,7.46975e-01,3.70649e-13,7.46975e-01,5.27387e-13,7.46975e-01
7.92727e+02,1.80900e+03,1.64200e+03,1.67000e+02,2.25686e-13,7.54520e-01,2.17216e-13,7.54520e-01,3.60992e-13,7.54520e-01
7.92977e+02,1.65900e+03,2.07900e+03,-4.20000e+02,4.06098e-13,7.62065e-01,2.03808e-13,7.62065e-01,3.69708e-13,7.62065e-01
7.93227e+02,1.67000e+03,2.23300e+03,-5.63000e+02,5.46162e-13,7.69610e-01,1.72364e-13,7.69610e-01,6.83507e-13,7.69610e-01
7.93476e+02,2.21200e+03,2.10500e+03,1.07000e+02,3.60719e-13,7.77155e-01,4.98636e-13,7.77155e-01,6.46665e-13,7.77155e-01
7.93726e+02,2.54100e+03,1.74800e+03,7.93000e+02,6.67645e-13,7.84701e-01,5.85288e-13,7.84701e-01,6.59382e-13,7.84701e-01
7.93976e+02,2.29200e+03,1.87200e+03,4.20000e+02,5.45096e-13,7.92246e-01,4.79604e-13,7.92246e-01,8.16231e-13,7.92246e-01
7.94226e+02,1.93200e+03,2.17100e+03,-2.39000e+02,3.51240e-13,7.99791e-01,5.12112e-13,7.99791e-01,8.41151e-13,7.99791e-01
7.94476e+02,1.69300e+03,2.29300e+03,-6.00000e+02,3.38922e-13,8.07336e-01,5.53750e-13,8.07336e-01,8.18289e-13,8.07336e-01
7.94725e+02,1.85000e+03,2.06700e+03,-2.17000e+02,3.94471e-13,8.14881e-01,6.94734e-13,8.14881e-01,8.41185e-13,8.14881e-01
7.94975e+02,2.26600e+03,1.79300e+03,4.73000e+02,2.68728e-13,8.22427e-01,7.66665e-13,8.22427e-01,7.10547e-13,8.22427e-01
7.95225e+02,2.46900e+03,1.81700e+03,6.52000e+02,3.40591e-13,8.29972e-01,6.23352e-13,8.29972e-01,3.09383e-13,8.29972e-01
7.95475e+02,2.33200e+03,2.14600e+03,1.86000e+02,4.64233e-13,8.37517e-01,4.54523e-13,8.37517e-01,1.86358e-13,8.37517e-01
7.95724e+02,2.06900e+03,2.52200e+03,-4.53000e+02,4.03635e-13,8.45062e-01,2.99461e-13,8.45062e-01,3.22120e-13,8.45062e-01
7.95974e+02,2.22300e+03,2.61400e+03,-3.91000e+02,2.91447e-13,8.52607e-01,3.50204e-13,8.52607e-01,2.92272e-13,8.52607e-01
7.96224e+02,2.75400e+03,2.50800e+03,2.46000e+02,8.52118e-14,8.60153e-01,4.10616e-13,8.60153e-01,4.72726e-13,8.60153e-01
7.96474e+02,2.70000e+03,1.95200e+03,7.48000e+02,2.74842e-13,8.67698e-01,4.19798e-13,8.67698e-01,6.31354e-13,8.67698e-01
7.96723e+02,2.32600e+03,1.95800e+03,3.68000e+02,2.36520e-13,8.75243e-01,5.33574e-13,8.75243e-01,6.12744e-13,8.75243e-01
7.96973e+02,1.98900e+03,2.14500e+03,-1.56000e+02,5.50950e-14,8.82788e-01,3.56475e-13,8.82788e-01,3.47296e-13,8.82788e-01
7.97223e+02,2.01800e+03,2.32000e+03,-3.02000e+02,1.81247e-13,8.90333e-01,2.65416e-13,8.90333e-01,3.70011e-13,8.90333e-01
7.97472e+02,2.27700e+03,2.24600e+03,3.10000e+01,3.25690e-13,8.97879e-01,2.38577e-13,8.97879e-01,5.15781e-13,8.97879e-01
7.97722e+02,2.46800e+03,2.09800e+03,3.70000e+02,4.68603e-13,9.05424e-01,1.59340e-13,9.05424e-01,3.48633e-13,9.05424e-01
7.97972e+02,2.56500e+03,2.11300e+03,4.52000e+02,6.18945e-13,9.12969e-01,3.98871e-13,9.12969e-01,2.22919e-13,9.12969e-01
7.98221e+02,2.41600e+03,2.54700e+03,-1.31000e+02,5.81714e-13,9.20514e-01,4.14200e-13,9.20514e-01,1.69264e-13,9.20514e-01
7.98471e+02,2.16400e+03,3.04000e+03,-8.76000e+02,3.18239e-13,9.28059e-01,9.64832e-14,9.28059e-01,3.13868e-13,9.28059e-01
7.98721e+02,2.13300e+03,2.84600e+03,-7.13000e+02,2.04492e-13,9.35605e-01,4.86663e-13,9.35605e-01,6.32469e-13,9.35605e-01
7.98970e+02,2.68100e+03,2.43600e+03,2.45000e+02,1.47295e-13,9.43150e-01,8.30337e-13,9.43150e-01,8.90966e-13,9.43150e-01
7.99220e+02,3.32100e+03,2.32600e+03,9.95000e+02,2.84495e-14,9.50695e-01,8.21590e-13,9.50695e-01,7.93152e-13,9.50695e-01
7.99469e+02,3.21700e+03,2.71100e+03,5.06000e+02,3.07985e-13,9.58240e-01,6.48170e-13,9.58240e-01,5.73720e-13,9.58240e-01
7.99719e+02,2.65700e+03,3.21300e+03,-5.56000e+02,2.34207e-13,9.65785e-01,3.82856e-13,9.65785e-01,4.53144e-13,9.65785e-01
7.99969e+02,2.36400e+03,3.12400e+03,-7.60000e+02,3.47184e-13,9.73331e-01,3.77944e-13,9.73331e-01,6.79634e-13,9.73331e-01
8.00218e+02,2.64400e+03,2.67600e+03,-3.20000e+01,4.58530e-13,9.80876e-01,2.64049e-13,9.80876e-01,7.04804e-13,9.80876e-01
8.00468e+02,3.60500e+03,2.53300e+03,1.07200e+03,2.20580e-13,9.88421e-01,2.52699e-13,9.88421e-01,4.72344e-13,9.88421e-01
8.00717e+02,3.77400e+03,2.42400e+03,1.35000e+03,1.41018e-13,9.95966e-01,7.90082e-14,9.95966e-01,2.19312e-13,9.95966e-01
8.00967e+02,3.13700e+03,2.85700e+03,2.80000e+02,2.37143e-13,1.00351e+00,1.27369e-13,1.00351e+00,1.34230e-13,1.00351e+00
8.01216e+02,2.70400e+03,3.56900e+03,-8.65000e+02,2.19133e-13,1.01106e+00,2.09289e-13,1.01106e+00,1.93330e-13,1.01106e+00
8.01466e+02,2.71800e+03,3.54300e+03,-8.25000e+02,4.05917e-13,1.01860e+00,1.01908e-13,1.01860e+00,3.64137e-13,1.01860e+00
8.01715e+02,3.60500e+03,3.09700e+03,5.08000e+02,6.35900e-13,1.02615e+00,1.95250e-13,1.02615e+00,6.01583e-13,1.02615e+00
8.01965e+02,4.12400e+03,2.89200e+03,1.23200e+03,5.27047e-13,1.03369e+00,2.58360e-13,1.03369e+00,6.31379e-13,1.03369e+00
8.02215e+02,3.71300e+03,3.06100e+03,6.52000e+02,9.15184e-14,1.04124e+00,3.84386e-13,1.04124e+00,4.00672e-13,1.04124e+00
8.02464e+02,2.95200e+03,3.45400e+03,-5.02000e+02,3.79172e-13,1.04878e+00,3.30511e-13,1.04878e+00,3.63920e-13,1.04878e+00
8.02713e+02,2.64300e+03,3.46600e+03,-8.23000e+02,3.04590e-13,1.05633e+00,1.14980e-13,1.05633e+00,3.03702e-13,1.05633e+00
8.02963e+02,2.94000e+03,2.86700e+03,7.30000e+01,1.36107e-13,1.06387e+00,1.54800e-13,1.06387e+00,2.88723e-13,1.06387e+00
8.03212e+02,3.49800e+03,2.52400e+03,9.74000e+02,7.21496e-14,1.07142e+00,2.52827e-13,1.07142e+00,3.22327e-13,1.07142e+00
8.03462e+02,3.69800e+03,2.61800e+03,1.08000e+03,1.73994e-13,1.07896e+00,3.52246e-13,1.07896e+00,5.22400e-13,1.07896e+00
8.03711e+02,3.40600e+03,3.07200e+03,3.34000e+02,2.42263e-13,1.08651e+00,5.20534e-13,1.08651e+00,6.11102e-13,1.08651e+00
8.03961e+02,2.97400e+03,3.65000e+03,-6.76000e+02,1.92814e-13,1.09405e+00,5.63941e-13,1.09405e+00,6.10262e-13,1.09405e+00
8.04210e+02,2.98000e+03,3.81800e+03,-8.38000e+02,1.25469e-13,1.10160e+00,5.52607e-13,1.10160e+00,5.49445e-13,1.10160e+00
8.04460e+02,3.94600e+03,3.48000e+03,4.66000e+02,1.08427e-13,1.10914e+00,4.56043e-13,1.10914e+00,5.00874e-13,1.10914e+00
8.04709e+02,4.38100e+03,3.22900e+03,1.15200e+03,2.18224e-13,1.11669e+00,4.26174e-13,1.11669e+00,5.62427e-13,1.11669e+00
8.04958e+02,3.96200e+03,3.51600e+03,4.46000e+02,3.20386e-13,1.12423e+00,3.15321e-13,1.12423e+00,4.58060e-13,1.12423e+00
8.05208e+02,3.53300e+03,4.15400e+03,-6.21000e+02,2.64479e-13,1.13178e+00,2.63645e-13,1.13178e+00,4.92117e-13,1.13178e+00
8.05457e+02,3.42900e+03,4.56800e+03,-1.13900e+03,3.28431e-13,1.13932e+00,2.73308e-13,1.13932e+00,4.56544e-13,1.13932e+00
8.05707e+02,3.70600e+03,4.21300e+03,-5.07000e+02,2.62034e-13,1.14687e+00,6.48739e-14,1.14687e+00,2.72352e-13,1.14687e+00
8.05956e+02,4.37100e+03,3.73700e+03,6.34000e+02,1.69777e-13,1.15442e+00,8.55180e-14,1.15442e+00,2.44031e-13,1.15442e+00
8.06205e+02,4.88300e+03,3.32400e+03,1.55900e+03,1.50508e-13,1.16196e+00,8.15221e-14,1.16196e+00,2.06066e-13,1.16196e+00
8.06455e+02,4.24900e+03,3.43700e+03,8.12000e+02,7.74525e-14,1.16951e+00,3.63778e-13,1.16951e+00,4.35033e-13,1.16951e+00
8.06704e+02,3.40200e+03,4.13500e+03,-7.33000e+02,1.57390e-13,1.17705e+00,3.35450e-13,1.17705e+00,4.43578e-13,1.17705e+00
8.06953e+02,3.03400e+03,4.60200e+03,-1.56800e+03,2.68015e-13,1.18460e+00,1.12557e-13,1.18460e+00,3.52065e-13,1.18460e+00
8.07203e+02,3.85400e+03,4.05900e+03,-2.05000e+02,3.90924e-13,1.19214e+00,5.06024e-14,1.19214e+00,3.40593e-13,1.19214e+00
8.07452e+02,5.05100e+03,3.57400e+03,1.47700e+03,3.84389e-13,1.19969e+00,1.55443e-13,1.19969e+00,3.02379e-13,1.19969e+00
8.07701e+02,5.61200e+03,3.38600e+03,2.22600e+03,3.52503e-13,1.20723e+00,3.42150e-13,1.20723e+00,5.16971e-13,1.20723e+00
8.07951e+02,4.60500e+03,4.01600e+03,5.89000e+02,2.94357e-13,1.21478e+00,2.36911e-13,1.21478e+00,3.64749e-13,1.21478e+00
8.08200e+02,3.87100e+03,4.61200e+03,-7.41000e+02,1.84830e-13,1.22232e+00,1.96120e-13,1.22232e+00,3.63875e-13,1.22232e+00
8.08449e+02,3.67500e+03,4.22000e+03,-5.45000e+02,4.86763e-14,1.22987e+00,2.29522e-13,1.22987e+00,2.16676e-13,1.22987e+00
8.08698e+02,4.11600e+03,3.69400e+03,4.22000e+02,1.43205e-13,1.23741e+00,1.31738e-13,1.23741e+00,8.74485e-14,1.23741e+00
8.08948e+02,4.54900e+03,3.31200e+03,1.23700e+03,2.35418e-13,1.24496e+00,7.66684e-14,1.24496e+00,2.10803e-13,1.24496e+00
8.09197e+02,4.69400e+03,3.55300e+03,1.14100e+03,3.79364e-13,1.25250e+00,9.33036e-14,1.25250e+00,3.91826e-13,1.25250e+00
8.09446e+02,4.10500e+03,4.44200e+03,-3.37000e+02,3.28581e-13,1.26005e+00,6.55004e-14,1.26005e+00,3.92687e-13,1.26005e+00
8.09695e+02,3.66500e+03,4.66300e+03,-9.98000e+02,2.06058e-13,1.26759e+00,1.86040e-13,1.26759e+00,3.45865e-13,1.26759e+00
8.09945e+02,4.23900e+03,4.27800e+03,-3.90000e+01,1.52363e-13,1.27514e+00,1.03148e-13,1.27514e+00,1.98630e-13,1.27514e+00
8.10194e+02,4.95900e+03,3.76400e+03,1.19500e+03,2.58620e-13,1.28268e+00,7.40853e-14,1.28268e+00,2.94980e-13,1.28268e+00
8.10443e+02,5.24000e+03,3.28400e+03,1.95600e+03,4.34825e-13,1.29023e+00,1.19976e-13,1.29023e+00,4.20718e-13,1.29023e+00
8.10692e+02,4.55500e+03,3.92000e+03,6.35000e+02,1.80273e-13,1.29777e+00,1.17860e-13,1.29777e+00,2.82888e-13,1.29777e+00
8.10941e+02,3.96800e+03,5.11200e+03,-1.14400e+03,1.32990e-13,1.30532e+00,9.83615e-14,1.30532e+00,1.86072e-13,1.30532e+00
8.11191e+02,3.99000e+03,5.86300e+03,-1.87300e+03,1.21159e-13,1.31286e+00,6.63246e-14,1.31286e+00,1.87403e-13,1.31286e+00
8.11440e+02,5.10800e+03,5.51600e+03,-4.08000e+02,1.41160e-13,-1.32041e+00,2.56000e-14,-1.32041e+00,1.66760e-13,-1.32041e+00
8.11689e+02,6.38100e+03,4.73600e+03,1.64500e+03,1.21159e-13,-1.31286e+00,6.63246e-14,-1.31286e+00,1.87403e-13,-1.31286e+00
8.11938e+02,7.05000e+03,4.73700e+03,2.31300e+03,1.32990e-13,-1.30532e+00,9.83615e-14,-1.30532e+00,1.86072e-13,-1.30532e+00
8.12187e+02,6.00100e+03,5.65200e+03,3.49000e+02,1.80273e-13,-1.29777e+00,1.17860e-13,-1.29777e+00,2.82888e-13,-1.29777e+00
8.12436e+02,4.47400e+03,6.31300e+03,-1.83900e+03,4.34825e-13,-1.29023e+00,1.19976e-13,-1.29023e+00,4.20718e-13,-1.29023e+00
8.12685e+02,3.95200e+03,5.28300e+03,-1.33100e+03,2.58620e-13,-1.28268e+00,7.40853e-14,-1.28268e+00,2.94980e-13,-1.28268e+00
8.12935e+02,4.26400e+03,4.41400e+03,-1.50000e+02,1.52363e-13,-1.27514e+00,1.03148e-13,-1.27514e+00,1.98630e-13,-1.27514e+00
8.13184e+02,5.40700e+03,4.10900e+03,1.29800e+03,2.06058e-13,-1.26759e+00,1.86040e-13,-1.26759e+00,3.45865e-13,-1.26759e+00
8.13433e+02,5.76200e+03,4.29100e+03,1.47100e+03,3.28581e-13,-1.26005e+00,6.55004e-14,-1.26005e+00,3.92687e-13,-1.26005e+00
8.13682e+02,4.79700e+03,5.25800e+03,-4.61000e+02,3.79364e-13,-1.25250e+00,9.33036e-14,-1.25250e+00,3.91826e-13,-1.25250e+00
8.13931e+02,4.22100e+03,5.78200e+03,-1.56100e+03,2.35418e-13,-1.24496e+00,7.66684e-14,-1.24496e+00,2.10803e-13,-1.24496e+00
8.14180e+02,4.46000e+03,5.58400e+03,-1.12400e+03,1.43205e-13,-1.23741e+00,1.31738e-13,-1.23741e+00,8.74485e-14,-1.23741e+00
8.14429e+02,5.33700e+03,4.36500e+03,9.72000e+02,4.86763e-14,-1.22987e+00,2.29522e-13,-1.22987e+00,2.16676e-13,-1.22987e+00
8.14678e+02,5.66500e+03,3.94100e+03,1.72400e+03,1.84830e-13,-1.22232e+00,1.96120e-13,-1.22232e+00,3.63875e-13,-1.22232e+00
8.14927e+02,5.41000e+03,4.49300e+03,9.17000e+02,2.94357e-13,-1.21478e+00,2.36911e-13,-1.21478e+00,3.64749e-13,-1.21478e+00
8.15176e+02,4.46000e+03,4.93100e+03,-4.71000e+02,3.52503e-13,-1.20723e+00,3.42150e-13,-1.20723e+00,5.16971e-13,-1.20723e+00
8.15425e+02,4.01300e+03,5.19800e+03,-1.18500e+03,3.84389e-13,-1.19969e+00,1.55443e-13,-1.19969e+00,3.02379e-13,-1.19969e+00
8.15674e+02,4.06200e+03,4.88500e+03,-8.23000e+02,3.90924e-13,-1.19214e+00,5.06024e-14,-1.19214e+00,3.40593e-13,-1.19214e+00
8.15923e+02,4.81600e+03,4.33500e+03,4.81000e+02,2.68015e-13,-1.18460e+00,1.12557e-13,-1.18460e+00,3.52065e-13,-1.18460e+00
8.16172e+02,5.32900e+03,4.08500e+03,1.24400e+03,1.57390e-13,-1.17705e+00,3.35450e-13,-1.17705e+00,4.43578e-13,-1.17705e+00
8.16421e+02,4.70300e+03,4.38800e+03,3.15000e+02,7.74525e-14,-1.16951e+00,3.63778e-13,-1.16951e+00,4.35033e-13,-1.16951e+00
8.16670e+02,4.02900e+03,4.56000e+03,-5.31000e+02,1.50508e-13,-1.16196e+00,8.15221e-14,-1.16196e+00,2.06066e-13,-1.16196e+00
8.16919e+02,3.76800e+03,5.07600e+03,-1.30800e+03,1.69777e-13,-1.15442e+00,8.55180e-14,-1.15442e+00,2.44031e-13,-1.15442e+00
8.17168e+02,4.23100e+03,5.12600e+03,-8.95000e+02,2.62034e-13,-1.14687e+00,6.48739e-14,-1.14687e+00,2.72352e-13,-1.14687e+00
8.17417e+02,4.81900e+03,3.89400e+03,9.25000e+02,3.28431e-13,-1.13932e+00,2.73308e-13,-1.13932e+00,4.56544e-13,-1.13932e+00
8.17666e+02,5.09400e+03,3.69700e+03,1.39700e+03,2.64479e-13,-1.13178e+00,2.63645e-13,-1.13178e+00,4.92117e-13,-1.13178e+00
8.17915e+02,4.67700e+03,4.49000e+03,1.87000e+02,3.20386e-13,-1.12423e+00,3.15321e-13,-1.12423e+00,4.58060e-13,-1.12423e+00
8.18164e+02,3.72100e+03,5.07200e+03,-1.35100e+03,2.18224e-13,-1.11669e+00,4.26174e-13,-1.11669e+00,5.62427e-13,-1.11669e+00
8.18413e+02,3.48700e+03,5.16500e+03,-1.67800e+03,1.08427e-13,-1.10914e+00,4.56043e-13,-1.10914e+00,5.00874e-13,-1.10914e+00
8.18662e+02,4.09700e+03,4.45700e+03,-3.60000e+02,1.25469e-13,-1.10160e+00,5.52607e-13,-1.10160e+00,5.49445e-13,-1.10160e+00
8.18911e+02,4.50400e+03,3.82700e+03,6.77000e+02,1.92814e-13,-1.09405e+00,5.63941e-13,-1.09405e+00,6.10262e-13,-1.09405e+00
8.19160e+02,4.69000e+03,3.53200e+03,1.15800e+03,2.42263e-13,-1.08651e+00,5.20534e-13,-1.08651e+00,6.11102e-13,-1.08651e+00
8.19408e+02,3.99200e+03,4.10700e+03,-1.15000e+02,1.73994e-13,-1.07896e+00,3.52246e-13,-1.07896e+00,5.22400e-13,-1.07896e+00
8.19657e+02,3.50500e+03,5.06900e+03,-1.56400e+03,7.21496e-14,-1.07142e+00,2.52827e-13,-1.07142e+00,3.22327e-13,-1.07142e+00
8.19906e+02,3.70000e+03,5.01200e+03,-1.31200e+03,1.36107e-13,-1.06387e+00,1.54800e-13,-1.06387e+00,2.88723e-13,-1.06387e+00
8.20155e+02,4.33200e+03,4.30200e+03,3.00000e+01,3.04590e-13,-1.05633e+00,1.14980e-13,-1.05633e+00,3.03702e-13,-1.05633e+00
8.20404e+02,4.84000e+03,3.68500e+03,1.15500e+03,3.79172e-13,-1.04878e+00,3.30511e-13,-1.04878e+00,3.63920e-13,-1.04878e+00
8.20653e+02,4.27700e+03,3.85700e+03,4.20000e+02,9.15184e-14,-1.04124e+00,3.84386e-13,-1.04124e+00,4.00672e-13,-1.04124e+00
8.20901e+02,3.32500e+03,4.33000e+03,-1.00500e+03,5.27047e-13,-1.03369e+00,2.58360e-13,-1.03369e+00,6.31379e-13,-1.03369e+00
8.21150e+02,3.13600e+03,4.37900e+03,-1.24300e+03,6.35900e-13,-1.02615e+00,1.95250e-13,-1.02615e+00,6.01583e-13,-1.02615e+00
8.21399e+02,3.65500e+03,4.00800e+03,-3.53000e+02,4.05917e-13,-1.01860e+00,1.01908e-13,-1.01860e+00,3.64137e-13,-1.01860e+00
8.21648e+02,4.36200e+03,3.35000e+03,1.01200e+03,2.19133e-13,-1.01106e+00,2.09289e-13,-1.01106e+00,1.93330e-13,-1.01106e+00
8.21897e+02,4.57500e+03,3.56800e+03,1.00700e+03,2.37143e-13,-1.00351e+00,1.27369e-13,-1.00351e+00,1.34230e-13,-1.00351e+00
8.22145e+02,4.05900e+03,4.01800e+03,4.10000e+01,1.41018e-13,-9.95966e-01,7.90082e-14,-9.95966e-01,2.19312e-13,-9.95966e-01
8.22394e+02,3.55400e+03,4.52500e+03,-9.71000e+02,2.20580e-13,-9.88421e-01,2.52699e-13,-9.88421e-01,4.72344e-13,-9.88421e-01
8.22643e+02,3.38700e+03,4.87700e+03,-1.49000e+03,4.58530e-13,-9.80876e-01,2.64049e-13,-9.80876e-01,7.04804e-13,-9.80876e-01
8.22892e+02,3.57400e+03,4.35700e+03,-7.83000e+02,3.47184e-13,-9.73331e-01,3.77944e-13,-9.73331e-01,6.79634e-13,-9.73331e-01
8.23140e+02,4.04000e+03,3.64100e+03,3.99000e+02,2.34207e-13,-9.65785e-01,3.82856e-13,-9.65785e-01,4.53144e-13,-9.65785e-01
8.23389e+02,4.23200e+03,3.14400e+03,1.08800e+03,3.07985e-13,-9.58240e-01,6.48170e-13,-9.58240e-01,5.73720e-13,-9.58240e-01
8.23638e+02,3.97000e+03,3.10000e+03,8.70000e+02,2.84495e-14,-9.50695e-01,8.21590e-13,-9.50695e-01,7.93152e-13,-9.50695e-01
8.23887e+02,3.04200e+03,3.13200e+03,-9.00000e+01,1.47295e-13,-9.43150e-01,8.30337e-13,-9.43150e-01,8.90966e-13,-9.43150e-01
8.24135e+02,2.68200e+03,3.29200e+03,-6.10000e+02,2.04492e-13,-9.35605e-01,4.86663e-13,-9.35605e-01,6.32469e-13,-9.35605e-01
8.24384e+02,2.89900e+03,3.32900e+03,-4.30000e+02,3.18239e-13,-9.28059e-01,9.64832e-14,-9.28059e-01,3.13868e-13,-9.28059e-01
8.24633e+02,3.30700e+03,2.94700e+03,3.60000e+02,5.81714e-13,-9.20514e-01,4.14200e-13,-9.20514e-01,1.69264e-13,-9.20514e-01
8.24881e+02,3.49700e+03,2.62800e+03,8.69000e+02,6.18945e-13,-9.12969e-01,3.98871e-13,-9.12969e-01,2.22919e-13,-9.12969e-01
8.25130e+02,3.16400e+03,2.95500e+03,2.09000e+02,4.68603e-13,-9.05424e-01,1.59340e-13,-9.05424e-01,3.48633e-13,-9.05424e-01
8.25379e+02,2.61700e+03,3.69800e+03,-1.08100e+03,3.25690e-13,-8.97879e-01,2.38577e-13,-8.97879e-01,5.15781e-13,-8.97879e-01
8.25627e+02,2.44200e+03,3.81500e+03,-1.37300e+03,1.81247e-13,-8.90333e-01,2.65416e-13,-8.90333e-01,3.70011e-13,-8.90333e-01
8.25876e+02,2.47200e+03,3.01700e+03,-5.45000e+02,5.50950e-14,-8.82788e-01,3.56475e-13,-8.82788e-01,3.47296e-13,-8.82788e-01
8.26125e+02,2.93300e+03,2.57400e+03,3.59000e+02,2.36520e-13,-8.75243e-01,5.33574e-13,-8.75243e-01,6.12744e-13,-8.75243e-01
8.26373e+02,2.95500e+03,2.42800e+03,5.27000e+02,2.74842e-13,-8.67698e-01,4.19798e-13,-8.67698e-01,6.31354e-13,-8.67698e-01
8.26622e+02,2.59700e+03,2.34600e+03,2.51000e+02,8.52118e-14,-8.60153e-01,4.10616e-13,-8.60153e-01,4.72726e-13,-8.60153e-01
8.26870e+02,2.24000e+03,2.55700e+03,-3.17000e+02,2.91447e-13,-8.52607e-01,3.50204e-13,-8.52607e-01,2.92272e-13,-8.52607e-01
8.27119e+02,2.18900e+03,2.59000e+03,-4.01000e+02,4.03635e-13,-8.45062e-01,2.99461e-13,-8.45062e-01,3.22120e-13,-8.45062e-01
8.27368e+02,2.12200e+03,2.23500e+03,-1.13000e+02,4.64233e-13,-8.37517e-01,4.54523e-13,-8.37517e-01,1.86358e-13,-8.37517e-01
8.27616e+02,2.25000e+03,2.01800e+03,2.32000e+02,3.40591e-13,-8.29972e-01,6.23352e-13,-8.29972e-01,3.09383e-13,-8.29972e-01
8.27865e+02,2.50500e+03,1.99200e+03,5.13000e+02,2.68728e-13,-8.22427e-01,7.66665e-13,-8.22427e-01,7.10547e-13,-8.22427e-01
8.28113e+02,2.61300e+03,2.31400e+03,2.99000e+02,3.94471e-13,-8.14881e-01,6.94734e-13,-8.14881e-01,8.41185e-13,-8.14881e-01
8.28362e+02,2.16400e+03,2.53200e+03,-3.68000e+02,3.38922e-13,-8.07336e-01,5.53750e-13,-8.07336e-01,8.18289e-13,-8.07336e-01
8.28610e+02,1.90500e+03,2.33000e+03,-4.25000e+02,3.51240e-13,-7.99791e-01,5.12112e-13,-7.99791e-01,8.41151e-13,-7.99791e-01
8.28859e+02,1.82800e+03,2.16300e+03,-3.35000e+02,5.45096e-13,-7.92246e-01,4.79604e-13,-7.92246e-01,8.16231e-13,-7.92246e-01
8.29108e+02,2.02400e+03,1.94500e+03,7.90000e+01,6.67645e-13,-7.84701e-01,5.85288e-13,-7.84701e-01,6.59382e-13,-7.84701e-01
8.29356e+02,2.24500e+03,1.87000e+03,3.75000e+02,3.60719e-13,-7.77155e-01,4.98636e-13,-7.77155e-01,6.46665e-13,-7.77155e-01
8.29605e+02,1.98200e+03,1.91200e+03,7.00000e+01,5.46162e-13,-7.69610e-01,1.72364e-13,-7.69610e-01,6.83507e-13,-7.69610e-01
8.29853e+02,1.63600e+03,2.23200e+03,-5.96000e+02,4.06098e-13,-7.62065e-01,2.03808e-13,-7.62065e-01,3.69708e-13,-7.62065e-01
8.30101e+02,1.48500e+03,2.12300e+03,-6.38000e+02,2.25686e-13,-7.54520e-01,2.17216e-13,-7.54520e-01,3.60992e-13,-7.54520e-01
8.30350e+02,1.50800e+03,1.75400e+03,-2.46000e+02,1.64140e-13,-7.46975e-01,3.70649e-13,-7.46975e-01,5.27387e-13,-7.46975e-01
8.30598e+02,1.55600e+03,1.44800e+03,1.08000e+02,3.23053e-13,-7.39429e-01,5.78978e-13,-7.39429e-01,8.88058e-13,-7.39429e-01
8.30847e+02,1.52400e+03,1.39900e+03,1.25000e+02,6.67407e-13,-7.31884e-01,2.99384e-13,-7.31884e-01,9.63985e-13,-7.31884e-01
8.31095e+02,1.43800e+03,1.52600e+03,-8.80000e+01,4.80284e-13,-7.24339e-01,5.36512e-13,-7.24339e-01,6.98928e-13,-7.24339e-01
8.31344e+02,1.45900e+03,1.62300e+03,-1.64000e+02,1.67784e-13,-7.16794e-01,1.08131e-12,-7.16794e-01,1.22509e-12,-7.16794e-01
8.31592e+02,1.33600e+03,1.53100e+03,-1.95000e+02,5.86120e-13,-7.09249e-01,1.13642e-12,-7.09249e-01,1.31986e-12,-7.09249e-01
8.31841e+02,1.36400e+03,1.35200e+03,1.20000e+01,8.64073e-13,-7.01703e-01,9.41269e-13,-7.01703e-01,5.97976e-13,-7.01703e-01
8.32089e+02,1.37400e+03,1.22800e+03,1.46000e+02,7.20659e-13,-6.94158e-01,1.01722e-12,-6.94158e-01,2.97977e-13,-6.94158e-01
8.32337e+02,1.32000e+03,1.15600e+03,1.64000e+02,4.18408e-13,-6.86613e-01,9.67185e-13,-6.86613e-01,5.53235e-13,-6.86613e-01
8.32586e+02,1.27500e+03,1.22000e+03,5.50000e+01,1.67631e-13,-6.79068e-01,9.60371e-13,-6.79068e-01,8.12975e-13,-6.79068e-01
8.32834e+02,1.16300e+03,1.28800e+03,-1.25000e+02,3.61451e-13,-6.71523e-01,7.91469e-13,-6.71523e-01,8.69330e-13,-6.71523e-01
8.33083e+02,1.10500e+03,1.35100e+03,-2.46000e+02,7.99108e-13,-6.63977e-01,1.04066e-12,-6.63977e-01,9.23116e-13,-6.63977e-01
8.33331e+02,1.13600e+03,1.25000e+03,-1.14000e+02,8.41732e-13,-6.56432e-01,9.11297e-13,-6.56432e-01,8.30946e-13,-6.56432e-01
8.33579e+02,1.15900e+03,1.09700e+03,6.20000e+01,3.30349e-13,-6.48887e-01,5.06025e-13,-6.48887e-01,7.40972e-13,-6.48887e-01
8.33828e+02,1.21800e+03,1.07200e+03,1.46000e+02,2.72915e-13,-6.41342e-01,5.65977e-13,-6.41342e-01,6.63060e-13,-6.41342e-01
8.34076e+02,1.15200e+03,1.08300e+03,6.90000e+01,4.54708e-13,-6.33797e-01,5.16589e-13,-6.33797e-01,2.97337e-13,-6.33797e-01
8.34324e+02,1.02800e+03,1.19300e+03,-1.65000e+02,4.99663e-13,-6.26251e-01,5.71821e-13,-6.26251e-01,7.22773e-14,-6.26251e-01
8.34573e+02,9.72000e+02,1.16300e+03,-1.91000e+02,6.33156e-13,-6.18706e-01,5.04456e-13,-6.18706e-01,4.09811e-13,-6.18706e-01
8.34821e+02,1.01200e+03,1.05000e+03,-3.80000e+01,3.87042e-13,-6.11161e-01,8.21265e-13,-6.11161e-01,1.09887e-12,-6.11161e-01
8.35069e+02,1.02400e+03,9.54000e+02,7.00000e+01,3.93506e-13,-6.03616e-01,7.30176e-13,-6.03616e-01,9.44419e-13,-6.03616e-01
8.35318e+02,1.04400e+03,9.21000e+02,1.23000e+02,7.19845e-13,-5.96071e-01,5.41225e-13,-5.96071e-01,1.15127e-12,-5.96071e-01
8.35566e+02,9.87000e+02,9.38000e+02,4.90000e+01,1.26219e-13,-5.88525e-01,4.24754e-13,-5.88525e-01,5.33925e-13,-5.88525e-01
8.35814e+02,8.85000e+02,9.68000e+02,-8.30000e+01,1.10690e-12,-5.80980e-01,3.24002e-13,-5.80980e-01,1.40673e-12,-5.80980e-01
8.36062e+02,8.70000e+02,9.79000e+02,-1.09000e+02,1.92917e-12,-5.73435e-01,7.66436e-13,-5.73435e-01,2.68961e-12,-5.73435e-01
8.36311e+02,8.65000e+02,9.30000e+02,-6.50000e+01,1.36578e-12,-5.65890e-01,1.08797e-12,-5.65890e-01,2.31232e-12,-5.65890e-01
8.36559e+02,8.73000e+02,8.65000e+02,8.00000e+00,3.75488e-13,-5.58345e-01,1.31353e-12,-5.58345e-01,1.22333e-12,-5.58345e-01
8.36807e+02,8.86000e+02,8.20000e+02,6.60000e+01,6.81239e-13,-5.50799e-01,1.22576e-12,-5.50799e-01,1.45802e-12,-5.50799e-01
8.37055e+02,8.49000e+02,8.25000e+02,2.40000e+01,6.97596e-13,-5.43254e-01,1.12884e-12,-5.43254e-01,1.81701e-12,-5.43254e-01
8.37304e+02,8.02000e+02,8.82000e+02,-8.00000e+01,7.44313e-13,-5.35709e-01,1.34910e-12,-5.35709e-01,1.71414e-12,-5.35709e-01
8.37552e+02,7.76000e+02,8.63000e+02,-8.70000e+01,5.19266e-13,-5.28164e-01,1.75761e-12,-5.28164e-01,1.96436e-12,-5.28164e-01
8.37800e+02,8.09000e+02,8.24000e+02,-1.50000e+01,5.16247e-13,-5.20619e-01,1.45704e-12,-5.20619e-01,1.89842e-12,-5.20619e-01
8.38048e+02,8.23000e+02,7.78000e+02,4.50000e+01,2.22127e-13,-5.13073e-01,7.10686e-13,-5.13073e-01,5.63226e-13,-5.13073e-01
8.38296e+02,8.45000e+02,7.97000e+02,4.80000e+01,8.62241e-13,-5.05528e-01,1.26659e-13,-5.05528e-01,8.67008e-13,-5.05528e-01
8.38545e+02,8.07000e+02,8.16000e+02,-9.00000e+00,1.55235e-12,-4.97983e-01,6.70946e-13,-4.97983e-01,2.05275e-12,-4.97983e-01
8.38793e+02,7.59000e+02,7.95000e+02,-3.60000e+01,1.75258e-12,-4.90438e-01,2.04664e-12,-4.90438e-01,3.78613e-12,-4.90438e-01
8.39041e+02,7.27000e+02,7.89000e+02,-6.20000e+01,4.65762e-12,-4.82893e-01,3.96695e-12,-4.82893e-01,8.55577e-12,-4.82893e-01
8.39289e+02,7.46000e+02,7.57000e+02,-1.10000e+01,9.03227e-12,-4.75347e-01,6.72255e-12,-4.75347e-01,1.57482e-11,-4.75347e-01
8.39537e+02,7.43000e+02,7.48000e+02,-5.00000e+00,1.10770e-11,-4.67802e-01,8.97522e-12,-4.67802e-01,2.00522e-11,-4.67802e-01
8.39785e+02,7.43000e+02,7.10000e+02,3.30000e+01,1.06598e-11,-4.60257e-01,9.12114e-12,-4.60257e-01,1.97586e-11,-4.60257e-01
8.40033e+02,7.32000e+02,7.32000e+02,0.00000e+00,9.29619e-12,-4.52712e-01,8.65504e-12,-4.52712e-01,1.78315e-11,-4.52712e-01
8.40281e+02,7.15000e+02,7.35000e+02,-2.00000e+01,6.67325e-12,-4.45167e-01,6.68188e-12,-4.45167e-01,1.32482e-11,-4.45167e-01
8.40530e+02,7.22000e+02,7.28000e+02,-6.00000e+00,3.05319e-12,-4.37621e-01,3.19772e-12,-4.37621e-01,6.21908e-12,-4.37621e-01
8.40778e+02,7.37000e+02,7.36000e+02,1.00000e+00,1.52935e-12,-4.30076e-01,1.46168e-12,-4.30076e-01,2.96945e-12,-4.30076e-01
8.41026e+02,7.37000e+02,7.32000e+02,5.00000e+00,9.44191e-13,-4.22531e-01,4.55103e-13,-4.22531e-01,1.00325e-12,-4.22531e-01
8.41274e+02,7.40000e+02,7.09000e+02,3.10000e+01,1.87229e-12,-4.14986e-01,7.18146e-13,-4.14986e-01,1.62507e-12,-4.14986e-01
8.41522e+02,7.25000e+02,6.99000e+02,2.60000e+01,1.96290e-12,-4.07441e-01,1.09681e-12,-4.07441e-01,2.02695e-12,-4.07441e-01
8.41770e+02,7.05000e+02,7.13000e+02,-8.00000e+00,1.63760e-12,-3.99895e-01,4.42332e-13,-3.99895e-01,1.88445e-12,-3.99895e-01
8.42018e+02,7.08000e+02,7.20000e+02,-1.20000e+01,1.23865e-12,-3.92350e-01,1.69020e-13,-3.92350e-01,1.40300e-12,-3.92350e-01
8.42266e+02,6.96000e+02,7.10000e+02,-1.40000e+01,1.39548e-12,-3.84805e-01,4.26660e-13,-3.84805e-01,1.80553e-12,-3.84805e-01
8.42514e+02,7.17000e+02,7.11000e+02,6.00000e+00,1.21086e-12,-3.77260e-01,6.35926e-13,-3.77260e-01,1.83381e-12,-3.77260e-01
8.42762e+02,7.05000e+02,6.84000e+02,2.10000e+01,1.21646e-12,-3.69715e-01,6.65100e-13,-3.69715e-01,1.36311e-12,-3.69715e-01
8.43010e+02,7.12000e+02,7.06000e+02,6.00000e+00,1.54718e-12,-3.62169e-01,1.66020e-13,-3.62169e-01,1.70727e-12,-3.62169e-01
8.43258e+02,7.17000e+02,6.91000e+02,2.60000e+01,1.71369e-12,-3.54624e-01,9.05493e-13,-3.54624e-01,2.36590e-12,-3.54624e-01
8.43506e+02,6.83000e+02,6.90000e+02,-7.00000e+00,1.64636e-12,-3.47079e-01,8.53846e-13,-3.47079e-01,2.13570e-12,-3.47079e-01
8.43754e+02,7.00000e+02,6.88000e+02,1.20000e+01,2.48112e-12,-3.39534e-01,5.87944e-13,-3.39534e-01,1.95026e-12,-3.39534e-01
8.44002e+02,7.05000e+02,6.85000e+02,2.00000e+01,3.32279e-12,-3.31989e-01,1.13181e-12,-3.31989e-01,2.20463e-12,-3.31989e-01
8.44250e+02,6.88000e+02,6.70000e+02,1.80000e+01,3.20976e-12,-3.24444e-01,1.72013e-12,-3.24444e-01,1.54304e-12,-3.24444e-01
8.44498e+02,6.80000e+02,6.83000e+02,-3.00000e+00,2.18220e-12,-3.16898e-01,1.56137e-12,-3.16898e-01,6.23173e-13,-3.16898e-01
8.44746e+02,6.84000e+02,6.81000e+02,3.00000e+00,1.49336e-12,-3.09353e-01,1.23390e-12,-3.09353e-01,4.80035e-13,-3.09353e-01
8.44994e+02,6.88000e+02,6.92000e+02,-4.00000e+00,1.42927e-12,-3.01808e-01,1.54232e-12,-3.01808e-01,1.39033e-12,-3.01808e-01
8.45242e+02,6.81000e+02,6.88000e+02,-7.00000e+00,1.55316e-12,-2.94263e-01,2.68599e-12,-2.94263e-01,2.15024e-12,-2.94263e-01
8.45490e+02,6.88000e+02,6.72000e+02,1.60000e+01,1.57548e-12,-2.86718e-01,2.03796e-12,-2.86718e-01,2.16531e-12,-2.86718e-01
8.45738e+02,6.86000e+02,6.69000e+02,1.70000e+01,1.61257e-12,-2.79172e-01,9.37613e-13,-2.79172e-01,2.32289e-12,-2.79172e-01
8.45985e+02,6.82000e+02,6.77000e+02,5.00000e+00,1.12797e-12,-2.71627e-01,8.42072e-13,-2.71627e-01,1.91965e-12,-2.71627e-01
8.46233e+02,6.69000e+02,6.71000e+02,-2.00000e+00,1.09856e-12,-2.64082e-01,3.48531e-13,-2.64082e-01,1.18180e-12,-2.64082e-01
8.46481e+02,6.90000e+02,6.81000e+02,9.00000e+00,1.65092e-12,-2.56537e-01,1.80159e-12,-2.56537e-01,7.36569e-13,-2.56537e-01
8.46729e+02,6.64000e+02,6.75000e+02,-1.10000e+01,2.16686e-12,-2.48992e-01,3.08177e-12,-2.48992e-01,9.16842e-13,-2.48992e-01
8.46977e+02,6.67000e+02,6.73000e+02,-6.00000e+00,1.32378e-12,-2.41446e-01,2.15528e-12,-2.41446e-01,1.08075e-12,-2.41446e-01
8.47225e+02,6.63000e+02,6.74000e+02,-1.10000e+01,9.13311e-13,-2.33901e-01,1.53527e-12,-2.33901e-01,8.25204e-13,-2.33901e-01
8.47473e+02,6.71000e+02,6.68000e+02,3.00000e+00,2.10278e-12,-2.26356e-01,2.86457e-12,-2.26356e-01,1.46277e-12,-2.26356e-01
8.47720e+02,6.64000e+02,6.80000e+02,-1.60000e+01,2.29487e-12,-2.18811e-01,2.62202e-12,-2.18811e-01,1.61823e-12,-2.18811e-01
8.47968e+02,6.63000e+02,6.74000e+02,-1.10000e+01,1.54911e-12,-2.11266e-01,1.29483e-12,-2.11266e-01,9.93262e-13,-2.11266e-01
8.48216e+02,6.72000e+02,6.68000e+02,4.00000e+00,1.61092e-12,-2.03720e-01,1.66521e-12,-2.03720e-01,1.01502e-12,-2.03720e-01
8.48464e+02,6.75000e+02,6.66000e+02,9.00000e+00,1.76518e-12,-1.96175e-01,3.00726e-12,-1.96175e-01,2.01359e-12,-1.96175e-01
8.48712e+02,6.65000e+02,6.69000e+02,-4.00000e+00,1.63634e-12,-1.88630e-01,2.93946e-12,-1.88630e-01,1.84614e-12,-1.88630e-01
8.48960e+02,6.73000e+02,6.85000e+02,-1.20000e+01,1.63743e-12,-1.81085e-01,2.00464e-12,-1.81085e-01,5.95622e-13,-1.81085e-01
8.49207e+02,6.76000e+02,6.67000e+02,9.00000e+00,1.96364e-12,-1.73540e-01,1.25122e-12,-1.73540e-01,1.10529e-12,-1.73540e-01
8.49455e+02,6.75000e+02,6.75000e+02,0.00000e+00,1.36011e-12,-1.65994e-01,4.39558e-13,-1.65994e-01,1.79718e-12,-1.65994e-01
8.49703e+02,6.61000e+02,6.68000e+02,-7.00000e+00,8.31041e-13,-1.58449e-01,8.58575e-13,-1.58449e-01,1.38571e-12,-1.58449e-01
8.49951e+02,6.68000e+02,6.70000e+02,-2.00000e+00,5.67404e-13,-1.50904e-01,6.44776e-13,-1.50904e-01,7.26255e-13,-1.50904e-01
8.50198e+02,6.66000e+02,6.64000e+02,2.00000e+00,4.58913e-13,-1.43359e-01,1.52227e-12,-1.43359e-01,1.14439e-12,-1.43359e-01
8.50446e+02,6.59000e+02,6.60000e+02,-1.00000e+00,4.36788e-13,-1.35814e-01,9.13152e-13,-1.35814e-01,5.23149e-13,-1.35814e-01
8.50694e+02,6.70000e+02,6.77000e+02,-7.00000e+00,1.92359e-12,-1.28268e-01,1.44235e-12,-1.28268e-01,8.40442e-13,-1.28268e-01
8.50941e+02,6.86000e+02,6.98000e+02,-1.20000e+01,3.20961e-12,-1.20723e-01,2.70071e-12,-1.20723e-01,6.05994e-13,-1.20723e-01
8.51189e+02,6.94000e+02,6.94000e+02,0.00000e+00,3.01402e-12,-1.13178e-01,3.57131e-12,-1.13178e-01,6.22651e-13,-1.13178e-01
8.51437e+02,6.61000e+02,6.64000e+02,-3.00000e+00,1.09383e-12,-1.05633e-01,2.65316e-12,-1.05633e-01,1.74880e-12,-1.05633e-01
8.51685e+02,6.70000e+02,6.68000e+02,2.00000e+00,1.35801e-12,-9.80876e-02,2.29891e-12,-9.80876e-02,1.89646e-12,-9.80876e-02
8.51932e+02,6.70000e+02,6.74000e+02,-4.00000e+00,1.44470e-12,-9.05424e-02,2.03820e-12,-9.05424e-02,1.56096e-12,-9.05424e-02
8.52180e+02,6.71000e+02,6.85000e+02,-1.40000e+01,1.39666e-12,-8.29972e-02,2.66384e-12,-8.29972e-02,1.39634e-12,-8.29972e-02
8.52428e+02,6.70000e+02,6.64000e+02,6.00000e+00,1.61721e-12,-7.54520e-02,2.56312e-12,-7.54520e-02,9.47248e-13,-7.54520e-02
8.52675e+02,6.64000e+02,6.74000e+02,-1.00000e+01,2.88311e-12,-6.79068e-02,3.03819e-12,-6.79068e-02,1.65627e-13,-6.79068e-02
8.52923e+02,6.68000e+02,6.67000e+02,1.00000e+00,2.76377e-12,-6.03616e-02,1.97264e-12,-6.03616e-02,8.30785e-13,-6.03616e-02
8.53170e+02,6.77000e+02,6.76000e+02,1.00000e+00,2.63663e-12,-5.28164e-02,1.92293e-12,-5.28164e-02,7.86304e-13,-5.28164e-02
8.53418e+02,6.82000e+02,6.74000e+02,8.00000e+00,2.67756e-12,-4.52712e-02,1.55760e-12,-4.52712e-02,1.19555e-12,-4.52712e-02
8.53666e+02,6.73000e+02,6.61000e+02,1.20000e+01,2.09774e-12,-3.77260e-02,9.97462e-13,-3.77260e-02,1.84742e-12,-3.77260e-02
8.53913e+02,6.84000e+02,6.72000e+02,1.20000e+01,1.43731e-12,-3.01808e-02,3.06584e-12,-3.01808e-02,1.93704e-12,-3.01808e-02
8.54161e+02,6.75000e+02,6.76000e+02,-1.00000e+00,1.11950e-11,-2.26356e-02,1.24135e-11,-2.26356e-02,2.55580e-12,-2.26356e-02
8.54409e+02,6.58000e+02,6.65000e+02,-7.00000e+00,3.76932e-11,-1.50904e-02,3.73624e-11,-1.50904e-02,4.25431e-12,-1.50904e-02
8.54656e+02,6.56000e+02,6.70000e+02,-1.40000e+01,1.00965e-10,-7.54520e-03,9.94468e-11,-7.54520e-03,3.51222e-12,-7.54520e-03
