7.67698e+02,6.75000e+02,6.90000e+02,-1.50000e+01,2.59575e-10,0.00000e+00,2.57187e-10,0.00000e+00,2.38814e-12,0.00000e+00
7.67949e+02,6.89000e+02,6.81000e+02,8.00000e+00,1.33827e-10,7.54520e-03,1.31122e-10,7.54520e-03,4.10697e-12,7.54520e-03
7.68199e+02,7.05000e+02,6.90000e+02,1.50000e+01,4.83242e-11,1.50904e-02,4.71974e-11,1.50904e-02,4.66253e-12,1.50904e-02
7.68450e+02,6.92000e+02,6.89000e+02,3.00000e+00,1.22499e-11,2.26356e-02,1.38711e-11,2.26356e-02,2.67389e-12,2.26356e-02
7.68701e+02,6.94000e+02,6.99000e+02,-5.00000e+00,3.49477e-12,3.01808e-02,4.85275e-12,3.01808e-02,1.36003e-12,3.01808e-02
7.68951e+02,6.78000e+02,6.94000e+02,-1.60000e+01,6.76561e-13,3.77260e-02,2.26341e-13,3.77260e-02,8.76395e-13,3.77260e-02
7.69202e+02,6.89000e+02,7.00000e+02,-1.10000e+01,3.43379e-12,4.52712e-02,3.09727e-12,4.52712e-02,3.61991e-13,4.52712e-02
7.69453e+02,6.99000e+02,6.99000e+02,0.00000e+00,5.62744e-12,5.28164e-02,5.51885e-12,5.28164e-02,7.06431e-13,5.28164e-02
7.69703e+02,7.08000e+02,7.14000e+02,-6.00000e+00,6.84565e-12,6.03616e-02,7.28991e-12,6.03616e-02,1.16223e-12,6.03616e-02
7.69954e+02,6.96000e+02,7.22000e+02,-2.60000e+01,6.43740e-12,6.79068e-02,7.43606e-12,6.79068e-02,2.18985e-12,6.79068e-02
7.70205e+02,6.89000e+02,7.25000e+02,-3.60000e+01,4.43613e-12,7.54520e-02,5.24354e-12,7.54520e-02,2.31253e-12,7.54520e-02
7.70455e+02,7.16000e+02,7.21000e+02,-5.00000e+00,4.93000e-12,8.29972e-02,5.04162e-12,8.29972e-02,1.82012e-12,8.29972e-02
7.70706e+02,7.26000e+02,7.07000e+02,1.90000e+01,5.47367e-12,9.05424e-02,5.91187e-12,9.05424e-02,1.68514e-12,9.05424e-02
7.70957e+02,7.26000e+02,7.13000e+02,1.30000e+01,3.72269e-12,9.80876e-02,4.90998e-12,9.80876e-02,1.45289e-12,9.80876e-02
7.71207e+02,7.21000e+02,7.47000e+02,-2.60000e+01,2.94209e-12,1.05633e-01,3.45840e-12,1.05633e-01,1.42529e-12,1.05633e-01
7.71458e+02,7.24000e+02,7.34000e+02,-1.00000e+01,5.15008e-12,1.13178e-01,4.19629e-12,1.13178e-01,2.49646e-12,1.13178e-01
7.71708e+02,7.21000e+02,7.41000e+02,-2.00000e+01,5.73131e-12,1.20723e-01,3.56092e-12,1.20723e-01,2.44130e-12,1.20723e-01
7.71959e+02,7.29000e+02,7.36000e+02,-7.00000e+00,4.78104e-12,1.28268e-01,2.81019e-12,1.28268e-01,1.99980e-12,1.28268e-01
7.72210e+02,7.46000e+02,7.57000e+02,-1.10000e+01,3.81963e-12,1.35814e-01,2.00304e-12,1.35814e-01,1.81670e-12,1.35814e-01
7.72460e+02,7.46000e+02,8.02000e+02,-5.60000e+01,3.27730e-12,1.43359e-01,2.70830e-12,1.43359e-01,2.17417e-12,1.43359e-01
7.72711e+02,7.25000e+02,7.82000e+02,-5.70000e+01,2.65977e-12,1.50904e-01,3.41754e-12,1.50904e-01,1.80247e-12,1.50904e-01
7.72961e+02,7.24000e+02,7.67000e+02,-4.30000e+01,2.80365e-12,1.58449e-01,3.04270e-12,1.58449e-01,2.45831e-13,1.58449e-01
7.73212e+02,7.60000e+02,7.34000e+02,2.60000e+01,2.10183e-12,1.65994e-01,1.69112e-12,1.65994e-01,8.48143e-13,1.65994e-01
7.73462e+02,7.70000e+02,7.47000e+02,2.30000e+01,7.31851e-13,1.73540e-01,1.49579e-12,1.73540e-01,9.49445e-13,1.73540e-01
7.73713e+02,7.45000e+02,7.75000e+02,-3.00000e+01,1.68166e-12,1.81085e-01,1.81200e-12,1.81085e-01,1.86469e-12,1.81085e-01
7.73963e+02,7.41000e+02,7.93000e+02,-5.20000e+01,2.15441e-12,1.88630e-01,2.59645e-12,1.88630e-01,2.96721e-12,1.88630e-01
7.74214e+02,7.45000e+02,7.89000e+02,-4.40000e+01,1.61050e-12,1.96175e-01,2.69367e-12,1.96175e-01,2.38877e-12,1.96175e-01
7.74465e+02,7.82000e+02,7.68000e+02,1.40000e+01,1.45227e-12,2.03720e-01,2.52391e-12,2.03720e-01,1.08699e-12,2.03720e-01
7.74715e+02,8.32000e+02,7.51000e+02,8.10000e+01,1.87257e-12,2.11266e-01,2.56681e-12,2.11266e-01,9.71819e-13,2.11266e-01
7.74965e+02,8.08000e+02,7.92000e+02,1.60000e+01,2.64387e-12,2.18811e-01,3.37982e-12,2.18811e-01,1.07363e-12,2.18811e-01
7.75216e+02,7.80000e+02,8.21000e+02,-4.10000e+01,2.41474e-12,2.26356e-01,2.57241e-12,2.26356e-01,8.46005e-13,2.26356e-01
7.75466e+02,7.77000e+02,8.16000e+02,-3.90000e+01,1.56235e-12,2.33901e-01,9.58982e-13,2.33901e-01,1.02611e-12,2.33901e-01
7.75717e+02,7.93000e+02,7.97000e+02,-4.00000e+00,8.49715e-13,2.41446e-01,1.17196e-12,2.41446e-01,2.02134e-12,2.41446e-01
7.75967e+02,8.13000e+02,8.03000e+02,1.00000e+01,1.30823e-12,2.48992e-01,2.28676e-12,2.48992e-01,3.28061e-12,2.48992e-01
7.76218e+02,8.38000e+02,8.14000e+02,2.40000e+01,1.42531e-12,2.56537e-01,2.50138e-12,2.56537e-01,3.61548e-12,2.56537e-01
7.76468e+02,8.21000e+02,8.52000e+02,-3.10000e+01,1.15073e-12,2.64082e-01,1.66910e-12,2.64082e-01,2.56274e-12,2.64082e-01
7.76719e+02,8.00000e+02,8.23000e+02,-2.30000e+01,6.14959e-13,2.71627e-01,1.80831e-12,2.71627e-01,1.70078e-12,2.71627e-01
7.76969e+02,8.07000e+02,8.08000e+02,-1.00000e+00,1.68409e-12,2.79172e-01,2.23417e-12,2.79172e-01,1.51213e-12,2.79172e-01
7.77219e+02,8.52000e+02,8.04000e+02,4.80000e+01,1.69465e-12,2.86718e-01,1.41235e-12,2.86718e-01,5.06408e-13,2.86718e-01
7.77470e+02,8.92000e+02,8.14000e+02,7.80000e+01,3.79470e-13,2.94263e-01,6.78004e-13,2.94263e-01,7.93295e-13,2.94263e-01
7.77720e+02,8.58000e+02,9.05000e+02,-4.70000e+01,8.88333e-13,3.01808e-01,1.14578e-12,3.01808e-01,1.95562e-12,3.01808e-01
7.77971e+02,8.60000e+02,9.76000e+02,-1.16000e+02,1.04632e-12,3.09353e-01,1.64790e-12,3.09353e-01,2.44783e-12,3.09353e-01
7.78221e+02,8.64000e+02,9.65000e+02,-1.01000e+02,1.23091e-12,3.16898e-01,1.69192e-12,3.16898e-01,1.75595e-12,3.16898e-01
7.78471e+02,9.26000e+02,8.81000e+02,4.50000e+01,2.81709e-12,3.24444e-01,2.02598e-12,3.24444e-01,2.09836e-12,3.24444e-01
7.78722e+02,9.95000e+02,8.77000e+02,1.18000e+02,3.85892e-12,3.31989e-01,2.23141e-12,3.31989e-01,2.67576e-12,3.31989e-01
7.78972e+02,9.32000e+02,9.24000e+02,8.00000e+00,3.82615e-12,3.39534e-01,1.63063e-12,3.39534e-01,2.63764e-12,3.39534e-01
7.79222e+02,9.28000e+02,1.02700e+03,-9.90000e+01,3.40430e-12,3.47079e-01,1.06949e-12,3.47079e-01,2.33484e-12,3.47079e-01
7.79473e+02,8.97000e+02,1.02500e+03,-1.28000e+02,3.10497e-12,3.54624e-01,1.47190e-12,3.54624e-01,1.66348e-12,3.54624e-01
7.79723e+02,9.43000e+02,9.34000e+02,9.00000e+00,2.23445e-12,3.62169e-01,1.96874e-12,3.62169e-01,1.84618e-12,3.62169e-01
7.79973e+02,1.04300e+03,9.42000e+02,1.01000e+02,2.12169e-12,3.69715e-01,2.85565e-12,3.69715e-01,4.09376e-12,3.69715e-01
7.80224e+02,1.03400e+03,1.00400e+03,3.00000e+01,2.26121e-12,3.77260e-01,3.21336e-12,3.77260e-01,5.23459e-12,3.77260e-01
7.80474e+02,9.70000e+02,1.06300e+03,-9.30000e+01,1.61284e-12,3.84805e-01,2.51288e-12,3.84805e-01,3.82573e-12,3.84805e-01
7.80724e+02,9.02000e+02,1.01800e+03,-1.16000e+02,1.79039e-12,3.92350e-01,1.83607e-12,3.92350e-01,3.35114e-12,3.92350e-01
7.80974e+02,9.24000e+02,9.87000e+02,-6.30000e+01,2.50256e-12,3.99895e-01,3.61578e-12,3.99895e-01,5.84749e-12,3.99895e-01
7.81225e+02,9.78000e+02,9.38000e+02,4.00000e+01,2.56749e-12,4.07441e-01,4.89971e-12,4.07441e-01,6.96770e-12,4.07441e-01
7.81475e+02,1.04100e+03,9.41000e+02,1.00000e+02,2.43287e-12,4.14986e-01,4.08880e-12,4.14986e-01,6.08027e-12,4.14986e-01
7.81725e+02,1.03700e+03,1.06000e+03,-2.30000e+01,1.49962e-12,4.22531e-01,1.53990e-12,4.22531e-01,3.00703e-12,4.22531e-01
7.81975e+02,9.29000e+02,1.10700e+03,-1.78000e+02,1.50182e-12,4.30076e-01,1.38035e-12,4.30076e-01,2.15514e-12,4.30076e-01
7.82226e+02,9.36000e+02,1.00600e+03,-7.00000e+01,4.58649e-12,4.37621e-01,5.48208e-12,4.37621e-01,9.66978e-12,4.37621e-01
7.82476e+02,1.02200e+03,9.91000e+02,3.10000e+01,8.83468e-12,4.45167e-01,1.08315e-11,4.45167e-01,1.87524e-11,4.45167e-01
7.82726e+02,1.14300e+03,1.01400e+03,1.29000e+02,1.25005e-11,4.52712e-01,1.34953e-11,4.52712e-01,2.46050e-11,4.52712e-01
7.82976e+02,1.08300e+03,1.08700e+03,-4.00000e+00,1.47714e-11,4.60257e-01,1.41976e-11,4.60257e-01,2.77435e-11,4.60257e-01
7.83226e+02,9.97000e+02,1.14400e+03,-1.47000e+02,1.51622e-11,4.67802e-01,1.36615e-11,4.67802e-01,2.77762e-11,4.67802e-01
7.83477e+02,1.00800e+03,1.15200e+03,-1.44000e+02,1.20854e-11,4.75347e-01,9.76077e-12,4.75347e-01,2.10312e-11,4.75347e-01
7.83727e+02,1.13600e+03,1.08000e+03,5.60000e+01,6.80160e-12,4.82893e-01,5.01582e-12,4.82893e-01,1.10131e-11,4.82893e-01
7.83977e+02,1.26900e+03,1.08500e+03,1.84000e+02,3.49032e-12,4.90438e-01,3.06000e-12,4.90438e-01,5.83529e-12,4.90438e-01
7.84227e+02,1.35600e+03,1.24500e+03,1.11000e+02,2.50366e-12,4.97983e-01,1.94604e-12,4.97983e-01,4.01299e-12,4.97983e-01
7.84477e+02,1.20700e+03,1.39600e+03,-1.89000e+02,2.36937e-12,5.05528e-01,1.44464e-12,5.05528e-01,3.12418e-12,5.05528e-01
7.84727e+02,1.09300e+03,1.44300e+03,-3.50000e+02,1.95839e-12,5.13073e-01,2.07395e-12,5.13073e-01,2.16432e-12,5.13073e-01
7.84978e+02,1.16400e+03,1.41600e+03,-2.52000e+02,5.59235e-13,5.20619e-01,3.07695e-12,5.20619e-01,3.08140e-12,5.20619e-01
7.85228e+02,1.37900e+03,1.28300e+03,9.60000e+01,2.43071e-13,5.28164e-01,3.42759e-12,5.28164e-01,3.64742e-12,5.28164e-01
7.85478e+02,1.48800e+03,1.21700e+03,2.71000e+02,7.52681e-13,5.35709e-01,3.24349e-12,5.35709e-01,3.76524e-12,5.35709e-01
7.85728e+02,1.37700e+03,1.30700e+03,7.00000e+01,1.15844e-12,5.43254e-01,2.41616e-12,5.43254e-01,3.46541e-12,5.43254e-01
7.85978e+02,1.24700e+03,1.41100e+03,-1.64000e+02,5.14213e-13,5.50799e-01,2.25228e-12,5.50799e-01,2.55751e-12,5.50799e-01
7.86228e+02,1.14300e+03,1.34200e+03,-1.99000e+02,1.18416e-12,5.58345e-01,2.95794e-12,5.58345e-01,2.52854e-12,5.58345e-01
7.86478e+02,1.24700e+03,1.29400e+03,-4.70000e+01,1.94513e-12,5.65890e-01,2.54315e-12,5.65890e-01,3.41839e-12,5.65890e-01
7.86728e+02,1.39700e+03,1.15900e+03,2.38000e+02,1.50926e-12,5.73435e-01,1.64830e-12,5.73435e-01,2.82650e-12,5.73435e-01
7.86978e+02,1.47600e+03,1.21300e+03,2.63000e+02,6.88413e-13,5.80980e-01,7.25024e-13,5.80980e-01,7.68290e-13,5.80980e-01
7.87228e+02,1.43600e+03,1.47800e+03,-4.20000e+01,1.78177e-12,5.88525e-01,3.26861e-13,5.88525e-01,2.00644e-12,5.88525e-01
7.87478e+02,1.31300e+03,1.63400e+03,-3.21000e+02,2.17632e-12,5.96071e-01,6.70035e-13,5.96071e-01,2.68359e-12,5.96071e-01
7.87728e+02,1.40000e+03,1.53300e+03,-1.33000e+02,1.18344e-12,6.03616e-01,1.27910e-12,6.03616e-01,2.04886e-12,6.03616e-01
7.87978e+02,1.69400e+03,1.33100e+03,3.63000e+02,4.63928e-13,6.11161e-01,1.51246e-12,6.11161e-01,1.11137e-12,6.11161e-01
7.88228e+02,1.68800e+03,1.33900e+03,3.49000e+02,1.79035e-12,6.18706e-01,1.39951e-12,6.18706e-01,8.40176e-13,6.18706e-01
7.88478e+02,1.69800e+03,1.56900e+03,1.29000e+02,2.23339e-12,6.26251e-01,1.58960e-12,6.26251e-01,6.43838e-13,6.26251e-01
7.88728e+02,1.54700e+03,1.77100e+03,-2.24000e+02,1.72038e-12,6.33797e-01,1.61516e-12,6.33797e-01,2.08161e-13,6.33797e-01
7.88978e+02,1.50600e+03,1.87900e+03,-3.73000e+02,7.60254e-13,6.41342e-01,1.06885e-12,6.41342e-01,4.80700e-13,6.41342e-01
7.89228e+02,1.57000e+03,1.59300e+03,-2.30000e+01,5.64593e-13,6.48887e-01,2.20794e-13,6.48887e-01,6.04172e-13,6.48887e-01
7.89478e+02,1.81700e+03,1.58500e+03,2.32000e+02,1.06891e-12,6.56432e-01,4.14417e-13,6.56432e-01,6.54680e-13,6.56432e-01
7.89728e+02,2.12200e+03,1.66200e+03,4.60000e+02,1.29870e-12,6.63977e-01,9.33338e-13,6.63977e-01,5.22712e-13,6.63977e-01
7.89978e+02,2.09600e+03,2.09800e+03,-2.00000e+00,1.26991e-12,6.71523e-01,1.45808e-12,6.71523e-01,2.02025e-13,6.71523e-01
7.90228e+02,1.81200e+03,2.33200e+03,-5.20000e+02,1.45393e-12,6.79068e-01,1.88441e-12,6.79068e-01,1.14090e-12,6.79068e-01
7.90478e+02,1.65200e+03,2.00200e+03,-3.50000e+02,1.45895e-12,6.86613e-01,1.93754e-12,6.86613e-01,1.73660e-12,6.86613e-01
7.90728e+02,1.89000e+03,1.68100e+03,2.09000e+02,9.37962e-13,6.94158e-01,1.89077e-12,6.94158e-01,1.89379e-12,6.94158e-01
7.90978e+02,2.18600e+03,1.71600e+03,4.70000e+02,6.61617e-13,7.01703e-01,1.19817e-12,7.01703e-01,1.74268e-12,7.01703e-01
7.91228e+02,2.26800e+03,2.04400e+03,2.24000e+02,9.86135e-13,7.09249e-01,1.13475e-12,7.09249e-01,1.97286e-12,7.09249e-01
7.91478e+02,2.12300e+03,2.52100e+03,-3.98000e+02,1.69119e-12,7.16794e-01,1.15381e-12,7.16794e-01,1.85470e-12,7.16794e-01
7.91728e+02,1.84300e+03,2.47800e+03,-6.35000e+02,1.85668e-12,7.24339e-01,6.95162e-13,7.24339e-01,1.49040e-12,7.24339e-01
7.91977e+02,1.97400e+03,2.02100e+03,-4.70000e+01,1.40897e-12,7.31884e-01,3.00040e-13,7.31884e-01,1.25546e-12,7.31884e-01
7.92227e+02,2.49800e+03,1.78900e+03,7.09000e+02,8.13160e-13,7.39429e-01,4.22154e-13,7.39429e-01,1.19128e-12,7.39429e-01
7.92477e+02,2.55200e+03,1.92400e+03,6.28000e+02,6.06284e-13,7.46975e-01,4.11059e-13,7.46975e-01,8.28652e-13,7.46975e-01
7.92727e+02,2.28500e+03,2.34900e+03,-6.40000e+01,4.74468e-13,7.54520e-01,2.78658e-13,7.54520e-01,2.03821e-13,7.54520e-01
7.92977e+02,1.90200e+03,2.63700e+03,-7.35000e+02,2.29699e-13,7.62065e-01,8.10641e-13,7.62065e-01,6.04809e-13,7.62065e-01
7.93227e+02,1.95800e+03,2.53300e+03,-5.75000e+02,5.70422e-13,7.69610e-01,8.95427e-13,7.69610e-01,4.58439e-13,7.69610e-01
7.93476e+02,2.68100e+03,2.21000e+03,4.71000e+02,5.45885e-13,7.77155e-01,8.35552e-13,7.77155e-01,3.72429e-13,7.77155e-01
7.93726e+02,3.28000e+03,2.02500e+03,1.25500e+03,2.71434e-13,7.84701e-01,6.78871e-13,7.84701e-01,5.44377e-13,7.84701e-01
7.93976e+02,2.99200e+03,2.41800e+03,5.74000e+02,3.33563e-13,7.92246e-01,5.77118e-13,7.92246e-01,8.61149e-13,7.92246e-01
7.94226e+02,2.41900e+03,2.96600e+03,-5.47000e+02,3.77789e-13,7.99791e-01,2.23421e-13,7.99791e-01,5.54902e-13,7.99791e-01
7.94476e+02,2.24100e+03,3.11400e+03,-8.73000e+02,3.29985e-13,8.07336e-01,5.15742e-13,8.07336e-01,8.36001e-13,8.07336e-01
7.94725e+02,2.41300e+03,2.67600e+03,-2.63000e+02,7.17593e-13,8.14881e-01,3.36736e-13,8.14881e-01,1.05284e-12,8.14881e-01
7.94975e+02,2.88100e+03,2.23500e+03,6.46000e+02,9.12842e-13,8.22427e-01,4.53420e-13,8.22427e-01,1.31629e-12,8.22427e-01
7.95225e+02,3.07800e+03,2.32700e+03,7.51000e+02,1.14497e-12,8.29972e-01,2.16031e-13,8.29972e-01,1.33073e-12,8.29972e-01
7.95475e+02,2.72500e+03,2.62000e+03,1.05000e+02,9.62057e-13,8.37517e-01,3.84218e-13,8.37517e-01,1.18278e-12,8.37517e-01
7.95724e+02,2.26600e+03,2.93100e+03,-6.65000e+02,5.22462e-13,8.45062e-01,5.80860e-13,8.45062e-01,1.09482e-12,8.45062e-01
7.95974e+02,2.41600e+03,2.79500e+03,-3.79000e+02,6.05484e-13,8.52607e-01,5.74758e-13,8.52607e-01,1.07021e-12,8.52607e-01
7.96224e+02,3.11400e+03,2.68800e+03,4.26000e+02,7.40212e-13,8.60153e-01,3.92506e-13,8.60153e-01,1.13170e-12,8.60153e-01
7.96474e+02,3.68500e+03,2.55400e+03,1.13100e+03,5.58116e-13,8.67698e-01,3.26345e-13,8.67698e-01,7.22605e-13,8.67698e-01
7.96723e+02,3.23400e+03,2.82600e+03,4.08000e+02,1.66193e-13,8.75243e-01,9.01501e-13,8.75243e-01,7.51337e-13,8.75243e-01
7.96973e+02,2.70700e+03,3.24800e+03,-5.41000e+02,1.33866e-13,8.82788e-01,8.04972e-13,8.82788e-01,8.54414e-13,8.82788e-01
7.97223e+02,2.63900e+03,3.06400e+03,-4.25000e+02,1.88927e-13,8.90333e-01,5.32925e-13,8.90333e-01,4.42163e-13,8.90333e-01
7.97472e+02,2.89600e+03,2.62000e+03,2.76000e+02,1.36104e-13,8.97879e-01,3.63613e-13,8.97879e-01,3.39406e-13,8.97879e-01
7.97722e+02,3.26900e+03,2.34100e+03,9.28000e+02,4.12370e-13,9.05424e-01,2.32282e-13,9.05424e-01,5.14535e-13,9.05424e-01
7.97972e+02,3.37700e+03,2.61100e+03,7.66000e+02,3.33677e-13,9.12969e-01,9.75142e-14,9.12969e-01,4.17449e-13,9.12969e-01
7.98221e+02,3.22400e+03,3.38700e+03,-1.63000e+02,3.23185e-13,9.20514e-01,2.00728e-13,9.20514e-01,4.77390e-13,9.20514e-01
7.98471e+02,2.83300e+03,4.02700e+03,-1.19400e+03,5.50134e-13,9.28059e-01,2.29243e-13,9.28059e-01,6.11556e-13,9.28059e-01
7.98721e+02,2.86400e+03,3.50100e+03,-6.37000e+02,7.32018e-13,9.35605e-01,5.05644e-13,9.35605e-01,5.20626e-13,9.35605e-01
7.98970e+02,3.80600e+03,3.01500e+03,7.91000e+02,6.05900e-13,9.43150e-01,6.75105e-13,9.43150e-01,4.31382e-13,9.43150e-01
7.99220e+02,4.82300e+03,3.35600e+03,1.46700e+03,3.39148e-13,9.50695e-01,6.63354e-13,9.50695e-01,3.70508e-13,9.50695e-01
7.99469e+02,4.66300e+03,4.47300e+03,1.90000e+02,1.68723e-13,9.58240e-01,3.76817e-13,9.58240e-01,2.16145e-13,9.58240e-01
7.99719e+02,3.91400e+03,5.36500e+03,-1.45100e+03,3.34899e-13,9.65785e-01,4.77669e-13,9.65785e-01,1.87230e-13,9.65785e-01
7.99969e+02,3.48200e+03,4.95300e+03,-1.47100e+03,4.10712e-13,9.73331e-01,4.94350e-13,9.73331e-01,3.54065e-13,9.73331e-01
8.00218e+02,3.93600e+03,3.62200e+03,3.14000e+02,2.77869e-13,9.80876e-01,4.56448e-13,9.80876e-01,3.50834e-13,9.80876e-01
8.00468e+02,5.50400e+03,3.26900e+03,2.23500e+03,1.95862e-13,9.88421e-01,4.29383e-13,9.88421e-01,2.52111e-13,9.88421e-01
8.00717e+02,5.93200e+03,4.08500e+03,1.84700e+03,3.24424e-13,9.95966e-01,3.99327e-13,9.95966e-01,8.56437e-14,9.95966e-01
8.00967e+02,4.39400e+03,4.31900e+03,7.50000e+01,9.66817e-14,1.00351e+00,5.54779e-13,1.00351e+00,5.58737e-13,1.00351e+00
8.01216e+02,3.46600e+03,4.78000e+03,-1.31400e+03,4.81505e-13,1.01106e+00,7.66087e-13,1.01106e+00,1.06156e-12,1.01106e+00
8.01466e+02,3.60400e+03,4.45300e+03,-8.49000e+02,7.37638e-13,1.01860e+00,6.83308e-13,1.01860e+00,1.15224e-12,1.01860e+00
8.01715e+02,4.83000e+03,3.81700e+03,1.01300e+03,7.18123e-13,1.02615e+00,8.16507e-13,1.02615e+00,1.24992e-12,1.02615e+00
8.01965e+02,5.19400e+03,3.74600e+03,1.44800e+03,4.06368e-13,1.03369e+00,9.34840e-13,1.03369e+00,1.31663e-12,1.03369e+00
8.02215e+02,4.55000e+03,4.33900e+03,2.11000e+02,5.05228e-13,1.04124e+00,9.19298e-13,1.04124e+00,1.17367e-12,1.04124e+00
8.02464e+02,3.92200e+03,5.07500e+03,-1.15300e+03,7.75588e-13,1.04878e+00,8.56628e-13,1.04878e+00,1.36954e-12,1.04878e+00
8.02713e+02,3.50400e+03,4.64000e+03,-1.13600e+03,7.01607e-13,1.05633e+00,6.00961e-13,1.05633e+00,1.08253e-12,1.05633e+00
8.02963e+02,3.79400e+03,3.58600e+03,2.08000e+02,3.11224e-13,1.06387e+00,1.88776e-13,1.06387e+00,4.39445e-13,1.06387e+00
8.03212e+02,4.28300e+03,3.15500e+03,1.12800e+03,1.59514e-13,1.07142e+00,5.72594e-13,1.07142e+00,6.37752e-13,1.07142e+00
8.03462e+02,4.91200e+03,3.72700e+03,1.18500e+03,3.57208e-13,1.07896e+00,8.78898e-13,1.07896e+00,7.06129e-13,1.07896e+00
8.03711e+02,4.48200e+03,4.56200e+03,-8.00000e+01,5.24841e-13,1.08651e+00,6.73744e-13,1.08651e+00,8.35646e-13,1.08651e+00
8.03961e+02,3.67500e+03,4.57000e+03,-8.95000e+02,4.45419e-13,1.09405e+00,4.06366e-13,1.09405e+00,8.51566e-13,1.09405e+00
8.04210e+02,3.84500e+03,4.15700e+03,-3.12000e+02,2.58921e-13,1.10160e+00,4.74836e-13,1.10160e+00,6.50338e-13,1.10160e+00
8.04460e+02,5.06600e+03,3.82200e+03,1.24400e+03,2.63185e-13,1.10914e+00,4.40584e-13,1.10914e+00,3.90914e-13,1.10914e+00
8.04709e+02,5.57800e+03,4.14200e+03,1.43600e+03,1.29921e-13,1.11669e+00,4.51662e-13,1.11669e+00,4.94301e-13,1.11669e+00
8.04958e+02,5.03000e+03,4.88200e+03,1.48000e+02,2.46673e-13,1.12423e+00,2.29182e-13,1.12423e+00,4.16927e-13,1.12423e+00
8.05208e+02,4.29800e+03,5.19000e+03,-8.92000e+02,3.44656e-13,1.13178e+00,2.98425e-14,1.13178e+00,3.36991e-13,1.13178e+00
8.05457e+02,4.52900e+03,5.32100e+03,-7.92000e+02,5.10005e-13,1.13932e+00,1.91065e-13,1.13932e+00,3.26411e-13,1.13932e+00
8.05707e+02,5.09700e+03,4.88800e+03,2.09000e+02,2.93590e-13,1.14687e+00,4.71318e-13,1.14687e+00,3.12304e-13,1.14687e+00
8.05956e+02,6.23900e+03,4.66100e+03,1.57800e+03,9.66467e-14,1.15442e+00,4.78045e-13,1.15442e+00,5.09597e-13,1.15442e+00
8.06205e+02,7.07400e+03,4.75400e+03,2.32000e+03,3.11431e-13,1.16196e+00,3.02242e-13,1.16196e+00,6.02802e-13,1.16196e+00
8.06455e+02,5.74800e+03,5.19100e+03,5.57000e+02,3.80324e-13,1.16951e+00,2.38516e-13,1.16951e+00,4.18569e-13,1.16951e+00
8.06704e+02,4.27700e+03,5.59800e+03,-1.32100e+03,2.24455e-13,1.17705e+00,1.64459e-13,1.17705e+00,7.74211e-14,1.17705e+00
8.06953e+02,4.09300e+03,4.81800e+03,-7.25000e+02,3.27852e-13,1.18460e+00,7.62854e-14,1.18460e+00,3.14884e-13,1.18460e+00
8.07203e+02,5.18500e+03,4.00700e+03,1.17800e+03,4.98607e-13,1.19214e+00,1.86683e-13,1.19214e+00,3.69519e-13,1.19214e+00
8.07452e+02,6.04100e+03,4.17600e+03,1.86500e+03,6.04187e-13,1.19969e+00,2.45964e-13,1.19969e+00,4.48901e-13,1.19969e+00
8.07701e+02,5.88400e+03,4.93300e+03,9.51000e+02,5.68283e-13,1.20723e+00,3.24011e-13,1.20723e+00,5.46067e-13,1.20723e+00
8.07951e+02,5.41600e+03,6.10300e+03,-6.87000e+02,3.64687e-13,1.21478e+00,1.61694e-13,1.21478e+00,4.66860e-13,1.21478e+00
8.08200e+02,4.92900e+03,6.78000e+03,-1.85100e+03,2.20605e-13,1.22232e+00,1.35563e-13,1.22232e+00,2.15246e-13,1.22232e+00
8.08449e+02,4.46100e+03,5.50200e+03,-1.04100e+03,2.56726e-13,1.22987e+00,4.57614e-13,1.22987e+00,2.09144e-13,1.22987e+00
8.08698e+02,4.99400e+03,4.44400e+03,5.50000e+02,4.42241e-13,1.23741e+00,5.70967e-13,1.23741e+00,2.18141e-13,1.23741e+00
8.08948e+02,5.93400e+03,4.06200e+03,1.87200e+03,5.23003e-13,1.24496e+00,4.05566e-13,1.24496e+00,2.78292e-13,1.24496e+00
8.09197e+02,5.82900e+03,4.60900e+03,1.22000e+03,3.30905e-13,1.25250e+00,2.94668e-13,1.25250e+00,4.01907e-13,1.25250e+00
8.09446e+02,4.50200e+03,5.50000e+03,-9.98000e+02,1.24426e-13,1.26005e+00,3.25486e-13,1.26005e+00,3.52302e-13,1.26005e+00
8.09695e+02,4.02300e+03,5.54600e+03,-1.52300e+03,1.72744e-13,1.26759e+00,2.20273e-13,1.26759e+00,3.79302e-13,1.26759e+00
8.09945e+02,5.13000e+03,5.25300e+03,-1.23000e+02,3.04925e-13,1.27514e+00,8.78487e-14,1.27514e+00,3.52783e-13,1.27514e+00
8.10194e+02,6.74000e+03,4.57900e+03,2.16100e+03,3.27191e-13,1.28268e+00,1.05180e-13,1.28268e+00,3.06836e-13,1.28268e+00
8.10443e+02,7.00200e+03,4.75700e+03,2.24500e+03,4.23820e-13,1.29023e+00,2.65411e-13,1.29023e+00,1.59249e-13,1.29023e+00
8.10692e+02,5.96300e+03,5.87300e+03,9.00000e+01,3.88968e-13,1.29777e+00,3.96575e-13,1.29777e+00,1.01857e-14,1.29777e+00
8.10941e+02,5.40600e+03,7.35200e+03,-1.94600e+03,3.48925e-13,1.30532e+00,3.07602e-13,1.30532e+00,1.14379e-13,1.30532e+00
8.11191e+02,5.58600e+03,7.56200e+03,-1.97600e+03,3.78436e-13,1.31286e+00,2.43586e-13,1.31286e+00,1.91842e-13,1.31286e+00
8.11440e+02,6.76600e+03,6.31800e+03,4.48000e+02,3.84164e-13,-1.32041e+00,2.63791e-13,-1.32041e+00,1.20374e-13,-1.32041e+00
8.11689e+02,8.45800e+03,5.15800e+03,3.30000e+03,3.78436e-13,-1.31286e+00,2.43586e-13,-1.31286e+00,1.91842e-13,-1.31286e+00
8.11938e+02,9.07000e+03,5.96000e+03,3.11000e+03,3.48925e-13,-1.30532e+00,3.07602e-13,-1.30532e+00,1.14379e-13,-1.30532e+00
8.12187e+02,7.52400e+03,8.16600e+03,-6.42000e+02,3.88968e-13,-1.29777e+00,3.96575e-13,-1.29777e+00,1.01857e-14,-1.29777e+00
8.12436e+02,5.59600e+03,9.48000e+03,-3.88400e+03,4.23820e-13,-1.29023e+00,2.65411e-13,-1.29023e+00,1.59249e-13,-1.29023e+00
8.12685e+02,4.94200e+03,7.44300e+03,-2.50100e+03,3.27191e-13,-1.28268e+00,1.05180e-13,-1.28268e+00,3.06836e-13,-1.28268e+00
8.12935e+02,5.68900e+03,5.16700e+03,5.22000e+02,3.04925e-13,-1.27514e+00,8.78487e-14,-1.27514e+00,3.52783e-13,-1.27514e+00
8.13184e+02,7.21000e+03,4.82700e+03,2.38300e+03,1.72744e-13,-1.26759e+00,2.20273e-13,-1.26759e+00,3.79302e-13,-1.26759e+00
8.13433e+02,7.88100e+03,5.71500e+03,2.16600e+03,1.24426e-13,-1.26005e+00,3.25486e-13,-1.26005e+00,3.52302e-13,-1.26005e+00
8.13682e+02,6.22700e+03,6.78500e+03,-5.58000e+02,3.30905e-13,-1.25250e+00,2.94668e-13,-1.25250e+00,4.01907e-13,-1.25250e+00
8.13931e+02,4.98500e+03,7.29800e+03,-2.31300e+03,5.23003e-13,-1.24496e+00,4.05566e-13,-1.24496e+00,2.78292e-13,-1.24496e+00
8.14180e+02,5.00900e+03,6.30600e+03,-1.29700e+03,4.42241e-13,-1.23741e+00,5.70967e-13,-1.23741e+00,2.18141e-13,-1.23741e+00
8.14429e+02,6.24600e+03,4.99400e+03,1.25200e+03,2.56726e-13,-1.22987e+00,4.57614e-13,-1.22987e+00,2.09144e-13,-1.22987e+00
8.14678e+02,6.79700e+03,4.32300e+03,2.47400e+03,2.20605e-13,-1.22232e+00,1.35563e-13,-1.22232e+00,2.15246e-13,-1.22232e+00
8.14927e+02,6.92000e+03,5.46900e+03,1.45100e+03,3.64687e-13,-1.21478e+00,1.61694e-13,-1.21478e+00,4.66860e-13,-1.21478e+00
8.15176e+02,5.82400e+03,6.80500e+03,-9.81000e+02,5.68283e-13,-1.20723e+00,3.24011e-13,-1.20723e+00,5.46067e-13,-1.20723e+00
8.15425e+02,5.09700e+03,6.70700e+03,-1.61000e+03,6.04187e-13,-1.19969e+00,2.45964e-13,-1.19969e+00,4.48901e-13,-1.19969e+00
8.15674e+02,5.16500e+03,5.93200e+03,-7.67000e+02,4.98607e-13,-1.19214e+00,1.86683e-13,-1.19214e+00,3.69519e-13,-1.19214e+00
8.15923e+02,6.31100e+03,5.18200e+03,1.12900e+03,3.27852e-13,-1.18460e+00,7.62854e-14,-1.18460e+00,3.14884e-13,-1.18460e+00
8.16172e+02,6.65400e+03,4.91500e+03,1.73900e+03,2.24455e-13,-1.17705e+00,1.64459e-13,-1.17705e+00,7.74211e-14,-1.17705e+00
8.16421e+02,5.68900e+03,4.90200e+03,7.87000e+02,3.80324e-13,-1.16951e+00,2.38516e-13,-1.16951e+00,4.18569e-13,-1.16951e+00
8.16670e+02,4.63600e+03,4.94800e+03,-3.12000e+02,3.11431e-13,-1.16196e+00,3.02242e-13,-1.16196e+00,6.02802e-13,-1.16196e+00
8.16919e+02,4.31600e+03,5.59000e+03,-1.27400e+03,9.66467e-14,-1.15442e+00,4.78045e-13,-1.15442e+00,5.09597e-13,-1.15442e+00
8.17168e+02,5.11600e+03,5.57200e+03,-4.56000e+02,2.93590e-13,-1.14687e+00,4.71318e-13,-1.14687e+00,3.12304e-13,-1.14687e+00
8.17417e+02,6.30000e+03,4.54000e+03,1.76000e+03,5.10005e-13,-1.13932e+00,1.91065e-13,-1.13932e+00,3.26411e-13,-1.13932e+00
8.17666e+02,6.06400e+03,4.69800e+03,1.36600e+03,3.44656e-13,-1.13178e+00,2.98425e-14,-1.13178e+00,3.36991e-13,-1.13178e+00
8.17915e+02,5.22300e+03,5.26200e+03,-3.90000e+01,2.46673e-13,-1.12423e+00,2.29182e-13,-1.12423e+00,4.16927e-13,-1.12423e+00
8.18164e+02,4.48300e+03,5.97800e+03,-1.49500e+03,1.29921e-13,-1.11669e+00,4.51662e-13,-1.11669e+00,4.94301e-13,-1.11669e+00
8.18413e+02,3.92100e+03,5.94600e+03,-2.02500e+03,2.63185e-13,-1.10914e+00,4.40584e-13,-1.10914e+00,3.90914e-13,-1.10914e+00
8.18662e+02,4.37400e+03,4.71500e+03,-3.41000e+02,2.58921e-13,-1.10160e+00,4.74836e-13,-1.10160e+00,6.50338e-13,-1.10160e+00
8.18911e+02,5.22200e+03,4.41100e+03,8.11000e+02,4.45419e-13,-1.09405e+00,4.06366e-13,-1.09405e+00,8.51566e-13,-1.09405e+00
8.19160e+02,5.58400e+03,4.66900e+03,9.15000e+02,5.24841e-13,-1.08651e+00,6.73744e-13,-1.08651e+00,8.35646e-13,-1.08651e+00
8.19408e+02,4.94800e+03,5.94900e+03,-1.00100e+03,3.57208e-13,-1.07896e+00,8.78898e-13,-1.07896e+00,7.06129e-13,-1.07896e+00
8.19657e+02,4.43200e+03,6.51300e+03,-2.08100e+03,1.59514e-13,-1.07142e+00,5.72594e-13,-1.07142e+00,6.37752e-13,-1.07142e+00
8.19906e+02,4.89100e+03,5.71600e+03,-8.25000e+02,3.11224e-13,-1.06387e+00,1.88776e-13,-1.06387e+00,4.39445e-13,-1.06387e+00
8.20155e+02,5.59900e+03,5.02700e+03,5.72000e+02,7.01607e-13,-1.05633e+00,6.00961e-13,-1.05633e+00,1.08253e-12,-1.05633e+00
8.20404e+02,6.68400e+03,4.63600e+03,2.04800e+03,7.75588e-13,-1.04878e+00,8.56628e-13,-1.04878e+00,1.36954e-12,-1.04878e+00
8.20653e+02,5.80400e+03,5.84400e+03,-4.00000e+01,5.05228e-13,-1.04124e+00,9.19298e-13,-1.04124e+00,1.17367e-12,-1.04124e+00
8.20901e+02,4.68800e+03,7.47200e+03,-2.78400e+03,4.06368e-13,-1.03369e+00,9.34840e-13,-1.03369e+00,1.31663e-12,-1.03369e+00
8.21150e+02,4.39000e+03,6.33200e+03,-1.94200e+03,7.18123e-13,-1.02615e+00,8.16507e-13,-1.02615e+00,1.24992e-12,-1.02615e+00
8.21399e+02,5.24500e+03,5.02400e+03,2.21000e+02,7.37638e-13,-1.01860e+00,6.83308e-13,-1.01860e+00,1.15224e-12,-1.01860e+00
8.21648e+02,6.12200e+03,4.07900e+03,2.04300e+03,4.81505e-13,-1.01106e+00,7.66087e-13,-1.01106e+00,1.06156e-12,-1.01106e+00
8.21897e+02,6.28600e+03,4.53200e+03,1.75400e+03,9.66817e-14,-1.00351e+00,5.54779e-13,-1.00351e+00,5.58737e-13,-1.00351e+00
8.22145e+02,5.35700e+03,5.21100e+03,1.46000e+02,3.24424e-13,-9.95966e-01,3.99327e-13,-9.95966e-01,8.56437e-14,-9.95966e-01
8.22394e+02,4.47200e+03,5.76500e+03,-1.29300e+03,1.95862e-13,-9.88421e-01,4.29383e-13,-9.88421e-01,2.52111e-13,-9.88421e-01
8.22643e+02,4.14100e+03,5.74900e+03,-1.60800e+03,2.77869e-13,-9.80876e-01,4.56448e-13,-9.80876e-01,3.50834e-13,-9.80876e-01
8.22892e+02,4.22400e+03,4.78600e+03,-5.62000e+02,4.10712e-13,-9.73331e-01,4.94350e-13,-9.73331e-01,3.54065e-13,-9.73331e-01
8.23140e+02,4.53600e+03,3.82500e+03,7.11000e+02,3.34899e-13,-9.65785e-01,4.77669e-13,-9.65785e-01,1.87230e-13,-9.65785e-01
8.23389e+02,4.66000e+03,3.57700e+03,1.08300e+03,1.68723e-13,-9.58240e-01,3.76817e-13,-9.58240e-01,2.16145e-13,-9.58240e-01
8.23638e+02,5.00200e+03,4.23000e+03,7.72000e+02,3.39148e-13,-9.50695e-01,6.63354e-13,-9.50695e-01,3.70508e-13,-9.50695e-01
8.23887e+02,3.85600e+03,4.62300e+03,-7.67000e+02,6.05900e-13,-9.43150e-01,6.75105e-13,-9.43150e-01,4.31382e-13,-9.43150e-01
8.24135e+02,3.28500e+03,4.49600e+03,-1.21100e+03,7.32018e-13,-9.35605e-01,5.05644e-13,-9.35605e-01,5.20626e-13,-9.35605e-01
8.24384e+02,3.68000e+03,3.98500e+03,-3.05000e+02,5.50134e-13,-9.28059e-01,2.29243e-13,-9.28059e-01,6.11556e-13,-9.28059e-01
8.24633e+02,4.17500e+03,3.18900e+03,9.86000e+02,3.23185e-13,-9.20514e-01,2.00728e-13,-9.20514e-01,4.77390e-13,-9.20514e-01
8.24881e+02,4.58900e+03,2.93800e+03,1.65100e+03,3.33677e-13,-9.12969e-01,9.75142e-14,-9.12969e-01,4.17449e-13,-9.12969e-01
8.25130e+02,3.94800e+03,3.60400e+03,3.44000e+02,4.12370e-13,-9.05424e-01,2.32282e-13,-9.05424e-01,5.14535e-13,-9.05424e-01
8.25379e+02,3.14500e+03,4.35500e+03,-1.21000e+03,1.36104e-13,-8.97879e-01,3.63613e-13,-8.97879e-01,3.39406e-13,-8.97879e-01
8.25627e+02,2.70200e+03,4.28600e+03,-1.58400e+03,1.88927e-13,-8.90333e-01,5.32925e-13,-8.90333e-01,4.42163e-13,-8.90333e-01
8.25876e+02,2.79300e+03,3.16900e+03,-3.76000e+02,1.33866e-13,-8.82788e-01,8.04972e-13,-8.82788e-01,8.54414e-13,-8.82788e-01
8.26125e+02,3.29000e+03,2.65200e+03,6.38000e+02,1.66193e-13,-8.75243e-01,9.01501e-13,-8.75243e-01,7.51337e-13,-8.75243e-01
8.26373e+02,3.17800e+03,2.69600e+03,4.82000e+02,5.58116e-13,-8.67698e-01,3.26345e-13,-8.67698e-01,7.22605e-13,-8.67698e-01
8.26622e+02,2.71800e+03,3.02800e+03,-3.10000e+02,7.40212e-13,-8.60153e-01,3.92506e-13,-8.60153e-01,1.13170e-12,-8.60153e-01
8.26870e+02,2.48900e+03,3.22400e+03,-7.35000e+02,6.05484e-13,-8.52607e-01,5.74758e-13,-8.52607e-01,1.07021e-12,-8.52607e-01
8.27119e+02,2.39600e+03,2.92400e+03,-5.28000e+02,5.22462e-13,-8.45062e-01,5.80860e-13,-8.45062e-01,1.09482e-12,-8.45062e-01
8.27368e+02,2.56100e+03,2.48700e+03,7.40000e+01,9.62057e-13,-8.37517e-01,3.84218e-13,-8.37517e-01,1.18278e-12,-8.37517e-01
8.27616e+02,2.83700e+03,2.35500e+03,4.82000e+02,1.14497e-12,-8.29972e-01,2.16031e-13,-8.29972e-01,1.33073e-12,-8.29972e-01
8.27865e+02,2.73900e+03,2.34000e+03,3.99000e+02,9.12842e-13,-8.22427e-01,4.53420e-13,-8.22427e-01,1.31629e-12,-8.22427e-01
8.28113e+02,2.67000e+03,2.68500e+03,-1.50000e+01,7.17593e-13,-8.14881e-01,3.36736e-13,-8.14881e-01,1.05284e-12,-8.14881e-01
8.28362e+02,2.34200e+03,2.98400e+03,-6.42000e+02,3.29985e-13,-8.07336e-01,5.15742e-13,-8.07336e-01,8.36001e-13,-8.07336e-01
8.28610e+02,2.30500e+03,2.85800e+03,-5.53000e+02,3.77789e-13,-7.99791e-01,2.23421e-13,-7.99791e-01,5.54902e-13,-7.99791e-01
8.28859e+02,2.54200e+03,2.44200e+03,1.00000e+02,3.33563e-13,-7.92246e-01,5.77118e-13,-7.92246e-01,8.61149e-13,-7.92246e-01
8.29108e+02,2.77500e+03,2.10800e+03,6.67000e+02,2.71434e-13,-7.84701e-01,6.78871e-13,-7.84701e-01,5.44377e-13,-7.84701e-01
8.29356e+02,2.74300e+03,2.16900e+03,5.74000e+02,5.45885e-13,-7.77155e-01,8.35552e-13,-7.77155e-01,3.72429e-13,-7.77155e-01
8.29605e+02,2.26600e+03,2.48300e+03,-2.17000e+02,5.70422e-13,-7.69610e-01,8.95427e-13,-7.69610e-01,4.58439e-13,-7.69610e-01
8.29853e+02,1.84500e+03,2.73700e+03,-8.92000e+02,2.29699e-13,-7.62065e-01,8.10641e-13,-7.62065e-01,6.04809e-13,-7.62065e-01
8.30101e+02,1.80800e+03,2.46900e+03,-6.61000e+02,4.74468e-13,-7.54520e-01,2.78658e-13,-7.54520e-01,2.03821e-13,-7.54520e-01
8.30350e+02,1.87200e+03,1.86200e+03,1.00000e+01,6.06284e-13,-7.46975e-01,4.11059e-13,-7.46975e-01,8.28652e-13,-7.46975e-01
8.30598e+02,1.87700e+03,1.55900e+03,3.18000e+02,8.13160e-13,-7.39429e-01,4.22154e-13,-7.39429e-01,1.19128e-12,-7.39429e-01
8.30847e+02,1.75900e+03,1.54700e+03,2.12000e+02,1.40897e-12,-7.31884e-01,3.00040e-13,-7.31884e-01,1.25546e-12,-7.31884e-01
8.31095e+02,1.57600e+03,1.73300e+03,-1.57000e+02,1.85668e-12,-7.24339e-01,6.95162e-13,-7.24339e-01,1.49040e-12,-7.24339e-01
8.31344e+02,1.48300e+03,1.74700e+03,-2.64000e+02,1.69119e-12,-7.16794e-01,1.15381e-12,-7.16794e-01,1.85470e-12,-7.16794e-01
8.31592e+02,1.41000e+03,1.68700e+03,-2.77000e+02,9.86135e-13,-7.09249e-01,1.13475e-12,-7.09249e-01,1.97286e-12,-7.09249e-01
8.31841e+02,1.47600e+03,1.38900e+03,8.70000e+01,6.61617e-13,-7.01703e-01,1.19817e-12,-7.01703e-01,1.74268e-12,-7.01703e-01
8.32089e+02,1.57100e+03,1.25700e+03,3.14000e+02,9.37962e-13,-6.94158e-01,1.89077e-12,-6.94158e-01,1.89379e-12,-6.94158e-01
8.32337e+02,1.54400e+03,1.23000e+03,3.14000e+02,1.45895e-12,-6.86613e-01,1.93754e-12,-6.86613e-01,1.73660e-12,-6.86613e-01
8.32586e+02,1.36200e+03,1.31600e+03,4.60000e+01,1.45393e-12,-6.79068e-01,1.88441e-12,-6.79068e-01,1.14090e-12,-6.79068e-01
8.32834e+02,1.22600e+03,1.43300e+03,-2.07000e+02,1.26991e-12,-6.71523e-01,1.45808e-12,-6.71523e-01,2.02025e-13,-6.71523e-01
8.33083e+02,1.13400e+03,1.42000e+03,-2.86000e+02,1.29870e-12,-6.63977e-01,9.33338e-13,-6.63977e-01,5.22712e-13,-6.63977e-01
8.33331e+02,1.22800e+03,1.28200e+03,-5.40000e+01,1.06891e-12,-6.56432e-01,4.14417e-13,-6.56432e-01,6.54680e-13,-6.56432e-01
8.33579e+02,1.30500e+03,1.13200e+03,1.73000e+02,5.64593e-13,-6.48887e-01,2.20794e-13,-6.48887e-01,6.04172e-13,-6.48887e-01
8.33828e+02,1.28600e+03,1.15800e+03,1.28000e+02,7.60254e-13,-6.41342e-01,1.06885e-12,-6.41342e-01,4.80700e-13,-6.41342e-01
8.34076e+02,1.17000e+03,1.17900e+03,-9.00000e+00,1.72038e-12,-6.33797e-01,1.61516e-12,-6.33797e-01,2.08161e-13,-6.33797e-01
8.34324e+02,1.05400e+03,1.20900e+03,-1.55000e+02,2.23339e-12,-6.26251e-01,1.58960e-12,-6.26251e-01,6.43838e-13,-6.26251e-01
8.34573e+02,9.96000e+02,1.19100e+03,-1.95000e+02,1.79035e-12,-6.18706e-01,1.39951e-12,-6.18706e-01,8.40176e-13,-6.18706e-01
8.34821e+02,1.04800e+03,1.10100e+03,-5.30000e+01,4.63928e-13,-6.11161e-01,1.51246e-12,-6.11161e-01,1.11137e-12,-6.11161e-01
8.35069e+02,1.11700e+03,1.03700e+03,8.00000e+01,1.18344e-12,-6.03616e-01,1.27910e-12,-6.03616e-01,2.04886e-12,-6.03616e-01
8.35318e+02,1.11400e+03,9.67000e+02,1.47000e+02,2.17632e-12,-5.96071e-01,6.70035e-13,-5.96071e-01,2.68359e-12,-5.96071e-01
8.35566e+02,1.01600e+03,1.01600e+03,0.00000e+00,1.78177e-12,-5.88525e-01,3.26861e-13,-5.88525e-01,2.00644e-12,-5.88525e-01
8.35814e+02,9.40000e+02,1.10900e+03,-1.69000e+02,6.88413e-13,-5.80980e-01,7.25024e-13,-5.80980e-01,7.68290e-13,-5.80980e-01
8.36062e+02,9.15000e+02,1.06500e+03,-1.50000e+02,1.50926e-12,-5.73435e-01,1.64830e-12,-5.73435e-01,2.82650e-12,-5.73435e-01
8.36311e+02,9.45000e+02,9.93000e+02,-4.80000e+01,1.94513e-12,-5.65890e-01,2.54315e-12,-5.65890e-01,3.41839e-12,-5.65890e-01
8.36559e+02,9.74000e+02,9.21000e+02,5.30000e+01,1.18416e-12,-5.58345e-01,2.95794e-12,-5.58345e-01,2.52854e-12,-5.58345e-01
8.36807e+02,9.78000e+02,8.81000e+02,9.70000e+01,5.14213e-13,-5.50799e-01,2.25228e-12,-5.50799e-01,2.55751e-12,-5.50799e-01
8.37055e+02,9.34000e+02,9.12000e+02,2.20000e+01,1.15844e-12,-5.43254e-01,2.41616e-12,-5.43254e-01,3.46541e-12,-5.43254e-01
8.37304e+02,8.52000e+02,9.63000e+02,-1.11000e+02,7.52681e-13,-5.35709e-01,3.24349e-12,-5.35709e-01,3.76524e-12,-5.35709e-01
8.37552e+02,8.36000e+02,9.56000e+02,-1.20000e+02,2.43071e-13,-5.28164e-01,3.42759e-12,-5.28164e-01,3.64742e-12,-5.28164e-01
8.37800e+02,8.43000e+02,8.83000e+02,-4.00000e+01,5.59235e-13,-5.20619e-01,3.07695e-12,-5.20619e-01,3.08140e-12,-5.20619e-01
8.38048e+02,8.79000e+02,8.09000e+02,7.00000e+01,1.95839e-12,-5.13073e-01,2.07395e-12,-5.13073e-01,2.16432e-12,-5.13073e-01
8.38296e+02,8.70000e+02,8.14000e+02,5.60000e+01,2.36937e-12,-5.05528e-01,1.44464e-12,-5.05528e-01,3.12418e-12,-5.05528e-01
8.38545e+02,8.11000e+02,8.28000e+02,-1.70000e+01,2.50366e-12,-4.97983e-01,1.94604e-12,-4.97983e-01,4.01299e-12,-4.97983e-01
8.38793e+02,7.84000e+02,8.19000e+02,-3.50000e+01,3.49032e-12,-4.90438e-01,3.06000e-12,-4.90438e-01,5.83529e-12,-4.90438e-01
8.39041e+02,7.70000e+02,7.95000e+02,-2.50000e+01,6.80160e-12,-4.82893e-01,5.01582e-12,-4.82893e-01,1.10131e-11,-4.82893e-01
8.39289e+02,7.80000e+02,7.81000e+02,-1.00000e+00,1.20854e-11,-4.75347e-01,9.76077e-12,-4.75347e-01,2.10312e-11,-4.75347e-01
8.39537e+02,7.79000e+02,7.47000e+02,3.20000e+01,1.51622e-11,-4.67802e-01,1.36615e-11,-4.67802e-01,2.77762e-11,-4.67802e-01
8.39785e+02,7.58000e+02,7.27000e+02,3.10000e+01,1.47714e-11,-4.60257e-01,1.41976e-11,-4.60257e-01,2.77435e-11,-4.60257e-01
8.40033e+02,7.39000e+02,7.37000e+02,2.00000e+00,1.25005e-11,-4.52712e-01,1.34953e-11,-4.52712e-01,2.46050e-11,-4.52712e-01
8.40281e+02,7.33000e+02,7.37000e+02,-4.00000e+00,8.83468e-12,-4.45167e-01,1.08315e-11,-4.45167e-01,1.87524e-11,-4.45167e-01
8.40530e+02,7.17000e+02,7.24000e+02,-7.00000e+00,4.58649e-12,-4.37621e-01,5.48208e-12,-4.37621e-01,9.66978e-12,-4.37621e-01
8.40778e+02,7.46000e+02,7.37000e+02,9.00000e+00,1.50182e-12,-4.30076e-01,1.38035e-12,-4.30076e-01,2.15514e-12,-4.30076e-01
8.41026e+02,7.55000e+02,7.17000e+02,3.80000e+01,1.49962e-12,-4.22531e-01,1.53990e-12,-4.22531e-01,3.00703e-12,-4.22531e-01
8.41274e+02,7.36000e+02,7.03000e+02,3.30000e+01,2.43287e-12,-4.14986e-01,4.08880e-12,-4.14986e-01,6.08027e-12,-4.14986e-01
8.41522e+02,7.30000e+02,7.56000e+02,-2.60000e+01,2.56749e-12,-4.07441e-01,4.89971e-12,-4.07441e-01,6.96770e-12,-4.07441e-01
8.41770e+02,7.18000e+02,7.27000e+02,-9.00000e+00,2.50256e-12,-3.99895e-01,3.61578e-12,-3.99895e-01,5.84749e-12,-3.99895e-01
8.42018e+02,7.17000e+02,7.32000e+02,-1.50000e+01,1.79039e-12,-3.92350e-01,1.83607e-12,-3.92350e-01,3.35114e-12,-3.92350e-01
8.42266e+02,7.24000e+02,7.13000e+02,1.10000e+01,1.61284e-12,-3.84805e-01,2.51288e-12,-3.84805e-01,3.82573e-12,-3.84805e-01
8.42514e+02,7.20000e+02,7.05000e+02,1.50000e+01,2.26121e-12,-3.77260e-01,3.21336e-12,-3.77260e-01,5.23459e-12,-3.77260e-01
8.42762e+02,7.25000e+02,7.08000e+02,1.70000e+01,2.12169e-12,-3.69715e-01,2.85565e-12,-3.69715e-01,4.09376e-12,-3.69715e-01
8.43010e+02,7.01000e+02,7.05000e+02,-4.00000e+00,2.23445e-12,-3.62169e-01,1.96874e-12,-3.62169e-01,1.84618e-12,-3.62169e-01
8.43258e+02,6.89000e+02,7.01000e+02,-1.20000e+01,3.10497e-12,-3.54624e-01,1.47190e-12,-3.54624e-01,1.66348e-12,-3.54624e-01
8.43506e+02,6.94000e+02,7.12000e+02,-1.80000e+01,3.40430e-12,-3.47079e-01,1.06949e-12,-3.47079e-01,2.33484e-12,-3.47079e-01
8.43754e+02,6.92000e+02,6.99000e+02,-7.00000e+00,3.82615e-12,-3.39534e-01,1.63063e-12,-3.39534e-01,2.63764e-12,-3.39534e-01
8.44002e+02,7.07000e+02,7.00000e+02,7.00000e+00,3.85892e-12,-3.31989e-01,2.23141e-12,-3.31989e-01,2.67576e-12,-3.31989e-01
8.44250e+02,7.04000e+02,6.96000e+02,8.00000e+00,2.81709e-12,-3.24444e-01,2.02598e-12,-3.24444e-01,2.09836e-12,-3.24444e-01
8.44498e+02,6.99000e+02,6.83000e+02,1.60000e+01,1.23091e-12,-3.16898e-01,1.69192e-12,-3.16898e-01,1.75595e-12,-3.16898e-01
8.44746e+02,6.91000e+02,6.90000e+02,1.00000e+00,1.04632e-12,-3.09353e-01,1.64790e-12,-3.09353e-01,2.44783e-12,-3.09353e-01
8.44994e+02,6.71000e+02,6.92000e+02,-2.10000e+01,8.88333e-13,-3.01808e-01,1.14578e-12,-3.01808e-01,1.95562e-12,-3.01808e-01
8.45242e+02,6.73000e+02,6.90000e+02,-1.70000e+01,3.79470e-13,-2.94263e-01,6.78004e-13,-2.94263e-01,7.93295e-13,-2.94263e-01
8.45490e+02,6.97000e+02,6.85000e+02,1.20000e+01,1.69465e-12,-2.86718e-01,1.41235e-12,-2.86718e-01,5.06408e-13,-2.86718e-01
8.45738e+02,6.81000e+02,6.71000e+02,1.00000e+01,1.68409e-12,-2.79172e-01,2.23417e-12,-2.79172e-01,1.51213e-12,-2.79172e-01
8.45985e+02,6.84000e+02,6.76000e+02,8.00000e+00,6.14959e-13,-2.71627e-01,1.80831e-12,-2.71627e-01,1.70078e-12,-2.71627e-01
8.46233e+02,6.76000e+02,6.68000e+02,8.00000e+00,1.15073e-12,-2.64082e-01,1.66910e-12,-2.64082e-01,2.56274e-12,-2.64082e-01
8.46481e+02,6.90000e+02,6.88000e+02,2.00000e+00,1.42531e-12,-2.56537e-01,2.50138e-12,-2.56537e-01,3.61548e-12,-2.56537e-01
8.46729e+02,6.86000e+02,6.82000e+02,4.00000e+00,1.30823e-12,-2.48992e-01,2.28676e-12,-2.48992e-01,3.28061e-12,-2.48992e-01
8.46977e+02,6.73000e+02,6.85000e+02,-1.20000e+01,8.49715e-13,-2.41446e-01,1.17196e-12,-2.41446e-01,2.02134e-12,-2.41446e-01
8.47225e+02,6.75000e+02,6.89000e+02,-1.40000e+01,1.56235e-12,-2.33901e-01,9.58982e-13,-2.33901e-01,1.02611e-12,-2.33901e-01
8.47473e+02,6.89000e+02,6.78000e+02,1.10000e+01,2.41474e-12,-2.26356e-01,2.57241e-12,-2.26356e-01,8.46005e-13,-2.26356e-01
8.47720e+02,6.65000e+02,6.70000e+02,-5.00000e+00,2.64387e-12,-2.18811e-01,3.37982e-12,-2.18811e-01,1.07363e-12,-2.18811e-01
8.47968e+02,6.68000e+02,6.83000e+02,-1.50000e+01,1.87257e-12,-2.11266e-01,2.56681e-12,-2.11266e-01,9.71819e-13,-2.11266e-01
8.48216e+02,6.68000e+02,6.80000e+02,-1.20000e+01,1.45227e-12,-2.03720e-01,2.52391e-12,-2.03720e-01,1.08699e-12,-2.03720e-01
8.48464e+02,6.74000e+02,6.72000e+02,2.00000e+00,1.61050e-12,-1.96175e-01,2.69367e-12,-1.96175e-01,2.38877e-12,-1.96175e-01
8.48712e+02,6.73000e+02,6.72000e+02,1.00000e+00,2.15441e-12,-1.88630e-01,2.59645e-12,-1.88630e-01,2.96721e-12,-1.88630e-01
8.48960e+02,6.70000e+02,6.73000e+02,-3.00000e+00,1.68166e-12,-1.81085e-01,1.81200e-12,-1.81085e-01,1.86469e-12,-1.81085e-01
8.49207e+02,6.96000e+02,6.74000e+02,2.20000e+01,7.31851e-13,-1.73540e-01,1.49579e-12,-1.73540e-01,9.49445e-13,-1.73540e-01
8.49455e+02,6.72000e+02,6.76000e+02,-4.00000e+00,2.10183e-12,-1.65994e-01,1.69112e-12,-1.65994e-01,8.48143e-13,-1.65994e-01
8.49703e+02,6.72000e+02,6.62000e+02,1.00000e+01,2.80365e-12,-1.58449e-01,3.04270e-12,-1.58449e-01,2.45831e-13,-1.58449e-01
8.49951e+02,6.79000e+02,6.71000e+02,8.00000e+00,2.65977e-12,-1.50904e-01,3.41754e-12,-1.50904e-01,1.80247e-12,-1.50904e-01
8.50198e+02,6.91000e+02,6.70000e+02,2.10000e+01,3.27730e-12,-1.43359e-01,2.70830e-12,-1.43359e-01,2.17417e-12,-1.43359e-01
8.50446e+02,6.68000e+02,6.70000e+02,-2.00000e+00,3.81963e-12,-1.35814e-01,2.00304e-12,-1.35814e-01,1.81670e-12,-1.35814e-01
8.50694e+02,6.59000e+02,6.56000e+02,3.00000e+00,4.78104e-12,-1.28268e-01,2.81019e-12,-1.28268e-01,1.99980e-12,-1.28268e-01
8.50941e+02,6.84000e+02,6.80000e+02,4.00000e+00,5.73131e-12,-1.20723e-01,3.56092e-12,-1.20723e-01,2.44130e-12,-1.20723e-01
8.51189e+02,6.77000e+02,6.65000e+02,1.20000e+01,5.15008e-12,-1.13178e-01,4.19629e-12,-1.13178e-01,2.49646e-12,-1.13178e-01
8.51437e+02,6.75000e+02,6.68000e+02,7.00000e+00,2.94209e-12,-1.05633e-01,3.45840e-12,-1.05633e-01,1.42529e-12,-1.05633e-01
8.51685e+02,6.63000e+02,6.56000e+02,7.00000e+00,3.72269e-12,-9.80876e-02,4.90998e-12,-9.80876e-02,1.45289e-12,-9.80876e-02
8.51932e+02,6.60000e+02,6.70000e+02,-1.00000e+01,5.47367e-12,-9.05424e-02,5.91187e-12,-9.05424e-02,1.68514e-12,-9.05424e-02
8.52180e+02,6.70000e+02,6.77000e+02,-7.00000e+00,4.93000e-12,-8.29972e-02,5.04162e-12,-8.29972e-02,1.82012e-12,-8.29972e-02
8.52428e+02,6.62000e+02,6.56000e+02,6.00000e+00,4.43613e-12,-7.54520e-02,5.24354e-12,-7.54520e-02,2.31253e-12,-7.54520e-02
8.52675e+02,6.56000e+02,6.51000e+02,5.00000e+00,6.43740e-12,-6.79068e-02,7.43606e-12,-6.79068e-02,2.18985e-12,-6.79068e-02
8.52923e+02,6.74000e+02,6.92000e+02,-1.80000e+01,6.84565e-12,-6.03616e-02,7.28991e-12,-6.03616e-02,1.16223e-12,-6.03616e-02
8.53170e+02,6.72000e+02,6.84000e+02,-1.20000e+01,5.62744e-12,-5.28164e-02,5.51885e-12,-5.28164e-02,7.06431e-13,-5.28164e-02
8.53418e+02,6.77000e+02,6.63000e+02,1.40000e+01,3.43379e-12,-4.52712e-02,3.09727e-12,-4.52712e-02,3.61991e-13,-4.52712e-02
8.53666e+02,6.71000e+02,6.67000e+02,4.00000e+00,6.76561e-13,-3.77260e-02,2.26341e-13,-3.77260e-02,8.76395e-13,-3.77260e-02
8.53913e+02,6.84000e+02,6.89000e+02,-5.00000e+00,3.49477e-12,-3.01808e-02,4.85275e-12,-3.01808e-02,1.36003e-12,-3.01808e-02
8.54161e+02,6.71000e+02,6.66000e+02,5.00000e+00,1.22499e-11,-2.26356e-02,1.38711e-11,-2.26356e-02,2.67389e-12,-2.26356e-02
8.54409e+02,6.75000e+02,6.71000e+02,4.00000e+00,4.83242e-11,-1.50904e-02,4.71974e-11,-1.50904e-02,4.66253e-12,-1.50904e-02
8.54656e+02,6.61000e+02,6.80000e+02,-1.90000e+01,1.33827e-10,-7.54520e-03,1.31122e-10,-7.54520e-03,4.10697e-12,-7.54520e-03
