7.67698e+02,6.31000e+02,6.32000e+02,-1.00000e+00,3.86330e-10,0.00000e+00,3.86544e-10,0.00000e+00,2.14135e-13,0.00000e+00
7.67949e+02,6.62000e+02,6.58000e+02,4.00000e+00,2.28223e-10,7.54520e-03,2.27928e-10,7.54520e-03,2.75523e-12,7.54520e-03
7.68199e+02,6.11000e+02,6.10000e+02,1.00000e+00,7.91000e-11,1.50904e-02,7.62214e-11,1.50904e-02,2.95694e-12,1.50904e-02
7.68450e+02,6.25000e+02,6.53000e+02,-2.80000e+01,1.47876e-11,2.26356e-02,1.00219e-11,2.26356e-02,4.92001e-12,2.26356e-02
7.68701e+02,6.26000e+02,6.57000e+02,-3.10000e+01,1.57987e-12,3.01808e-02,5.15204e-12,3.01808e-02,3.71374e-12,3.01808e-02
7.68951e+02,6.21000e+02,6.39000e+02,-1.80000e+01,2.70771e-12,3.77260e-02,3.99226e-12,3.77260e-02,4.99484e-12,3.77260e-02
7.69202e+02,6.21000e+02,6.46000e+02,-2.50000e+01,4.01764e-12,4.52712e-02,4.28085e-12,4.52712e-02,2.38640e-12,4.52712e-02
7.69453e+02,6.31000e+02,6.51000e+02,-2.00000e+01,5.29971e-12,5.28164e-02,1.31829e-11,5.28164e-02,7.93123e-12,5.28164e-02
7.69703e+02,6.41000e+02,6.42000e+02,-1.00000e+00,7.72871e-13,6.03616e-02,1.56077e-11,6.03616e-02,1.54111e-11,6.03616e-02
7.69954e+02,6.16000e+02,6.54000e+02,-3.80000e+01,3.67094e-12,6.79068e-02,5.71943e-12,6.79068e-02,7.39292e-12,6.79068e-02
7.70205e+02,6.11000e+02,6.25000e+02,-1.40000e+01,1.03784e-11,7.54520e-02,8.09982e-12,7.54520e-02,1.79896e-11,7.54520e-02
7.70455e+02,6.61000e+02,6.68000e+02,-7.00000e+00,4.90209e-11,8.29972e-02,5.17798e-11,8.29972e-02,9.90991e-11,8.29972e-02
7.70706e+02,6.30000e+02,6.22000e+02,8.00000e+00,1.20340e-10,9.05424e-02,1.24378e-10,9.05424e-02,2.40556e-10,9.05424e-02
7.70957e+02,6.45000e+02,6.41000e+02,4.00000e+00,1.31497e-10,9.80876e-02,1.31146e-10,9.80876e-02,2.58643e-10,9.80876e-02
7.71207e+02,6.57000e+02,6.23000e+02,3.40000e+01,7.09480e-11,1.05633e-01,6.67199e-11,1.05633e-01,1.35289e-10,1.05633e-01
7.71458e+02,6.71000e+02,6.30000e+02,4.10000e+01,1.74650e-11,1.13178e-01,1.10618e-11,1.13178e-01,2.76162e-11,1.13178e-01
7.71708e+02,6.74000e+02,6.27000e+02,4.70000e+01,1.85117e-12,1.20723e-01,8.91337e-12,1.20723e-01,1.06979e-11,1.20723e-01
7.71959e+02,7.19000e+02,6.29000e+02,9.00000e+01,4.30017e-12,1.28268e-01,9.57752e-12,1.28268e-01,1.38656e-11,1.28268e-01
7.72210e+02,6.92000e+02,6.19000e+02,7.30000e+01,2.92412e-12,1.35814e-01,4.83880e-12,1.35814e-01,7.45732e-12,1.35814e-01
7.72460e+02,7.35000e+02,6.34000e+02,1.01000e+02,2.50002e-12,1.43359e-01,8.69330e-12,1.43359e-01,1.11932e-11,1.43359e-01
7.72711e+02,7.22000e+02,6.14000e+02,1.08000e+02,3.63787e-12,1.50904e-01,1.02525e-11,1.50904e-01,1.23236e-11,1.50904e-01
7.72961e+02,7.89000e+02,6.62000e+02,1.27000e+02,3.72526e-12,1.58449e-01,5.82862e-12,1.58449e-01,9.19134e-12,1.58449e-01
7.73212e+02,7.12000e+02,6.13000e+02,9.90000e+01,4.16575e-12,1.65994e-01,5.37746e-12,1.65994e-01,4.17773e-12,1.65994e-01
7.73462e+02,7.52000e+02,6.46000e+02,1.06000e+02,6.72332e-12,1.73540e-01,9.21641e-12,1.73540e-01,3.07165e-12,1.73540e-01
7.73713e+02,7.16000e+02,6.52000e+02,6.40000e+01,7.79674e-12,1.81085e-01,9.18150e-12,1.81085e-01,2.54177e-12,1.81085e-01
7.73963e+02,7.31000e+02,6.50000e+02,8.10000e+01,7.97155e-12,1.88630e-01,7.40270e-12,1.88630e-01,3.30540e-12,1.88630e-01
7.74214e+02,7.04000e+02,6.69000e+02,3.50000e+01,7.67650e-12,1.96175e-01,6.13649e-12,1.96175e-01,3.96300e-12,1.96175e-01
7.74465e+02,6.94000e+02,7.19000e+02,-2.50000e+01,5.31631e-12,2.03720e-01,5.16335e-12,2.03720e-01,2.44586e-12,2.03720e-01
7.74715e+02,6.68000e+02,7.19000e+02,-5.10000e+01,4.09610e-12,2.11266e-01,4.36204e-12,2.11266e-01,3.06780e-12,2.11266e-01
7.74965e+02,6.77000e+02,7.57000e+02,-8.00000e+01,2.83683e-12,2.18811e-01,1.94050e-12,2.18811e-01,1.94598e-12,2.18811e-01
7.75216e+02,6.65000e+02,7.64000e+02,-9.90000e+01,7.16122e-14,2.26356e-01,6.29858e-13,2.26356e-01,6.26808e-13,2.26356e-01
7.75466e+02,6.72000e+02,8.49000e+02,-1.77000e+02,1.03330e-12,2.33901e-01,2.63961e-12,2.33901e-01,1.64703e-12,2.33901e-01
7.75717e+02,6.21000e+02,7.76000e+02,-1.55000e+02,1.77552e-12,2.41446e-01,5.57259e-12,2.41446e-01,5.87945e-12,2.41446e-01
7.75967e+02,6.17000e+02,8.68000e+02,-2.51000e+02,2.46836e-12,2.48992e-01,4.72455e-12,2.48992e-01,5.33205e-12,2.48992e-01
7.76218e+02,6.34000e+02,8.70000e+02,-2.36000e+02,7.86653e-13,2.56537e-01,2.32762e-12,2.56537e-01,3.01609e-12,2.56537e-01
7.76468e+02,6.27000e+02,8.91000e+02,-2.64000e+02,4.42932e-12,2.64082e-01,4.54609e-12,2.64082e-01,8.22654e-12,2.64082e-01
7.76719e+02,6.21000e+02,8.81000e+02,-2.60000e+02,5.63730e-12,2.71627e-01,4.94436e-12,2.71627e-01,9.55755e-12,2.71627e-01
7.76969e+02,6.30000e+02,8.82000e+02,-2.52000e+02,4.33012e-12,2.79172e-01,3.51926e-12,2.79172e-01,7.82960e-12,2.79172e-01
7.77219e+02,6.27000e+02,8.80000e+02,-2.53000e+02,2.30399e-12,2.86718e-01,2.83451e-12,2.86718e-01,4.51262e-12,2.86718e-01
7.77470e+02,6.53000e+02,9.62000e+02,-3.09000e+02,9.96274e-13,2.94263e-01,3.11548e-12,2.94263e-01,2.92967e-12,2.94263e-01
7.77720e+02,6.71000e+02,8.58000e+02,-1.87000e+02,3.02295e-12,3.01808e-01,3.31210e-12,3.01808e-01,3.41565e-12,3.01808e-01
7.77971e+02,7.46000e+02,8.64000e+02,-1.18000e+02,5.12895e-12,3.09353e-01,3.20487e-12,3.09353e-01,4.53618e-12,3.09353e-01
7.78221e+02,7.30000e+02,7.40000e+02,-1.00000e+01,3.46143e-12,3.16898e-01,2.21908e-12,3.16898e-01,1.64328e-12,3.16898e-01
7.78471e+02,8.42000e+02,7.25000e+02,1.17000e+02,1.81092e-12,3.24444e-01,2.13118e-12,3.24444e-01,1.09709e-12,3.24444e-01
7.78722e+02,8.79000e+02,6.70000e+02,2.09000e+02,7.37102e-13,3.31989e-01,1.21374e-12,3.31989e-01,4.81998e-13,3.31989e-01
7.78972e+02,1.05900e+03,6.62000e+02,3.97000e+02,4.09527e-13,3.39534e-01,2.59787e-12,3.39534e-01,2.20520e-12,3.39534e-01
7.79222e+02,1.20400e+03,6.62000e+02,5.42000e+02,1.36638e-12,3.47079e-01,4.38945e-12,3.47079e-01,3.02866e-12,3.47079e-01
7.79473e+02,1.36800e+03,6.34000e+02,7.34000e+02,2.45975e-12,3.54624e-01,4.21397e-12,3.54624e-01,1.78774e-12,3.54624e-01
7.79723e+02,1.41100e+03,6.44000e+02,7.67000e+02,4.23691e-12,3.62169e-01,4.41878e-12,3.62169e-01,1.65178e-12,3.62169e-01
7.79973e+02,1.56800e+03,6.45000e+02,9.23000e+02,4.16239e-12,3.69715e-01,3.70662e-12,3.69715e-01,1.30878e-12,3.69715e-01
7.80224e+02,1.57100e+03,6.57000e+02,9.14000e+02,1.91701e-12,3.77260e-01,1.98546e-12,3.77260e-01,1.44674e-12,3.77260e-01
7.80474e+02,1.69000e+03,7.22000e+02,9.68000e+02,9.18956e-13,3.84805e-01,1.60503e-12,3.84805e-01,2.42485e-12,3.84805e-01
7.80724e+02,1.45600e+03,7.05000e+02,7.51000e+02,8.42830e-13,3.92350e-01,1.44698e-12,3.92350e-01,1.90353e-12,3.92350e-01
7.80974e+02,1.51300e+03,8.54000e+02,6.59000e+02,7.09491e-13,3.99895e-01,6.00588e-13,3.99895e-01,1.25670e-12,3.99895e-01
7.81225e+02,1.53900e+03,1.00400e+03,5.35000e+02,4.84208e-13,4.07441e-01,1.34424e-12,4.07441e-01,1.10615e-12,4.07441e-01
7.81475e+02,1.64300e+03,1.26000e+03,3.83000e+02,4.46044e-13,4.14986e-01,8.67252e-13,4.14986e-01,8.26600e-13,4.14986e-01
7.81725e+02,1.40400e+03,1.38600e+03,1.80000e+01,4.97508e-13,4.22531e-01,6.33026e-13,4.22531e-01,1.40725e-13,4.22531e-01
7.81975e+02,1.34100e+03,1.70100e+03,-3.60000e+02,1.20423e-12,4.30076e-01,1.41696e-12,4.30076e-01,5.91327e-13,4.30076e-01
7.82226e+02,1.05200e+03,1.81200e+03,-7.60000e+02,1.23346e-12,4.37621e-01,1.71649e-12,4.37621e-01,4.87732e-13,4.37621e-01
7.82476e+02,9.56000e+02,1.97800e+03,-1.02200e+03,1.03546e-12,4.45167e-01,1.72867e-12,4.45167e-01,1.30641e-12,4.45167e-01
7.82726e+02,7.91000e+02,2.02300e+03,-1.23200e+03,2.15129e-12,4.52712e-01,1.43744e-12,4.52712e-01,2.60194e-12,4.52712e-01
7.82976e+02,7.66000e+02,2.06100e+03,-1.29500e+03,2.76475e-12,4.60257e-01,1.39771e-12,4.60257e-01,3.31790e-12,4.60257e-01
7.83226e+02,6.56000e+02,1.93600e+03,-1.28000e+03,1.95000e-12,4.67802e-01,1.64945e-12,4.67802e-01,1.63058e-12,4.67802e-01
7.83477e+02,6.53000e+02,2.16100e+03,-1.50800e+03,2.13012e-12,4.75347e-01,1.66893e-12,4.75347e-01,1.57102e-12,4.75347e-01
7.83727e+02,6.58000e+02,2.10300e+03,-1.44500e+03,1.59748e-12,4.82893e-01,2.31670e-12,4.82893e-01,3.31050e-12,4.82893e-01
7.83977e+02,6.89000e+02,2.24200e+03,-1.55300e+03,5.73203e-13,4.90438e-01,2.26759e-12,4.90438e-01,2.82985e-12,4.90438e-01
7.84227e+02,6.95000e+02,2.16600e+03,-1.47100e+03,1.34362e-12,4.97983e-01,1.28646e-12,4.97983e-01,1.82444e-12,4.97983e-01
7.84477e+02,8.48000e+02,2.21600e+03,-1.36800e+03,1.71503e-12,5.05528e-01,1.54116e-12,5.05528e-01,1.65361e-12,5.05528e-01
7.84727e+02,9.64000e+02,1.88300e+03,-9.19000e+02,1.38917e-12,5.13073e-01,1.86044e-12,5.13073e-01,2.19280e-12,5.13073e-01
7.84978e+02,1.32100e+03,1.83500e+03,-5.14000e+02,5.74398e-13,5.20619e-01,1.86600e-12,5.20619e-01,2.36878e-12,5.20619e-01
7.85228e+02,1.69100e+03,1.63800e+03,5.30000e+01,2.19197e-12,5.28164e-01,2.14541e-12,5.28164e-01,1.48124e-12,5.28164e-01
7.85478e+02,2.23100e+03,1.49300e+03,7.38000e+02,3.38284e-12,5.35709e-01,1.27787e-12,5.35709e-01,2.37212e-12,5.35709e-01
7.85728e+02,2.72100e+03,1.19200e+03,1.52900e+03,3.04707e-12,5.43254e-01,8.18758e-13,5.43254e-01,3.29260e-12,5.43254e-01
7.85978e+02,3.04200e+03,9.85000e+02,2.05700e+03,1.76858e-12,5.50799e-01,1.19924e-12,5.50799e-01,2.80629e-12,5.50799e-01
7.86228e+02,3.18800e+03,7.55000e+02,2.43300e+03,7.50457e-13,5.58345e-01,9.04431e-13,5.58345e-01,1.64443e-12,5.58345e-01
7.86478e+02,3.46900e+03,6.97000e+02,2.77200e+03,1.40175e-12,5.65890e-01,1.76013e-13,5.65890e-01,1.27086e-12,5.65890e-01
7.86728e+02,3.60400e+03,6.58000e+02,2.94600e+03,1.53393e-12,5.73435e-01,8.04318e-13,5.73435e-01,7.79812e-13,5.73435e-01
7.86978e+02,3.63200e+03,6.91000e+02,2.94100e+03,1.51049e-12,5.80980e-01,1.57180e-12,5.80980e-01,2.54628e-13,5.80980e-01
7.87228e+02,3.85800e+03,7.46000e+02,3.11200e+03,1.62900e-12,5.88525e-01,1.95003e-12,5.88525e-01,8.66705e-13,5.88525e-01
7.87478e+02,3.83300e+03,9.81000e+02,2.85200e+03,1.77036e-12,5.96071e-01,1.99189e-12,5.96071e-01,1.17716e-12,5.96071e-01
7.87728e+02,3.68200e+03,1.22200e+03,2.46000e+03,1.12239e-12,6.03616e-01,1.80190e-12,6.03616e-01,7.92988e-13,6.03616e-01
7.87978e+02,3.95300e+03,1.68700e+03,2.26600e+03,9.06848e-13,6.11161e-01,1.27455e-12,6.11161e-01,8.09083e-13,6.11161e-01
7.88228e+02,3.72400e+03,1.92500e+03,1.79900e+03,1.15907e-12,6.18706e-01,5.80440e-13,6.18706e-01,1.22502e-12,6.18706e-01
7.88478e+02,3.74000e+03,2.44000e+03,1.30000e+03,1.43394e-12,6.26251e-01,4.49210e-13,6.26251e-01,1.33445e-12,6.26251e-01
7.88728e+02,3.63400e+03,2.90300e+03,7.31000e+02,2.26199e-12,6.33797e-01,1.10609e-12,6.33797e-01,1.17267e-12,6.33797e-01
7.88978e+02,3.09300e+03,3.28000e+03,-1.87000e+02,2.33902e-12,6.41342e-01,1.84827e-12,6.41342e-01,8.40889e-13,6.41342e-01
7.89228e+02,2.79800e+03,3.93800e+03,-1.14000e+03,1.96104e-12,6.48887e-01,2.33902e-12,6.48887e-01,7.55897e-13,6.48887e-01
7.89478e+02,2.55600e+03,4.60000e+03,-2.04400e+03,1.23470e-12,6.56432e-01,1.63500e-12,6.56432e-01,5.35329e-13,6.56432e-01
7.89728e+02,2.08800e+03,4.91200e+03,-2.82400e+03,1.36164e-12,6.63977e-01,1.02800e-12,6.63977e-01,1.30721e-12,6.63977e-01
7.89978e+02,1.73600e+03,5.23900e+03,-3.50300e+03,1.32533e-12,6.71523e-01,1.06622e-12,6.71523e-01,1.64581e-12,6.71523e-01
7.90228e+02,1.27400e+03,5.26700e+03,-3.99300e+03,1.27795e-12,6.79068e-01,6.24490e-13,6.79068e-01,1.20353e-12,6.79068e-01
7.90478e+02,1.03000e+03,5.56000e+03,-4.53000e+03,8.03969e-13,6.86613e-01,4.65149e-13,6.86613e-01,5.60764e-13,6.86613e-01
7.90728e+02,7.96000e+02,5.71100e+03,-4.91500e+03,9.10640e-13,6.94158e-01,1.40475e-12,6.94158e-01,5.07672e-13,6.94158e-01
7.90978e+02,8.02000e+02,6.03900e+03,-5.23700e+03,1.43300e-12,7.01703e-01,1.65488e-12,7.01703e-01,3.07525e-13,7.01703e-01
7.91228e+02,8.40000e+02,5.84800e+03,-5.00800e+03,1.14669e-12,7.09249e-01,1.18356e-12,7.09249e-01,5.80504e-13,7.09249e-01
7.91478e+02,1.09600e+03,5.24000e+03,-4.14400e+03,9.44658e-13,7.16794e-01,7.08586e-13,7.16794e-01,6.41803e-13,7.16794e-01
7.91728e+02,1.29100e+03,4.38300e+03,-3.09200e+03,8.23493e-13,7.24339e-01,7.39568e-13,7.24339e-01,9.58880e-13,7.24339e-01
7.91977e+02,1.70800e+03,3.89300e+03,-2.18500e+03,8.23108e-13,7.31884e-01,9.30692e-13,7.31884e-01,1.60842e-12,7.31884e-01
7.92227e+02,2.09100e+03,3.17200e+03,-1.08100e+03,9.36411e-13,7.39429e-01,5.19945e-13,7.39429e-01,1.44858e-12,7.39429e-01
7.92477e+02,2.98600e+03,3.05100e+03,-6.50000e+01,9.75015e-13,7.46975e-01,2.33438e-13,7.46975e-01,9.99386e-13,7.46975e-01
7.92727e+02,3.79500e+03,2.82900e+03,9.66000e+02,4.91068e-13,7.54520e-01,6.74045e-14,7.54520e-01,4.67394e-13,7.54520e-01
7.92977e+02,4.50800e+03,2.37200e+03,2.13600e+03,4.10731e-13,7.62065e-01,7.75531e-13,7.62065e-01,4.71272e-13,7.62065e-01
7.93227e+02,4.69900e+03,1.62200e+03,3.07700e+03,9.04569e-13,7.69610e-01,1.52657e-12,7.69610e-01,7.50027e-13,7.69610e-01
7.93476e+02,5.27600e+03,1.30500e+03,3.97100e+03,1.21002e-12,7.77155e-01,1.13416e-12,7.77155e-01,4.57682e-13,7.77155e-01
7.93726e+02,6.09600e+03,1.02800e+03,5.06800e+03,1.32785e-12,7.84701e-01,3.89441e-13,7.84701e-01,9.99075e-13,7.84701e-01
7.93976e+02,7.20300e+03,9.62000e+02,6.24100e+03,1.50245e-12,7.92246e-01,6.53890e-13,7.92246e-01,1.27050e-12,7.92246e-01
7.94226e+02,7.81200e+03,9.04000e+02,6.90800e+03,1.23776e-12,7.99791e-01,3.59700e-13,7.99791e-01,1.56032e-12,7.99791e-01
7.94476e+02,8.30000e+03,1.17600e+03,7.12400e+03,7.92727e-13,8.07336e-01,3.76542e-13,8.07336e-01,9.50676e-13,8.07336e-01
7.94725e+02,7.65300e+03,1.44800e+03,6.20500e+03,1.20631e-12,8.14881e-01,3.24052e-13,8.14881e-01,9.13711e-13,8.14881e-01
7.94975e+02,7.59800e+03,2.06500e+03,5.53300e+03,1.79304e-12,8.22427e-01,5.92100e-13,8.22427e-01,1.29246e-12,8.22427e-01
7.95225e+02,7.27500e+03,2.72800e+03,4.54700e+03,2.06384e-12,8.29972e-01,9.28705e-13,8.29972e-01,1.16068e-12,8.29972e-01
7.95475e+02,7.01200e+03,3.45100e+03,3.56100e+03,2.11970e-12,8.37517e-01,1.04959e-12,8.37517e-01,1.74624e-12,8.37517e-01
7.95724e+02,6.20600e+03,4.20700e+03,1.99900e+03,1.14757e-12,8.45062e-01,1.23707e-12,8.45062e-01,1.72859e-12,8.45062e-01
7.95974e+02,5.57200e+03,5.18400e+03,3.88000e+02,9.90823e-14,8.52607e-01,1.12236e-12,8.52607e-01,1.15058e-12,8.52607e-01
7.96224e+02,4.92000e+03,6.03800e+03,-1.11800e+03,1.07169e-13,8.60153e-01,6.42561e-13,8.60153e-01,7.40887e-13,8.60153e-01
7.96474e+02,4.42000e+03,7.34900e+03,-2.92900e+03,4.70843e-13,8.67698e-01,9.56636e-13,8.67698e-01,6.72414e-13,8.67698e-01
7.96723e+02,3.36300e+03,7.67600e+03,-4.31300e+03,5.72607e-13,8.75243e-01,6.36461e-13,8.75243e-01,2.18957e-13,8.75243e-01
7.96973e+02,2.58600e+03,8.00500e+03,-5.41900e+03,5.97371e-13,8.82788e-01,3.49268e-13,8.82788e-01,3.86166e-13,8.82788e-01
7.97223e+02,2.02600e+03,9.12800e+03,-7.10200e+03,8.68576e-13,8.90333e-01,1.84494e-13,8.90333e-01,7.32659e-13,8.90333e-01
7.97472e+02,1.57600e+03,9.30100e+03,-7.72500e+03,9.92628e-13,8.97879e-01,4.65844e-13,8.97879e-01,1.30274e-12,8.97879e-01
7.97722e+02,1.22900e+03,1.04150e+04,-9.18600e+03,3.74494e-13,9.05424e-01,9.14153e-13,9.05424e-01,9.53641e-13,9.05424e-01
7.97972e+02,1.22900e+03,1.07130e+04,-9.48400e+03,9.73035e-13,9.12969e-01,8.93452e-13,9.12969e-01,1.16988e-13,9.12969e-01
7.98221e+02,1.35200e+03,1.02860e+04,-8.93400e+03,1.04893e-12,9.20514e-01,6.49978e-13,9.20514e-01,6.01420e-13,9.20514e-01
7.98471e+02,1.92900e+03,9.59100e+03,-7.66200e+03,1.42245e-12,9.28059e-01,6.21348e-13,9.28059e-01,8.39304e-13,9.28059e-01
7.98721e+02,2.85800e+03,9.02800e+03,-6.17000e+03,1.53815e-12,9.35605e-01,8.48488e-13,9.35605e-01,6.91295e-13,9.35605e-01
7.98970e+02,4.35800e+03,8.61100e+03,-4.25300e+03,7.25149e-13,9.43150e-01,8.24122e-13,9.43150e-01,4.83093e-13,9.43150e-01
7.99220e+02,5.65400e+03,7.19500e+03,-1.54100e+03,7.17520e-13,9.50695e-01,1.02122e-12,9.50695e-01,3.12032e-13,9.50695e-01
7.99469e+02,6.46900e+03,5.41700e+03,1.05200e+03,7.12403e-13,9.58240e-01,8.13661e-13,9.58240e-01,1.79481e-13,9.58240e-01
7.99719e+02,7.38400e+03,3.94300e+03,3.44100e+03,2.73197e-13,9.65785e-01,5.35268e-13,9.65785e-01,3.01391e-13,9.65785e-01
7.99969e+02,8.46900e+03,2.82500e+03,5.64400e+03,3.19130e-13,9.73331e-01,5.65898e-13,9.73331e-01,7.98107e-13,9.73331e-01
8.00218e+02,9.93600e+03,2.06400e+03,7.87200e+03,3.24736e-13,9.80876e-01,2.78920e-13,9.80876e-01,4.60448e-13,9.80876e-01
8.00468e+02,1.11710e+04,1.60600e+03,9.56500e+03,8.84062e-13,9.88421e-01,6.95147e-13,9.88421e-01,4.27757e-13,9.88421e-01
8.00717e+02,1.15330e+04,1.26300e+03,1.02700e+04,8.46342e-13,9.95966e-01,1.51615e-12,9.95966e-01,1.15229e-12,9.95966e-01
8.00967e+02,1.20400e+04,1.35500e+03,1.06850e+04,3.19108e-13,1.00351e+00,1.42378e-12,1.00351e+00,1.69396e-12,1.00351e+00
8.01216e+02,1.32920e+04,1.75300e+03,1.15390e+04,7.63019e-13,1.01106e+00,8.77481e-13,1.01106e+00,1.62171e-12,1.01106e+00
8.01466e+02,1.39650e+04,2.44800e+03,1.15170e+04,7.40231e-13,1.01860e+00,9.59808e-13,1.01860e+00,1.41613e-12,1.01860e+00
8.01715e+02,1.37440e+04,3.51200e+03,1.02320e+04,2.30851e-13,1.02615e+00,1.11340e-12,1.02615e+00,1.31894e-12,1.02615e+00
8.01965e+02,1.27770e+04,4.83600e+03,7.94100e+03,2.31834e-13,1.03369e+00,5.70228e-13,1.03369e+00,8.01905e-13,1.03369e+00
8.02215e+02,1.16800e+04,6.06900e+03,5.61100e+03,9.60290e-14,1.04124e+00,4.28281e-13,1.04124e+00,5.23223e-13,1.04124e+00
8.02464e+02,1.08730e+04,7.89300e+03,2.98000e+03,5.85370e-13,1.04878e+00,7.06412e-13,1.04878e+00,1.22537e-12,1.04878e+00
8.02713e+02,9.94800e+03,9.69700e+03,2.51000e+02,5.98815e-13,1.05633e+00,5.40854e-13,1.05633e+00,1.09560e-12,1.05633e+00
8.02963e+02,8.55900e+03,1.18440e+04,-3.28500e+03,7.51374e-13,1.06387e+00,4.83026e-13,1.06387e+00,5.61775e-13,1.06387e+00
8.03212e+02,7.28400e+03,1.37800e+04,-6.49600e+03,8.72545e-13,1.07142e+00,4.82996e-13,1.07142e+00,3.95950e-13,1.07142e+00
8.03462e+02,5.89000e+03,1.50210e+04,-9.13100e+03,7.96496e-13,1.07896e+00,3.83462e-14,1.07896e+00,8.14583e-13,1.07896e+00
8.03711e+02,4.28100e+03,1.53520e+04,-1.10710e+04,5.59158e-13,1.08651e+00,7.28555e-13,1.08651e+00,1.10780e-12,1.08651e+00
8.03961e+02,2.82100e+03,1.48500e+04,-1.20290e+04,6.23694e-13,1.09405e+00,1.00409e-12,1.09405e+00,8.68988e-13,1.09405e+00
8.04210e+02,1.88600e+03,1.38520e+04,-1.19660e+04,5.98598e-13,1.10160e+00,4.58593e-13,1.10160e+00,2.43409e-13,1.10160e+00
8.04460e+02,1.37900e+03,1.40450e+04,-1.26660e+04,7.41291e-13,1.10914e+00,3.57599e-13,1.10914e+00,8.36151e-13,1.10914e+00
8.04709e+02,1.39800e+03,1.45590e+04,-1.31610e+04,6.56669e-13,1.11669e+00,4.45009e-13,1.11669e+00,9.46174e-13,1.11669e+00
8.04958e+02,1.81900e+03,1.39500e+04,-1.21310e+04,2.81910e-13,1.12423e+00,3.10335e-13,1.12423e+00,5.92017e-13,1.12423e+00
8.05208e+02,2.52200e+03,1.30790e+04,-1.05570e+04,2.45126e-13,1.13178e+00,7.43354e-14,1.13178e+00,2.18631e-13,1.13178e+00
8.05457e+02,3.46600e+03,1.11520e+04,-7.68600e+03,3.70226e-13,1.13932e+00,6.23610e-13,1.13932e+00,3.94929e-13,1.13932e+00
8.05707e+02,4.97100e+03,1.04680e+04,-5.49700e+03,4.68638e-13,1.14687e+00,7.01155e-13,1.14687e+00,2.54336e-13,1.14687e+00
8.05956e+02,6.64200e+03,9.33300e+03,-2.69100e+03,6.09345e-13,1.15442e+00,4.87617e-13,1.15442e+00,3.91504e-13,1.15442e+00
8.06205e+02,7.92600e+03,7.19200e+03,7.34000e+02,6.07842e-13,1.16196e+00,4.75850e-13,1.16196e+00,9.17935e-13,1.16196e+00
8.06455e+02,1.00110e+04,5.44200e+03,4.56900e+03,3.97330e-13,1.16951e+00,6.56110e-13,1.16951e+00,9.31205e-13,1.16951e+00
8.06704e+02,1.18540e+04,4.35200e+03,7.50200e+03,1.86770e-13,1.17705e+00,4.31286e-13,1.17705e+00,6.14761e-13,1.17705e+00
8.06953e+02,1.36440e+04,3.24800e+03,1.03960e+04,1.27326e-13,1.18460e+00,3.25339e-13,1.18460e+00,2.53625e-13,1.18460e+00
8.07203e+02,1.36230e+04,2.19300e+03,1.14300e+04,3.44576e-13,1.19214e+00,4.59746e-13,1.19214e+00,1.24429e-13,1.19214e+00
8.07452e+02,1.46410e+04,1.67100e+03,1.29700e+04,5.73056e-13,1.19969e+00,6.36355e-13,1.19969e+00,1.04840e-13,1.19969e+00
8.07701e+02,1.53570e+04,1.39800e+03,1.39590e+04,6.67064e-13,1.20723e+00,6.09970e-13,1.20723e+00,6.62536e-14,1.20723e+00
8.07951e+02,1.54180e+04,1.71600e+03,1.37020e+04,6.07098e-13,1.21478e+00,2.50600e-13,1.21478e+00,4.01382e-13,1.21478e+00
8.08200e+02,1.50300e+04,2.10600e+03,1.29240e+04,3.29199e-13,1.22232e+00,8.26783e-14,1.22232e+00,4.00914e-13,1.22232e+00
8.08449e+02,1.49780e+04,3.19800e+03,1.17800e+04,1.59946e-13,1.22987e+00,2.09674e-13,1.22987e+00,7.57077e-14,1.22987e+00
8.08698e+02,1.53270e+04,4.83000e+03,1.04970e+04,1.38931e-13,1.23741e+00,5.53380e-13,1.23741e+00,4.20243e-13,1.23741e+00
8.08948e+02,1.54510e+04,6.63200e+03,8.81900e+03,5.72983e-13,1.24496e+00,6.74381e-13,1.24496e+00,9.44835e-13,1.24496e+00
8.09197e+02,1.51170e+04,8.33600e+03,6.78100e+03,7.76403e-13,1.25250e+00,3.97429e-13,1.25250e+00,1.16123e-12,1.25250e+00
8.09446e+02,1.31100e+04,9.37200e+03,3.73800e+03,9.22684e-13,1.26005e+00,2.09659e-13,1.26005e+00,7.13053e-13,1.26005e+00
8.09695e+02,1.11340e+04,1.15710e+04,-4.37000e+02,6.38921e-13,1.26759e+00,5.20363e-13,1.26759e+00,3.36095e-13,1.26759e+00
8.09945e+02,1.01010e+04,1.36550e+04,-3.55400e+03,3.08290e-13,1.27514e+00,5.64590e-13,1.27514e+00,8.46297e-13,1.27514e+00
8.10194e+02,8.55200e+03,1.46160e+04,-6.06400e+03,5.66434e-13,1.28268e+00,5.76498e-13,1.28268e+00,8.66824e-13,1.28268e+00
8.10443e+02,6.49700e+03,1.51800e+04,-8.68300e+03,5.01188e-13,1.29023e+00,6.68084e-13,1.29023e+00,6.45044e-13,1.29023e+00
8.10692e+02,4.78600e+03,1.56200e+04,-1.08340e+04,3.27775e-13,1.29777e+00,8.35582e-13,1.29777e+00,1.09686e-12,1.29777e+00
8.10941e+02,3.36400e+03,1.57780e+04,-1.24140e+04,6.80483e-13,1.30532e+00,7.63959e-13,1.30532e+00,1.22774e-12,1.30532e+00
8.11191e+02,2.37400e+03,1.56920e+04,-1.33180e+04,6.47007e-13,1.31286e+00,3.85357e-13,1.31286e+00,8.78875e-13,1.31286e+00
8.11440e+02,1.86100e+03,1.58470e+04,-1.39860e+04,1.30744e-12,-1.32041e+00,1.93240e-12,-1.32041e+00,6.24956e-13,-1.32041e+00
8.11689e+02,1.68500e+03,1.58540e+04,-1.41690e+04,6.47007e-13,-1.31286e+00,3.85357e-13,-1.31286e+00,8.78875e-13,-1.31286e+00
8.11938e+02,2.07000e+03,1.58880e+04,-1.38180e+04,6.80483e-13,-1.30532e+00,7.63959e-13,-1.30532e+00,1.22774e-12,-1.30532e+00
8.12187e+02,2.85400e+03,1.58610e+04,-1.30070e+04,3.27775e-13,-1.29777e+00,8.35582e-13,-1.29777e+00,1.09686e-12,-1.29777e+00
8.12436e+02,3.79900e+03,1.53120e+04,-1.15130e+04,5.01188e-13,-1.29023e+00,6.68084e-13,-1.29023e+00,6.45044e-13,-1.29023e+00
8.12685e+02,5.39900e+03,1.30300e+04,-7.63100e+03,5.66434e-13,-1.28268e+00,5.76498e-13,-1.28268e+00,8.66824e-13,-1.28268e+00
8.12935e+02,7.09800e+03,1.09390e+04,-3.84100e+03,3.08290e-13,-1.27514e+00,5.64590e-13,-1.27514e+00,8.46297e-13,-1.27514e+00
8.13184e+02,9.02000e+03,8.82500e+03,1.95000e+02,6.38921e-13,-1.26759e+00,5.20363e-13,-1.26759e+00,3.36095e-13,-1.26759e+00
8.13433e+02,1.08440e+04,7.14100e+03,3.70300e+03,9.22684e-13,-1.26005e+00,2.09659e-13,-1.26005e+00,7.13053e-13,-1.26005e+00
8.13682e+02,1.29950e+04,5.83600e+03,7.15900e+03,7.76403e-13,-1.25250e+00,3.97429e-13,-1.25250e+00,1.16123e-12,-1.25250e+00
8.13931e+02,1.47680e+04,4.42600e+03,1.03420e+04,5.72983e-13,-1.24496e+00,6.74381e-13,-1.24496e+00,9.44835e-13,-1.24496e+00
8.14180e+02,1.48820e+04,2.99900e+03,1.18830e+04,1.38931e-13,-1.23741e+00,5.53380e-13,-1.23741e+00,4.20243e-13,-1.23741e+00
8.14429e+02,1.53600e+04,2.21400e+03,1.31460e+04,1.59946e-13,-1.22987e+00,2.09674e-13,-1.22987e+00,7.57077e-14,-1.22987e+00
8.14678e+02,1.56740e+04,1.73000e+03,1.39440e+04,3.29199e-13,-1.22232e+00,8.26783e-14,-1.22232e+00,4.00914e-13,-1.22232e+00
8.14927e+02,1.55140e+04,1.66000e+03,1.38540e+04,6.07098e-13,-1.21478e+00,2.50600e-13,-1.21478e+00,4.01382e-13,-1.21478e+00
8.15176e+02,1.53940e+04,2.10800e+03,1.32860e+04,6.67064e-13,-1.20723e+00,6.09970e-13,-1.20723e+00,6.62536e-14,-1.20723e+00
8.15425e+02,1.49460e+04,2.85800e+03,1.20880e+04,5.73056e-13,-1.19969e+00,6.36355e-13,-1.19969e+00,1.04840e-13,-1.19969e+00
8.15674e+02,1.49350e+04,4.05700e+03,1.08780e+04,3.44576e-13,-1.19214e+00,4.59746e-13,-1.19214e+00,1.24429e-13,-1.19214e+00
8.15923e+02,1.52180e+04,6.19300e+03,9.02500e+03,1.27326e-13,-1.18460e+00,3.25339e-13,-1.18460e+00,2.53625e-13,-1.18460e+00
8.16172e+02,1.45740e+04,7.80800e+03,6.76600e+03,1.86770e-13,-1.17705e+00,4.31286e-13,-1.17705e+00,6.14761e-13,-1.17705e+00
8.16421e+02,1.16600e+04,8.81600e+03,2.84400e+03,3.97330e-13,-1.16951e+00,6.56110e-13,-1.16951e+00,9.31205e-13,-1.16951e+00
8.16670e+02,8.90100e+03,9.74600e+03,-8.45000e+02,6.07842e-13,-1.16196e+00,4.75850e-13,-1.16196e+00,9.17935e-13,-1.16196e+00
8.16919e+02,7.84700e+03,1.19990e+04,-4.15200e+03,6.09345e-13,-1.15442e+00,4.87617e-13,-1.15442e+00,3.91504e-13,-1.15442e+00
8.17168e+02,6.16300e+03,1.22100e+04,-6.04700e+03,4.68638e-13,-1.14687e+00,7.01155e-13,-1.14687e+00,2.54336e-13,-1.14687e+00
8.17417e+02,4.73200e+03,1.27720e+04,-8.04000e+03,3.70226e-13,-1.13932e+00,6.23610e-13,-1.13932e+00,3.94929e-13,-1.13932e+00
8.17666e+02,3.70500e+03,1.38970e+04,-1.01920e+04,2.45126e-13,-1.13178e+00,7.43354e-14,-1.13178e+00,2.18631e-13,-1.13178e+00
8.17915e+02,2.72900e+03,1.41690e+04,-1.14400e+04,2.81910e-13,-1.12423e+00,3.10335e-13,-1.12423e+00,5.92017e-13,-1.12423e+00
8.18164e+02,1.85100e+03,1.34220e+04,-1.15710e+04,6.56669e-13,-1.11669e+00,4.45009e-13,-1.11669e+00,9.46174e-13,-1.11669e+00
8.18413e+02,1.46300e+03,1.27820e+04,-1.13190e+04,7.41291e-13,-1.10914e+00,3.57599e-13,-1.10914e+00,8.36151e-13,-1.10914e+00
8.18662e+02,1.41700e+03,1.11800e+04,-9.76300e+03,5.98598e-13,-1.10160e+00,4.58593e-13,-1.10160e+00,2.43409e-13,-1.10160e+00
8.18911e+02,1.78700e+03,1.12360e+04,-9.44900e+03,6.23694e-13,-1.09405e+00,1.00409e-12,-1.09405e+00,8.68988e-13,-1.09405e+00
8.19160e+02,2.26300e+03,9.96300e+03,-7.70000e+03,5.59158e-13,-1.08651e+00,7.28555e-13,-1.08651e+00,1.10780e-12,-1.08651e+00
8.19408e+02,3.03100e+03,9.07400e+03,-6.04300e+03,7.96496e-13,-1.07896e+00,3.83462e-14,-1.07896e+00,8.14583e-13,-1.07896e+00
8.19657e+02,4.30400e+03,8.71500e+03,-4.41100e+03,8.72545e-13,-1.07142e+00,4.82996e-13,-1.07142e+00,3.95950e-13,-1.07142e+00
8.19906e+02,6.07700e+03,8.00800e+03,-1.93100e+03,7.51374e-13,-1.06387e+00,4.83026e-13,-1.06387e+00,5.61775e-13,-1.06387e+00
8.20155e+02,7.53100e+03,6.91800e+03,6.13000e+02,5.98815e-13,-1.05633e+00,5.40854e-13,-1.05633e+00,1.09560e-12,-1.05633e+00
8.20404e+02,8.15200e+03,5.16300e+03,2.98900e+03,5.85370e-13,-1.04878e+00,7.06412e-13,-1.04878e+00,1.22537e-12,-1.04878e+00
8.20653e+02,8.65800e+03,3.38500e+03,5.27300e+03,9.60290e-14,-1.04124e+00,4.28281e-13,-1.04124e+00,5.23223e-13,-1.04124e+00
8.20901e+02,9.88900e+03,2.57300e+03,7.31600e+03,2.31834e-13,-1.03369e+00,5.70228e-13,-1.03369e+00,8.01905e-13,-1.03369e+00
8.21150e+02,1.15400e+04,1.90200e+03,9.63800e+03,2.30851e-13,-1.02615e+00,1.11340e-12,-1.02615e+00,1.31894e-12,-1.02615e+00
8.21399e+02,1.04800e+04,1.42600e+03,9.05400e+03,7.40231e-13,-1.01860e+00,9.59808e-13,-1.01860e+00,1.41613e-12,-1.01860e+00
8.21648e+02,1.13790e+04,1.22600e+03,1.01530e+04,7.63019e-13,-1.01106e+00,8.77481e-13,-1.01106e+00,1.62171e-12,-1.01106e+00
8.21897e+02,1.14790e+04,1.44100e+03,1.00380e+04,3.19108e-13,-1.00351e+00,1.42378e-12,-1.00351e+00,1.69396e-12,-1.00351e+00
8.22145e+02,1.02330e+04,1.67100e+03,8.56200e+03,8.46342e-13,-9.95966e-01,1.51615e-12,-9.95966e-01,1.15229e-12,-9.95966e-01
8.22394e+02,1.01720e+04,2.38900e+03,7.78300e+03,8.84062e-13,-9.88421e-01,6.95147e-13,-9.88421e-01,4.27757e-13,-9.88421e-01
8.22643e+02,1.01100e+04,3.22800e+03,6.88200e+03,3.24736e-13,-9.80876e-01,2.78920e-13,-9.80876e-01,4.60448e-13,-9.80876e-01
8.22892e+02,9.09200e+03,4.23000e+03,4.86200e+03,3.19130e-13,-9.73331e-01,5.65898e-13,-9.73331e-01,7.98107e-13,-9.73331e-01
8.23140e+02,8.39800e+03,5.23400e+03,3.16400e+03,2.73197e-13,-9.65785e-01,5.35268e-13,-9.65785e-01,3.01391e-13,-9.65785e-01
8.23389e+02,7.51600e+03,6.44000e+03,1.07600e+03,7.12403e-13,-9.58240e-01,8.13661e-13,-9.58240e-01,1.79481e-13,-9.58240e-01
8.23638e+02,6.25900e+03,7.49400e+03,-1.23500e+03,7.17520e-13,-9.50695e-01,1.02122e-12,-9.50695e-01,3.12032e-13,-9.50695e-01
8.23887e+02,4.68500e+03,7.92900e+03,-3.24400e+03,7.25149e-13,-9.43150e-01,8.24122e-13,-9.43150e-01,4.83093e-13,-9.43150e-01
8.24135e+02,3.60100e+03,8.46600e+03,-4.86500e+03,1.53815e-12,-9.35605e-01,8.48488e-13,-9.35605e-01,6.91295e-13,-9.35605e-01
8.24384e+02,2.86900e+03,9.05200e+03,-6.18300e+03,1.42245e-12,-9.28059e-01,6.21348e-13,-9.28059e-01,8.39304e-13,-9.28059e-01
8.24633e+02,2.07600e+03,9.84800e+03,-7.77200e+03,1.04893e-12,-9.20514e-01,6.49978e-13,-9.20514e-01,6.01420e-13,-9.20514e-01
8.24881e+02,1.45800e+03,1.03140e+04,-8.85600e+03,9.73035e-13,-9.12969e-01,8.93452e-13,-9.12969e-01,1.16988e-13,-9.12969e-01
8.25130e+02,1.03600e+03,1.05050e+04,-9.46900e+03,3.74494e-13,-9.05424e-01,9.14153e-13,-9.05424e-01,9.53641e-13,-9.05424e-01
8.25379e+02,1.00200e+03,1.05520e+04,-9.55000e+03,9.92628e-13,-8.97879e-01,4.65844e-13,-8.97879e-01,1.30274e-12,-8.97879e-01
8.25627e+02,1.10100e+03,8.93700e+03,-7.83600e+03,8.68576e-13,-8.90333e-01,1.84494e-13,-8.90333e-01,7.32659e-13,-8.90333e-01
8.25876e+02,1.54900e+03,7.64200e+03,-6.09300e+03,5.97371e-13,-8.82788e-01,3.49268e-13,-8.82788e-01,3.86166e-13,-8.82788e-01
8.26125e+02,1.98400e+03,6.86300e+03,-4.87900e+03,5.72607e-13,-8.75243e-01,6.36461e-13,-8.75243e-01,2.18957e-13,-8.75243e-01
8.26373e+02,2.33500e+03,5.41300e+03,-3.07800e+03,4.70843e-13,-8.67698e-01,9.56636e-13,-8.67698e-01,6.72414e-13,-8.67698e-01
8.26622e+02,2.67600e+03,4.28700e+03,-1.61100e+03,1.07169e-13,-8.60153e-01,6.42561e-13,-8.60153e-01,7.40887e-13,-8.60153e-01
8.26870e+02,2.98000e+03,3.14600e+03,-1.66000e+02,9.90823e-14,-8.52607e-01,1.12236e-12,-8.52607e-01,1.15058e-12,-8.52607e-01
8.27119e+02,3.55000e+03,2.59000e+03,9.60000e+02,1.14757e-12,-8.45062e-01,1.23707e-12,-8.45062e-01,1.72859e-12,-8.45062e-01
8.27368e+02,4.29200e+03,2.32400e+03,1.96800e+03,2.11970e-12,-8.37517e-01,1.04959e-12,-8.37517e-01,1.74624e-12,-8.37517e-01
8.27616e+02,4.39700e+03,1.71000e+03,2.68700e+03,2.06384e-12,-8.29972e-01,9.28705e-13,-8.29972e-01,1.16068e-12,-8.29972e-01
8.27865e+02,4.82100e+03,1.29900e+03,3.52200e+03,1.79304e-12,-8.22427e-01,5.92100e-13,-8.22427e-01,1.29246e-12,-8.22427e-01
8.28113e+02,5.69400e+03,9.63000e+02,4.73100e+03,1.20631e-12,-8.14881e-01,3.24052e-13,-8.14881e-01,9.13711e-13,-8.14881e-01
8.28362e+02,6.09400e+03,8.33000e+02,5.26100e+03,7.92727e-13,-8.07336e-01,3.76542e-13,-8.07336e-01,9.50676e-13,-8.07336e-01
8.28610e+02,5.68300e+03,7.56000e+02,4.92700e+03,1.23776e-12,-7.99791e-01,3.59700e-13,-7.99791e-01,1.56032e-12,-7.99791e-01
8.28859e+02,5.55000e+03,8.40000e+02,4.71000e+03,1.50245e-12,-7.92246e-01,6.53890e-13,-7.92246e-01,1.27050e-12,-7.92246e-01
8.29108e+02,5.02400e+03,9.50000e+02,4.07400e+03,1.32785e-12,-7.84701e-01,3.89441e-13,-7.84701e-01,9.99075e-13,-7.84701e-01
8.29356e+02,4.26900e+03,1.22100e+03,3.04800e+03,1.21002e-12,-7.77155e-01,1.13416e-12,-7.77155e-01,4.57682e-13,-7.77155e-01
8.29605e+02,3.80800e+03,1.36700e+03,2.44100e+03,9.04569e-13,-7.69610e-01,1.52657e-12,-7.69610e-01,7.50027e-13,-7.69610e-01
8.29853e+02,3.25000e+03,1.70000e+03,1.55000e+03,4.10731e-13,-7.62065e-01,7.75531e-13,-7.62065e-01,4.71272e-13,-7.62065e-01
8.30101e+02,2.97100e+03,2.06100e+03,9.10000e+02,4.91068e-13,-7.54520e-01,6.74045e-14,-7.54520e-01,4.67394e-13,-7.54520e-01
8.30350e+02,2.76400e+03,2.54200e+03,2.22000e+02,9.75015e-13,-7.46975e-01,2.33438e-13,-7.46975e-01,9.99386e-13,-7.46975e-01
8.30598e+02,2.11600e+03,2.52500e+03,-4.09000e+02,9.36411e-13,-7.39429e-01,5.19945e-13,-7.39429e-01,1.44858e-12,-7.39429e-01
8.30847e+02,1.75700e+03,2.80200e+03,-1.04500e+03,8.23108e-13,-7.31884e-01,9.30692e-13,-7.31884e-01,1.60842e-12,-7.31884e-01
8.31095e+02,1.53000e+03,3.18400e+03,-1.65400e+03,8.23493e-13,-7.24339e-01,7.39568e-13,-7.24339e-01,9.58880e-13,-7.24339e-01
8.31344e+02,1.19000e+03,3.41100e+03,-2.22100e+03,9.44658e-13,-7.16794e-01,7.08586e-13,-7.16794e-01,6.41803e-13,-7.16794e-01
8.31592e+02,8.80000e+02,3.33200e+03,-2.45200e+03,1.14669e-12,-7.09249e-01,1.18356e-12,-7.09249e-01,5.80504e-13,-7.09249e-01
8.31841e+02,7.76000e+02,3.06000e+03,-2.28400e+03,1.43300e-12,-7.01703e-01,1.65488e-12,-7.01703e-01,3.07525e-13,-7.01703e-01
8.32089e+02,6.94000e+02,3.06600e+03,-2.37200e+03,9.10640e-13,-6.94158e-01,1.40475e-12,-6.94158e-01,5.07672e-13,-6.94158e-01
8.32337e+02,6.79000e+02,3.05600e+03,-2.37700e+03,8.03969e-13,-6.86613e-01,4.65149e-13,-6.86613e-01,5.60764e-13,-6.86613e-01
8.32586e+02,6.70000e+02,2.67000e+03,-2.00000e+03,1.27795e-12,-6.79068e-01,6.24490e-13,-6.79068e-01,1.20353e-12,-6.79068e-01
8.32834e+02,7.44000e+02,2.70600e+03,-1.96200e+03,1.32533e-12,-6.71523e-01,1.06622e-12,-6.71523e-01,1.64581e-12,-6.71523e-01
8.33083e+02,7.32000e+02,2.44100e+03,-1.70900e+03,1.36164e-12,-6.63977e-01,1.02800e-12,-6.63977e-01,1.30721e-12,-6.63977e-01
8.33331e+02,8.77000e+02,2.06400e+03,-1.18700e+03,1.23470e-12,-6.56432e-01,1.63500e-12,-6.56432e-01,5.35329e-13,-6.56432e-01
8.33579e+02,9.74000e+02,1.79700e+03,-8.23000e+02,1.96104e-12,-6.48887e-01,2.33902e-12,-6.48887e-01,7.55897e-13,-6.48887e-01
8.33828e+02,1.14800e+03,1.58400e+03,-4.36000e+02,2.33902e-12,-6.41342e-01,1.84827e-12,-6.41342e-01,8.40889e-13,-6.41342e-01
8.34076e+02,1.12100e+03,1.25000e+03,-1.29000e+02,2.26199e-12,-6.33797e-01,1.10609e-12,-6.33797e-01,1.17267e-12,-6.33797e-01
8.34324e+02,1.34000e+03,1.14700e+03,1.93000e+02,1.43394e-12,-6.26251e-01,4.49210e-13,-6.26251e-01,1.33445e-12,-6.26251e-01
8.34573e+02,1.42000e+03,9.24000e+02,4.96000e+02,1.15907e-12,-6.18706e-01,5.80440e-13,-6.18706e-01,1.22502e-12,-6.18706e-01
8.34821e+02,1.47400e+03,8.03000e+02,6.71000e+02,9.06848e-13,-6.11161e-01,1.27455e-12,-6.11161e-01,8.09083e-13,-6.11161e-01
8.35069e+02,1.52700e+03,7.14000e+02,8.13000e+02,1.12239e-12,-6.03616e-01,1.80190e-12,-6.03616e-01,7.92988e-13,-6.03616e-01
8.35318e+02,1.69200e+03,7.21000e+02,9.71000e+02,1.77036e-12,-5.96071e-01,1.99189e-12,-5.96071e-01,1.17716e-12,-5.96071e-01
8.35566e+02,1.57700e+03,6.24000e+02,9.53000e+02,1.62900e-12,-5.88525e-01,1.95003e-12,-5.88525e-01,8.66705e-13,-5.88525e-01
8.35814e+02,1.61000e+03,6.50000e+02,9.60000e+02,1.51049e-12,-5.80980e-01,1.57180e-12,-5.80980e-01,2.54628e-13,-5.80980e-01
8.36062e+02,1.41700e+03,6.44000e+02,7.73000e+02,1.53393e-12,-5.73435e-01,8.04318e-13,-5.73435e-01,7.79812e-13,-5.73435e-01
8.36311e+02,1.35800e+03,6.54000e+02,7.04000e+02,1.40175e-12,-5.65890e-01,1.76013e-13,-5.65890e-01,1.27086e-12,-5.65890e-01
8.36559e+02,1.33600e+03,6.73000e+02,6.63000e+02,7.50457e-13,-5.58345e-01,9.04431e-13,-5.58345e-01,1.64443e-12,-5.58345e-01
8.36807e+02,1.34600e+03,6.93000e+02,6.53000e+02,1.76858e-12,-5.50799e-01,1.19924e-12,-5.50799e-01,2.80629e-12,-5.50799e-01
8.37055e+02,1.17300e+03,7.12000e+02,4.61000e+02,3.04707e-12,-5.43254e-01,8.18758e-13,-5.43254e-01,3.29260e-12,-5.43254e-01
8.37304e+02,1.04000e+03,7.53000e+02,2.87000e+02,3.38284e-12,-5.35709e-01,1.27787e-12,-5.35709e-01,2.37212e-12,-5.35709e-01
8.37552e+02,8.97000e+02,7.74000e+02,1.23000e+02,2.19197e-12,-5.28164e-01,2.14541e-12,-5.28164e-01,1.48124e-12,-5.28164e-01
8.37800e+02,8.43000e+02,8.52000e+02,-9.00000e+00,5.74398e-13,-5.20619e-01,1.86600e-12,-5.20619e-01,2.36878e-12,-5.20619e-01
8.38048e+02,6.99000e+02,7.93000e+02,-9.40000e+01,1.38917e-12,-5.13073e-01,1.86044e-12,-5.13073e-01,2.19280e-12,-5.13073e-01
8.38296e+02,6.89000e+02,8.50000e+02,-1.61000e+02,1.71503e-12,-5.05528e-01,1.54116e-12,-5.05528e-01,1.65361e-12,-5.05528e-01
8.38545e+02,6.50000e+02,8.63000e+02,-2.13000e+02,1.34362e-12,-4.97983e-01,1.28646e-12,-4.97983e-01,1.82444e-12,-4.97983e-01
8.38793e+02,6.55000e+02,8.87000e+02,-2.32000e+02,5.73203e-13,-4.90438e-01,2.26759e-12,-4.90438e-01,2.82985e-12,-4.90438e-01
8.39041e+02,6.40000e+02,8.16000e+02,-1.76000e+02,1.59748e-12,-4.82893e-01,2.31670e-12,-4.82893e-01,3.31050e-12,-4.82893e-01
8.39289e+02,6.29000e+02,8.61000e+02,-2.32000e+02,2.13012e-12,-4.75347e-01,1.66893e-12,-4.75347e-01,1.57102e-12,-4.75347e-01
8.39537e+02,6.26000e+02,8.25000e+02,-1.99000e+02,1.95000e-12,-4.67802e-01,1.64945e-12,-4.67802e-01,1.63058e-12,-4.67802e-01
8.39785e+02,6.37000e+02,8.16000e+02,-1.79000e+02,2.76475e-12,-4.60257e-01,1.39771e-12,-4.60257e-01,3.31790e-12,-4.60257e-01
8.40033e+02,6.36000e+02,7.66000e+02,-1.30000e+02,2.15129e-12,-4.52712e-01,1.43744e-12,-4.52712e-01,2.60194e-12,-4.52712e-01
8.40281e+02,6.53000e+02,7.90000e+02,-1.37000e+02,1.03546e-12,-4.45167e-01,1.72867e-12,-4.45167e-01,1.30641e-12,-4.45167e-01
8.40530e+02,6.32000e+02,7.22000e+02,-9.00000e+01,1.23346e-12,-4.37621e-01,1.71649e-12,-4.37621e-01,4.87732e-13,-4.37621e-01
8.40778e+02,6.44000e+02,7.21000e+02,-7.70000e+01,1.20423e-12,-4.30076e-01,1.41696e-12,-4.30076e-01,5.91327e-13,-4.30076e-01
8.41026e+02,6.56000e+02,6.73000e+02,-1.70000e+01,4.97508e-13,-4.22531e-01,6.33026e-13,-4.22531e-01,1.40725e-13,-4.22531e-01
8.41274e+02,6.55000e+02,6.57000e+02,-2.00000e+00,4.46044e-13,-4.14986e-01,8.67252e-13,-4.14986e-01,8.26600e-13,-4.14986e-01
8.41522e+02,6.59000e+02,6.46000e+02,1.30000e+01,4.84208e-13,-4.07441e-01,1.34424e-12,-4.07441e-01,1.10615e-12,-4.07441e-01
8.41770e+02,6.68000e+02,6.55000e+02,1.30000e+01,7.09491e-13,-3.99895e-01,6.00588e-13,-3.99895e-01,1.25670e-12,-3.99895e-01
8.42018e+02,6.59000e+02,6.38000e+02,2.10000e+01,8.42830e-13,-3.92350e-01,1.44698e-12,-3.92350e-01,1.90353e-12,-3.92350e-01
8.42266e+02,6.74000e+02,6.25000e+02,4.90000e+01,9.18956e-13,-3.84805e-01,1.60503e-12,-3.84805e-01,2.42485e-12,-3.84805e-01
8.42514e+02,6.69000e+02,6.30000e+02,3.90000e+01,1.91701e-12,-3.77260e-01,1.98546e-12,-3.77260e-01,1.44674e-12,-3.77260e-01
8.42762e+02,7.00000e+02,6.62000e+02,3.80000e+01,4.16239e-12,-3.69715e-01,3.70662e-12,-3.69715e-01,1.30878e-12,-3.69715e-01
8.43010e+02,6.50000e+02,6.09000e+02,4.10000e+01,4.23691e-12,-3.62169e-01,4.41878e-12,-3.62169e-01,1.65178e-12,-3.62169e-01
8.43258e+02,6.55000e+02,6.34000e+02,2.10000e+01,2.45975e-12,-3.54624e-01,4.21397e-12,-3.54624e-01,1.78774e-12,-3.54624e-01
8.43506e+02,6.45000e+02,6.30000e+02,1.50000e+01,1.36638e-12,-3.47079e-01,4.38945e-12,-3.47079e-01,3.02866e-12,-3.47079e-01
8.43754e+02,6.50000e+02,6.33000e+02,1.70000e+01,4.09527e-13,-3.39534e-01,2.59787e-12,-3.39534e-01,2.20520e-12,-3.39534e-01
8.44002e+02,6.56000e+02,6.45000e+02,1.10000e+01,7.37102e-13,-3.31989e-01,1.21374e-12,-3.31989e-01,4.81998e-13,-3.31989e-01
8.44250e+02,6.56000e+02,6.35000e+02,2.10000e+01,1.81092e-12,-3.24444e-01,2.13118e-12,-3.24444e-01,1.09709e-12,-3.24444e-01
8.44498e+02,6.34000e+02,6.40000e+02,-6.00000e+00,3.46143e-12,-3.16898e-01,2.21908e-12,-3.16898e-01,1.64328e-12,-3.16898e-01
8.44746e+02,6.28000e+02,6.36000e+02,-8.00000e+00,5.12895e-12,-3.09353e-01,3.20487e-12,-3.09353e-01,4.53618e-12,-3.09353e-01
8.44994e+02,6.27000e+02,6.33000e+02,-6.00000e+00,3.02295e-12,-3.01808e-01,3.31210e-12,-3.01808e-01,3.41565e-12,-3.01808e-01
8.45242e+02,6.61000e+02,6.71000e+02,-1.00000e+01,9.96274e-13,-2.94263e-01,3.11548e-12,-2.94263e-01,2.92967e-12,-2.94263e-01
8.45490e+02,6.15000e+02,6.29000e+02,-1.40000e+01,2.30399e-12,-2.86718e-01,2.83451e-12,-2.86718e-01,4.51262e-12,-2.86718e-01
8.45738e+02,6.38000e+02,6.32000e+02,6.00000e+00,4.33012e-12,-2.79172e-01,3.51926e-12,-2.79172e-01,7.82960e-12,-2.79172e-01
8.45985e+02,6.27000e+02,6.22000e+02,5.00000e+00,5.63730e-12,-2.71627e-01,4.94436e-12,-2.71627e-01,9.55755e-12,-2.71627e-01
8.46233e+02,6.37000e+02,6.35000e+02,2.00000e+00,4.42932e-12,-2.64082e-01,4.54609e-12,-2.64082e-01,8.22654e-12,-2.64082e-01
8.46481e+02,6.06000e+02,6.33000e+02,-2.70000e+01,7.86653e-13,-2.56537e-01,2.32762e-12,-2.56537e-01,3.01609e-12,-2.56537e-01
8.46729e+02,6.35000e+02,6.42000e+02,-7.00000e+00,2.46836e-12,-2.48992e-01,4.72455e-12,-2.48992e-01,5.33205e-12,-2.48992e-01
8.46977e+02,6.31000e+02,6.39000e+02,-8.00000e+00,1.77552e-12,-2.41446e-01,5.57259e-12,-2.41446e-01,5.87945e-12,-2.41446e-01
8.47225e+02,6.40000e+02,6.38000e+02,2.00000e+00,1.03330e-12,-2.33901e-01,2.63961e-12,-2.33901e-01,1.64703e-12,-2.33901e-01
8.47473e+02,6.40000e+02,6.33000e+02,7.00000e+00,7.16122e-14,-2.26356e-01,6.29858e-13,-2.26356e-01,6.26808e-13,-2.26356e-01
8.47720e+02,6.50000e+02,6.59000e+02,-9.00000e+00,2.83683e-12,-2.18811e-01,1.94050e-12,-2.18811e-01,1.94598e-12,-2.18811e-01
8.47968e+02,6.12000e+02,6.16000e+02,-4.00000e+00,4.09610e-12,-2.11266e-01,4.36204e-12,-2.11266e-01,3.06780e-12,-2.11266e-01
8.48216e+02,6.28000e+02,6.38000e+02,-1.00000e+01,5.31631e-12,-2.03720e-01,5.16335e-12,-2.03720e-01,2.44586e-12,-2.03720e-01
8.48464e+02,6.24000e+02,6.34000e+02,-1.00000e+01,7.67650e-12,-1.96175e-01,6.13649e-12,-1.96175e-01,3.96300e-12,-1.96175e-01
8.48712e+02,6.25000e+02,6.30000e+02,-5.00000e+00,7.97155e-12,-1.88630e-01,7.40270e-12,-1.88630e-01,3.30540e-12,-1.88630e-01
8.48960e+02,6.14000e+02,6.14000e+02,0.00000e+00,7.79674e-12,-1.81085e-01,9.18150e-12,-1.81085e-01,2.54177e-12,-1.81085e-01
8.49207e+02,6.19000e+02,6.30000e+02,-1.10000e+01,6.72332e-12,-1.73540e-01,9.21641e-12,-1.73540e-01,3.07165e-12,-1.73540e-01
8.49455e+02,6.30000e+02,6.36000e+02,-6.00000e+00,4.16575e-12,-1.65994e-01,5.37746e-12,-1.65994e-01,4.17773e-12,-1.65994e-01
8.49703e+02,6.22000e+02,6.20000e+02,2.00000e+00,3.72526e-12,-1.58449e-01,5.82862e-12,-1.58449e-01,9.19134e-12,-1.58449e-01
8.49951e+02,6.19000e+02,6.34000e+02,-1.50000e+01,3.63787e-12,-1.50904e-01,1.02525e-11,-1.50904e-01,1.23236e-11,-1.50904e-01
8.50198e+02,6.48000e+02,6.58000e+02,-1.00000e+01,2.50002e-12,-1.43359e-01,8.69330e-12,-1.43359e-01,1.11932e-11,-1.43359e-01
8.50446e+02,6.13000e+02,6.04000e+02,9.00000e+00,2.92412e-12,-1.35814e-01,4.83880e-12,-1.35814e-01,7.45732e-12,-1.35814e-01
8.50694e+02,6.44000e+02,6.29000e+02,1.50000e+01,4.30017e-12,-1.28268e-01,9.57752e-12,-1.28268e-01,1.38656e-11,-1.28268e-01
8.50941e+02,6.45000e+02,6.28000e+02,1.70000e+01,1.85117e-12,-1.20723e-01,8.91337e-12,-1.20723e-01,1.06979e-11,-1.20723e-01
8.51189e+02,6.40000e+02,6.33000e+02,7.00000e+00,1.74650e-11,-1.13178e-01,1.10618e-11,-1.13178e-01,2.76162e-11,-1.13178e-01
8.51437e+02,6.34000e+02,6.19000e+02,1.50000e+01,7.09480e-11,-1.05633e-01,6.67199e-11,-1.05633e-01,1.35289e-10,-1.05633e-01
8.51685e+02,6.33000e+02,6.36000e+02,-3.00000e+00,1.31497e-10,-9.80876e-02,1.31146e-10,-9.80876e-02,2.58643e-10,-9.80876e-02
8.51932e+02,6.28000e+02,6.33000e+02,-5.00000e+00,1.20340e-10,-9.05424e-02,1.24378e-10,-9.05424e-02,2.40556e-10,-9.05424e-02
8.52180e+02,6.32000e+02,6.27000e+02,5.00000e+00,4.90209e-11,-8.29972e-02,5.17798e-11,-8.29972e-02,9.90991e-11,-8.29972e-02
8.52428e+02,6.29000e+02,6.25000e+02,4.00000e+00,1.03784e-11,-7.54520e-02,8.09982e-12,-7.54520e-02,1.79896e-11,-7.54520e-02
8.52675e+02,6.65000e+02,6.44000e+02,2.10000e+01,3.67094e-12,-6.79068e-02,5.71943e-12,-6.79068e-02,7.39292e-12,-6.79068e-02
8.52923e+02,6.28000e+02,6.20000e+02,8.00000e+00,7.72871e-13,-6.03616e-02,1.56077e-11,-6.03616e-02,1.54111e-11,-6.03616e-02
8.53170e+02,6.38000e+02,6.32000e+02,6.00000e+00,5.29971e-12,-5.28164e-02,1.31829e-11,-5.28164e-02,7.93123e-12,-5.28164e-02
8.53418e+02,6.26000e+02,6.24000e+02,2.00000e+00,4.01764e-12,-4.52712e-02,4.28085e-12,-4.52712e-02,2.38640e-12,-4.52712e-02
8.53666e+02,6.37000e+02,6.26000e+02,1.10000e+01,2.70771e-12,-3.77260e-02,3.99226e-12,-3.77260e-02,4.99484e-12,-3.77260e-02
8.53913e+02,6.35000e+02,6.43000e+02,-8.00000e+00,1.57987e-12,-3.01808e-02,5.15204e-12,-3.01808e-02,3.71374e-12,-3.01808e-02
8.54161e+02,6.29000e+02,6.34000e+02,-5.00000e+00,1.47876e-11,-2.26356e-02,1.00219e-11,-2.26356e-02,4.92001e-12,-2.26356e-02
8.54409e+02,6.50000e+02,6.30000e+02,2.00000e+01,7.91000e-11,-1.50904e-02,7.62214e-11,-1.50904e-02,2.95694e-12,-1.50904e-02
8.54656e+02,6.34000e+02,6.36000e+02,-2.00000e+00,2.28223e-10,-7.54520e-03,2.27928e-10,-7.54520e-03,2.75523e-12,-7.54520e-03
