7.67698e+02,6.28000e+02,6.32000e+02,-4.00000e+00,3.89520e-10,0.00000e+00,3.94468e-10,0.00000e+00,4.94791e-12,0.00000e+00
7.67949e+02,6.57000e+02,6.74000e+02,-1.70000e+01,2.31897e-10,7.54520e-03,2.36016e-10,7.54520e-03,7.25109e-12,7.54520e-03
7.68199e+02,6.12000e+02,6.13000e+02,-1.00000e+00,8.15045e-11,1.50904e-02,8.46411e-11,1.50904e-02,6.55572e-12,1.50904e-02
7.68450e+02,6.40000e+02,6.31000e+02,9.00000e+00,1.64644e-11,2.26356e-02,1.85298e-11,2.26356e-02,2.29478e-12,2.26356e-02
7.68701e+02,6.43000e+02,6.31000e+02,1.20000e+01,1.62117e-12,3.01808e-02,1.18263e-12,3.01808e-02,4.38544e-13,3.01808e-02
7.68951e+02,6.31000e+02,6.36000e+02,-5.00000e+00,2.14267e-12,3.77260e-02,1.97466e-12,3.77260e-02,1.83006e-13,3.77260e-02
7.69202e+02,6.36000e+02,6.45000e+02,-9.00000e+00,6.01658e-12,4.52712e-02,6.36758e-12,4.52712e-02,7.10285e-13,4.52712e-02
7.69453e+02,6.44000e+02,6.55000e+02,-1.10000e+01,9.40388e-12,5.28164e-02,9.14891e-12,5.28164e-02,1.32742e-12,5.28164e-02
7.69703e+02,6.16000e+02,6.50000e+02,-3.40000e+01,8.50540e-12,6.03616e-02,7.63653e-12,6.03616e-02,1.34688e-12,6.03616e-02
7.69954e+02,6.41000e+02,6.34000e+02,7.00000e+00,4.73143e-12,6.79068e-02,4.68273e-12,6.79068e-02,6.55950e-13,6.79068e-02
7.70205e+02,6.31000e+02,6.25000e+02,6.00000e+00,2.33651e-12,7.54520e-02,1.25378e-12,7.54520e-02,2.70115e-12,7.54520e-02
7.70455e+02,6.76000e+02,6.55000e+02,2.10000e+01,3.04570e-12,8.29972e-02,2.00130e-12,8.29972e-02,5.04150e-12,8.29972e-02
7.70706e+02,6.37000e+02,6.24000e+02,1.30000e+01,4.37813e-13,9.05424e-02,4.65107e-12,9.05424e-02,4.76200e-12,9.05424e-02
7.70957e+02,6.44000e+02,6.69000e+02,-2.50000e+01,3.54931e-12,9.80876e-02,4.37927e-12,9.80876e-02,8.83511e-13,9.80876e-02
7.71207e+02,6.35000e+02,6.48000e+02,-1.30000e+01,4.28236e-12,1.05633e-01,1.96916e-12,1.05633e-01,2.74289e-12,1.05633e-01
7.71458e+02,6.31000e+02,6.66000e+02,-3.50000e+01,1.60343e-12,1.13178e-01,2.51427e-12,1.13178e-01,2.85043e-12,1.13178e-01
7.71708e+02,6.52000e+02,6.27000e+02,2.50000e+01,1.43443e-12,1.20723e-01,2.15978e-12,1.20723e-01,1.99923e-12,1.20723e-01
7.71959e+02,6.73000e+02,6.29000e+02,4.40000e+01,2.81790e-12,1.28268e-01,4.48921e-13,1.28268e-01,2.53066e-12,1.28268e-01
7.72210e+02,6.72000e+02,6.34000e+02,3.80000e+01,3.76853e-12,1.35814e-01,1.55046e-12,1.35814e-01,3.64608e-12,1.35814e-01
7.72460e+02,6.92000e+02,6.32000e+02,6.00000e+01,3.09928e-12,1.43359e-01,4.78188e-12,1.43359e-01,2.33736e-12,1.43359e-01
7.72711e+02,6.69000e+02,6.76000e+02,-7.00000e+00,5.46106e-12,1.50904e-01,5.26105e-12,1.50904e-01,7.56180e-13,1.50904e-01
7.72961e+02,6.89000e+02,7.54000e+02,-6.50000e+01,4.09281e-12,1.58449e-01,2.42102e-12,1.58449e-01,2.18065e-12,1.58449e-01
7.73212e+02,6.15000e+02,6.95000e+02,-8.00000e+01,6.14321e-12,1.65994e-01,2.93228e-12,1.65994e-01,3.28815e-12,1.65994e-01
7.73462e+02,6.51000e+02,6.92000e+02,-4.10000e+01,6.08012e-12,1.73540e-01,3.84506e-12,1.73540e-01,2.29260e-12,1.73540e-01
7.73713e+02,6.44000e+02,6.46000e+02,-2.00000e+00,2.94321e-12,1.81085e-01,2.08270e-12,1.81085e-01,1.10290e-12,1.81085e-01
7.73963e+02,6.97000e+02,6.19000e+02,7.80000e+01,1.89395e-12,1.88630e-01,8.58957e-13,1.88630e-01,1.52828e-12,1.88630e-01
7.74214e+02,7.17000e+02,6.41000e+02,7.60000e+01,9.52574e-13,1.96175e-01,2.74239e-12,1.96175e-01,3.02680e-12,1.96175e-01
7.74465e+02,7.38000e+02,6.88000e+02,5.00000e+01,6.18547e-13,2.03720e-01,3.87583e-12,2.03720e-01,4.01435e-12,2.03720e-01
7.74715e+02,6.65000e+02,7.20000e+02,-5.50000e+01,1.53172e-12,2.11266e-01,3.47924e-12,2.11266e-01,2.02933e-12,2.11266e-01
7.74965e+02,6.45000e+02,7.98000e+02,-1.53000e+02,1.04639e-12,2.18811e-01,1.27984e-12,2.18811e-01,9.67655e-13,2.18811e-01
7.75216e+02,6.52000e+02,7.32000e+02,-8.00000e+01,1.01789e-12,2.26356e-01,1.48106e-12,2.26356e-01,8.93284e-13,2.26356e-01
7.75466e+02,6.97000e+02,7.40000e+02,-4.30000e+01,2.60425e-12,2.33901e-01,3.14438e-12,2.33901e-01,8.62287e-13,2.33901e-01
7.75717e+02,6.92000e+02,6.35000e+02,5.70000e+01,4.21167e-12,2.41446e-01,4.14354e-12,2.41446e-01,2.37736e-12,2.41446e-01
7.75967e+02,7.83000e+02,6.49000e+02,1.34000e+02,5.19457e-12,2.48992e-01,2.53102e-12,2.48992e-01,4.24494e-12,2.48992e-01
7.76218e+02,7.95000e+02,6.71000e+02,1.24000e+02,4.00272e-12,2.56537e-01,1.90892e-12,2.56537e-01,5.83744e-12,2.56537e-01
7.76468e+02,7.90000e+02,7.54000e+02,3.60000e+01,1.83487e-12,2.64082e-01,2.46453e-12,2.64082e-01,4.29940e-12,2.64082e-01
7.76719e+02,6.72000e+02,8.19000e+02,-1.47000e+02,1.91981e-12,2.71627e-01,1.93300e-12,2.71627e-01,1.99092e-12,2.71627e-01
7.76969e+02,6.54000e+02,8.50000e+02,-1.96000e+02,2.10619e-12,2.79172e-01,2.09015e-12,2.79172e-01,8.74515e-13,2.79172e-01
7.77219e+02,6.70000e+02,7.84000e+02,-1.14000e+02,2.11355e-12,2.86718e-01,1.21387e-12,2.86718e-01,1.59452e-12,2.86718e-01
7.77470e+02,7.64000e+02,7.13000e+02,5.10000e+01,3.62154e-12,2.94263e-01,3.08427e-12,2.94263e-01,6.69653e-12,2.94263e-01
7.77720e+02,8.82000e+02,6.64000e+02,2.18000e+02,2.13049e-12,3.01808e-01,2.04926e-12,3.01808e-01,3.83630e-12,3.01808e-01
7.77971e+02,1.07000e+03,7.16000e+02,3.54000e+02,1.19627e-11,3.09353e-01,1.50397e-11,3.09353e-01,2.69231e-11,3.09353e-01
7.78221e+02,9.53000e+02,7.74000e+02,1.79000e+02,3.44454e-11,3.16898e-01,4.09689e-11,3.16898e-01,7.39561e-11,3.16898e-01
7.78471e+02,8.43000e+02,1.04100e+03,-1.98000e+02,6.24982e-11,3.24444e-01,6.81219e-11,3.24444e-01,1.27345e-10,3.24444e-01
7.78722e+02,7.14000e+02,1.04100e+03,-3.27000e+02,8.61975e-11,3.31989e-01,8.77095e-11,3.31989e-01,1.69459e-10,3.31989e-01
7.78972e+02,6.90000e+02,1.09800e+03,-4.08000e+02,7.65722e-11,3.39534e-01,7.24745e-11,3.39534e-01,1.45288e-10,3.39534e-01
7.79222e+02,7.51000e+02,9.22000e+02,-1.71000e+02,3.98988e-11,3.47079e-01,3.24619e-11,3.47079e-01,7.00371e-11,3.47079e-01
7.79473e+02,1.05800e+03,7.71000e+02,2.87000e+02,1.18385e-11,3.54624e-01,1.10773e-11,3.54624e-01,2.01663e-11,3.54624e-01
7.79723e+02,1.25700e+03,6.92000e+02,5.65000e+02,3.63089e-12,3.62169e-01,8.80008e-12,3.62169e-01,1.20076e-11,3.62169e-01
7.79973e+02,1.37500e+03,8.39000e+02,5.36000e+02,9.51917e-13,3.69715e-01,5.57245e-12,3.69715e-01,6.35248e-12,3.69715e-01
7.80224e+02,1.12500e+03,1.12400e+03,1.00000e+00,2.16835e-12,3.77260e-01,2.87623e-12,3.77260e-01,5.04268e-12,3.77260e-01
7.80474e+02,9.86000e+02,1.49200e+03,-5.06000e+02,4.62762e-12,3.84805e-01,4.06636e-12,3.84805e-01,7.87713e-12,3.84805e-01
7.80724e+02,7.39000e+02,1.41300e+03,-6.74000e+02,4.15147e-12,3.92350e-01,2.88142e-12,3.92350e-01,6.16035e-12,3.92350e-01
7.80974e+02,7.83000e+02,1.22000e+03,-4.37000e+02,2.65247e-12,3.99895e-01,1.67556e-13,3.99895e-01,2.72117e-12,3.99895e-01
7.81225e+02,1.02500e+03,9.55000e+02,7.00000e+01,1.54197e-12,4.07441e-01,1.27266e-12,4.07441e-01,1.31008e-12,4.07441e-01
7.81475e+02,1.55000e+03,7.93000e+02,7.57000e+02,1.73338e-12,4.14986e-01,1.96184e-12,4.14986e-01,3.64453e-12,4.14986e-01
7.81725e+02,1.69300e+03,7.83000e+02,9.10000e+02,3.38137e-13,4.22531e-01,2.69633e-12,4.22531e-01,3.03102e-12,4.22531e-01
7.81975e+02,1.70900e+03,1.19800e+03,5.11000e+02,1.71556e-12,4.30076e-01,2.54097e-12,4.30076e-01,2.85402e-12,4.30076e-01
7.82226e+02,1.32400e+03,1.60600e+03,-2.82000e+02,2.82319e-12,4.37621e-01,1.00557e-12,4.37621e-01,2.51209e-12,4.37621e-01
7.82476e+02,9.06000e+02,1.82700e+03,-9.21000e+02,3.91410e-12,4.45167e-01,2.30570e-12,4.45167e-01,2.64020e-12,4.45167e-01
7.82726e+02,7.57000e+02,1.67500e+03,-9.18000e+02,3.97873e-12,4.52712e-01,2.58535e-12,4.52712e-01,3.87404e-12,4.52712e-01
7.82976e+02,1.07100e+03,1.37000e+03,-2.99000e+02,2.98157e-12,4.60257e-01,7.01016e-13,4.60257e-01,3.16136e-12,4.60257e-01
7.83226e+02,1.42800e+03,8.66000e+02,5.62000e+02,2.35550e-12,4.67802e-01,1.53044e-12,4.67802e-01,2.94883e-12,4.67802e-01
7.83477e+02,1.99800e+03,8.72000e+02,1.12600e+03,1.74827e-12,4.75347e-01,3.52004e-12,4.75347e-01,3.20819e-12,4.75347e-01
7.83727e+02,1.97900e+03,1.13100e+03,8.48000e+02,4.22297e-13,4.82893e-01,4.62439e-12,4.82893e-01,4.20305e-12,4.82893e-01
7.83977e+02,1.76900e+03,1.72900e+03,4.00000e+01,4.44731e-13,4.90438e-01,3.12354e-12,4.90438e-01,3.49331e-12,4.90438e-01
7.84227e+02,1.28500e+03,2.27400e+03,-9.89000e+02,1.18833e-12,4.97983e-01,3.74221e-13,4.97983e-01,1.36156e-12,4.97983e-01
7.84477e+02,1.01900e+03,2.64800e+03,-1.62900e+03,1.36375e-12,5.05528e-01,1.12101e-12,5.05528e-01,4.47909e-13,5.05528e-01
7.84727e+02,1.01700e+03,2.12900e+03,-1.11200e+03,1.31852e-12,5.13073e-01,1.28890e-12,5.13073e-01,8.18121e-13,5.13073e-01
7.84978e+02,1.64000e+03,1.62800e+03,1.20000e+01,1.57165e-12,5.20619e-01,1.20845e-12,5.20619e-01,7.77724e-13,5.20619e-01
7.85228e+02,2.51700e+03,1.04200e+03,1.47500e+03,1.18246e-12,5.28164e-01,1.91727e-12,5.28164e-01,1.67585e-12,5.28164e-01
7.85478e+02,3.13700e+03,1.16200e+03,1.97500e+03,1.64817e-12,5.35709e-01,2.66059e-12,5.35709e-01,3.29261e-12,5.35709e-01
7.85728e+02,2.98300e+03,1.69800e+03,1.28500e+03,1.03183e-12,5.43254e-01,1.89110e-12,5.43254e-01,2.49584e-12,5.43254e-01
7.85978e+02,2.33500e+03,2.55400e+03,-2.19000e+02,7.75998e-14,5.50799e-01,2.06899e-13,5.50799e-01,2.42383e-13,5.50799e-01
7.86228e+02,1.39600e+03,2.95100e+03,-1.55500e+03,1.01828e-12,5.58345e-01,1.38600e-12,5.58345e-01,2.39234e-12,5.58345e-01
7.86478e+02,1.06300e+03,2.85000e+03,-1.78700e+03,1.64792e-12,5.65890e-01,1.77310e-12,5.65890e-01,3.02327e-12,5.65890e-01
7.86728e+02,1.35400e+03,2.26500e+03,-9.11000e+02,2.02672e-12,5.73435e-01,9.93374e-13,5.73435e-01,2.40792e-12,5.73435e-01
7.86978e+02,2.17000e+03,1.51800e+03,6.52000e+02,2.56814e-12,5.80980e-01,5.60451e-13,5.80980e-01,2.13481e-12,5.80980e-01
7.87228e+02,2.87100e+03,1.06900e+03,1.80200e+03,2.50152e-12,5.88525e-01,1.53414e-12,5.88525e-01,1.08062e-12,5.88525e-01
7.87478e+02,3.14900e+03,1.41200e+03,1.73700e+03,2.20886e-12,5.96071e-01,1.82290e-12,5.96071e-01,1.13334e-12,5.96071e-01
7.87728e+02,2.75600e+03,2.22400e+03,5.32000e+02,2.46851e-12,6.03616e-01,1.42985e-12,6.03616e-01,1.17376e-12,6.03616e-01
7.87978e+02,2.21800e+03,3.29100e+03,-1.07300e+03,2.52274e-12,6.11161e-01,1.51255e-12,6.11161e-01,1.13311e-12,6.11161e-01
7.88228e+02,1.41900e+03,3.71600e+03,-2.29700e+03,2.56041e-12,6.18706e-01,8.75027e-13,6.18706e-01,1.93314e-12,6.18706e-01
7.88478e+02,1.31400e+03,3.50200e+03,-2.18800e+03,2.48643e-12,6.26251e-01,9.77861e-13,6.26251e-01,1.95836e-12,6.26251e-01
7.88728e+02,1.87400e+03,2.61600e+03,-7.42000e+02,2.33641e-12,6.33797e-01,2.13433e-12,6.33797e-01,4.70591e-13,6.33797e-01
7.88978e+02,2.96700e+03,1.74800e+03,1.21900e+03,1.45489e-12,6.41342e-01,3.40950e-12,6.41342e-01,1.99616e-12,6.41342e-01
7.89228e+02,4.10100e+03,1.24100e+03,2.86000e+03,1.53051e-12,6.48887e-01,4.42515e-12,6.48887e-01,3.74711e-12,6.48887e-01
7.89478e+02,4.63100e+03,1.93000e+03,2.70100e+03,2.43975e-12,6.56432e-01,3.83436e-12,6.56432e-01,4.23725e-12,6.56432e-01
7.89728e+02,3.93300e+03,3.09600e+03,8.37000e+02,2.30243e-12,6.63977e-01,3.12969e-12,6.63977e-01,4.12776e-12,6.63977e-01
7.89978e+02,2.97400e+03,4.43500e+03,-1.46100e+03,1.46897e-12,6.71523e-01,2.90872e-12,6.71523e-01,3.92289e-12,6.71523e-01
7.90228e+02,1.81300e+03,4.76900e+03,-2.95600e+03,1.00319e-12,6.79068e-01,2.68342e-12,6.79068e-01,3.31126e-12,6.79068e-01
7.90478e+02,1.77400e+03,4.39600e+03,-2.62200e+03,9.66874e-13,6.86613e-01,1.64784e-12,6.86613e-01,1.99210e-12,6.86613e-01
7.90728e+02,2.75700e+03,3.12100e+03,-3.64000e+02,7.69652e-13,6.94158e-01,1.13680e-12,6.94158e-01,5.51429e-13,6.94158e-01
7.90978e+02,4.44100e+03,1.99400e+03,2.44700e+03,7.25431e-13,7.01703e-01,2.06451e-12,7.01703e-01,1.65816e-12,7.01703e-01
7.91228e+02,5.42400e+03,1.75500e+03,3.66900e+03,7.65284e-13,7.09249e-01,1.50972e-12,7.09249e-01,1.22623e-12,7.09249e-01
7.91478e+02,5.17000e+03,2.50100e+03,2.66900e+03,6.93197e-13,7.16794e-01,6.08524e-13,7.16794e-01,4.56598e-13,7.16794e-01
7.91728e+02,3.82400e+03,3.57600e+03,2.48000e+02,1.02261e-12,7.24339e-01,4.00517e-13,7.24339e-01,6.72547e-13,7.24339e-01
7.91977e+02,2.56600e+03,4.42500e+03,-1.85900e+03,9.27091e-13,7.31884e-01,5.71460e-13,7.31884e-01,1.34629e-12,7.31884e-01
7.92227e+02,1.72000e+03,4.40900e+03,-2.68900e+03,5.15197e-13,7.39429e-01,9.27003e-13,7.39429e-01,1.40382e-12,7.39429e-01
7.92477e+02,2.26700e+03,4.26900e+03,-2.00200e+03,3.84193e-13,7.46975e-01,7.62199e-13,7.46975e-01,4.84464e-13,7.46975e-01
7.92727e+02,3.66400e+03,3.20900e+03,4.55000e+02,1.48760e-12,7.54520e-01,3.22271e-13,7.54520e-01,1.40588e-12,7.54520e-01
7.92977e+02,5.34800e+03,2.13200e+03,3.21600e+03,1.31711e-12,7.62065e-01,1.17332e-12,7.62065e-01,1.27119e-12,7.62065e-01
7.93227e+02,5.86600e+03,1.82600e+03,4.04000e+03,1.01344e-12,7.69610e-01,2.01217e-12,7.69610e-01,1.09892e-12,7.69610e-01
7.93476e+02,5.06400e+03,3.04800e+03,2.01600e+03,1.32231e-12,7.77155e-01,2.28223e-12,7.77155e-01,2.25281e-12,7.77155e-01
7.93726e+02,3.83400e+03,4.67000e+03,-8.36000e+02,6.06454e-13,7.84701e-01,1.89934e-12,7.84701e-01,1.99996e-12,7.84701e-01
7.93976e+02,2.57200e+03,6.07300e+03,-3.50100e+03,8.47984e-13,7.92246e-01,1.28933e-12,7.92246e-01,1.21400e-12,7.92246e-01
7.94226e+02,1.95200e+03,5.87700e+03,-3.92500e+03,9.98904e-13,7.99791e-01,4.35845e-13,7.99791e-01,1.34909e-12,7.99791e-01
7.94476e+02,3.06800e+03,4.75900e+03,-1.69100e+03,1.06863e-12,8.07336e-01,5.11078e-13,8.07336e-01,1.44929e-12,8.07336e-01
7.94725e+02,4.53000e+03,2.96000e+03,1.57000e+03,1.11665e-12,8.14881e-01,9.38800e-13,8.14881e-01,1.44846e-12,8.14881e-01
7.94975e+02,6.06700e+03,2.13600e+03,3.93100e+03,1.42244e-12,8.22427e-01,1.65602e-12,8.22427e-01,1.16424e-12,8.22427e-01
7.95225e+02,6.43400e+03,2.57300e+03,3.86100e+03,1.77291e-12,8.29972e-01,1.70219e-12,8.29972e-01,5.10304e-13,8.29972e-01
7.95475e+02,5.74100e+03,4.15000e+03,1.59100e+03,1.45120e-12,8.37517e-01,8.59227e-13,8.37517e-01,6.82295e-13,8.37517e-01
7.95724e+02,4.03000e+03,6.03700e+03,-2.00700e+03,1.27776e-12,8.45062e-01,6.36675e-13,8.45062e-01,1.63043e-12,8.45062e-01
7.95974e+02,2.62000e+03,7.04400e+03,-4.42400e+03,1.10110e-12,8.52607e-01,1.23122e-12,8.52607e-01,2.07863e-12,8.52607e-01
7.96224e+02,2.36600e+03,6.56600e+03,-4.20000e+03,6.09506e-13,8.60153e-01,1.01237e-12,8.60153e-01,1.52566e-12,8.60153e-01
7.96474e+02,3.80200e+03,5.09100e+03,-1.28900e+03,3.28024e-13,8.67698e-01,4.59561e-13,8.67698e-01,3.01076e-13,8.67698e-01
7.96723e+02,5.85300e+03,3.03300e+03,2.82000e+03,7.50996e-13,8.75243e-01,4.62129e-13,8.75243e-01,4.49168e-13,8.75243e-01
7.96973e+02,7.84900e+03,2.49800e+03,5.35100e+03,7.31003e-13,8.82788e-01,5.95464e-13,8.82788e-01,1.15567e-12,8.82788e-01
7.97223e+02,9.02100e+03,4.07000e+03,4.95100e+03,6.03545e-13,8.90333e-01,5.95432e-13,8.90333e-01,1.15208e-12,8.90333e-01
7.97472e+02,6.77500e+03,6.32900e+03,4.46000e+02,4.04236e-13,8.97879e-01,7.22696e-13,8.97879e-01,7.08385e-13,8.97879e-01
7.97722e+02,4.71500e+03,8.95000e+03,-4.23500e+03,2.67145e-13,9.05424e-01,9.26170e-13,9.05424e-01,6.71302e-13,9.05424e-01
7.97972e+02,3.12800e+03,9.47500e+03,-6.34700e+03,6.93856e-13,9.12969e-01,8.81053e-13,9.12969e-01,3.91653e-13,9.12969e-01
7.98221e+02,3.29100e+03,7.76000e+03,-4.46900e+03,5.20899e-13,9.20514e-01,4.42850e-13,9.20514e-01,1.62680e-13,9.20514e-01
7.98471e+02,5.40100e+03,4.87600e+03,5.25000e+02,5.16962e-13,9.28059e-01,1.11135e-12,9.28059e-01,6.17793e-13,9.28059e-01
7.98721e+02,8.03800e+03,3.02000e+03,5.01800e+03,3.59364e-13,9.35605e-01,1.65309e-12,9.35605e-01,1.39848e-12,9.35605e-01
7.98970e+02,1.06280e+04,3.07700e+03,7.55100e+03,3.51202e-13,9.43150e-01,1.70109e-12,9.43150e-01,1.78892e-12,9.43150e-01
7.99220e+02,1.01390e+04,5.26800e+03,4.87100e+03,8.40620e-13,9.50695e-01,9.15123e-13,9.50695e-01,1.07299e-12,9.50695e-01
7.99469e+02,7.21100e+03,7.77400e+03,-5.63000e+02,1.23335e-12,9.58240e-01,2.74445e-13,9.58240e-01,1.06717e-12,9.58240e-01
7.99719e+02,4.20200e+03,9.42600e+03,-5.22400e+03,9.81027e-13,9.65785e-01,5.95301e-13,9.65785e-01,1.56063e-12,9.65785e-01
7.99969e+02,2.93000e+03,9.58600e+03,-6.65600e+03,2.12776e-13,9.73331e-01,1.00887e-12,9.73331e-01,1.05047e-12,9.73331e-01
8.00218e+02,4.22000e+03,7.52300e+03,-3.30300e+03,6.79177e-13,9.80876e-01,1.22424e-12,9.80876e-01,9.32244e-13,9.80876e-01
8.00468e+02,7.52200e+03,4.73400e+03,2.78800e+03,1.27875e-12,9.88421e-01,8.08172e-13,9.88421e-01,7.21151e-13,9.88421e-01
8.00717e+02,1.01790e+04,3.17800e+03,7.00100e+03,1.55175e-12,9.95966e-01,7.39651e-13,9.95966e-01,8.18026e-13,9.95966e-01
8.00967e+02,1.10620e+04,4.25500e+03,6.80700e+03,9.55961e-13,1.00351e+00,6.86883e-13,1.00351e+00,4.09753e-13,1.00351e+00
8.01216e+02,1.02130e+04,7.52800e+03,2.68500e+03,2.18749e-13,1.01106e+00,3.68346e-13,1.01106e+00,5.00050e-13,1.01106e+00
8.01466e+02,7.66800e+03,1.05640e+04,-2.89600e+03,3.78994e-13,1.01860e+00,8.43254e-13,1.01860e+00,9.89982e-13,1.01860e+00
8.01715e+02,4.66100e+03,1.22610e+04,-7.60000e+03,9.69674e-13,1.02615e+00,6.40754e-13,1.02615e+00,1.49903e-12,1.02615e+00
8.01965e+02,3.63200e+03,1.12730e+04,-7.64100e+03,7.29283e-13,1.03369e+00,4.47637e-13,1.03369e+00,1.06884e-12,1.03369e+00
8.02215e+02,5.52700e+03,8.28200e+03,-2.75500e+03,5.02549e-13,1.04124e+00,5.65775e-13,1.04124e+00,7.43752e-13,1.04124e+00
8.02464e+02,9.35900e+03,4.62600e+03,4.73300e+03,2.65728e-13,1.04878e+00,2.50437e-13,1.04878e+00,2.21035e-13,1.04878e+00
8.02713e+02,1.16350e+04,3.28500e+03,8.35000e+03,3.53107e-13,1.05633e+00,5.35919e-13,1.05633e+00,3.37826e-13,1.05633e+00
8.02963e+02,1.19990e+04,5.10000e+03,6.89900e+03,2.90541e-13,1.06387e+00,6.78680e-13,1.06387e+00,5.58170e-13,1.06387e+00
8.03212e+02,1.06720e+04,9.23600e+03,1.43600e+03,1.80893e-13,1.07142e+00,5.68219e-13,1.07142e+00,5.43412e-13,1.07142e+00
8.03462e+02,7.29800e+03,1.30900e+04,-5.79200e+03,4.59236e-13,1.07896e+00,7.41884e-13,1.07896e+00,1.05495e-12,1.07896e+00
8.03711e+02,4.05000e+03,1.45810e+04,-1.05310e+04,9.55272e-13,1.08651e+00,6.74013e-13,1.08651e+00,1.42680e-12,1.08651e+00
8.03961e+02,3.85900e+03,1.15300e+04,-7.67100e+03,1.16414e-12,1.09405e+00,7.14750e-13,1.09405e+00,1.23809e-12,1.09405e+00
8.04210e+02,6.57900e+03,7.44400e+03,-8.65000e+02,1.22056e-12,1.10160e+00,3.03628e-13,1.10160e+00,1.02071e-12,1.10160e+00
8.04460e+02,1.12250e+04,4.14000e+03,7.08500e+03,8.47234e-13,1.10914e+00,1.31631e-13,1.10914e+00,9.04180e-13,1.10914e+00
8.04709e+02,1.41520e+04,3.60900e+03,1.05430e+04,3.04008e-13,1.11669e+00,1.45116e-13,1.11669e+00,3.41766e-13,1.11669e+00
8.04958e+02,1.31310e+04,5.83800e+03,7.29300e+03,1.38453e-13,1.12423e+00,7.23145e-14,1.12423e+00,6.65226e-14,1.12423e+00
8.05208e+02,1.00860e+04,9.28800e+03,7.98000e+02,3.22626e-13,1.13178e+00,5.18691e-13,1.13178e+00,1.99691e-13,1.13178e+00
8.05457e+02,6.14900e+03,1.11850e+04,-5.03600e+03,8.87546e-13,1.13932e+00,1.10365e-12,1.13932e+00,6.80702e-13,1.13932e+00
8.05707e+02,3.95900e+03,1.29550e+04,-8.99600e+03,1.09907e-12,1.14687e+00,1.07693e-12,1.14687e+00,3.93003e-13,1.14687e+00
8.05956e+02,4.23000e+03,1.22140e+04,-7.98400e+03,8.78952e-13,1.15442e+00,8.44093e-13,1.15442e+00,4.09368e-13,1.15442e+00
8.06205e+02,7.02000e+03,7.59600e+03,-5.76000e+02,5.43488e-13,1.16196e+00,5.40596e-13,1.16196e+00,8.51046e-13,1.16196e+00
8.06455e+02,1.12120e+04,4.41200e+03,6.80000e+03,5.84116e-13,1.16951e+00,2.20849e-13,1.16951e+00,8.04808e-13,1.16951e+00
8.06704e+02,1.39630e+04,3.94700e+03,1.00160e+04,6.59579e-13,1.17705e+00,2.58230e-13,1.17705e+00,4.59015e-13,1.17705e+00
8.06953e+02,1.34880e+04,6.32500e+03,7.16300e+03,5.06583e-13,1.18460e+00,2.46161e-13,1.18460e+00,3.71331e-13,1.18460e+00
8.07203e+02,9.80900e+03,9.35300e+03,4.56000e+02,3.99297e-13,1.19214e+00,1.99601e-13,1.19214e+00,3.59178e-13,1.19214e+00
8.07452e+02,6.50400e+03,1.30110e+04,-6.50700e+03,7.32736e-13,1.19969e+00,6.40227e-13,1.19969e+00,1.24251e-13,1.19969e+00
8.07701e+02,3.84500e+03,1.41570e+04,-1.03120e+04,8.64935e-13,1.20723e+00,1.25898e-12,1.20723e+00,6.20839e-13,1.20723e+00
8.07951e+02,4.37000e+03,1.21910e+04,-7.82100e+03,5.98198e-13,1.21478e+00,1.27125e-12,1.21478e+00,6.89505e-13,1.21478e+00
8.08200e+02,6.51700e+03,7.90600e+03,-1.38900e+03,3.76800e-13,1.22232e+00,9.28327e-13,1.22232e+00,6.67737e-13,1.22232e+00
8.08449e+02,1.07740e+04,4.70200e+03,6.07200e+03,1.02280e-13,1.22987e+00,3.37415e-13,1.22987e+00,3.07581e-13,1.22987e+00
8.08698e+02,1.42560e+04,4.04000e+03,1.02160e+04,1.86237e-13,1.23741e+00,5.35802e-13,1.23741e+00,5.09879e-13,1.23741e+00
8.08948e+02,1.48350e+04,6.88400e+03,7.95100e+03,3.55110e-13,1.24496e+00,4.63444e-13,1.24496e+00,7.89803e-13,1.24496e+00
8.09197e+02,1.24870e+04,1.15210e+04,9.66000e+02,4.18904e-13,1.25250e+00,7.12497e-13,1.25250e+00,1.01547e-12,1.25250e+00
8.09446e+02,7.24700e+03,1.39370e+04,-6.69000e+03,2.72154e-13,1.26005e+00,7.57931e-13,1.26005e+00,6.05725e-13,1.26005e+00
8.09695e+02,4.30600e+03,1.48560e+04,-1.05500e+04,8.76534e-14,1.26759e+00,7.38331e-13,1.26759e+00,8.25982e-13,1.26759e+00
8.09945e+02,5.21900e+03,1.34350e+04,-8.21600e+03,8.53765e-14,1.27514e+00,1.14912e-12,1.27514e+00,1.14283e-12,1.27514e+00
8.10194e+02,8.35700e+03,9.19700e+03,-8.40000e+02,2.74984e-13,1.28268e+00,1.28507e-12,1.28268e+00,1.05985e-12,1.28268e+00
8.10443e+02,1.26460e+04,5.36400e+03,7.28200e+03,7.57606e-13,1.29023e+00,1.33145e-12,1.29023e+00,6.00423e-13,1.29023e+00
8.10692e+02,1.48490e+04,4.82000e+03,1.00290e+04,6.81257e-13,1.29777e+00,6.00938e-13,1.29777e+00,9.64077e-14,1.29777e+00
8.10941e+02,1.48960e+04,7.98200e+03,6.91400e+03,1.22892e-13,1.30532e+00,5.20139e-13,1.30532e+00,4.90721e-13,1.30532e+00
8.11191e+02,1.13560e+04,1.20480e+04,-6.92000e+02,5.29891e-13,1.31286e+00,2.80927e-13,1.31286e+00,7.22911e-13,1.31286e+00
8.11440e+02,7.14000e+03,1.51840e+04,-8.04400e+03,2.05614e-12,-1.32041e+00,1.32480e-12,-1.32041e+00,7.31343e-13,-1.32041e+00
8.11689e+02,4.58900e+03,1.56730e+04,-1.10840e+04,5.29891e-13,-1.31286e+00,2.80927e-13,-1.31286e+00,7.22911e-13,-1.31286e+00
8.11938e+02,5.67100e+03,1.43400e+04,-8.66900e+03,1.22892e-13,-1.30532e+00,5.20139e-13,-1.30532e+00,4.90721e-13,-1.30532e+00
8.12187e+02,1.00270e+04,9.62000e+03,4.07000e+02,6.81257e-13,-1.29777e+00,6.00938e-13,-1.29777e+00,9.64077e-14,-1.29777e+00
8.12436e+02,1.42350e+04,5.74800e+03,8.48700e+03,7.57606e-13,-1.29023e+00,1.33145e-12,-1.29023e+00,6.00423e-13,-1.29023e+00
8.12685e+02,1.53090e+04,5.25200e+03,1.00570e+04,2.74984e-13,-1.28268e+00,1.28507e-12,-1.28268e+00,1.05985e-12,-1.28268e+00
8.12935e+02,1.47820e+04,7.97700e+03,6.80500e+03,8.53765e-14,-1.27514e+00,1.14912e-12,-1.27514e+00,1.14283e-12,-1.27514e+00
8.13184e+02,1.13980e+04,1.17200e+04,-3.22000e+02,8.76534e-14,-1.26759e+00,7.38331e-13,-1.26759e+00,8.25982e-13,-1.26759e+00
8.13433e+02,7.34800e+03,1.48340e+04,-7.48600e+03,2.72154e-13,-1.26005e+00,7.57931e-13,-1.26005e+00,6.05725e-13,-1.26005e+00
8.13682e+02,4.72200e+03,1.52770e+04,-1.05550e+04,4.18904e-13,-1.25250e+00,7.12497e-13,-1.25250e+00,1.01547e-12,-1.25250e+00
8.13931e+02,5.34800e+03,1.38560e+04,-8.50800e+03,3.55110e-13,-1.24496e+00,4.63444e-13,-1.24496e+00,7.89803e-13,-1.24496e+00
8.14180e+02,8.44500e+03,9.15100e+03,-7.06000e+02,1.86237e-13,-1.23741e+00,5.35802e-13,-1.23741e+00,5.09879e-13,-1.23741e+00
8.14429e+02,1.29440e+04,5.58000e+03,7.36400e+03,1.02280e-13,-1.22987e+00,3.37415e-13,-1.22987e+00,3.07581e-13,-1.22987e+00
8.14678e+02,1.51250e+04,4.57000e+03,1.05550e+04,3.76800e-13,-1.22232e+00,9.28327e-13,-1.22232e+00,6.67737e-13,-1.22232e+00
8.14927e+02,1.41520e+04,6.78700e+03,7.36500e+03,5.98198e-13,-1.21478e+00,1.27125e-12,-1.21478e+00,6.89505e-13,-1.21478e+00
8.15176e+02,1.10510e+04,1.03760e+04,6.75000e+02,8.64935e-13,-1.20723e+00,1.25898e-12,-1.20723e+00,6.20839e-13,-1.20723e+00
8.15425e+02,6.72000e+03,1.32300e+04,-6.51000e+03,7.32736e-13,-1.19969e+00,6.40227e-13,-1.19969e+00,1.24251e-13,-1.19969e+00
8.15674e+02,4.28500e+03,1.45290e+04,-1.02440e+04,3.99297e-13,-1.19214e+00,1.99601e-13,-1.19214e+00,3.59178e-13,-1.19214e+00
8.15923e+02,5.44500e+03,1.32800e+04,-7.83500e+03,5.06583e-13,-1.18460e+00,2.46161e-13,-1.18460e+00,3.71331e-13,-1.18460e+00
8.16172e+02,9.64200e+03,9.73000e+03,-8.80000e+01,6.59579e-13,-1.17705e+00,2.58230e-13,-1.17705e+00,4.59015e-13,-1.17705e+00
8.16421e+02,1.26320e+04,4.81400e+03,7.81800e+03,5.84116e-13,-1.16951e+00,2.20849e-13,-1.16951e+00,8.04808e-13,-1.16951e+00
8.16670e+02,1.33190e+04,4.24000e+03,9.07900e+03,5.43488e-13,-1.16196e+00,5.40596e-13,-1.16196e+00,8.51046e-13,-1.16196e+00
8.16919e+02,1.30810e+04,7.08400e+03,5.99700e+03,8.78952e-13,-1.15442e+00,8.44093e-13,-1.15442e+00,4.09368e-13,-1.15442e+00
8.17168e+02,1.00020e+04,1.05610e+04,-5.59000e+02,1.09907e-12,-1.14687e+00,1.07693e-12,-1.14687e+00,3.93003e-13,-1.14687e+00
8.17417e+02,5.85600e+03,1.25330e+04,-6.67700e+03,8.87546e-13,-1.13932e+00,1.10365e-12,-1.13932e+00,6.80702e-13,-1.13932e+00
8.17666e+02,3.79900e+03,1.32180e+04,-9.41900e+03,3.22626e-13,-1.13178e+00,5.18691e-13,-1.13178e+00,1.99691e-13,-1.13178e+00
8.17915e+02,4.44600e+03,1.12170e+04,-6.77100e+03,1.38453e-13,-1.12423e+00,7.23145e-14,-1.12423e+00,6.65226e-14,-1.12423e+00
8.18164e+02,6.66500e+03,7.28400e+03,-6.19000e+02,3.04008e-13,-1.11669e+00,1.45116e-13,-1.11669e+00,3.41766e-13,-1.11669e+00
8.18413e+02,9.43400e+03,3.99300e+03,5.44100e+03,8.47234e-13,-1.10914e+00,1.31631e-13,-1.10914e+00,9.04180e-13,-1.10914e+00
8.18662e+02,1.06040e+04,3.32900e+03,7.27500e+03,1.22056e-12,-1.10160e+00,3.03628e-13,-1.10160e+00,1.02071e-12,-1.10160e+00
8.18911e+02,1.03400e+04,5.01400e+03,5.32600e+03,1.16414e-12,-1.09405e+00,7.14750e-13,-1.09405e+00,1.23809e-12,-1.09405e+00
8.19160e+02,7.82200e+03,7.90300e+03,-8.10000e+01,9.55272e-13,-1.08651e+00,6.74013e-13,-1.08651e+00,1.42680e-12,-1.08651e+00
8.19408e+02,4.93900e+03,1.05660e+04,-5.62700e+03,4.59236e-13,-1.07896e+00,7.41884e-13,-1.07896e+00,1.05495e-12,-1.07896e+00
8.19657e+02,3.30000e+03,1.25710e+04,-9.27100e+03,1.80893e-13,-1.07142e+00,5.68219e-13,-1.07142e+00,5.43412e-13,-1.07142e+00
8.19906e+02,4.09300e+03,1.11320e+04,-7.03900e+03,2.90541e-13,-1.06387e+00,6.78680e-13,-1.06387e+00,5.58170e-13,-1.06387e+00
8.20155e+02,7.21600e+03,7.65700e+03,-4.41000e+02,3.53107e-13,-1.05633e+00,5.35919e-13,-1.05633e+00,3.37826e-13,-1.05633e+00
8.20404e+02,9.94600e+03,4.36900e+03,5.57700e+03,2.65728e-13,-1.04878e+00,2.50437e-13,-1.04878e+00,2.21035e-13,-1.04878e+00
8.20653e+02,1.09400e+04,3.37400e+03,7.56600e+03,5.02549e-13,-1.04124e+00,5.65775e-13,-1.04124e+00,7.43752e-13,-1.04124e+00
8.20901e+02,1.02550e+04,4.89000e+03,5.36500e+03,7.29283e-13,-1.03369e+00,4.47637e-13,-1.03369e+00,1.06884e-12,-1.03369e+00
8.21150e+02,8.13400e+03,8.26900e+03,-1.35000e+02,9.69674e-13,-1.02615e+00,6.40754e-13,-1.02615e+00,1.49903e-12,-1.02615e+00
8.21399e+02,4.65200e+03,9.31300e+03,-4.66100e+03,3.78994e-13,-1.01860e+00,8.43254e-13,-1.01860e+00,9.89982e-13,-1.01860e+00
8.21648e+02,2.79800e+03,9.83500e+03,-7.03700e+03,2.18749e-13,-1.01106e+00,3.68346e-13,-1.01106e+00,5.00050e-13,-1.01106e+00
8.21897e+02,3.12900e+03,8.85200e+03,-5.72300e+03,9.55961e-13,-1.00351e+00,6.86883e-13,-1.00351e+00,4.09753e-13,-1.00351e+00
8.22145e+02,4.63400e+03,5.96800e+03,-1.33400e+03,1.55175e-12,-9.95966e-01,7.39651e-13,-9.95966e-01,8.18026e-13,-9.95966e-01
8.22394e+02,7.76400e+03,3.66200e+03,4.10200e+03,1.27875e-12,-9.88421e-01,8.08172e-13,-9.88421e-01,7.21151e-13,-9.88421e-01
8.22643e+02,9.49900e+03,2.76400e+03,6.73500e+03,6.79177e-13,-9.80876e-01,1.22424e-12,-9.80876e-01,9.32244e-13,-9.80876e-01
8.22892e+02,8.76200e+03,3.96200e+03,4.80000e+03,2.12776e-13,-9.73331e-01,1.00887e-12,-9.73331e-01,1.05047e-12,-9.73331e-01
8.23140e+02,6.97900e+03,6.15300e+03,8.26000e+02,9.81027e-13,-9.65785e-01,5.95301e-13,-9.65785e-01,1.56063e-12,-9.65785e-01
8.23389e+02,4.70600e+03,8.77600e+03,-4.07000e+03,1.23335e-12,-9.58240e-01,2.74445e-13,-9.58240e-01,1.06717e-12,-9.58240e-01
8.23638e+02,2.94700e+03,9.83900e+03,-6.89200e+03,8.40620e-13,-9.50695e-01,9.15123e-13,-9.50695e-01,1.07299e-12,-9.50695e-01
8.23887e+02,3.03100e+03,8.33200e+03,-5.30100e+03,3.51202e-13,-9.43150e-01,1.70109e-12,-9.43150e-01,1.78892e-12,-9.43150e-01
8.24135e+02,4.90200e+03,5.76900e+03,-8.67000e+02,3.59364e-13,-9.35605e-01,1.65309e-12,-9.35605e-01,1.39848e-12,-9.35605e-01
8.24384e+02,6.86200e+03,3.53200e+03,3.33000e+03,5.16962e-13,-9.28059e-01,1.11135e-12,-9.28059e-01,6.17793e-13,-9.28059e-01
8.24633e+02,8.13000e+03,2.55300e+03,5.57700e+03,5.20899e-13,-9.20514e-01,4.42850e-13,-9.20514e-01,1.62680e-13,-9.20514e-01
8.24881e+02,8.31100e+03,3.52600e+03,4.78500e+03,6.93856e-13,-9.12969e-01,8.81053e-13,-9.12969e-01,3.91653e-13,-9.12969e-01
8.25130e+02,6.84000e+03,5.61700e+03,1.22300e+03,2.67145e-13,-9.05424e-01,9.26170e-13,-9.05424e-01,6.71302e-13,-9.05424e-01
8.25379e+02,4.32000e+03,8.31400e+03,-3.99400e+03,4.04236e-13,-8.97879e-01,7.22696e-13,-8.97879e-01,7.08385e-13,-8.97879e-01
8.25627e+02,2.36500e+03,7.77100e+03,-5.40600e+03,6.03545e-13,-8.90333e-01,5.95432e-13,-8.90333e-01,1.15208e-12,-8.90333e-01
8.25876e+02,2.24800e+03,6.56600e+03,-4.31800e+03,7.31003e-13,-8.82788e-01,5.95464e-13,-8.82788e-01,1.15567e-12,-8.82788e-01
8.26125e+02,3.45600e+03,4.72700e+03,-1.27100e+03,7.50996e-13,-8.75243e-01,4.62129e-13,-8.75243e-01,4.49168e-13,-8.75243e-01
8.26373e+02,4.69600e+03,2.77900e+03,1.91700e+03,3.28024e-13,-8.67698e-01,4.59561e-13,-8.67698e-01,3.01076e-13,-8.67698e-01
8.26622e+02,5.17900e+03,1.88500e+03,3.29400e+03,6.09506e-13,-8.60153e-01,1.01237e-12,-8.60153e-01,1.52566e-12,-8.60153e-01
8.26870e+02,4.79700e+03,2.33400e+03,2.46300e+03,1.10110e-12,-8.52607e-01,1.23122e-12,-8.52607e-01,2.07863e-12,-8.52607e-01
8.27119e+02,4.01500e+03,3.38100e+03,6.34000e+02,1.27776e-12,-8.45062e-01,6.36675e-13,-8.45062e-01,1.63043e-12,-8.45062e-01
8.27368e+02,2.87300e+03,4.62900e+03,-1.75600e+03,1.45120e-12,-8.37517e-01,8.59227e-13,-8.37517e-01,6.82295e-13,-8.37517e-01
8.27616e+02,1.86400e+03,4.78000e+03,-2.91600e+03,1.77291e-12,-8.29972e-01,1.70219e-12,-8.29972e-01,5.10304e-13,-8.29972e-01
8.27865e+02,1.69900e+03,4.57800e+03,-2.87900e+03,1.42244e-12,-8.22427e-01,1.65602e-12,-8.22427e-01,1.16424e-12,-8.22427e-01
8.28113e+02,2.44900e+03,4.34500e+03,-1.89600e+03,1.11665e-12,-8.14881e-01,9.38800e-13,-8.14881e-01,1.44846e-12,-8.14881e-01
8.28362e+02,3.76800e+03,2.81600e+03,9.52000e+02,1.06863e-12,-8.07336e-01,5.11078e-13,-8.07336e-01,1.44929e-12,-8.07336e-01
8.28610e+02,4.60500e+03,1.66900e+03,2.93600e+03,9.98904e-13,-7.99791e-01,4.35845e-13,-7.99791e-01,1.34909e-12,-7.99791e-01
8.28859e+02,4.63000e+03,1.68800e+03,2.94200e+03,8.47984e-13,-7.92246e-01,1.28933e-12,-7.92246e-01,1.21400e-12,-7.92246e-01
8.29108e+02,3.83500e+03,2.47600e+03,1.35900e+03,6.06454e-13,-7.84701e-01,1.89934e-12,-7.84701e-01,1.99996e-12,-7.84701e-01
8.29356e+02,2.82800e+03,3.42200e+03,-5.94000e+02,1.32231e-12,-7.77155e-01,2.28223e-12,-7.77155e-01,2.25281e-12,-7.77155e-01
8.29605e+02,1.68900e+03,4.02000e+03,-2.33100e+03,1.01344e-12,-7.69610e-01,2.01217e-12,-7.69610e-01,1.09892e-12,-7.69610e-01
8.29853e+02,1.29100e+03,3.75200e+03,-2.46100e+03,1.31711e-12,-7.62065e-01,1.17332e-12,-7.62065e-01,1.27119e-12,-7.62065e-01
8.30101e+02,1.55600e+03,3.03600e+03,-1.48000e+03,1.48760e-12,-7.54520e-01,3.22271e-13,-7.54520e-01,1.40588e-12,-7.54520e-01
8.30350e+02,2.36800e+03,2.19200e+03,1.76000e+02,3.84193e-13,-7.46975e-01,7.62199e-13,-7.46975e-01,4.84464e-13,-7.46975e-01
8.30598e+02,2.81100e+03,1.36000e+03,1.45100e+03,5.15197e-13,-7.39429e-01,9.27003e-13,-7.39429e-01,1.40382e-12,-7.39429e-01
8.30847e+02,3.17600e+03,1.25200e+03,1.92400e+03,9.27091e-13,-7.31884e-01,5.71460e-13,-7.31884e-01,1.34629e-12,-7.31884e-01
8.31095e+02,3.04800e+03,1.60000e+03,1.44800e+03,1.02261e-12,-7.24339e-01,4.00517e-13,-7.24339e-01,6.72547e-13,-7.24339e-01
8.31344e+02,2.27600e+03,2.52400e+03,-2.48000e+02,6.93197e-13,-7.16794e-01,6.08524e-13,-7.16794e-01,4.56598e-13,-7.16794e-01
8.31592e+02,1.42200e+03,2.84400e+03,-1.42200e+03,7.65284e-13,-7.09249e-01,1.50972e-12,-7.09249e-01,1.22623e-12,-7.09249e-01
8.31841e+02,1.02500e+03,2.74700e+03,-1.72200e+03,7.25431e-13,-7.01703e-01,2.06451e-12,-7.01703e-01,1.65816e-12,-7.01703e-01
8.32089e+02,1.06200e+03,2.50000e+03,-1.43800e+03,7.69652e-13,-6.94158e-01,1.13680e-12,-6.94158e-01,5.51429e-13,-6.94158e-01
8.32337e+02,1.54700e+03,1.95500e+03,-4.08000e+02,9.66874e-13,-6.86613e-01,1.64784e-12,-6.86613e-01,1.99210e-12,-6.86613e-01
8.32586e+02,1.88800e+03,1.17100e+03,7.17000e+02,1.00319e-12,-6.79068e-01,2.68342e-12,-6.79068e-01,3.31126e-12,-6.79068e-01
8.32834e+02,2.34200e+03,9.54000e+02,1.38800e+03,1.46897e-12,-6.71523e-01,2.90872e-12,-6.71523e-01,3.92289e-12,-6.71523e-01
8.33083e+02,2.19300e+03,9.78000e+02,1.21500e+03,2.30243e-12,-6.63977e-01,3.12969e-12,-6.63977e-01,4.12776e-12,-6.63977e-01
8.33331e+02,1.81600e+03,1.50500e+03,3.11000e+02,2.43975e-12,-6.56432e-01,3.83436e-12,-6.56432e-01,4.23725e-12,-6.56432e-01
8.33579e+02,1.26100e+03,1.92300e+03,-6.62000e+02,1.53051e-12,-6.48887e-01,4.42515e-12,-6.48887e-01,3.74711e-12,-6.48887e-01
8.33828e+02,8.97000e+02,2.08400e+03,-1.18700e+03,1.45489e-12,-6.41342e-01,3.40950e-12,-6.41342e-01,1.99616e-12,-6.41342e-01
8.34076e+02,7.74000e+02,1.77700e+03,-1.00300e+03,2.33641e-12,-6.33797e-01,2.13433e-12,-6.33797e-01,4.70591e-13,-6.33797e-01
8.34324e+02,9.82000e+02,1.46900e+03,-4.87000e+02,2.48643e-12,-6.26251e-01,9.77861e-13,-6.26251e-01,1.95836e-12,-6.26251e-01
8.34573e+02,1.26200e+03,1.05600e+03,2.06000e+02,2.56041e-12,-6.18706e-01,8.75027e-13,-6.18706e-01,1.93314e-12,-6.18706e-01
8.34821e+02,1.53300e+03,7.99000e+02,7.34000e+02,2.52274e-12,-6.11161e-01,1.51255e-12,-6.11161e-01,1.13311e-12,-6.11161e-01
8.35069e+02,1.51300e+03,7.24000e+02,7.89000e+02,2.46851e-12,-6.03616e-01,1.42985e-12,-6.03616e-01,1.17376e-12,-6.03616e-01
8.35318e+02,1.57800e+03,9.90000e+02,5.88000e+02,2.20886e-12,-5.96071e-01,1.82290e-12,-5.96071e-01,1.13334e-12,-5.96071e-01
8.35566e+02,1.09200e+03,1.15900e+03,-6.70000e+01,2.50152e-12,-5.88525e-01,1.53414e-12,-5.88525e-01,1.08062e-12,-5.88525e-01
8.35814e+02,8.25000e+02,1.38400e+03,-5.59000e+02,2.56814e-12,-5.80980e-01,5.60451e-13,-5.80980e-01,2.13481e-12,-5.80980e-01
8.36062e+02,7.04000e+02,1.27600e+03,-5.72000e+02,2.02672e-12,-5.73435e-01,9.93374e-13,-5.73435e-01,2.40792e-12,-5.73435e-01
8.36311e+02,7.18000e+02,1.12700e+03,-4.09000e+02,1.64792e-12,-5.65890e-01,1.77310e-12,-5.65890e-01,3.02327e-12,-5.65890e-01
8.36559e+02,8.26000e+02,8.85000e+02,-5.90000e+01,1.01828e-12,-5.58345e-01,1.38600e-12,-5.58345e-01,2.39234e-12,-5.58345e-01
8.36807e+02,1.09500e+03,7.68000e+02,3.27000e+02,7.75998e-14,-5.50799e-01,2.06899e-13,-5.50799e-01,2.42383e-13,-5.50799e-01
8.37055e+02,1.19100e+03,6.77000e+02,5.14000e+02,1.03183e-12,-5.43254e-01,1.89110e-12,-5.43254e-01,2.49584e-12,-5.43254e-01
8.37304e+02,1.11800e+03,7.24000e+02,3.94000e+02,1.64817e-12,-5.35709e-01,2.66059e-12,-5.35709e-01,3.29261e-12,-5.35709e-01
8.37552e+02,9.35000e+02,7.75000e+02,1.60000e+02,1.18246e-12,-5.28164e-01,1.91727e-12,-5.28164e-01,1.67585e-12,-5.28164e-01
8.37800e+02,7.96000e+02,9.76000e+02,-1.80000e+02,1.57165e-12,-5.20619e-01,1.20845e-12,-5.20619e-01,7.77724e-13,-5.20619e-01
8.38048e+02,6.36000e+02,9.21000e+02,-2.85000e+02,1.31852e-12,-5.13073e-01,1.28890e-12,-5.13073e-01,8.18121e-13,-5.13073e-01
8.38296e+02,6.47000e+02,9.05000e+02,-2.58000e+02,1.36375e-12,-5.05528e-01,1.12101e-12,-5.05528e-01,4.47909e-13,-5.05528e-01
8.38545e+02,6.82000e+02,7.98000e+02,-1.16000e+02,1.18833e-12,-4.97983e-01,3.74221e-13,-4.97983e-01,1.36156e-12,-4.97983e-01
8.38793e+02,7.41000e+02,6.89000e+02,5.20000e+01,4.44731e-13,-4.90438e-01,3.12354e-12,-4.90438e-01,3.49331e-12,-4.90438e-01
8.39041e+02,7.56000e+02,6.57000e+02,9.90000e+01,4.22297e-13,-4.82893e-01,4.62439e-12,-4.82893e-01,4.20305e-12,-4.82893e-01
8.39289e+02,7.92000e+02,6.41000e+02,1.51000e+02,1.74827e-12,-4.75347e-01,3.52004e-12,-4.75347e-01,3.20819e-12,-4.75347e-01
8.39537e+02,7.28000e+02,6.42000e+02,8.60000e+01,2.35550e-12,-4.67802e-01,1.53044e-12,-4.67802e-01,2.94883e-12,-4.67802e-01
8.39785e+02,7.12000e+02,7.20000e+02,-8.00000e+00,2.98157e-12,-4.60257e-01,7.01016e-13,-4.60257e-01,3.16136e-12,-4.60257e-01
8.40033e+02,6.52000e+02,7.31000e+02,-7.90000e+01,3.97873e-12,-4.52712e-01,2.58535e-12,-4.52712e-01,3.87404e-12,-4.52712e-01
8.40281e+02,6.75000e+02,7.84000e+02,-1.09000e+02,3.91410e-12,-4.45167e-01,2.30570e-12,-4.45167e-01,2.64020e-12,-4.45167e-01
8.40530e+02,6.22000e+02,6.82000e+02,-6.00000e+01,2.82319e-12,-4.37621e-01,1.00557e-12,-4.37621e-01,2.51209e-12,-4.37621e-01
8.40778e+02,6.77000e+02,6.64000e+02,1.30000e+01,1.71556e-12,-4.30076e-01,2.54097e-12,-4.30076e-01,2.85402e-12,-4.30076e-01
8.41026e+02,6.66000e+02,6.25000e+02,4.10000e+01,3.38137e-13,-4.22531e-01,2.69633e-12,-4.22531e-01,3.03102e-12,-4.22531e-01
8.41274e+02,6.77000e+02,6.25000e+02,5.20000e+01,1.73338e-12,-4.14986e-01,1.96184e-12,-4.14986e-01,3.64453e-12,-4.14986e-01
8.41522e+02,6.76000e+02,6.41000e+02,3.50000e+01,1.54197e-12,-4.07441e-01,1.27266e-12,-4.07441e-01,1.31008e-12,-4.07441e-01
8.41770e+02,6.66000e+02,6.38000e+02,2.80000e+01,2.65247e-12,-3.99895e-01,1.67556e-13,-3.99895e-01,2.72117e-12,-3.99895e-01
8.42018e+02,6.48000e+02,6.51000e+02,-3.00000e+00,4.15147e-12,-3.92350e-01,2.88142e-12,-3.92350e-01,6.16035e-12,-3.92350e-01
8.42266e+02,6.28000e+02,6.80000e+02,-5.20000e+01,4.62762e-12,-3.84805e-01,4.06636e-12,-3.84805e-01,7.87713e-12,-3.84805e-01
8.42514e+02,6.45000e+02,6.62000e+02,-1.70000e+01,2.16835e-12,-3.77260e-01,2.87623e-12,-3.77260e-01,5.04268e-12,-3.77260e-01
8.42762e+02,6.67000e+02,6.77000e+02,-1.00000e+01,9.51917e-13,-3.69715e-01,5.57245e-12,-3.69715e-01,6.35248e-12,-3.69715e-01
8.43010e+02,6.31000e+02,6.22000e+02,9.00000e+00,3.63089e-12,-3.62169e-01,8.80008e-12,-3.62169e-01,1.20076e-11,-3.62169e-01
8.43258e+02,6.61000e+02,6.27000e+02,3.40000e+01,1.18385e-11,-3.54624e-01,1.10773e-11,-3.54624e-01,2.01663e-11,-3.54624e-01
8.43506e+02,6.49000e+02,6.21000e+02,2.80000e+01,3.98988e-11,-3.47079e-01,3.24619e-11,-3.47079e-01,7.00371e-11,-3.47079e-01
8.43754e+02,6.62000e+02,6.31000e+02,3.10000e+01,7.65722e-11,-3.39534e-01,7.24745e-11,-3.39534e-01,1.45288e-10,-3.39534e-01
8.44002e+02,6.40000e+02,6.40000e+02,0.00000e+00,8.61975e-11,-3.31989e-01,8.77095e-11,-3.31989e-01,1.69459e-10,-3.31989e-01
8.44250e+02,6.24000e+02,6.45000e+02,-2.10000e+01,6.24982e-11,-3.24444e-01,6.81219e-11,-3.24444e-01,1.27345e-10,-3.24444e-01
8.44498e+02,6.33000e+02,6.47000e+02,-1.40000e+01,3.44454e-11,-3.16898e-01,4.09689e-11,-3.16898e-01,7.39561e-11,-3.16898e-01
8.44746e+02,6.24000e+02,6.38000e+02,-1.40000e+01,1.19627e-11,-3.09353e-01,1.50397e-11,-3.09353e-01,2.69231e-11,-3.09353e-01
8.44994e+02,6.35000e+02,6.41000e+02,-6.00000e+00,2.13049e-12,-3.01808e-01,2.04926e-12,-3.01808e-01,3.83630e-12,-3.01808e-01
8.45242e+02,6.62000e+02,6.69000e+02,-7.00000e+00,3.62154e-12,-2.94263e-01,3.08427e-12,-2.94263e-01,6.69653e-12,-2.94263e-01
8.45490e+02,6.30000e+02,6.10000e+02,2.00000e+01,2.11355e-12,-2.86718e-01,1.21387e-12,-2.86718e-01,1.59452e-12,-2.86718e-01
8.45738e+02,6.34000e+02,6.30000e+02,4.00000e+00,2.10619e-12,-2.79172e-01,2.09015e-12,-2.79172e-01,8.74515e-13,-2.79172e-01
8.45985e+02,6.27000e+02,6.29000e+02,-2.00000e+00,1.91981e-12,-2.71627e-01,1.93300e-12,-2.71627e-01,1.99092e-12,-2.71627e-01
8.46233e+02,6.36000e+02,6.40000e+02,-4.00000e+00,1.83487e-12,-2.64082e-01,2.46453e-12,-2.64082e-01,4.29940e-12,-2.64082e-01
8.46481e+02,6.20000e+02,6.37000e+02,-1.70000e+01,4.00272e-12,-2.56537e-01,1.90892e-12,-2.56537e-01,5.83744e-12,-2.56537e-01
8.46729e+02,6.27000e+02,6.35000e+02,-8.00000e+00,5.19457e-12,-2.48992e-01,2.53102e-12,-2.48992e-01,4.24494e-12,-2.48992e-01
8.46977e+02,6.26000e+02,6.27000e+02,-1.00000e+00,4.21167e-12,-2.41446e-01,4.14354e-12,-2.41446e-01,2.37736e-12,-2.41446e-01
8.47225e+02,6.34000e+02,6.33000e+02,1.00000e+00,2.60425e-12,-2.33901e-01,3.14438e-12,-2.33901e-01,8.62287e-13,-2.33901e-01
8.47473e+02,6.26000e+02,6.26000e+02,0.00000e+00,1.01789e-12,-2.26356e-01,1.48106e-12,-2.26356e-01,8.93284e-13,-2.26356e-01
8.47720e+02,6.59000e+02,6.65000e+02,-6.00000e+00,1.04639e-12,-2.18811e-01,1.27984e-12,-2.18811e-01,9.67655e-13,-2.18811e-01
8.47968e+02,6.12000e+02,6.11000e+02,1.00000e+00,1.53172e-12,-2.11266e-01,3.47924e-12,-2.11266e-01,2.02933e-12,-2.11266e-01
8.48216e+02,6.30000e+02,6.41000e+02,-1.10000e+01,6.18547e-13,-2.03720e-01,3.87583e-12,-2.03720e-01,4.01435e-12,-2.03720e-01
8.48464e+02,6.29000e+02,6.26000e+02,3.00000e+00,9.52574e-13,-1.96175e-01,2.74239e-12,-1.96175e-01,3.02680e-12,-1.96175e-01
8.48712e+02,6.34000e+02,6.24000e+02,1.00000e+01,1.89395e-12,-1.88630e-01,8.58957e-13,-1.88630e-01,1.52828e-12,-1.88630e-01
8.48960e+02,6.37000e+02,6.31000e+02,6.00000e+00,2.94321e-12,-1.81085e-01,2.08270e-12,-1.81085e-01,1.10290e-12,-1.81085e-01
8.49207e+02,6.24000e+02,6.28000e+02,-4.00000e+00,6.08012e-12,-1.73540e-01,3.84506e-12,-1.73540e-01,2.29260e-12,-1.73540e-01
8.49455e+02,6.25000e+02,6.30000e+02,-5.00000e+00,6.14321e-12,-1.65994e-01,2.93228e-12,-1.65994e-01,3.28815e-12,-1.65994e-01
8.49703e+02,6.34000e+02,6.45000e+02,-1.10000e+01,4.09281e-12,-1.58449e-01,2.42102e-12,-1.58449e-01,2.18065e-12,-1.58449e-01
8.49951e+02,6.29000e+02,6.27000e+02,2.00000e+00,5.46106e-12,-1.50904e-01,5.26105e-12,-1.50904e-01,7.56180e-13,-1.50904e-01
8.50198e+02,6.49000e+02,6.52000e+02,-3.00000e+00,3.09928e-12,-1.43359e-01,4.78188e-12,-1.43359e-01,2.33736e-12,-1.43359e-01
8.50446e+02,6.15000e+02,6.19000e+02,-4.00000e+00,3.76853e-12,-1.35814e-01,1.55046e-12,-1.35814e-01,3.64608e-12,-1.35814e-01
8.50694e+02,6.26000e+02,6.25000e+02,1.00000e+00,2.81790e-12,-1.28268e-01,4.48921e-13,-1.28268e-01,2.53066e-12,-1.28268e-01
8.50941e+02,6.29000e+02,6.22000e+02,7.00000e+00,1.43443e-12,-1.20723e-01,2.15978e-12,-1.20723e-01,1.99923e-12,-1.20723e-01
8.51189e+02,6.30000e+02,6.30000e+02,0.00000e+00,1.60343e-12,-1.13178e-01,2.51427e-12,-1.13178e-01,2.85043e-12,-1.13178e-01
8.51437e+02,6.28000e+02,6.30000e+02,-2.00000e+00,4.28236e-12,-1.05633e-01,1.96916e-12,-1.05633e-01,2.74289e-12,-1.05633e-01
8.51685e+02,6.25000e+02,6.43000e+02,-1.80000e+01,3.54931e-12,-9.80876e-02,4.37927e-12,-9.80876e-02,8.83511e-13,-9.80876e-02
8.51932e+02,6.28000e+02,6.33000e+02,-5.00000e+00,4.37813e-13,-9.05424e-02,4.65107e-12,-9.05424e-02,4.76200e-12,-9.05424e-02
8.52180e+02,6.37000e+02,6.40000e+02,-3.00000e+00,3.04570e-12,-8.29972e-02,2.00130e-12,-8.29972e-02,5.04150e-12,-8.29972e-02
8.52428e+02,6.25000e+02,6.40000e+02,-1.50000e+01,2.33651e-12,-7.54520e-02,1.25378e-12,-7.54520e-02,2.70115e-12,-7.54520e-02
8.52675e+02,6.63000e+02,6.75000e+02,-1.20000e+01,4.73143e-12,-6.79068e-02,4.68273e-12,-6.79068e-02,6.55950e-13,-6.79068e-02
8.52923e+02,6.15000e+02,6.12000e+02,3.00000e+00,8.50540e-12,-6.03616e-02,7.63653e-12,-6.03616e-02,1.34688e-12,-6.03616e-02
8.53170e+02,6.24000e+02,6.36000e+02,-1.20000e+01,9.40388e-12,-5.28164e-02,9.14891e-12,-5.28164e-02,1.32742e-12,-5.28164e-02
8.53418e+02,6.36000e+02,6.31000e+02,5.00000e+00,6.01658e-12,-4.52712e-02,6.36758e-12,-4.52712e-02,7.10285e-13,-4.52712e-02
8.53666e+02,6.35000e+02,6.28000e+02,7.00000e+00,2.14267e-12,-3.77260e-02,1.97466e-12,-3.77260e-02,1.83006e-13,-3.77260e-02
8.53913e+02,6.26000e+02,6.24000e+02,2.00000e+00,1.62117e-12,-3.01808e-02,1.18263e-12,-3.01808e-02,4.38544e-13,-3.01808e-02
8.54161e+02,6.22000e+02,6.35000e+02,-1.30000e+01,1.64644e-11,-2.26356e-02,1.85298e-11,-2.26356e-02,2.29478e-12,-2.26356e-02
8.54409e+02,6.27000e+02,6.17000e+02,1.00000e+01,8.15045e-11,-1.50904e-02,8.46411e-11,-1.50904e-02,6.55572e-12,-1.50904e-02
8.54656e+02,6.36000e+02,6.24000e+02,1.20000e+01,2.31897e-10,-7.54520e-03,2.36016e-10,-7.54520e-03,7.25109e-12,-7.54520e-03
