7.67698e+02,6.37000e+02,6.40000e+02,-3.00000e+00,3.87749e-10,0.00000e+00,3.90376e-10,0.00000e+00,2.62698e-12,0.00000e+00
7.67949e+02,6.67000e+02,6.64000e+02,3.00000e+00,2.32454e-10,7.54520e-03,2.33023e-10,7.54520e-03,3.71134e-12,7.54520e-03
7.68199e+02,6.12000e+02,6.01000e+02,1.10000e+01,8.43554e-11,1.50904e-02,8.23116e-11,1.50904e-02,3.68946e-12,1.50904e-02
7.68450e+02,6.32000e+02,6.43000e+02,-1.10000e+01,1.88734e-11,2.26356e-02,1.50275e-11,2.26356e-02,4.41944e-12,2.26356e-02
7.68701e+02,6.28000e+02,6.39000e+02,-1.10000e+01,5.02632e-12,3.01808e-02,2.11808e-12,3.01808e-02,5.14787e-12,3.01808e-02
7.68951e+02,6.48000e+02,6.41000e+02,7.00000e+00,3.81531e-12,3.77260e-02,1.76083e-12,3.77260e-02,2.74073e-12,3.77260e-02
7.69202e+02,6.48000e+02,6.31000e+02,1.70000e+01,4.73229e-12,4.52712e-02,4.48329e-12,4.52712e-02,2.72680e-13,4.52712e-02
7.69453e+02,6.38000e+02,6.24000e+02,1.40000e+01,8.30359e-12,5.28164e-02,8.24854e-12,5.28164e-02,2.06010e-12,5.28164e-02
7.69703e+02,6.29000e+02,6.49000e+02,-2.00000e+01,7.84763e-12,6.03616e-02,7.94774e-12,6.03616e-02,3.23595e-12,6.03616e-02
7.69954e+02,6.41000e+02,6.56000e+02,-1.50000e+01,5.57494e-12,6.79068e-02,5.15848e-12,6.79068e-02,2.76267e-12,6.79068e-02
7.70205e+02,6.33000e+02,6.32000e+02,1.00000e+00,3.36363e-12,7.54520e-02,2.61300e-12,7.54520e-02,1.81779e-12,7.54520e-02
7.70455e+02,6.68000e+02,6.69000e+02,-1.00000e+00,3.19698e-12,8.29972e-02,2.26067e-12,8.29972e-02,1.80416e-12,8.29972e-02
7.70706e+02,6.36000e+02,6.26000e+02,1.00000e+01,3.21862e-12,9.05424e-02,2.53423e-12,9.05424e-02,2.71891e-12,9.05424e-02
7.70957e+02,6.30000e+02,6.64000e+02,-3.40000e+01,3.10407e-12,9.80876e-02,3.13956e-12,9.80876e-02,2.91299e-12,9.80876e-02
7.71207e+02,6.49000e+02,6.43000e+02,6.00000e+00,2.42406e-12,1.05633e-01,4.57266e-12,1.05633e-01,2.41917e-12,1.05633e-01
7.71458e+02,6.59000e+02,6.52000e+02,7.00000e+00,4.27122e-12,1.13178e-01,5.51332e-12,1.13178e-01,1.41037e-12,1.13178e-01
7.71708e+02,6.68000e+02,6.43000e+02,2.50000e+01,5.34619e-12,1.20723e-01,5.24390e-12,1.20723e-01,1.02874e-12,1.20723e-01
7.71959e+02,6.49000e+02,6.38000e+02,1.10000e+01,3.19945e-12,1.28268e-01,3.01986e-12,1.28268e-01,5.81688e-13,1.28268e-01
7.72210e+02,6.33000e+02,6.77000e+02,-4.40000e+01,9.42978e-13,1.35814e-01,2.47985e-12,1.35814e-01,1.69262e-12,1.35814e-01
7.72460e+02,6.53000e+02,6.70000e+02,-1.70000e+01,5.57366e-12,1.43359e-01,5.04044e-12,1.43359e-01,1.10874e-12,1.43359e-01
7.72711e+02,6.77000e+02,6.41000e+02,3.60000e+01,8.47934e-12,1.50904e-01,6.88830e-12,1.50904e-01,1.71464e-12,1.50904e-01
7.72961e+02,6.85000e+02,6.80000e+02,5.00000e+00,5.56675e-12,1.58449e-01,3.47475e-12,1.58449e-01,2.40824e-12,1.58449e-01
7.73212e+02,6.08000e+02,6.43000e+02,-3.50000e+01,3.42266e-12,1.65994e-01,2.81387e-12,1.65994e-01,2.52092e-12,1.65994e-01
7.73462e+02,6.41000e+02,6.93000e+02,-5.20000e+01,7.20136e-12,1.73540e-01,5.93096e-12,1.73540e-01,3.81108e-12,1.73540e-01
7.73713e+02,6.58000e+02,6.62000e+02,-4.00000e+00,7.64838e-12,1.81085e-01,5.99897e-12,1.81085e-01,3.98874e-12,1.81085e-01
7.73963e+02,6.69000e+02,6.45000e+02,2.40000e+01,5.94115e-12,1.88630e-01,5.33347e-12,1.88630e-01,2.84038e-12,1.88630e-01
7.74214e+02,6.37000e+02,6.47000e+02,-1.00000e+01,3.68789e-12,1.96175e-01,3.13000e-12,1.96175e-01,6.12510e-13,1.96175e-01
7.74465e+02,6.34000e+02,6.94000e+02,-6.00000e+01,2.90042e-12,2.03720e-01,1.03747e-12,2.03720e-01,2.91011e-12,2.03720e-01
7.74715e+02,6.45000e+02,7.09000e+02,-6.40000e+01,2.40456e-12,2.11266e-01,2.53323e-12,2.11266e-01,3.59558e-12,2.11266e-01
7.74965e+02,7.02000e+02,6.71000e+02,3.10000e+01,7.63150e-13,2.18811e-01,2.43882e-12,2.18811e-01,2.05501e-12,2.18811e-01
7.75216e+02,6.79000e+02,6.36000e+02,4.30000e+01,3.03247e-12,2.26356e-01,1.72254e-12,2.26356e-01,1.37065e-12,2.26356e-01
7.75466e+02,6.85000e+02,7.20000e+02,-3.50000e+01,4.42115e-12,2.33901e-01,2.67237e-12,2.33901e-01,3.74878e-12,2.33901e-01
7.75717e+02,6.30000e+02,7.10000e+02,-8.00000e+01,3.78651e-12,2.41446e-01,5.35733e-12,2.41446e-01,2.80787e-12,2.41446e-01
7.75967e+02,7.26000e+02,7.33000e+02,-7.00000e+00,2.96008e-12,2.48992e-01,5.54910e-12,2.48992e-01,3.31190e-12,2.48992e-01
7.76218e+02,7.53000e+02,6.64000e+02,8.90000e+01,1.41928e-12,2.56537e-01,3.36983e-12,2.56537e-01,4.78466e-12,2.56537e-01
7.76468e+02,7.26000e+02,6.62000e+02,6.40000e+01,3.67883e-12,2.64082e-01,3.39645e-12,2.64082e-01,3.34573e-12,2.64082e-01
7.76719e+02,6.54000e+02,7.17000e+02,-6.30000e+01,3.75371e-12,2.71627e-01,4.17188e-12,2.71627e-01,1.24524e-12,2.71627e-01
7.76969e+02,6.96000e+02,8.42000e+02,-1.46000e+02,1.27682e-12,2.79172e-01,1.91515e-12,2.79172e-01,6.50216e-13,2.79172e-01
7.77219e+02,7.85000e+02,7.52000e+02,3.30000e+01,6.85800e-13,2.86718e-01,7.94525e-13,2.86718e-01,7.79155e-13,2.86718e-01
7.77470e+02,8.88000e+02,6.75000e+02,2.13000e+02,3.83374e-13,2.94263e-01,2.08631e-12,2.94263e-01,1.85986e-12,2.94263e-01
7.77720e+02,7.32000e+02,7.40000e+02,-8.00000e+00,3.32383e-12,3.01808e-01,1.62952e-12,3.01808e-01,3.28207e-12,3.01808e-01
7.77971e+02,7.34000e+02,9.33000e+02,-1.99000e+02,5.49111e-12,3.09353e-01,1.64371e-12,3.09353e-01,3.85692e-12,3.09353e-01
7.78221e+02,7.82000e+02,9.52000e+02,-1.70000e+02,4.80168e-12,3.16898e-01,2.10196e-12,3.16898e-01,4.70575e-12,3.16898e-01
7.78471e+02,1.01700e+03,8.14000e+02,2.03000e+02,3.68664e-12,3.24444e-01,2.22427e-12,3.24444e-01,5.60659e-12,3.24444e-01
7.78722e+02,9.56000e+02,6.93000e+02,2.63000e+02,1.80119e-12,3.31989e-01,1.47707e-12,3.31989e-01,3.12476e-12,3.31989e-01
7.78972e+02,7.99000e+02,9.07000e+02,-1.08000e+02,2.79788e-12,3.39534e-01,1.56377e-12,3.39534e-01,1.99808e-12,3.39534e-01
7.79222e+02,7.15000e+02,1.13100e+03,-4.16000e+02,4.36594e-12,3.47079e-01,3.05585e-12,3.47079e-01,4.06628e-12,3.47079e-01
7.79473e+02,9.45000e+02,1.11200e+03,-1.67000e+02,3.81090e-12,3.54624e-01,2.46796e-12,3.54624e-01,3.31726e-12,3.54624e-01
7.79723e+02,1.09400e+03,8.15000e+02,2.79000e+02,4.05210e-12,3.62169e-01,2.37396e-12,3.62169e-01,1.89915e-12,3.62169e-01
7.79973e+02,1.07800e+03,7.73000e+02,3.05000e+02,3.88141e-12,3.69715e-01,2.93456e-12,3.69715e-01,1.65548e-12,3.69715e-01
7.80224e+02,7.76000e+02,1.04500e+03,-2.69000e+02,1.79527e-12,3.77260e-01,2.33300e-12,3.77260e-01,3.36962e-12,3.77260e-01
7.80474e+02,8.47000e+02,1.40500e+03,-5.58000e+02,2.38656e-12,3.84805e-01,1.56465e-12,3.84805e-01,3.14157e-12,3.84805e-01
7.80724e+02,1.02800e+03,1.09400e+03,-6.60000e+01,1.16361e-12,3.92350e-01,1.46766e-12,3.92350e-01,7.41020e-13,3.92350e-01
7.80974e+02,1.29900e+03,8.06000e+02,4.93000e+02,2.58219e-12,3.99895e-01,2.34355e-12,3.99895e-01,4.77350e-12,3.99895e-01
7.81225e+02,1.10000e+03,8.52000e+02,2.48000e+02,3.67455e-12,4.07441e-01,2.83206e-12,4.07441e-01,5.00623e-12,4.07441e-01
7.81475e+02,8.71000e+02,1.38000e+03,-5.09000e+02,2.57926e-12,4.14986e-01,2.73505e-12,4.14986e-01,3.42471e-12,4.14986e-01
7.81725e+02,9.38000e+02,1.54000e+03,-6.02000e+02,1.59854e-12,4.22531e-01,2.69475e-12,4.22531e-01,3.47740e-12,4.22531e-01
7.81975e+02,1.52200e+03,1.43500e+03,8.70000e+01,1.20297e-12,4.30076e-01,2.43962e-12,4.30076e-01,3.41408e-12,4.30076e-01
7.82226e+02,1.59700e+03,9.54000e+02,6.43000e+02,1.56648e-12,4.37621e-01,2.02553e-12,4.37621e-01,2.86208e-12,4.37621e-01
7.82476e+02,1.21700e+03,1.07900e+03,1.38000e+02,1.57931e-12,4.45167e-01,2.41836e-12,4.45167e-01,2.89381e-12,4.45167e-01
7.82726e+02,8.75000e+02,1.54400e+03,-6.69000e+02,1.33961e-12,4.52712e-01,1.79864e-12,4.52712e-01,3.13609e-12,4.52712e-01
7.82976e+02,1.22200e+03,1.64700e+03,-4.25000e+02,7.09851e-12,4.60257e-01,5.72430e-12,4.60257e-01,1.21014e-11,4.60257e-01
7.83226e+02,1.56500e+03,1.14400e+03,4.21000e+02,1.29394e-11,4.67802e-01,1.23899e-11,4.67802e-01,2.37822e-11,4.67802e-01
7.83477e+02,1.76000e+03,9.48000e+02,8.12000e+02,1.91977e-11,4.75347e-01,1.91282e-11,4.75347e-01,3.57919e-11,4.75347e-01
7.83727e+02,1.18700e+03,1.12500e+03,6.20000e+01,2.87365e-11,4.82893e-01,3.08349e-11,4.82893e-01,5.60553e-11,4.82893e-01
7.83977e+02,1.03600e+03,1.72500e+03,-6.89000e+02,4.19763e-11,4.90438e-01,4.40410e-11,4.90438e-01,8.10939e-11,4.90438e-01
7.84227e+02,1.48900e+03,1.81500e+03,-3.26000e+02,5.10964e-11,4.97983e-01,5.29580e-11,4.97983e-01,9.67568e-11,4.97983e-01
7.84477e+02,2.07400e+03,1.45300e+03,6.21000e+02,5.12472e-11,5.05528e-01,5.29641e-11,5.05528e-01,9.54435e-11,5.05528e-01
7.84727e+02,1.79300e+03,1.04500e+03,7.48000e+02,4.53023e-11,5.13073e-01,4.48253e-11,5.13073e-01,8.18235e-11,5.13073e-01
7.84978e+02,1.33000e+03,1.70000e+03,-3.70000e+02,3.58551e-11,5.20619e-01,3.48406e-11,5.20619e-01,6.47209e-11,5.20619e-01
7.85228e+02,1.29400e+03,2.57600e+03,-1.28200e+03,2.35240e-11,5.28164e-01,2.51628e-11,5.28164e-01,4.50574e-11,5.28164e-01
7.85478e+02,2.26500e+03,2.51900e+03,-2.54000e+02,1.14574e-11,5.35709e-01,1.44475e-11,5.35709e-01,2.35373e-11,5.35709e-01
7.85728e+02,2.93700e+03,1.67200e+03,1.26500e+03,6.79074e-12,5.43254e-01,6.91320e-12,5.43254e-01,1.18043e-11,5.43254e-01
7.85978e+02,2.45900e+03,1.45800e+03,1.00100e+03,6.45221e-12,5.50799e-01,7.35661e-12,5.50799e-01,1.21541e-11,5.50799e-01
7.86228e+02,1.46800e+03,2.22500e+03,-7.57000e+02,4.25468e-12,5.58345e-01,3.71113e-12,5.58345e-01,5.86433e-12,5.58345e-01
7.86478e+02,1.61600e+03,2.80200e+03,-1.18600e+03,2.44293e-12,5.65890e-01,1.44524e-12,5.65890e-01,3.65223e-12,5.65890e-01
7.86728e+02,2.40100e+03,2.41000e+03,-9.00000e+00,1.49363e-12,5.73435e-01,2.73953e-12,5.73435e-01,4.22831e-12,5.73435e-01
7.86978e+02,2.63700e+03,1.54800e+03,1.08900e+03,9.08711e-13,5.80980e-01,1.69239e-12,5.80980e-01,2.40598e-12,5.80980e-01
7.87228e+02,2.20200e+03,1.51200e+03,6.90000e+02,2.60660e-13,5.88525e-01,1.48008e-12,5.88525e-01,1.74070e-12,5.88525e-01
7.87478e+02,1.59800e+03,2.44600e+03,-8.48000e+02,1.92398e-13,5.96071e-01,1.59961e-12,5.96071e-01,1.40725e-12,5.96071e-01
7.87728e+02,1.90600e+03,2.92500e+03,-1.01900e+03,3.80465e-13,6.03616e-01,1.36532e-12,6.03616e-01,1.13743e-12,6.03616e-01
7.87978e+02,3.01500e+03,2.51900e+03,4.96000e+02,7.05373e-13,6.11161e-01,1.51499e-12,6.11161e-01,1.97524e-12,6.11161e-01
7.88228e+02,3.03400e+03,1.54800e+03,1.48600e+03,2.60921e-12,6.18706e-01,1.53135e-12,6.18706e-01,3.97755e-12,6.18706e-01
7.88478e+02,2.37200e+03,1.98800e+03,3.84000e+02,4.52838e-12,6.26251e-01,9.09916e-13,6.26251e-01,4.71066e-12,6.26251e-01
7.88728e+02,1.59000e+03,3.10000e+03,-1.51000e+03,4.30733e-12,6.33797e-01,1.52844e-12,6.33797e-01,3.08262e-12,6.33797e-01
7.88978e+02,2.31600e+03,3.50400e+03,-1.18800e+03,3.29280e-12,6.41342e-01,2.73026e-12,6.41342e-01,1.66122e-12,6.41342e-01
7.89228e+02,3.79700e+03,2.79200e+03,1.00500e+03,3.47590e-12,6.48887e-01,3.25353e-12,6.48887e-01,2.75835e-12,6.48887e-01
7.89478e+02,4.09000e+03,1.82300e+03,2.26700e+03,2.77319e-12,6.56432e-01,1.95433e-12,6.56432e-01,1.82720e-12,6.56432e-01
7.89728e+02,2.77300e+03,2.35300e+03,4.20000e+02,2.22905e-12,6.63977e-01,8.51789e-13,6.63977e-01,1.37737e-12,6.63977e-01
7.89978e+02,2.00500e+03,3.95400e+03,-1.94900e+03,2.35549e-12,6.71523e-01,5.06806e-13,6.71523e-01,2.10017e-12,6.71523e-01
7.90228e+02,2.73400e+03,4.06200e+03,-1.32800e+03,1.54751e-12,6.79068e-01,1.43322e-12,6.79068e-01,2.42482e-12,6.79068e-01
7.90478e+02,4.04000e+03,2.84500e+03,1.19500e+03,7.70661e-13,6.86613e-01,2.47749e-12,6.86613e-01,3.18525e-12,6.86613e-01
7.90728e+02,4.00200e+03,2.06600e+03,1.93600e+03,1.94154e-12,6.94158e-01,1.95741e-12,6.94158e-01,3.42650e-12,6.94158e-01
7.90978e+02,2.95600e+03,3.13100e+03,-1.75000e+02,1.89264e-12,7.01703e-01,6.11516e-13,7.01703e-01,1.90974e-12,7.01703e-01
7.91228e+02,2.32200e+03,4.52900e+03,-2.20700e+03,1.46344e-12,7.09249e-01,6.81724e-13,7.09249e-01,1.35450e-12,7.09249e-01
7.91478e+02,3.53600e+03,4.41100e+03,-8.75000e+02,1.18711e-12,7.16794e-01,3.26392e-13,7.16794e-01,8.70088e-13,7.16794e-01
7.91728e+02,4.75500e+03,2.79200e+03,1.96300e+03,1.27931e-12,7.24339e-01,8.69722e-13,7.24339e-01,9.56391e-13,7.24339e-01
7.91977e+02,4.14000e+03,2.01000e+03,2.13000e+03,8.11221e-13,7.31884e-01,2.54708e-13,7.31884e-01,9.52722e-13,7.31884e-01
7.92227e+02,2.51800e+03,2.90900e+03,-3.91000e+02,1.81855e-12,7.39429e-01,7.31373e-13,7.39429e-01,1.39107e-12,7.39429e-01
7.92477e+02,2.30200e+03,4.75600e+03,-2.45400e+03,1.72088e-12,7.46975e-01,1.08543e-12,7.46975e-01,1.24620e-12,7.46975e-01
7.92727e+02,4.13800e+03,5.13700e+03,-9.99000e+02,2.25027e-13,7.54520e-01,6.12652e-13,7.54520e-01,3.87698e-13,7.54520e-01
7.92977e+02,5.98100e+03,3.51700e+03,2.46400e+03,1.12551e-12,7.62065e-01,1.14617e-13,7.62065e-01,1.01171e-12,7.62065e-01
7.93227e+02,4.69600e+03,2.32200e+03,2.37400e+03,1.29326e-12,7.69610e-01,5.74677e-13,7.69610e-01,7.32877e-13,7.69610e-01
7.93476e+02,2.99700e+03,3.61100e+03,-6.14000e+02,1.08501e-12,7.77155e-01,3.01971e-13,7.77155e-01,8.64778e-13,7.77155e-01
7.93726e+02,2.76500e+03,5.35000e+03,-2.58500e+03,4.90762e-13,7.84701e-01,9.63667e-13,7.84701e-01,8.95783e-13,7.84701e-01
7.93976e+02,4.66800e+03,5.19200e+03,-5.24000e+02,7.48035e-13,7.92246e-01,1.86584e-12,7.92246e-01,1.27725e-12,7.92246e-01
7.94226e+02,6.14500e+03,3.30000e+03,2.84500e+03,6.75239e-13,7.99791e-01,1.84700e-12,7.99791e-01,1.82905e-12,7.99791e-01
7.94476e+02,5.70500e+03,2.58000e+03,3.12500e+03,6.11858e-13,8.07336e-01,9.83510e-13,8.07336e-01,1.36825e-12,8.07336e-01
7.94725e+02,3.23800e+03,3.70900e+03,-4.71000e+02,7.10893e-13,8.14881e-01,4.09787e-13,8.14881e-01,1.07586e-12,8.14881e-01
7.94975e+02,2.62800e+03,5.46400e+03,-2.83600e+03,1.26782e-12,8.22427e-01,1.06281e-12,8.22427e-01,1.31258e-12,8.22427e-01
7.95225e+02,4.33300e+03,5.32500e+03,-9.92000e+02,1.51557e-12,8.29972e-01,8.38562e-13,8.29972e-01,9.30374e-13,8.29972e-01
7.95475e+02,5.79100e+03,3.46000e+03,2.33100e+03,1.54537e-12,8.37517e-01,2.32413e-13,8.37517e-01,1.74098e-12,8.37517e-01
7.95724e+02,4.93700e+03,2.56700e+03,2.37000e+03,1.72950e-12,8.45062e-01,7.06526e-13,8.45062e-01,2.35359e-12,8.45062e-01
7.95974e+02,3.34400e+03,4.10000e+03,-7.56000e+02,2.05667e-12,8.52607e-01,3.34667e-13,8.52607e-01,2.10211e-12,8.52607e-01
7.96224e+02,3.01400e+03,6.43000e+03,-3.41600e+03,1.72484e-12,8.60153e-01,6.82587e-13,8.60153e-01,1.09240e-12,8.60153e-01
7.96474e+02,4.82500e+03,6.70800e+03,-1.88300e+03,1.72424e-12,8.67698e-01,1.52197e-12,8.67698e-01,3.77089e-13,8.67698e-01
7.96723e+02,6.50900e+03,4.11900e+03,2.39000e+03,1.55942e-12,8.75243e-01,1.76573e-12,8.75243e-01,3.24178e-13,8.75243e-01
7.96973e+02,5.68500e+03,2.87700e+03,2.80800e+03,1.66371e-12,8.82788e-01,1.35258e-12,8.82788e-01,3.23067e-13,8.82788e-01
7.97223e+02,3.80400e+03,4.63700e+03,-8.33000e+02,1.97165e-12,8.90333e-01,1.09292e-12,8.90333e-01,1.00839e-12,8.90333e-01
7.97472e+02,3.12500e+03,6.73100e+03,-3.60600e+03,1.53201e-12,8.97879e-01,9.81994e-13,8.97879e-01,1.00675e-12,8.97879e-01
7.97722e+02,5.72000e+03,7.56600e+03,-1.84600e+03,1.07975e-12,9.05424e-01,1.46505e-12,9.05424e-01,3.95282e-13,9.05424e-01
7.97972e+02,8.85300e+03,5.33200e+03,3.52100e+03,2.09553e-12,9.12969e-01,1.94994e-12,9.12969e-01,8.39592e-13,9.12969e-01
7.98221e+02,8.05900e+03,3.83200e+03,4.22700e+03,1.80623e-12,9.20514e-01,1.23653e-12,9.20514e-01,6.19900e-13,9.20514e-01
7.98471e+02,4.68200e+03,6.59000e+03,-1.90800e+03,6.49285e-13,9.28059e-01,1.40308e-12,9.28059e-01,1.07769e-12,9.28059e-01
7.98721e+02,4.07800e+03,9.93500e+03,-5.85700e+03,9.22012e-13,9.35605e-01,1.37410e-12,9.35605e-01,4.85038e-13,9.35605e-01
7.98970e+02,6.96700e+03,9.49700e+03,-2.53000e+03,6.26471e-13,9.43150e-01,3.91191e-13,9.43150e-01,2.55388e-13,9.43150e-01
7.99220e+02,9.54200e+03,6.08000e+03,3.46200e+03,1.95133e-13,9.50695e-01,7.66636e-13,9.50695e-01,9.48161e-13,9.50695e-01
7.99469e+02,8.51700e+03,3.55700e+03,4.96000e+03,5.79491e-13,9.58240e-01,1.04702e-12,9.58240e-01,1.28286e-12,9.58240e-01
7.99719e+02,5.25000e+03,4.96800e+03,2.82000e+02,9.33435e-13,9.65785e-01,6.39391e-13,9.65785e-01,1.18690e-12,9.65785e-01
7.99969e+02,3.45000e+03,7.78100e+03,-4.33100e+03,9.24152e-13,9.73331e-01,2.34527e-13,9.73331e-01,8.32060e-13,9.73331e-01
8.00218e+02,5.63300e+03,8.63600e+03,-3.00300e+03,1.04303e-12,9.80876e-01,6.75069e-13,9.80876e-01,4.49006e-13,9.80876e-01
8.00468e+02,8.52500e+03,6.03900e+03,2.48600e+03,1.35063e-12,9.88421e-01,1.21085e-12,9.88421e-01,2.71622e-13,9.88421e-01
8.00717e+02,8.55800e+03,3.92200e+03,4.63600e+03,1.66876e-12,9.95966e-01,1.16065e-12,9.95966e-01,6.92280e-13,9.95966e-01
8.00967e+02,5.87000e+03,5.90000e+03,-3.00000e+01,1.79099e-12,1.00351e+00,7.57737e-13,1.00351e+00,1.07226e-12,1.00351e+00
8.01216e+02,3.92700e+03,9.77700e+03,-5.85000e+03,1.75239e-12,1.01106e+00,1.41406e-12,1.01106e+00,1.00505e-12,1.01106e+00
8.01466e+02,6.03100e+03,1.08070e+04,-4.77600e+03,1.48684e-12,1.01860e+00,1.74146e-12,1.01860e+00,1.04531e-12,1.01860e+00
8.01715e+02,9.63600e+03,7.65200e+03,1.98400e+03,1.43366e-12,1.02615e+00,1.51237e-12,1.02615e+00,1.03508e-12,1.02615e+00
8.01965e+02,1.00610e+04,4.53500e+03,5.52600e+03,1.45466e-12,1.03369e+00,1.06666e-12,1.03369e+00,9.28706e-13,1.03369e+00
8.02215e+02,7.35100e+03,5.71100e+03,1.64000e+03,1.09440e-12,1.04124e+00,7.95505e-13,1.04124e+00,9.33719e-13,1.04124e+00
8.02464e+02,4.67600e+03,1.04710e+04,-5.79500e+03,3.72010e-13,1.04878e+00,8.83598e-13,1.04878e+00,7.05996e-13,1.04878e+00
8.02713e+02,7.10100e+03,1.23550e+04,-5.25400e+03,5.55925e-13,1.05633e+00,6.05629e-13,1.05633e+00,6.05229e-13,1.05633e+00
8.02963e+02,1.20380e+04,8.84200e+03,3.19600e+03,5.59281e-13,1.06387e+00,6.60465e-13,1.06387e+00,2.90396e-13,1.06387e+00
8.03212e+02,1.32160e+04,5.26600e+03,7.95000e+03,5.48368e-13,1.07142e+00,5.06521e-13,1.07142e+00,1.22411e-13,1.07142e+00
8.03462e+02,9.51900e+03,6.49700e+03,3.02200e+03,9.53101e-14,1.07896e+00,4.57109e-13,1.07896e+00,3.63286e-13,1.07896e+00
8.03711e+02,5.07700e+03,1.06110e+04,-5.53400e+03,3.90613e-13,1.08651e+00,1.13540e-13,1.08651e+00,2.78452e-13,1.08651e+00
8.03961e+02,5.71300e+03,1.23080e+04,-6.59500e+03,8.16637e-13,1.09405e+00,4.45452e-13,1.09405e+00,8.97639e-13,1.09405e+00
8.04210e+02,9.66000e+03,9.47500e+03,1.85000e+02,1.35524e-12,1.10160e+00,3.05284e-13,1.10160e+00,1.42518e-12,1.10160e+00
8.04460e+02,1.15240e+04,5.25000e+03,6.27400e+03,1.56326e-12,1.10914e+00,1.79227e-13,1.10914e+00,1.56745e-12,1.10914e+00
8.04709e+02,9.11400e+03,5.07000e+03,4.04400e+03,1.23839e-12,1.11669e+00,2.21685e-13,1.11669e+00,1.27758e-12,1.11669e+00
8.04958e+02,5.15600e+03,8.85100e+03,-3.69500e+03,5.34588e-13,1.12423e+00,2.33636e-13,1.12423e+00,7.05142e-13,1.12423e+00
8.05208e+02,5.16300e+03,1.21020e+04,-6.93900e+03,1.66979e-13,1.13178e+00,4.52919e-13,1.13178e+00,3.18221e-13,1.13178e+00
8.05457e+02,9.65100e+03,1.01990e+04,-5.48000e+02,1.53860e-13,1.13932e+00,2.81586e-13,1.13932e+00,2.68858e-13,1.13932e+00
8.05707e+02,1.30590e+04,6.28800e+03,6.77100e+03,1.26682e-13,1.14687e+00,5.23641e-13,1.14687e+00,4.48903e-13,1.14687e+00
8.05956e+02,1.13580e+04,5.19100e+03,6.16700e+03,5.42626e-13,1.15442e+00,7.18372e-13,1.15442e+00,6.73520e-13,1.15442e+00
8.06205e+02,6.35600e+03,8.84500e+03,-2.48900e+03,8.48071e-13,1.16196e+00,4.68893e-13,1.16196e+00,6.72875e-13,1.16196e+00
8.06455e+02,5.47100e+03,1.22940e+04,-6.82300e+03,1.07109e-12,1.16951e+00,3.17519e-13,1.16951e+00,8.11099e-13,1.16951e+00
8.06704e+02,9.54900e+03,1.18480e+04,-2.29900e+03,6.09689e-13,1.17705e+00,2.27273e-13,1.17705e+00,4.74869e-13,1.17705e+00
8.06953e+02,1.36380e+04,7.50100e+03,6.13700e+03,2.17123e-13,1.18460e+00,3.99453e-13,1.18460e+00,2.34378e-13,1.18460e+00
8.07203e+02,1.12600e+04,4.67300e+03,6.58700e+03,2.67945e-13,1.19214e+00,5.24055e-13,1.19214e+00,3.57136e-13,1.19214e+00
8.07452e+02,6.89000e+03,7.33300e+03,-4.43000e+02,5.78219e-13,1.19969e+00,5.74847e-13,1.19969e+00,6.30007e-14,1.19969e+00
8.07701e+02,4.58900e+03,1.14730e+04,-6.88400e+03,8.32114e-13,1.20723e+00,5.10951e-13,1.20723e+00,4.13508e-13,1.20723e+00
8.07951e+02,7.75100e+03,1.15880e+04,-3.83700e+03,7.35975e-13,1.21478e+00,2.86516e-13,1.21478e+00,8.50866e-13,1.21478e+00
8.08200e+02,1.15680e+04,7.66600e+03,3.90200e+03,2.66149e-13,1.22232e+00,6.86243e-13,1.22232e+00,9.49284e-13,1.22232e+00
8.08449e+02,1.18530e+04,5.07700e+03,6.77600e+03,1.92631e-13,1.22987e+00,5.64704e-13,1.22987e+00,3.97049e-13,1.22987e+00
8.08698e+02,8.49400e+03,8.12300e+03,3.71000e+02,5.33637e-13,1.23741e+00,2.75341e-13,1.23741e+00,3.47013e-13,1.23741e+00
8.08948e+02,5.44100e+03,1.29640e+04,-7.52300e+03,5.65318e-13,1.24496e+00,1.00175e-13,1.24496e+00,6.45817e-13,1.24496e+00
8.09197e+02,8.30000e+03,1.45200e+04,-6.22000e+03,7.88567e-13,1.25250e+00,3.83667e-13,1.25250e+00,9.27763e-13,1.25250e+00
8.09446e+02,1.29840e+04,1.03170e+04,2.66700e+03,9.30713e-13,1.26005e+00,6.19370e-13,1.26005e+00,9.27262e-13,1.26005e+00
8.09695e+02,1.41140e+04,5.78500e+03,8.32900e+03,8.85737e-13,1.26759e+00,5.04599e-13,1.26759e+00,9.57523e-13,1.26759e+00
8.09945e+02,1.06410e+04,7.60300e+03,3.03800e+03,5.80263e-13,1.27514e+00,4.76294e-13,1.27514e+00,1.03117e-12,1.27514e+00
8.10194e+02,6.17200e+03,1.33280e+04,-7.15600e+03,2.67260e-13,1.28268e+00,8.66744e-13,1.28268e+00,1.11333e-12,1.28268e+00
8.10443e+02,7.88600e+03,1.49460e+04,-7.06000e+03,3.54389e-13,1.29023e+00,1.04868e-12,1.29023e+00,1.12792e-12,1.29023e+00
8.10692e+02,1.41420e+04,1.16480e+04,2.49400e+03,1.51727e-13,1.29777e+00,8.49739e-13,1.29777e+00,7.28247e-13,1.29777e+00
8.10941e+02,1.54290e+04,6.89700e+03,8.53200e+03,6.55631e-13,1.30532e+00,3.13984e-13,1.30532e+00,3.70792e-13,1.30532e+00
8.11191e+02,1.11330e+04,6.47500e+03,4.65800e+03,3.04875e-13,1.31286e+00,3.66550e-13,1.31286e+00,6.64821e-13,1.31286e+00
8.11440e+02,6.36500e+03,1.17100e+04,-5.34500e+03,2.05282e-12,-1.32041e+00,7.45914e-13,-1.32041e+00,1.30690e-12,-1.32041e+00
8.11689e+02,7.15000e+03,1.51110e+04,-7.96100e+03,3.04875e-13,-1.31286e+00,3.66550e-13,-1.31286e+00,6.64821e-13,-1.31286e+00
8.11938e+02,1.21570e+04,1.30970e+04,-9.40000e+02,6.55631e-13,-1.30532e+00,3.13984e-13,-1.30532e+00,3.70792e-13,-1.30532e+00
8.12187e+02,1.49460e+04,7.19600e+03,7.75000e+03,1.51727e-13,-1.29777e+00,8.49739e-13,-1.29777e+00,7.28247e-13,-1.29777e+00
8.12436e+02,1.26090e+04,5.58600e+03,7.02300e+03,3.54389e-13,-1.29023e+00,1.04868e-12,-1.29023e+00,1.12792e-12,-1.29023e+00
8.12685e+02,7.19200e+03,9.60200e+03,-2.41000e+03,2.67260e-13,-1.28268e+00,8.66744e-13,-1.28268e+00,1.11333e-12,-1.28268e+00
8.12935e+02,6.30000e+03,1.39660e+04,-7.66600e+03,5.80263e-13,-1.27514e+00,4.76294e-13,-1.27514e+00,1.03117e-12,-1.27514e+00
8.13184e+02,1.03290e+04,1.34200e+04,-3.09100e+03,8.85737e-13,-1.26759e+00,5.04599e-13,-1.26759e+00,9.57523e-13,-1.26759e+00
8.13433e+02,1.35520e+04,8.12100e+03,5.43100e+03,9.30713e-13,-1.26005e+00,6.19370e-13,-1.26005e+00,9.27262e-13,-1.26005e+00
8.13682e+02,1.40040e+04,5.58700e+03,8.41700e+03,7.88567e-13,-1.25250e+00,3.83667e-13,-1.25250e+00,9.27763e-13,-1.25250e+00
8.13931e+02,1.00080e+04,8.83100e+03,1.17700e+03,5.65318e-13,-1.24496e+00,1.00175e-13,-1.24496e+00,6.45817e-13,-1.24496e+00
8.14180e+02,5.77700e+03,1.24380e+04,-6.66100e+03,5.33637e-13,-1.23741e+00,2.75341e-13,-1.23741e+00,3.47013e-13,-1.23741e+00
8.14429e+02,8.22700e+03,1.35970e+04,-5.37000e+03,1.92631e-13,-1.22987e+00,5.64704e-13,-1.22987e+00,3.97049e-13,-1.22987e+00
8.14678e+02,1.27250e+04,9.54000e+03,3.18500e+03,2.66149e-13,-1.22232e+00,6.86243e-13,-1.22232e+00,9.49284e-13,-1.22232e+00
8.14927e+02,1.24180e+04,5.36200e+03,7.05600e+03,7.35975e-13,-1.21478e+00,2.86516e-13,-1.21478e+00,8.50866e-13,-1.21478e+00
8.15176e+02,9.43600e+03,6.47700e+03,2.95900e+03,8.32114e-13,-1.20723e+00,5.10951e-13,-1.20723e+00,4.13508e-13,-1.20723e+00
8.15425e+02,5.38600e+03,1.04900e+04,-5.10400e+03,5.78219e-13,-1.19969e+00,5.74847e-13,-1.19969e+00,6.30007e-14,-1.19969e+00
8.15674e+02,6.27500e+03,1.27710e+04,-6.49600e+03,2.67945e-13,-1.19214e+00,5.24055e-13,-1.19214e+00,3.57136e-13,-1.19214e+00
8.15923e+02,1.22920e+04,1.13500e+04,9.42000e+02,2.17123e-13,-1.18460e+00,3.99453e-13,-1.18460e+00,2.34378e-13,-1.18460e+00
8.16172e+02,1.33420e+04,6.33200e+03,7.01000e+03,6.09689e-13,-1.17705e+00,2.27273e-13,-1.17705e+00,4.74869e-13,-1.17705e+00
8.16421e+02,9.87200e+03,5.72300e+03,4.14900e+03,1.07109e-12,-1.16951e+00,3.17519e-13,-1.16951e+00,8.11099e-13,-1.16951e+00
8.16670e+02,5.37300e+03,9.62500e+03,-4.25200e+03,8.48071e-13,-1.16196e+00,4.68893e-13,-1.16196e+00,6.72875e-13,-1.16196e+00
8.16919e+02,5.42100e+03,1.28750e+04,-7.45400e+03,5.42626e-13,-1.15442e+00,7.18372e-13,-1.15442e+00,6.73520e-13,-1.15442e+00
8.17168e+02,8.51000e+03,1.08040e+04,-2.29400e+03,1.26682e-13,-1.14687e+00,5.23641e-13,-1.14687e+00,4.48903e-13,-1.14687e+00
8.17417e+02,1.12870e+04,6.47000e+03,4.81700e+03,1.53860e-13,-1.13932e+00,2.81586e-13,-1.13932e+00,2.68858e-13,-1.13932e+00
8.17666e+02,1.08300e+04,4.76700e+03,6.06300e+03,1.66979e-13,-1.13178e+00,4.52919e-13,-1.13178e+00,3.18221e-13,-1.13178e+00
8.17915e+02,6.83800e+03,6.84600e+03,-8.00000e+00,5.34588e-13,-1.12423e+00,2.33636e-13,-1.12423e+00,7.05142e-13,-1.12423e+00
8.18164e+02,4.52800e+03,1.00970e+04,-5.56900e+03,1.23839e-12,-1.11669e+00,2.21685e-13,-1.11669e+00,1.27758e-12,-1.11669e+00
8.18413e+02,6.04300e+03,1.02410e+04,-4.19800e+03,1.56326e-12,-1.10914e+00,1.79227e-13,-1.10914e+00,1.56745e-12,-1.10914e+00
8.18662e+02,8.36100e+03,6.49400e+03,1.86700e+03,1.35524e-12,-1.10160e+00,3.05284e-13,-1.10160e+00,1.42518e-12,-1.10160e+00
8.18911e+02,9.64800e+03,4.00300e+03,5.64500e+03,8.16637e-13,-1.09405e+00,4.45452e-13,-1.09405e+00,8.97639e-13,-1.09405e+00
8.19160e+02,7.10600e+03,4.75000e+03,2.35600e+03,3.90613e-13,-1.08651e+00,1.13540e-13,-1.08651e+00,2.78452e-13,-1.08651e+00
8.19408e+02,4.23200e+03,8.22900e+03,-3.99700e+03,9.53101e-14,-1.07896e+00,4.57109e-13,-1.07896e+00,3.63286e-13,-1.07896e+00
8.19657e+02,4.95900e+03,1.19880e+04,-7.02900e+03,5.48368e-13,-1.07142e+00,5.06521e-13,-1.07142e+00,1.22411e-13,-1.07142e+00
8.19906e+02,9.48000e+03,1.04800e+04,-1.00000e+03,5.59281e-13,-1.06387e+00,6.60465e-13,-1.06387e+00,2.90396e-13,-1.06387e+00
8.20155e+02,1.21440e+04,6.23500e+03,5.90900e+03,5.55925e-13,-1.05633e+00,6.05629e-13,-1.05633e+00,6.05229e-13,-1.05633e+00
8.20404e+02,9.67500e+03,4.54700e+03,5.12800e+03,3.72010e-13,-1.04878e+00,8.83598e-13,-1.04878e+00,7.05996e-13,-1.04878e+00
8.20653e+02,5.26200e+03,7.01100e+03,-1.74900e+03,1.09440e-12,-1.04124e+00,7.95505e-13,-1.04124e+00,9.33719e-13,-1.04124e+00
8.20901e+02,3.93300e+03,1.05790e+04,-6.64600e+03,1.45466e-12,-1.03369e+00,1.06666e-12,-1.03369e+00,9.28706e-13,-1.03369e+00
8.21150e+02,6.38600e+03,1.07970e+04,-4.41100e+03,1.43366e-12,-1.02615e+00,1.51237e-12,-1.02615e+00,1.03508e-12,-1.02615e+00
8.21399e+02,8.23200e+03,6.11800e+03,2.11400e+03,1.48684e-12,-1.01860e+00,1.74146e-12,-1.01860e+00,1.04531e-12,-1.01860e+00
8.21648e+02,8.72300e+03,3.47700e+03,5.24600e+03,1.75239e-12,-1.01106e+00,1.41406e-12,-1.01106e+00,1.00505e-12,-1.01106e+00
8.21897e+02,6.54800e+03,4.41700e+03,2.13100e+03,1.79099e-12,-1.00351e+00,7.57737e-13,-1.00351e+00,1.07226e-12,-1.00351e+00
8.22145e+02,3.67000e+03,6.99800e+03,-3.32800e+03,1.66876e-12,-9.95966e-01,1.16065e-12,-9.95966e-01,6.92280e-13,-9.95966e-01
8.22394e+02,4.00600e+03,8.72300e+03,-4.71700e+03,1.35063e-12,-9.88421e-01,1.21085e-12,-9.88421e-01,2.71622e-13,-9.88421e-01
8.22643e+02,6.47500e+03,7.02600e+03,-5.51000e+02,1.04303e-12,-9.80876e-01,6.75069e-13,-9.80876e-01,4.49006e-13,-9.80876e-01
8.22892e+02,7.85600e+03,4.23800e+03,3.61800e+03,9.24152e-13,-9.73331e-01,2.34527e-13,-9.73331e-01,8.32060e-13,-9.73331e-01
8.23140e+02,6.72100e+03,3.89000e+03,2.83100e+03,9.33435e-13,-9.65785e-01,6.39391e-13,-9.65785e-01,1.18690e-12,-9.65785e-01
8.23389e+02,4.16400e+03,6.53500e+03,-2.37100e+03,5.79491e-13,-9.58240e-01,1.04702e-12,-9.58240e-01,1.28286e-12,-9.58240e-01
8.23638e+02,3.21000e+03,8.54700e+03,-5.33700e+03,1.95133e-13,-9.50695e-01,7.66636e-13,-9.50695e-01,9.48161e-13,-9.50695e-01
8.23887e+02,5.20800e+03,7.59900e+03,-2.39100e+03,6.26471e-13,-9.43150e-01,3.91191e-13,-9.43150e-01,2.55388e-13,-9.43150e-01
8.24135e+02,7.02800e+03,4.58600e+03,2.44200e+03,9.22012e-13,-9.35605e-01,1.37410e-12,-9.35605e-01,4.85038e-13,-9.35605e-01
8.24384e+02,7.31500e+03,3.03900e+03,4.27600e+03,6.49285e-13,-9.28059e-01,1.40308e-12,-9.28059e-01,1.07769e-12,-9.28059e-01
8.24633e+02,5.13200e+03,4.55300e+03,5.79000e+02,1.80623e-12,-9.20514e-01,1.23653e-12,-9.20514e-01,6.19900e-13,-9.20514e-01
8.24881e+02,3.13600e+03,6.92800e+03,-3.79200e+03,2.09553e-12,-9.12969e-01,1.94994e-12,-9.12969e-01,8.39592e-13,-9.12969e-01
8.25130e+02,3.80300e+03,8.29500e+03,-4.49200e+03,1.07975e-12,-9.05424e-01,1.46505e-12,-9.05424e-01,3.95282e-13,-9.05424e-01
8.25379e+02,6.73800e+03,6.10600e+03,6.32000e+02,1.53201e-12,-8.97879e-01,9.81994e-13,-8.97879e-01,1.00675e-12,-8.97879e-01
8.25627e+02,7.14300e+03,3.20200e+03,3.94100e+03,1.97165e-12,-8.90333e-01,1.09292e-12,-8.90333e-01,1.00839e-12,-8.90333e-01
8.25876e+02,5.59500e+03,2.91500e+03,2.68000e+03,1.66371e-12,-8.82788e-01,1.35258e-12,-8.82788e-01,3.23067e-13,-8.82788e-01
8.26125e+02,3.22700e+03,4.79700e+03,-1.57000e+03,1.55942e-12,-8.75243e-01,1.76573e-12,-8.75243e-01,3.24178e-13,-8.75243e-01
8.26373e+02,2.56300e+03,5.97300e+03,-3.41000e+03,1.72424e-12,-8.67698e-01,1.52197e-12,-8.67698e-01,3.77089e-13,-8.67698e-01
8.26622e+02,3.60800e+03,5.51800e+03,-1.91000e+03,1.72484e-12,-8.60153e-01,6.82587e-13,-8.60153e-01,1.09240e-12,-8.60153e-01
8.26870e+02,4.34600e+03,3.19100e+03,1.15500e+03,2.05667e-12,-8.52607e-01,3.34667e-13,-8.52607e-01,2.10211e-12,-8.52607e-01
8.27119e+02,4.52600e+03,2.11800e+03,2.40800e+03,1.72950e-12,-8.45062e-01,7.06526e-13,-8.45062e-01,2.35359e-12,-8.45062e-01
8.27368e+02,3.45000e+03,3.04900e+03,4.01000e+02,1.54537e-12,-8.37517e-01,2.32413e-13,-8.37517e-01,1.74098e-12,-8.37517e-01
8.27616e+02,2.15800e+03,4.38800e+03,-2.23000e+03,1.51557e-12,-8.29972e-01,8.38562e-13,-8.29972e-01,9.30374e-13,-8.29972e-01
8.27865e+02,2.52100e+03,4.90400e+03,-2.38300e+03,1.26782e-12,-8.22427e-01,1.06281e-12,-8.22427e-01,1.31258e-12,-8.22427e-01
8.28113e+02,4.30700e+03,4.17900e+03,1.28000e+02,7.10893e-13,-8.14881e-01,4.09787e-13,-8.14881e-01,1.07586e-12,-8.14881e-01
8.28362e+02,5.60300e+03,2.56900e+03,3.03400e+03,6.11858e-13,-8.07336e-01,9.83510e-13,-8.07336e-01,1.36825e-12,-8.07336e-01
8.28610e+02,4.08000e+03,2.05100e+03,2.02900e+03,6.75239e-13,-7.99791e-01,1.84700e-12,-7.99791e-01,1.82905e-12,-7.99791e-01
8.28859e+02,2.32400e+03,3.28200e+03,-9.58000e+02,7.48035e-13,-7.92246e-01,1.86584e-12,-7.92246e-01,1.27725e-12,-7.92246e-01
8.29108e+02,1.51800e+03,4.17600e+03,-2.65800e+03,4.90762e-13,-7.84701e-01,9.63667e-13,-7.84701e-01,8.95783e-13,-7.84701e-01
8.29356e+02,2.18200e+03,3.61000e+03,-1.42800e+03,1.08501e-12,-7.77155e-01,3.01971e-13,-7.77155e-01,8.64778e-13,-7.77155e-01
8.29605e+02,2.99200e+03,2.27000e+03,7.22000e+02,1.29326e-12,-7.69610e-01,5.74677e-13,-7.69610e-01,7.32877e-13,-7.69610e-01
8.29853e+02,2.96500e+03,1.57300e+03,1.39200e+03,1.12551e-12,-7.62065e-01,1.14617e-13,-7.62065e-01,1.01171e-12,-7.62065e-01
8.30101e+02,2.20700e+03,2.14100e+03,6.60000e+01,2.25027e-13,-7.54520e-01,6.12652e-13,-7.54520e-01,3.87698e-13,-7.54520e-01
8.30350e+02,1.54600e+03,3.15000e+03,-1.60400e+03,1.72088e-12,-7.46975e-01,1.08543e-12,-7.46975e-01,1.24620e-12,-7.46975e-01
8.30598e+02,1.59700e+03,3.06100e+03,-1.46400e+03,1.81855e-12,-7.39429e-01,7.31373e-13,-7.39429e-01,1.39107e-12,-7.39429e-01
8.30847e+02,2.40700e+03,2.34400e+03,6.30000e+01,8.11221e-13,-7.31884e-01,2.54708e-13,-7.31884e-01,9.52722e-13,-7.31884e-01
8.31095e+02,2.85600e+03,1.52800e+03,1.32800e+03,1.27931e-12,-7.24339e-01,8.69722e-13,-7.24339e-01,9.56391e-13,-7.24339e-01
8.31344e+02,2.30200e+03,1.43100e+03,8.71000e+02,1.18711e-12,-7.16794e-01,3.26392e-13,-7.16794e-01,8.70088e-13,-7.16794e-01
8.31592e+02,1.39200e+03,2.03300e+03,-6.41000e+02,1.46344e-12,-7.09249e-01,6.81724e-13,-7.09249e-01,1.35450e-12,-7.09249e-01
8.31841e+02,1.09100e+03,2.52900e+03,-1.43800e+03,1.89264e-12,-7.01703e-01,6.11516e-13,-7.01703e-01,1.90974e-12,-7.01703e-01
8.32089e+02,1.58500e+03,2.35400e+03,-7.69000e+02,1.94154e-12,-6.94158e-01,1.95741e-12,-6.94158e-01,3.42650e-12,-6.94158e-01
8.32337e+02,2.38200e+03,1.67300e+03,7.09000e+02,7.70661e-13,-6.86613e-01,2.47749e-12,-6.86613e-01,3.18525e-12,-6.86613e-01
8.32586e+02,2.20500e+03,1.09500e+03,1.11000e+03,1.54751e-12,-6.79068e-01,1.43322e-12,-6.79068e-01,2.42482e-12,-6.79068e-01
8.32834e+02,1.78200e+03,1.40100e+03,3.81000e+02,2.35549e-12,-6.71523e-01,5.06806e-13,-6.71523e-01,2.10017e-12,-6.71523e-01
8.33083e+02,1.02200e+03,2.03000e+03,-1.00800e+03,2.22905e-12,-6.63977e-01,8.51789e-13,-6.63977e-01,1.37737e-12,-6.63977e-01
8.33331e+02,1.09800e+03,2.03300e+03,-9.35000e+02,2.77319e-12,-6.56432e-01,1.95433e-12,-6.56432e-01,1.82720e-12,-6.56432e-01
8.33579e+02,1.53600e+03,1.49400e+03,4.20000e+01,3.47590e-12,-6.48887e-01,3.25353e-12,-6.48887e-01,2.75835e-12,-6.48887e-01
8.33828e+02,1.70500e+03,9.98000e+02,7.07000e+02,3.29280e-12,-6.41342e-01,2.73026e-12,-6.41342e-01,1.66122e-12,-6.41342e-01
8.34076e+02,1.38300e+03,8.59000e+02,5.24000e+02,4.30733e-12,-6.33797e-01,1.52844e-12,-6.33797e-01,3.08262e-12,-6.33797e-01
8.34324e+02,1.05700e+03,1.34900e+03,-2.92000e+02,4.52838e-12,-6.26251e-01,9.09916e-13,-6.26251e-01,4.71066e-12,-6.26251e-01
8.34573e+02,8.20000e+02,1.69400e+03,-8.74000e+02,2.60921e-12,-6.18706e-01,1.53135e-12,-6.18706e-01,3.97755e-12,-6.18706e-01
8.34821e+02,1.01800e+03,1.56300e+03,-5.45000e+02,7.05373e-13,-6.11161e-01,1.51499e-12,-6.11161e-01,1.97524e-12,-6.11161e-01
8.35069e+02,1.38800e+03,1.09600e+03,2.92000e+02,3.80465e-13,-6.03616e-01,1.36532e-12,-6.03616e-01,1.13743e-12,-6.03616e-01
8.35318e+02,1.55600e+03,8.72000e+02,6.84000e+02,1.92398e-13,-5.96071e-01,1.59961e-12,-5.96071e-01,1.40725e-12,-5.96071e-01
8.35566e+02,1.13700e+03,7.99000e+02,3.38000e+02,2.60660e-13,-5.88525e-01,1.48008e-12,-5.88525e-01,1.74070e-12,-5.88525e-01
8.35814e+02,8.12000e+02,1.13600e+03,-3.24000e+02,9.08711e-13,-5.80980e-01,1.69239e-12,-5.80980e-01,2.40598e-12,-5.80980e-01
8.36062e+02,7.29000e+02,1.20700e+03,-4.78000e+02,1.49363e-12,-5.73435e-01,2.73953e-12,-5.73435e-01,4.22831e-12,-5.73435e-01
8.36311e+02,9.47000e+02,1.11700e+03,-1.70000e+02,2.44293e-12,-5.65890e-01,1.44524e-12,-5.65890e-01,3.65223e-12,-5.65890e-01
8.36559e+02,1.17000e+03,7.88000e+02,3.82000e+02,4.25468e-12,-5.58345e-01,3.71113e-12,-5.58345e-01,5.86433e-12,-5.58345e-01
8.36807e+02,1.15500e+03,7.13000e+02,4.42000e+02,6.45221e-12,-5.50799e-01,7.35661e-12,-5.50799e-01,1.21541e-11,-5.50799e-01
8.37055e+02,8.21000e+02,7.78000e+02,4.30000e+01,6.79074e-12,-5.43254e-01,6.91320e-12,-5.43254e-01,1.18043e-11,-5.43254e-01
8.37304e+02,6.85000e+02,1.01000e+03,-3.25000e+02,1.14574e-11,-5.35709e-01,1.44475e-11,-5.35709e-01,2.35373e-11,-5.35709e-01
8.37552e+02,7.15000e+02,9.85000e+02,-2.70000e+02,2.35240e-11,-5.28164e-01,2.51628e-11,-5.28164e-01,4.50574e-11,-5.28164e-01
8.37800e+02,9.09000e+02,8.55000e+02,5.40000e+01,3.58551e-11,-5.20619e-01,3.48406e-11,-5.20619e-01,6.47209e-11,-5.20619e-01
8.38048e+02,8.53000e+02,6.56000e+02,1.97000e+02,4.53023e-11,-5.13073e-01,4.48253e-11,-5.13073e-01,8.18235e-11,-5.13073e-01
8.38296e+02,8.04000e+02,6.69000e+02,1.35000e+02,5.12472e-11,-5.05528e-01,5.29641e-11,-5.05528e-01,9.54435e-11,-5.05528e-01
8.38545e+02,6.84000e+02,7.45000e+02,-6.10000e+01,5.10964e-11,-4.97983e-01,5.29580e-11,-4.97983e-01,9.67568e-11,-4.97983e-01
8.38793e+02,6.54000e+02,8.49000e+02,-1.95000e+02,4.19763e-11,-4.90438e-01,4.40410e-11,-4.90438e-01,8.10939e-11,-4.90438e-01
8.39041e+02,7.00000e+02,7.57000e+02,-5.70000e+01,2.87365e-11,-4.82893e-01,3.08349e-11,-4.82893e-01,5.60553e-11,-4.82893e-01
8.39289e+02,7.60000e+02,7.05000e+02,5.50000e+01,1.91977e-11,-4.75347e-01,1.91282e-11,-4.75347e-01,3.57919e-11,-4.75347e-01
8.39537e+02,7.42000e+02,6.52000e+02,9.00000e+01,1.29394e-11,-4.67802e-01,1.23899e-11,-4.67802e-01,2.37822e-11,-4.67802e-01
8.39785e+02,6.89000e+02,6.55000e+02,3.40000e+01,7.09851e-12,-4.60257e-01,5.72430e-12,-4.60257e-01,1.21014e-11,-4.60257e-01
8.40033e+02,6.58000e+02,6.88000e+02,-3.00000e+01,1.33961e-12,-4.52712e-01,1.79864e-12,-4.52712e-01,3.13609e-12,-4.52712e-01
8.40281e+02,6.74000e+02,7.74000e+02,-1.00000e+02,1.57931e-12,-4.45167e-01,2.41836e-12,-4.45167e-01,2.89381e-12,-4.45167e-01
8.40530e+02,6.65000e+02,6.73000e+02,-8.00000e+00,1.56648e-12,-4.37621e-01,2.02553e-12,-4.37621e-01,2.86208e-12,-4.37621e-01
8.40778e+02,7.20000e+02,6.60000e+02,6.00000e+01,1.20297e-12,-4.30076e-01,2.43962e-12,-4.30076e-01,3.41408e-12,-4.30076e-01
8.41026e+02,6.76000e+02,6.40000e+02,3.60000e+01,1.59854e-12,-4.22531e-01,2.69475e-12,-4.22531e-01,3.47740e-12,-4.22531e-01
8.41274e+02,6.61000e+02,6.52000e+02,9.00000e+00,2.57926e-12,-4.14986e-01,2.73505e-12,-4.14986e-01,3.42471e-12,-4.14986e-01
8.41522e+02,6.35000e+02,6.80000e+02,-4.50000e+01,3.67455e-12,-4.07441e-01,2.83206e-12,-4.07441e-01,5.00623e-12,-4.07441e-01
8.41770e+02,6.46000e+02,6.73000e+02,-2.70000e+01,2.58219e-12,-3.99895e-01,2.34355e-12,-3.99895e-01,4.77350e-12,-3.99895e-01
8.42018e+02,6.71000e+02,6.57000e+02,1.40000e+01,1.16361e-12,-3.92350e-01,1.46766e-12,-3.92350e-01,7.41020e-13,-3.92350e-01
8.42266e+02,6.76000e+02,6.50000e+02,2.60000e+01,2.38656e-12,-3.84805e-01,1.56465e-12,-3.84805e-01,3.14157e-12,-3.84805e-01
8.42514e+02,6.51000e+02,6.41000e+02,1.00000e+01,1.79527e-12,-3.77260e-01,2.33300e-12,-3.77260e-01,3.36962e-12,-3.77260e-01
8.42762e+02,6.70000e+02,6.82000e+02,-1.20000e+01,3.88141e-12,-3.69715e-01,2.93456e-12,-3.69715e-01,1.65548e-12,-3.69715e-01
8.43010e+02,6.25000e+02,6.51000e+02,-2.60000e+01,4.05210e-12,-3.62169e-01,2.37396e-12,-3.62169e-01,1.89915e-12,-3.62169e-01
8.43258e+02,6.46000e+02,6.57000e+02,-1.10000e+01,3.81090e-12,-3.54624e-01,2.46796e-12,-3.54624e-01,3.31726e-12,-3.54624e-01
8.43506e+02,6.49000e+02,6.34000e+02,1.50000e+01,4.36594e-12,-3.47079e-01,3.05585e-12,-3.47079e-01,4.06628e-12,-3.47079e-01
8.43754e+02,6.54000e+02,6.32000e+02,2.20000e+01,2.79788e-12,-3.39534e-01,1.56377e-12,-3.39534e-01,1.99808e-12,-3.39534e-01
8.44002e+02,6.39000e+02,6.45000e+02,-6.00000e+00,1.80119e-12,-3.31989e-01,1.47707e-12,-3.31989e-01,3.12476e-12,-3.31989e-01
8.44250e+02,6.38000e+02,6.41000e+02,-3.00000e+00,3.68664e-12,-3.24444e-01,2.22427e-12,-3.24444e-01,5.60659e-12,-3.24444e-01
8.44498e+02,6.25000e+02,6.35000e+02,-1.00000e+01,4.80168e-12,-3.16898e-01,2.10196e-12,-3.16898e-01,4.70575e-12,-3.16898e-01
8.44746e+02,6.34000e+02,6.36000e+02,-2.00000e+00,5.49111e-12,-3.09353e-01,1.64371e-12,-3.09353e-01,3.85692e-12,-3.09353e-01
8.44994e+02,6.31000e+02,6.31000e+02,0.00000e+00,3.32383e-12,-3.01808e-01,1.62952e-12,-3.01808e-01,3.28207e-12,-3.01808e-01
8.45242e+02,6.46000e+02,6.48000e+02,-2.00000e+00,3.83374e-13,-2.94263e-01,2.08631e-12,-2.94263e-01,1.85986e-12,-2.94263e-01
8.45490e+02,6.00000e+02,6.24000e+02,-2.40000e+01,6.85800e-13,-2.86718e-01,7.94525e-13,-2.86718e-01,7.79155e-13,-2.86718e-01
8.45738e+02,6.26000e+02,6.24000e+02,2.00000e+00,1.27682e-12,-2.79172e-01,1.91515e-12,-2.79172e-01,6.50216e-13,-2.79172e-01
8.45985e+02,6.24000e+02,6.38000e+02,-1.40000e+01,3.75371e-12,-2.71627e-01,4.17188e-12,-2.71627e-01,1.24524e-12,-2.71627e-01
8.46233e+02,6.42000e+02,6.43000e+02,-1.00000e+00,3.67883e-12,-2.64082e-01,3.39645e-12,-2.64082e-01,3.34573e-12,-2.64082e-01
8.46481e+02,6.18000e+02,6.29000e+02,-1.10000e+01,1.41928e-12,-2.56537e-01,3.36983e-12,-2.56537e-01,4.78466e-12,-2.56537e-01
8.46729e+02,6.20000e+02,6.38000e+02,-1.80000e+01,2.96008e-12,-2.48992e-01,5.54910e-12,-2.48992e-01,3.31190e-12,-2.48992e-01
8.46977e+02,6.27000e+02,6.34000e+02,-7.00000e+00,3.78651e-12,-2.41446e-01,5.35733e-12,-2.41446e-01,2.80787e-12,-2.41446e-01
8.47225e+02,6.21000e+02,6.34000e+02,-1.30000e+01,4.42115e-12,-2.33901e-01,2.67237e-12,-2.33901e-01,3.74878e-12,-2.33901e-01
8.47473e+02,6.16000e+02,6.35000e+02,-1.90000e+01,3.03247e-12,-2.26356e-01,1.72254e-12,-2.26356e-01,1.37065e-12,-2.26356e-01
8.47720e+02,6.55000e+02,6.60000e+02,-5.00000e+00,7.63150e-13,-2.18811e-01,2.43882e-12,-2.18811e-01,2.05501e-12,-2.18811e-01
8.47968e+02,6.12000e+02,6.14000e+02,-2.00000e+00,2.40456e-12,-2.11266e-01,2.53323e-12,-2.11266e-01,3.59558e-12,-2.11266e-01
8.48216e+02,6.26000e+02,6.21000e+02,5.00000e+00,2.90042e-12,-2.03720e-01,1.03747e-12,-2.03720e-01,2.91011e-12,-2.03720e-01
8.48464e+02,6.24000e+02,6.32000e+02,-8.00000e+00,3.68789e-12,-1.96175e-01,3.13000e-12,-1.96175e-01,6.12510e-13,-1.96175e-01
8.48712e+02,6.27000e+02,6.26000e+02,1.00000e+00,5.94115e-12,-1.88630e-01,5.33347e-12,-1.88630e-01,2.84038e-12,-1.88630e-01
8.48960e+02,6.31000e+02,6.27000e+02,4.00000e+00,7.64838e-12,-1.81085e-01,5.99897e-12,-1.81085e-01,3.98874e-12,-1.81085e-01
8.49207e+02,6.40000e+02,6.44000e+02,-4.00000e+00,7.20136e-12,-1.73540e-01,5.93096e-12,-1.73540e-01,3.81108e-12,-1.73540e-01
8.49455e+02,6.32000e+02,6.33000e+02,-1.00000e+00,3.42266e-12,-1.65994e-01,2.81387e-12,-1.65994e-01,2.52092e-12,-1.65994e-01
8.49703e+02,6.35000e+02,6.31000e+02,4.00000e+00,5.56675e-12,-1.58449e-01,3.47475e-12,-1.58449e-01,2.40824e-12,-1.58449e-01
8.49951e+02,6.29000e+02,6.39000e+02,-1.00000e+01,8.47934e-12,-1.50904e-01,6.88830e-12,-1.50904e-01,1.71464e-12,-1.50904e-01
8.50198e+02,6.49000e+02,6.72000e+02,-2.30000e+01,5.57366e-12,-1.43359e-01,5.04044e-12,-1.43359e-01,1.10874e-12,-1.43359e-01
8.50446e+02,6.13000e+02,6.13000e+02,0.00000e+00,9.42978e-13,-1.35814e-01,2.47985e-12,-1.35814e-01,1.69262e-12,-1.35814e-01
8.50694e+02,6.31000e+02,6.31000e+02,0.00000e+00,3.19945e-12,-1.28268e-01,3.01986e-12,-1.28268e-01,5.81688e-13,-1.28268e-01
8.50941e+02,6.16000e+02,6.38000e+02,-2.20000e+01,5.34619e-12,-1.20723e-01,5.24390e-12,-1.20723e-01,1.02874e-12,-1.20723e-01
8.51189e+02,6.44000e+02,6.14000e+02,3.00000e+01,4.27122e-12,-1.13178e-01,5.51332e-12,-1.13178e-01,1.41037e-12,-1.13178e-01
8.51437e+02,6.32000e+02,6.17000e+02,1.50000e+01,2.42406e-12,-1.05633e-01,4.57266e-12,-1.05633e-01,2.41917e-12,-1.05633e-01
8.51685e+02,6.27000e+02,6.28000e+02,-1.00000e+00,3.10407e-12,-9.80876e-02,3.13956e-12,-9.80876e-02,2.91299e-12,-9.80876e-02
8.51932e+02,6.24000e+02,6.29000e+02,-5.00000e+00,3.21862e-12,-9.05424e-02,2.53423e-12,-9.05424e-02,2.71891e-12,-9.05424e-02
8.52180e+02,6.28000e+02,6.44000e+02,-1.60000e+01,3.19698e-12,-8.29972e-02,2.26067e-12,-8.29972e-02,1.80416e-12,-8.29972e-02
8.52428e+02,6.22000e+02,6.37000e+02,-1.50000e+01,3.36363e-12,-7.54520e-02,2.61300e-12,-7.54520e-02,1.81779e-12,-7.54520e-02
8.52675e+02,6.60000e+02,6.66000e+02,-6.00000e+00,5.57494e-12,-6.79068e-02,5.15848e-12,-6.79068e-02,2.76267e-12,-6.79068e-02
8.52923e+02,6.28000e+02,6.10000e+02,1.80000e+01,7.84763e-12,-6.03616e-02,7.94774e-12,-6.03616e-02,3.23595e-12,-6.03616e-02
8.53170e+02,6.42000e+02,6.23000e+02,1.90000e+01,8.30359e-12,-5.28164e-02,8.24854e-12,-5.28164e-02,2.06010e-12,-5.28164e-02
8.53418e+02,6.26000e+02,6.35000e+02,-9.00000e+00,4.73229e-12,-4.52712e-02,4.48329e-12,-4.52712e-02,2.72680e-13,-4.52712e-02
8.53666e+02,6.25000e+02,6.24000e+02,1.00000e+00,3.81531e-12,-3.77260e-02,1.76083e-12,-3.77260e-02,2.74073e-12,-3.77260e-02
8.53913e+02,6.31000e+02,6.20000e+02,1.10000e+01,5.02632e-12,-3.01808e-02,2.11808e-12,-3.01808e-02,5.14787e-12,-3.01808e-02
8.54161e+02,6.32000e+02,6.49000e+02,-1.70000e+01,1.88734e-11,-2.26356e-02,1.50275e-11,-2.26356e-02,4.41944e-12,-2.26356e-02
8.54409e+02,6.26000e+02,6.34000e+02,-8.00000e+00,8.43554e-11,-1.50904e-02,8.23116e-11,-1.50904e-02,3.68946e-12,-1.50904e-02
8.54656e+02,6.37000e+02,6.33000e+02,4.00000e+00,2.32454e-10,-7.54520e-03,2.33023e-10,-7.54520e-03,3.71134e-12,-7.54520e-03
