7.67698e+02,6.34000e+02,6.27000e+02,7.00000e+00,3.83995e-10,0.00000e+00,3.85338e-10,0.00000e+00,1.34322e-12,0.00000e+00
7.67949e+02,6.71000e+02,6.58000e+02,1.30000e+01,2.26334e-10,7.54520e-03,2.28252e-10,7.54520e-03,4.23508e-12,7.54520e-03
7.68199e+02,6.17000e+02,6.12000e+02,5.00000e+00,7.72806e-11,1.50904e-02,7.89668e-11,1.50904e-02,3.44483e-12,1.50904e-02
7.68450e+02,6.44000e+02,6.24000e+02,2.00000e+01,1.30225e-11,2.26356e-02,1.29246e-11,2.26356e-02,1.13835e-12,2.26356e-02
7.68701e+02,6.33000e+02,6.16000e+02,1.70000e+01,1.32072e-12,3.01808e-02,1.93360e-12,3.01808e-02,1.00060e-12,3.01808e-02
7.68951e+02,6.28000e+02,6.35000e+02,-7.00000e+00,1.67940e-12,3.77260e-02,7.21396e-13,3.77260e-02,2.39739e-12,3.77260e-02
7.69202e+02,6.33000e+02,6.34000e+02,-1.00000e+00,5.72533e-12,4.52712e-02,5.15697e-12,4.52712e-02,2.49903e-12,4.52712e-02
7.69453e+02,6.16000e+02,6.35000e+02,-1.90000e+01,8.25652e-12,5.28164e-02,9.05003e-12,5.28164e-02,7.96450e-13,5.28164e-02
7.69703e+02,6.20000e+02,6.46000e+02,-2.60000e+01,6.82634e-12,6.03616e-02,6.38880e-12,6.03616e-02,2.20537e-12,6.03616e-02
7.69954e+02,6.14000e+02,6.70000e+02,-5.60000e+01,4.51821e-12,6.79068e-02,8.89183e-13,6.79068e-02,4.82979e-12,6.79068e-02
7.70205e+02,6.35000e+02,6.53000e+02,-1.80000e+01,2.18208e-12,7.54520e-02,4.45402e-12,7.54520e-02,6.63122e-12,7.54520e-02
7.70455e+02,6.69000e+02,6.86000e+02,-1.70000e+01,2.60266e-12,8.29972e-02,3.34214e-12,8.29972e-02,5.93005e-12,8.29972e-02
7.70706e+02,6.48000e+02,6.36000e+02,1.20000e+01,1.46201e-12,9.05424e-02,2.19941e-12,9.05424e-02,3.50026e-12,9.05424e-02
7.70957e+02,6.71000e+02,6.44000e+02,2.70000e+01,1.78035e-12,9.80876e-02,1.86354e-12,9.80876e-02,1.62414e-12,9.80876e-02
7.71207e+02,6.75000e+02,6.30000e+02,4.50000e+01,4.91025e-12,1.05633e-01,6.47173e-13,1.05633e-01,4.51572e-12,1.05633e-01
7.71458e+02,6.78000e+02,6.28000e+02,5.00000e+01,5.31904e-12,1.13178e-01,3.09624e-12,1.13178e-01,5.59903e-12,1.13178e-01
7.71708e+02,6.58000e+02,6.24000e+02,3.40000e+01,5.79767e-12,1.20723e-01,8.78301e-13,1.20723e-01,4.98407e-12,1.20723e-01
7.71959e+02,6.68000e+02,6.30000e+02,3.80000e+01,9.43698e-12,1.28268e-01,5.94289e-12,1.28268e-01,1.53362e-11,1.28268e-01
7.72210e+02,6.36000e+02,6.40000e+02,-4.00000e+00,1.40764e-11,1.35814e-01,1.21473e-11,1.35814e-01,2.61455e-11,1.35814e-01
7.72460e+02,6.29000e+02,6.51000e+02,-2.20000e+01,2.09216e-11,1.43359e-01,1.73617e-11,1.43359e-01,3.82599e-11,1.43359e-01
7.72711e+02,6.30000e+02,6.78000e+02,-4.80000e+01,5.82852e-11,1.50904e-01,4.48032e-11,1.50904e-01,1.00621e-10,1.50904e-01
7.72961e+02,6.60000e+02,7.85000e+02,-1.25000e+02,1.01126e-10,1.58449e-01,9.29274e-11,1.58449e-01,1.86665e-10,1.58449e-01
7.73212e+02,6.21000e+02,7.14000e+02,-9.30000e+01,1.16905e-10,1.65994e-01,1.22233e-10,1.65994e-01,2.29188e-10,1.65994e-01
7.73462e+02,6.42000e+02,7.64000e+02,-1.22000e+02,8.95465e-11,1.73540e-01,1.02480e-10,1.73540e-01,1.82288e-10,1.73540e-01
7.73713e+02,6.70000e+02,7.12000e+02,-4.20000e+01,4.76508e-11,1.81085e-01,5.38405e-11,1.81085e-01,9.25666e-11,1.81085e-01
7.73963e+02,6.90000e+02,6.89000e+02,1.00000e+00,2.23137e-11,1.88630e-01,1.86747e-11,1.88630e-01,3.68891e-11,1.88630e-01
7.74214e+02,7.09000e+02,6.66000e+02,4.30000e+01,4.40465e-12,1.96175e-01,3.01728e-12,1.96175e-01,7.42066e-12,1.96175e-01
7.74465e+02,7.68000e+02,6.50000e+02,1.18000e+02,4.37247e-12,2.03720e-01,6.74529e-12,2.03720e-01,9.73507e-12,2.03720e-01
7.74715e+02,7.61000e+02,6.25000e+02,1.36000e+02,4.38252e-12,2.11266e-01,3.38697e-12,2.11266e-01,4.14755e-12,2.11266e-01
7.74965e+02,7.65000e+02,6.31000e+02,1.34000e+02,4.72521e-13,2.18811e-01,3.62200e-12,2.18811e-01,3.97006e-12,2.18811e-01
7.75216e+02,6.95000e+02,6.30000e+02,6.50000e+01,4.29430e-12,2.26356e-01,4.68140e-12,2.26356e-01,5.25478e-12,2.26356e-01
7.75466e+02,7.24000e+02,6.64000e+02,6.00000e+01,3.89596e-12,2.33901e-01,2.89636e-12,2.33901e-01,1.95515e-12,2.33901e-01
7.75717e+02,6.19000e+02,6.59000e+02,-4.00000e+01,4.03668e-12,2.41446e-01,3.80844e-12,2.41446e-01,1.12352e-12,2.41446e-01
7.75967e+02,6.23000e+02,7.48000e+02,-1.25000e+02,4.92329e-12,2.48992e-01,3.86748e-12,2.48992e-01,1.18210e-12,2.48992e-01
7.76218e+02,6.26000e+02,8.08000e+02,-1.82000e+02,1.82246e-12,2.56537e-01,1.38891e-12,2.56537e-01,6.51814e-13,2.56537e-01
7.76468e+02,6.40000e+02,8.94000e+02,-2.54000e+02,2.16512e-12,2.64082e-01,1.65503e-12,2.64082e-01,6.53982e-13,2.64082e-01
7.76719e+02,6.56000e+02,9.09000e+02,-2.53000e+02,2.59877e-12,2.71627e-01,2.22873e-12,2.71627e-01,1.64586e-12,2.71627e-01
7.76969e+02,7.14000e+02,9.08000e+02,-1.94000e+02,1.57748e-12,2.79172e-01,3.62673e-13,2.79172e-01,1.55781e-12,2.79172e-01
7.77219e+02,7.65000e+02,8.13000e+02,-4.80000e+01,1.53540e-12,2.86718e-01,1.62778e-12,2.86718e-01,1.68983e-12,2.86718e-01
7.77470e+02,9.88000e+02,8.13000e+02,1.75000e+02,1.72667e-12,2.94263e-01,2.32481e-12,2.94263e-01,1.04915e-12,2.94263e-01
7.77720e+02,1.03600e+03,6.87000e+02,3.49000e+02,2.98949e-12,3.01808e-01,3.70814e-12,3.01808e-01,5.45834e-12,3.01808e-01
7.77971e+02,1.15900e+03,6.85000e+02,4.74000e+02,4.72309e-12,3.09353e-01,3.70379e-12,3.09353e-01,8.07851e-12,3.09353e-01
7.78221e+02,1.06600e+03,6.26000e+02,4.40000e+02,4.66386e-12,3.16898e-01,4.29683e-12,3.16898e-01,8.75702e-12,3.16898e-01
7.78471e+02,1.03900e+03,6.40000e+02,3.99000e+02,5.08257e-12,3.24444e-01,4.73391e-12,3.24444e-01,8.40253e-12,3.24444e-01
7.78722e+02,8.81000e+02,6.60000e+02,2.21000e+02,6.78180e-12,3.31989e-01,4.50813e-12,3.31989e-01,7.76560e-12,3.31989e-01
7.78972e+02,8.02000e+02,7.73000e+02,2.90000e+01,8.83308e-12,3.39534e-01,4.64598e-12,3.39534e-01,8.67098e-12,3.39534e-01
7.79222e+02,6.97000e+02,9.25000e+02,-2.28000e+02,8.66996e-12,3.47079e-01,5.82353e-12,3.47079e-01,8.34961e-12,3.47079e-01
7.79473e+02,6.51000e+02,1.21100e+03,-5.60000e+02,5.89876e-12,3.54624e-01,5.71452e-12,3.54624e-01,5.53382e-12,3.54624e-01
7.79723e+02,6.48000e+02,1.30200e+03,-6.54000e+02,5.43638e-12,3.62169e-01,5.06279e-12,3.62169e-01,2.48187e-12,3.62169e-01
7.79973e+02,6.69000e+02,1.57000e+03,-9.01000e+02,5.31744e-12,3.69715e-01,3.91936e-12,3.69715e-01,1.45271e-12,3.69715e-01
7.80224e+02,7.54000e+02,1.55000e+03,-7.96000e+02,3.11376e-12,3.77260e-01,2.83573e-12,3.77260e-01,9.18756e-13,3.77260e-01
7.80474e+02,1.01000e+03,1.57300e+03,-5.63000e+02,6.04535e-13,3.84805e-01,1.59767e-12,3.84805e-01,1.40785e-12,3.84805e-01
7.80724e+02,1.08200e+03,1.22900e+03,-1.47000e+02,1.22657e-12,3.92350e-01,2.11167e-12,3.92350e-01,3.30466e-12,3.92350e-01
7.80974e+02,1.43700e+03,1.06400e+03,3.73000e+02,1.31601e-12,3.99895e-01,3.45061e-12,3.99895e-01,4.64677e-12,3.99895e-01
7.81225e+02,1.68400e+03,8.68000e+02,8.16000e+02,2.87765e-12,4.07441e-01,1.97142e-12,4.07441e-01,4.24977e-12,4.07441e-01
7.81475e+02,1.88700e+03,7.47000e+02,1.14000e+03,2.70617e-12,4.14986e-01,1.03328e-12,4.14986e-01,2.47867e-12,4.14986e-01
7.81725e+02,1.79200e+03,6.52000e+02,1.14000e+03,5.78614e-13,4.22531e-01,1.44444e-12,4.22531e-01,1.16662e-12,4.22531e-01
7.81975e+02,1.76400e+03,6.54000e+02,1.11000e+03,1.39731e-12,4.30076e-01,1.30603e-12,4.30076e-01,2.69994e-12,4.30076e-01
7.82226e+02,1.48400e+03,6.86000e+02,7.98000e+02,1.24298e-12,4.37621e-01,1.62161e-12,4.37621e-01,2.38215e-12,4.37621e-01
7.82476e+02,1.16400e+03,9.41000e+02,2.23000e+02,1.49486e-12,4.45167e-01,1.06310e-12,4.45167e-01,8.61658e-13,4.45167e-01
7.82726e+02,8.84000e+02,1.25500e+03,-3.71000e+02,2.25726e-12,4.52712e-01,1.12328e-12,4.52712e-01,1.59921e-12,4.52712e-01
7.82976e+02,7.28000e+02,1.58400e+03,-8.56000e+02,2.45046e-12,4.60257e-01,1.13010e-12,4.60257e-01,1.40090e-12,4.60257e-01
7.83226e+02,6.52000e+02,1.75800e+03,-1.10600e+03,2.90946e-12,4.67802e-01,1.02330e-12,4.67802e-01,1.93762e-12,4.67802e-01
7.83477e+02,7.18000e+02,2.18900e+03,-1.47100e+03,3.88378e-12,4.75347e-01,1.70166e-12,4.75347e-01,2.86436e-12,4.75347e-01
7.83727e+02,8.46000e+02,2.17700e+03,-1.33100e+03,3.36837e-12,4.82893e-01,2.36048e-12,4.82893e-01,3.24684e-12,4.82893e-01
7.83977e+02,1.27100e+03,2.19600e+03,-9.25000e+02,2.34109e-12,4.90438e-01,2.57086e-12,4.90438e-01,3.23187e-12,4.90438e-01
7.84227e+02,1.75100e+03,2.00200e+03,-2.51000e+02,3.37466e-12,4.97983e-01,2.45252e-12,4.97983e-01,3.73604e-12,4.97983e-01
7.84477e+02,2.33100e+03,1.79300e+03,5.38000e+02,4.48555e-12,5.05528e-01,3.30142e-12,5.05528e-01,4.14703e-12,5.05528e-01
7.84727e+02,2.46900e+03,1.27300e+03,1.19600e+03,3.85242e-12,5.13073e-01,3.58841e-12,5.13073e-01,4.16091e-12,5.13073e-01
7.84978e+02,2.90000e+03,9.63000e+02,1.93700e+03,1.81143e-12,5.20619e-01,3.23654e-12,5.20619e-01,3.85525e-12,5.20619e-01
7.85228e+02,3.13700e+03,7.25000e+02,2.41200e+03,1.22836e-12,5.28164e-01,2.93733e-12,5.28164e-01,3.89978e-12,5.28164e-01
7.85478e+02,3.02400e+03,7.36000e+02,2.28800e+03,2.39478e-12,5.35709e-01,2.18766e-12,5.35709e-01,4.26189e-12,5.35709e-01
7.85728e+02,2.63200e+03,8.59000e+02,1.77300e+03,1.12378e-12,5.43254e-01,1.44513e-12,5.43254e-01,2.54155e-12,5.43254e-01
7.85978e+02,2.02200e+03,1.42700e+03,5.95000e+02,7.84232e-13,5.50799e-01,8.69551e-13,5.50799e-01,6.33148e-13,5.50799e-01
7.86228e+02,1.31100e+03,2.07400e+03,-7.63000e+02,1.00641e-12,5.58345e-01,1.57271e-12,5.58345e-01,1.39653e-12,5.58345e-01
7.86478e+02,8.57000e+02,2.65100e+03,-1.79400e+03,4.03170e-13,5.65890e-01,1.45477e-12,5.65890e-01,1.26730e-12,5.65890e-01
7.86728e+02,6.96000e+02,3.12100e+03,-2.42500e+03,6.43486e-13,5.73435e-01,9.67620e-13,5.73435e-01,1.55901e-12,5.73435e-01
7.86978e+02,8.01000e+02,3.35800e+03,-2.55700e+03,4.30649e-13,5.80980e-01,5.65937e-13,5.80980e-01,4.75035e-13,5.80980e-01
7.87228e+02,1.14800e+03,3.58100e+03,-2.43300e+03,7.47584e-13,5.88525e-01,1.34017e-12,5.88525e-01,8.92544e-13,5.88525e-01
7.87478e+02,1.83600e+03,3.46800e+03,-1.63200e+03,7.75971e-13,5.96071e-01,1.67495e-12,5.96071e-01,1.25137e-12,5.96071e-01
7.87728e+02,2.58800e+03,3.00600e+03,-4.18000e+02,8.33223e-13,6.03616e-01,1.33303e-12,6.03616e-01,5.77248e-13,6.03616e-01
7.87978e+02,3.56200e+03,2.65400e+03,9.08000e+02,8.30382e-13,6.11161e-01,1.06883e-12,6.11161e-01,4.48324e-13,6.11161e-01
7.88228e+02,3.93800e+03,1.79700e+03,2.14100e+03,6.28545e-13,6.18706e-01,9.43408e-13,6.18706e-01,1.18674e-12,6.18706e-01
7.88478e+02,4.58100e+03,1.25700e+03,3.32400e+03,1.70728e-12,6.26251e-01,4.21675e-13,6.26251e-01,1.69926e-12,6.26251e-01
7.88728e+02,4.51300e+03,8.21000e+02,3.69200e+03,2.30944e-12,6.33797e-01,8.36657e-13,6.33797e-01,1.47953e-12,6.33797e-01
7.88978e+02,3.96900e+03,7.64000e+02,3.20500e+03,2.74333e-12,6.41342e-01,9.34932e-13,6.41342e-01,1.90037e-12,6.41342e-01
7.89228e+02,3.50400e+03,1.04100e+03,2.46300e+03,2.51516e-12,6.48887e-01,1.58205e-12,6.48887e-01,1.90105e-12,6.48887e-01
7.89478e+02,2.76000e+03,1.79600e+03,9.64000e+02,1.37438e-12,6.56432e-01,1.83481e-12,6.56432e-01,1.63104e-12,6.56432e-01
7.89728e+02,1.86700e+03,2.77400e+03,-9.07000e+02,1.07286e-12,6.63977e-01,1.56260e-12,6.63977e-01,1.34005e-12,6.63977e-01
7.89978e+02,1.24100e+03,3.81300e+03,-2.57200e+03,1.69814e-12,6.71523e-01,9.08745e-13,6.71523e-01,1.42953e-12,6.71523e-01
7.90228e+02,8.33000e+02,4.41900e+03,-3.58600e+03,1.78383e-12,6.79068e-01,7.05830e-13,6.79068e-01,1.99711e-12,6.79068e-01
7.90478e+02,9.99000e+02,5.00800e+03,-4.00900e+03,7.20718e-13,6.86613e-01,1.21901e-12,6.86613e-01,1.43429e-12,6.86613e-01
7.90728e+02,1.54900e+03,5.40000e+03,-3.85100e+03,1.43632e-12,6.94158e-01,1.13840e-12,6.94158e-01,9.22515e-13,6.94158e-01
7.90978e+02,2.72900e+03,5.78800e+03,-3.05900e+03,2.48210e-12,7.01703e-01,1.05127e-12,7.01703e-01,1.43084e-12,7.01703e-01
7.91228e+02,3.91100e+03,5.12300e+03,-1.21200e+03,1.26091e-12,7.09249e-01,8.13647e-13,7.09249e-01,8.46117e-13,7.09249e-01
7.91478e+02,4.93100e+03,3.99300e+03,9.38000e+02,3.72618e-13,7.16794e-01,1.07657e-12,7.16794e-01,7.06430e-13,7.16794e-01
7.91728e+02,5.40800e+03,2.65400e+03,2.75400e+03,4.77904e-13,7.24339e-01,1.05489e-12,7.24339e-01,9.37055e-13,7.24339e-01
7.91977e+02,5.65700e+03,1.76700e+03,3.89000e+03,1.29107e-13,7.31884e-01,7.09552e-13,7.31884e-01,8.31262e-13,7.31884e-01
7.92227e+02,5.34400e+03,1.04200e+03,4.30200e+03,6.26931e-13,7.39429e-01,1.34244e-12,7.39429e-01,7.15879e-13,7.39429e-01
7.92477e+02,5.69300e+03,8.91000e+02,4.80200e+03,9.41042e-13,7.46975e-01,1.27257e-12,7.46975e-01,5.21634e-13,7.46975e-01
7.92727e+02,5.41600e+03,1.13700e+03,4.27900e+03,6.79941e-13,7.54520e-01,6.29517e-13,7.54520e-01,1.71772e-13,7.54520e-01
7.92977e+02,4.33800e+03,1.97100e+03,2.36700e+03,5.68364e-13,7.62065e-01,4.56641e-13,7.62065e-01,5.57017e-13,7.62065e-01
7.93227e+02,2.65500e+03,2.81600e+03,-1.61000e+02,3.76678e-13,7.69610e-01,1.38941e-12,7.69610e-01,1.70810e-12,7.69610e-01
7.93476e+02,1.71800e+03,4.06100e+03,-2.34300e+03,1.08667e-12,7.77155e-01,1.48606e-12,7.77155e-01,2.56922e-12,7.77155e-01
7.93726e+02,1.05700e+03,5.41800e+03,-4.36100e+03,8.13107e-13,7.84701e-01,1.48396e-12,7.84701e-01,1.89920e-12,7.84701e-01
7.93976e+02,1.00800e+03,6.55200e+03,-5.54400e+03,8.15547e-13,7.92246e-01,1.95488e-12,7.92246e-01,1.19595e-12,7.92246e-01
7.94226e+02,1.50900e+03,7.09700e+03,-5.58800e+03,1.14787e-12,7.99791e-01,1.17146e-12,7.99791e-01,1.35505e-12,7.99791e-01
7.94476e+02,2.66000e+03,7.67300e+03,-5.01300e+03,1.13359e-12,8.07336e-01,8.00662e-13,8.07336e-01,1.16054e-12,8.07336e-01
7.94725e+02,3.68000e+03,6.48000e+03,-2.80000e+03,1.17174e-12,8.14881e-01,7.23600e-13,8.14881e-01,1.21788e-12,8.14881e-01
7.94975e+02,5.03600e+03,5.61200e+03,-5.76000e+02,1.95897e-13,8.22427e-01,7.99866e-13,8.22427e-01,6.74003e-13,8.22427e-01
7.95225e+02,6.31400e+03,4.48300e+03,1.83100e+03,7.41118e-13,8.29972e-01,5.14396e-13,8.29972e-01,5.47860e-13,8.29972e-01
7.95475e+02,7.25200e+03,3.07100e+03,4.18100e+03,6.04499e-13,8.37517e-01,4.87849e-13,8.37517e-01,2.03043e-13,8.37517e-01
7.95724e+02,7.56800e+03,1.83300e+03,5.73500e+03,4.08031e-13,8.45062e-01,5.08491e-13,8.45062e-01,2.73462e-13,8.45062e-01
7.95974e+02,7.85300e+03,1.25400e+03,6.59900e+03,9.43989e-13,8.52607e-01,7.78200e-13,8.52607e-01,1.86552e-13,8.52607e-01
7.96224e+02,7.65400e+03,1.05300e+03,6.60100e+03,9.81153e-13,8.60153e-01,5.97983e-13,8.60153e-01,6.62820e-13,8.60153e-01
7.96474e+02,6.90000e+03,1.56900e+03,5.33100e+03,1.35540e-12,8.67698e-01,4.72971e-13,8.67698e-01,1.02433e-12,8.67698e-01
7.96723e+02,5.04900e+03,2.39700e+03,2.65200e+03,1.47318e-12,8.75243e-01,4.84085e-13,8.75243e-01,1.08165e-12,8.75243e-01
7.96973e+02,3.44900e+03,3.91200e+03,-4.63000e+02,1.24189e-12,8.82788e-01,5.66057e-13,8.82788e-01,6.94140e-13,8.82788e-01
7.97223e+02,2.32000e+03,5.96400e+03,-3.64400e+03,1.04383e-12,8.90333e-01,8.06489e-13,8.90333e-01,2.88148e-13,8.90333e-01
7.97472e+02,1.47400e+03,7.35200e+03,-5.87800e+03,6.14655e-13,8.97879e-01,7.69903e-13,8.97879e-01,1.55287e-13,8.97879e-01
7.97722e+02,1.21700e+03,9.54400e+03,-8.32700e+03,4.70821e-13,9.05424e-01,9.58410e-13,9.05424e-01,5.24260e-13,9.05424e-01
7.97972e+02,2.03900e+03,1.09170e+04,-8.87800e+03,9.62049e-13,9.12969e-01,1.55283e-12,9.12969e-01,5.91774e-13,9.12969e-01
7.98221e+02,3.41500e+03,1.08970e+04,-7.48200e+03,1.10859e-12,9.20514e-01,1.41900e-12,9.20514e-01,3.29173e-13,9.20514e-01
7.98471e+02,5.41200e+03,9.94200e+03,-4.53000e+03,1.06635e-12,9.28059e-01,1.12137e-12,9.28059e-01,4.86655e-13,9.28059e-01
7.98721e+02,7.77900e+03,8.81700e+03,-1.03800e+03,9.08022e-13,9.35605e-01,1.57030e-12,9.35605e-01,1.07586e-12,9.35605e-01
7.98970e+02,1.02720e+04,7.67000e+03,2.60200e+03,4.23511e-13,9.43150e-01,1.09499e-12,9.43150e-01,7.93527e-13,9.43150e-01
7.99220e+02,1.16080e+04,5.66800e+03,5.94000e+03,5.82132e-13,9.50695e-01,1.05725e-12,9.50695e-01,9.49368e-13,9.50695e-01
7.99469e+02,1.18160e+04,3.52300e+03,8.29300e+03,4.08745e-13,9.58240e-01,1.61778e-12,9.58240e-01,1.80400e-12,9.58240e-01
7.99719e+02,1.16220e+04,2.05200e+03,9.57000e+03,2.40877e-13,9.65785e-01,1.32728e-12,9.65785e-01,1.52290e-12,9.65785e-01
7.99969e+02,1.08100e+04,1.38200e+03,9.42800e+03,9.30834e-14,9.73331e-01,6.49433e-13,9.73331e-01,6.75243e-13,9.73331e-01
8.00218e+02,1.00440e+04,1.54700e+03,8.49700e+03,1.85870e-13,9.80876e-01,7.18099e-13,9.80876e-01,8.85061e-13,9.80876e-01
8.00468e+02,8.31000e+03,2.74000e+03,5.57000e+03,1.54051e-13,9.88421e-01,8.77881e-13,9.88421e-01,7.24166e-13,9.88421e-01
8.00717e+02,5.70400e+03,4.61700e+03,1.08700e+03,3.43737e-13,9.95966e-01,8.52906e-13,9.95966e-01,5.33726e-13,9.95966e-01
8.00967e+02,3.84300e+03,6.95600e+03,-3.11300e+03,3.43251e-13,1.00351e+00,7.99408e-13,1.00351e+00,8.94319e-13,1.00351e+00
8.01216e+02,2.25900e+03,9.84700e+03,-7.58800e+03,6.89231e-13,1.01106e+00,2.54492e-13,1.01106e+00,9.34440e-13,1.01106e+00
8.01466e+02,1.54000e+03,1.23700e+04,-1.08300e+04,7.82268e-13,1.01860e+00,5.87320e-13,1.01860e+00,9.90911e-13,1.01860e+00
8.01715e+02,1.57700e+03,1.35870e+04,-1.20100e+04,6.89862e-13,1.02615e+00,5.83798e-13,1.02615e+00,8.59123e-13,1.02615e+00
8.01965e+02,2.74200e+03,1.36430e+04,-1.09010e+04,8.08655e-13,1.03369e+00,2.26676e-13,1.03369e+00,1.03342e-12,1.03369e+00
8.02215e+02,4.68800e+03,1.32610e+04,-8.57300e+03,8.86522e-13,1.04124e+00,5.95228e-13,1.04124e+00,1.17683e-12,1.04124e+00
8.02464e+02,7.36100e+03,1.22860e+04,-4.92500e+03,1.01109e-12,1.04878e+00,5.10885e-13,1.04878e+00,1.08496e-12,1.04878e+00
8.02713e+02,1.03980e+04,1.06320e+04,-2.34000e+02,7.15328e-13,1.05633e+00,6.00597e-13,1.05633e+00,9.80861e-13,1.05633e+00
8.02963e+02,1.30110e+04,8.13700e+03,4.87400e+03,6.86489e-13,1.06387e+00,4.68513e-13,1.06387e+00,9.89988e-13,1.06387e+00
8.03212e+02,1.47730e+04,5.75000e+03,9.02300e+03,3.74457e-13,1.07142e+00,6.26797e-13,1.07142e+00,9.16601e-13,1.07142e+00
8.03462e+02,1.54380e+04,3.58600e+03,1.18520e+04,4.38442e-13,1.07896e+00,2.45315e-13,1.07896e+00,6.60367e-13,1.07896e+00
8.03711e+02,1.53010e+04,1.93300e+03,1.33680e+04,8.88399e-13,1.08651e+00,8.61581e-13,1.08651e+00,1.43723e-12,1.08651e+00
8.03961e+02,1.36780e+04,1.46000e+03,1.22180e+04,7.25281e-13,1.09405e+00,1.04678e-12,1.09405e+00,1.23905e-12,1.09405e+00
8.04210e+02,1.09710e+04,2.08900e+03,8.88200e+03,3.18234e-13,1.10160e+00,1.17145e-12,1.10160e+00,1.05832e-12,1.10160e+00
8.04460e+02,8.45700e+03,3.82900e+03,4.62800e+03,2.59525e-13,1.10914e+00,1.00547e-12,1.10914e+00,9.23051e-13,1.10914e+00
8.04709e+02,6.03700e+03,6.39500e+03,-3.58000e+02,2.38648e-13,1.11669e+00,4.42054e-13,1.11669e+00,3.80011e-13,1.11669e+00
8.04958e+02,3.86400e+03,9.23300e+03,-5.36900e+03,5.23137e-13,1.12423e+00,3.13586e-13,1.12423e+00,3.66750e-13,1.12423e+00
8.05208e+02,2.14200e+03,1.21400e+04,-9.99800e+03,3.60271e-13,1.13178e+00,4.30170e-13,1.13178e+00,3.21717e-13,1.13178e+00
8.05457e+02,1.55200e+03,1.36320e+04,-1.20800e+04,4.65718e-13,1.13932e+00,5.63360e-13,1.13932e+00,1.13722e-13,1.13932e+00
8.05707e+02,2.06000e+03,1.49920e+04,-1.29320e+04,4.85293e-13,1.14687e+00,9.54510e-13,1.14687e+00,7.42527e-13,1.14687e+00
8.05956e+02,3.84200e+03,1.52850e+04,-1.14430e+04,3.29174e-13,1.15442e+00,8.93657e-13,1.15442e+00,1.20066e-12,1.15442e+00
8.06205e+02,6.25800e+03,1.44520e+04,-8.19400e+03,4.62704e-13,1.16196e+00,5.90005e-13,1.16196e+00,1.04677e-12,1.16196e+00
8.06455e+02,9.18200e+03,1.26950e+04,-3.51300e+03,3.08672e-13,1.16951e+00,4.86732e-13,1.16951e+00,7.69098e-13,1.16951e+00
8.06704e+02,1.20580e+04,1.07070e+04,1.35100e+03,7.97109e-14,1.17705e+00,1.52060e-13,1.17705e+00,2.04613e-13,1.17705e+00
8.06953e+02,1.45960e+04,8.23100e+03,6.36500e+03,4.43650e-13,1.18460e+00,3.11194e-13,1.18460e+00,6.99307e-13,1.18460e+00
8.07203e+02,1.46080e+04,4.99200e+03,9.61600e+03,7.03233e-13,1.19214e+00,2.79963e-13,1.19214e+00,8.93704e-13,1.19214e+00
8.07452e+02,1.49040e+04,2.82400e+03,1.20800e+04,7.50234e-13,1.19969e+00,4.56352e-13,1.19969e+00,4.35604e-13,1.19969e+00
8.07701e+02,1.48210e+04,1.65500e+03,1.31660e+04,7.30049e-13,1.20723e+00,8.13229e-13,1.20723e+00,8.31949e-14,1.20723e+00
8.07951e+02,1.33180e+04,1.83500e+03,1.14830e+04,5.66856e-13,1.21478e+00,6.41863e-13,1.21478e+00,8.23038e-14,1.21478e+00
8.08200e+02,1.04850e+04,2.90500e+03,7.58000e+03,2.37231e-13,1.22232e+00,2.82919e-13,1.22232e+00,2.38182e-13,1.22232e+00
8.08449e+02,7.97500e+03,5.32400e+03,2.65100e+03,1.50651e-14,1.22987e+00,4.55029e-13,1.22987e+00,4.65038e-13,1.22987e+00
8.08698e+02,5.87800e+03,8.93600e+03,-3.05800e+03,1.68923e-13,1.23741e+00,5.60016e-13,1.23741e+00,5.50421e-13,1.23741e+00
8.08948e+02,3.70700e+03,1.24270e+04,-8.72000e+03,1.24135e-13,1.24496e+00,4.49738e-13,1.24496e+00,4.35848e-13,1.24496e+00
8.09197e+02,2.07700e+03,1.50670e+04,-1.29900e+04,2.40410e-13,1.25250e+00,2.32722e-13,1.25250e+00,4.66352e-13,1.25250e+00
8.09446e+02,1.85000e+03,1.55230e+04,-1.36730e+04,2.83969e-13,1.26005e+00,1.76117e-13,1.26005e+00,3.97853e-13,1.26005e+00
8.09695e+02,3.03300e+03,1.57020e+04,-1.26690e+04,4.96118e-13,1.26759e+00,1.59136e-13,1.26759e+00,3.37645e-13,1.26759e+00
8.09945e+02,5.71300e+03,1.58000e+04,-1.00870e+04,4.36744e-13,1.27514e+00,2.87236e-13,1.27514e+00,4.27977e-13,1.27514e+00
8.10194e+02,9.11900e+03,1.56090e+04,-6.49000e+03,4.86475e-14,1.28268e+00,3.65002e-13,1.28268e+00,3.26872e-13,1.28268e+00
8.10443e+02,1.22840e+04,1.45340e+04,-2.25000e+03,2.98634e-13,1.29023e+00,6.79477e-13,1.29023e+00,3.80909e-13,1.29023e+00
8.10692e+02,1.48580e+04,1.11580e+04,3.70000e+03,2.11094e-13,1.29777e+00,7.22912e-13,1.29777e+00,5.35849e-13,1.29777e+00
8.10941e+02,1.56930e+04,8.13800e+03,7.55500e+03,2.00765e-13,1.30532e+00,5.08103e-13,1.30532e+00,4.74700e-13,1.30532e+00
8.11191e+02,1.56290e+04,4.52600e+03,1.11030e+04,6.00866e-13,1.31286e+00,1.97406e-13,1.31286e+00,4.10789e-13,1.31286e+00
8.11440e+02,1.58030e+04,2.53100e+03,1.32720e+04,1.96069e-12,-1.32041e+00,1.64903e-12,-1.32041e+00,3.11656e-13,-1.32041e+00
8.11689e+02,1.57910e+04,1.82700e+03,1.39640e+04,6.00866e-13,-1.31286e+00,1.97406e-13,-1.31286e+00,4.10789e-13,-1.31286e+00
8.11938e+02,1.52750e+04,2.55400e+03,1.27210e+04,2.00765e-13,-1.30532e+00,5.08103e-13,-1.30532e+00,4.74700e-13,-1.30532e+00
8.12187e+02,1.28250e+04,4.55400e+03,8.27100e+03,2.11094e-13,-1.29777e+00,7.22912e-13,-1.29777e+00,5.35849e-13,-1.29777e+00
8.12436e+02,8.87700e+03,7.04300e+03,1.83400e+03,2.98634e-13,-1.29023e+00,6.79477e-13,-1.29023e+00,3.80909e-13,-1.29023e+00
8.12685e+02,5.27700e+03,1.00510e+04,-4.77400e+03,4.86475e-14,-1.28268e+00,3.65002e-13,-1.28268e+00,3.26872e-13,-1.28268e+00
8.12935e+02,3.18000e+03,1.35520e+04,-1.03720e+04,4.36744e-13,-1.27514e+00,2.87236e-13,-1.27514e+00,4.27977e-13,-1.27514e+00
8.13184e+02,1.92800e+03,1.52410e+04,-1.33130e+04,4.96118e-13,-1.26759e+00,1.59136e-13,-1.26759e+00,3.37645e-13,-1.26759e+00
8.13433e+02,2.00000e+03,1.55770e+04,-1.35770e+04,2.83969e-13,-1.26005e+00,1.76117e-13,-1.26005e+00,3.97853e-13,-1.26005e+00
8.13682e+02,3.48300e+03,1.57890e+04,-1.23060e+04,2.40410e-13,-1.25250e+00,2.32722e-13,-1.25250e+00,4.66352e-13,-1.25250e+00
8.13931e+02,6.28200e+03,1.58420e+04,-9.56000e+03,1.24135e-13,-1.24496e+00,4.49738e-13,-1.24496e+00,4.35848e-13,-1.24496e+00
8.14180e+02,8.66800e+03,1.54620e+04,-6.79400e+03,1.68923e-13,-1.23741e+00,5.60016e-13,-1.23741e+00,5.50421e-13,-1.23741e+00
8.14429e+02,1.17300e+04,1.38850e+04,-2.15500e+03,1.50651e-14,-1.22987e+00,4.55029e-13,-1.22987e+00,4.65038e-13,-1.22987e+00
8.14678e+02,1.42150e+04,1.00780e+04,4.13700e+03,2.37231e-13,-1.22232e+00,2.82919e-13,-1.22232e+00,2.38182e-13,-1.22232e+00
8.14927e+02,1.46570e+04,6.38400e+03,8.27300e+03,5.66856e-13,-1.21478e+00,6.41863e-13,-1.21478e+00,8.23038e-14,-1.21478e+00
8.15176e+02,1.51470e+04,4.04400e+03,1.11030e+04,7.30049e-13,-1.20723e+00,8.13229e-13,-1.20723e+00,8.31949e-14,-1.20723e+00
8.15425e+02,1.48970e+04,2.34800e+03,1.25490e+04,7.50234e-13,-1.19969e+00,4.56352e-13,-1.19969e+00,4.35604e-13,-1.19969e+00
8.15674e+02,1.47210e+04,1.67200e+03,1.30490e+04,7.03233e-13,-1.19214e+00,2.79963e-13,-1.19214e+00,8.93704e-13,-1.19214e+00
8.15923e+02,1.45860e+04,2.53400e+03,1.20520e+04,4.43650e-13,-1.18460e+00,3.11194e-13,-1.18460e+00,6.99307e-13,-1.18460e+00
8.16172e+02,1.18890e+04,4.23500e+03,7.65400e+03,7.97109e-14,-1.17705e+00,1.52060e-13,-1.17705e+00,2.04613e-13,-1.17705e+00
8.16421e+02,7.78100e+03,6.30300e+03,1.47800e+03,3.08672e-13,-1.16951e+00,4.86732e-13,-1.16951e+00,7.69098e-13,-1.16951e+00
8.16670e+02,4.76900e+03,9.09200e+03,-4.32300e+03,4.62704e-13,-1.16196e+00,5.90005e-13,-1.16196e+00,1.04677e-12,-1.16196e+00
8.16919e+02,3.08900e+03,1.23000e+04,-9.21100e+03,3.29174e-13,-1.15442e+00,8.93657e-13,-1.15442e+00,1.20066e-12,-1.15442e+00
8.17168e+02,1.77200e+03,1.32510e+04,-1.14790e+04,4.85293e-13,-1.14687e+00,9.54510e-13,-1.14687e+00,7.42527e-13,-1.14687e+00
8.17417e+02,1.71800e+03,1.38940e+04,-1.21760e+04,4.65718e-13,-1.13932e+00,5.63360e-13,-1.13932e+00,1.13722e-13,-1.13932e+00
8.17666e+02,2.44800e+03,1.47140e+04,-1.22660e+04,3.60271e-13,-1.13178e+00,4.30170e-13,-1.13178e+00,3.21717e-13,-1.13178e+00
8.17915e+02,3.88500e+03,1.42770e+04,-1.03920e+04,5.23137e-13,-1.12423e+00,3.13586e-13,-1.12423e+00,3.66750e-13,-1.12423e+00
8.18164e+02,5.59400e+03,1.26360e+04,-7.04200e+03,2.38648e-13,-1.11669e+00,4.42054e-13,-1.11669e+00,3.80011e-13,-1.11669e+00
8.18413e+02,7.65000e+03,1.03610e+04,-2.71100e+03,2.59525e-13,-1.10914e+00,1.00547e-12,-1.10914e+00,9.23051e-13,-1.10914e+00
8.18662e+02,8.54000e+03,7.35900e+03,1.18100e+03,3.18234e-13,-1.10160e+00,1.17145e-12,-1.10160e+00,1.05832e-12,-1.10160e+00
8.18911e+02,1.06590e+04,5.82700e+03,4.83200e+03,7.25281e-13,-1.09405e+00,1.04678e-12,-1.09405e+00,1.23905e-12,-1.09405e+00
8.19160e+02,1.12510e+04,3.85300e+03,7.39800e+03,8.88399e-13,-1.08651e+00,8.61581e-13,-1.08651e+00,1.43723e-12,-1.08651e+00
8.19408e+02,1.18030e+04,2.40200e+03,9.40100e+03,4.38442e-13,-1.07896e+00,2.45315e-13,-1.07896e+00,6.60367e-13,-1.07896e+00
8.19657e+02,1.32970e+04,1.57100e+03,1.17260e+04,3.74457e-13,-1.07142e+00,6.26797e-13,-1.07142e+00,9.16601e-13,-1.07142e+00
8.19906e+02,1.31850e+04,1.64400e+03,1.15410e+04,6.86489e-13,-1.06387e+00,4.68513e-13,-1.06387e+00,9.89988e-13,-1.06387e+00
8.20155e+02,1.16460e+04,2.44800e+03,9.19800e+03,7.15328e-13,-1.05633e+00,6.00597e-13,-1.05633e+00,9.80861e-13,-1.05633e+00
8.20404e+02,8.46800e+03,4.08300e+03,4.38500e+03,1.01109e-12,-1.04878e+00,5.10885e-13,-1.04878e+00,1.08496e-12,-1.04878e+00
8.20653e+02,5.51500e+03,5.65500e+03,-1.40000e+02,8.86522e-13,-1.04124e+00,5.95228e-13,-1.04124e+00,1.17683e-12,-1.04124e+00
8.20901e+02,3.63900e+03,7.86000e+03,-4.22100e+03,8.08655e-13,-1.03369e+00,2.26676e-13,-1.03369e+00,1.03342e-12,-1.03369e+00
8.21150e+02,2.22500e+03,1.01200e+04,-7.89500e+03,6.89862e-13,-1.02615e+00,5.83798e-13,-1.02615e+00,8.59123e-13,-1.02615e+00
8.21399e+02,1.42800e+03,9.91600e+03,-8.48800e+03,7.82268e-13,-1.01860e+00,5.87320e-13,-1.01860e+00,9.90911e-13,-1.01860e+00
8.21648e+02,1.33300e+03,1.07880e+04,-9.45500e+03,6.89231e-13,-1.01106e+00,2.54492e-13,-1.01106e+00,9.34440e-13,-1.01106e+00
8.21897e+02,2.04100e+03,1.13150e+04,-9.27400e+03,3.43251e-13,-1.00351e+00,7.99408e-13,-1.00351e+00,8.94319e-13,-1.00351e+00
8.22145e+02,3.02400e+03,1.00910e+04,-7.06700e+03,3.43737e-13,-9.95966e-01,8.52906e-13,-9.95966e-01,5.33726e-13,-9.95966e-01
8.22394e+02,4.76400e+03,9.38600e+03,-4.62200e+03,1.54051e-13,-9.88421e-01,8.77881e-13,-9.88421e-01,7.24166e-13,-9.88421e-01
8.22643e+02,6.51000e+03,8.17900e+03,-1.66900e+03,1.85870e-13,-9.80876e-01,7.18099e-13,-9.80876e-01,8.85061e-13,-9.80876e-01
8.22892e+02,7.75600e+03,6.25600e+03,1.50000e+03,9.30834e-14,-9.73331e-01,6.49433e-13,-9.73331e-01,6.75243e-13,-9.73331e-01
8.23140e+02,9.16600e+03,4.32100e+03,4.84500e+03,2.40877e-13,-9.65785e-01,1.32728e-12,-9.65785e-01,1.52290e-12,-9.65785e-01
8.23389e+02,1.02700e+04,2.87700e+03,7.39300e+03,4.08745e-13,-9.58240e-01,1.61778e-12,-9.58240e-01,1.80400e-12,-9.58240e-01
8.23638e+02,1.01700e+04,1.74400e+03,8.42600e+03,5.82132e-13,-9.50695e-01,1.05725e-12,-9.50695e-01,9.49368e-13,-9.50695e-01
8.23887e+02,9.36300e+03,1.18600e+03,8.17700e+03,4.23511e-13,-9.43150e-01,1.09499e-12,-9.43150e-01,7.93527e-13,-9.43150e-01
8.24135e+02,8.03300e+03,1.23700e+03,6.79600e+03,9.08022e-13,-9.35605e-01,1.57030e-12,-9.35605e-01,1.07586e-12,-9.35605e-01
8.24384e+02,6.84800e+03,2.10100e+03,4.74700e+03,1.06635e-12,-9.28059e-01,1.12137e-12,-9.28059e-01,4.86655e-13,-9.28059e-01
8.24633e+02,5.57200e+03,3.51400e+03,2.05800e+03,1.10859e-12,-9.20514e-01,1.41900e-12,-9.20514e-01,3.29173e-13,-9.20514e-01
8.24881e+02,4.13000e+03,4.87200e+03,-7.42000e+02,9.62049e-13,-9.12969e-01,1.55283e-12,-9.12969e-01,5.91774e-13,-9.12969e-01
8.25130e+02,2.75800e+03,6.62900e+03,-3.87100e+03,4.70821e-13,-9.05424e-01,9.58410e-13,-9.05424e-01,5.24260e-13,-9.05424e-01
8.25379e+02,1.68000e+03,8.74700e+03,-7.06700e+03,6.14655e-13,-8.97879e-01,7.69903e-13,-8.97879e-01,1.55287e-13,-8.97879e-01
8.25627e+02,9.87000e+02,8.81600e+03,-7.82900e+03,1.04383e-12,-8.90333e-01,8.06489e-13,-8.90333e-01,2.88148e-13,-8.90333e-01
8.25876e+02,1.04400e+03,9.13300e+03,-8.08900e+03,1.24189e-12,-8.82788e-01,5.66057e-13,-8.82788e-01,6.94140e-13,-8.82788e-01
8.26125e+02,1.57100e+03,8.74200e+03,-7.17100e+03,1.47318e-12,-8.75243e-01,4.84085e-13,-8.75243e-01,1.08165e-12,-8.75243e-01
8.26373e+02,2.37100e+03,7.10400e+03,-4.73300e+03,1.35540e-12,-8.67698e-01,4.72971e-13,-8.67698e-01,1.02433e-12,-8.67698e-01
8.26622e+02,3.09700e+03,5.95200e+03,-2.85500e+03,9.81153e-13,-8.60153e-01,5.97983e-13,-8.60153e-01,6.62820e-13,-8.60153e-01
8.26870e+02,3.52200e+03,4.37200e+03,-8.50000e+02,9.43989e-13,-8.52607e-01,7.78200e-13,-8.52607e-01,1.86552e-13,-8.52607e-01
8.27119e+02,4.70500e+03,3.43000e+03,1.27500e+03,4.08031e-13,-8.45062e-01,5.08491e-13,-8.45062e-01,2.73462e-13,-8.45062e-01
8.27368e+02,5.89200e+03,2.71600e+03,3.17600e+03,6.04499e-13,-8.37517e-01,4.87849e-13,-8.37517e-01,2.03043e-13,-8.37517e-01
8.27616e+02,5.96200e+03,1.79800e+03,4.16400e+03,7.41118e-13,-8.29972e-01,5.14396e-13,-8.29972e-01,5.47860e-13,-8.29972e-01
8.27865e+02,5.76500e+03,1.09800e+03,4.66700e+03,1.95897e-13,-8.22427e-01,7.99866e-13,-8.22427e-01,6.74003e-13,-8.22427e-01
8.28113e+02,6.22800e+03,7.89000e+02,5.43900e+03,1.17174e-12,-8.14881e-01,7.23600e-13,-8.14881e-01,1.21788e-12,-8.14881e-01
8.28362e+02,5.87500e+03,9.26000e+02,4.94900e+03,1.13359e-12,-8.07336e-01,8.00662e-13,-8.07336e-01,1.16054e-12,-8.07336e-01
8.28610e+02,4.48600e+03,1.37400e+03,3.11200e+03,1.14787e-12,-7.99791e-01,1.17146e-12,-7.99791e-01,1.35505e-12,-7.99791e-01
8.28859e+02,3.37900e+03,2.09100e+03,1.28800e+03,8.15547e-13,-7.92246e-01,1.95488e-12,-7.92246e-01,1.19595e-12,-7.92246e-01
8.29108e+02,2.32300e+03,2.67800e+03,-3.55000e+02,8.13107e-13,-7.84701e-01,1.48396e-12,-7.84701e-01,1.89920e-12,-7.84701e-01
8.29356e+02,1.51100e+03,3.17600e+03,-1.66500e+03,1.08667e-12,-7.77155e-01,1.48606e-12,-7.77155e-01,2.56922e-12,-7.77155e-01
8.29605e+02,9.04000e+02,3.55400e+03,-2.65000e+03,3.76678e-13,-7.69610e-01,1.38941e-12,-7.69610e-01,1.70810e-12,-7.69610e-01
8.29853e+02,7.29000e+02,3.84700e+03,-3.11800e+03,5.68364e-13,-7.62065e-01,4.56641e-13,-7.62065e-01,5.57017e-13,-7.62065e-01
8.30101e+02,7.38000e+02,4.16100e+03,-3.42300e+03,6.79941e-13,-7.54520e-01,6.29517e-13,-7.54520e-01,1.71772e-13,-7.54520e-01
8.30350e+02,1.04900e+03,4.19700e+03,-3.14800e+03,9.41042e-13,-7.46975e-01,1.27257e-12,-7.46975e-01,5.21634e-13,-7.46975e-01
8.30598e+02,1.36100e+03,3.56800e+03,-2.20700e+03,6.26931e-13,-7.39429e-01,1.34244e-12,-7.39429e-01,7.15879e-13,-7.39429e-01
8.30847e+02,1.86700e+03,3.11500e+03,-1.24800e+03,1.29107e-13,-7.31884e-01,7.09552e-13,-7.31884e-01,8.31262e-13,-7.31884e-01
8.31095e+02,2.42300e+03,2.65900e+03,-2.36000e+02,4.77904e-13,-7.24339e-01,1.05489e-12,-7.24339e-01,9.37055e-13,-7.24339e-01
8.31344e+02,2.81200e+03,1.96500e+03,8.47000e+02,3.72618e-13,-7.16794e-01,1.07657e-12,-7.16794e-01,7.06430e-13,-7.16794e-01
8.31592e+02,2.97300e+03,1.32800e+03,1.64500e+03,1.26091e-12,-7.09249e-01,8.13647e-13,-7.09249e-01,8.46117e-13,-7.09249e-01
8.31841e+02,2.92500e+03,9.40000e+02,1.98500e+03,2.48210e-12,-7.01703e-01,1.05127e-12,-7.01703e-01,1.43084e-12,-7.01703e-01
8.32089e+02,3.00100e+03,7.05000e+02,2.29600e+03,1.43632e-12,-6.94158e-01,1.13840e-12,-6.94158e-01,9.22515e-13,-6.94158e-01
8.32337e+02,3.01600e+03,6.92000e+02,2.32400e+03,7.20718e-13,-6.86613e-01,1.21901e-12,-6.86613e-01,1.43429e-12,-6.86613e-01
8.32586e+02,2.47200e+03,7.10000e+02,1.76200e+03,1.78383e-12,-6.79068e-01,7.05830e-13,-6.79068e-01,1.99711e-12,-6.79068e-01
8.32834e+02,2.16500e+03,9.22000e+02,1.24300e+03,1.69814e-12,-6.71523e-01,9.08745e-13,-6.71523e-01,1.42953e-12,-6.71523e-01
8.33083e+02,1.62900e+03,1.18100e+03,4.48000e+02,1.07286e-12,-6.63977e-01,1.56260e-12,-6.63977e-01,1.34005e-12,-6.63977e-01
8.33331e+02,1.15900e+03,1.48000e+03,-3.21000e+02,1.37438e-12,-6.56432e-01,1.83481e-12,-6.56432e-01,1.63104e-12,-6.56432e-01
8.33579e+02,8.12000e+02,1.79600e+03,-9.84000e+02,2.51516e-12,-6.48887e-01,1.58205e-12,-6.48887e-01,1.90105e-12,-6.48887e-01
8.33828e+02,6.91000e+02,1.99200e+03,-1.30100e+03,2.74333e-12,-6.41342e-01,9.34932e-13,-6.41342e-01,1.90037e-12,-6.41342e-01
8.34076e+02,6.53000e+02,1.98000e+03,-1.32700e+03,2.30944e-12,-6.33797e-01,8.36657e-13,-6.33797e-01,1.47953e-12,-6.33797e-01
8.34324e+02,6.82000e+02,2.10000e+03,-1.41800e+03,1.70728e-12,-6.26251e-01,4.21675e-13,-6.26251e-01,1.69926e-12,-6.26251e-01
8.34573e+02,7.28000e+02,2.00300e+03,-1.27500e+03,6.28545e-13,-6.18706e-01,9.43408e-13,-6.18706e-01,1.18674e-12,-6.18706e-01
8.34821e+02,8.74000e+02,1.78900e+03,-9.15000e+02,8.30382e-13,-6.11161e-01,1.06883e-12,-6.11161e-01,4.48324e-13,-6.11161e-01
8.35069e+02,1.05400e+03,1.51600e+03,-4.62000e+02,8.33223e-13,-6.03616e-01,1.33303e-12,-6.03616e-01,5.77248e-13,-6.03616e-01
8.35318e+02,1.36400e+03,1.36200e+03,2.00000e+00,7.75971e-13,-5.96071e-01,1.67495e-12,-5.96071e-01,1.25137e-12,-5.96071e-01
8.35566e+02,1.39400e+03,9.79000e+02,4.15000e+02,7.47584e-13,-5.88525e-01,1.34017e-12,-5.88525e-01,8.92544e-13,-5.88525e-01
8.35814e+02,1.51300e+03,8.08000e+02,7.05000e+02,4.30649e-13,-5.80980e-01,5.65937e-13,-5.80980e-01,4.75035e-13,-5.80980e-01
8.36062e+02,1.41200e+03,6.75000e+02,7.37000e+02,6.43486e-13,-5.73435e-01,9.67620e-13,-5.73435e-01,1.55901e-12,-5.73435e-01
8.36311e+02,1.35800e+03,6.50000e+02,7.08000e+02,4.03170e-13,-5.65890e-01,1.45477e-12,-5.65890e-01,1.26730e-12,-5.65890e-01
8.36559e+02,1.30200e+03,6.40000e+02,6.62000e+02,1.00641e-12,-5.58345e-01,1.57271e-12,-5.58345e-01,1.39653e-12,-5.58345e-01
8.36807e+02,1.28400e+03,6.56000e+02,6.28000e+02,7.84232e-13,-5.50799e-01,8.69551e-13,-5.50799e-01,6.33148e-13,-5.50799e-01
8.37055e+02,1.02800e+03,6.81000e+02,3.47000e+02,1.12378e-12,-5.43254e-01,1.44513e-12,-5.43254e-01,2.54155e-12,-5.43254e-01
8.37304e+02,8.67000e+02,7.68000e+02,9.90000e+01,2.39478e-12,-5.35709e-01,2.18766e-12,-5.35709e-01,4.26189e-12,-5.35709e-01
8.37552e+02,7.30000e+02,8.13000e+02,-8.30000e+01,1.22836e-12,-5.28164e-01,2.93733e-12,-5.28164e-01,3.89978e-12,-5.28164e-01
8.37800e+02,6.98000e+02,9.41000e+02,-2.43000e+02,1.81143e-12,-5.20619e-01,3.23654e-12,-5.20619e-01,3.85525e-12,-5.20619e-01
8.38048e+02,6.35000e+02,9.14000e+02,-2.79000e+02,3.85242e-12,-5.13073e-01,3.58841e-12,-5.13073e-01,4.16091e-12,-5.13073e-01
8.38296e+02,6.34000e+02,9.53000e+02,-3.19000e+02,4.48555e-12,-5.05528e-01,3.30142e-12,-5.05528e-01,4.14703e-12,-5.05528e-01
8.38545e+02,6.32000e+02,9.45000e+02,-3.13000e+02,3.37466e-12,-4.97983e-01,2.45252e-12,-4.97983e-01,3.73604e-12,-4.97983e-01
8.38793e+02,6.41000e+02,9.49000e+02,-3.08000e+02,2.34109e-12,-4.90438e-01,2.57086e-12,-4.90438e-01,3.23187e-12,-4.90438e-01
8.39041e+02,6.50000e+02,8.34000e+02,-1.84000e+02,3.36837e-12,-4.82893e-01,2.36048e-12,-4.82893e-01,3.24684e-12,-4.82893e-01
8.39289e+02,6.77000e+02,7.91000e+02,-1.14000e+02,3.88378e-12,-4.75347e-01,1.70166e-12,-4.75347e-01,2.86436e-12,-4.75347e-01
8.39537e+02,6.98000e+02,7.32000e+02,-3.40000e+01,2.90946e-12,-4.67802e-01,1.02330e-12,-4.67802e-01,1.93762e-12,-4.67802e-01
8.39785e+02,7.41000e+02,6.83000e+02,5.80000e+01,2.45046e-12,-4.60257e-01,1.13010e-12,-4.60257e-01,1.40090e-12,-4.60257e-01
8.40033e+02,7.20000e+02,6.44000e+02,7.60000e+01,2.25726e-12,-4.52712e-01,1.12328e-12,-4.52712e-01,1.59921e-12,-4.52712e-01
8.40281e+02,8.14000e+02,6.76000e+02,1.38000e+02,1.49486e-12,-4.45167e-01,1.06310e-12,-4.45167e-01,8.61658e-13,-4.45167e-01
8.40530e+02,7.48000e+02,6.20000e+02,1.28000e+02,1.24298e-12,-4.37621e-01,1.62161e-12,-4.37621e-01,2.38215e-12,-4.37621e-01
8.40778e+02,7.61000e+02,6.33000e+02,1.28000e+02,1.39731e-12,-4.30076e-01,1.30603e-12,-4.30076e-01,2.69994e-12,-4.30076e-01
8.41026e+02,7.21000e+02,6.22000e+02,9.90000e+01,5.78614e-13,-4.22531e-01,1.44444e-12,-4.22531e-01,1.16662e-12,-4.22531e-01
8.41274e+02,6.70000e+02,6.45000e+02,2.50000e+01,2.70617e-12,-4.14986e-01,1.03328e-12,-4.14986e-01,2.47867e-12,-4.14986e-01
8.41522e+02,6.49000e+02,6.32000e+02,1.70000e+01,2.87765e-12,-4.07441e-01,1.97142e-12,-4.07441e-01,4.24977e-12,-4.07441e-01
8.41770e+02,6.46000e+02,6.52000e+02,-6.00000e+00,1.31601e-12,-3.99895e-01,3.45061e-12,-3.99895e-01,4.64677e-12,-3.99895e-01
8.42018e+02,6.37000e+02,6.64000e+02,-2.70000e+01,1.22657e-12,-3.92350e-01,2.11167e-12,-3.92350e-01,3.30466e-12,-3.92350e-01
8.42266e+02,6.29000e+02,6.84000e+02,-5.50000e+01,6.04535e-13,-3.84805e-01,1.59767e-12,-3.84805e-01,1.40785e-12,-3.84805e-01
8.42514e+02,6.33000e+02,6.60000e+02,-2.70000e+01,3.11376e-12,-3.77260e-01,2.83573e-12,-3.77260e-01,9.18756e-13,-3.77260e-01
8.42762e+02,6.56000e+02,6.99000e+02,-4.30000e+01,5.31744e-12,-3.69715e-01,3.91936e-12,-3.69715e-01,1.45271e-12,-3.69715e-01
8.43010e+02,6.16000e+02,6.60000e+02,-4.40000e+01,5.43638e-12,-3.62169e-01,5.06279e-12,-3.62169e-01,2.48187e-12,-3.62169e-01
8.43258e+02,6.32000e+02,6.79000e+02,-4.70000e+01,5.89876e-12,-3.54624e-01,5.71452e-12,-3.54624e-01,5.53382e-12,-3.54624e-01
8.43506e+02,6.34000e+02,6.66000e+02,-3.20000e+01,8.66996e-12,-3.47079e-01,5.82353e-12,-3.47079e-01,8.34961e-12,-3.47079e-01
8.43754e+02,6.48000e+02,6.56000e+02,-8.00000e+00,8.83308e-12,-3.39534e-01,4.64598e-12,-3.39534e-01,8.67098e-12,-3.39534e-01
8.44002e+02,6.32000e+02,6.33000e+02,-1.00000e+00,6.78180e-12,-3.31989e-01,4.50813e-12,-3.31989e-01,7.76560e-12,-3.31989e-01
8.44250e+02,6.50000e+02,6.33000e+02,1.70000e+01,5.08257e-12,-3.24444e-01,4.73391e-12,-3.24444e-01,8.40253e-12,-3.24444e-01
8.44498e+02,6.48000e+02,6.23000e+02,2.50000e+01,4.66386e-12,-3.16898e-01,4.29683e-12,-3.16898e-01,8.75702e-12,-3.16898e-01
8.44746e+02,6.40000e+02,6.28000e+02,1.20000e+01,4.72309e-12,-3.09353e-01,3.70379e-12,-3.09353e-01,8.07851e-12,-3.09353e-01
8.44994e+02,6.40000e+02,6.28000e+02,1.20000e+01,2.98949e-12,-3.01808e-01,3.70814e-12,-3.01808e-01,5.45834e-12,-3.01808e-01
8.45242e+02,6.82000e+02,6.60000e+02,2.20000e+01,1.72667e-12,-2.94263e-01,2.32481e-12,-2.94263e-01,1.04915e-12,-2.94263e-01
8.45490e+02,6.22000e+02,6.15000e+02,7.00000e+00,1.53540e-12,-2.86718e-01,1.62778e-12,-2.86718e-01,1.68983e-12,-2.86718e-01
8.45738e+02,6.36000e+02,6.33000e+02,3.00000e+00,1.57748e-12,-2.79172e-01,3.62673e-13,-2.79172e-01,1.55781e-12,-2.79172e-01
8.45985e+02,6.31000e+02,6.29000e+02,2.00000e+00,2.59877e-12,-2.71627e-01,2.22873e-12,-2.71627e-01,1.64586e-12,-2.71627e-01
8.46233e+02,6.24000e+02,6.34000e+02,-1.00000e+01,2.16512e-12,-2.64082e-01,1.65503e-12,-2.64082e-01,6.53982e-13,-2.64082e-01
8.46481e+02,6.17000e+02,6.44000e+02,-2.70000e+01,1.82246e-12,-2.56537e-01,1.38891e-12,-2.56537e-01,6.51814e-13,-2.56537e-01
8.46729e+02,6.35000e+02,6.35000e+02,0.00000e+00,4.92329e-12,-2.48992e-01,3.86748e-12,-2.48992e-01,1.18210e-12,-2.48992e-01
8.46977e+02,6.29000e+02,6.33000e+02,-4.00000e+00,4.03668e-12,-2.41446e-01,3.80844e-12,-2.41446e-01,1.12352e-12,-2.41446e-01
8.47225e+02,6.36000e+02,6.33000e+02,3.00000e+00,3.89596e-12,-2.33901e-01,2.89636e-12,-2.33901e-01,1.95515e-12,-2.33901e-01
8.47473e+02,6.28000e+02,6.25000e+02,3.00000e+00,4.29430e-12,-2.26356e-01,4.68140e-12,-2.26356e-01,5.25478e-12,-2.26356e-01
8.47720e+02,6.44000e+02,6.67000e+02,-2.30000e+01,4.72521e-13,-2.18811e-01,3.62200e-12,-2.18811e-01,3.97006e-12,-2.18811e-01
8.47968e+02,6.11000e+02,6.10000e+02,1.00000e+00,4.38252e-12,-2.11266e-01,3.38697e-12,-2.11266e-01,4.14755e-12,-2.11266e-01
8.48216e+02,6.34000e+02,6.37000e+02,-3.00000e+00,4.37247e-12,-2.03720e-01,6.74529e-12,-2.03720e-01,9.73507e-12,-2.03720e-01
8.48464e+02,6.32000e+02,6.20000e+02,1.20000e+01,4.40465e-12,-1.96175e-01,3.01728e-12,-1.96175e-01,7.42066e-12,-1.96175e-01
8.48712e+02,6.37000e+02,6.23000e+02,1.40000e+01,2.23137e-11,-1.88630e-01,1.86747e-11,-1.88630e-01,3.68891e-11,-1.88630e-01
8.48960e+02,6.38000e+02,6.26000e+02,1.20000e+01,4.76508e-11,-1.81085e-01,5.38405e-11,-1.81085e-01,9.25666e-11,-1.81085e-01
8.49207e+02,6.44000e+02,6.28000e+02,1.60000e+01,8.95465e-11,-1.73540e-01,1.02480e-10,-1.73540e-01,1.82288e-10,-1.73540e-01
8.49455e+02,6.44000e+02,6.22000e+02,2.20000e+01,1.16905e-10,-1.65994e-01,1.22233e-10,-1.65994e-01,2.29188e-10,-1.65994e-01
8.49703e+02,6.33000e+02,6.32000e+02,1.00000e+00,1.01126e-10,-1.58449e-01,9.29274e-11,-1.58449e-01,1.86665e-10,-1.58449e-01
8.49951e+02,6.36000e+02,6.27000e+02,9.00000e+00,5.82852e-11,-1.50904e-01,4.48032e-11,-1.50904e-01,1.00621e-10,-1.50904e-01
8.50198e+02,6.62000e+02,6.58000e+02,4.00000e+00,2.09216e-11,-1.43359e-01,1.73617e-11,-1.43359e-01,3.82599e-11,-1.43359e-01
8.50446e+02,6.25000e+02,6.13000e+02,1.20000e+01,1.40764e-11,-1.35814e-01,1.21473e-11,-1.35814e-01,2.61455e-11,-1.35814e-01
8.50694e+02,6.34000e+02,6.35000e+02,-1.00000e+00,9.43698e-12,-1.28268e-01,5.94289e-12,-1.28268e-01,1.53362e-11,-1.28268e-01
8.50941e+02,6.32000e+02,6.28000e+02,4.00000e+00,5.79767e-12,-1.20723e-01,8.78301e-13,-1.20723e-01,4.98407e-12,-1.20723e-01
8.51189e+02,6.27000e+02,6.24000e+02,3.00000e+00,5.31904e-12,-1.13178e-01,3.09624e-12,-1.13178e-01,5.59903e-12,-1.13178e-01
8.51437e+02,6.30000e+02,6.22000e+02,8.00000e+00,4.91025e-12,-1.05633e-01,6.47173e-13,-1.05633e-01,4.51572e-12,-1.05633e-01
8.51685e+02,6.26000e+02,6.28000e+02,-2.00000e+00,1.78035e-12,-9.80876e-02,1.86354e-12,-9.80876e-02,1.62414e-12,-9.80876e-02
8.51932e+02,6.29000e+02,6.27000e+02,2.00000e+00,1.46201e-12,-9.05424e-02,2.19941e-12,-9.05424e-02,3.50026e-12,-9.05424e-02
8.52180e+02,6.29000e+02,6.32000e+02,-3.00000e+00,2.60266e-12,-8.29972e-02,3.34214e-12,-8.29972e-02,5.93005e-12,-8.29972e-02
8.52428e+02,6.34000e+02,6.24000e+02,1.00000e+01,2.18208e-12,-7.54520e-02,4.45402e-12,-7.54520e-02,6.63122e-12,-7.54520e-02
8.52675e+02,6.72000e+02,6.53000e+02,1.90000e+01,4.51821e-12,-6.79068e-02,8.89183e-13,-6.79068e-02,4.82979e-12,-6.79068e-02
8.52923e+02,6.24000e+02,6.25000e+02,-1.00000e+00,6.82634e-12,-6.03616e-02,6.38880e-12,-6.03616e-02,2.20537e-12,-6.03616e-02
8.53170e+02,6.24000e+02,6.20000e+02,4.00000e+00,8.25652e-12,-5.28164e-02,9.05003e-12,-5.28164e-02,7.96450e-13,-5.28164e-02
8.53418e+02,6.27000e+02,6.05000e+02,2.20000e+01,5.72533e-12,-4.52712e-02,5.15697e-12,-4.52712e-02,2.49903e-12,-4.52712e-02
8.53666e+02,6.32000e+02,6.28000e+02,4.00000e+00,1.67940e-12,-3.77260e-02,7.21396e-13,-3.77260e-02,2.39739e-12,-3.77260e-02
8.53913e+02,6.40000e+02,6.20000e+02,2.00000e+01,1.32072e-12,-3.01808e-02,1.93360e-12,-3.01808e-02,1.00060e-12,-3.01808e-02
8.54161e+02,6.27000e+02,6.30000e+02,-3.00000e+00,1.30225e-11,-2.26356e-02,1.29246e-11,-2.26356e-02,1.13835e-12,-2.26356e-02
8.54409e+02,6.22000e+02,6.26000e+02,-4.00000e+00,7.72806e-11,-1.50904e-02,7.89668e-11,-1.50904e-02,3.44483e-12,-1.50904e-02
8.54656e+02,6.25000e+02,6.31000e+02,-6.00000e+00,2.26334e-10,-7.54520e-03,2.28252e-10,-7.54520e-03,4.23508e-12,-7.54520e-03
