7.67698e+02,6.33000e+02,6.29000e+02,4.00000e+00,4.00304e-10,0.00000e+00,3.94956e-10,0.00000e+00,5.34816e-12,0.00000e+00
7.67949e+02,6.46000e+02,6.61000e+02,-1.50000e+01,2.41410e-10,7.54520e-03,2.36189e-10,7.54520e-03,6.55861e-12,7.54520e-03
7.68199e+02,6.24000e+02,6.08000e+02,1.60000e+01,8.83983e-11,1.50904e-02,8.36116e-11,1.50904e-02,6.21343e-12,1.50904e-02
7.68450e+02,6.37000e+02,6.13000e+02,2.40000e+01,2.20288e-11,2.26356e-02,1.92527e-11,2.26356e-02,5.16315e-12,2.26356e-02
7.68701e+02,6.28000e+02,6.35000e+02,-7.00000e+00,6.04990e-12,3.01808e-02,3.62191e-12,3.01808e-02,4.43695e-12,3.01808e-02
7.68951e+02,6.33000e+02,6.44000e+02,-1.10000e+01,4.95609e-12,3.77260e-02,2.89296e-12,3.77260e-02,4.24976e-12,3.77260e-02
7.69202e+02,6.48000e+02,6.25000e+02,2.30000e+01,7.21402e-12,4.52712e-02,4.67893e-12,4.52712e-02,4.81737e-12,4.52712e-02
7.69453e+02,6.36000e+02,6.21000e+02,1.50000e+01,8.60146e-12,5.28164e-02,6.87652e-12,5.28164e-02,4.41953e-12,5.28164e-02
7.69703e+02,6.46000e+02,6.41000e+02,5.00000e+00,7.57481e-12,6.03616e-02,7.33120e-12,6.03616e-02,2.18928e-12,6.03616e-02
7.69954e+02,6.32000e+02,6.49000e+02,-1.70000e+01,5.25306e-12,6.79068e-02,6.90390e-12,6.79068e-02,1.97126e-12,6.79068e-02
7.70205e+02,6.28000e+02,6.32000e+02,-4.00000e+00,2.45659e-12,7.54520e-02,4.80699e-12,7.54520e-02,4.96161e-12,7.54520e-02
7.70455e+02,6.81000e+02,6.53000e+02,2.80000e+01,1.40190e-12,8.29972e-02,4.46357e-12,8.29972e-02,5.53232e-12,8.29972e-02
7.70706e+02,6.47000e+02,6.31000e+02,1.60000e+01,2.78061e-12,9.05424e-02,4.75665e-12,9.05424e-02,5.01091e-12,9.05424e-02
7.70957e+02,6.50000e+02,6.60000e+02,-1.00000e+01,5.72428e-12,9.80876e-02,4.71962e-12,9.80876e-02,5.91498e-12,9.80876e-02
7.71207e+02,6.31000e+02,6.42000e+02,-1.10000e+01,6.32208e-12,1.05633e-01,1.84784e-12,1.05633e-01,6.19042e-12,1.05633e-01
7.71458e+02,6.55000e+02,6.33000e+02,2.20000e+01,4.03444e-12,1.13178e-01,1.91346e-12,1.13178e-01,4.03307e-12,1.13178e-01
7.71708e+02,6.66000e+02,6.47000e+02,1.90000e+01,2.05583e-12,1.20723e-01,2.26203e-12,1.20723e-01,1.82203e-12,1.20723e-01
7.71959e+02,6.50000e+02,6.86000e+02,-3.60000e+01,3.33489e-12,1.28268e-01,3.76634e-12,1.28268e-01,1.56203e-12,1.28268e-01
7.72210e+02,6.46000e+02,6.46000e+02,0.00000e+00,4.08740e-12,1.35814e-01,6.23074e-12,1.35814e-01,2.27742e-12,1.35814e-01
7.72460e+02,6.76000e+02,6.40000e+02,3.60000e+01,3.05073e-12,1.43359e-01,5.38189e-12,1.43359e-01,2.84177e-12,1.43359e-01
7.72711e+02,6.77000e+02,6.29000e+02,4.80000e+01,2.81286e-12,1.50904e-01,4.62923e-12,1.50904e-01,1.85288e-12,1.50904e-01
7.72961e+02,6.86000e+02,7.19000e+02,-3.30000e+01,8.15889e-13,1.58449e-01,4.40180e-12,1.58449e-01,4.11361e-12,1.58449e-01
7.73212e+02,6.22000e+02,6.78000e+02,-5.60000e+01,4.65693e-12,1.65994e-01,5.79867e-12,1.65994e-01,5.10059e-12,1.65994e-01
7.73462e+02,6.59000e+02,6.45000e+02,1.40000e+01,5.45960e-12,1.73540e-01,5.43783e-12,1.73540e-01,3.01413e-12,1.73540e-01
7.73713e+02,6.79000e+02,6.40000e+02,3.90000e+01,3.27973e-12,1.81085e-01,3.11276e-12,1.81085e-01,1.94252e-13,1.81085e-01
7.73963e+02,6.68000e+02,6.62000e+02,6.00000e+00,1.14373e-12,1.88630e-01,2.14927e-12,1.88630e-01,1.18679e-12,1.88630e-01
7.74214e+02,6.48000e+02,6.91000e+02,-4.30000e+01,6.31032e-13,1.96175e-01,1.95661e-12,1.96175e-01,1.85749e-12,1.96175e-01
7.74465e+02,6.70000e+02,6.76000e+02,-6.00000e+00,2.89183e-12,2.03720e-01,1.34479e-12,2.03720e-01,2.77999e-12,2.03720e-01
7.74715e+02,7.00000e+02,6.47000e+02,5.30000e+01,4.81838e-12,2.11266e-01,1.70933e-12,2.11266e-01,3.21566e-12,2.11266e-01
7.74965e+02,7.27000e+02,7.00000e+02,2.70000e+01,2.94236e-12,2.18811e-01,1.40656e-12,2.18811e-01,2.40736e-12,2.18811e-01
7.75216e+02,6.63000e+02,7.21000e+02,-5.80000e+01,5.23170e-13,2.26356e-01,8.51193e-13,2.26356e-01,5.32665e-13,2.26356e-01
7.75466e+02,7.02000e+02,7.40000e+02,-3.80000e+01,1.83019e-12,2.33901e-01,2.89172e-12,2.33901e-01,3.27166e-12,2.33901e-01
7.75717e+02,6.89000e+02,6.38000e+02,5.10000e+01,1.57528e-12,2.41446e-01,4.86412e-12,2.41446e-01,5.10279e-12,2.41446e-01
7.75967e+02,7.60000e+02,6.93000e+02,6.70000e+01,1.71867e-12,2.48992e-01,4.47946e-12,2.48992e-01,5.07619e-12,2.48992e-01
7.76218e+02,6.82000e+02,7.76000e+02,-9.40000e+01,1.90691e-12,2.56537e-01,2.71442e-12,2.56537e-01,4.62072e-12,2.56537e-01
7.76468e+02,6.76000e+02,7.87000e+02,-1.11000e+02,2.12221e-12,2.64082e-01,1.37945e-12,2.64082e-01,3.11650e-12,2.64082e-01
7.76719e+02,7.14000e+02,6.86000e+02,2.80000e+01,2.61341e-12,2.71627e-01,1.65433e-12,2.71627e-01,1.16238e-12,2.71627e-01
7.76969e+02,8.29000e+02,7.04000e+02,1.25000e+02,3.51203e-12,2.79172e-01,3.15703e-12,2.79172e-01,1.42338e-12,2.79172e-01
7.77219e+02,7.36000e+02,7.85000e+02,-4.90000e+01,3.82215e-12,2.86718e-01,2.19504e-12,2.86718e-01,1.99440e-12,2.86718e-01
7.77470e+02,7.01000e+02,8.62000e+02,-1.61000e+02,3.03547e-12,2.94263e-01,2.47077e-13,2.94263e-01,3.28243e-12,2.94263e-01
7.77720e+02,7.56000e+02,7.33000e+02,2.30000e+01,1.26481e-12,3.01808e-01,2.28620e-12,3.01808e-01,2.78369e-12,3.01808e-01
7.77971e+02,9.89000e+02,7.49000e+02,2.40000e+02,2.98968e-12,3.09353e-01,4.32131e-12,3.09353e-01,1.47294e-12,3.09353e-01
7.78221e+02,8.58000e+02,8.40000e+02,1.80000e+01,3.65076e-12,3.16898e-01,5.21279e-12,3.16898e-01,1.56255e-12,3.16898e-01
7.78471e+02,7.24000e+02,1.00200e+03,-2.78000e+02,3.42727e-12,3.24444e-01,4.43353e-12,3.24444e-01,1.17511e-12,3.24444e-01
7.78722e+02,7.39000e+02,8.35000e+02,-9.60000e+01,2.46134e-12,3.31989e-01,2.27689e-12,3.31989e-01,5.69922e-13,3.31989e-01
7.78972e+02,1.03100e+03,7.71000e+02,2.60000e+02,1.42584e-12,3.39534e-01,8.86855e-13,3.39534e-01,6.81044e-13,3.39534e-01
7.79222e+02,1.09000e+03,9.05000e+02,1.85000e+02,1.99966e-12,3.47079e-01,1.31887e-12,3.47079e-01,1.61614e-12,3.47079e-01
7.79473e+02,9.16000e+02,1.17300e+03,-2.57000e+02,3.49997e-12,3.54624e-01,2.55828e-12,3.54624e-01,2.43806e-12,3.54624e-01
7.79723e+02,7.96000e+02,1.04200e+03,-2.46000e+02,3.86756e-12,3.62169e-01,3.37557e-12,3.62169e-01,1.43980e-12,3.62169e-01
7.79973e+02,1.12800e+03,8.35000e+02,2.93000e+02,1.62069e-12,3.69715e-01,2.88796e-12,3.69715e-01,1.60746e-12,3.69715e-01
7.80224e+02,1.22500e+03,8.77000e+02,3.48000e+02,1.82526e-12,3.77260e-01,1.63645e-12,3.77260e-01,3.35436e-12,3.77260e-01
7.80474e+02,1.13700e+03,1.32100e+03,-1.84000e+02,3.41581e-12,3.84805e-01,2.83598e-12,3.84805e-01,4.03489e-12,3.84805e-01
7.80724e+02,8.09000e+02,1.18800e+03,-3.79000e+02,2.27514e-12,3.92350e-01,2.78686e-12,3.92350e-01,1.66121e-12,3.92350e-01
7.80974e+02,1.07200e+03,9.25000e+02,1.47000e+02,1.11008e-12,3.99895e-01,2.04730e-12,3.99895e-01,2.20199e-12,3.99895e-01
7.81225e+02,1.38100e+03,8.71000e+02,5.10000e+02,5.62236e-13,4.07441e-01,2.64120e-12,4.07441e-01,3.19372e-12,4.07441e-01
7.81475e+02,1.42400e+03,1.35700e+03,6.70000e+01,1.72104e-12,4.14986e-01,2.66441e-12,4.14986e-01,9.64425e-13,4.14986e-01
7.81725e+02,9.68000e+02,1.51200e+03,-5.44000e+02,2.96561e-12,4.22531e-01,1.24215e-12,4.22531e-01,1.86407e-12,4.22531e-01
7.81975e+02,1.11500e+03,1.22900e+03,-1.14000e+02,2.21143e-12,4.30076e-01,4.78960e-13,4.30076e-01,1.90361e-12,4.30076e-01
7.82226e+02,1.53800e+03,9.33000e+02,6.05000e+02,2.98076e-13,4.37621e-01,7.20677e-13,4.37621e-01,4.90451e-13,4.37621e-01
7.82476e+02,1.56200e+03,1.29200e+03,2.70000e+02,2.16295e-12,4.45167e-01,1.82362e-12,4.45167e-01,2.16435e-12,4.45167e-01
7.82726e+02,1.09400e+03,1.67500e+03,-5.81000e+02,2.63890e-12,4.52712e-01,2.05850e-12,4.52712e-01,2.09631e-12,4.52712e-01
7.82976e+02,1.13600e+03,1.48800e+03,-3.52000e+02,2.60576e-12,4.60257e-01,2.92077e-12,4.60257e-01,1.32470e-12,4.60257e-01
7.83226e+02,1.54500e+03,1.00600e+03,5.39000e+02,3.04561e-12,4.67802e-01,3.84378e-12,4.67802e-01,9.78346e-13,4.67802e-01
7.83477e+02,1.84800e+03,1.29100e+03,5.57000e+02,3.45021e-12,4.75347e-01,3.91546e-12,4.75347e-01,4.69668e-13,4.75347e-01
7.83727e+02,1.39400e+03,1.78200e+03,-3.88000e+02,2.18222e-12,4.82893e-01,3.05019e-12,4.82893e-01,1.02401e-12,4.82893e-01
7.83977e+02,1.19600e+03,1.75700e+03,-5.61000e+02,1.28041e-12,4.90438e-01,2.02781e-12,4.90438e-01,3.14593e-12,4.90438e-01
7.84227e+02,1.60100e+03,1.26900e+03,3.32000e+02,2.71735e-12,4.97983e-01,7.61545e-13,4.97983e-01,3.43366e-12,4.97983e-01
7.84477e+02,2.38400e+03,1.32500e+03,1.05900e+03,1.67869e-12,5.05528e-01,6.08857e-13,5.05528e-01,1.46785e-12,5.05528e-01
7.84727e+02,2.02000e+03,1.90500e+03,1.15000e+02,1.24687e-12,5.13073e-01,1.64335e-12,5.13073e-01,1.55904e-12,5.13073e-01
7.84978e+02,1.51100e+03,2.43600e+03,-9.25000e+02,2.45233e-12,5.20619e-01,1.33265e-12,5.20619e-01,1.79282e-12,5.20619e-01
7.85228e+02,1.65600e+03,1.91300e+03,-2.57000e+02,2.91845e-12,5.28164e-01,3.64484e-12,5.28164e-01,5.05138e-12,5.28164e-01
7.85478e+02,2.59100e+03,1.54000e+03,1.05100e+03,2.43996e-12,5.35709e-01,6.98969e-12,5.35709e-01,8.50940e-12,5.35709e-01
7.85728e+02,2.68400e+03,1.98600e+03,6.98000e+02,1.04273e-11,5.43254e-01,1.07124e-11,5.43254e-01,2.00091e-11,5.43254e-01
7.85978e+02,1.82200e+03,2.72400e+03,-9.02000e+02,2.02635e-11,5.50799e-01,2.23714e-11,5.50799e-01,4.13643e-11,5.50799e-01
7.86228e+02,1.51400e+03,2.23000e+03,-7.16000e+02,3.28061e-11,5.58345e-01,3.54033e-11,5.58345e-01,6.55765e-11,5.58345e-01
7.86478e+02,2.34000e+03,1.54800e+03,7.92000e+02,4.35136e-11,5.65890e-01,4.28819e-11,5.65890e-01,8.25423e-11,5.65890e-01
7.86728e+02,2.74600e+03,1.65900e+03,1.08700e+03,4.83758e-11,5.73435e-01,4.43624e-11,5.73435e-01,8.85638e-11,5.73435e-01
7.86978e+02,2.16800e+03,2.58400e+03,-4.16000e+02,4.51029e-11,5.80980e-01,3.96276e-11,5.80980e-01,8.02649e-11,5.80980e-01
7.87228e+02,1.48900e+03,2.71200e+03,-1.22300e+03,3.30677e-11,5.88525e-01,2.90595e-11,5.88525e-01,5.77346e-11,5.88525e-01
7.87478e+02,1.93600e+03,1.89900e+03,3.70000e+01,1.93326e-11,5.96071e-01,1.88707e-11,5.96071e-01,3.50015e-11,5.96071e-01
7.87728e+02,2.70700e+03,1.56500e+03,1.14200e+03,1.13256e-11,6.03616e-01,1.11751e-11,6.03616e-01,2.06383e-11,6.03616e-01
7.87978e+02,2.83500e+03,2.52500e+03,3.10000e+02,4.80322e-12,6.11161e-01,6.51755e-12,6.11161e-01,1.03712e-11,6.11161e-01
7.88228e+02,1.90100e+03,3.14100e+03,-1.24000e+03,2.28143e-12,6.18706e-01,3.09021e-12,6.18706e-01,5.35658e-12,6.18706e-01
7.88478e+02,2.10400e+03,2.71000e+03,-6.06000e+02,1.78846e-12,6.26251e-01,2.35331e-12,6.26251e-01,3.45183e-12,6.26251e-01
7.88728e+02,3.21100e+03,1.86000e+03,1.35100e+03,1.78865e-12,6.33797e-01,3.90081e-12,6.33797e-01,4.04810e-12,6.33797e-01
7.88978e+02,3.42300e+03,2.31500e+03,1.10800e+03,1.28477e-12,6.41342e-01,3.14148e-12,6.41342e-01,3.12257e-12,6.41342e-01
7.89228e+02,2.54600e+03,3.45000e+03,-9.04000e+02,2.67921e-12,6.48887e-01,2.11192e-12,6.48887e-01,2.80946e-12,6.48887e-01
7.89478e+02,1.94300e+03,3.63700e+03,-1.69400e+03,2.06559e-12,6.56432e-01,2.04692e-12,6.56432e-01,3.20685e-12,6.56432e-01
7.89728e+02,2.84300e+03,2.42700e+03,4.16000e+02,1.98620e-12,6.63977e-01,1.72836e-12,6.63977e-01,3.31535e-12,6.63977e-01
7.89978e+02,4.17500e+03,2.07300e+03,2.10200e+03,1.92333e-12,6.71523e-01,1.47546e-12,6.71523e-01,2.93823e-12,6.71523e-01
7.90228e+02,3.71200e+03,3.33300e+03,3.79000e+02,2.07643e-12,6.79068e-01,1.71400e-12,6.79068e-01,3.63278e-12,6.79068e-01
7.90478e+02,2.64000e+03,4.47700e+03,-1.83700e+03,2.15127e-12,6.86613e-01,2.48516e-12,6.86613e-01,4.54000e-12,6.86613e-01
7.90728e+02,2.80900e+03,3.55700e+03,-7.48000e+02,1.79920e-12,6.94158e-01,3.49309e-12,6.94158e-01,4.62333e-12,6.94158e-01
7.90978e+02,4.58400e+03,2.45600e+03,2.12800e+03,1.50022e-12,7.01703e-01,3.40653e-12,7.01703e-01,3.22764e-12,7.01703e-01
7.91228e+02,4.90800e+03,3.19100e+03,1.71700e+03,1.94336e-12,7.09249e-01,2.20268e-12,7.09249e-01,2.33319e-12,7.09249e-01
7.91478e+02,3.39200e+03,4.35900e+03,-9.67000e+02,1.74841e-12,7.16794e-01,2.64552e-12,7.16794e-01,3.36789e-12,7.16794e-01
7.91728e+02,2.33700e+03,3.97400e+03,-1.63700e+03,1.18224e-12,7.24339e-01,2.76431e-12,7.24339e-01,2.96062e-12,7.24339e-01
7.91977e+02,3.42400e+03,2.80900e+03,6.15000e+02,1.08887e-12,7.31884e-01,2.20605e-12,7.31884e-01,2.19461e-12,7.31884e-01
7.92227e+02,4.25200e+03,2.65900e+03,1.59300e+03,9.45018e-13,7.39429e-01,1.55460e-12,7.39429e-01,1.68108e-12,7.39429e-01
7.92477e+02,3.88400e+03,4.62200e+03,-7.38000e+02,9.68804e-13,7.46975e-01,1.12010e-12,7.46975e-01,1.56970e-12,7.46975e-01
7.92727e+02,2.80100e+03,5.48500e+03,-2.68400e+03,1.52202e-12,7.54520e-01,1.73522e-12,7.54520e-01,2.40093e-12,7.54520e-01
7.92977e+02,3.21700e+03,3.98800e+03,-7.71000e+02,2.00490e-12,7.62065e-01,1.98747e-12,7.62065e-01,2.86774e-12,7.62065e-01
7.93227e+02,4.81600e+03,2.46900e+03,2.34700e+03,2.00811e-12,7.69610e-01,1.41826e-12,7.69610e-01,1.63486e-12,7.69610e-01
7.93476e+02,4.81700e+03,3.43600e+03,1.38100e+03,1.87494e-12,7.77155e-01,7.76100e-13,7.77155e-01,1.10220e-12,7.77155e-01
7.93726e+02,3.15200e+03,5.00900e+03,-1.85700e+03,1.36118e-12,7.84701e-01,7.16312e-13,7.84701e-01,6.44979e-13,7.84701e-01
7.93976e+02,2.84500e+03,4.66000e+03,-1.81500e+03,6.69411e-13,7.92246e-01,1.00025e-12,7.92246e-01,4.01899e-13,7.92246e-01
7.94226e+02,4.62400e+03,2.92600e+03,1.69800e+03,1.55829e-13,7.99791e-01,7.15571e-13,7.99791e-01,8.59711e-13,7.99791e-01
7.94476e+02,6.02400e+03,3.32000e+03,2.70400e+03,6.23941e-13,8.07336e-01,5.74839e-13,8.07336e-01,8.34172e-13,8.07336e-01
7.94725e+02,4.60900e+03,5.10600e+03,-4.97000e+02,5.40292e-13,8.14881e-01,9.94862e-13,8.14881e-01,8.65342e-13,8.14881e-01
7.94975e+02,3.21800e+03,5.88400e+03,-2.66600e+03,4.73901e-13,8.22427e-01,1.97325e-12,8.22427e-01,1.50304e-12,8.22427e-01
7.95225e+02,3.89600e+03,4.20100e+03,-3.05000e+02,1.35181e-12,8.29972e-01,2.17589e-12,8.29972e-01,8.75941e-13,8.29972e-01
7.95475e+02,6.04900e+03,3.19700e+03,2.85200e+03,2.07947e-12,8.37517e-01,1.47091e-12,8.37517e-01,6.09328e-13,8.37517e-01
7.95724e+02,5.71800e+03,4.86800e+03,8.50000e+02,1.77012e-12,8.45062e-01,5.94585e-13,8.45062e-01,1.19998e-12,8.45062e-01
7.95974e+02,3.83000e+03,6.49600e+03,-2.66600e+03,1.40773e-12,8.52607e-01,2.34795e-13,8.52607e-01,1.48206e-12,8.52607e-01
7.96224e+02,3.66100e+03,5.63400e+03,-1.97300e+03,1.13096e-12,8.60153e-01,5.25477e-13,8.60153e-01,1.58721e-12,8.60153e-01
7.96474e+02,6.11000e+03,3.83200e+03,2.27800e+03,8.21688e-13,8.67698e-01,5.27582e-13,8.67698e-01,9.89621e-13,8.67698e-01
7.96723e+02,7.13800e+03,3.93300e+03,3.20500e+03,1.79014e-13,8.75243e-01,6.01132e-13,8.75243e-01,4.60767e-13,8.75243e-01
7.96973e+02,5.25100e+03,6.44000e+03,-1.18900e+03,4.92953e-13,8.82788e-01,7.83306e-13,8.82788e-01,1.23367e-12,8.82788e-01
7.97223e+02,3.92200e+03,7.85200e+03,-3.93000e+03,1.20295e-12,8.90333e-01,6.00287e-13,8.90333e-01,1.60522e-12,8.90333e-01
7.97472e+02,6.16300e+03,4.91300e+03,1.25000e+03,1.45839e-12,8.97879e-01,9.06142e-13,8.97879e-01,1.82117e-12,8.97879e-01
7.97722e+02,9.42000e+03,3.89900e+03,5.52100e+03,1.32835e-12,9.05424e-01,1.24965e-12,9.05424e-01,1.58488e-12,9.05424e-01
7.97972e+02,8.20200e+03,6.00700e+03,2.19500e+03,1.37861e-12,9.12969e-01,1.11482e-12,9.12969e-01,8.34340e-13,9.12969e-01
7.98221e+02,4.52900e+03,7.79500e+03,-3.26600e+03,1.56668e-12,9.20514e-01,7.30870e-13,9.20514e-01,9.08409e-13,9.20514e-01
7.98471e+02,4.14400e+03,5.78500e+03,-1.64100e+03,2.20962e-12,9.28059e-01,5.07533e-13,9.28059e-01,2.06983e-12,9.28059e-01
7.98721e+02,6.68000e+03,3.95700e+03,2.72300e+03,2.11675e-12,9.35605e-01,7.52411e-13,9.35605e-01,2.58349e-12,9.35605e-01
7.98970e+02,8.75600e+03,5.28900e+03,3.46700e+03,1.05165e-12,9.43150e-01,1.28731e-12,9.43150e-01,2.04992e-12,9.43150e-01
7.99220e+02,6.46900e+03,8.35400e+03,-1.88500e+03,6.99609e-13,9.50695e-01,1.31373e-12,9.50695e-01,1.34556e-12,9.50695e-01
7.99469e+02,4.25500e+03,8.29000e+03,-4.03500e+03,3.15044e-13,9.58240e-01,9.00955e-13,9.58240e-01,7.86283e-13,9.58240e-01
7.99719e+02,6.11200e+03,5.25300e+03,8.59000e+02,4.50113e-14,9.65785e-01,4.45428e-13,9.65785e-01,4.58452e-13,9.65785e-01
7.99969e+02,9.00800e+03,4.42200e+03,4.58600e+03,1.26109e-13,9.73331e-01,6.58407e-13,9.73331e-01,6.52792e-13,9.73331e-01
8.00218e+02,7.86000e+03,7.03200e+03,8.28000e+02,3.78780e-13,9.80876e-01,7.44204e-13,9.80876e-01,3.92216e-13,9.80876e-01
8.00468e+02,4.97600e+03,9.12200e+03,-4.14600e+03,4.94593e-13,9.88421e-01,1.13099e-12,9.88421e-01,6.58389e-13,9.88421e-01
8.00717e+02,5.39300e+03,6.87500e+03,-1.48200e+03,1.13419e-12,9.95966e-01,1.69244e-12,9.95966e-01,6.70223e-13,9.95966e-01
8.00967e+02,8.68700e+03,4.80200e+03,3.88500e+03,1.00014e-12,1.00351e+00,1.33982e-12,1.00351e+00,3.63624e-13,1.00351e+00
8.01216e+02,1.02890e+04,6.92900e+03,3.36000e+03,4.66965e-13,1.01106e+00,5.81910e-13,1.01106e+00,2.49350e-13,1.01106e+00
8.01466e+02,7.69800e+03,1.00760e+04,-2.37800e+03,2.91212e-13,1.01860e+00,1.09238e-13,1.01860e+00,1.87560e-13,1.01860e+00
8.01715e+02,5.34900e+03,1.04860e+04,-5.13700e+03,3.47679e-13,1.02615e+00,4.01803e-13,1.02615e+00,3.65074e-13,1.02615e+00
8.01965e+02,7.76000e+03,6.79700e+03,9.63000e+02,8.41205e-13,1.03369e+00,4.35984e-13,1.03369e+00,1.10434e-12,1.03369e+00
8.02215e+02,1.08240e+04,5.15400e+03,5.67000e+03,1.41184e-12,1.04124e+00,2.97720e-13,1.04124e+00,1.67488e-12,1.04124e+00
8.02464e+02,8.86300e+03,8.58900e+03,2.74000e+02,1.14729e-12,1.04878e+00,3.19922e-13,1.04878e+00,1.43140e-12,1.04878e+00
8.02713e+02,5.49100e+03,1.05090e+04,-5.01800e+03,8.07593e-13,1.05633e+00,2.61678e-13,1.05633e+00,9.07922e-13,1.05633e+00
8.02963e+02,6.22700e+03,7.98400e+03,-1.75700e+03,1.83664e-13,1.06387e+00,7.24318e-13,1.06387e+00,6.27095e-13,1.06387e+00
8.03212e+02,1.05030e+04,5.57800e+03,4.92500e+03,2.21015e-13,1.07142e+00,1.08188e-12,1.07142e+00,9.37544e-13,1.07142e+00
8.03462e+02,1.16970e+04,7.65900e+03,4.03800e+03,2.66321e-13,1.07896e+00,1.76309e-12,1.07896e+00,2.02896e-12,1.07896e+00
8.03711e+02,8.12800e+03,1.20360e+04,-3.90800e+03,7.73540e-13,1.08651e+00,1.88782e-12,1.08651e+00,2.59334e-12,1.08651e+00
8.03961e+02,5.42600e+03,1.09330e+04,-5.50700e+03,5.87123e-13,1.09405e+00,1.43534e-12,1.09405e+00,1.82508e-12,1.09405e+00
8.04210e+02,7.75600e+03,6.57200e+03,1.18400e+03,3.03328e-13,1.10160e+00,9.08507e-13,1.10160e+00,9.01336e-13,1.10160e+00
8.04460e+02,1.15600e+04,5.70500e+03,5.85500e+03,5.18512e-13,1.10914e+00,5.13064e-13,1.10914e+00,4.20653e-13,1.10914e+00
8.04709e+02,1.06380e+04,1.00050e+04,6.33000e+02,9.66630e-13,1.11669e+00,3.25073e-13,1.11669e+00,8.27214e-13,1.11669e+00
8.04958e+02,6.59300e+03,1.21210e+04,-5.52800e+03,9.83294e-13,1.12423e+00,4.58983e-13,1.12423e+00,6.43080e-13,1.12423e+00
8.05208e+02,6.50400e+03,9.86400e+03,-3.36000e+03,1.21517e-12,1.13178e+00,9.72371e-13,1.13178e+00,8.29376e-13,1.13178e+00
8.05457e+02,9.69100e+03,5.78900e+03,3.90200e+03,1.97665e-12,1.13932e+00,1.59796e-12,1.13932e+00,1.72293e-12,1.13932e+00
8.05707e+02,1.16110e+04,7.20400e+03,4.40700e+03,2.02693e-12,1.14687e+00,1.75637e-12,1.14687e+00,1.64506e-12,1.14687e+00
8.05956e+02,9.22500e+03,1.18530e+04,-2.62800e+03,1.24163e-12,1.15442e+00,1.32681e-12,1.15442e+00,1.05002e-12,1.15442e+00
8.06205e+02,5.76200e+03,1.10520e+04,-5.29000e+03,6.56970e-13,1.16196e+00,6.63729e-13,1.16196e+00,6.88868e-13,1.16196e+00
8.06455e+02,8.13300e+03,7.29900e+03,8.34000e+02,5.63520e-13,1.16951e+00,3.79119e-14,1.16951e+00,5.41170e-13,1.16951e+00
8.06704e+02,1.16960e+04,5.58200e+03,6.11400e+03,6.64968e-13,1.17705e+00,2.68157e-13,1.17705e+00,4.94897e-13,1.17705e+00
8.06953e+02,1.14190e+04,8.47700e+03,2.94200e+03,5.79382e-13,1.18460e+00,1.44491e-13,1.18460e+00,5.10494e-13,1.18460e+00
8.07203e+02,6.55800e+03,1.10250e+04,-4.46700e+03,5.48688e-13,1.19214e+00,2.74868e-13,1.19214e+00,4.70645e-13,1.19214e+00
8.07452e+02,5.72600e+03,1.05940e+04,-4.86800e+03,7.76489e-13,1.19969e+00,7.08407e-13,1.19969e+00,3.26709e-13,1.19969e+00
8.07701e+02,9.56900e+03,6.40000e+03,3.16900e+03,1.12400e-12,1.20723e+00,1.09157e-12,1.20723e+00,1.72205e-13,1.20723e+00
8.07951e+02,1.20370e+04,5.83800e+03,6.19900e+03,1.13066e-12,1.21478e+00,1.30621e-12,1.21478e+00,9.49269e-13,1.21478e+00
8.08200e+02,9.41300e+03,8.82900e+03,5.84000e+02,8.33371e-13,1.22232e+00,1.26008e-12,1.22232e+00,1.42815e-12,1.22232e+00
8.08449e+02,6.15300e+03,1.17420e+04,-5.58900e+03,3.39343e-13,1.22987e+00,9.48995e-13,1.22987e+00,1.24626e-12,1.22987e+00
8.08698e+02,7.87300e+03,8.88700e+03,-1.01400e+03,3.00032e-13,1.23741e+00,7.66346e-13,1.23741e+00,4.87265e-13,1.23741e+00
8.08948e+02,1.32760e+04,6.12500e+03,7.15100e+03,5.17264e-13,1.24496e+00,6.42279e-13,1.24496e+00,1.56772e-13,1.24496e+00
8.09197e+02,1.41570e+04,8.58900e+03,5.56800e+03,3.59703e-13,1.25250e+00,4.95355e-13,1.25250e+00,1.58716e-13,1.25250e+00
8.09446e+02,8.89200e+03,1.23330e+04,-3.44100e+03,3.76713e-13,1.26005e+00,3.31727e-13,1.26005e+00,5.32688e-13,1.26005e+00
8.09695e+02,6.85600e+03,1.25100e+04,-5.65400e+03,8.63384e-13,1.26759e+00,3.89913e-13,1.26759e+00,7.37868e-13,1.26759e+00
8.09945e+02,1.15010e+04,8.35700e+03,3.14400e+03,1.06203e-12,1.27514e+00,5.83867e-13,1.27514e+00,5.12829e-13,1.27514e+00
8.10194e+02,1.48380e+04,6.98100e+03,7.85700e+03,5.79081e-13,1.28268e+00,5.60454e-13,1.28268e+00,3.67794e-13,1.28268e+00
8.10443e+02,1.24520e+04,1.06500e+04,1.80200e+03,5.32522e-13,1.29023e+00,9.91765e-13,1.29023e+00,9.90061e-13,1.29023e+00
8.10692e+02,7.28100e+03,1.33530e+04,-6.07200e+03,4.68499e-13,1.29777e+00,8.40338e-13,1.29777e+00,1.11317e-12,1.29777e+00
8.10941e+02,8.07400e+03,1.07560e+04,-2.68200e+03,9.01461e-13,1.30532e+00,2.92988e-13,1.30532e+00,8.28931e-13,1.30532e+00
8.11191e+02,1.28360e+04,6.36900e+03,6.46700e+03,2.46033e-13,1.31286e+00,1.21835e-13,1.31286e+00,1.98557e-13,1.31286e+00
8.11440e+02,1.44180e+04,8.58500e+03,5.83300e+03,1.81172e-12,-1.32041e+00,1.15819e-12,-1.32041e+00,6.53527e-13,-1.32041e+00
8.11689e+02,1.14290e+04,1.41630e+04,-2.73400e+03,2.46033e-13,-1.31286e+00,1.21835e-13,-1.31286e+00,1.98557e-13,-1.31286e+00
8.11938e+02,7.12300e+03,1.45200e+04,-7.39700e+03,9.01461e-13,-1.30532e+00,2.92988e-13,-1.30532e+00,8.28931e-13,-1.30532e+00
8.12187e+02,9.50800e+03,9.68100e+03,-1.73000e+02,4.68499e-13,-1.29777e+00,8.40338e-13,-1.29777e+00,1.11317e-12,-1.29777e+00
8.12436e+02,1.36700e+04,6.95500e+03,6.71500e+03,5.32522e-13,-1.29023e+00,9.91765e-13,-1.29023e+00,9.90061e-13,-1.29023e+00
8.12685e+02,1.27360e+04,1.07700e+04,1.96600e+03,5.79081e-13,-1.28268e+00,5.60454e-13,-1.28268e+00,3.67794e-13,-1.28268e+00
8.12935e+02,8.35200e+03,1.40520e+04,-5.70000e+03,1.06203e-12,-1.27514e+00,5.83867e-13,-1.27514e+00,5.12829e-13,-1.27514e+00
8.13184e+02,7.54100e+03,1.24140e+04,-4.87300e+03,8.63384e-13,-1.26759e+00,3.89913e-13,-1.26759e+00,7.37868e-13,-1.26759e+00
8.13433e+02,1.20710e+04,7.99600e+03,4.07500e+03,3.76713e-13,-1.26005e+00,3.31727e-13,-1.26005e+00,5.32688e-13,-1.26005e+00
8.13682e+02,1.47750e+04,7.12400e+03,7.65100e+03,3.59703e-13,-1.25250e+00,4.95355e-13,-1.25250e+00,1.58716e-13,-1.25250e+00
8.13931e+02,1.23970e+04,1.11480e+04,1.24900e+03,5.17264e-13,-1.24496e+00,6.42279e-13,-1.24496e+00,1.56772e-13,-1.24496e+00
8.14180e+02,7.16300e+03,1.28160e+04,-5.65300e+03,3.00032e-13,-1.23741e+00,7.66346e-13,-1.23741e+00,4.87265e-13,-1.23741e+00
8.14429e+02,7.53700e+03,1.10040e+04,-3.46700e+03,3.39343e-13,-1.22987e+00,9.48995e-13,-1.22987e+00,1.24626e-12,-1.22987e+00
8.14678e+02,1.25650e+04,6.86500e+03,5.70000e+03,8.33371e-13,-1.22232e+00,1.26008e-12,-1.22232e+00,1.42815e-12,-1.22232e+00
8.14927e+02,1.31660e+04,7.99200e+03,5.17400e+03,1.13066e-12,-1.21478e+00,1.30621e-12,-1.21478e+00,9.49269e-13,-1.21478e+00
8.15176e+02,9.42200e+03,1.19560e+04,-2.53400e+03,1.12400e-12,-1.20723e+00,1.09157e-12,-1.20723e+00,1.72205e-13,-1.20723e+00
8.15425e+02,6.00000e+03,1.23330e+04,-6.33300e+03,7.76489e-13,-1.19969e+00,7.08407e-13,-1.19969e+00,3.26709e-13,-1.19969e+00
8.15674e+02,9.26000e+03,8.88300e+03,3.77000e+02,5.48688e-13,-1.19214e+00,2.74868e-13,-1.19214e+00,4.70645e-13,-1.19214e+00
8.15923e+02,1.42550e+04,6.46700e+03,7.78800e+03,5.79382e-13,-1.18460e+00,1.44491e-13,-1.18460e+00,5.10494e-13,-1.18460e+00
8.16172e+02,1.44750e+04,1.08680e+04,3.60700e+03,6.64968e-13,-1.17705e+00,2.68157e-13,-1.17705e+00,4.94897e-13,-1.17705e+00
8.16421e+02,7.75600e+03,1.34460e+04,-5.69000e+03,5.63520e-13,-1.16951e+00,3.79119e-14,-1.16951e+00,5.41170e-13,-1.16951e+00
8.16670e+02,6.42900e+03,9.89200e+03,-3.46300e+03,6.56970e-13,-1.16196e+00,6.63729e-13,-1.16196e+00,6.88868e-13,-1.16196e+00
8.16919e+02,1.05030e+04,6.05100e+03,4.45200e+03,1.24163e-12,-1.15442e+00,1.32681e-12,-1.15442e+00,1.05002e-12,-1.15442e+00
8.17168e+02,1.18190e+04,6.05700e+03,5.76200e+03,2.02693e-12,-1.14687e+00,1.75637e-12,-1.14687e+00,1.64506e-12,-1.14687e+00
8.17417e+02,8.85200e+03,9.61000e+03,-7.58000e+02,1.97665e-12,-1.13932e+00,1.59796e-12,-1.13932e+00,1.72293e-12,-1.13932e+00
8.17666e+02,5.73000e+03,1.16290e+04,-5.89900e+03,1.21517e-12,-1.13178e+00,9.72371e-13,-1.13178e+00,8.29376e-13,-1.13178e+00
8.17915e+02,7.03500e+03,9.13400e+03,-2.09900e+03,9.83294e-13,-1.12423e+00,4.58983e-13,-1.12423e+00,6.43080e-13,-1.12423e+00
8.18164e+02,9.71200e+03,5.75100e+03,3.96100e+03,9.66630e-13,-1.11669e+00,3.25073e-13,-1.11669e+00,8.27214e-13,-1.11669e+00
8.18413e+02,1.01990e+04,6.30600e+03,3.89300e+03,5.18512e-13,-1.10914e+00,5.13064e-13,-1.10914e+00,4.20653e-13,-1.10914e+00
8.18662e+02,6.60200e+03,9.49800e+03,-2.89600e+03,3.03328e-13,-1.10160e+00,9.08507e-13,-1.10160e+00,9.01336e-13,-1.10160e+00
8.18911e+02,4.60800e+03,1.03620e+04,-5.75400e+03,5.87123e-13,-1.09405e+00,1.43534e-12,-1.09405e+00,1.82508e-12,-1.09405e+00
8.19160e+02,6.44000e+03,6.75500e+03,-3.15000e+02,7.73540e-13,-1.08651e+00,1.88782e-12,-1.08651e+00,2.59334e-12,-1.08651e+00
8.19408e+02,9.57600e+03,4.77700e+03,4.79900e+03,2.66321e-13,-1.07896e+00,1.76309e-12,-1.07896e+00,2.02896e-12,-1.07896e+00
8.19657e+02,9.91500e+03,8.16600e+03,1.74900e+03,2.21015e-13,-1.07142e+00,1.08188e-12,-1.07142e+00,9.37544e-13,-1.07142e+00
8.19906e+02,6.12200e+03,1.23130e+04,-6.19100e+03,1.83664e-13,-1.06387e+00,7.24318e-13,-1.06387e+00,6.27095e-13,-1.06387e+00
8.20155e+02,5.18500e+03,1.11320e+04,-5.94700e+03,8.07593e-13,-1.05633e+00,2.61678e-13,-1.05633e+00,9.07922e-13,-1.05633e+00
8.20404e+02,8.31200e+03,6.48800e+03,1.82400e+03,1.14729e-12,-1.04878e+00,3.19922e-13,-1.04878e+00,1.43140e-12,-1.04878e+00
8.20653e+02,9.60500e+03,5.42500e+03,4.18000e+03,1.41184e-12,-1.04124e+00,2.97720e-13,-1.04124e+00,1.67488e-12,-1.04124e+00
8.20901e+02,7.69400e+03,8.05100e+03,-3.57000e+02,8.41205e-13,-1.03369e+00,4.35984e-13,-1.03369e+00,1.10434e-12,-1.03369e+00
8.21150e+02,4.88800e+03,1.01000e+04,-5.21200e+03,3.47679e-13,-1.02615e+00,4.01803e-13,-1.02615e+00,3.65074e-13,-1.02615e+00
8.21399e+02,5.22400e+03,7.25500e+03,-2.03100e+03,2.91212e-13,-1.01860e+00,1.09238e-13,-1.01860e+00,1.87560e-13,-1.01860e+00
8.21648e+02,8.58600e+03,4.23100e+03,4.35500e+03,4.66965e-13,-1.01106e+00,5.81910e-13,-1.01106e+00,2.49350e-13,-1.01106e+00
8.21897e+02,9.17300e+03,4.74200e+03,4.43100e+03,1.00014e-12,-1.00351e+00,1.33982e-12,-1.00351e+00,3.63624e-13,-1.00351e+00
8.22145e+02,6.05700e+03,6.65400e+03,-5.97000e+02,1.13419e-12,-9.95966e-01,1.69244e-12,-9.95966e-01,6.70223e-13,-9.95966e-01
8.22394e+02,4.09300e+03,7.77900e+03,-3.68600e+03,4.94593e-13,-9.88421e-01,1.13099e-12,-9.88421e-01,6.58389e-13,-9.88421e-01
8.22643e+02,5.62500e+03,6.06200e+03,-4.37000e+02,3.78780e-13,-9.80876e-01,7.44204e-13,-9.80876e-01,3.92216e-13,-9.80876e-01
8.22892e+02,7.99500e+03,4.11500e+03,3.88000e+03,1.26109e-13,-9.73331e-01,6.58407e-13,-9.73331e-01,6.52792e-13,-9.73331e-01
8.23140e+02,7.61000e+03,5.26600e+03,2.34400e+03,4.50113e-14,-9.65785e-01,4.45428e-13,-9.65785e-01,4.58452e-13,-9.65785e-01
8.23389e+02,4.89200e+03,7.79700e+03,-2.90500e+03,3.15044e-13,-9.58240e-01,9.00955e-13,-9.58240e-01,7.86283e-13,-9.58240e-01
8.23638e+02,3.85500e+03,7.73700e+03,-3.88200e+03,6.99609e-13,-9.50695e-01,1.31373e-12,-9.50695e-01,1.34556e-12,-9.50695e-01
8.23887e+02,6.08200e+03,4.68000e+03,1.40200e+03,1.05165e-12,-9.43150e-01,1.28731e-12,-9.43150e-01,2.04992e-12,-9.43150e-01
8.24135e+02,7.56600e+03,3.86400e+03,3.70200e+03,2.11675e-12,-9.35605e-01,7.52411e-13,-9.35605e-01,2.58349e-12,-9.35605e-01
8.24384e+02,6.42300e+03,5.66200e+03,7.61000e+02,2.20962e-12,-9.28059e-01,5.07533e-13,-9.28059e-01,2.06983e-12,-9.28059e-01
8.24633e+02,3.77200e+03,7.59100e+03,-3.81900e+03,1.56668e-12,-9.20514e-01,7.30870e-13,-9.20514e-01,9.08409e-13,-9.20514e-01
8.24881e+02,3.88400e+03,6.81200e+03,-2.92800e+03,1.37861e-12,-9.12969e-01,1.11482e-12,-9.12969e-01,8.34340e-13,-9.12969e-01
8.25130e+02,6.03600e+03,4.23900e+03,1.79700e+03,1.32835e-12,-9.05424e-01,1.24965e-12,-9.05424e-01,1.58488e-12,-9.05424e-01
8.25379e+02,7.62200e+03,4.28000e+03,3.34200e+03,1.45839e-12,-8.97879e-01,9.06142e-13,-8.97879e-01,1.82117e-12,-8.97879e-01
8.25627e+02,5.03600e+03,5.71000e+03,-6.74000e+02,1.20295e-12,-8.90333e-01,6.00287e-13,-8.90333e-01,1.60522e-12,-8.90333e-01
8.25876e+02,2.89300e+03,6.36400e+03,-3.47100e+03,4.92953e-13,-8.82788e-01,7.83306e-13,-8.82788e-01,1.23367e-12,-8.82788e-01
8.26125e+02,3.43800e+03,4.82700e+03,-1.38900e+03,1.79014e-13,-8.75243e-01,6.01132e-13,-8.75243e-01,4.60767e-13,-8.75243e-01
8.26373e+02,4.67600e+03,2.83200e+03,1.84400e+03,8.21688e-13,-8.67698e-01,5.27582e-13,-8.67698e-01,9.89621e-13,-8.67698e-01
8.26622e+02,4.62900e+03,2.73200e+03,1.89700e+03,1.13096e-12,-8.60153e-01,5.25477e-13,-8.60153e-01,1.58721e-12,-8.60153e-01
8.26870e+02,3.15500e+03,4.04000e+03,-8.85000e+02,1.40773e-12,-8.52607e-01,2.34795e-13,-8.52607e-01,1.48206e-12,-8.52607e-01
8.27119e+02,2.34600e+03,4.31200e+03,-1.96600e+03,1.77012e-12,-8.45062e-01,5.94585e-13,-8.45062e-01,1.19998e-12,-8.45062e-01
8.27368e+02,3.26700e+03,3.22300e+03,4.40000e+01,2.07947e-12,-8.37517e-01,1.47091e-12,-8.37517e-01,6.09328e-13,-8.37517e-01
8.27616e+02,3.94300e+03,2.23400e+03,1.70900e+03,1.35181e-12,-8.29972e-01,2.17589e-12,-8.29972e-01,8.75941e-13,-8.29972e-01
8.27865e+02,3.65700e+03,2.96000e+03,6.97000e+02,4.73901e-13,-8.22427e-01,1.97325e-12,-8.22427e-01,1.50304e-12,-8.22427e-01
8.28113e+02,2.85100e+03,4.73500e+03,-1.88400e+03,5.40292e-13,-8.14881e-01,9.94862e-13,-8.14881e-01,8.65342e-13,-8.14881e-01
8.28362e+02,2.24600e+03,4.77600e+03,-2.53000e+03,6.23941e-13,-8.07336e-01,5.74839e-13,-8.07336e-01,8.34172e-13,-8.07336e-01
8.28610e+02,3.24300e+03,2.95600e+03,2.87000e+02,1.55829e-13,-7.99791e-01,7.15571e-13,-7.99791e-01,8.59711e-13,-7.99791e-01
8.28859e+02,4.06100e+03,2.00100e+03,2.06000e+03,6.69411e-13,-7.92246e-01,1.00025e-12,-7.92246e-01,4.01899e-13,-7.92246e-01
8.29108e+02,3.36300e+03,2.82900e+03,5.34000e+02,1.36118e-12,-7.84701e-01,7.16312e-13,-7.84701e-01,6.44979e-13,-7.84701e-01
8.29356e+02,2.19600e+03,3.69300e+03,-1.49700e+03,1.87494e-12,-7.77155e-01,7.76100e-13,-7.77155e-01,1.10220e-12,-7.77155e-01
8.29605e+02,1.78000e+03,3.28600e+03,-1.50600e+03,2.00811e-12,-7.69610e-01,1.41826e-12,-7.69610e-01,1.63486e-12,-7.69610e-01
8.29853e+02,2.53900e+03,2.06500e+03,4.74000e+02,2.00490e-12,-7.62065e-01,1.98747e-12,-7.62065e-01,2.86774e-12,-7.62065e-01
8.30101e+02,3.10500e+03,1.73300e+03,1.37200e+03,1.52202e-12,-7.54520e-01,1.73522e-12,-7.54520e-01,2.40093e-12,-7.54520e-01
8.30350e+02,2.75400e+03,2.55400e+03,2.00000e+02,9.68804e-13,-7.46975e-01,1.12010e-12,-7.46975e-01,1.56970e-12,-7.46975e-01
8.30598e+02,1.70900e+03,2.85600e+03,-1.14700e+03,9.45018e-13,-7.39429e-01,1.55460e-12,-7.39429e-01,1.68108e-12,-7.39429e-01
8.30847e+02,1.76400e+03,2.54100e+03,-7.77000e+02,1.08887e-12,-7.31884e-01,2.20605e-12,-7.31884e-01,2.19461e-12,-7.31884e-01
8.31095e+02,2.53100e+03,1.76800e+03,7.63000e+02,1.18224e-12,-7.24339e-01,2.76431e-12,-7.24339e-01,2.96062e-12,-7.24339e-01
8.31344e+02,2.74600e+03,1.72100e+03,1.02500e+03,1.74841e-12,-7.16794e-01,2.64552e-12,-7.16794e-01,3.36789e-12,-7.16794e-01
8.31592e+02,2.04600e+03,2.35400e+03,-3.08000e+02,1.94336e-12,-7.09249e-01,2.20268e-12,-7.09249e-01,2.33319e-12,-7.09249e-01
8.31841e+02,1.35900e+03,2.52200e+03,-1.16300e+03,1.50022e-12,-7.01703e-01,3.40653e-12,-7.01703e-01,3.22764e-12,-7.01703e-01
8.32089e+02,1.50100e+03,2.06800e+03,-5.67000e+02,1.79920e-12,-6.94158e-01,3.49309e-12,-6.94158e-01,4.62333e-12,-6.94158e-01
8.32337e+02,2.24900e+03,1.39400e+03,8.55000e+02,2.15127e-12,-6.86613e-01,2.48516e-12,-6.86613e-01,4.54000e-12,-6.86613e-01
8.32586e+02,2.13900e+03,1.33000e+03,8.09000e+02,2.07643e-12,-6.79068e-01,1.71400e-12,-6.79068e-01,3.63278e-12,-6.79068e-01
8.32834e+02,1.72800e+03,1.96900e+03,-2.41000e+02,1.92333e-12,-6.71523e-01,1.47546e-12,-6.71523e-01,2.93823e-12,-6.71523e-01
8.33083e+02,1.06100e+03,1.98700e+03,-9.26000e+02,1.98620e-12,-6.63977e-01,1.72836e-12,-6.63977e-01,3.31535e-12,-6.63977e-01
8.33331e+02,1.32500e+03,1.56800e+03,-2.43000e+02,2.06559e-12,-6.56432e-01,2.04692e-12,-6.56432e-01,3.20685e-12,-6.56432e-01
8.33579e+02,1.80400e+03,1.05800e+03,7.46000e+02,2.67921e-12,-6.48887e-01,2.11192e-12,-6.48887e-01,2.80946e-12,-6.48887e-01
8.33828e+02,1.79000e+03,1.21500e+03,5.75000e+02,1.28477e-12,-6.41342e-01,3.14148e-12,-6.41342e-01,3.12257e-12,-6.41342e-01
8.34076e+02,1.21400e+03,1.47700e+03,-2.63000e+02,1.78865e-12,-6.33797e-01,3.90081e-12,-6.33797e-01,4.04810e-12,-6.33797e-01
8.34324e+02,9.26000e+02,1.60700e+03,-6.81000e+02,1.78846e-12,-6.26251e-01,2.35331e-12,-6.26251e-01,3.45183e-12,-6.26251e-01
8.34573e+02,1.07800e+03,1.25300e+03,-1.75000e+02,2.28143e-12,-6.18706e-01,3.09021e-12,-6.18706e-01,5.35658e-12,-6.18706e-01
8.34821e+02,1.47300e+03,9.15000e+02,5.58000e+02,4.80322e-12,-6.11161e-01,6.51755e-12,-6.11161e-01,1.03712e-11,-6.11161e-01
8.35069e+02,1.34700e+03,9.45000e+02,4.02000e+02,1.13256e-11,-6.03616e-01,1.11751e-11,-6.03616e-01,2.06383e-11,-6.03616e-01
8.35318e+02,1.15600e+03,1.41500e+03,-2.59000e+02,1.93326e-11,-5.96071e-01,1.88707e-11,-5.96071e-01,3.50015e-11,-5.96071e-01
8.35566e+02,8.06000e+02,1.29700e+03,-4.91000e+02,3.30677e-11,-5.88525e-01,2.90595e-11,-5.88525e-01,5.77346e-11,-5.88525e-01
8.35814e+02,1.00000e+03,1.03200e+03,-3.20000e+01,4.51029e-11,-5.80980e-01,3.96276e-11,-5.80980e-01,8.02649e-11,-5.80980e-01
8.36062e+02,1.09800e+03,7.66000e+02,3.32000e+02,4.83758e-11,-5.73435e-01,4.43624e-11,-5.73435e-01,8.85638e-11,-5.73435e-01
8.36311e+02,1.05300e+03,8.52000e+02,2.01000e+02,4.35136e-11,-5.65890e-01,4.28819e-11,-5.65890e-01,8.25423e-11,-5.65890e-01
8.36559e+02,8.30000e+02,1.09700e+03,-2.67000e+02,3.28061e-11,-5.58345e-01,3.54033e-11,-5.58345e-01,6.55765e-11,-5.58345e-01
8.36807e+02,7.59000e+02,1.21300e+03,-4.54000e+02,2.02635e-11,-5.50799e-01,2.23714e-11,-5.50799e-01,4.13643e-11,-5.50799e-01
8.37055e+02,8.24000e+02,9.13000e+02,-8.90000e+01,1.04273e-11,-5.43254e-01,1.07124e-11,-5.43254e-01,2.00091e-11,-5.43254e-01
8.37304e+02,1.06400e+03,7.35000e+02,3.29000e+02,2.43996e-12,-5.35709e-01,6.98969e-12,-5.35709e-01,8.50940e-12,-5.35709e-01
8.37552e+02,9.00000e+02,7.65000e+02,1.35000e+02,2.91845e-12,-5.28164e-01,3.64484e-12,-5.28164e-01,5.05138e-12,-5.28164e-01
8.37800e+02,7.89000e+02,9.41000e+02,-1.52000e+02,2.45233e-12,-5.20619e-01,1.33265e-12,-5.20619e-01,1.79282e-12,-5.20619e-01
8.38048e+02,6.69000e+02,7.94000e+02,-1.25000e+02,1.24687e-12,-5.13073e-01,1.64335e-12,-5.13073e-01,1.55904e-12,-5.13073e-01
8.38296e+02,7.42000e+02,7.30000e+02,1.20000e+01,1.67869e-12,-5.05528e-01,6.08857e-13,-5.05528e-01,1.46785e-12,-5.05528e-01
8.38545e+02,8.07000e+02,6.74000e+02,1.33000e+02,2.71735e-12,-4.97983e-01,7.61545e-13,-4.97983e-01,3.43366e-12,-4.97983e-01
8.38793e+02,7.93000e+02,7.40000e+02,5.30000e+01,1.28041e-12,-4.90438e-01,2.02781e-12,-4.90438e-01,3.14593e-12,-4.90438e-01
8.39041e+02,6.75000e+02,7.57000e+02,-8.20000e+01,2.18222e-12,-4.82893e-01,3.05019e-12,-4.82893e-01,1.02401e-12,-4.82893e-01
8.39289e+02,6.56000e+02,7.49000e+02,-9.30000e+01,3.45021e-12,-4.75347e-01,3.91546e-12,-4.75347e-01,4.69668e-13,-4.75347e-01
8.39537e+02,6.73000e+02,6.78000e+02,-5.00000e+00,3.04561e-12,-4.67802e-01,3.84378e-12,-4.67802e-01,9.78346e-13,-4.67802e-01
8.39785e+02,7.69000e+02,6.60000e+02,1.09000e+02,2.60576e-12,-4.60257e-01,2.92077e-12,-4.60257e-01,1.32470e-12,-4.60257e-01
8.40033e+02,7.13000e+02,6.75000e+02,3.80000e+01,2.63890e-12,-4.52712e-01,2.05850e-12,-4.52712e-01,2.09631e-12,-4.52712e-01
8.40281e+02,6.88000e+02,7.55000e+02,-6.70000e+01,2.16295e-12,-4.45167e-01,1.82362e-12,-4.45167e-01,2.16435e-12,-4.45167e-01
8.40530e+02,6.27000e+02,6.94000e+02,-6.70000e+01,2.98076e-13,-4.37621e-01,7.20677e-13,-4.37621e-01,4.90451e-13,-4.37621e-01
8.40778e+02,6.58000e+02,6.67000e+02,-9.00000e+00,2.21143e-12,-4.30076e-01,4.78960e-13,-4.30076e-01,1.90361e-12,-4.30076e-01
8.41026e+02,6.69000e+02,6.56000e+02,1.30000e+01,2.96561e-12,-4.22531e-01,1.24215e-12,-4.22531e-01,1.86407e-12,-4.22531e-01
8.41274e+02,6.82000e+02,6.53000e+02,2.90000e+01,1.72104e-12,-4.14986e-01,2.66441e-12,-4.14986e-01,9.64425e-13,-4.14986e-01
8.41522e+02,6.44000e+02,6.66000e+02,-2.20000e+01,5.62236e-13,-4.07441e-01,2.64120e-12,-4.07441e-01,3.19372e-12,-4.07441e-01
8.41770e+02,6.41000e+02,6.71000e+02,-3.00000e+01,1.11008e-12,-3.99895e-01,2.04730e-12,-3.99895e-01,2.20199e-12,-3.99895e-01
8.42018e+02,6.46000e+02,6.44000e+02,2.00000e+00,2.27514e-12,-3.92350e-01,2.78686e-12,-3.92350e-01,1.66121e-12,-3.92350e-01
8.42266e+02,6.60000e+02,6.39000e+02,2.10000e+01,3.41581e-12,-3.84805e-01,2.83598e-12,-3.84805e-01,4.03489e-12,-3.84805e-01
8.42514e+02,6.42000e+02,6.46000e+02,-4.00000e+00,1.82526e-12,-3.77260e-01,1.63645e-12,-3.77260e-01,3.35436e-12,-3.77260e-01
8.42762e+02,6.80000e+02,6.82000e+02,-2.00000e+00,1.62069e-12,-3.69715e-01,2.88796e-12,-3.69715e-01,1.60746e-12,-3.69715e-01
8.43010e+02,6.12000e+02,6.42000e+02,-3.00000e+01,3.86756e-12,-3.62169e-01,3.37557e-12,-3.62169e-01,1.43980e-12,-3.62169e-01
8.43258e+02,6.48000e+02,6.34000e+02,1.40000e+01,3.49997e-12,-3.54624e-01,2.55828e-12,-3.54624e-01,2.43806e-12,-3.54624e-01
8.43506e+02,6.40000e+02,6.29000e+02,1.10000e+01,1.99966e-12,-3.47079e-01,1.31887e-12,-3.47079e-01,1.61614e-12,-3.47079e-01
8.43754e+02,6.46000e+02,6.36000e+02,1.00000e+01,1.42584e-12,-3.39534e-01,8.86855e-13,-3.39534e-01,6.81044e-13,-3.39534e-01
8.44002e+02,6.52000e+02,6.45000e+02,7.00000e+00,2.46134e-12,-3.31989e-01,2.27689e-12,-3.31989e-01,5.69922e-13,-3.31989e-01
8.44250e+02,6.35000e+02,6.43000e+02,-8.00000e+00,3.42727e-12,-3.24444e-01,4.43353e-12,-3.24444e-01,1.17511e-12,-3.24444e-01
8.44498e+02,6.29000e+02,6.30000e+02,-1.00000e+00,3.65076e-12,-3.16898e-01,5.21279e-12,-3.16898e-01,1.56255e-12,-3.16898e-01
8.44746e+02,6.37000e+02,6.40000e+02,-3.00000e+00,2.98968e-12,-3.09353e-01,4.32131e-12,-3.09353e-01,1.47294e-12,-3.09353e-01
8.44994e+02,6.34000e+02,6.28000e+02,6.00000e+00,1.26481e-12,-3.01808e-01,2.28620e-12,-3.01808e-01,2.78369e-12,-3.01808e-01
8.45242e+02,6.61000e+02,6.70000e+02,-9.00000e+00,3.03547e-12,-2.94263e-01,2.47077e-13,-2.94263e-01,3.28243e-12,-2.94263e-01
8.45490e+02,6.13000e+02,6.28000e+02,-1.50000e+01,3.82215e-12,-2.86718e-01,2.19504e-12,-2.86718e-01,1.99440e-12,-2.86718e-01
8.45738e+02,6.21000e+02,6.31000e+02,-1.00000e+01,3.51203e-12,-2.79172e-01,3.15703e-12,-2.79172e-01,1.42338e-12,-2.79172e-01
8.45985e+02,6.23000e+02,6.20000e+02,3.00000e+00,2.61341e-12,-2.71627e-01,1.65433e-12,-2.71627e-01,1.16238e-12,-2.71627e-01
8.46233e+02,6.26000e+02,6.33000e+02,-7.00000e+00,2.12221e-12,-2.64082e-01,1.37945e-12,-2.64082e-01,3.11650e-12,-2.64082e-01
8.46481e+02,6.25000e+02,6.43000e+02,-1.80000e+01,1.90691e-12,-2.56537e-01,2.71442e-12,-2.56537e-01,4.62072e-12,-2.56537e-01
8.46729e+02,6.33000e+02,6.42000e+02,-9.00000e+00,1.71867e-12,-2.48992e-01,4.47946e-12,-2.48992e-01,5.07619e-12,-2.48992e-01
8.46977e+02,6.30000e+02,6.24000e+02,6.00000e+00,1.57528e-12,-2.41446e-01,4.86412e-12,-2.41446e-01,5.10279e-12,-2.41446e-01
8.47225e+02,6.17000e+02,6.21000e+02,-4.00000e+00,1.83019e-12,-2.33901e-01,2.89172e-12,-2.33901e-01,3.27166e-12,-2.33901e-01
8.47473e+02,6.35000e+02,6.23000e+02,1.20000e+01,5.23170e-13,-2.26356e-01,8.51193e-13,-2.26356e-01,5.32665e-13,-2.26356e-01
8.47720e+02,6.56000e+02,6.46000e+02,1.00000e+01,2.94236e-12,-2.18811e-01,1.40656e-12,-2.18811e-01,2.40736e-12,-2.18811e-01
8.47968e+02,6.17000e+02,6.13000e+02,4.00000e+00,4.81838e-12,-2.11266e-01,1.70933e-12,-2.11266e-01,3.21566e-12,-2.11266e-01
8.48216e+02,6.25000e+02,6.30000e+02,-5.00000e+00,2.89183e-12,-2.03720e-01,1.34479e-12,-2.03720e-01,2.77999e-12,-2.03720e-01
8.48464e+02,6.18000e+02,6.30000e+02,-1.20000e+01,6.31032e-13,-1.96175e-01,1.95661e-12,-1.96175e-01,1.85749e-12,-1.96175e-01
8.48712e+02,6.32000e+02,6.33000e+02,-1.00000e+00,1.14373e-12,-1.88630e-01,2.14927e-12,-1.88630e-01,1.18679e-12,-1.88630e-01
8.48960e+02,6.13000e+02,6.44000e+02,-3.10000e+01,3.27973e-12,-1.81085e-01,3.11276e-12,-1.81085e-01,1.94252e-13,-1.81085e-01
8.49207e+02,6.46000e+02,6.17000e+02,2.90000e+01,5.45960e-12,-1.73540e-01,5.43783e-12,-1.73540e-01,3.01413e-12,-1.73540e-01
8.49455e+02,6.44000e+02,6.34000e+02,1.00000e+01,4.65693e-12,-1.65994e-01,5.79867e-12,-1.65994e-01,5.10059e-12,-1.65994e-01
8.49703e+02,6.31000e+02,6.31000e+02,0.00000e+00,8.15889e-13,-1.58449e-01,4.40180e-12,-1.58449e-01,4.11361e-12,-1.58449e-01
8.49951e+02,6.27000e+02,6.26000e+02,1.00000e+00,2.81286e-12,-1.50904e-01,4.62923e-12,-1.50904e-01,1.85288e-12,-1.50904e-01
8.50198e+02,6.57000e+02,6.58000e+02,-1.00000e+00,3.05073e-12,-1.43359e-01,5.38189e-12,-1.43359e-01,2.84177e-12,-1.43359e-01
8.50446e+02,6.14000e+02,6.14000e+02,0.00000e+00,4.08740e-12,-1.35814e-01,6.23074e-12,-1.35814e-01,2.27742e-12,-1.35814e-01
8.50694e+02,6.24000e+02,6.28000e+02,-4.00000e+00,3.33489e-12,-1.28268e-01,3.76634e-12,-1.28268e-01,1.56203e-12,-1.28268e-01
8.50941e+02,6.24000e+02,6.22000e+02,2.00000e+00,2.05583e-12,-1.20723e-01,2.26203e-12,-1.20723e-01,1.82203e-12,-1.20723e-01
8.51189e+02,6.24000e+02,6.32000e+02,-8.00000e+00,4.03444e-12,-1.13178e-01,1.91346e-12,-1.13178e-01,4.03307e-12,-1.13178e-01
8.51437e+02,6.35000e+02,6.19000e+02,1.60000e+01,6.32208e-12,-1.05633e-01,1.84784e-12,-1.05633e-01,6.19042e-12,-1.05633e-01
8.51685e+02,6.24000e+02,6.12000e+02,1.20000e+01,5.72428e-12,-9.80876e-02,4.71962e-12,-9.80876e-02,5.91498e-12,-9.80876e-02
8.51932e+02,6.27000e+02,6.25000e+02,2.00000e+00,2.78061e-12,-9.05424e-02,4.75665e-12,-9.05424e-02,5.01091e-12,-9.05424e-02
8.52180e+02,6.36000e+02,6.32000e+02,4.00000e+00,1.40190e-12,-8.29972e-02,4.46357e-12,-8.29972e-02,5.53232e-12,-8.29972e-02
8.52428e+02,6.26000e+02,6.21000e+02,5.00000e+00,2.45659e-12,-7.54520e-02,4.80699e-12,-7.54520e-02,4.96161e-12,-7.54520e-02
8.52675e+02,6.58000e+02,6.58000e+02,0.00000e+00,5.25306e-12,-6.79068e-02,6.90390e-12,-6.79068e-02,1.97126e-12,-6.79068e-02
8.52923e+02,6.19000e+02,6.14000e+02,5.00000e+00,7.57481e-12,-6.03616e-02,7.33120e-12,-6.03616e-02,2.18928e-12,-6.03616e-02
8.53170e+02,6.37000e+02,6.32000e+02,5.00000e+00,8.60146e-12,-5.28164e-02,6.87652e-12,-5.28164e-02,4.41953e-12,-5.28164e-02
8.53418e+02,6.28000e+02,6.32000e+02,-4.00000e+00,7.21402e-12,-4.52712e-02,4.67893e-12,-4.52712e-02,4.81737e-12,-4.52712e-02
8.53666e+02,6.34000e+02,6.33000e+02,1.00000e+00,4.95609e-12,-3.77260e-02,2.89296e-12,-3.77260e-02,4.24976e-12,-3.77260e-02
8.53913e+02,6.30000e+02,6.36000e+02,-6.00000e+00,6.04990e-12,-3.01808e-02,3.62191e-12,-3.01808e-02,4.43695e-12,-3.01808e-02
8.54161e+02,6.38000e+02,6.38000e+02,0.00000e+00,2.20288e-11,-2.26356e-02,1.92527e-11,-2.26356e-02,5.16315e-12,-2.26356e-02
8.54409e+02,6.29000e+02,6.31000e+02,-2.00000e+00,8.83983e-11,-1.50904e-02,8.36116e-11,-1.50904e-02,6.21343e-12,-1.50904e-02
8.54656e+02,6.26000e+02,6.30000e+02,-4.00000e+00,2.41410e-10,-7.54520e-03,2.36189e-10,-7.54520e-03,6.55861e-12,-7.54520e-03
