7.67698e+02,6.43000e+02,6.24000e+02,1.90000e+01,3.89863e-10,0.00000e+00,3.85888e-10,0.00000e+00,3.97489e-12,0.00000e+00
7.67949e+02,6.67000e+02,6.67000e+02,0.00000e+00,2.31030e-10,7.54520e-03,2.28000e-10,7.54520e-03,9.58614e-12,7.54520e-03
7.68199e+02,6.21000e+02,6.11000e+02,1.00000e+01,7.96857e-11,1.50904e-02,7.87169e-11,1.50904e-02,7.75013e-12,1.50904e-02
7.68450e+02,6.34000e+02,6.49000e+02,-1.50000e+01,1.53502e-11,2.26356e-02,1.41305e-11,2.26356e-02,1.79893e-12,2.26356e-02
7.68701e+02,6.33000e+02,6.51000e+02,-1.80000e+01,1.42538e-12,3.01808e-02,2.30642e-12,3.01808e-02,2.64978e-12,3.01808e-02
7.68951e+02,6.35000e+02,6.52000e+02,-1.70000e+01,1.69568e-12,3.77260e-02,2.58736e-12,3.77260e-02,3.67395e-12,3.77260e-02
7.69202e+02,6.30000e+02,6.35000e+02,-5.00000e+00,6.86555e-12,4.52712e-02,5.71754e-12,4.52712e-02,3.07971e-12,4.52712e-02
7.69453e+02,6.19000e+02,6.51000e+02,-3.20000e+01,1.03486e-11,5.28164e-02,9.20774e-12,5.28164e-02,1.17225e-12,5.28164e-02
7.69703e+02,6.26000e+02,6.56000e+02,-3.00000e+01,8.05540e-12,6.03616e-02,7.96741e-12,6.03616e-02,1.76175e-12,6.03616e-02
7.69954e+02,6.36000e+02,6.51000e+02,-1.50000e+01,3.84461e-12,6.79068e-02,5.07705e-12,6.79068e-02,1.81298e-12,6.79068e-02
7.70205e+02,6.33000e+02,6.28000e+02,5.00000e+00,2.70218e-12,7.54520e-02,2.61922e-12,7.54520e-02,4.24980e-13,7.54520e-02
7.70455e+02,6.52000e+02,6.58000e+02,-6.00000e+00,2.54011e-12,8.29972e-02,2.21302e-12,8.29972e-02,1.50334e-12,8.29972e-02
7.70706e+02,6.19000e+02,6.24000e+02,-5.00000e+00,1.89062e-12,9.05424e-02,2.25301e-12,9.05424e-02,4.13973e-12,9.05424e-02
7.70957e+02,6.62000e+02,6.32000e+02,3.00000e+01,4.57388e-12,9.80876e-02,1.65333e-13,9.80876e-02,4.52821e-12,9.80876e-02
7.71207e+02,6.58000e+02,6.25000e+02,3.30000e+01,2.18687e-12,1.05633e-01,5.16233e-12,1.05633e-01,4.01958e-12,1.05633e-01
7.71458e+02,6.82000e+02,6.32000e+02,5.00000e+01,4.11278e-12,1.13178e-01,4.56007e-12,1.13178e-01,6.88916e-12,1.13178e-01
7.71708e+02,6.87000e+02,6.33000e+02,5.40000e+01,6.91431e-12,1.20723e-01,1.21200e-11,1.20723e-01,1.76955e-11,1.20723e-01
7.71959e+02,7.13000e+02,6.30000e+02,8.30000e+01,2.95150e-11,1.28268e-01,3.62091e-11,1.28268e-01,6.27623e-11,1.28268e-01
7.72210e+02,6.81000e+02,6.56000e+02,2.50000e+01,9.03301e-11,1.35814e-01,9.64925e-11,1.35814e-01,1.80196e-10,1.35814e-01
7.72460e+02,6.96000e+02,6.74000e+02,2.20000e+01,1.31080e-10,1.43359e-01,1.26521e-10,1.43359e-01,2.50556e-10,1.43359e-01
7.72711e+02,6.63000e+02,6.80000e+02,-1.70000e+01,9.24761e-11,1.50904e-01,8.03409e-11,1.50904e-01,1.69808e-10,1.50904e-01
7.72961e+02,6.91000e+02,7.69000e+02,-7.80000e+01,2.85416e-11,1.58449e-01,2.02771e-11,1.58449e-01,4.84685e-11,1.58449e-01
7.73212e+02,6.32000e+02,7.21000e+02,-8.90000e+01,2.39329e-12,1.65994e-01,6.16696e-12,1.65994e-01,8.44803e-12,1.65994e-01
7.73462e+02,6.25000e+02,7.50000e+02,-1.25000e+02,8.00739e-12,1.73540e-01,1.03052e-11,1.73540e-01,1.75970e-11,1.73540e-01
7.73713e+02,6.21000e+02,7.21000e+02,-1.00000e+02,8.03365e-12,1.81085e-01,4.49604e-12,1.81085e-01,1.19688e-11,1.81085e-01
7.73963e+02,6.31000e+02,7.17000e+02,-8.60000e+01,5.25707e-12,1.88630e-01,1.73784e-12,1.88630e-01,6.42658e-12,1.88630e-01
7.74214e+02,6.28000e+02,7.14000e+02,-8.60000e+01,4.59647e-12,1.96175e-01,3.31043e-12,1.96175e-01,7.79196e-12,1.96175e-01
7.74465e+02,6.38000e+02,7.14000e+02,-7.60000e+01,2.99865e-12,2.03720e-01,2.98076e-12,2.03720e-01,5.96296e-12,2.03720e-01
7.74715e+02,6.34000e+02,6.67000e+02,-3.30000e+01,5.09189e-13,2.11266e-01,2.26630e-12,2.11266e-01,2.33233e-12,2.11266e-01
7.74965e+02,6.63000e+02,6.52000e+02,1.10000e+01,2.94550e-12,2.18811e-01,2.16510e-12,2.18811e-01,1.16277e-12,2.18811e-01
7.75216e+02,6.74000e+02,6.37000e+02,3.70000e+01,5.64868e-12,2.26356e-01,2.63395e-12,2.26356e-01,3.21995e-12,2.26356e-01
7.75466e+02,8.00000e+02,6.56000e+02,1.44000e+02,6.28945e-12,2.33901e-01,2.29369e-12,2.33901e-01,4.00513e-12,2.33901e-01
7.75717e+02,7.52000e+02,6.14000e+02,1.38000e+02,6.15319e-12,2.41446e-01,3.02605e-12,2.41446e-01,3.26300e-12,2.41446e-01
7.75967e+02,8.16000e+02,6.31000e+02,1.85000e+02,5.90728e-12,2.48992e-01,3.20339e-12,2.48992e-01,2.75845e-12,2.48992e-01
7.76218e+02,8.39000e+02,6.38000e+02,2.01000e+02,4.19507e-12,2.56537e-01,1.34915e-12,2.56537e-01,2.95893e-12,2.56537e-01
7.76468e+02,8.88000e+02,6.44000e+02,2.44000e+02,5.38069e-12,2.64082e-01,2.88801e-12,2.64082e-01,4.12573e-12,2.64082e-01
7.76719e+02,8.46000e+02,6.78000e+02,1.68000e+02,6.37995e-12,2.71627e-01,3.70349e-12,2.71627e-01,4.31987e-12,2.71627e-01
7.76969e+02,8.63000e+02,7.24000e+02,1.39000e+02,6.14185e-12,2.79172e-01,5.03028e-12,2.79172e-01,4.51260e-12,2.79172e-01
7.77219e+02,7.93000e+02,8.05000e+02,-1.20000e+01,5.54586e-12,2.86718e-01,7.53749e-12,2.86718e-01,9.08475e-12,2.86718e-01
7.77470e+02,8.14000e+02,1.02000e+03,-2.06000e+02,7.10005e-12,2.94263e-01,8.59097e-12,2.94263e-01,1.35442e-11,2.94263e-01
7.77720e+02,7.21000e+02,1.06200e+03,-3.41000e+02,6.56268e-12,3.01808e-01,5.62979e-12,3.01808e-01,9.40925e-12,3.01808e-01
7.77971e+02,7.05000e+02,1.20400e+03,-4.99000e+02,5.52006e-12,3.09353e-01,4.93646e-12,3.09353e-01,1.23030e-12,3.09353e-01
7.78221e+02,6.22000e+02,1.16400e+03,-5.42000e+02,5.09466e-12,3.16898e-01,5.02680e-12,3.16898e-01,2.31104e-12,3.16898e-01
7.78471e+02,6.36000e+02,1.19700e+03,-5.61000e+02,4.35747e-12,3.24444e-01,2.93283e-12,3.24444e-01,3.08481e-12,3.24444e-01
7.78722e+02,6.32000e+02,1.02400e+03,-3.92000e+02,2.55318e-12,3.31989e-01,2.14946e-12,3.31989e-01,2.82980e-12,3.31989e-01
7.78972e+02,6.46000e+02,1.05300e+03,-4.07000e+02,1.28774e-12,3.39534e-01,2.22127e-12,3.39534e-01,9.99400e-13,3.39534e-01
7.79222e+02,6.97000e+02,9.73000e+02,-2.76000e+02,2.58339e-12,3.47079e-01,2.05183e-12,3.47079e-01,9.64096e-13,3.47079e-01
7.79473e+02,7.93000e+02,8.71000e+02,-7.80000e+01,1.72635e-12,3.54624e-01,2.23437e-12,3.54624e-01,1.70127e-12,3.54624e-01
7.79723e+02,9.06000e+02,7.35000e+02,1.71000e+02,1.72875e-12,3.62169e-01,4.54117e-12,3.62169e-01,4.16871e-12,3.62169e-01
7.79973e+02,1.20200e+03,6.77000e+02,5.25000e+02,2.89321e-12,3.69715e-01,4.31122e-12,3.69715e-01,4.41495e-12,3.69715e-01
7.80224e+02,1.27900e+03,6.55000e+02,6.24000e+02,2.67345e-12,3.77260e-01,1.53444e-12,3.77260e-01,3.48909e-12,3.77260e-01
7.80474e+02,1.52600e+03,6.87000e+02,8.39000e+02,1.53844e-12,3.84805e-01,2.75452e-12,3.84805e-01,4.29092e-12,3.84805e-01
7.80724e+02,1.47900e+03,6.50000e+02,8.29000e+02,1.78667e-12,3.92350e-01,2.62346e-12,3.92350e-01,4.26647e-12,3.92350e-01
7.80974e+02,1.57500e+03,7.63000e+02,8.12000e+02,1.50236e-12,3.99895e-01,1.94132e-13,3.99895e-01,1.44203e-12,3.99895e-01
7.81225e+02,1.68700e+03,9.08000e+02,7.79000e+02,1.91404e-12,4.07441e-01,2.16942e-12,4.07441e-01,2.65922e-12,4.07441e-01
7.81475e+02,1.74800e+03,1.21900e+03,5.29000e+02,2.64962e-12,4.14986e-01,2.01446e-12,4.14986e-01,4.11844e-12,4.14986e-01
7.81725e+02,1.45400e+03,1.40600e+03,4.80000e+01,1.22730e-12,4.22531e-01,1.35296e-12,4.22531e-01,2.55716e-12,4.22531e-01
7.81975e+02,1.32800e+03,1.77700e+03,-4.49000e+02,1.21642e-12,4.30076e-01,1.58546e-12,4.30076e-01,2.02379e-12,4.30076e-01
7.82226e+02,1.02900e+03,1.91500e+03,-8.86000e+02,2.82677e-12,4.37621e-01,1.64605e-12,4.37621e-01,2.11212e-12,4.37621e-01
7.82476e+02,8.35000e+02,2.02700e+03,-1.19200e+03,4.05100e-12,4.45167e-01,1.08335e-12,4.45167e-01,3.03726e-12,4.45167e-01
7.82726e+02,7.01000e+02,2.00500e+03,-1.30400e+03,4.06718e-12,4.52712e-01,3.79080e-13,4.52712e-01,3.94438e-12,4.52712e-01
7.82976e+02,7.00000e+02,1.89300e+03,-1.19300e+03,3.17150e-12,4.60257e-01,1.29434e-12,4.60257e-01,3.34958e-12,4.60257e-01
7.83226e+02,6.56000e+02,1.71300e+03,-1.05700e+03,2.99049e-12,4.67802e-01,1.81172e-12,4.67802e-01,3.05911e-12,4.67802e-01
7.83477e+02,7.38000e+02,1.67300e+03,-9.35000e+02,3.00391e-12,4.75347e-01,2.56412e-12,4.75347e-01,2.11903e-12,4.75347e-01
7.83727e+02,9.09000e+02,1.39900e+03,-4.90000e+02,1.84343e-12,4.82893e-01,2.55879e-12,4.82893e-01,7.75689e-13,4.82893e-01
7.83977e+02,1.26100e+03,1.22900e+03,3.20000e+01,1.52556e-12,4.90438e-01,1.05471e-12,4.90438e-01,1.41848e-12,4.90438e-01
7.84227e+02,1.61600e+03,9.87000e+02,6.29000e+02,1.02656e-12,4.97983e-01,1.37770e-12,4.97983e-01,2.28007e-12,4.97983e-01
7.84477e+02,2.13700e+03,8.53000e+02,1.28400e+03,1.31541e-12,5.05528e-01,2.14565e-12,5.05528e-01,2.75523e-12,5.05528e-01
7.84727e+02,2.30100e+03,7.28000e+02,1.57300e+03,7.38057e-13,5.13073e-01,1.53492e-12,5.13073e-01,1.67423e-12,5.13073e-01
7.84978e+02,2.83400e+03,7.27000e+02,2.10700e+03,8.22701e-13,5.20619e-01,4.52813e-13,5.20619e-01,1.23623e-12,5.20619e-01
7.85228e+02,3.26400e+03,7.81000e+02,2.48300e+03,1.85833e-12,5.28164e-01,1.96249e-12,5.28164e-01,2.28366e-12,5.28164e-01
7.85478e+02,3.59000e+03,1.15700e+03,2.43300e+03,2.02291e-12,5.35709e-01,2.26132e-12,5.35709e-01,2.32812e-12,5.35709e-01
7.85728e+02,3.61700e+03,1.53600e+03,2.08100e+03,1.44567e-12,5.43254e-01,1.01223e-12,5.43254e-01,1.12851e-12,5.43254e-01
7.85978e+02,3.35800e+03,2.10800e+03,1.25000e+03,4.96121e-13,5.50799e-01,8.87468e-13,5.50799e-01,1.31876e-12,5.50799e-01
7.86228e+02,2.83700e+03,2.47000e+03,3.67000e+02,4.89415e-13,5.58345e-01,1.87852e-12,5.58345e-01,2.16405e-12,5.58345e-01
7.86478e+02,2.29200e+03,2.96000e+03,-6.68000e+02,3.44380e-13,5.65890e-01,1.84641e-12,5.65890e-01,1.82447e-12,5.65890e-01
7.86728e+02,1.81000e+03,3.34400e+03,-1.53400e+03,1.31223e-12,5.73435e-01,1.00490e-12,5.73435e-01,1.83638e-12,5.73435e-01
7.86978e+02,1.42900e+03,3.48900e+03,-2.06000e+03,2.07968e-12,5.80980e-01,1.02569e-12,5.80980e-01,2.13701e-12,5.80980e-01
7.87228e+02,1.03400e+03,3.64400e+03,-2.61000e+03,2.17543e-12,5.88525e-01,1.69329e-12,5.88525e-01,1.91472e-12,5.88525e-01
7.87478e+02,8.64000e+02,3.54100e+03,-2.67700e+03,1.35765e-12,5.96071e-01,2.02889e-12,5.96071e-01,1.57079e-12,5.96071e-01
7.87728e+02,7.60000e+02,3.31100e+03,-2.55100e+03,9.22003e-13,6.03616e-01,1.42182e-12,6.03616e-01,1.14837e-12,6.03616e-01
7.87978e+02,9.64000e+02,3.27200e+03,-2.30800e+03,9.78904e-13,6.11161e-01,8.88731e-13,6.11161e-01,5.55721e-13,6.11161e-01
7.88228e+02,1.16600e+03,2.77600e+03,-1.61000e+03,5.74406e-13,6.18706e-01,5.35441e-13,6.18706e-01,5.61718e-14,6.18706e-01
7.88478e+02,1.76000e+03,2.48000e+03,-7.20000e+02,1.17497e-12,6.26251e-01,1.30271e-12,6.26251e-01,3.72231e-13,6.26251e-01
7.88728e+02,2.28900e+03,1.98600e+03,3.03000e+02,2.21477e-12,6.33797e-01,2.44798e-12,6.33797e-01,6.24162e-13,6.33797e-01
7.88978e+02,2.93900e+03,1.50700e+03,1.43200e+03,2.31052e-12,6.41342e-01,2.87732e-12,6.41342e-01,8.24999e-13,6.41342e-01
7.89228e+02,3.81600e+03,1.00600e+03,2.81000e+03,1.96731e-12,6.48887e-01,2.89013e-12,6.48887e-01,9.24450e-13,6.48887e-01
7.89478e+02,4.71300e+03,8.52000e+02,3.86100e+03,1.45248e-12,6.56432e-01,1.94456e-12,6.56432e-01,6.25229e-13,6.56432e-01
7.89728e+02,5.18900e+03,8.24000e+02,4.36500e+03,1.56905e-12,6.63977e-01,1.17585e-12,6.63977e-01,3.93376e-13,6.63977e-01
7.89978e+02,5.58400e+03,1.09700e+03,4.48700e+03,2.05055e-12,6.71523e-01,9.10206e-13,6.71523e-01,1.28036e-12,6.71523e-01
7.90228e+02,5.43600e+03,1.56600e+03,3.87000e+03,1.72492e-12,6.79068e-01,9.95922e-13,6.79068e-01,9.45399e-13,6.79068e-01
7.90478e+02,5.34500e+03,2.41700e+03,2.92800e+03,3.26761e-13,6.86613e-01,8.79847e-13,6.86613e-01,5.95355e-13,6.86613e-01
7.90728e+02,4.98800e+03,3.21300e+03,1.77500e+03,1.11780e-12,6.94158e-01,6.43382e-13,6.94158e-01,1.09516e-12,6.94158e-01
7.90978e+02,4.70600e+03,4.25000e+03,4.56000e+02,1.73709e-12,7.01703e-01,1.60601e-12,7.01703e-01,9.61981e-13,7.01703e-01
7.91228e+02,3.89700e+03,4.97600e+03,-1.07900e+03,8.03098e-13,7.09249e-01,1.61669e-12,7.09249e-01,1.01392e-12,7.09249e-01
7.91478e+02,2.85600e+03,5.31400e+03,-2.45800e+03,4.43428e-13,7.16794e-01,1.10714e-12,7.16794e-01,8.58401e-13,7.16794e-01
7.91728e+02,1.96500e+03,5.28600e+03,-3.32100e+03,1.04263e-12,7.24339e-01,9.46707e-13,7.24339e-01,4.57888e-13,7.24339e-01
7.91977e+02,1.44600e+03,5.38900e+03,-3.94300e+03,1.11909e-12,7.31884e-01,4.93706e-13,7.31884e-01,6.36523e-13,7.31884e-01
7.92227e+02,9.98000e+02,4.95700e+03,-3.95900e+03,6.39570e-13,7.39429e-01,2.79427e-13,7.39429e-01,8.82085e-13,7.39429e-01
7.92477e+02,1.06700e+03,5.46900e+03,-4.40200e+03,8.35980e-14,7.46975e-01,4.50933e-13,7.46975e-01,5.34405e-13,7.46975e-01
7.92727e+02,1.25100e+03,5.47800e+03,-4.22700e+03,6.27642e-14,7.54520e-01,4.63145e-13,7.54520e-01,4.22486e-13,7.54520e-01
7.92977e+02,1.86800e+03,4.75900e+03,-2.89100e+03,7.24962e-13,7.62065e-01,9.12699e-13,7.62065e-01,2.23614e-13,7.62065e-01
7.93227e+02,2.43600e+03,3.42500e+03,-9.89000e+02,1.22860e-12,7.69610e-01,1.34260e-12,7.69610e-01,4.99071e-13,7.69610e-01
7.93476e+02,3.34300e+03,2.59900e+03,7.44000e+02,1.16926e-12,7.77155e-01,1.05701e-12,7.77155e-01,1.04552e-12,7.77155e-01
7.93726e+02,4.47600e+03,1.89300e+03,2.58300e+03,1.12723e-12,7.84701e-01,4.20710e-13,7.84701e-01,1.10699e-12,7.84701e-01
7.93976e+02,5.91400e+03,1.49300e+03,4.42100e+03,1.20314e-12,7.92246e-01,1.52926e-13,7.92246e-01,1.09974e-12,7.92246e-01
7.94226e+02,6.93400e+03,1.11900e+03,5.81500e+03,8.06507e-13,7.99791e-01,4.89541e-13,7.99791e-01,1.18232e-12,7.99791e-01
7.94476e+02,7.95500e+03,1.41900e+03,6.53600e+03,1.15993e-12,8.07336e-01,4.44531e-13,8.07336e-01,1.60434e-12,8.07336e-01
7.94725e+02,7.58000e+03,1.72600e+03,5.85400e+03,1.36107e-12,8.14881e-01,6.34514e-13,8.14881e-01,1.56573e-12,8.14881e-01
7.94975e+02,7.44200e+03,2.58800e+03,4.85400e+03,7.70503e-13,8.22427e-01,1.31477e-12,8.22427e-01,8.73768e-13,8.22427e-01
7.95225e+02,6.93100e+03,3.58800e+03,3.34300e+03,1.33648e-12,8.29972e-01,1.56205e-12,8.29972e-01,2.25893e-13,8.29972e-01
7.95475e+02,6.24000e+03,4.70700e+03,1.53300e+03,1.84314e-12,8.37517e-01,1.11328e-12,8.37517e-01,8.51828e-13,8.37517e-01
7.95724e+02,5.16600e+03,5.77400e+03,-6.08000e+02,1.85687e-12,8.45062e-01,4.65551e-13,8.45062e-01,2.09114e-12,8.45062e-01
7.95974e+02,4.04200e+03,6.95400e+03,-2.91200e+03,1.66992e-12,8.52607e-01,8.03380e-13,8.52607e-01,2.28190e-12,8.52607e-01
7.96224e+02,3.03600e+03,7.79300e+03,-4.75700e+03,1.19586e-12,8.60153e-01,3.30289e-13,8.60153e-01,1.36336e-12,8.60153e-01
7.96474e+02,2.26400e+03,8.80600e+03,-6.54200e+03,8.34133e-13,8.67698e-01,7.90192e-13,8.67698e-01,1.62551e-13,8.67698e-01
7.96723e+02,1.57400e+03,8.28100e+03,-6.70700e+03,8.02581e-13,8.75243e-01,8.76843e-13,8.75243e-01,2.11839e-13,8.75243e-01
7.96973e+02,1.39200e+03,7.71600e+03,-6.32400e+03,7.91389e-13,8.82788e-01,2.67107e-13,8.82788e-01,5.74767e-13,8.82788e-01
7.97223e+02,1.72100e+03,7.60900e+03,-5.88800e+03,7.87680e-13,8.90333e-01,4.47420e-13,8.90333e-01,1.13074e-12,8.90333e-01
7.97472e+02,2.49200e+03,6.36300e+03,-3.87100e+03,7.30217e-13,8.97879e-01,7.35027e-13,8.97879e-01,1.22919e-12,8.97879e-01
7.97722e+02,3.78800e+03,5.68300e+03,-1.89500e+03,3.73838e-13,9.05424e-01,1.10045e-12,9.05424e-01,7.29309e-13,9.05424e-01
7.97972e+02,5.51700e+03,4.65800e+03,8.59000e+02,1.08937e-12,9.12969e-01,1.33651e-12,9.12969e-01,1.02001e-12,9.12969e-01
7.98221e+02,7.52000e+03,3.03600e+03,4.48400e+03,1.34714e-12,9.20514e-01,1.09095e-12,9.20514e-01,1.29643e-12,9.20514e-01
7.98471e+02,9.34900e+03,2.01500e+03,7.33400e+03,1.33351e-12,9.28059e-01,5.22680e-13,9.28059e-01,1.15269e-12,9.28059e-01
7.98721e+02,1.10290e+04,1.59300e+03,9.43600e+03,1.04723e-12,9.35605e-01,5.12057e-13,9.35605e-01,6.70669e-13,9.35605e-01
7.98970e+02,1.30730e+04,1.90500e+03,1.11680e+04,9.14901e-13,9.43150e-01,3.31593e-13,9.43150e-01,7.75131e-13,9.43150e-01
7.99220e+02,1.34130e+04,2.80500e+03,1.06080e+04,1.01229e-12,9.50695e-01,1.16857e-13,9.50695e-01,1.02944e-12,9.50695e-01
7.99469e+02,1.20010e+04,3.97800e+03,8.02300e+03,1.01386e-12,9.58240e-01,2.12703e-13,9.58240e-01,8.02584e-13,9.58240e-01
7.99719e+02,1.02620e+04,5.40500e+03,4.85700e+03,7.64299e-13,9.65785e-01,3.77100e-13,9.65785e-01,1.06592e-12,9.65785e-01
7.99969e+02,8.76600e+03,7.13800e+03,1.62800e+03,7.32609e-13,9.73331e-01,6.89817e-13,9.73331e-01,1.41289e-12,9.73331e-01
8.00218e+02,7.32000e+03,9.18300e+03,-1.86300e+03,8.44743e-13,9.80876e-01,3.23736e-13,9.80876e-01,9.90369e-13,9.80876e-01
8.00468e+02,5.59900e+03,1.07760e+04,-5.17700e+03,1.01934e-12,9.88421e-01,8.98583e-13,9.88421e-01,3.51345e-13,9.88421e-01
8.00717e+02,3.87900e+03,1.14450e+04,-7.56600e+03,1.04101e-12,9.95966e-01,1.60287e-12,9.95966e-01,7.05757e-13,9.95966e-01
8.00967e+02,2.65900e+03,1.18260e+04,-9.16700e+03,3.19071e-13,1.00351e+00,1.06345e-12,1.00351e+00,8.03175e-13,1.00351e+00
8.01216e+02,1.77800e+03,1.24370e+04,-1.06590e+04,2.12490e-13,1.01106e+00,1.06415e-13,1.01106e+00,2.32474e-13,1.01106e+00
8.01466e+02,1.74200e+03,1.23110e+04,-1.05690e+04,8.18443e-14,1.01860e+00,4.77559e-13,1.01860e+00,4.34942e-13,1.01860e+00
8.01715e+02,2.33500e+03,1.11250e+04,-8.79000e+03,1.60695e-13,1.02615e+00,4.11712e-13,1.02615e+00,5.36725e-13,1.02615e+00
8.01965e+02,3.71200e+03,9.03500e+03,-5.32300e+03,3.61849e-13,1.03369e+00,1.79910e-13,1.03369e+00,4.16328e-13,1.03369e+00
8.02215e+02,5.37300e+03,7.06100e+03,-1.68800e+03,6.39280e-13,1.04124e+00,2.88421e-13,1.04124e+00,3.70742e-13,1.04124e+00
8.02464e+02,7.71000e+03,5.13300e+03,2.57700e+03,3.92194e-13,1.04878e+00,6.91320e-13,1.04878e+00,4.13502e-13,1.04878e+00
8.02713e+02,9.92900e+03,3.48800e+03,6.44100e+03,4.32339e-13,1.05633e+00,9.28879e-13,1.05633e+00,1.34315e-12,1.05633e+00
8.02963e+02,1.25220e+04,2.26400e+03,1.02580e+04,7.17837e-13,1.06387e+00,8.62658e-13,1.06387e+00,1.20239e-12,1.06387e+00
8.03212e+02,1.46060e+04,1.74400e+03,1.28620e+04,8.09239e-13,1.07142e+00,5.19174e-13,1.07142e+00,7.73392e-13,1.07142e+00
8.03462e+02,1.54080e+04,2.22000e+03,1.31880e+04,6.39995e-13,1.07896e+00,4.19510e-13,1.07896e+00,6.13110e-13,1.07896e+00
8.03711e+02,1.55180e+04,3.41800e+03,1.21000e+04,6.43061e-13,1.08651e+00,3.40279e-13,1.08651e+00,4.51336e-13,1.08651e+00
8.03961e+02,1.43890e+04,5.00100e+03,9.38800e+03,8.25786e-13,1.09405e+00,3.40453e-13,1.09405e+00,5.03737e-13,1.09405e+00
8.04210e+02,1.21800e+04,6.59600e+03,5.58400e+03,7.28572e-13,1.10160e+00,4.12936e-13,1.10160e+00,5.69148e-13,1.10160e+00
8.04460e+02,1.07200e+04,9.16500e+03,1.55500e+03,6.94098e-13,1.10914e+00,4.78430e-13,1.10914e+00,7.73376e-13,1.10914e+00
8.04709e+02,9.47100e+03,1.17430e+04,-2.27200e+03,6.53564e-13,1.11669e+00,4.72740e-13,1.11669e+00,9.12250e-13,1.11669e+00
8.04958e+02,7.22000e+03,1.32850e+04,-6.06500e+03,1.68612e-13,1.12423e+00,5.39049e-13,1.12423e+00,6.67777e-13,1.12423e+00
8.05208e+02,5.03600e+03,1.41280e+04,-9.09200e+03,1.58447e-13,1.13178e+00,7.35557e-13,1.13178e+00,8.91272e-13,1.13178e+00
8.05457e+02,3.39300e+03,1.38190e+04,-1.04260e+04,2.83234e-13,1.13932e+00,1.20685e-12,1.13932e+00,1.06007e-12,1.13932e+00
8.05707e+02,2.42900e+03,1.44600e+04,-1.20310e+04,6.48150e-13,1.14687e+00,1.13237e-12,1.14687e+00,8.96844e-13,1.14687e+00
8.05956e+02,2.11600e+03,1.46170e+04,-1.25010e+04,5.70471e-13,1.15442e+00,7.33966e-13,1.15442e+00,5.30802e-13,1.15442e+00
8.06205e+02,2.46100e+03,1.25960e+04,-1.01350e+04,5.48088e-13,1.16196e+00,3.33526e-13,1.16196e+00,2.99237e-13,1.16196e+00
8.06455e+02,3.93800e+03,1.07360e+04,-6.79800e+03,5.44460e-13,1.16951e+00,1.12047e-13,1.16951e+00,6.56109e-13,1.16951e+00
8.06704e+02,5.70000e+03,9.10500e+03,-3.40500e+03,5.51922e-14,1.17705e+00,1.95812e-13,1.17705e+00,2.50966e-13,1.17705e+00
8.06953e+02,8.23700e+03,7.00400e+03,1.23300e+03,1.90201e-13,1.18460e+00,3.87872e-13,1.18460e+00,4.83921e-13,1.18460e+00
8.07203e+02,9.63200e+03,4.57400e+03,5.05800e+03,1.54010e-13,1.19214e+00,4.60415e-13,1.19214e+00,3.36354e-13,1.19214e+00
8.07452e+02,1.19240e+04,3.13900e+03,8.78500e+03,4.25554e-13,1.19969e+00,5.18703e-13,1.19969e+00,9.32885e-14,1.19969e+00
8.07701e+02,1.43580e+04,2.12700e+03,1.22310e+04,7.03330e-13,1.20723e+00,6.66400e-13,1.20723e+00,2.67186e-13,1.20723e+00
8.07951e+02,1.49470e+04,2.22600e+03,1.27210e+04,4.93109e-13,1.21478e+00,7.22697e-13,1.21478e+00,3.90361e-13,1.21478e+00
8.08200e+02,1.45350e+04,2.60300e+03,1.19320e+04,1.16494e-13,1.22232e+00,7.14745e-13,1.22232e+00,8.03715e-13,1.22232e+00
8.08449e+02,1.45840e+04,4.18000e+03,1.04040e+04,4.45530e-13,1.22987e+00,4.16322e-13,1.22987e+00,8.14786e-13,1.22987e+00
8.08698e+02,1.48430e+04,6.64500e+03,8.19800e+03,6.27545e-13,1.23741e+00,2.89790e-13,1.23741e+00,8.11257e-13,1.23741e+00
8.08948e+02,1.46880e+04,9.48900e+03,5.19900e+03,6.08258e-13,1.24496e+00,3.57727e-13,1.24496e+00,8.62627e-13,1.24496e+00
8.09197e+02,1.32660e+04,1.21560e+04,1.11000e+03,5.55371e-13,1.25250e+00,1.23057e-13,1.25250e+00,6.78337e-13,1.25250e+00
8.09446e+02,9.93200e+03,1.31440e+04,-3.21200e+03,7.00382e-13,1.26005e+00,1.68434e-13,1.26005e+00,5.43477e-13,1.26005e+00
8.09695e+02,7.03100e+03,1.48760e+04,-7.84500e+03,6.32773e-13,1.26759e+00,4.68801e-13,1.26759e+00,4.18330e-13,1.26759e+00
8.09945e+02,5.22300e+03,1.55770e+04,-1.03540e+04,2.68159e-13,1.27514e+00,4.07840e-13,1.27514e+00,5.31126e-13,1.27514e+00
8.10194e+02,3.67400e+03,1.56240e+04,-1.19500e+04,3.91176e-13,1.28268e+00,1.80012e-13,1.28268e+00,3.51018e-13,1.28268e+00
8.10443e+02,2.64600e+03,1.55160e+04,-1.28700e+04,4.18539e-13,1.29023e+00,4.89951e-13,1.29023e+00,1.20670e-13,1.29023e+00
8.10692e+02,2.49300e+03,1.51890e+04,-1.26960e+04,1.59361e-13,1.29777e+00,3.04220e-13,1.29777e+00,3.56581e-13,1.29777e+00
8.10941e+02,3.44800e+03,1.43600e+04,-1.09120e+04,4.09884e-13,1.30532e+00,6.10638e-13,1.30532e+00,4.97365e-13,1.30532e+00
8.11191e+02,4.82500e+03,1.17470e+04,-6.92200e+03,4.80472e-13,1.31286e+00,1.31039e-13,1.31286e+00,3.53871e-13,1.31286e+00
8.11440e+02,7.72700e+03,9.90900e+03,-2.18200e+03,1.79695e-12,-1.32041e+00,1.63903e-12,-1.32041e+00,1.57924e-13,-1.32041e+00
8.11689e+02,1.15000e+04,8.05000e+03,3.45000e+03,4.80472e-13,-1.31286e+00,1.31039e-13,-1.31286e+00,3.53871e-13,-1.31286e+00
8.11938e+02,1.36710e+04,5.54600e+03,8.12500e+03,4.09884e-13,-1.30532e+00,6.10638e-13,-1.30532e+00,4.97365e-13,-1.30532e+00
8.12187e+02,1.51000e+04,3.47500e+03,1.16250e+04,1.59361e-13,-1.29777e+00,3.04220e-13,-1.29777e+00,3.56581e-13,-1.29777e+00
8.12436e+02,1.55300e+04,2.67800e+03,1.28520e+04,4.18539e-13,-1.29023e+00,4.89951e-13,-1.29023e+00,1.20670e-13,-1.29023e+00
8.12685e+02,1.56140e+04,2.84100e+03,1.27730e+04,3.91176e-13,-1.28268e+00,1.80012e-13,-1.28268e+00,3.51018e-13,-1.28268e+00
8.12935e+02,1.56650e+04,3.90700e+03,1.17580e+04,2.68159e-13,-1.27514e+00,4.07840e-13,-1.27514e+00,5.31126e-13,-1.27514e+00
8.13184e+02,1.55020e+04,5.69200e+03,9.81000e+03,6.32773e-13,-1.26759e+00,4.68801e-13,-1.26759e+00,4.18330e-13,-1.26759e+00
8.13433e+02,1.51100e+04,7.85500e+03,7.25500e+03,7.00382e-13,-1.26005e+00,1.68434e-13,-1.26005e+00,5.43477e-13,-1.26005e+00
8.13682e+02,1.44830e+04,1.04950e+04,3.98800e+03,5.55371e-13,-1.25250e+00,1.23057e-13,-1.25250e+00,6.78337e-13,-1.25250e+00
8.13931e+02,1.28180e+04,1.33120e+04,-4.94000e+02,6.08258e-13,-1.24496e+00,3.57727e-13,-1.24496e+00,8.62627e-13,-1.24496e+00
8.14180e+02,9.47600e+03,1.42850e+04,-4.80900e+03,6.27545e-13,-1.23741e+00,2.89790e-13,-1.23741e+00,8.11257e-13,-1.23741e+00
8.14429e+02,6.98500e+03,1.52930e+04,-8.30800e+03,4.45530e-13,-1.22987e+00,4.16322e-13,-1.22987e+00,8.14786e-13,-1.22987e+00
8.14678e+02,4.77400e+03,1.56450e+04,-1.08710e+04,1.16494e-13,-1.22232e+00,7.14745e-13,-1.22232e+00,8.03715e-13,-1.22232e+00
8.14927e+02,2.87300e+03,1.53900e+04,-1.25170e+04,4.93109e-13,-1.21478e+00,7.22697e-13,-1.21478e+00,3.90361e-13,-1.21478e+00
8.15176e+02,2.14900e+03,1.49900e+04,-1.28410e+04,7.03330e-13,-1.20723e+00,6.66400e-13,-1.20723e+00,2.67186e-13,-1.20723e+00
8.15425e+02,2.38600e+03,1.36500e+04,-1.12640e+04,4.25554e-13,-1.19969e+00,5.18703e-13,-1.19969e+00,9.32885e-14,-1.19969e+00
8.15674e+02,3.42600e+03,1.26360e+04,-9.21000e+03,1.54010e-13,-1.19214e+00,4.60415e-13,-1.19214e+00,3.36354e-13,-1.19214e+00
8.15923e+02,5.77200e+03,1.12310e+04,-5.45900e+03,1.90201e-13,-1.18460e+00,3.87872e-13,-1.18460e+00,4.83921e-13,-1.18460e+00
8.16172e+02,8.17600e+03,9.01700e+03,-8.41000e+02,5.51922e-14,-1.17705e+00,1.95812e-13,-1.17705e+00,2.50966e-13,-1.17705e+00
8.16421e+02,9.89500e+03,5.55500e+03,4.34000e+03,5.44460e-13,-1.16951e+00,1.12047e-13,-1.16951e+00,6.56109e-13,-1.16951e+00
8.16670e+02,1.13320e+04,3.21400e+03,8.11800e+03,5.48088e-13,-1.16196e+00,3.33526e-13,-1.16196e+00,2.99237e-13,-1.16196e+00
8.16919e+02,1.37670e+04,2.27400e+03,1.14930e+04,5.70471e-13,-1.15442e+00,7.33966e-13,-1.15442e+00,5.30802e-13,-1.15442e+00
8.17168e+02,1.39410e+04,2.01600e+03,1.19250e+04,6.48150e-13,-1.14687e+00,1.13237e-12,-1.14687e+00,8.96844e-13,-1.14687e+00
8.17417e+02,1.37880e+04,2.40600e+03,1.13820e+04,2.83234e-13,-1.13932e+00,1.20685e-12,-1.13932e+00,1.06007e-12,-1.13932e+00
8.17666e+02,1.41210e+04,3.49800e+03,1.06230e+04,1.58447e-13,-1.13178e+00,7.35557e-13,-1.13178e+00,8.91272e-13,-1.13178e+00
8.17915e+02,1.33540e+04,5.15000e+03,8.20400e+03,1.68612e-13,-1.12423e+00,5.39049e-13,-1.12423e+00,6.67777e-13,-1.12423e+00
8.18164e+02,1.10920e+04,6.53700e+03,4.55500e+03,6.53564e-13,-1.11669e+00,4.72740e-13,-1.11669e+00,9.12250e-13,-1.11669e+00
8.18413e+02,8.97700e+03,8.07400e+03,9.03000e+02,6.94098e-13,-1.10914e+00,4.78430e-13,-1.10914e+00,7.73376e-13,-1.10914e+00
8.18662e+02,6.71800e+03,8.84000e+03,-2.12200e+03,7.28572e-13,-1.10160e+00,4.12936e-13,-1.10160e+00,5.69148e-13,-1.10160e+00
8.18911e+02,5.23200e+03,1.05180e+04,-5.28600e+03,8.25786e-13,-1.09405e+00,3.40453e-13,-1.09405e+00,5.03737e-13,-1.09405e+00
8.19160e+02,3.72400e+03,1.07620e+04,-7.03800e+03,6.43061e-13,-1.08651e+00,3.40279e-13,-1.08651e+00,4.51336e-13,-1.08651e+00
8.19408e+02,2.63100e+03,1.14690e+04,-8.83800e+03,6.39995e-13,-1.07896e+00,4.19510e-13,-1.07896e+00,6.13110e-13,-1.07896e+00
8.19657e+02,1.95700e+03,1.27340e+04,-1.07770e+04,8.09239e-13,-1.07142e+00,5.19174e-13,-1.07142e+00,7.73392e-13,-1.07142e+00
8.19906e+02,1.85200e+03,1.30900e+04,-1.12380e+04,7.17837e-13,-1.06387e+00,8.62658e-13,-1.06387e+00,1.20239e-12,-1.06387e+00
8.20155e+02,2.39700e+03,1.21210e+04,-9.72400e+03,4.32339e-13,-1.05633e+00,9.28879e-13,-1.05633e+00,1.34315e-12,-1.05633e+00
8.20404e+02,3.39300e+03,9.49900e+03,-6.10600e+03,3.92194e-13,-1.04878e+00,6.91320e-13,-1.04878e+00,4.13502e-13,-1.04878e+00
8.20653e+02,4.74800e+03,6.59200e+03,-1.84400e+03,6.39280e-13,-1.04124e+00,2.88421e-13,-1.04124e+00,3.70742e-13,-1.04124e+00
8.20901e+02,6.44000e+03,5.03900e+03,1.40100e+03,3.61849e-13,-1.03369e+00,1.79910e-13,-1.03369e+00,4.16328e-13,-1.03369e+00
8.21150e+02,8.65900e+03,3.71600e+03,4.94300e+03,1.60695e-13,-1.02615e+00,4.11712e-13,-1.02615e+00,5.36725e-13,-1.02615e+00
8.21399e+02,8.65000e+03,2.33500e+03,6.31500e+03,8.18443e-14,-1.01860e+00,4.77559e-13,-1.01860e+00,4.34942e-13,-1.01860e+00
8.21648e+02,9.97300e+03,1.69700e+03,8.27600e+03,2.12490e-13,-1.01106e+00,1.06415e-13,-1.01106e+00,2.32474e-13,-1.01106e+00
8.21897e+02,1.05970e+04,1.72100e+03,8.87600e+03,3.19071e-13,-1.00351e+00,1.06345e-12,-1.00351e+00,8.03175e-13,-1.00351e+00
8.22145e+02,9.89700e+03,2.05900e+03,7.83800e+03,1.04101e-12,-9.95966e-01,1.60287e-12,-9.95966e-01,7.05757e-13,-9.95966e-01
8.22394e+02,1.00560e+04,3.05100e+03,7.00500e+03,1.01934e-12,-9.88421e-01,8.98583e-13,-9.88421e-01,3.51345e-13,-9.88421e-01
8.22643e+02,9.67700e+03,4.43000e+03,5.24700e+03,8.44743e-13,-9.80876e-01,3.23736e-13,-9.80876e-01,9.90369e-13,-9.80876e-01
8.22892e+02,8.14400e+03,5.78700e+03,2.35700e+03,7.32609e-13,-9.73331e-01,6.89817e-13,-9.73331e-01,1.41289e-12,-9.73331e-01
8.23140e+02,6.87900e+03,7.23600e+03,-3.57000e+02,7.64299e-13,-9.65785e-01,3.77100e-13,-9.65785e-01,1.06592e-12,-9.65785e-01
8.23389e+02,5.52400e+03,8.80200e+03,-3.27800e+03,1.01386e-12,-9.58240e-01,2.12703e-13,-9.58240e-01,8.02584e-13,-9.58240e-01
8.23638e+02,3.98500e+03,9.88700e+03,-5.90200e+03,1.01229e-12,-9.50695e-01,1.16857e-13,-9.50695e-01,1.02944e-12,-9.50695e-01
8.23887e+02,2.58400e+03,9.88400e+03,-7.30000e+03,9.14901e-13,-9.43150e-01,3.31593e-13,-9.43150e-01,7.75131e-13,-9.43150e-01
8.24135e+02,1.67500e+03,9.76400e+03,-8.08900e+03,1.04723e-12,-9.35605e-01,5.12057e-13,-9.35605e-01,6.70669e-13,-9.35605e-01
8.24384e+02,1.36700e+03,9.55300e+03,-8.18600e+03,1.33351e-12,-9.28059e-01,5.22680e-13,-9.28059e-01,1.15269e-12,-9.28059e-01
8.24633e+02,1.56400e+03,8.73100e+03,-7.16700e+03,1.34714e-12,-9.20514e-01,1.09095e-12,-9.20514e-01,1.29643e-12,-9.20514e-01
8.24881e+02,2.27100e+03,7.77200e+03,-5.50100e+03,1.08937e-12,-9.12969e-01,1.33651e-12,-9.12969e-01,1.02001e-12,-9.12969e-01
8.25130e+02,3.32800e+03,6.61700e+03,-3.28900e+03,3.73838e-13,-9.05424e-01,1.10045e-12,-9.05424e-01,7.29309e-13,-9.05424e-01
8.25379e+02,4.96100e+03,5.08400e+03,-1.23000e+02,7.30217e-13,-8.97879e-01,7.35027e-13,-8.97879e-01,1.22919e-12,-8.97879e-01
8.25627e+02,5.57500e+03,3.32100e+03,2.25400e+03,7.87680e-13,-8.90333e-01,4.47420e-13,-8.90333e-01,1.13074e-12,-8.90333e-01
8.25876e+02,6.42000e+03,2.09600e+03,4.32400e+03,7.91389e-13,-8.82788e-01,2.67107e-13,-8.82788e-01,5.74767e-13,-8.82788e-01
8.26125e+02,7.09300e+03,1.40100e+03,5.69200e+03,8.02581e-13,-8.75243e-01,8.76843e-13,-8.75243e-01,2.11839e-13,-8.75243e-01
8.26373e+02,6.66500e+03,1.24400e+03,5.42100e+03,8.34133e-13,-8.67698e-01,7.90192e-13,-8.67698e-01,1.62551e-13,-8.67698e-01
8.26622e+02,6.07900e+03,1.25300e+03,4.82600e+03,1.19586e-12,-8.60153e-01,3.30289e-13,-8.60153e-01,1.36336e-12,-8.60153e-01
8.26870e+02,5.34100e+03,1.65800e+03,3.68300e+03,1.66992e-12,-8.52607e-01,8.03380e-13,-8.52607e-01,2.28190e-12,-8.52607e-01
8.27119e+02,5.08400e+03,2.18400e+03,2.90000e+03,1.85687e-12,-8.45062e-01,4.65551e-13,-8.45062e-01,2.09114e-12,-8.45062e-01
8.27368e+02,4.98500e+03,2.93700e+03,2.04800e+03,1.84314e-12,-8.37517e-01,1.11328e-12,-8.37517e-01,8.51828e-13,-8.37517e-01
8.27616e+02,4.09100e+03,3.33300e+03,7.58000e+02,1.33648e-12,-8.29972e-01,1.56205e-12,-8.29972e-01,2.25893e-13,-8.29972e-01
8.27865e+02,3.25500e+03,4.12200e+03,-8.67000e+02,7.70503e-13,-8.22427e-01,1.31477e-12,-8.22427e-01,8.73768e-13,-8.22427e-01
8.28113e+02,2.81000e+03,5.47200e+03,-2.66200e+03,1.36107e-12,-8.14881e-01,6.34514e-13,-8.14881e-01,1.56573e-12,-8.14881e-01
8.28362e+02,2.09500e+03,6.04300e+03,-3.94800e+03,1.15993e-12,-8.07336e-01,4.44531e-13,-8.07336e-01,1.60434e-12,-8.07336e-01
8.28610e+02,1.35600e+03,5.74700e+03,-4.39100e+03,8.06507e-13,-7.99791e-01,4.89541e-13,-7.99791e-01,1.18232e-12,-7.99791e-01
8.28859e+02,9.69000e+02,5.55000e+03,-4.58100e+03,1.20314e-12,-7.92246e-01,1.52926e-13,-7.92246e-01,1.09974e-12,-7.92246e-01
8.29108e+02,8.19000e+02,4.89000e+03,-4.07100e+03,1.12723e-12,-7.84701e-01,4.20710e-13,-7.84701e-01,1.10699e-12,-7.84701e-01
8.29356e+02,9.83000e+02,4.11400e+03,-3.13100e+03,1.16926e-12,-7.77155e-01,1.05701e-12,-7.77155e-01,1.04552e-12,-7.77155e-01
8.29605e+02,1.16200e+03,3.39300e+03,-2.23100e+03,1.22860e-12,-7.69610e-01,1.34260e-12,-7.69610e-01,4.99071e-13,-7.69610e-01
8.29853e+02,1.53500e+03,2.69200e+03,-1.15700e+03,7.24962e-13,-7.62065e-01,9.12699e-13,-7.62065e-01,2.23614e-13,-7.62065e-01
8.30101e+02,2.01300e+03,2.11800e+03,-1.05000e+02,6.27642e-14,-7.54520e-01,4.63145e-13,-7.54520e-01,4.22486e-13,-7.54520e-01
8.30350e+02,2.62700e+03,1.75000e+03,8.77000e+02,8.35980e-14,-7.46975e-01,4.50933e-13,-7.46975e-01,5.34405e-13,-7.46975e-01
8.30598e+02,2.75400e+03,1.17000e+03,1.58400e+03,6.39570e-13,-7.39429e-01,2.79427e-13,-7.39429e-01,8.82085e-13,-7.39429e-01
8.30847e+02,3.08300e+03,9.22000e+02,2.16100e+03,1.11909e-12,-7.31884e-01,4.93706e-13,-7.31884e-01,6.36523e-13,-7.31884e-01
8.31095e+02,3.42600e+03,7.73000e+02,2.65300e+03,1.04263e-12,-7.24339e-01,9.46707e-13,-7.24339e-01,4.57888e-13,-7.24339e-01
8.31344e+02,3.52300e+03,8.36000e+02,2.68700e+03,4.43428e-13,-7.16794e-01,1.10714e-12,-7.16794e-01,8.58401e-13,-7.16794e-01
8.31592e+02,3.28000e+03,9.17000e+02,2.36300e+03,8.03098e-13,-7.09249e-01,1.61669e-12,-7.09249e-01,1.01392e-12,-7.09249e-01
8.31841e+02,2.78800e+03,1.12800e+03,1.66000e+03,1.73709e-12,-7.01703e-01,1.60601e-12,-7.01703e-01,9.61981e-13,-7.01703e-01
8.32089e+02,2.53400e+03,1.41600e+03,1.11800e+03,1.11780e-12,-6.94158e-01,6.43382e-13,-6.94158e-01,1.09516e-12,-6.94158e-01
8.32337e+02,2.24900e+03,1.83200e+03,4.17000e+02,3.26761e-13,-6.86613e-01,8.79847e-13,-6.86613e-01,5.95355e-13,-6.86613e-01
8.32586e+02,1.68100e+03,1.94500e+03,-2.64000e+02,1.72492e-12,-6.79068e-01,9.95922e-13,-6.79068e-01,9.45399e-13,-6.79068e-01
8.32834e+02,1.49800e+03,2.34300e+03,-8.45000e+02,2.05055e-12,-6.71523e-01,9.10206e-13,-6.71523e-01,1.28036e-12,-6.71523e-01
8.33083e+02,1.06800e+03,2.41200e+03,-1.34400e+03,1.56905e-12,-6.63977e-01,1.17585e-12,-6.63977e-01,3.93376e-13,-6.63977e-01
8.33331e+02,8.63000e+02,2.39600e+03,-1.53300e+03,1.45248e-12,-6.56432e-01,1.94456e-12,-6.56432e-01,6.25229e-13,-6.56432e-01
8.33579e+02,7.20000e+02,2.41200e+03,-1.69200e+03,1.96731e-12,-6.48887e-01,2.89013e-12,-6.48887e-01,9.24450e-13,-6.48887e-01
8.33828e+02,6.97000e+02,2.26200e+03,-1.56500e+03,2.31052e-12,-6.41342e-01,2.87732e-12,-6.41342e-01,8.24999e-13,-6.41342e-01
8.34076e+02,6.89000e+02,1.89200e+03,-1.20300e+03,2.21477e-12,-6.33797e-01,2.44798e-12,-6.33797e-01,6.24162e-13,-6.33797e-01
8.34324e+02,7.36000e+02,1.77100e+03,-1.03500e+03,1.17497e-12,-6.26251e-01,1.30271e-12,-6.26251e-01,3.72231e-13,-6.26251e-01
8.34573e+02,7.99000e+02,1.55300e+03,-7.54000e+02,5.74406e-13,-6.18706e-01,5.35441e-13,-6.18706e-01,5.61718e-14,-6.18706e-01
8.34821e+02,9.79000e+02,1.31100e+03,-3.32000e+02,9.78904e-13,-6.11161e-01,8.88731e-13,-6.11161e-01,5.55721e-13,-6.11161e-01
8.35069e+02,1.05600e+03,9.82000e+02,7.40000e+01,9.22003e-13,-6.03616e-01,1.42182e-12,-6.03616e-01,1.14837e-12,-6.03616e-01
8.35318e+02,1.33500e+03,9.24000e+02,4.11000e+02,1.35765e-12,-5.96071e-01,2.02889e-12,-5.96071e-01,1.57079e-12,-5.96071e-01
8.35566e+02,1.33900e+03,7.16000e+02,6.23000e+02,2.17543e-12,-5.88525e-01,1.69329e-12,-5.88525e-01,1.91472e-12,-5.88525e-01
8.35814e+02,1.42600e+03,6.63000e+02,7.63000e+02,2.07968e-12,-5.80980e-01,1.02569e-12,-5.80980e-01,2.13701e-12,-5.80980e-01
8.36062e+02,1.37100e+03,6.41000e+02,7.30000e+02,1.31223e-12,-5.73435e-01,1.00490e-12,-5.73435e-01,1.83638e-12,-5.73435e-01
8.36311e+02,1.34500e+03,6.58000e+02,6.87000e+02,3.44380e-13,-5.65890e-01,1.84641e-12,-5.65890e-01,1.82447e-12,-5.65890e-01
8.36559e+02,1.27800e+03,6.67000e+02,6.11000e+02,4.89415e-13,-5.58345e-01,1.87852e-12,-5.58345e-01,2.16405e-12,-5.58345e-01
8.36807e+02,1.30700e+03,7.21000e+02,5.86000e+02,4.96121e-13,-5.50799e-01,8.87468e-13,-5.50799e-01,1.31876e-12,-5.50799e-01
8.37055e+02,1.12000e+03,7.61000e+02,3.59000e+02,1.44567e-12,-5.43254e-01,1.01223e-12,-5.43254e-01,1.12851e-12,-5.43254e-01
8.37304e+02,9.82000e+02,8.61000e+02,1.21000e+02,2.02291e-12,-5.35709e-01,2.26132e-12,-5.35709e-01,2.32812e-12,-5.35709e-01
8.37552e+02,8.12000e+02,9.03000e+02,-9.10000e+01,1.85833e-12,-5.28164e-01,1.96249e-12,-5.28164e-01,2.28366e-12,-5.28164e-01
8.37800e+02,7.52000e+02,1.00800e+03,-2.56000e+02,8.22701e-13,-5.20619e-01,4.52813e-13,-5.20619e-01,1.23623e-12,-5.20619e-01
8.38048e+02,6.52000e+02,9.06000e+02,-2.54000e+02,7.38057e-13,-5.13073e-01,1.53492e-12,-5.13073e-01,1.67423e-12,-5.13073e-01
8.38296e+02,6.53000e+02,9.57000e+02,-3.04000e+02,1.31541e-12,-5.05528e-01,2.14565e-12,-5.05528e-01,2.75523e-12,-5.05528e-01
8.38545e+02,6.30000e+02,9.21000e+02,-2.91000e+02,1.02656e-12,-4.97983e-01,1.37770e-12,-4.97983e-01,2.28007e-12,-4.97983e-01
8.38793e+02,6.48000e+02,9.02000e+02,-2.54000e+02,1.52556e-12,-4.90438e-01,1.05471e-12,-4.90438e-01,1.41848e-12,-4.90438e-01
8.39041e+02,6.47000e+02,8.03000e+02,-1.56000e+02,1.84343e-12,-4.82893e-01,2.55879e-12,-4.82893e-01,7.75689e-13,-4.82893e-01
8.39289e+02,6.41000e+02,7.76000e+02,-1.35000e+02,3.00391e-12,-4.75347e-01,2.56412e-12,-4.75347e-01,2.11903e-12,-4.75347e-01
8.39537e+02,6.45000e+02,7.21000e+02,-7.60000e+01,2.99049e-12,-4.67802e-01,1.81172e-12,-4.67802e-01,3.05911e-12,-4.67802e-01
8.39785e+02,6.66000e+02,6.98000e+02,-3.20000e+01,3.17150e-12,-4.60257e-01,1.29434e-12,-4.60257e-01,3.34958e-12,-4.60257e-01
8.40033e+02,6.63000e+02,6.50000e+02,1.30000e+01,4.06718e-12,-4.52712e-01,3.79080e-13,-4.52712e-01,3.94438e-12,-4.52712e-01
8.40281e+02,7.43000e+02,6.84000e+02,5.90000e+01,4.05100e-12,-4.45167e-01,1.08335e-12,-4.45167e-01,3.03726e-12,-4.45167e-01
8.40530e+02,7.01000e+02,6.26000e+02,7.50000e+01,2.82677e-12,-4.37621e-01,1.64605e-12,-4.37621e-01,2.11212e-12,-4.37621e-01
8.40778e+02,7.44000e+02,6.40000e+02,1.04000e+02,1.21642e-12,-4.30076e-01,1.58546e-12,-4.30076e-01,2.02379e-12,-4.30076e-01
8.41026e+02,6.99000e+02,6.32000e+02,6.70000e+01,1.22730e-12,-4.22531e-01,1.35296e-12,-4.22531e-01,2.55716e-12,-4.22531e-01
8.41274e+02,6.98000e+02,6.38000e+02,6.00000e+01,2.64962e-12,-4.14986e-01,2.01446e-12,-4.14986e-01,4.11844e-12,-4.14986e-01
8.41522e+02,6.87000e+02,6.43000e+02,4.40000e+01,1.91404e-12,-4.07441e-01,2.16942e-12,-4.07441e-01,2.65922e-12,-4.07441e-01
8.41770e+02,6.97000e+02,6.43000e+02,5.40000e+01,1.50236e-12,-3.99895e-01,1.94132e-13,-3.99895e-01,1.44203e-12,-3.99895e-01
8.42018e+02,6.65000e+02,6.52000e+02,1.30000e+01,1.78667e-12,-3.92350e-01,2.62346e-12,-3.92350e-01,4.26647e-12,-3.92350e-01
8.42266e+02,6.70000e+02,6.44000e+02,2.60000e+01,1.53844e-12,-3.84805e-01,2.75452e-12,-3.84805e-01,4.29092e-12,-3.84805e-01
8.42514e+02,6.42000e+02,6.58000e+02,-1.60000e+01,2.67345e-12,-3.77260e-01,1.53444e-12,-3.77260e-01,3.48909e-12,-3.77260e-01
8.42762e+02,6.80000e+02,6.80000e+02,0.00000e+00,2.89321e-12,-3.69715e-01,4.31122e-12,-3.69715e-01,4.41495e-12,-3.69715e-01
8.43010e+02,6.17000e+02,6.52000e+02,-3.50000e+01,1.72875e-12,-3.62169e-01,4.54117e-12,-3.62169e-01,4.16871e-12,-3.62169e-01
8.43258e+02,6.34000e+02,6.59000e+02,-2.50000e+01,1.72635e-12,-3.54624e-01,2.23437e-12,-3.54624e-01,1.70127e-12,-3.54624e-01
8.43506e+02,6.33000e+02,6.56000e+02,-2.30000e+01,2.58339e-12,-3.47079e-01,2.05183e-12,-3.47079e-01,9.64096e-13,-3.47079e-01
8.43754e+02,6.43000e+02,6.48000e+02,-5.00000e+00,1.28774e-12,-3.39534e-01,2.22127e-12,-3.39534e-01,9.99400e-13,-3.39534e-01
8.44002e+02,6.24000e+02,6.44000e+02,-2.00000e+01,2.55318e-12,-3.31989e-01,2.14946e-12,-3.31989e-01,2.82980e-12,-3.31989e-01
8.44250e+02,6.28000e+02,6.38000e+02,-1.00000e+01,4.35747e-12,-3.24444e-01,2.93283e-12,-3.24444e-01,3.08481e-12,-3.24444e-01
8.44498e+02,6.49000e+02,6.34000e+02,1.50000e+01,5.09466e-12,-3.16898e-01,5.02680e-12,-3.16898e-01,2.31104e-12,-3.16898e-01
8.44746e+02,6.43000e+02,6.37000e+02,6.00000e+00,5.52006e-12,-3.09353e-01,4.93646e-12,-3.09353e-01,1.23030e-12,-3.09353e-01
8.44994e+02,6.42000e+02,6.15000e+02,2.70000e+01,6.56268e-12,-3.01808e-01,5.62979e-12,-3.01808e-01,9.40925e-12,-3.01808e-01
8.45242e+02,6.66000e+02,6.51000e+02,1.50000e+01,7.10005e-12,-2.94263e-01,8.59097e-12,-2.94263e-01,1.35442e-11,-2.94263e-01
8.45490e+02,6.12000e+02,6.15000e+02,-3.00000e+00,5.54586e-12,-2.86718e-01,7.53749e-12,-2.86718e-01,9.08475e-12,-2.86718e-01
8.45738e+02,6.38000e+02,6.30000e+02,8.00000e+00,6.14185e-12,-2.79172e-01,5.03028e-12,-2.79172e-01,4.51260e-12,-2.79172e-01
8.45985e+02,6.43000e+02,6.37000e+02,6.00000e+00,6.37995e-12,-2.71627e-01,3.70349e-12,-2.71627e-01,4.31987e-12,-2.71627e-01
8.46233e+02,6.34000e+02,6.32000e+02,2.00000e+00,5.38069e-12,-2.64082e-01,2.88801e-12,-2.64082e-01,4.12573e-12,-2.64082e-01
8.46481e+02,6.27000e+02,6.35000e+02,-8.00000e+00,4.19507e-12,-2.56537e-01,1.34915e-12,-2.56537e-01,2.95893e-12,-2.56537e-01
8.46729e+02,6.52000e+02,6.22000e+02,3.00000e+01,5.90728e-12,-2.48992e-01,3.20339e-12,-2.48992e-01,2.75845e-12,-2.48992e-01
8.46977e+02,6.41000e+02,6.31000e+02,1.00000e+01,6.15319e-12,-2.41446e-01,3.02605e-12,-2.41446e-01,3.26300e-12,-2.41446e-01
8.47225e+02,6.32000e+02,6.32000e+02,0.00000e+00,6.28945e-12,-2.33901e-01,2.29369e-12,-2.33901e-01,4.00513e-12,-2.33901e-01
8.47473e+02,6.38000e+02,6.31000e+02,7.00000e+00,5.64868e-12,-2.26356e-01,2.63395e-12,-2.26356e-01,3.21995e-12,-2.26356e-01
8.47720e+02,6.64000e+02,6.62000e+02,2.00000e+00,2.94550e-12,-2.18811e-01,2.16510e-12,-2.18811e-01,1.16277e-12,-2.18811e-01
8.47968e+02,6.09000e+02,6.20000e+02,-1.10000e+01,5.09189e-13,-2.11266e-01,2.26630e-12,-2.11266e-01,2.33233e-12,-2.11266e-01
8.48216e+02,6.28000e+02,6.25000e+02,3.00000e+00,2.99865e-12,-2.03720e-01,2.98076e-12,-2.03720e-01,5.96296e-12,-2.03720e-01
8.48464e+02,6.27000e+02,6.22000e+02,5.00000e+00,4.59647e-12,-1.96175e-01,3.31043e-12,-1.96175e-01,7.79196e-12,-1.96175e-01
8.48712e+02,6.41000e+02,6.25000e+02,1.60000e+01,5.25707e-12,-1.88630e-01,1.73784e-12,-1.88630e-01,6.42658e-12,-1.88630e-01
8.48960e+02,6.29000e+02,6.30000e+02,-1.00000e+00,8.03365e-12,-1.81085e-01,4.49604e-12,-1.81085e-01,1.19688e-11,-1.81085e-01
8.49207e+02,6.27000e+02,6.31000e+02,-4.00000e+00,8.00739e-12,-1.73540e-01,1.03052e-11,-1.73540e-01,1.75970e-11,-1.73540e-01
8.49455e+02,6.21000e+02,6.21000e+02,0.00000e+00,2.39329e-12,-1.65994e-01,6.16696e-12,-1.65994e-01,8.44803e-12,-1.65994e-01
8.49703e+02,6.40000e+02,6.24000e+02,1.60000e+01,2.85416e-11,-1.58449e-01,2.02771e-11,-1.58449e-01,4.84685e-11,-1.58449e-01
8.49951e+02,6.40000e+02,6.34000e+02,6.00000e+00,9.24761e-11,-1.50904e-01,8.03409e-11,-1.50904e-01,1.69808e-10,-1.50904e-01
8.50198e+02,6.70000e+02,6.63000e+02,7.00000e+00,1.31080e-10,-1.43359e-01,1.26521e-10,-1.43359e-01,2.50556e-10,-1.43359e-01
8.50446e+02,6.22000e+02,6.21000e+02,1.00000e+00,9.03301e-11,-1.35814e-01,9.64925e-11,-1.35814e-01,1.80196e-10,-1.35814e-01
8.50694e+02,6.38000e+02,6.22000e+02,1.60000e+01,2.95150e-11,-1.28268e-01,3.62091e-11,-1.28268e-01,6.27623e-11,-1.28268e-01
8.50941e+02,6.14000e+02,6.24000e+02,-1.00000e+01,6.91431e-12,-1.20723e-01,1.21200e-11,-1.20723e-01,1.76955e-11,-1.20723e-01
8.51189e+02,6.26000e+02,6.37000e+02,-1.10000e+01,4.11278e-12,-1.13178e-01,4.56007e-12,-1.13178e-01,6.88916e-12,-1.13178e-01
8.51437e+02,6.34000e+02,6.13000e+02,2.10000e+01,2.18687e-12,-1.05633e-01,5.16233e-12,-1.05633e-01,4.01958e-12,-1.05633e-01
8.51685e+02,6.32000e+02,6.36000e+02,-4.00000e+00,4.57388e-12,-9.80876e-02,1.65333e-13,-9.80876e-02,4.52821e-12,-9.80876e-02
8.51932e+02,6.20000e+02,6.09000e+02,1.10000e+01,1.89062e-12,-9.05424e-02,2.25301e-12,-9.05424e-02,4.13973e-12,-9.05424e-02
8.52180e+02,6.42000e+02,6.37000e+02,5.00000e+00,2.54011e-12,-8.29972e-02,2.21302e-12,-8.29972e-02,1.50334e-12,-8.29972e-02
8.52428e+02,6.36000e+02,6.29000e+02,7.00000e+00,2.70218e-12,-7.54520e-02,2.61922e-12,-7.54520e-02,4.24980e-13,-7.54520e-02
8.52675e+02,6.51000e+02,6.52000e+02,-1.00000e+00,3.84461e-12,-6.79068e-02,5.07705e-12,-6.79068e-02,1.81298e-12,-6.79068e-02
8.52923e+02,6.15000e+02,6.13000e+02,2.00000e+00,8.05540e-12,-6.03616e-02,7.96741e-12,-6.03616e-02,1.76175e-12,-6.03616e-02
8.53170e+02,6.33000e+02,6.42000e+02,-9.00000e+00,1.03486e-11,-5.28164e-02,9.20774e-12,-5.28164e-02,1.17225e-12,-5.28164e-02
8.53418e+02,6.28000e+02,6.27000e+02,1.00000e+00,6.86555e-12,-4.52712e-02,5.71754e-12,-4.52712e-02,3.07971e-12,-4.52712e-02
8.53666e+02,6.37000e+02,6.35000e+02,2.00000e+00,1.69568e-12,-3.77260e-02,2.58736e-12,-3.77260e-02,3.67395e-12,-3.77260e-02
8.53913e+02,6.35000e+02,6.33000e+02,2.00000e+00,1.42538e-12,-3.01808e-02,2.30642e-12,-3.01808e-02,2.64978e-12,-3.01808e-02
8.54161e+02,6.37000e+02,6.34000e+02,3.00000e+00,1.53502e-11,-2.26356e-02,1.41305e-11,-2.26356e-02,1.79893e-12,-2.26356e-02
8.54409e+02,6.40000e+02,6.25000e+02,1.50000e+01,7.96857e-11,-1.50904e-02,7.87169e-11,-1.50904e-02,7.75013e-12,-1.50904e-02
8.54656e+02,6.45000e+02,6.34000e+02,1.10000e+01,2.31030e-10,-7.54520e-03,2.28000e-10,-7.54520e-03,9.58614e-12,-7.54520e-03
