7.67698e+02,6.22000e+02,6.38000e+02,-1.60000e+01,3.83084e-10,0.00000e+00,3.81238e-10,0.00000e+00,1.84594e-12,0.00000e+00
7.67949e+02,6.57000e+02,6.68000e+02,-1.10000e+01,2.25856e-10,7.54520e-03,2.23160e-10,7.54520e-03,3.00556e-12,7.54520e-03
7.68199e+02,6.10000e+02,6.04000e+02,6.00000e+00,7.66807e-11,1.50904e-02,7.55346e-11,1.50904e-02,2.43264e-12,1.50904e-02
7.68450e+02,6.38000e+02,6.27000e+02,1.10000e+01,1.03963e-11,2.26356e-02,1.35549e-11,2.26356e-02,3.22375e-12,2.26356e-02
7.68701e+02,6.30000e+02,6.32000e+02,-2.00000e+00,5.68749e-12,3.01808e-02,1.46688e-12,3.01808e-02,4.23849e-12,3.01808e-02
7.68951e+02,6.48000e+02,6.23000e+02,2.50000e+01,2.63939e-12,3.77260e-02,1.69903e-12,3.77260e-02,9.40894e-13,3.77260e-02
7.69202e+02,6.40000e+02,6.23000e+02,1.70000e+01,8.35024e-12,4.52712e-02,1.55486e-12,4.52712e-02,7.26991e-12,4.52712e-02
7.69453e+02,6.46000e+02,6.25000e+02,2.10000e+01,1.84160e-11,5.28164e-02,7.36144e-12,5.28164e-02,2.11206e-11,5.28164e-02
7.69703e+02,6.65000e+02,6.13000e+02,5.20000e+01,1.93576e-11,6.03616e-02,1.37693e-11,6.03616e-02,2.94090e-11,6.03616e-02
7.69954e+02,6.44000e+02,6.17000e+02,2.70000e+01,2.02393e-11,6.79068e-02,2.18882e-11,6.79068e-02,4.02178e-11,6.79068e-02
7.70205e+02,6.26000e+02,6.03000e+02,2.30000e+01,6.69823e-11,7.54520e-02,6.47131e-11,7.54520e-02,1.28462e-10,7.54520e-02
7.70455e+02,6.92000e+02,6.57000e+02,3.50000e+01,1.21372e-10,8.29972e-02,1.19064e-10,8.29972e-02,2.34019e-10,8.29972e-02
7.70706e+02,6.33000e+02,6.16000e+02,1.70000e+01,1.32190e-10,9.05424e-02,1.35018e-10,9.05424e-02,2.58835e-10,9.05424e-02
7.70957e+02,6.33000e+02,6.49000e+02,-1.60000e+01,7.80570e-11,9.80876e-02,8.48804e-11,9.80876e-02,1.57291e-10,9.80876e-02
7.71207e+02,6.25000e+02,6.45000e+02,-2.00000e+01,2.54197e-11,1.05633e-01,2.68249e-11,1.05633e-01,5.09509e-11,1.05633e-01
7.71458e+02,6.29000e+02,6.57000e+02,-2.80000e+01,4.72527e-12,1.13178e-01,6.67100e-12,1.13178e-01,1.06313e-11,1.13178e-01
7.71708e+02,6.21000e+02,6.72000e+02,-5.10000e+01,9.89856e-12,1.20723e-01,3.74403e-12,1.20723e-01,1.27778e-11,1.20723e-01
7.71959e+02,6.31000e+02,6.90000e+02,-5.90000e+01,5.87848e-12,1.28268e-01,4.74359e-12,1.28268e-01,1.04447e-11,1.28268e-01
7.72210e+02,6.19000e+02,7.15000e+02,-9.60000e+01,1.92819e-12,1.35814e-01,3.69125e-12,1.35814e-01,2.01617e-12,1.35814e-01
7.72460e+02,6.15000e+02,7.35000e+02,-1.20000e+02,4.73291e-12,1.43359e-01,1.32031e-12,1.43359e-01,3.46392e-12,1.43359e-01
7.72711e+02,6.20000e+02,7.41000e+02,-1.21000e+02,5.92982e-12,1.50904e-01,7.06682e-12,1.50904e-01,5.32811e-12,1.50904e-01
7.72961e+02,6.78000e+02,7.94000e+02,-1.16000e+02,5.75162e-12,1.58449e-01,9.16852e-12,1.58449e-01,9.15071e-12,1.58449e-01
7.73212e+02,6.41000e+02,7.32000e+02,-9.10000e+01,7.58129e-12,1.65994e-01,4.47942e-12,1.65994e-01,8.91975e-12,1.65994e-01
7.73462e+02,6.63000e+02,7.55000e+02,-9.20000e+01,9.21769e-12,1.73540e-01,1.74499e-12,1.73540e-01,8.22379e-12,1.73540e-01
7.73713e+02,6.58000e+02,7.15000e+02,-5.70000e+01,1.01196e-11,1.81085e-01,3.81181e-12,1.81085e-01,7.03175e-12,1.81085e-01
7.73963e+02,6.84000e+02,7.10000e+02,-2.60000e+01,7.27254e-12,1.88630e-01,4.23826e-12,1.88630e-01,4.44191e-12,1.88630e-01
7.74214e+02,7.02000e+02,6.76000e+02,2.60000e+01,3.73235e-12,1.96175e-01,3.29673e-12,1.96175e-01,4.69364e-12,1.96175e-01
7.74465e+02,7.58000e+02,6.71000e+02,8.70000e+01,2.39605e-12,2.03720e-01,4.76423e-12,2.03720e-01,5.91931e-12,2.03720e-01
7.74715e+02,7.71000e+02,6.54000e+02,1.17000e+02,3.34094e-12,2.11266e-01,4.36302e-12,2.11266e-01,5.24568e-12,2.11266e-01
7.74965e+02,8.10000e+02,6.45000e+02,1.65000e+02,3.41245e-12,2.18811e-01,4.02329e-12,2.18811e-01,5.69278e-12,2.18811e-01
7.75216e+02,7.94000e+02,6.40000e+02,1.54000e+02,1.76807e-12,2.26356e-01,5.55384e-12,2.26356e-01,6.39911e-12,2.26356e-01
7.75466e+02,8.71000e+02,6.57000e+02,2.14000e+02,1.09383e-12,2.33901e-01,5.59021e-12,2.33901e-01,4.56339e-12,2.33901e-01
7.75717e+02,7.65000e+02,6.13000e+02,1.52000e+02,1.68541e-12,2.41446e-01,6.50048e-12,2.41446e-01,4.82948e-12,2.41446e-01
7.75967e+02,8.00000e+02,6.29000e+02,1.71000e+02,2.88857e-12,2.48992e-01,6.09940e-12,2.48992e-01,3.94527e-12,2.48992e-01
7.76218e+02,7.57000e+02,6.15000e+02,1.42000e+02,2.59355e-12,2.56537e-01,2.45922e-12,2.56537e-01,3.24736e-12,2.56537e-01
7.76468e+02,7.42000e+02,6.44000e+02,9.80000e+01,1.41351e-12,2.64082e-01,1.57176e-12,2.64082e-01,2.62011e-12,2.64082e-01
7.76719e+02,7.02000e+02,6.50000e+02,5.20000e+01,2.09261e-12,2.71627e-01,9.62811e-13,2.71627e-01,2.25453e-12,2.71627e-01
7.76969e+02,6.76000e+02,7.01000e+02,-2.50000e+01,8.97130e-13,2.79172e-01,2.42312e-12,2.79172e-01,3.30058e-12,2.79172e-01
7.77219e+02,6.56000e+02,7.34000e+02,-7.80000e+01,1.78581e-12,2.86718e-01,2.28970e-12,2.86718e-01,2.00481e-12,2.86718e-01
7.77470e+02,6.50000e+02,8.79000e+02,-2.29000e+02,3.30430e-12,2.94263e-01,1.47986e-12,2.94263e-01,3.60758e-12,2.94263e-01
7.77720e+02,6.26000e+02,9.16000e+02,-2.90000e+02,3.80794e-12,3.01808e-01,2.93810e-12,3.01808e-01,4.70279e-12,3.01808e-01
7.77971e+02,6.53000e+02,1.07300e+03,-4.20000e+02,2.62329e-12,3.09353e-01,5.20738e-12,3.09353e-01,3.45014e-12,3.09353e-01
7.78221e+02,6.13000e+02,1.10500e+03,-4.92000e+02,2.00090e-12,3.16898e-01,4.69592e-12,3.16898e-01,3.67965e-12,3.16898e-01
7.78471e+02,6.27000e+02,1.23300e+03,-6.06000e+02,1.48003e-12,3.24444e-01,3.06091e-12,3.24444e-01,3.52062e-12,3.24444e-01
7.78722e+02,6.60000e+02,1.22900e+03,-5.69000e+02,1.14479e-12,3.31989e-01,1.36214e-12,3.31989e-01,2.15285e-12,3.31989e-01
7.78972e+02,6.87000e+02,1.40700e+03,-7.20000e+02,1.35951e-12,3.39534e-01,2.75641e-12,3.39534e-01,3.53982e-12,3.39534e-01
7.79222e+02,7.40000e+02,1.41800e+03,-6.78000e+02,1.66319e-12,3.47079e-01,3.55992e-12,3.47079e-01,2.40711e-12,3.47079e-01
7.79473e+02,8.79000e+02,1.38600e+03,-5.07000e+02,2.55539e-12,3.54624e-01,2.79946e-12,3.54624e-01,5.91537e-13,3.54624e-01
7.79723e+02,9.57000e+02,1.27300e+03,-3.16000e+02,2.84219e-12,3.62169e-01,3.34299e-12,3.62169e-01,8.41957e-13,3.62169e-01
7.79973e+02,1.20300e+03,1.28500e+03,-8.20000e+01,2.30285e-12,3.69715e-01,3.53535e-12,3.69715e-01,1.24523e-12,3.69715e-01
7.80224e+02,1.29400e+03,1.10500e+03,1.89000e+02,1.01325e-12,3.77260e-01,1.53222e-12,3.77260e-01,5.20688e-13,3.77260e-01
7.80474e+02,1.51400e+03,1.08300e+03,4.31000e+02,9.34628e-13,3.84805e-01,1.76189e-12,3.84805e-01,8.42137e-13,3.84805e-01
7.80724e+02,1.44600e+03,8.39000e+02,6.07000e+02,1.09292e-12,3.92350e-01,1.35206e-12,3.92350e-01,7.39077e-13,3.92350e-01
7.80974e+02,1.60800e+03,7.48000e+02,8.60000e+02,8.31791e-13,3.99895e-01,1.12331e-12,3.99895e-01,1.84786e-12,3.99895e-01
7.81225e+02,1.78500e+03,6.82000e+02,1.10300e+03,2.70425e-13,4.07441e-01,1.90776e-12,4.07441e-01,1.88958e-12,4.07441e-01
7.81475e+02,1.97800e+03,6.79000e+02,1.29900e+03,5.05679e-13,4.14986e-01,2.32512e-12,4.14986e-01,2.09863e-12,4.14986e-01
7.81725e+02,1.84300e+03,6.44000e+02,1.19900e+03,9.70405e-13,4.22531e-01,1.98623e-12,4.22531e-01,2.21770e-12,4.22531e-01
7.81975e+02,1.95400e+03,6.38000e+02,1.31600e+03,7.19851e-13,4.30076e-01,1.78043e-12,4.30076e-01,1.24705e-12,4.30076e-01
7.82226e+02,1.81200e+03,6.35000e+02,1.17700e+03,3.53117e-13,4.37621e-01,2.31204e-12,4.37621e-01,2.58399e-12,4.37621e-01
7.82476e+02,1.73200e+03,6.56000e+02,1.07600e+03,1.34972e-12,4.45167e-01,1.39070e-12,4.45167e-01,2.63251e-12,4.45167e-01
7.82726e+02,1.56200e+03,6.92000e+02,8.70000e+02,1.71888e-12,4.52712e-01,5.48038e-13,4.52712e-01,1.86468e-12,4.52712e-01
7.82976e+02,1.32200e+03,8.31000e+02,4.91000e+02,1.38059e-12,4.60257e-01,1.35631e-12,4.60257e-01,7.91571e-13,4.60257e-01
7.83226e+02,1.03400e+03,8.85000e+02,1.49000e+02,1.81606e-13,4.67802e-01,2.17955e-12,4.67802e-01,2.02791e-12,4.67802e-01
7.83477e+02,9.97000e+02,1.21700e+03,-2.20000e+02,4.38236e-13,4.75347e-01,3.01696e-12,4.75347e-01,3.44650e-12,4.75347e-01
7.83727e+02,7.87000e+02,1.45300e+03,-6.66000e+02,1.03839e-12,4.82893e-01,2.34227e-12,4.82893e-01,2.94296e-12,4.82893e-01
7.83977e+02,7.18000e+02,1.80800e+03,-1.09000e+03,1.25774e-12,4.90438e-01,1.06530e-12,4.90438e-01,1.21640e-12,4.90438e-01
7.84227e+02,6.54000e+02,2.09200e+03,-1.43800e+03,4.24959e-13,4.97983e-01,1.01020e-12,4.97983e-01,1.42688e-12,4.97983e-01
7.84477e+02,6.41000e+02,2.51200e+03,-1.87100e+03,8.73511e-13,5.05528e-01,2.50361e-12,5.05528e-01,1.75122e-12,5.05528e-01
7.84727e+02,6.40000e+02,2.54200e+03,-1.90200e+03,1.56294e-12,5.13073e-01,2.12261e-12,5.13073e-01,7.25461e-13,5.13073e-01
7.84978e+02,7.06000e+02,3.03000e+03,-2.32400e+03,8.37839e-13,5.20619e-01,7.53072e-13,5.20619e-01,1.23061e-13,5.20619e-01
7.85228e+02,8.23000e+02,3.40600e+03,-2.58300e+03,8.98555e-13,5.28164e-01,1.51342e-12,5.28164e-01,6.31023e-13,5.28164e-01
7.85478e+02,1.18000e+03,3.62500e+03,-2.44500e+03,1.01300e-12,5.35709e-01,1.26040e-12,5.35709e-01,6.38269e-13,5.35709e-01
7.85728e+02,1.52500e+03,3.74100e+03,-2.21600e+03,1.00829e-12,5.43254e-01,4.35081e-14,5.43254e-01,1.05151e-12,5.43254e-01
7.85978e+02,2.06600e+03,3.62400e+03,-1.55800e+03,1.35793e-12,5.50799e-01,1.27947e-12,5.50799e-01,1.89717e-12,5.50799e-01
7.86228e+02,2.46200e+03,3.21200e+03,-7.50000e+02,1.31913e-12,5.58345e-01,1.91852e-12,5.58345e-01,1.76737e-12,5.58345e-01
7.86478e+02,2.84100e+03,2.87800e+03,-3.70000e+01,1.86861e-13,5.65890e-01,1.96958e-12,5.65890e-01,1.86624e-12,5.65890e-01
7.86728e+02,3.09100e+03,2.44800e+03,6.43000e+02,6.76379e-13,5.73435e-01,1.24785e-12,5.73435e-01,1.91589e-12,5.73435e-01
7.86978e+02,3.22800e+03,1.94400e+03,1.28400e+03,8.47227e-13,5.80980e-01,6.78749e-13,5.80980e-01,1.35011e-12,5.80980e-01
7.87228e+02,3.54700e+03,1.50900e+03,2.03800e+03,1.05892e-12,5.88525e-01,8.29648e-13,5.88525e-01,2.42962e-13,5.88525e-01
7.87478e+02,3.82000e+03,1.22600e+03,2.59400e+03,1.44349e-12,5.96071e-01,1.27564e-12,5.96071e-01,1.05983e-12,5.96071e-01
7.87728e+02,3.85800e+03,8.83000e+02,2.97500e+03,1.13217e-12,6.03616e-01,1.41868e-12,6.03616e-01,1.48949e-12,6.03616e-01
7.87978e+02,4.20500e+03,7.84000e+02,3.42100e+03,4.02960e-13,6.11161e-01,1.32070e-12,6.11161e-01,1.09469e-12,6.11161e-01
7.88228e+02,3.94500e+03,6.65000e+02,3.28000e+03,8.73488e-13,6.18706e-01,4.55953e-13,6.18706e-01,8.87484e-13,6.18706e-01
7.88478e+02,4.06800e+03,6.55000e+02,3.41300e+03,1.63352e-12,6.26251e-01,1.19636e-12,6.26251e-01,1.43048e-12,6.26251e-01
7.88728e+02,3.89400e+03,7.34000e+02,3.16000e+03,2.01680e-12,6.33797e-01,1.83278e-12,6.33797e-01,1.04375e-12,6.33797e-01
7.88978e+02,3.32500e+03,9.30000e+02,2.39500e+03,1.97203e-12,6.41342e-01,1.85066e-12,6.41342e-01,2.10987e-13,6.41342e-01
7.89228e+02,3.09400e+03,1.34600e+03,1.74800e+03,1.74787e-12,6.48887e-01,2.02653e-12,6.48887e-01,1.33522e-12,6.48887e-01
7.89478e+02,2.73400e+03,1.87200e+03,8.62000e+02,1.07593e-12,6.56432e-01,1.51466e-12,6.56432e-01,1.52447e-12,6.56432e-01
7.89728e+02,2.12200e+03,2.48900e+03,-3.67000e+02,6.08691e-13,6.63977e-01,1.06106e-12,6.63977e-01,6.72017e-13,6.63977e-01
7.89978e+02,1.71200e+03,3.14000e+03,-1.42800e+03,1.27446e-12,6.71523e-01,8.51258e-13,6.71523e-01,7.59157e-13,6.71523e-01
7.90228e+02,1.13300e+03,3.49300e+03,-2.36000e+03,1.77286e-12,6.79068e-01,5.69765e-13,6.79068e-01,1.45235e-12,6.79068e-01
7.90478e+02,9.12000e+02,4.16000e+03,-3.24800e+03,1.26874e-12,6.86613e-01,3.67206e-13,6.86613e-01,1.50101e-12,6.86613e-01
7.90728e+02,7.16000e+02,4.83400e+03,-4.11800e+03,1.39285e-14,6.94158e-01,1.47434e-12,6.94158e-01,1.48689e-12,6.94158e-01
7.90978e+02,7.08000e+02,5.81300e+03,-5.10500e+03,8.43276e-13,7.01703e-01,2.26448e-12,7.01703e-01,1.53969e-12,7.01703e-01
7.91228e+02,7.60000e+02,6.28800e+03,-5.52800e+03,6.65489e-13,7.09249e-01,1.65181e-12,7.09249e-01,1.16448e-12,7.09249e-01
7.91478e+02,1.06100e+03,6.16500e+03,-5.10400e+03,6.34130e-13,7.16794e-01,1.44165e-12,7.16794e-01,1.14258e-12,7.16794e-01
7.91728e+02,1.48800e+03,5.80300e+03,-4.31500e+03,6.36812e-13,7.24339e-01,1.40789e-12,7.24339e-01,1.32756e-12,7.24339e-01
7.91977e+02,2.01600e+03,5.54900e+03,-3.53300e+03,3.93403e-13,7.31884e-01,1.68040e-13,7.31884e-01,5.60875e-13,7.31884e-01
7.92227e+02,2.46700e+03,4.92400e+03,-2.45700e+03,3.50084e-13,7.39429e-01,1.30531e-12,7.39429e-01,1.04519e-12,7.39429e-01
7.92477e+02,3.49700e+03,5.27500e+03,-1.77800e+03,9.56688e-13,7.46975e-01,1.34833e-12,7.46975e-01,1.26463e-12,7.46975e-01
7.92727e+02,4.52100e+03,5.24200e+03,-7.21000e+02,7.18861e-13,7.54520e-01,4.45777e-13,7.54520e-01,6.12037e-13,7.54520e-01
7.92977e+02,5.16600e+03,4.57200e+03,5.94000e+02,2.55679e-13,7.62065e-01,4.99791e-13,7.62065e-01,3.31539e-13,7.62065e-01
7.93227e+02,5.31800e+03,3.50400e+03,1.81400e+03,5.52574e-13,7.69610e-01,7.55590e-13,7.69610e-01,4.03482e-13,7.69610e-01
7.93476e+02,6.05000e+03,2.90200e+03,3.14800e+03,1.80153e-13,7.77155e-01,4.68244e-13,7.77155e-01,4.21667e-13,7.77155e-01
7.93726e+02,6.60400e+03,2.26700e+03,4.33700e+03,1.06816e-12,7.84701e-01,8.62646e-13,7.84701e-01,8.93541e-13,7.84701e-01
7.93976e+02,7.20200e+03,1.80100e+03,5.40100e+03,1.55950e-12,7.92246e-01,1.30138e-12,7.92246e-01,8.67806e-13,7.92246e-01
7.94226e+02,7.43800e+03,1.25300e+03,6.18500e+03,7.37471e-13,7.99791e-01,1.10029e-12,7.99791e-01,4.05312e-13,7.99791e-01
7.94476e+02,8.10000e+03,1.00900e+03,7.09100e+03,2.24419e-13,8.07336e-01,8.41723e-13,8.07336e-01,9.07699e-13,8.07336e-01
7.94725e+02,7.24800e+03,7.53000e+02,6.49500e+03,1.60708e-13,8.14881e-01,2.02633e-13,8.14881e-01,2.92266e-13,8.14881e-01
7.94975e+02,7.12900e+03,7.55000e+02,6.37400e+03,4.51591e-13,8.22427e-01,1.12334e-12,8.22427e-01,6.98219e-13,8.22427e-01
7.95225e+02,6.87400e+03,8.63000e+02,6.01100e+03,7.71851e-13,8.29972e-01,1.78341e-12,8.29972e-01,1.04649e-12,8.29972e-01
7.95475e+02,6.15800e+03,1.33800e+03,4.82000e+03,1.10939e-12,8.37517e-01,1.49608e-12,8.37517e-01,6.16647e-13,8.37517e-01
7.95724e+02,5.24100e+03,1.75400e+03,3.48700e+03,1.22521e-12,8.45062e-01,8.62341e-13,8.45062e-01,1.44051e-12,8.45062e-01
7.95974e+02,4.64600e+03,2.40400e+03,2.24200e+03,1.27838e-12,8.52607e-01,5.50970e-13,8.52607e-01,1.82500e-12,8.52607e-01
7.96224e+02,4.05700e+03,3.35100e+03,7.06000e+02,1.11963e-12,8.60153e-01,5.25490e-13,8.60153e-01,1.63546e-12,8.60153e-01
7.96474e+02,3.56000e+03,4.43200e+03,-8.72000e+02,1.36082e-12,8.67698e-01,5.41825e-13,8.67698e-01,1.12189e-12,8.67698e-01
7.96723e+02,2.58100e+03,4.98000e+03,-2.39900e+03,1.05588e-12,8.75243e-01,1.38778e-12,8.75243e-01,1.45551e-12,8.75243e-01
7.96973e+02,1.90800e+03,5.73000e+03,-3.82200e+03,9.56641e-13,8.82788e-01,1.09942e-12,8.82788e-01,1.18244e-12,8.82788e-01
7.97223e+02,1.34500e+03,7.15600e+03,-5.81100e+03,1.04395e-12,8.90333e-01,7.40073e-13,8.90333e-01,3.10400e-13,8.90333e-01
7.97472e+02,1.02900e+03,7.94700e+03,-6.91800e+03,7.58448e-13,8.97879e-01,1.22513e-12,8.97879e-01,6.97024e-13,8.97879e-01
7.97722e+02,8.30000e+02,9.52900e+03,-8.69900e+03,4.36600e-13,9.05424e-01,1.34371e-12,9.05424e-01,1.16176e-12,9.05424e-01
7.97972e+02,1.01500e+03,1.06980e+04,-9.68300e+03,1.10121e-12,9.12969e-01,1.35648e-12,9.12969e-01,4.30443e-13,9.12969e-01
7.98221e+02,1.29600e+03,1.08590e+04,-9.56300e+03,9.64826e-13,9.20514e-01,1.39080e-12,9.20514e-01,5.31214e-13,9.20514e-01
7.98471e+02,1.98000e+03,1.10560e+04,-9.07600e+03,1.05030e-12,9.28059e-01,1.43198e-12,9.28059e-01,3.94130e-13,9.28059e-01
7.98721e+02,2.88300e+03,1.14740e+04,-8.59100e+03,1.25668e-12,9.35605e-01,1.00976e-12,9.35605e-01,3.08069e-13,9.35605e-01
7.98970e+02,4.00500e+03,1.22500e+04,-8.24500e+03,7.60690e-13,9.43150e-01,5.05368e-13,9.43150e-01,3.50606e-13,9.43150e-01
7.99220e+02,4.99400e+03,1.18310e+04,-6.83700e+03,7.57617e-13,9.50695e-01,7.93684e-13,9.50695e-01,3.84538e-14,9.50695e-01
7.99469e+02,5.82800e+03,1.02670e+04,-4.43900e+03,8.75664e-13,9.58240e-01,8.55242e-13,9.58240e-01,1.90343e-13,9.58240e-01
7.99719e+02,6.83300e+03,9.11800e+03,-2.28500e+03,5.94368e-13,9.65785e-01,9.90272e-13,9.65785e-01,5.89423e-13,9.65785e-01
7.99969e+02,7.80800e+03,7.89700e+03,-8.90000e+01,5.75857e-13,9.73331e-01,1.03772e-12,9.73331e-01,8.26362e-13,9.73331e-01
8.00218e+02,9.49000e+03,7.32100e+03,2.16900e+03,4.47274e-13,9.80876e-01,8.61649e-13,9.80876e-01,4.27931e-13,9.80876e-01
8.00468e+02,1.07970e+04,6.36600e+03,4.43100e+03,4.07939e-13,9.88421e-01,1.25265e-12,9.88421e-01,9.36457e-13,9.88421e-01
8.00717e+02,1.13620e+04,4.82700e+03,6.53500e+03,5.25817e-13,9.95966e-01,1.05551e-12,9.95966e-01,5.37921e-13,9.95966e-01
8.00967e+02,1.23330e+04,3.83400e+03,8.49900e+03,7.37058e-13,1.00351e+00,2.09091e-13,1.00351e+00,8.11065e-13,1.00351e+00
8.01216e+02,1.37140e+04,2.90500e+03,1.08090e+04,5.43409e-13,1.01106e+00,1.03948e-12,1.01106e+00,6.69272e-13,1.01106e+00
8.01466e+02,1.46370e+04,2.24800e+03,1.23890e+04,6.59273e-13,1.01860e+00,1.17253e-12,1.01860e+00,1.32519e-12,1.01860e+00
8.01715e+02,1.45720e+04,1.47500e+03,1.30970e+04,8.73952e-13,1.02615e+00,6.75148e-13,1.02615e+00,1.16823e-12,1.02615e+00
8.01965e+02,1.39200e+04,1.08600e+03,1.28340e+04,7.00564e-13,1.03369e+00,3.35189e-13,1.03369e+00,7.54752e-13,1.03369e+00
8.02215e+02,1.33600e+04,9.03000e+02,1.24570e+04,1.04469e-12,1.04124e+00,6.46242e-13,1.04124e+00,1.14081e-12,1.04124e+00
8.02464e+02,1.29610e+04,1.18300e+03,1.17780e+04,8.76378e-13,1.04878e+00,7.68327e-13,1.04878e+00,8.88026e-13,1.04878e+00
8.02713e+02,1.24580e+04,1.82100e+03,1.06370e+04,2.84205e-13,1.05633e+00,8.01776e-13,1.05633e+00,6.50948e-13,1.05633e+00
8.02963e+02,1.15680e+04,2.87800e+03,8.69000e+03,6.68040e-13,1.06387e+00,1.60553e-13,1.06387e+00,5.09584e-13,1.06387e+00
8.03212e+02,1.04990e+04,4.16800e+03,6.33100e+03,6.62540e-13,1.07142e+00,4.96477e-13,1.07142e+00,5.85082e-13,1.07142e+00
8.03462e+02,9.07500e+03,5.95200e+03,3.12300e+03,5.96617e-13,1.07896e+00,5.86728e-13,1.07896e+00,9.74094e-13,1.07896e+00
8.03711e+02,7.25700e+03,7.26500e+03,-8.00000e+00,7.43949e-13,1.08651e+00,3.33076e-13,1.08651e+00,9.98363e-13,1.08651e+00
8.03961e+02,5.15500e+03,8.17000e+03,-3.01500e+03,6.18043e-13,1.09405e+00,7.75391e-13,1.09405e+00,7.34498e-13,1.09405e+00
8.04210e+02,3.48100e+03,9.17500e+03,-5.69400e+03,4.85293e-13,1.10160e+00,9.16489e-13,1.10160e+00,5.07680e-13,1.10160e+00
8.04460e+02,2.35200e+03,1.05740e+04,-8.22200e+03,7.70838e-13,1.10914e+00,5.31652e-13,1.10914e+00,3.01243e-13,1.10914e+00
8.04709e+02,1.55500e+03,1.24370e+04,-1.08820e+04,7.11532e-13,1.11669e+00,3.13339e-13,1.11669e+00,5.63528e-13,1.11669e+00
8.04958e+02,1.07400e+03,1.38190e+04,-1.27450e+04,2.58313e-13,1.12423e+00,5.43780e-14,1.12423e+00,2.07845e-13,1.12423e+00
8.05208e+02,8.75000e+02,1.48740e+04,-1.39990e+04,2.48501e-13,1.13178e+00,3.40261e-14,1.13178e+00,2.81901e-13,1.13178e+00
8.05457e+02,1.20400e+03,1.50290e+04,-1.38250e+04,9.44669e-14,1.13932e+00,3.38897e-13,1.13932e+00,3.07093e-13,1.13932e+00
8.05707e+02,1.82000e+03,1.54530e+04,-1.36330e+04,3.98784e-13,1.14687e+00,4.81236e-13,1.14687e+00,3.87082e-13,1.14687e+00
8.05956e+02,2.86800e+03,1.55580e+04,-1.26900e+04,3.72675e-13,1.15442e+00,5.54051e-13,1.15442e+00,6.03590e-13,1.15442e+00
8.06205e+02,4.01400e+03,1.52570e+04,-1.12430e+04,2.15985e-13,1.16196e+00,4.60522e-13,1.16196e+00,4.92184e-13,1.16196e+00
8.06455e+02,5.38300e+03,1.47800e+04,-9.39700e+03,2.62928e-13,1.16951e+00,3.61677e-13,1.16951e+00,3.98152e-13,1.16951e+00
8.06704e+02,7.05200e+03,1.44740e+04,-7.42200e+03,4.33227e-13,1.17705e+00,6.45817e-14,1.17705e+00,3.70739e-13,1.17705e+00
8.06953e+02,9.37200e+03,1.42860e+04,-4.91400e+03,3.42589e-13,1.18460e+00,4.02141e-13,1.18460e+00,4.56195e-13,1.18460e+00
8.07203e+02,1.02030e+04,1.18680e+04,-1.66500e+03,2.99419e-13,1.19214e+00,5.57423e-13,1.19214e+00,5.93036e-13,1.19214e+00
8.07452e+02,1.16360e+04,1.01910e+04,1.44500e+03,2.72990e-13,1.19969e+00,7.81870e-13,1.19969e+00,6.79892e-13,1.19969e+00
8.07701e+02,1.32350e+04,8.80400e+03,4.43100e+03,3.43871e-13,1.20723e+00,7.29505e-13,1.20723e+00,6.10554e-13,1.20723e+00
8.07951e+02,1.39100e+04,6.97300e+03,6.93700e+03,4.57407e-13,1.21478e+00,3.79282e-13,1.21478e+00,4.14875e-13,1.21478e+00
8.08200e+02,1.40940e+04,5.08400e+03,9.01000e+03,4.58544e-13,1.22232e+00,1.76198e-13,1.22232e+00,6.00495e-13,1.22232e+00
8.08449e+02,1.49240e+04,3.85400e+03,1.10700e+04,3.16790e-13,1.22987e+00,3.49916e-13,1.22987e+00,5.81527e-13,1.22987e+00
8.08698e+02,1.56160e+04,2.96000e+03,1.26560e+04,3.38327e-13,1.23741e+00,7.22251e-13,1.23741e+00,7.97482e-13,1.23741e+00
8.08948e+02,1.57530e+04,2.07900e+03,1.36740e+04,1.60747e-13,1.24496e+00,7.82529e-13,1.24496e+00,7.65595e-13,1.24496e+00
8.09197e+02,1.58180e+04,1.31500e+03,1.45030e+04,2.51745e-14,1.25250e+00,3.92518e-13,1.25250e+00,3.88139e-13,1.25250e+00
8.09446e+02,1.57330e+04,1.09500e+03,1.46380e+04,4.52041e-13,1.26005e+00,3.56328e-13,1.26005e+00,3.78619e-13,1.26005e+00
8.09695e+02,1.56470e+04,1.26500e+03,1.43820e+04,7.05320e-13,1.26759e+00,4.54954e-13,1.26759e+00,4.97899e-13,1.26759e+00
8.09945e+02,1.53680e+04,2.00300e+03,1.33650e+04,3.83448e-13,1.27514e+00,2.38370e-13,1.27514e+00,3.08481e-13,1.27514e+00
8.10194e+02,1.42680e+04,3.14900e+03,1.11190e+04,3.87721e-13,1.28268e+00,1.96251e-13,1.28268e+00,1.91482e-13,1.28268e+00
8.10443e+02,1.22810e+04,4.42100e+03,7.86000e+03,4.12207e-13,1.29023e+00,4.68936e-13,1.29023e+00,2.59306e-13,1.29023e+00
8.10692e+02,1.05290e+04,6.13800e+03,4.39100e+03,1.81344e-13,1.29777e+00,3.37260e-13,1.29777e+00,4.34468e-13,1.29777e+00
8.10941e+02,8.95400e+03,8.11200e+03,8.42000e+02,3.20436e-13,1.30532e+00,3.78327e-13,1.30532e+00,9.99622e-14,1.30532e+00
8.11191e+02,6.20000e+03,9.23200e+03,-3.03200e+03,4.65275e-13,1.31286e+00,2.80518e-13,1.31286e+00,4.30733e-13,1.31286e+00
8.11440e+02,4.67700e+03,1.15610e+04,-6.88400e+03,1.95826e-12,-1.32041e+00,1.27800e-12,-1.32041e+00,6.80259e-13,-1.32041e+00
8.11689e+02,3.50000e+03,1.41200e+04,-1.06200e+04,4.65275e-13,-1.31286e+00,2.80518e-13,-1.31286e+00,4.30733e-13,-1.31286e+00
8.11938e+02,2.30800e+03,1.50760e+04,-1.27680e+04,3.20436e-13,-1.30532e+00,3.78327e-13,-1.30532e+00,9.99622e-14,-1.30532e+00
8.12187e+02,1.47800e+03,1.55330e+04,-1.40550e+04,1.81344e-13,-1.29777e+00,3.37260e-13,-1.29777e+00,4.34468e-13,-1.29777e+00
8.12436e+02,1.14100e+03,1.56130e+04,-1.44720e+04,4.12207e-13,-1.29023e+00,4.68936e-13,-1.29023e+00,2.59306e-13,-1.29023e+00
8.12685e+02,1.21800e+03,1.55450e+04,-1.43270e+04,3.87721e-13,-1.28268e+00,1.96251e-13,-1.28268e+00,1.91482e-13,-1.28268e+00
8.12935e+02,1.81300e+03,1.57520e+04,-1.39390e+04,3.83448e-13,-1.27514e+00,2.38370e-13,-1.27514e+00,3.08481e-13,-1.27514e+00
8.13184e+02,2.72500e+03,1.58080e+04,-1.30830e+04,7.05320e-13,-1.26759e+00,4.54954e-13,-1.26759e+00,4.97899e-13,-1.26759e+00
8.13433e+02,3.87300e+03,1.58040e+04,-1.19310e+04,4.52041e-13,-1.26005e+00,3.56328e-13,-1.26005e+00,3.78619e-13,-1.26005e+00
8.13682e+02,5.60700e+03,1.58600e+04,-1.02530e+04,2.51745e-14,-1.25250e+00,3.92518e-13,-1.25250e+00,3.88139e-13,-1.25250e+00
8.13931e+02,7.74400e+03,1.58420e+04,-8.09800e+03,1.60747e-13,-1.24496e+00,7.82529e-13,-1.24496e+00,7.65595e-13,-1.24496e+00
8.14180e+02,8.64500e+03,1.53810e+04,-6.73600e+03,3.38327e-13,-1.23741e+00,7.22251e-13,-1.23741e+00,7.97482e-13,-1.23741e+00
8.14429e+02,1.03940e+04,1.42180e+04,-3.82400e+03,3.16790e-13,-1.22987e+00,3.49916e-13,-1.22987e+00,5.81527e-13,-1.22987e+00
8.14678e+02,1.21200e+04,1.23820e+04,-2.62000e+02,4.58544e-13,-1.22232e+00,1.76198e-13,-1.22232e+00,6.00495e-13,-1.22232e+00
8.14927e+02,1.25550e+04,9.82300e+03,2.73200e+03,4.57407e-13,-1.21478e+00,3.79282e-13,-1.21478e+00,4.14875e-13,-1.21478e+00
8.15176e+02,1.34360e+04,8.05100e+03,5.38500e+03,3.43871e-13,-1.20723e+00,7.29505e-13,-1.20723e+00,6.10554e-13,-1.20723e+00
8.15425e+02,1.40240e+04,6.31200e+03,7.71200e+03,2.72990e-13,-1.19969e+00,7.81870e-13,-1.19969e+00,6.79892e-13,-1.19969e+00
8.15674e+02,1.49880e+04,5.03200e+03,9.95600e+03,2.99419e-13,-1.19214e+00,5.57423e-13,-1.19214e+00,5.93036e-13,-1.19214e+00
8.15923e+02,1.56850e+04,4.19400e+03,1.14910e+04,3.42589e-13,-1.18460e+00,4.02141e-13,-1.18460e+00,4.56195e-13,-1.18460e+00
8.16172e+02,1.56870e+04,2.93000e+03,1.27570e+04,4.33227e-13,-1.17705e+00,6.45817e-14,-1.17705e+00,3.70739e-13,-1.17705e+00
8.16421e+02,1.52430e+04,1.85400e+03,1.33890e+04,2.62928e-13,-1.16951e+00,3.61677e-13,-1.16951e+00,3.98152e-13,-1.16951e+00
8.16670e+02,1.46960e+04,1.18900e+03,1.35070e+04,2.15985e-13,-1.16196e+00,4.60522e-13,-1.16196e+00,4.92184e-13,-1.16196e+00
8.16919e+02,1.50350e+04,1.07900e+03,1.39560e+04,3.72675e-13,-1.15442e+00,5.54051e-13,-1.15442e+00,6.03590e-13,-1.15442e+00
8.17168e+02,1.36980e+04,1.16000e+03,1.25380e+04,3.98784e-13,-1.14687e+00,4.81236e-13,-1.14687e+00,3.87082e-13,-1.14687e+00
8.17417e+02,1.23940e+04,1.65000e+03,1.07440e+04,9.44669e-14,-1.13932e+00,3.38897e-13,-1.13932e+00,3.07093e-13,-1.13932e+00
8.17666e+02,1.18940e+04,2.38400e+03,9.51000e+03,2.48501e-13,-1.13178e+00,3.40261e-14,-1.13178e+00,2.81901e-13,-1.13178e+00
8.17915e+02,1.05050e+04,3.33200e+03,7.17300e+03,2.58313e-13,-1.12423e+00,5.43780e-14,-1.12423e+00,2.07845e-13,-1.12423e+00
8.18164e+02,8.77800e+03,3.98800e+03,4.79000e+03,7.11532e-13,-1.11669e+00,3.13339e-13,-1.11669e+00,5.63528e-13,-1.11669e+00
8.18413e+02,7.02100e+03,4.99800e+03,2.02300e+03,7.70838e-13,-1.10914e+00,5.31652e-13,-1.10914e+00,3.01243e-13,-1.10914e+00
8.18662e+02,5.08400e+03,5.41500e+03,-3.31000e+02,4.85293e-13,-1.10160e+00,9.16489e-13,-1.10160e+00,5.07680e-13,-1.10160e+00
8.18911e+02,4.38800e+03,6.97800e+03,-2.59000e+03,6.18043e-13,-1.09405e+00,7.75391e-13,-1.09405e+00,7.34498e-13,-1.09405e+00
8.19160e+02,3.37700e+03,7.84400e+03,-4.46700e+03,7.43949e-13,-1.08651e+00,3.33076e-13,-1.08651e+00,9.98363e-13,-1.08651e+00
8.19408e+02,2.49100e+03,8.86400e+03,-6.37300e+03,5.96617e-13,-1.07896e+00,5.86728e-13,-1.07896e+00,9.74094e-13,-1.07896e+00
8.19657e+02,1.84700e+03,1.12420e+04,-9.39500e+03,6.62540e-13,-1.07142e+00,4.96477e-13,-1.07142e+00,5.85082e-13,-1.07142e+00
8.19906e+02,1.35700e+03,1.30160e+04,-1.16590e+04,6.68040e-13,-1.06387e+00,1.60553e-13,-1.06387e+00,5.09584e-13,-1.06387e+00
8.20155e+02,9.77000e+02,1.38880e+04,-1.29110e+04,2.84205e-13,-1.05633e+00,8.01776e-13,-1.05633e+00,6.50948e-13,-1.05633e+00
8.20404e+02,1.01300e+03,1.36740e+04,-1.26610e+04,8.76378e-13,-1.04878e+00,7.68327e-13,-1.04878e+00,8.88026e-13,-1.04878e+00
8.20653e+02,1.03300e+03,1.25490e+04,-1.15160e+04,1.04469e-12,-1.04124e+00,6.46242e-13,-1.04124e+00,1.14081e-12,-1.04124e+00
8.20901e+02,1.55200e+03,1.26740e+04,-1.11220e+04,7.00564e-13,-1.03369e+00,3.35189e-13,-1.03369e+00,7.54752e-13,-1.03369e+00
8.21150e+02,2.13800e+03,1.32260e+04,-1.10880e+04,8.73952e-13,-1.02615e+00,6.75148e-13,-1.02615e+00,1.16823e-12,-1.02615e+00
8.21399e+02,2.63300e+03,1.11280e+04,-8.49500e+03,6.59273e-13,-1.01860e+00,1.17253e-12,-1.01860e+00,1.32519e-12,-1.01860e+00
8.21648e+02,3.54500e+03,1.10110e+04,-7.46600e+03,5.43409e-13,-1.01106e+00,1.03948e-12,-1.01106e+00,6.69272e-13,-1.01106e+00
8.21897e+02,4.53500e+03,1.06240e+04,-6.08900e+03,7.37058e-13,-1.00351e+00,2.09091e-13,-1.00351e+00,8.11065e-13,-1.00351e+00
8.22145e+02,4.94000e+03,8.92700e+03,-3.98700e+03,5.25817e-13,-9.95966e-01,1.05551e-12,-9.95966e-01,5.37921e-13,-9.95966e-01
8.22394e+02,6.05300e+03,8.10600e+03,-2.05300e+03,4.07939e-13,-9.88421e-01,1.25265e-12,-9.88421e-01,9.36457e-13,-9.88421e-01
8.22643e+02,7.04900e+03,7.40800e+03,-3.59000e+02,4.47274e-13,-9.80876e-01,8.61649e-13,-9.80876e-01,4.27931e-13,-9.80876e-01
8.22892e+02,7.62800e+03,6.23100e+03,1.39700e+03,5.75857e-13,-9.73331e-01,1.03772e-12,-9.73331e-01,8.26362e-13,-9.73331e-01
8.23140e+02,8.69000e+03,5.18500e+03,3.50500e+03,5.94368e-13,-9.65785e-01,9.90272e-13,-9.65785e-01,5.89423e-13,-9.65785e-01
8.23389e+02,9.48900e+03,4.25400e+03,5.23500e+03,8.75664e-13,-9.58240e-01,8.55242e-13,-9.58240e-01,1.90343e-13,-9.58240e-01
8.23638e+02,9.72900e+03,3.40600e+03,6.32300e+03,7.57617e-13,-9.50695e-01,7.93684e-13,-9.50695e-01,3.84538e-14,-9.50695e-01
8.23887e+02,9.51500e+03,2.48300e+03,7.03200e+03,7.60690e-13,-9.43150e-01,5.05368e-13,-9.43150e-01,3.50606e-13,-9.43150e-01
8.24135e+02,9.39600e+03,1.70100e+03,7.69500e+03,1.25668e-12,-9.35605e-01,1.00976e-12,-9.35605e-01,3.08069e-13,-9.35605e-01
8.24384e+02,9.57600e+03,1.19000e+03,8.38600e+03,1.05030e-12,-9.28059e-01,1.43198e-12,-9.28059e-01,3.94130e-13,-9.28059e-01
8.24633e+02,1.01940e+04,8.68000e+02,9.32600e+03,9.64826e-13,-9.20514e-01,1.39080e-12,-9.20514e-01,5.31214e-13,-9.20514e-01
8.24881e+02,9.79300e+03,7.54000e+02,9.03900e+03,1.10121e-12,-9.12969e-01,1.35648e-12,-9.12969e-01,4.30443e-13,-9.12969e-01
8.25130e+02,9.55000e+03,7.56000e+02,8.79400e+03,4.36600e-13,-9.05424e-01,1.34371e-12,-9.05424e-01,1.16176e-12,-9.05424e-01
8.25379e+02,9.28400e+03,1.02600e+03,8.25800e+03,7.58448e-13,-8.97879e-01,1.22513e-12,-8.97879e-01,6.97024e-13,-8.97879e-01
8.25627e+02,7.66400e+03,1.22800e+03,6.43600e+03,1.04395e-12,-8.90333e-01,7.40073e-13,-8.90333e-01,3.10400e-13,-8.90333e-01
8.25876e+02,6.77100e+03,1.66100e+03,5.11000e+03,9.56641e-13,-8.82788e-01,1.09942e-12,-8.82788e-01,1.18244e-12,-8.82788e-01
8.26125e+02,5.75400e+03,2.16300e+03,3.59100e+03,1.05588e-12,-8.75243e-01,1.38778e-12,-8.75243e-01,1.45551e-12,-8.75243e-01
8.26373e+02,4.38800e+03,2.55400e+03,1.83400e+03,1.36082e-12,-8.67698e-01,5.41825e-13,-8.67698e-01,1.12189e-12,-8.67698e-01
8.26622e+02,3.40200e+03,2.94000e+03,4.62000e+02,1.11963e-12,-8.60153e-01,5.25490e-13,-8.60153e-01,1.63546e-12,-8.60153e-01
8.26870e+02,2.56400e+03,3.10300e+03,-5.39000e+02,1.27838e-12,-8.52607e-01,5.50970e-13,-8.52607e-01,1.82500e-12,-8.52607e-01
8.27119e+02,1.98100e+03,3.86100e+03,-1.88000e+03,1.22521e-12,-8.45062e-01,8.62341e-13,-8.45062e-01,1.44051e-12,-8.45062e-01
8.27368e+02,1.78400e+03,4.85400e+03,-3.07000e+03,1.10939e-12,-8.37517e-01,1.49608e-12,-8.37517e-01,6.16647e-13,-8.37517e-01
8.27616e+02,1.27800e+03,5.02100e+03,-3.74300e+03,7.71851e-13,-8.29972e-01,1.78341e-12,-8.29972e-01,1.04649e-12,-8.29972e-01
8.27865e+02,9.59000e+02,5.25200e+03,-4.29300e+03,4.51591e-13,-8.22427e-01,1.12334e-12,-8.22427e-01,6.98219e-13,-8.22427e-01
8.28113e+02,7.16000e+02,6.10100e+03,-5.38500e+03,1.60708e-13,-8.14881e-01,2.02633e-13,-8.14881e-01,2.92266e-13,-8.14881e-01
8.28362e+02,6.78000e+02,6.70400e+03,-6.02600e+03,2.24419e-13,-8.07336e-01,8.41723e-13,-8.07336e-01,9.07699e-13,-8.07336e-01
8.28610e+02,6.57000e+02,6.15000e+03,-5.49300e+03,7.37471e-13,-7.99791e-01,1.10029e-12,-7.99791e-01,4.05312e-13,-7.99791e-01
8.28859e+02,7.16000e+02,5.98900e+03,-5.27300e+03,1.55950e-12,-7.92246e-01,1.30138e-12,-7.92246e-01,8.67806e-13,-7.92246e-01
8.29108e+02,8.05000e+02,5.47800e+03,-4.67300e+03,1.06816e-12,-7.84701e-01,8.62646e-13,-7.84701e-01,8.93541e-13,-7.84701e-01
8.29356e+02,1.00800e+03,4.67700e+03,-3.66900e+03,1.80153e-13,-7.77155e-01,4.68244e-13,-7.77155e-01,4.21667e-13,-7.77155e-01
8.29605e+02,1.17400e+03,4.15300e+03,-2.97900e+03,5.52574e-13,-7.69610e-01,7.55590e-13,-7.69610e-01,4.03482e-13,-7.69610e-01
8.29853e+02,1.51000e+03,3.69900e+03,-2.18900e+03,2.55679e-13,-7.62065e-01,4.99791e-13,-7.62065e-01,3.31539e-13,-7.62065e-01
8.30101e+02,1.82400e+03,3.56300e+03,-1.73900e+03,7.18861e-13,-7.54520e-01,4.45777e-13,-7.54520e-01,6.12037e-13,-7.54520e-01
8.30350e+02,2.31100e+03,3.43600e+03,-1.12500e+03,9.56688e-13,-7.46975e-01,1.34833e-12,-7.46975e-01,1.26463e-12,-7.46975e-01
8.30598e+02,2.33700e+03,2.69400e+03,-3.57000e+02,3.50084e-13,-7.39429e-01,1.30531e-12,-7.39429e-01,1.04519e-12,-7.39429e-01
8.30847e+02,2.60300e+03,2.35100e+03,2.52000e+02,3.93403e-13,-7.31884e-01,1.68040e-13,-7.31884e-01,5.60875e-13,-7.31884e-01
8.31095e+02,2.93100e+03,2.07300e+03,8.58000e+02,6.36812e-13,-7.24339e-01,1.40789e-12,-7.24339e-01,1.32756e-12,-7.24339e-01
8.31344e+02,2.97700e+03,1.69200e+03,1.28500e+03,6.34130e-13,-7.16794e-01,1.44165e-12,-7.16794e-01,1.14258e-12,-7.16794e-01
8.31592e+02,3.00300e+03,1.30400e+03,1.69900e+03,6.65489e-13,-7.09249e-01,1.65181e-12,-7.09249e-01,1.16448e-12,-7.09249e-01
8.31841e+02,2.97300e+03,1.02700e+03,1.94600e+03,8.43276e-13,-7.01703e-01,2.26448e-12,-7.01703e-01,1.53969e-12,-7.01703e-01
8.32089e+02,3.04400e+03,8.02000e+02,2.24200e+03,1.39285e-14,-6.94158e-01,1.47434e-12,-6.94158e-01,1.48689e-12,-6.94158e-01
8.32337e+02,3.23200e+03,7.30000e+02,2.50200e+03,1.26874e-12,-6.86613e-01,3.67206e-13,-6.86613e-01,1.50101e-12,-6.86613e-01
8.32586e+02,2.88300e+03,6.53000e+02,2.23000e+03,1.77286e-12,-6.79068e-01,5.69765e-13,-6.79068e-01,1.45235e-12,-6.79068e-01
8.32834e+02,2.85600e+03,6.80000e+02,2.17600e+03,1.27446e-12,-6.71523e-01,8.51258e-13,-6.71523e-01,7.59157e-13,-6.71523e-01
8.33083e+02,2.52700e+03,6.27000e+02,1.90000e+03,6.08691e-13,-6.63977e-01,1.06106e-12,-6.63977e-01,6.72017e-13,-6.63977e-01
8.33331e+02,2.19800e+03,6.61000e+02,1.53700e+03,1.07593e-12,-6.56432e-01,1.51466e-12,-6.56432e-01,1.52447e-12,-6.56432e-01
8.33579e+02,1.97100e+03,6.98000e+02,1.27300e+03,1.74787e-12,-6.48887e-01,2.02653e-12,-6.48887e-01,1.33522e-12,-6.48887e-01
8.33828e+02,1.74400e+03,7.66000e+02,9.78000e+02,1.97203e-12,-6.41342e-01,1.85066e-12,-6.41342e-01,2.10987e-13,-6.41342e-01
8.34076e+02,1.45200e+03,7.95000e+02,6.57000e+02,2.01680e-12,-6.33797e-01,1.83278e-12,-6.33797e-01,1.04375e-12,-6.33797e-01
8.34324e+02,1.37200e+03,9.63000e+02,4.09000e+02,1.63352e-12,-6.26251e-01,1.19636e-12,-6.26251e-01,1.43048e-12,-6.26251e-01
8.34573e+02,1.11600e+03,1.04300e+03,7.30000e+01,8.73488e-13,-6.18706e-01,4.55953e-13,-6.18706e-01,8.87484e-13,-6.18706e-01
8.34821e+02,9.80000e+02,1.18100e+03,-2.01000e+02,4.02960e-13,-6.11161e-01,1.32070e-12,-6.11161e-01,1.09469e-12,-6.11161e-01
8.35069e+02,8.10000e+02,1.23900e+03,-4.29000e+02,1.13217e-12,-6.03616e-01,1.41868e-12,-6.03616e-01,1.48949e-12,-6.03616e-01
8.35318e+02,7.66000e+02,1.49700e+03,-7.31000e+02,1.44349e-12,-5.96071e-01,1.27564e-12,-5.96071e-01,1.05983e-12,-5.96071e-01
8.35566e+02,6.57000e+02,1.42900e+03,-7.72000e+02,1.05892e-12,-5.88525e-01,8.29648e-13,-5.88525e-01,2.42962e-13,-5.88525e-01
8.35814e+02,6.60000e+02,1.48800e+03,-8.28000e+02,8.47227e-13,-5.80980e-01,6.78749e-13,-5.80980e-01,1.35011e-12,-5.80980e-01
8.36062e+02,6.28000e+02,1.40600e+03,-7.78000e+02,6.76379e-13,-5.73435e-01,1.24785e-12,-5.73435e-01,1.91589e-12,-5.73435e-01
8.36311e+02,6.28000e+02,1.44100e+03,-8.13000e+02,1.86861e-13,-5.65890e-01,1.96958e-12,-5.65890e-01,1.86624e-12,-5.65890e-01
8.36559e+02,6.42000e+02,1.43100e+03,-7.89000e+02,1.31913e-12,-5.58345e-01,1.91852e-12,-5.58345e-01,1.76737e-12,-5.58345e-01
8.36807e+02,6.36000e+02,1.50500e+03,-8.69000e+02,1.35793e-12,-5.50799e-01,1.27947e-12,-5.50799e-01,1.89717e-12,-5.50799e-01
8.37055e+02,6.47000e+02,1.33300e+03,-6.86000e+02,1.00829e-12,-5.43254e-01,4.35081e-14,-5.43254e-01,1.05151e-12,-5.43254e-01
8.37304e+02,6.48000e+02,1.27400e+03,-6.26000e+02,1.01300e-12,-5.35709e-01,1.26040e-12,-5.35709e-01,6.38269e-13,-5.35709e-01
8.37552e+02,6.68000e+02,1.16900e+03,-5.01000e+02,8.98555e-13,-5.28164e-01,1.51342e-12,-5.28164e-01,6.31023e-13,-5.28164e-01
8.37800e+02,7.09000e+02,1.09700e+03,-3.88000e+02,8.37839e-13,-5.20619e-01,7.53072e-13,-5.20619e-01,1.23061e-13,-5.20619e-01
8.38048e+02,6.83000e+02,9.04000e+02,-2.21000e+02,1.56294e-12,-5.13073e-01,2.12261e-12,-5.13073e-01,7.25461e-13,-5.13073e-01
8.38296e+02,6.99000e+02,8.61000e+02,-1.62000e+02,8.73511e-13,-5.05528e-01,2.50361e-12,-5.05528e-01,1.75122e-12,-5.05528e-01
8.38545e+02,7.31000e+02,7.78000e+02,-4.70000e+01,4.24959e-13,-4.97983e-01,1.01020e-12,-4.97983e-01,1.42688e-12,-4.97983e-01
8.38793e+02,7.66000e+02,7.41000e+02,2.50000e+01,1.25774e-12,-4.90438e-01,1.06530e-12,-4.90438e-01,1.21640e-12,-4.90438e-01
8.39041e+02,7.53000e+02,6.90000e+02,6.30000e+01,1.03839e-12,-4.82893e-01,2.34227e-12,-4.82893e-01,2.94296e-12,-4.82893e-01
8.39289e+02,7.92000e+02,6.60000e+02,1.32000e+02,4.38236e-13,-4.75347e-01,3.01696e-12,-4.75347e-01,3.44650e-12,-4.75347e-01
8.39537e+02,7.69000e+02,6.63000e+02,1.06000e+02,1.81606e-13,-4.67802e-01,2.17955e-12,-4.67802e-01,2.02791e-12,-4.67802e-01
8.39785e+02,7.81000e+02,6.51000e+02,1.30000e+02,1.38059e-12,-4.60257e-01,1.35631e-12,-4.60257e-01,7.91571e-13,-4.60257e-01
8.40033e+02,7.58000e+02,6.39000e+02,1.19000e+02,1.71888e-12,-4.52712e-01,5.48038e-13,-4.52712e-01,1.86468e-12,-4.52712e-01
8.40281e+02,8.34000e+02,6.71000e+02,1.63000e+02,1.34972e-12,-4.45167e-01,1.39070e-12,-4.45167e-01,2.63251e-12,-4.45167e-01
8.40530e+02,7.58000e+02,6.19000e+02,1.39000e+02,3.53117e-13,-4.37621e-01,2.31204e-12,-4.37621e-01,2.58399e-12,-4.37621e-01
8.40778e+02,7.70000e+02,6.32000e+02,1.38000e+02,7.19851e-13,-4.30076e-01,1.78043e-12,-4.30076e-01,1.24705e-12,-4.30076e-01
8.41026e+02,7.36000e+02,6.30000e+02,1.06000e+02,9.70405e-13,-4.22531e-01,1.98623e-12,-4.22531e-01,2.21770e-12,-4.22531e-01
8.41274e+02,7.13000e+02,6.26000e+02,8.70000e+01,5.05679e-13,-4.14986e-01,2.32512e-12,-4.14986e-01,2.09863e-12,-4.14986e-01
8.41522e+02,6.80000e+02,6.41000e+02,3.90000e+01,2.70425e-13,-4.07441e-01,1.90776e-12,-4.07441e-01,1.88958e-12,-4.07441e-01
8.41770e+02,6.93000e+02,6.34000e+02,5.90000e+01,8.31791e-13,-3.99895e-01,1.12331e-12,-3.99895e-01,1.84786e-12,-3.99895e-01
8.42018e+02,6.53000e+02,6.35000e+02,1.80000e+01,1.09292e-12,-3.92350e-01,1.35206e-12,-3.92350e-01,7.39077e-13,-3.92350e-01
8.42266e+02,6.68000e+02,6.43000e+02,2.50000e+01,9.34628e-13,-3.84805e-01,1.76189e-12,-3.84805e-01,8.42137e-13,-3.84805e-01
8.42514e+02,6.43000e+02,6.46000e+02,-3.00000e+00,1.01325e-12,-3.77260e-01,1.53222e-12,-3.77260e-01,5.20688e-13,-3.77260e-01
8.42762e+02,6.76000e+02,6.71000e+02,5.00000e+00,2.30285e-12,-3.69715e-01,3.53535e-12,-3.69715e-01,1.24523e-12,-3.69715e-01
8.43010e+02,6.33000e+02,6.24000e+02,9.00000e+00,2.84219e-12,-3.62169e-01,3.34299e-12,-3.62169e-01,8.41957e-13,-3.62169e-01
8.43258e+02,6.33000e+02,6.58000e+02,-2.50000e+01,2.55539e-12,-3.54624e-01,2.79946e-12,-3.54624e-01,5.91537e-13,-3.54624e-01
8.43506e+02,6.38000e+02,6.55000e+02,-1.70000e+01,1.66319e-12,-3.47079e-01,3.55992e-12,-3.47079e-01,2.40711e-12,-3.47079e-01
8.43754e+02,6.38000e+02,6.42000e+02,-4.00000e+00,1.35951e-12,-3.39534e-01,2.75641e-12,-3.39534e-01,3.53982e-12,-3.39534e-01
8.44002e+02,6.27000e+02,6.38000e+02,-1.10000e+01,1.14479e-12,-3.31989e-01,1.36214e-12,-3.31989e-01,2.15285e-12,-3.31989e-01
8.44250e+02,6.23000e+02,6.39000e+02,-1.60000e+01,1.48003e-12,-3.24444e-01,3.06091e-12,-3.24444e-01,3.52062e-12,-3.24444e-01
8.44498e+02,6.41000e+02,6.58000e+02,-1.70000e+01,2.00090e-12,-3.16898e-01,4.69592e-12,-3.16898e-01,3.67965e-12,-3.16898e-01
8.44746e+02,6.35000e+02,6.50000e+02,-1.50000e+01,2.62329e-12,-3.09353e-01,5.20738e-12,-3.09353e-01,3.45014e-12,-3.09353e-01
8.44994e+02,6.28000e+02,6.30000e+02,-2.00000e+00,3.80794e-12,-3.01808e-01,2.93810e-12,-3.01808e-01,4.70279e-12,-3.01808e-01
8.45242e+02,6.63000e+02,6.81000e+02,-1.80000e+01,3.30430e-12,-2.94263e-01,1.47986e-12,-2.94263e-01,3.60758e-12,-2.94263e-01
8.45490e+02,6.08000e+02,6.35000e+02,-2.70000e+01,1.78581e-12,-2.86718e-01,2.28970e-12,-2.86718e-01,2.00481e-12,-2.86718e-01
8.45738e+02,6.23000e+02,6.48000e+02,-2.50000e+01,8.97130e-13,-2.79172e-01,2.42312e-12,-2.79172e-01,3.30058e-12,-2.79172e-01
8.45985e+02,6.31000e+02,6.41000e+02,-1.00000e+01,2.09261e-12,-2.71627e-01,9.62811e-13,-2.71627e-01,2.25453e-12,-2.71627e-01
8.46233e+02,6.29000e+02,6.30000e+02,-1.00000e+00,1.41351e-12,-2.64082e-01,1.57176e-12,-2.64082e-01,2.62011e-12,-2.64082e-01
8.46481e+02,6.32000e+02,6.37000e+02,-5.00000e+00,2.59355e-12,-2.56537e-01,2.45922e-12,-2.56537e-01,3.24736e-12,-2.56537e-01
8.46729e+02,6.44000e+02,6.52000e+02,-8.00000e+00,2.88857e-12,-2.48992e-01,6.09940e-12,-2.48992e-01,3.94527e-12,-2.48992e-01
8.46977e+02,6.38000e+02,6.28000e+02,1.00000e+01,1.68541e-12,-2.41446e-01,6.50048e-12,-2.41446e-01,4.82948e-12,-2.41446e-01
8.47225e+02,6.48000e+02,6.26000e+02,2.20000e+01,1.09383e-12,-2.33901e-01,5.59021e-12,-2.33901e-01,4.56339e-12,-2.33901e-01
8.47473e+02,6.16000e+02,6.28000e+02,-1.20000e+01,1.76807e-12,-2.26356e-01,5.55384e-12,-2.26356e-01,6.39911e-12,-2.26356e-01
8.47720e+02,6.58000e+02,6.60000e+02,-2.00000e+00,3.41245e-12,-2.18811e-01,4.02329e-12,-2.18811e-01,5.69278e-12,-2.18811e-01
8.47968e+02,6.07000e+02,6.07000e+02,0.00000e+00,3.34094e-12,-2.11266e-01,4.36302e-12,-2.11266e-01,5.24568e-12,-2.11266e-01
8.48216e+02,6.27000e+02,6.29000e+02,-2.00000e+00,2.39605e-12,-2.03720e-01,4.76423e-12,-2.03720e-01,5.91931e-12,-2.03720e-01
8.48464e+02,6.30000e+02,6.21000e+02,9.00000e+00,3.73235e-12,-1.96175e-01,3.29673e-12,-1.96175e-01,4.69364e-12,-1.96175e-01
8.48712e+02,6.33000e+02,6.29000e+02,4.00000e+00,7.27254e-12,-1.88630e-01,4.23826e-12,-1.88630e-01,4.44191e-12,-1.88630e-01
8.48960e+02,6.43000e+02,6.33000e+02,1.00000e+01,1.01196e-11,-1.81085e-01,3.81181e-12,-1.81085e-01,7.03175e-12,-1.81085e-01
8.49207e+02,6.40000e+02,6.40000e+02,0.00000e+00,9.21769e-12,-1.73540e-01,1.74499e-12,-1.73540e-01,8.22379e-12,-1.73540e-01
8.49455e+02,6.29000e+02,6.40000e+02,-1.10000e+01,7.58129e-12,-1.65994e-01,4.47942e-12,-1.65994e-01,8.91975e-12,-1.65994e-01
8.49703e+02,6.27000e+02,6.32000e+02,-5.00000e+00,5.75162e-12,-1.58449e-01,9.16852e-12,-1.58449e-01,9.15071e-12,-1.58449e-01
8.49951e+02,6.26000e+02,6.36000e+02,-1.00000e+01,5.92982e-12,-1.50904e-01,7.06682e-12,-1.50904e-01,5.32811e-12,-1.50904e-01
8.50198e+02,6.70000e+02,6.58000e+02,1.20000e+01,4.73291e-12,-1.43359e-01,1.32031e-12,-1.43359e-01,3.46392e-12,-1.43359e-01
8.50446e+02,6.12000e+02,6.22000e+02,-1.00000e+01,1.92819e-12,-1.35814e-01,3.69125e-12,-1.35814e-01,2.01617e-12,-1.35814e-01
8.50694e+02,6.29000e+02,6.32000e+02,-3.00000e+00,5.87848e-12,-1.28268e-01,4.74359e-12,-1.28268e-01,1.04447e-11,-1.28268e-01
8.50941e+02,6.29000e+02,6.40000e+02,-1.10000e+01,9.89856e-12,-1.20723e-01,3.74403e-12,-1.20723e-01,1.27778e-11,-1.20723e-01
8.51189e+02,6.27000e+02,6.30000e+02,-3.00000e+00,4.72527e-12,-1.13178e-01,6.67100e-12,-1.13178e-01,1.06313e-11,-1.13178e-01
8.51437e+02,6.17000e+02,6.33000e+02,-1.60000e+01,2.54197e-11,-1.05633e-01,2.68249e-11,-1.05633e-01,5.09509e-11,-1.05633e-01
8.51685e+02,6.30000e+02,6.21000e+02,9.00000e+00,7.80570e-11,-9.80876e-02,8.48804e-11,-9.80876e-02,1.57291e-10,-9.80876e-02
8.51932e+02,6.25000e+02,6.32000e+02,-7.00000e+00,1.32190e-10,-9.05424e-02,1.35018e-10,-9.05424e-02,2.58835e-10,-9.05424e-02
8.52180e+02,6.31000e+02,6.23000e+02,8.00000e+00,1.21372e-10,-8.29972e-02,1.19064e-10,-8.29972e-02,2.34019e-10,-8.29972e-02
8.52428e+02,6.32000e+02,6.27000e+02,5.00000e+00,6.69823e-11,-7.54520e-02,6.47131e-11,-7.54520e-02,1.28462e-10,-7.54520e-02
8.52675e+02,6.61000e+02,6.62000e+02,-1.00000e+00,2.02393e-11,-6.79068e-02,2.18882e-11,-6.79068e-02,4.02178e-11,-6.79068e-02
8.52923e+02,6.12000e+02,6.11000e+02,1.00000e+00,1.93576e-11,-6.03616e-02,1.37693e-11,-6.03616e-02,2.94090e-11,-6.03616e-02
8.53170e+02,6.34000e+02,6.18000e+02,1.60000e+01,1.84160e-11,-5.28164e-02,7.36144e-12,-5.28164e-02,2.11206e-11,-5.28164e-02
8.53418e+02,6.27000e+02,6.26000e+02,1.00000e+00,8.35024e-12,-4.52712e-02,1.55486e-12,-4.52712e-02,7.26991e-12,-4.52712e-02
8.53666e+02,6.23000e+02,6.38000e+02,-1.50000e+01,2.63939e-12,-3.77260e-02,1.69903e-12,-3.77260e-02,9.40894e-13,-3.77260e-02
8.53913e+02,6.25000e+02,6.32000e+02,-7.00000e+00,5.68749e-12,-3.01808e-02,1.46688e-12,-3.01808e-02,4.23849e-12,-3.01808e-02
8.54161e+02,6.27000e+02,6.25000e+02,2.00000e+00,1.03963e-11,-2.26356e-02,1.35549e-11,-2.26356e-02,3.22375e-12,-2.26356e-02
8.54409e+02,6.25000e+02,6.29000e+02,-4.00000e+00,7.66807e-11,-1.50904e-02,7.55346e-11,-1.50904e-02,2.43264e-12,-1.50904e-02
8.54656e+02,6.29000e+02,6.40000e+02,-1.10000e+01,2.25856e-10,-7.54520e-03,2.23160e-10,-7.54520e-03,3.00556e-12,-7.54520e-03
