7.67698e+02,6.23000e+02,6.40000e+02,-1.70000e+01,3.90599e-10,0.00000e+00,3.87679e-10,0.00000e+00,2.91977e-12,0.00000e+00
7.67949e+02,6.65000e+02,6.66000e+02,-1.00000e+00,2.32579e-10,7.54520e-03,2.29331e-10,7.54520e-03,3.94941e-12,7.54520e-03
7.68199e+02,6.07000e+02,6.27000e+02,-2.00000e+01,8.15357e-11,1.50904e-02,7.87473e-11,1.50904e-02,2.82324e-12,1.50904e-02
7.68450e+02,6.24000e+02,6.46000e+02,-2.20000e+01,1.67435e-11,2.26356e-02,1.26786e-11,2.26356e-02,4.35727e-12,2.26356e-02
7.68701e+02,6.22000e+02,6.16000e+02,6.00000e+00,2.01106e-12,3.01808e-02,2.59430e-12,3.01808e-02,4.60500e-12,3.01808e-02
7.68951e+02,6.31000e+02,6.30000e+02,1.00000e+00,1.32088e-12,3.77260e-02,5.29744e-13,3.77260e-02,1.72427e-12,3.77260e-02
7.69202e+02,6.34000e+02,6.24000e+02,1.00000e+01,4.45448e-12,4.52712e-02,6.29433e-12,4.52712e-02,2.78323e-12,4.52712e-02
7.69453e+02,6.29000e+02,6.20000e+02,9.00000e+00,8.01610e-12,5.28164e-02,1.08226e-11,5.28164e-02,2.86302e-12,5.28164e-02
7.69703e+02,6.36000e+02,6.22000e+02,1.40000e+01,7.13397e-12,6.03616e-02,9.72831e-12,6.03616e-02,2.66383e-12,6.03616e-02
7.69954e+02,6.52000e+02,6.21000e+02,3.10000e+01,5.25108e-12,6.79068e-02,4.72527e-12,6.79068e-02,7.43783e-13,6.79068e-02
7.70205e+02,6.25000e+02,6.42000e+02,-1.70000e+01,3.47060e-12,7.54520e-02,2.75734e-12,7.54520e-02,4.91862e-12,7.54520e-02
7.70455e+02,6.71000e+02,6.92000e+02,-2.10000e+01,3.32619e-12,8.29972e-02,3.71464e-12,8.29972e-02,6.88259e-12,8.29972e-02
7.70706e+02,6.12000e+02,6.57000e+02,-4.50000e+01,4.28553e-12,9.05424e-02,1.01469e-12,9.05424e-02,5.24454e-12,9.05424e-02
7.70957e+02,6.29000e+02,6.76000e+02,-4.70000e+01,4.08752e-12,9.80876e-02,1.66592e-12,9.80876e-02,2.49316e-12,9.80876e-02
7.71207e+02,6.27000e+02,6.56000e+02,-2.90000e+01,2.84173e-12,1.05633e-01,1.74253e-12,1.05633e-01,1.32121e-12,1.05633e-01
7.71458e+02,6.45000e+02,6.45000e+02,0.00000e+00,1.45009e-12,1.13178e-01,1.51641e-12,1.13178e-01,6.66153e-13,1.13178e-01
7.71708e+02,6.56000e+02,6.34000e+02,2.20000e+01,2.86422e-12,1.20723e-01,1.45397e-12,1.20723e-01,1.43176e-12,1.20723e-01
7.71959e+02,6.93000e+02,6.34000e+02,5.90000e+01,2.34857e-12,1.28268e-01,1.76065e-12,1.28268e-01,1.94319e-12,1.28268e-01
7.72210e+02,7.01000e+02,6.30000e+02,7.10000e+01,3.06619e-13,1.35814e-01,1.55843e-12,1.35814e-01,1.79393e-12,1.35814e-01
7.72460e+02,7.28000e+02,6.54000e+02,7.40000e+01,4.48205e-12,1.43359e-01,3.18081e-12,1.43359e-01,1.34826e-12,1.43359e-01
7.72711e+02,6.84000e+02,6.51000e+02,3.30000e+01,6.97131e-12,1.50904e-01,5.57313e-12,1.50904e-01,3.13897e-12,1.50904e-01
7.72961e+02,7.06000e+02,7.49000e+02,-4.30000e+01,4.15399e-12,1.58449e-01,3.67949e-12,1.58449e-01,4.42393e-12,1.58449e-01
7.73212e+02,6.28000e+02,7.06000e+02,-7.80000e+01,1.51776e-12,1.65994e-01,4.01900e-12,1.65994e-01,2.72009e-12,1.65994e-01
7.73462e+02,6.37000e+02,7.48000e+02,-1.11000e+02,2.41988e-12,1.73540e-01,4.99726e-12,1.73540e-01,3.11314e-12,1.73540e-01
7.73713e+02,6.22000e+02,7.14000e+02,-9.20000e+01,1.21081e-12,1.81085e-01,3.84713e-12,1.81085e-01,2.69503e-12,1.81085e-01
7.73963e+02,6.41000e+02,6.85000e+02,-4.40000e+01,3.06492e-12,1.88630e-01,4.16158e-12,1.88630e-01,4.55187e-12,1.88630e-01
7.74214e+02,6.45000e+02,6.44000e+02,1.00000e+00,4.61038e-12,1.96175e-01,3.30591e-12,1.96175e-01,6.47900e-12,1.96175e-01
7.74465e+02,6.93000e+02,6.49000e+02,4.40000e+01,4.26026e-12,2.03720e-01,8.95395e-12,2.03720e-01,1.28444e-11,2.03720e-01
7.74715e+02,7.28000e+02,6.37000e+02,9.10000e+01,2.43153e-11,2.11266e-01,3.09920e-11,2.11266e-01,5.32321e-11,2.11266e-01
7.74965e+02,8.09000e+02,6.46000e+02,1.63000e+02,6.33716e-11,2.18811e-01,6.92637e-11,2.18811e-01,1.27611e-10,2.18811e-01
7.75216e+02,7.60000e+02,6.48000e+02,1.12000e+02,1.07211e-10,2.26356e-01,1.06960e-10,2.26356e-01,2.05957e-10,2.26356e-01
7.75466e+02,8.13000e+02,7.31000e+02,8.20000e+01,1.00177e-10,2.33901e-01,8.97734e-11,2.33901e-01,1.81600e-10,2.33901e-01
7.75717e+02,7.10000e+02,7.17000e+02,-7.00000e+00,4.74696e-11,2.41446e-01,3.74574e-11,2.41446e-01,7.92010e-11,2.41446e-01
7.75967e+02,6.99000e+02,8.23000e+02,-1.24000e+02,8.18724e-12,2.48992e-01,8.59875e-12,2.48992e-01,1.35626e-11,2.48992e-01
7.76218e+02,6.44000e+02,8.42000e+02,-1.98000e+02,4.90001e-12,2.56537e-01,4.62976e-12,2.56537e-01,9.36729e-12,2.56537e-01
7.76468e+02,6.41000e+02,8.73000e+02,-2.32000e+02,5.35805e-12,2.64082e-01,4.35845e-12,2.64082e-01,8.63959e-12,2.64082e-01
7.76719e+02,6.33000e+02,7.69000e+02,-1.36000e+02,3.16531e-12,2.71627e-01,6.03276e-12,2.71627e-01,8.40809e-12,2.71627e-01
7.76969e+02,6.65000e+02,7.32000e+02,-6.70000e+01,4.02750e-12,2.79172e-01,5.18654e-12,2.79172e-01,9.09375e-12,2.79172e-01
7.77219e+02,7.16000e+02,6.62000e+02,5.40000e+01,2.56445e-12,2.86718e-01,2.76067e-12,2.86718e-01,5.08542e-12,2.86718e-01
7.77470e+02,9.33000e+02,6.57000e+02,2.76000e+02,1.59990e-12,2.94263e-01,3.42102e-13,2.94263e-01,1.29619e-12,2.94263e-01
7.77720e+02,1.02700e+03,6.50000e+02,3.77000e+02,1.18518e-12,3.01808e-01,3.44856e-12,3.01808e-01,4.45088e-12,3.01808e-01
7.77971e+02,1.12900e+03,7.24000e+02,4.05000e+02,1.08902e-12,3.09353e-01,5.65281e-12,3.09353e-01,5.84895e-12,3.09353e-01
7.78221e+02,1.02400e+03,7.51000e+02,2.73000e+02,2.14145e-12,3.16898e-01,4.12343e-12,3.16898e-01,3.79478e-12,3.16898e-01
7.78471e+02,9.64000e+02,9.64000e+02,0.00000e+00,2.61914e-12,3.24444e-01,2.23935e-12,3.24444e-01,2.49322e-12,3.24444e-01
7.78722e+02,7.96000e+02,1.03100e+03,-2.35000e+02,1.95034e-12,3.31989e-01,2.04418e-12,3.31989e-01,2.62164e-12,3.31989e-01
7.78972e+02,7.08000e+02,1.22900e+03,-5.21000e+02,4.88707e-13,3.39534e-01,3.09285e-12,3.39534e-01,3.53943e-12,3.39534e-01
7.79222e+02,6.70000e+02,1.29200e+03,-6.22000e+02,2.75080e-12,3.47079e-01,2.83942e-12,3.47079e-01,5.01387e-12,3.47079e-01
7.79473e+02,6.69000e+02,1.22500e+03,-5.56000e+02,3.85468e-12,3.54624e-01,2.54869e-12,3.54624e-01,5.22891e-12,3.54624e-01
7.79723e+02,7.33000e+02,9.77000e+02,-2.44000e+02,3.90729e-12,3.62169e-01,4.04030e-12,3.62169e-01,4.91788e-12,3.62169e-01
7.79973e+02,9.79000e+02,7.77000e+02,2.02000e+02,2.74023e-12,3.69715e-01,4.39519e-12,3.69715e-01,2.24607e-12,3.69715e-01
7.80224e+02,1.18800e+03,6.77000e+02,5.11000e+02,2.73318e-12,3.77260e-01,3.30983e-12,3.77260e-01,3.17195e-12,3.77260e-01
7.80474e+02,1.49000e+03,7.11000e+02,7.79000e+02,2.29941e-12,3.84805e-01,1.61873e-12,3.84805e-01,3.84271e-12,3.84805e-01
7.80724e+02,1.42000e+03,7.13000e+02,7.07000e+02,4.01649e-13,3.92350e-01,1.18567e-12,3.92350e-01,8.05921e-13,3.92350e-01
7.80974e+02,1.49900e+03,9.92000e+02,5.07000e+02,1.92060e-12,3.99895e-01,5.48962e-13,3.99895e-01,1.52273e-12,3.99895e-01
7.81225e+02,1.40200e+03,1.33400e+03,6.80000e+01,1.02781e-12,4.07441e-01,8.10172e-13,4.07441e-01,6.78853e-13,4.07441e-01
7.81475e+02,1.22900e+03,1.73900e+03,-5.10000e+02,7.34763e-13,4.14986e-01,1.68567e-12,4.14986e-01,2.16568e-12,4.14986e-01
7.81725e+02,8.72000e+02,1.76300e+03,-8.91000e+02,6.71056e-13,4.22531e-01,2.74189e-12,4.22531e-01,2.10693e-12,4.22531e-01
7.81975e+02,7.30000e+02,1.92500e+03,-1.19500e+03,2.96834e-12,4.30076e-01,2.51028e-12,4.30076e-01,1.41421e-12,4.30076e-01
7.82226e+02,7.10000e+02,1.64500e+03,-9.35000e+02,4.02975e-12,4.37621e-01,2.39736e-12,4.37621e-01,2.24846e-12,4.37621e-01
7.82476e+02,8.74000e+02,1.28300e+03,-4.09000e+02,2.61098e-12,4.45167e-01,3.75089e-12,4.45167e-01,2.80554e-12,4.45167e-01
7.82726e+02,1.17800e+03,9.25000e+02,2.53000e+02,1.26996e-12,4.52712e-01,4.33410e-12,4.52712e-01,4.47848e-12,4.52712e-01
7.82976e+02,1.57800e+03,8.05000e+02,7.73000e+02,1.65369e-12,4.60257e-01,3.85676e-12,4.60257e-01,4.63634e-12,4.60257e-01
7.83226e+02,1.74700e+03,6.99000e+02,1.04800e+03,7.32770e-13,4.67802e-01,2.21955e-12,4.67802e-01,1.94893e-12,4.67802e-01
7.83477e+02,2.08200e+03,9.00000e+02,1.18200e+03,5.85358e-13,4.75347e-01,1.28738e-12,4.75347e-01,1.07441e-12,4.75347e-01
7.83727e+02,1.97800e+03,1.24900e+03,7.29000e+02,1.25948e-12,4.82893e-01,1.23670e-12,4.82893e-01,2.11356e-12,4.82893e-01
7.83977e+02,1.84700e+03,1.81700e+03,3.00000e+01,2.75870e-12,4.90438e-01,4.82178e-13,4.90438e-01,3.21454e-12,4.90438e-01
7.84227e+02,1.48200e+03,2.28400e+03,-8.02000e+02,1.77024e-12,4.97983e-01,2.01865e-12,4.97983e-01,3.21656e-12,4.97983e-01
7.84477e+02,1.21100e+03,2.78300e+03,-1.57200e+03,8.09805e-13,5.05528e-01,2.18879e-12,5.05528e-01,2.26322e-12,5.05528e-01
7.84727e+02,8.57000e+02,2.56600e+03,-1.70900e+03,1.14575e-12,5.13073e-01,1.70204e-12,5.13073e-01,1.34502e-12,5.13073e-01
7.84978e+02,8.61000e+02,2.45800e+03,-1.59700e+03,1.44440e-12,5.20619e-01,1.32952e-12,5.20619e-01,9.48817e-13,5.20619e-01
7.85228e+02,1.08400e+03,2.05900e+03,-9.75000e+02,2.04067e-12,5.28164e-01,1.96449e-12,5.28164e-01,8.45410e-13,5.28164e-01
7.85478e+02,1.83300e+03,1.55700e+03,2.76000e+02,1.85165e-12,5.35709e-01,2.56937e-12,5.35709e-01,1.40522e-12,5.35709e-01
7.85728e+02,2.52200e+03,1.02500e+03,1.49700e+03,9.24695e-13,5.43254e-01,1.84081e-12,5.43254e-01,1.47530e-12,5.43254e-01
7.85978e+02,3.16000e+03,8.71000e+02,2.28900e+03,4.77823e-13,5.50799e-01,6.74403e-13,5.50799e-01,8.23250e-13,5.50799e-01
7.86228e+02,3.29100e+03,1.05300e+03,2.23800e+03,1.17740e-12,5.58345e-01,2.78834e-13,5.58345e-01,1.45393e-12,5.58345e-01
7.86478e+02,3.25900e+03,1.62800e+03,1.63100e+03,3.72263e-13,5.65890e-01,1.04334e-12,5.65890e-01,1.38610e-12,5.65890e-01
7.86728e+02,2.85600e+03,2.27100e+03,5.85000e+02,9.21976e-13,5.73435e-01,1.62800e-12,5.73435e-01,1.69414e-12,5.73435e-01
7.86978e+02,2.30800e+03,2.87300e+03,-5.65000e+02,1.64552e-12,5.80980e-01,2.00226e-12,5.80980e-01,1.87835e-12,5.80980e-01
7.87228e+02,1.64300e+03,3.34900e+03,-1.70600e+03,3.02071e-12,5.88525e-01,1.86777e-12,5.88525e-01,2.43472e-12,5.88525e-01
7.87478e+02,1.13800e+03,3.36600e+03,-2.22800e+03,4.29109e-12,5.96071e-01,1.39841e-12,5.96071e-01,3.55704e-12,5.96071e-01
7.87728e+02,9.54000e+02,3.00900e+03,-2.05500e+03,3.83827e-12,6.03616e-01,1.10699e-12,6.03616e-01,2.90472e-12,6.03616e-01
7.87978e+02,1.36600e+03,2.74500e+03,-1.37900e+03,2.47667e-12,6.11161e-01,2.22678e-12,6.11161e-01,2.30112e-12,6.11161e-01
7.88228e+02,1.93600e+03,1.99500e+03,-5.90000e+01,1.05023e-12,6.18706e-01,1.84672e-12,6.18706e-01,2.22392e-12,6.18706e-01
7.88478e+02,2.93800e+03,1.44600e+03,1.49200e+03,9.06830e-13,6.26251e-01,1.10981e-12,6.26251e-01,1.21769e-12,6.26251e-01
7.88728e+02,3.69000e+03,1.03700e+03,2.65300e+03,1.18608e-12,6.33797e-01,2.49680e-12,6.33797e-01,1.31325e-12,6.33797e-01
7.88978e+02,4.18800e+03,1.13600e+03,3.05200e+03,1.45929e-12,6.41342e-01,2.74059e-12,6.41342e-01,1.62089e-12,6.41342e-01
7.89228e+02,4.61400e+03,1.66200e+03,2.95200e+03,1.36977e-12,6.48887e-01,2.18112e-12,6.48887e-01,1.23430e-12,6.48887e-01
7.89478e+02,4.72200e+03,2.69500e+03,2.02700e+03,2.62390e-13,6.56432e-01,1.07530e-12,6.56432e-01,8.54083e-13,6.56432e-01
7.89728e+02,3.92000e+03,3.69000e+03,2.30000e+02,7.30591e-13,6.63977e-01,1.13719e-12,6.63977e-01,1.26692e-12,6.63977e-01
7.89978e+02,3.03500e+03,4.68900e+03,-1.65400e+03,5.91570e-13,6.71523e-01,1.90392e-12,6.71523e-01,1.56172e-12,6.71523e-01
7.90228e+02,1.94400e+03,5.07000e+03,-3.12600e+03,6.36766e-13,6.79068e-01,1.39003e-12,6.79068e-01,7.93769e-13,6.79068e-01
7.90478e+02,1.38800e+03,5.07600e+03,-3.68800e+03,1.20242e-12,6.86613e-01,6.35280e-13,6.86613e-01,5.81643e-13,6.86613e-01
7.90728e+02,1.31800e+03,4.43700e+03,-3.11900e+03,2.03782e-12,6.94158e-01,1.26926e-12,6.94158e-01,8.44111e-13,6.94158e-01
7.90978e+02,2.09400e+03,3.73300e+03,-1.63900e+03,2.19387e-12,7.01703e-01,1.97899e-12,7.01703e-01,2.24515e-13,7.01703e-01
7.91228e+02,3.19800e+03,2.57000e+03,6.28000e+02,1.43933e-12,7.09249e-01,1.34785e-12,7.09249e-01,2.78608e-13,7.09249e-01
7.91478e+02,4.26100e+03,1.64200e+03,2.61900e+03,1.23583e-12,7.16794e-01,8.75498e-13,7.16794e-01,1.44535e-12,7.16794e-01
7.91728e+02,4.82600e+03,1.24200e+03,3.58400e+03,1.21004e-12,7.24339e-01,1.63168e-12,7.24339e-01,2.66146e-12,7.24339e-01
7.91977e+02,5.18500e+03,1.60900e+03,3.57600e+03,1.38458e-12,7.31884e-01,1.38698e-12,7.31884e-01,2.63940e-12,7.31884e-01
7.92227e+02,4.72700e+03,2.43000e+03,2.29700e+03,1.66984e-12,7.39429e-01,7.12259e-13,7.39429e-01,2.26350e-12,7.39429e-01
7.92477e+02,4.94000e+03,4.09000e+03,8.50000e+02,1.82653e-12,7.46975e-01,6.02688e-13,7.46975e-01,2.31045e-12,7.46975e-01
7.92727e+02,4.30000e+03,5.49300e+03,-1.19300e+03,8.06241e-13,7.54520e-01,3.78334e-13,7.54520e-01,1.11623e-12,7.54520e-01
7.92977e+02,3.08300e+03,6.22900e+03,-3.14600e+03,1.09349e-12,7.62065e-01,1.75949e-13,7.62065e-01,9.43080e-13,7.62065e-01
7.93227e+02,1.73700e+03,5.92800e+03,-4.19100e+03,1.71429e-12,7.69610e-01,2.89876e-13,7.69610e-01,1.74201e-12,7.69610e-01
7.93476e+02,1.52400e+03,5.15500e+03,-3.63100e+03,9.72754e-13,7.77155e-01,1.67818e-13,7.77155e-01,8.64573e-13,7.77155e-01
7.93726e+02,1.99000e+03,4.31400e+03,-2.32400e+03,7.33032e-13,7.84701e-01,3.30280e-13,7.84701e-01,7.95694e-13,7.84701e-01
7.93976e+02,3.21700e+03,3.46000e+03,-2.43000e+02,1.03820e-12,7.92246e-01,1.12211e-12,7.92246e-01,1.20956e-12,7.92246e-01
7.94226e+02,4.89100e+03,2.19300e+03,2.69800e+03,4.23621e-13,7.99791e-01,7.66015e-13,7.99791e-01,1.16289e-12,7.99791e-01
7.94476e+02,6.82900e+03,1.63100e+03,5.19800e+03,6.61876e-13,8.07336e-01,6.85162e-13,8.07336e-01,1.08632e-12,8.07336e-01
7.94725e+02,7.07400e+03,1.71300e+03,5.36100e+03,1.28207e-12,8.14881e-01,3.89513e-13,8.14881e-01,1.47756e-12,8.14881e-01
7.94975e+02,7.21000e+03,2.73600e+03,4.47400e+03,1.88795e-12,8.22427e-01,6.07356e-13,8.22427e-01,1.37022e-12,8.22427e-01
7.95225e+02,6.34000e+03,4.16000e+03,2.18000e+03,2.05017e-12,8.29972e-01,1.67776e-12,8.29972e-01,7.33592e-13,8.29972e-01
7.95475e+02,5.18200e+03,5.61600e+03,-4.34000e+02,1.46485e-12,8.37517e-01,1.87414e-12,8.37517e-01,9.29183e-13,8.37517e-01
7.95724e+02,3.56600e+03,6.81000e+03,-3.24400e+03,8.28678e-13,8.45062e-01,1.06170e-12,8.45062e-01,8.76545e-13,8.45062e-01
7.95974e+02,2.33300e+03,7.49400e+03,-5.16100e+03,5.29242e-13,8.52607e-01,2.44818e-13,8.52607e-01,5.40151e-13,8.52607e-01
7.96224e+02,1.81600e+03,7.25200e+03,-5.43600e+03,6.74554e-13,8.60153e-01,1.02555e-12,8.60153e-01,1.69472e-12,8.60153e-01
7.96474e+02,2.28300e+03,6.47800e+03,-4.19500e+03,8.78860e-13,8.67698e-01,1.09151e-12,8.67698e-01,1.92880e-12,8.67698e-01
7.96723e+02,3.38900e+03,4.58600e+03,-1.19700e+03,5.24328e-13,8.75243e-01,1.08481e-12,8.75243e-01,1.40845e-12,8.75243e-01
7.96973e+02,5.30900e+03,2.99200e+03,2.31700e+03,4.53245e-13,8.82788e-01,9.19028e-13,8.82788e-01,1.27679e-12,8.82788e-01
7.97223e+02,7.94600e+03,2.00500e+03,5.94100e+03,7.60424e-13,8.90333e-01,5.21406e-13,8.90333e-01,1.28171e-12,8.90333e-01
7.97472e+02,8.90000e+03,2.07900e+03,6.82100e+03,1.19008e-12,8.97879e-01,6.60706e-13,8.97879e-01,1.76644e-12,8.97879e-01
7.97722e+02,1.02290e+04,3.18900e+03,7.04000e+03,1.57048e-12,9.05424e-01,5.85329e-13,9.05424e-01,2.15569e-12,9.05424e-01
7.97972e+02,9.83200e+03,5.18400e+03,4.64800e+03,1.85522e-12,9.12969e-01,9.58539e-13,9.12969e-01,2.40852e-12,9.12969e-01
7.98221e+02,7.74800e+03,7.74800e+03,0.00000e+00,1.52994e-12,9.20514e-01,1.42337e-12,9.20514e-01,2.70747e-12,9.20514e-01
7.98471e+02,5.19800e+03,9.52800e+03,-4.33000e+03,8.77655e-13,9.28059e-01,1.42149e-12,9.28059e-01,2.29467e-12,9.28059e-01
7.98721e+02,3.29200e+03,1.04040e+04,-7.11200e+03,7.19747e-13,9.35605e-01,1.11544e-12,9.35605e-01,1.38715e-12,9.35605e-01
7.98970e+02,2.34300e+03,1.10880e+04,-8.74500e+03,1.01196e-12,9.43150e-01,9.33024e-13,9.43150e-01,5.54149e-13,9.43150e-01
7.99220e+02,2.61400e+03,9.54600e+03,-6.93200e+03,1.12718e-12,9.50695e-01,1.15227e-12,9.50695e-01,3.41820e-13,9.50695e-01
7.99469e+02,4.10300e+03,6.76300e+03,-2.66000e+03,9.25400e-13,9.58240e-01,1.01371e-12,9.58240e-01,1.04277e-13,9.58240e-01
7.99719e+02,6.25900e+03,4.19200e+03,2.06700e+03,3.59427e-13,9.65785e-01,6.52037e-13,9.65785e-01,4.22449e-13,9.65785e-01
7.99969e+02,8.82600e+03,2.59100e+03,6.23500e+03,3.54135e-13,9.73331e-01,7.25924e-13,9.73331e-01,1.04518e-12,9.73331e-01
8.00218e+02,1.08680e+04,2.46600e+03,8.40200e+03,7.13914e-13,9.80876e-01,8.63440e-13,9.80876e-01,1.15679e-12,9.80876e-01
8.00468e+02,1.15560e+04,3.77500e+03,7.78100e+03,9.67764e-13,9.88421e-01,1.29162e-12,9.88421e-01,9.55860e-13,9.88421e-01
8.00717e+02,1.05230e+04,5.85100e+03,4.67200e+03,1.24346e-12,9.95966e-01,1.24881e-12,9.95966e-01,7.02825e-13,9.95966e-01
8.00967e+02,8.53100e+03,8.42500e+03,1.06000e+02,8.06228e-13,1.00351e+00,6.44271e-13,1.00351e+00,5.64985e-13,1.00351e+00
8.01216e+02,6.44800e+03,1.13920e+04,-4.94400e+03,4.69078e-13,1.01106e+00,5.22282e-14,1.01106e+00,4.95412e-13,1.01106e+00
8.01466e+02,4.44200e+03,1.28370e+04,-8.39500e+03,7.62532e-13,1.01860e+00,1.64063e-13,1.01860e+00,6.14248e-13,1.01860e+00
8.01715e+02,2.89200e+03,1.28120e+04,-9.92000e+03,7.11691e-13,1.02615e+00,2.05221e-14,1.02615e+00,7.18932e-13,1.02615e+00
8.01965e+02,2.83600e+03,1.11240e+04,-8.28800e+03,3.38166e-13,1.03369e+00,2.55481e-13,1.03369e+00,5.92271e-13,1.03369e+00
8.02215e+02,4.22900e+03,8.53000e+03,-4.30100e+03,6.42454e-14,1.04124e+00,2.75504e-13,1.04124e+00,2.94311e-13,1.04124e+00
8.02464e+02,7.20000e+03,5.67600e+03,1.52400e+03,8.34344e-14,1.04878e+00,3.17552e-13,1.04878e+00,3.29679e-13,1.04878e+00
8.02713e+02,1.00080e+04,3.49300e+03,6.51500e+03,8.36759e-13,1.05633e+00,3.30827e-13,1.05633e+00,1.04261e-12,1.05633e+00
8.02963e+02,1.28340e+04,2.63000e+03,1.02040e+04,7.19829e-13,1.06387e+00,7.10671e-13,1.06387e+00,6.65632e-13,1.06387e+00
8.03212e+02,1.46890e+04,3.66800e+03,1.10210e+04,5.25541e-13,1.07142e+00,2.27387e-13,1.07142e+00,4.28302e-13,1.07142e+00
8.03462e+02,1.48460e+04,6.37800e+03,8.46800e+03,7.91962e-13,1.07896e+00,2.44222e-13,1.07896e+00,6.64543e-13,1.07896e+00
8.03711e+02,1.32090e+04,1.00350e+04,3.17400e+03,7.65346e-13,1.08651e+00,6.25693e-13,1.08651e+00,6.41445e-13,1.08651e+00
8.03961e+02,8.96300e+03,1.17960e+04,-2.83300e+03,7.39714e-13,1.09405e+00,8.30943e-13,1.09405e+00,1.46988e-13,1.09405e+00
8.04210e+02,5.40000e+03,1.24540e+04,-7.05400e+03,6.80032e-13,1.10160e+00,4.77324e-13,1.10160e+00,2.03000e-13,1.10160e+00
8.04460e+02,3.14000e+03,1.35080e+04,-1.03680e+04,4.11770e-13,1.10914e+00,6.06079e-13,1.10914e+00,6.80478e-13,1.10914e+00
8.04709e+02,2.72000e+03,1.31910e+04,-1.04710e+04,3.30762e-13,1.11669e+00,7.10039e-13,1.11669e+00,1.04026e-12,1.11669e+00
8.04958e+02,3.94000e+03,1.03380e+04,-6.39800e+03,4.53353e-13,1.12423e+00,3.02021e-13,1.12423e+00,7.30368e-13,1.12423e+00
8.05208e+02,6.31600e+03,7.30900e+03,-9.93000e+02,2.39403e-13,1.13178e+00,1.33639e-13,1.13178e+00,2.57672e-13,1.13178e+00
8.05457e+02,8.76200e+03,4.61900e+03,4.14300e+03,7.13704e-13,1.13932e+00,8.43008e-13,1.13932e+00,1.08758e-12,1.13932e+00
8.05707e+02,1.22350e+04,3.18900e+03,9.04600e+03,6.58422e-13,1.14687e+00,1.27649e-12,1.14687e+00,1.14098e-12,1.14687e+00
8.05956e+02,1.46280e+04,3.06500e+03,1.15630e+04,3.91905e-13,1.15442e+00,1.11222e-12,1.15442e+00,7.21040e-13,1.15442e+00
8.06205e+02,1.39190e+04,4.53600e+03,9.38300e+03,3.85020e-13,1.16196e+00,8.54257e-13,1.16196e+00,8.28998e-13,1.16196e+00
8.06455e+02,1.28540e+04,7.70500e+03,5.14900e+03,4.71423e-13,1.16951e+00,3.75326e-13,1.16951e+00,6.29078e-13,1.16951e+00
8.06704e+02,1.11210e+04,1.09220e+04,1.99000e+02,2.98461e-13,1.17705e+00,1.33768e-13,1.17705e+00,3.54989e-13,1.17705e+00
8.06953e+02,7.90600e+03,1.36480e+04,-5.74200e+03,1.47005e-13,1.18460e+00,4.41261e-13,1.18460e+00,4.38455e-13,1.18460e+00
8.07203e+02,4.61900e+03,1.36010e+04,-8.98200e+03,3.88432e-13,1.19214e+00,6.87628e-13,1.19214e+00,5.88475e-13,1.19214e+00
8.07452e+02,2.99800e+03,1.41040e+04,-1.11060e+04,9.51912e-13,1.19969e+00,8.91671e-13,1.19969e+00,4.22401e-13,1.19969e+00
8.07701e+02,2.98800e+03,1.30200e+04,-1.00320e+04,1.18581e-12,1.20723e+00,9.97552e-13,1.20723e+00,2.17142e-13,1.20723e+00
8.07951e+02,4.85800e+03,1.03230e+04,-5.46500e+03,1.14062e-12,1.21478e+00,7.29460e-13,1.21478e+00,5.32754e-13,1.21478e+00
8.08200e+02,6.94300e+03,6.93800e+03,5.00000e+00,6.68029e-13,1.22232e+00,5.54014e-13,1.22232e+00,5.72037e-13,1.22232e+00
8.08449e+02,1.04830e+04,4.28500e+03,6.19800e+03,4.20282e-14,1.22987e+00,3.32367e-13,1.22987e+00,3.25932e-13,1.22987e+00
8.08698e+02,1.41920e+04,2.96900e+03,1.12230e+04,4.79269e-13,1.23741e+00,3.91645e-13,1.23741e+00,5.68760e-13,1.23741e+00
8.08948e+02,1.54460e+04,3.78600e+03,1.16600e+04,7.08940e-13,1.24496e+00,7.48376e-13,1.24496e+00,1.26796e-12,1.24496e+00
8.09197e+02,1.55050e+04,6.17100e+03,9.33400e+03,7.30324e-13,1.25250e+00,6.90706e-13,1.25250e+00,1.42062e-12,1.25250e+00
8.09446e+02,1.35620e+04,9.11300e+03,4.44900e+03,6.30347e-13,1.26005e+00,5.24371e-13,1.26005e+00,1.12586e-12,1.26005e+00
8.09695e+02,1.04060e+04,1.32300e+04,-2.82400e+03,1.71273e-13,1.26759e+00,4.84922e-13,1.26759e+00,6.54498e-13,1.26759e+00
8.09945e+02,7.47500e+03,1.52540e+04,-7.77900e+03,2.89645e-13,1.27514e+00,3.00037e-13,1.27514e+00,3.43345e-13,1.27514e+00
8.10194e+02,4.78500e+03,1.54490e+04,-1.06640e+04,8.19276e-13,1.28268e+00,2.72609e-13,1.28268e+00,5.46867e-13,1.28268e+00
8.10443e+02,3.51600e+03,1.50550e+04,-1.15390e+04,1.25907e-12,1.29023e+00,4.88658e-13,1.29023e+00,7.70944e-13,1.29023e+00
8.10692e+02,4.35800e+03,1.29930e+04,-8.63500e+03,7.82261e-13,1.29777e+00,1.99652e-13,1.29777e+00,5.83211e-13,1.29777e+00
8.10941e+02,7.09500e+03,9.95600e+03,-2.86100e+03,2.03446e-13,1.30532e+00,5.37602e-13,1.30532e+00,3.53155e-13,1.30532e+00
8.11191e+02,1.02810e+04,6.29600e+03,3.98500e+03,4.05634e-13,1.31286e+00,2.22054e-13,1.31286e+00,2.53009e-13,1.31286e+00
8.11440e+02,1.44570e+04,3.98700e+03,1.04700e+04,1.88243e-12,-1.32041e+00,1.62872e-12,-1.32041e+00,2.53713e-13,-1.32041e+00
8.11689e+02,1.56880e+04,3.44000e+03,1.22480e+04,4.05634e-13,-1.31286e+00,2.22054e-13,-1.31286e+00,2.53009e-13,-1.31286e+00
8.11938e+02,1.58010e+04,4.89600e+03,1.09050e+04,2.03446e-13,-1.30532e+00,5.37602e-13,-1.30532e+00,3.53155e-13,-1.30532e+00
8.12187e+02,1.57650e+04,8.17000e+03,7.59500e+03,7.82261e-13,-1.29777e+00,1.99652e-13,-1.29777e+00,5.83211e-13,-1.29777e+00
8.12436e+02,1.48350e+04,1.17300e+04,3.10500e+03,1.25907e-12,-1.29023e+00,4.88658e-13,-1.29023e+00,7.70944e-13,-1.29023e+00
8.12685e+02,1.01070e+04,1.44530e+04,-4.34600e+03,8.19276e-13,-1.28268e+00,2.72609e-13,-1.28268e+00,5.46867e-13,-1.28268e+00
8.12935e+02,6.52600e+03,1.52770e+04,-8.75100e+03,2.89645e-13,-1.27514e+00,3.00037e-13,-1.27514e+00,3.43345e-13,-1.27514e+00
8.13184e+02,4.22500e+03,1.51740e+04,-1.09490e+04,1.71273e-13,-1.26759e+00,4.84922e-13,-1.26759e+00,6.54498e-13,-1.26759e+00
8.13433e+02,3.61900e+03,1.47410e+04,-1.11220e+04,6.30347e-13,-1.26005e+00,5.24371e-13,-1.26005e+00,1.12586e-12,-1.26005e+00
8.13682e+02,5.05900e+03,1.28860e+04,-7.82700e+03,7.30324e-13,-1.25250e+00,6.90706e-13,-1.25250e+00,1.42062e-12,-1.25250e+00
8.13931e+02,8.13700e+03,9.52100e+03,-1.38400e+03,7.08940e-13,-1.24496e+00,7.48376e-13,-1.24496e+00,1.26796e-12,-1.24496e+00
8.14180e+02,1.09480e+04,5.89900e+03,5.04900e+03,4.79269e-13,-1.23741e+00,3.91645e-13,-1.23741e+00,5.68760e-13,-1.23741e+00
8.14429e+02,1.41250e+04,3.86200e+03,1.02630e+04,4.20282e-14,-1.22987e+00,3.32367e-13,-1.22987e+00,3.25932e-13,-1.22987e+00
8.14678e+02,1.54040e+04,3.49600e+03,1.19080e+04,6.68029e-13,-1.22232e+00,5.54014e-13,-1.22232e+00,5.72037e-13,-1.22232e+00
8.14927e+02,1.51370e+04,4.93200e+03,1.02050e+04,1.14062e-12,-1.21478e+00,7.29460e-13,-1.21478e+00,5.32754e-13,-1.21478e+00
8.15176e+02,1.38520e+04,7.44000e+03,6.41200e+03,1.18581e-12,-1.20723e+00,9.97552e-13,-1.20723e+00,2.17142e-13,-1.20723e+00
8.15425e+02,1.09130e+04,1.04970e+04,4.16000e+02,9.51912e-13,-1.19969e+00,8.91671e-13,-1.19969e+00,4.22401e-13,-1.19969e+00
8.15674e+02,8.04900e+03,1.38800e+04,-5.83100e+03,3.88432e-13,-1.19214e+00,6.87628e-13,-1.19214e+00,5.88475e-13,-1.19214e+00
8.15923e+02,5.06900e+03,1.54570e+04,-1.03880e+04,1.47005e-13,-1.18460e+00,4.41261e-13,-1.18460e+00,4.38455e-13,-1.18460e+00
8.16172e+02,3.40600e+03,1.56200e+04,-1.22140e+04,2.98461e-13,-1.17705e+00,1.33768e-13,-1.17705e+00,3.54989e-13,-1.17705e+00
8.16421e+02,3.55000e+03,1.30930e+04,-9.54300e+03,4.71423e-13,-1.16951e+00,3.75326e-13,-1.16951e+00,6.29078e-13,-1.16951e+00
8.16670e+02,5.55600e+03,8.85100e+03,-3.29500e+03,3.85020e-13,-1.16196e+00,8.54257e-13,-1.16196e+00,8.28998e-13,-1.16196e+00
8.16919e+02,8.82800e+03,6.08900e+03,2.73900e+03,3.91905e-13,-1.15442e+00,1.11222e-12,-1.15442e+00,7.21040e-13,-1.15442e+00
8.17168e+02,1.10200e+04,3.94300e+03,7.07700e+03,6.58422e-13,-1.14687e+00,1.27649e-12,-1.14687e+00,1.14098e-12,-1.14687e+00
8.17417e+02,1.25600e+04,2.72900e+03,9.83100e+03,7.13704e-13,-1.13932e+00,8.43008e-13,-1.13932e+00,1.08758e-12,-1.13932e+00
8.17666e+02,1.37380e+04,3.43400e+03,1.03040e+04,2.39403e-13,-1.13178e+00,1.33639e-13,-1.13178e+00,2.57672e-13,-1.13178e+00
8.17915e+02,1.31790e+04,5.44200e+03,7.73700e+03,4.53353e-13,-1.12423e+00,3.02021e-13,-1.12423e+00,7.30368e-13,-1.12423e+00
8.18164e+02,1.05040e+04,7.34900e+03,3.15500e+03,3.30762e-13,-1.11669e+00,7.10039e-13,-1.11669e+00,1.04026e-12,-1.11669e+00
8.18413e+02,7.52200e+03,9.52000e+03,-1.99800e+03,4.11770e-13,-1.10914e+00,6.06079e-13,-1.10914e+00,6.80478e-13,-1.10914e+00
8.18662e+02,4.86600e+03,1.05030e+04,-5.63700e+03,6.80032e-13,-1.10160e+00,4.77324e-13,-1.10160e+00,2.03000e-13,-1.10160e+00
8.18911e+02,3.20500e+03,1.14920e+04,-8.28700e+03,7.39714e-13,-1.09405e+00,8.30943e-13,-1.09405e+00,1.46988e-13,-1.09405e+00
8.19160e+02,2.59600e+03,1.03910e+04,-7.79500e+03,7.65346e-13,-1.08651e+00,6.25693e-13,-1.08651e+00,6.41445e-13,-1.08651e+00
8.19408e+02,3.23700e+03,9.11000e+03,-5.87300e+03,7.91962e-13,-1.07896e+00,2.44222e-13,-1.07896e+00,6.64543e-13,-1.07896e+00
8.19657e+02,5.30200e+03,7.47700e+03,-2.17500e+03,5.25541e-13,-1.07142e+00,2.27387e-13,-1.07142e+00,4.28302e-13,-1.07142e+00
8.19906e+02,8.45800e+03,5.10100e+03,3.35700e+03,7.19829e-13,-1.06387e+00,7.10671e-13,-1.06387e+00,6.65632e-13,-1.06387e+00
8.20155e+02,1.10810e+04,3.26100e+03,7.82000e+03,8.36759e-13,-1.05633e+00,3.30827e-13,-1.05633e+00,1.04261e-12,-1.05633e+00
8.20404e+02,1.18200e+04,2.63400e+03,9.18600e+03,8.34344e-14,-1.04878e+00,3.17552e-13,-1.04878e+00,3.29679e-13,-1.04878e+00
8.20653e+02,1.11080e+04,3.42300e+03,7.68500e+03,6.42454e-14,-1.04124e+00,2.75504e-13,-1.04124e+00,2.94311e-13,-1.04124e+00
8.20901e+02,1.02920e+04,5.23900e+03,5.05300e+03,3.38166e-13,-1.03369e+00,2.55481e-13,-1.03369e+00,5.92271e-13,-1.03369e+00
8.21150e+02,9.00200e+03,8.05000e+03,9.52000e+02,7.11691e-13,-1.02615e+00,2.05221e-14,-1.02615e+00,7.18932e-13,-1.02615e+00
8.21399e+02,5.76800e+03,8.71800e+03,-2.95000e+03,7.62532e-13,-1.01860e+00,1.64063e-13,-1.01860e+00,6.14248e-13,-1.01860e+00
8.21648e+02,3.64600e+03,1.02050e+04,-6.55900e+03,4.69078e-13,-1.01106e+00,5.22282e-14,-1.01106e+00,4.95412e-13,-1.01106e+00
8.21897e+02,2.55300e+03,1.05130e+04,-7.96000e+03,8.06228e-13,-1.00351e+00,6.44271e-13,-1.00351e+00,5.64985e-13,-1.00351e+00
8.22145e+02,2.14100e+03,9.01900e+03,-6.87800e+03,1.24346e-12,-9.95966e-01,1.24881e-12,-9.95966e-01,7.02825e-13,-9.95966e-01
8.22394e+02,3.04400e+03,7.75800e+03,-4.71400e+03,9.67764e-13,-9.88421e-01,1.29162e-12,-9.88421e-01,9.55860e-13,-9.88421e-01
8.22643e+02,4.75600e+03,5.92000e+03,-1.16400e+03,7.13914e-13,-9.80876e-01,8.63440e-13,-9.80876e-01,1.15679e-12,-9.80876e-01
8.22892e+02,6.57500e+03,3.81100e+03,2.76400e+03,3.54135e-13,-9.73331e-01,7.25924e-13,-9.73331e-01,1.04518e-12,-9.73331e-01
8.23140e+02,8.40100e+03,2.35400e+03,6.04700e+03,3.59427e-13,-9.65785e-01,6.52037e-13,-9.65785e-01,4.22449e-13,-9.65785e-01
8.23389e+02,9.68500e+03,2.26200e+03,7.42300e+03,9.25400e-13,-9.58240e-01,1.01371e-12,-9.58240e-01,1.04277e-13,-9.58240e-01
8.23638e+02,9.83400e+03,3.13200e+03,6.70200e+03,1.12718e-12,-9.50695e-01,1.15227e-12,-9.50695e-01,3.41820e-13,-9.50695e-01
8.23887e+02,8.33900e+03,4.96400e+03,3.37500e+03,1.01196e-12,-9.43150e-01,9.33024e-13,-9.43150e-01,5.54149e-13,-9.43150e-01
8.24135e+02,6.65200e+03,6.68400e+03,-3.20000e+01,7.19747e-13,-9.35605e-01,1.11544e-12,-9.35605e-01,1.38715e-12,-9.35605e-01
8.24384e+02,4.79800e+03,8.08700e+03,-3.28900e+03,8.77655e-13,-9.28059e-01,1.42149e-12,-9.28059e-01,2.29467e-12,-9.28059e-01
8.24633e+02,2.96600e+03,9.03700e+03,-6.07100e+03,1.52994e-12,-9.20514e-01,1.42337e-12,-9.20514e-01,2.70747e-12,-9.20514e-01
8.24881e+02,1.99000e+03,9.21100e+03,-7.22100e+03,1.85522e-12,-9.12969e-01,9.58539e-13,-9.12969e-01,2.40852e-12,-9.12969e-01
8.25130e+02,1.99000e+03,8.51000e+03,-6.52000e+03,1.57048e-12,-9.05424e-01,5.85329e-13,-9.05424e-01,2.15569e-12,-9.05424e-01
8.25379e+02,3.38100e+03,6.78800e+03,-3.40700e+03,1.19008e-12,-8.97879e-01,6.60706e-13,-8.97879e-01,1.76644e-12,-8.97879e-01
8.25627e+02,4.48400e+03,4.21000e+03,2.74000e+02,7.60424e-13,-8.90333e-01,5.21406e-13,-8.90333e-01,1.28171e-12,-8.90333e-01
8.25876e+02,5.95100e+03,2.42200e+03,3.52900e+03,4.53245e-13,-8.82788e-01,9.19028e-13,-8.82788e-01,1.27679e-12,-8.82788e-01
8.26125e+02,7.07800e+03,1.66300e+03,5.41500e+03,5.24328e-13,-8.75243e-01,1.08481e-12,-8.75243e-01,1.40845e-12,-8.75243e-01
8.26373e+02,6.59500e+03,1.76300e+03,4.83200e+03,8.78860e-13,-8.67698e-01,1.09151e-12,-8.67698e-01,1.92880e-12,-8.67698e-01
8.26622e+02,5.72700e+03,2.28400e+03,3.44300e+03,6.74554e-13,-8.60153e-01,1.02555e-12,-8.60153e-01,1.69472e-12,-8.60153e-01
8.26870e+02,4.43500e+03,3.23300e+03,1.20200e+03,5.29242e-13,-8.52607e-01,2.44818e-13,-8.52607e-01,5.40151e-13,-8.52607e-01
8.27119e+02,3.48900e+03,4.30500e+03,-8.16000e+02,8.28678e-13,-8.45062e-01,1.06170e-12,-8.45062e-01,8.76545e-13,-8.45062e-01
8.27368e+02,2.69000e+03,5.25400e+03,-2.56400e+03,1.46485e-12,-8.37517e-01,1.87414e-12,-8.37517e-01,9.29183e-13,-8.37517e-01
8.27616e+02,1.75700e+03,5.15900e+03,-3.40200e+03,2.05017e-12,-8.29972e-01,1.67776e-12,-8.29972e-01,7.33592e-13,-8.29972e-01
8.27865e+02,1.29900e+03,5.09700e+03,-3.79800e+03,1.88795e-12,-8.22427e-01,6.07356e-13,-8.22427e-01,1.37022e-12,-8.22427e-01
8.28113e+02,1.37600e+03,5.32000e+03,-3.94400e+03,1.28207e-12,-8.14881e-01,3.89513e-13,-8.14881e-01,1.47756e-12,-8.14881e-01
8.28362e+02,2.11500e+03,4.24500e+03,-2.13000e+03,6.61876e-13,-8.07336e-01,6.85162e-13,-8.07336e-01,1.08632e-12,-8.07336e-01
8.28610e+02,2.98000e+03,2.75200e+03,2.28000e+02,4.23621e-13,-7.99791e-01,7.66015e-13,-7.99791e-01,1.16289e-12,-7.99791e-01
8.28859e+02,3.81900e+03,1.75400e+03,2.06500e+03,1.03820e-12,-7.92246e-01,1.12211e-12,-7.92246e-01,1.20956e-12,-7.92246e-01
8.29108e+02,4.23800e+03,1.17000e+03,3.06800e+03,7.33032e-13,-7.84701e-01,3.30280e-13,-7.84701e-01,7.95694e-13,-7.84701e-01
8.29356e+02,4.25300e+03,1.22800e+03,3.02500e+03,9.72754e-13,-7.77155e-01,1.67818e-13,-7.77155e-01,8.64573e-13,-7.77155e-01
8.29605e+02,3.92000e+03,1.55000e+03,2.37000e+03,1.71429e-12,-7.69610e-01,2.89876e-13,-7.69610e-01,1.74201e-12,-7.69610e-01
8.29853e+02,3.23600e+03,2.16500e+03,1.07100e+03,1.09349e-12,-7.62065e-01,1.75949e-13,-7.62065e-01,9.43080e-13,-7.62065e-01
8.30101e+02,2.50400e+03,2.89200e+03,-3.88000e+02,8.06241e-13,-7.54520e-01,3.78334e-13,-7.54520e-01,1.11623e-12,-7.54520e-01
8.30350e+02,1.91100e+03,3.54200e+03,-1.63100e+03,1.82653e-12,-7.46975e-01,6.02688e-13,-7.46975e-01,2.31045e-12,-7.46975e-01
8.30598e+02,1.19300e+03,3.40300e+03,-2.21000e+03,1.66984e-12,-7.39429e-01,7.12259e-13,-7.39429e-01,2.26350e-12,-7.39429e-01
8.30847e+02,9.73000e+02,3.36200e+03,-2.38900e+03,1.38458e-12,-7.31884e-01,1.38698e-12,-7.31884e-01,2.63940e-12,-7.31884e-01
8.31095e+02,9.82000e+02,3.17400e+03,-2.19200e+03,1.21004e-12,-7.24339e-01,1.63168e-12,-7.24339e-01,2.66146e-12,-7.24339e-01
8.31344e+02,1.48600e+03,2.50600e+03,-1.02000e+03,1.23583e-12,-7.16794e-01,8.75498e-13,-7.16794e-01,1.44535e-12,-7.16794e-01
8.31592e+02,1.86400e+03,1.73000e+03,1.34000e+02,1.43933e-12,-7.09249e-01,1.34785e-12,-7.09249e-01,2.78608e-13,-7.09249e-01
8.31841e+02,2.09200e+03,1.19400e+03,8.98000e+02,2.19387e-12,-7.01703e-01,1.97899e-12,-7.01703e-01,2.24515e-13,-7.01703e-01
8.32089e+02,2.55200e+03,8.33000e+02,1.71900e+03,2.03782e-12,-6.94158e-01,1.26926e-12,-6.94158e-01,8.44111e-13,-6.94158e-01
8.32337e+02,2.76000e+03,8.56000e+02,1.90400e+03,1.20242e-12,-6.86613e-01,6.35280e-13,-6.86613e-01,5.81643e-13,-6.86613e-01
8.32586e+02,2.35300e+03,9.91000e+02,1.36200e+03,6.36766e-13,-6.79068e-01,1.39003e-12,-6.79068e-01,7.93769e-13,-6.79068e-01
8.32834e+02,2.29200e+03,1.48300e+03,8.09000e+02,5.91570e-13,-6.71523e-01,1.90392e-12,-6.71523e-01,1.56172e-12,-6.71523e-01
8.33083e+02,1.77600e+03,1.76200e+03,1.40000e+01,7.30591e-13,-6.63977e-01,1.13719e-12,-6.63977e-01,1.26692e-12,-6.63977e-01
8.33331e+02,1.34500e+03,2.16100e+03,-8.16000e+02,2.62390e-13,-6.56432e-01,1.07530e-12,-6.56432e-01,8.54083e-13,-6.56432e-01
8.33579e+02,9.14000e+02,2.27200e+03,-1.35800e+03,1.36977e-12,-6.48887e-01,2.18112e-12,-6.48887e-01,1.23430e-12,-6.48887e-01
8.33828e+02,7.84000e+02,2.21300e+03,-1.42900e+03,1.45929e-12,-6.41342e-01,2.74059e-12,-6.41342e-01,1.62089e-12,-6.41342e-01
8.34076e+02,7.51000e+02,1.80400e+03,-1.05300e+03,1.18608e-12,-6.33797e-01,2.49680e-12,-6.33797e-01,1.31325e-12,-6.33797e-01
8.34324e+02,8.82000e+02,1.60600e+03,-7.24000e+02,9.06830e-13,-6.26251e-01,1.10981e-12,-6.26251e-01,1.21769e-12,-6.26251e-01
8.34573e+02,1.03800e+03,1.24000e+03,-2.02000e+02,1.05023e-12,-6.18706e-01,1.84672e-12,-6.18706e-01,2.22392e-12,-6.18706e-01
8.34821e+02,1.27700e+03,9.68000e+02,3.09000e+02,2.47667e-12,-6.11161e-01,2.22678e-12,-6.11161e-01,2.30112e-12,-6.11161e-01
8.35069e+02,1.39100e+03,7.20000e+02,6.71000e+02,3.83827e-12,-6.03616e-01,1.10699e-12,-6.03616e-01,2.90472e-12,-6.03616e-01
8.35318e+02,1.70200e+03,7.58000e+02,9.44000e+02,4.29109e-12,-5.96071e-01,1.39841e-12,-5.96071e-01,3.55704e-12,-5.96071e-01
8.35566e+02,1.53900e+03,7.03000e+02,8.36000e+02,3.02071e-12,-5.88525e-01,1.86777e-12,-5.88525e-01,2.43472e-12,-5.88525e-01
8.35814e+02,1.41800e+03,8.18000e+02,6.00000e+02,1.64552e-12,-5.80980e-01,2.00226e-12,-5.80980e-01,1.87835e-12,-5.80980e-01
8.36062e+02,1.08300e+03,9.13000e+02,1.70000e+02,9.21976e-13,-5.73435e-01,1.62800e-12,-5.73435e-01,1.69414e-12,-5.73435e-01
8.36311e+02,8.85000e+02,1.10000e+03,-2.15000e+02,3.72263e-13,-5.65890e-01,1.04334e-12,-5.65890e-01,1.38610e-12,-5.65890e-01
8.36559e+02,7.36000e+02,1.22100e+03,-4.85000e+02,1.17740e-12,-5.58345e-01,2.78834e-13,-5.58345e-01,1.45393e-12,-5.58345e-01
8.36807e+02,6.92000e+02,1.35200e+03,-6.60000e+02,4.77823e-13,-5.50799e-01,6.74403e-13,-5.50799e-01,8.23250e-13,-5.50799e-01
8.37055e+02,6.71000e+02,1.24500e+03,-5.74000e+02,9.24695e-13,-5.43254e-01,1.84081e-12,-5.43254e-01,1.47530e-12,-5.43254e-01
8.37304e+02,6.81000e+02,1.09000e+03,-4.09000e+02,1.85165e-12,-5.35709e-01,2.56937e-12,-5.35709e-01,1.40522e-12,-5.35709e-01
8.37552e+02,7.04000e+02,8.82000e+02,-1.78000e+02,2.04067e-12,-5.28164e-01,1.96449e-12,-5.28164e-01,8.45410e-13,-5.28164e-01
8.37800e+02,8.29000e+02,7.74000e+02,5.50000e+01,1.44440e-12,-5.20619e-01,1.32952e-12,-5.20619e-01,9.48817e-13,-5.20619e-01
8.38048e+02,8.10000e+02,6.53000e+02,1.57000e+02,1.14575e-12,-5.13073e-01,1.70204e-12,-5.13073e-01,1.34502e-12,-5.13073e-01
8.38296e+02,9.00000e+02,6.50000e+02,2.50000e+02,8.09805e-13,-5.05528e-01,2.18879e-12,-5.05528e-01,2.26322e-12,-5.05528e-01
8.38545e+02,9.01000e+02,6.40000e+02,2.61000e+02,1.77024e-12,-4.97983e-01,2.01865e-12,-4.97983e-01,3.21656e-12,-4.97983e-01
8.38793e+02,8.72000e+02,6.62000e+02,2.10000e+02,2.75870e-12,-4.90438e-01,4.82178e-13,-4.90438e-01,3.21454e-12,-4.90438e-01
8.39041e+02,7.44000e+02,6.80000e+02,6.40000e+01,1.25948e-12,-4.82893e-01,1.23670e-12,-4.82893e-01,2.11356e-12,-4.82893e-01
8.39289e+02,7.17000e+02,7.45000e+02,-2.80000e+01,5.85358e-13,-4.75347e-01,1.28738e-12,-4.75347e-01,1.07441e-12,-4.75347e-01
8.39537e+02,6.48000e+02,7.50000e+02,-1.02000e+02,7.32770e-13,-4.67802e-01,2.21955e-12,-4.67802e-01,1.94893e-12,-4.67802e-01
8.39785e+02,6.37000e+02,8.08000e+02,-1.71000e+02,1.65369e-12,-4.60257e-01,3.85676e-12,-4.60257e-01,4.63634e-12,-4.60257e-01
8.40033e+02,6.48000e+02,7.75000e+02,-1.27000e+02,1.26996e-12,-4.52712e-01,4.33410e-12,-4.52712e-01,4.47848e-12,-4.52712e-01
8.40281e+02,6.67000e+02,7.65000e+02,-9.80000e+01,2.61098e-12,-4.45167e-01,3.75089e-12,-4.45167e-01,2.80554e-12,-4.45167e-01
8.40530e+02,6.37000e+02,6.74000e+02,-3.70000e+01,4.02975e-12,-4.37621e-01,2.39736e-12,-4.37621e-01,2.24846e-12,-4.37621e-01
8.40778e+02,6.56000e+02,6.67000e+02,-1.10000e+01,2.96834e-12,-4.30076e-01,2.51028e-12,-4.30076e-01,1.41421e-12,-4.30076e-01
8.41026e+02,6.85000e+02,6.45000e+02,4.00000e+01,6.71056e-13,-4.22531e-01,2.74189e-12,-4.22531e-01,2.10693e-12,-4.22531e-01
8.41274e+02,6.96000e+02,6.34000e+02,6.20000e+01,7.34763e-13,-4.14986e-01,1.68567e-12,-4.14986e-01,2.16568e-12,-4.14986e-01
8.41522e+02,6.88000e+02,6.26000e+02,6.20000e+01,1.02781e-12,-4.07441e-01,8.10172e-13,-4.07441e-01,6.78853e-13,-4.07441e-01
8.41770e+02,6.97000e+02,6.39000e+02,5.80000e+01,1.92060e-12,-3.99895e-01,5.48962e-13,-3.99895e-01,1.52273e-12,-3.99895e-01
8.42018e+02,6.68000e+02,6.31000e+02,3.70000e+01,4.01649e-13,-3.92350e-01,1.18567e-12,-3.92350e-01,8.05921e-13,-3.92350e-01
8.42266e+02,6.57000e+02,6.49000e+02,8.00000e+00,2.29941e-12,-3.84805e-01,1.61873e-12,-3.84805e-01,3.84271e-12,-3.84805e-01
8.42514e+02,6.42000e+02,6.58000e+02,-1.60000e+01,2.73318e-12,-3.77260e-01,3.30983e-12,-3.77260e-01,3.17195e-12,-3.77260e-01
8.42762e+02,6.69000e+02,6.96000e+02,-2.70000e+01,2.74023e-12,-3.69715e-01,4.39519e-12,-3.69715e-01,2.24607e-12,-3.69715e-01
8.43010e+02,6.33000e+02,6.37000e+02,-4.00000e+00,3.90729e-12,-3.62169e-01,4.04030e-12,-3.62169e-01,4.91788e-12,-3.62169e-01
8.43258e+02,6.35000e+02,6.46000e+02,-1.10000e+01,3.85468e-12,-3.54624e-01,2.54869e-12,-3.54624e-01,5.22891e-12,-3.54624e-01
8.43506e+02,6.41000e+02,6.50000e+02,-9.00000e+00,2.75080e-12,-3.47079e-01,2.83942e-12,-3.47079e-01,5.01387e-12,-3.47079e-01
8.43754e+02,6.23000e+02,6.36000e+02,-1.30000e+01,4.88707e-13,-3.39534e-01,3.09285e-12,-3.39534e-01,3.53943e-12,-3.39534e-01
8.44002e+02,6.31000e+02,6.29000e+02,2.00000e+00,1.95034e-12,-3.31989e-01,2.04418e-12,-3.31989e-01,2.62164e-12,-3.31989e-01
8.44250e+02,6.60000e+02,6.33000e+02,2.70000e+01,2.61914e-12,-3.24444e-01,2.23935e-12,-3.24444e-01,2.49322e-12,-3.24444e-01
8.44498e+02,6.46000e+02,6.33000e+02,1.30000e+01,2.14145e-12,-3.16898e-01,4.12343e-12,-3.16898e-01,3.79478e-12,-3.16898e-01
8.44746e+02,6.45000e+02,6.27000e+02,1.80000e+01,1.08902e-12,-3.09353e-01,5.65281e-12,-3.09353e-01,5.84895e-12,-3.09353e-01
8.44994e+02,6.29000e+02,6.25000e+02,4.00000e+00,1.18518e-12,-3.01808e-01,3.44856e-12,-3.01808e-01,4.45088e-12,-3.01808e-01
8.45242e+02,6.68000e+02,6.60000e+02,8.00000e+00,1.59990e-12,-2.94263e-01,3.42102e-13,-2.94263e-01,1.29619e-12,-2.94263e-01
8.45490e+02,6.17000e+02,6.21000e+02,-4.00000e+00,2.56445e-12,-2.86718e-01,2.76067e-12,-2.86718e-01,5.08542e-12,-2.86718e-01
8.45738e+02,6.34000e+02,6.34000e+02,0.00000e+00,4.02750e-12,-2.79172e-01,5.18654e-12,-2.79172e-01,9.09375e-12,-2.79172e-01
8.45985e+02,6.23000e+02,6.27000e+02,-4.00000e+00,3.16531e-12,-2.71627e-01,6.03276e-12,-2.71627e-01,8.40809e-12,-2.71627e-01
8.46233e+02,6.34000e+02,6.31000e+02,3.00000e+00,5.35805e-12,-2.64082e-01,4.35845e-12,-2.64082e-01,8.63959e-12,-2.64082e-01
8.46481e+02,6.32000e+02,6.29000e+02,3.00000e+00,4.90001e-12,-2.56537e-01,4.62976e-12,-2.56537e-01,9.36729e-12,-2.56537e-01
8.46729e+02,6.12000e+02,6.24000e+02,-1.20000e+01,8.18724e-12,-2.48992e-01,8.59875e-12,-2.48992e-01,1.35626e-11,-2.48992e-01
8.46977e+02,6.27000e+02,6.31000e+02,-4.00000e+00,4.74696e-11,-2.41446e-01,3.74574e-11,-2.41446e-01,7.92010e-11,-2.41446e-01
8.47225e+02,6.28000e+02,6.33000e+02,-5.00000e+00,1.00177e-10,-2.33901e-01,8.97734e-11,-2.33901e-01,1.81600e-10,-2.33901e-01
8.47473e+02,6.36000e+02,6.17000e+02,1.90000e+01,1.07211e-10,-2.26356e-01,1.06960e-10,-2.26356e-01,2.05957e-10,-2.26356e-01
8.47720e+02,6.66000e+02,6.70000e+02,-4.00000e+00,6.33716e-11,-2.18811e-01,6.92637e-11,-2.18811e-01,1.27611e-10,-2.18811e-01
8.47968e+02,6.14000e+02,6.12000e+02,2.00000e+00,2.43153e-11,-2.11266e-01,3.09920e-11,-2.11266e-01,5.32321e-11,-2.11266e-01
8.48216e+02,6.37000e+02,6.22000e+02,1.50000e+01,4.26026e-12,-2.03720e-01,8.95395e-12,-2.03720e-01,1.28444e-11,-2.03720e-01
8.48464e+02,6.26000e+02,6.24000e+02,2.00000e+00,4.61038e-12,-1.96175e-01,3.30591e-12,-1.96175e-01,6.47900e-12,-1.96175e-01
8.48712e+02,6.31000e+02,6.35000e+02,-4.00000e+00,3.06492e-12,-1.88630e-01,4.16158e-12,-1.88630e-01,4.55187e-12,-1.88630e-01
8.48960e+02,6.27000e+02,6.32000e+02,-5.00000e+00,1.21081e-12,-1.81085e-01,3.84713e-12,-1.81085e-01,2.69503e-12,-1.81085e-01
8.49207e+02,6.21000e+02,6.34000e+02,-1.30000e+01,2.41988e-12,-1.73540e-01,4.99726e-12,-1.73540e-01,3.11314e-12,-1.73540e-01
8.49455e+02,6.29000e+02,6.28000e+02,1.00000e+00,1.51776e-12,-1.65994e-01,4.01900e-12,-1.65994e-01,2.72009e-12,-1.65994e-01
8.49703e+02,6.34000e+02,6.24000e+02,1.00000e+01,4.15399e-12,-1.58449e-01,3.67949e-12,-1.58449e-01,4.42393e-12,-1.58449e-01
8.49951e+02,6.24000e+02,6.35000e+02,-1.10000e+01,6.97131e-12,-1.50904e-01,5.57313e-12,-1.50904e-01,3.13897e-12,-1.50904e-01
8.50198e+02,6.77000e+02,6.67000e+02,1.00000e+01,4.48205e-12,-1.43359e-01,3.18081e-12,-1.43359e-01,1.34826e-12,-1.43359e-01
8.50446e+02,6.14000e+02,6.29000e+02,-1.50000e+01,3.06619e-13,-1.35814e-01,1.55843e-12,-1.35814e-01,1.79393e-12,-1.35814e-01
8.50694e+02,6.26000e+02,6.28000e+02,-2.00000e+00,2.34857e-12,-1.28268e-01,1.76065e-12,-1.28268e-01,1.94319e-12,-1.28268e-01
8.50941e+02,6.39000e+02,6.34000e+02,5.00000e+00,2.86422e-12,-1.20723e-01,1.45397e-12,-1.20723e-01,1.43176e-12,-1.20723e-01
8.51189e+02,6.28000e+02,6.41000e+02,-1.30000e+01,1.45009e-12,-1.13178e-01,1.51641e-12,-1.13178e-01,6.66153e-13,-1.13178e-01
8.51437e+02,6.20000e+02,6.26000e+02,-6.00000e+00,2.84173e-12,-1.05633e-01,1.74253e-12,-1.05633e-01,1.32121e-12,-1.05633e-01
8.51685e+02,6.36000e+02,6.19000e+02,1.70000e+01,4.08752e-12,-9.80876e-02,1.66592e-12,-9.80876e-02,2.49316e-12,-9.80876e-02
8.51932e+02,6.28000e+02,6.32000e+02,-4.00000e+00,4.28553e-12,-9.05424e-02,1.01469e-12,-9.05424e-02,5.24454e-12,-9.05424e-02
8.52180e+02,6.37000e+02,6.48000e+02,-1.10000e+01,3.32619e-12,-8.29972e-02,3.71464e-12,-8.29972e-02,6.88259e-12,-8.29972e-02
8.52428e+02,6.28000e+02,6.24000e+02,4.00000e+00,3.47060e-12,-7.54520e-02,2.75734e-12,-7.54520e-02,4.91862e-12,-7.54520e-02
8.52675e+02,6.60000e+02,6.61000e+02,-1.00000e+00,5.25108e-12,-6.79068e-02,4.72527e-12,-6.79068e-02,7.43783e-13,-6.79068e-02
8.52923e+02,6.21000e+02,6.18000e+02,3.00000e+00,7.13397e-12,-6.03616e-02,9.72831e-12,-6.03616e-02,2.66383e-12,-6.03616e-02
8.53170e+02,6.33000e+02,6.23000e+02,1.00000e+01,8.01610e-12,-5.28164e-02,1.08226e-11,-5.28164e-02,2.86302e-12,-5.28164e-02
8.53418e+02,6.39000e+02,6.26000e+02,1.30000e+01,4.45448e-12,-4.52712e-02,6.29433e-12,-4.52712e-02,2.78323e-12,-4.52712e-02
8.53666e+02,6.30000e+02,6.28000e+02,2.00000e+00,1.32088e-12,-3.77260e-02,5.29744e-13,-3.77260e-02,1.72427e-12,-3.77260e-02
8.53913e+02,6.34000e+02,6.23000e+02,1.10000e+01,2.01106e-12,-3.01808e-02,2.59430e-12,-3.01808e-02,4.60500e-12,-3.01808e-02
8.54161e+02,6.30000e+02,6.36000e+02,-6.00000e+00,1.67435e-11,-2.26356e-02,1.26786e-11,-2.26356e-02,4.35727e-12,-2.26356e-02
8.54409e+02,6.21000e+02,6.26000e+02,-5.00000e+00,8.15357e-11,-1.50904e-02,7.87473e-11,-1.50904e-02,2.82324e-12,-1.50904e-02
8.54656e+02,6.32000e+02,6.24000e+02,8.00000e+00,2.32579e-10,-7.54520e-03,2.29331e-10,-7.54520e-03,3.94941e-12,-7.54520e-03
