7.67698e+02,6.27000e+02,6.45000e+02,-1.80000e+01,3.86189e-10,0.00000e+00,3.82240e-10,0.00000e+00,3.94852e-12,0.00000e+00
7.67949e+02,6.68000e+02,6.73000e+02,-5.00000e+00,2.27573e-10,7.54520e-03,2.25161e-10,7.54520e-03,5.28062e-12,7.54520e-03
7.68199e+02,6.26000e+02,6.12000e+02,1.40000e+01,7.68672e-11,1.50904e-02,7.80596e-11,1.50904e-02,3.78362e-12,1.50904e-02
7.68450e+02,6.36000e+02,6.28000e+02,8.00000e+00,1.08142e-11,2.26356e-02,1.35371e-11,2.26356e-02,2.72841e-12,2.26356e-02
7.68701e+02,6.40000e+02,6.27000e+02,1.30000e+01,6.07808e-12,3.01808e-02,2.57986e-12,3.01808e-02,3.50538e-12,3.01808e-02
7.68951e+02,6.46000e+02,6.37000e+02,9.00000e+00,4.08990e-12,3.77260e-02,3.80893e-12,3.77260e-02,3.08015e-12,3.77260e-02
7.69202e+02,6.31000e+02,6.40000e+02,-9.00000e+00,3.22703e-12,4.52712e-02,5.07588e-12,4.52712e-02,4.63193e-12,4.52712e-02
7.69453e+02,6.58000e+02,6.31000e+02,2.70000e+01,7.86905e-12,5.28164e-02,7.87879e-12,5.28164e-02,5.02993e-13,5.28164e-02
7.69703e+02,6.44000e+02,6.33000e+02,1.10000e+01,8.19404e-12,6.03616e-02,1.05331e-11,6.03616e-02,1.19359e-11,6.03616e-02
7.69954e+02,6.47000e+02,6.29000e+02,1.80000e+01,1.27336e-11,6.79068e-02,1.52413e-11,6.79068e-02,2.60370e-11,6.79068e-02
7.70205e+02,6.44000e+02,6.22000e+02,2.20000e+01,1.50896e-11,7.54520e-02,1.42326e-11,7.54520e-02,2.91961e-11,7.54520e-02
7.70455e+02,6.81000e+02,6.52000e+02,2.90000e+01,4.33786e-11,8.29972e-02,3.49031e-11,8.29972e-02,7.61500e-11,8.29972e-02
7.70706e+02,6.37000e+02,6.17000e+02,2.00000e+01,9.57861e-11,9.05424e-02,8.77461e-11,9.05424e-02,1.76916e-10,9.05424e-02
7.70957e+02,6.40000e+02,6.37000e+02,3.00000e+00,1.34786e-10,9.80876e-02,1.30320e-10,9.80876e-02,2.54554e-10,9.80876e-02
7.71207e+02,6.31000e+02,6.48000e+02,-1.70000e+01,1.12944e-10,1.05633e-01,1.15407e-10,1.05633e-01,2.16532e-10,1.05633e-01
7.71458e+02,6.33000e+02,6.51000e+02,-1.80000e+01,5.26481e-11,1.13178e-01,5.53435e-11,1.13178e-01,9.98023e-11,1.13178e-01
7.71708e+02,6.23000e+02,6.64000e+02,-4.10000e+01,1.85866e-11,1.20723e-01,1.54212e-11,1.20723e-01,3.09889e-11,1.20723e-01
7.71959e+02,6.14000e+02,7.04000e+02,-9.00000e+01,2.91807e-12,1.28268e-01,2.98418e-12,1.28268e-01,5.29608e-12,1.28268e-01
7.72210e+02,6.27000e+02,7.09000e+02,-8.20000e+01,7.27963e-12,1.35814e-01,6.97840e-12,1.35814e-01,1.36937e-11,1.35814e-01
7.72460e+02,6.20000e+02,7.52000e+02,-1.32000e+02,2.77768e-12,1.43359e-01,2.92509e-12,1.43359e-01,1.09109e-12,1.43359e-01
7.72711e+02,6.27000e+02,7.55000e+02,-1.28000e+02,8.73338e-12,1.50904e-01,4.59093e-12,1.50904e-01,8.22942e-12,1.50904e-01
7.72961e+02,6.69000e+02,7.93000e+02,-1.24000e+02,6.96769e-12,1.58449e-01,1.96494e-12,1.58449e-01,7.43852e-12,1.58449e-01
7.73212e+02,6.29000e+02,7.34000e+02,-1.05000e+02,1.85093e-12,1.65994e-01,4.71688e-12,1.65994e-01,3.66056e-12,1.65994e-01
7.73462e+02,6.85000e+02,7.35000e+02,-5.00000e+01,4.95907e-12,1.73540e-01,7.84736e-12,1.73540e-01,2.88862e-12,1.73540e-01
7.73713e+02,6.69000e+02,7.06000e+02,-3.70000e+01,5.14369e-12,1.81085e-01,8.47566e-12,1.81085e-01,4.42052e-12,1.81085e-01
7.73963e+02,7.05000e+02,6.70000e+02,3.50000e+01,5.90856e-12,1.88630e-01,8.45071e-12,1.88630e-01,6.43425e-12,1.88630e-01
7.74214e+02,7.29000e+02,6.52000e+02,7.70000e+01,8.60667e-12,1.96175e-01,8.00717e-12,1.96175e-01,7.62231e-12,1.96175e-01
7.74465e+02,7.86000e+02,6.26000e+02,1.60000e+02,9.04742e-12,2.03720e-01,8.21644e-12,2.03720e-01,8.60811e-12,2.03720e-01
7.74715e+02,7.90000e+02,6.36000e+02,1.54000e+02,6.09225e-12,2.11266e-01,7.71697e-12,2.11266e-01,7.04426e-12,2.11266e-01
7.74965e+02,8.04000e+02,6.20000e+02,1.84000e+02,4.46340e-12,2.18811e-01,4.53479e-12,2.18811e-01,4.92141e-12,2.18811e-01
7.75216e+02,7.56000e+02,6.14000e+02,1.42000e+02,4.71749e-12,2.26356e-01,1.77256e-12,2.26356e-01,4.65928e-12,2.26356e-01
7.75466e+02,8.13000e+02,6.56000e+02,1.57000e+02,5.13296e-12,2.33901e-01,2.76990e-12,2.33901e-01,4.15388e-12,2.33901e-01
7.75717e+02,6.93000e+02,6.15000e+02,7.80000e+01,5.21615e-12,2.41446e-01,3.43080e-12,2.41446e-01,4.33280e-12,2.41446e-01
7.75967e+02,7.11000e+02,6.29000e+02,8.20000e+01,5.72307e-12,2.48992e-01,2.99600e-12,2.48992e-01,5.32962e-12,2.48992e-01
7.76218e+02,6.82000e+02,6.54000e+02,2.80000e+01,1.84929e-12,2.56537e-01,8.17971e-13,2.56537e-01,2.66562e-12,2.56537e-01
7.76468e+02,6.57000e+02,7.08000e+02,-5.10000e+01,2.50278e-12,2.64082e-01,3.01433e-12,2.64082e-01,3.43851e-12,2.64082e-01
7.76719e+02,6.50000e+02,7.58000e+02,-1.08000e+02,2.43732e-12,2.71627e-01,4.42625e-12,2.71627e-01,5.60870e-12,2.71627e-01
7.76969e+02,6.41000e+02,8.37000e+02,-1.96000e+02,1.91655e-12,2.79172e-01,3.33009e-12,2.79172e-01,4.53012e-12,2.79172e-01
7.77219e+02,6.31000e+02,8.91000e+02,-2.60000e+02,4.13864e-12,2.86718e-01,1.51345e-12,2.86718e-01,4.24120e-12,2.86718e-01
7.77470e+02,6.24000e+02,1.07200e+03,-4.48000e+02,4.41001e-12,2.94263e-01,2.15178e-12,2.94263e-01,3.97027e-12,2.94263e-01
7.77720e+02,6.28000e+02,1.09500e+03,-4.67000e+02,4.92340e-12,3.01808e-01,3.87521e-12,3.01808e-01,4.69372e-12,3.01808e-01
7.77971e+02,6.65000e+02,1.23200e+03,-5.67000e+02,5.49147e-12,3.09353e-01,5.39764e-12,3.09353e-01,3.44878e-12,3.09353e-01
7.78221e+02,6.66000e+02,1.16800e+03,-5.02000e+02,5.10295e-12,3.16898e-01,5.10189e-12,3.16898e-01,1.39236e-12,3.16898e-01
7.78471e+02,7.42000e+02,1.19000e+03,-4.48000e+02,4.86048e-12,3.24444e-01,3.21446e-12,3.24444e-01,1.65002e-12,3.24444e-01
7.78722e+02,8.12000e+02,1.11300e+03,-3.01000e+02,3.67182e-12,3.31989e-01,1.17069e-12,3.31989e-01,2.54432e-12,3.31989e-01
7.78972e+02,1.04000e+03,1.14700e+03,-1.07000e+02,1.74992e-12,3.39534e-01,8.20310e-13,3.39534e-01,2.14239e-12,3.39534e-01
7.79222e+02,1.17000e+03,1.01300e+03,1.57000e+02,2.19143e-12,3.47079e-01,1.21163e-12,3.47079e-01,3.13579e-12,3.47079e-01
7.79473e+02,1.34000e+03,9.83000e+02,3.57000e+02,2.15044e-12,3.54624e-01,1.67335e-12,3.54624e-01,1.70171e-12,3.54624e-01
7.79723e+02,1.32000e+03,7.79000e+02,5.41000e+02,3.10430e-12,3.62169e-01,2.47774e-12,3.62169e-01,6.54206e-13,3.62169e-01
7.79973e+02,1.54800e+03,7.42000e+02,8.06000e+02,2.96402e-12,3.69715e-01,2.49409e-12,3.69715e-01,4.97328e-13,3.69715e-01
7.80224e+02,1.55600e+03,6.78000e+02,8.78000e+02,8.10299e-13,3.77260e-01,9.37537e-13,3.77260e-01,5.20583e-13,3.77260e-01
7.80474e+02,1.68100e+03,6.88000e+02,9.93000e+02,2.25992e-12,3.84805e-01,1.40412e-12,3.84805e-01,1.15658e-12,3.84805e-01
7.80724e+02,1.42900e+03,6.09000e+02,8.20000e+02,2.63201e-12,3.92350e-01,9.77090e-13,3.92350e-01,2.06231e-12,3.92350e-01
7.80974e+02,1.39100e+03,6.41000e+02,7.50000e+02,1.23863e-12,3.99895e-01,4.10049e-13,3.99895e-01,1.64862e-12,3.99895e-01
7.81225e+02,1.36800e+03,6.43000e+02,7.25000e+02,8.14756e-13,4.07441e-01,8.58126e-13,4.07441e-01,1.32739e-12,4.07441e-01
7.81475e+02,1.34200e+03,7.15000e+02,6.27000e+02,1.76127e-12,4.14986e-01,8.58305e-13,4.14986e-01,2.18487e-12,4.14986e-01
7.81725e+02,1.10400e+03,7.84000e+02,3.20000e+02,1.81192e-12,4.22531e-01,1.02139e-12,4.22531e-01,2.70947e-12,4.22531e-01
7.81975e+02,1.01100e+03,1.02400e+03,-1.30000e+01,1.76548e-12,4.30076e-01,9.08699e-13,4.30076e-01,2.62415e-12,4.30076e-01
7.82226e+02,8.37000e+02,1.19000e+03,-3.53000e+02,3.63377e-13,4.37621e-01,1.18827e-12,4.37621e-01,1.44250e-12,4.37621e-01
7.82476e+02,7.16000e+02,1.53200e+03,-8.16000e+02,1.29374e-12,4.45167e-01,8.60560e-13,4.45167e-01,5.30598e-13,4.45167e-01
7.82726e+02,6.64000e+02,1.73300e+03,-1.06900e+03,2.31823e-12,4.52712e-01,1.85504e-12,4.52712e-01,2.53626e-12,4.52712e-01
7.82976e+02,6.78000e+02,1.87300e+03,-1.19500e+03,2.42366e-12,4.60257e-01,2.11539e-12,4.60257e-01,2.56924e-12,4.60257e-01
7.83226e+02,6.33000e+02,1.87700e+03,-1.24400e+03,2.22063e-12,4.67802e-01,2.27354e-12,4.67802e-01,1.89949e-12,4.67802e-01
7.83477e+02,6.68000e+02,2.21700e+03,-1.54900e+03,2.03400e-12,4.75347e-01,2.28006e-12,4.75347e-01,1.00831e-12,4.75347e-01
7.83727e+02,7.40000e+02,2.22100e+03,-1.48100e+03,1.39955e-12,4.82893e-01,1.13026e-12,4.82893e-01,9.69345e-13,4.82893e-01
7.83977e+02,9.92000e+02,2.35300e+03,-1.36100e+03,1.26892e-12,4.90438e-01,9.81567e-13,4.90438e-01,2.24395e-12,4.90438e-01
7.84227e+02,1.24400e+03,2.40000e+03,-1.15600e+03,9.98575e-13,4.97983e-01,2.29760e-12,4.97983e-01,1.87094e-12,4.97983e-01
7.84477e+02,1.67600e+03,2.42800e+03,-7.52000e+02,2.28457e-12,5.05528e-01,2.65730e-12,5.05528e-01,3.98906e-13,5.05528e-01
7.84727e+02,1.90800e+03,2.08700e+03,-1.79000e+02,2.50506e-12,5.13073e-01,1.77195e-12,5.13073e-01,9.15318e-13,5.13073e-01
7.84978e+02,2.44200e+03,2.02300e+03,4.19000e+02,1.10515e-12,5.20619e-01,7.85844e-13,5.20619e-01,1.14658e-12,5.20619e-01
7.85228e+02,3.04000e+03,1.84400e+03,1.19600e+03,4.96411e-13,5.28164e-01,1.58968e-12,5.28164e-01,1.11428e-12,5.28164e-01
7.85478e+02,3.42600e+03,1.63000e+03,1.79600e+03,1.07238e-12,5.35709e-01,1.98339e-12,5.35709e-01,1.45717e-12,5.35709e-01
7.85728e+02,3.86400e+03,1.23300e+03,2.63100e+03,1.34799e-12,5.43254e-01,1.37097e-12,5.43254e-01,2.10495e-12,5.43254e-01
7.85978e+02,4.00700e+03,9.52000e+02,3.05500e+03,1.04038e-12,5.50799e-01,4.67868e-13,5.50799e-01,1.31898e-12,5.50799e-01
7.86228e+02,3.89500e+03,7.01000e+02,3.19400e+03,9.35957e-13,5.58345e-01,5.02756e-13,5.58345e-01,4.62600e-13,5.58345e-01
7.86478e+02,3.57200e+03,6.71000e+02,2.90100e+03,5.42255e-13,5.65890e-01,2.31218e-13,5.65890e-01,5.00669e-13,5.65890e-01
7.86728e+02,3.27200e+03,6.77000e+02,2.59500e+03,4.02485e-13,5.73435e-01,1.25873e-12,5.73435e-01,8.90919e-13,5.73435e-01
7.86978e+02,2.75400e+03,7.59000e+02,1.99500e+03,9.96924e-13,5.80980e-01,1.56626e-12,5.80980e-01,5.92226e-13,5.80980e-01
7.87228e+02,2.39000e+03,9.42000e+02,1.44800e+03,1.58904e-12,5.88525e-01,1.12068e-12,5.88525e-01,5.49580e-13,5.88525e-01
7.87478e+02,2.01800e+03,1.42000e+03,5.98000e+02,1.65549e-12,5.96071e-01,5.35242e-13,5.96071e-01,1.16002e-12,5.96071e-01
7.87728e+02,1.52000e+03,1.81000e+03,-2.90000e+02,9.22962e-13,6.03616e-01,7.82262e-13,6.03616e-01,7.08912e-13,6.03616e-01
7.87978e+02,1.29100e+03,2.51000e+03,-1.21900e+03,6.23725e-13,6.11161e-01,1.57130e-12,6.11161e-01,2.10227e-12,6.11161e-01
7.88228e+02,8.37000e+02,2.88100e+03,-2.04400e+03,9.52432e-13,6.18706e-01,1.35460e-12,6.18706e-01,2.10756e-12,6.18706e-01
7.88478e+02,7.18000e+02,3.73300e+03,-3.01500e+03,1.30002e-12,6.26251e-01,1.03924e-12,6.26251e-01,7.19759e-13,6.26251e-01
7.88728e+02,6.82000e+02,4.28200e+03,-3.60000e+03,1.09776e-12,6.33797e-01,2.56528e-12,6.33797e-01,1.48305e-12,6.33797e-01
7.88978e+02,7.19000e+02,4.36000e+03,-3.64100e+03,1.27341e-12,6.41342e-01,2.87239e-12,6.41342e-01,1.84798e-12,6.41342e-01
7.89228e+02,8.80000e+02,4.90600e+03,-4.02600e+03,1.84362e-12,6.48887e-01,2.19961e-12,6.48887e-01,9.28282e-13,6.48887e-01
7.89478e+02,1.38800e+03,5.11200e+03,-3.72400e+03,1.68568e-12,6.56432e-01,1.16621e-12,6.56432e-01,5.57549e-13,6.56432e-01
7.89728e+02,1.96000e+03,5.14100e+03,-3.18100e+03,1.38104e-12,6.63977e-01,1.43034e-12,6.63977e-01,1.10316e-12,6.63977e-01
7.89978e+02,2.69400e+03,5.04100e+03,-2.34700e+03,1.02442e-12,6.71523e-01,1.81946e-12,6.71523e-01,1.25710e-12,6.71523e-01
7.90228e+02,3.11400e+03,4.27600e+03,-1.16200e+03,1.23131e-12,6.79068e-01,1.76598e-12,6.79068e-01,5.35984e-13,6.79068e-01
7.90478e+02,3.91400e+03,3.79900e+03,1.15000e+02,1.17501e-12,6.86613e-01,1.06005e-12,6.86613e-01,1.15724e-13,6.86613e-01
7.90728e+02,4.71900e+03,3.38500e+03,1.33400e+03,1.28430e-12,6.94158e-01,9.71206e-13,6.94158e-01,3.47456e-13,6.94158e-01
7.90978e+02,5.85700e+03,3.02000e+03,2.83700e+03,1.98405e-12,7.01703e-01,1.57144e-12,7.01703e-01,1.04295e-12,7.01703e-01
7.91228e+02,6.33100e+03,2.28800e+03,4.04300e+03,1.20546e-12,7.09249e-01,1.27902e-12,7.09249e-01,1.33745e-12,7.09249e-01
7.91478e+02,6.33000e+03,1.64100e+03,4.68900e+03,4.43204e-13,7.16794e-01,9.15008e-13,7.16794e-01,8.01015e-13,7.16794e-01
7.91728e+02,6.03400e+03,1.05000e+03,4.98400e+03,9.12796e-13,7.24339e-01,4.11003e-13,7.24339e-01,8.85281e-13,7.24339e-01
7.91977e+02,5.74600e+03,7.92000e+02,4.95400e+03,1.17179e-12,7.31884e-01,9.40913e-13,7.31884e-01,1.74796e-12,7.31884e-01
7.92227e+02,5.09900e+03,7.02000e+02,4.39700e+03,6.09700e-13,7.39429e-01,1.74568e-12,7.39429e-01,1.46062e-12,7.39429e-01
7.92477e+02,5.33300e+03,8.00000e+02,4.53300e+03,8.51686e-13,7.46975e-01,1.43121e-12,7.46975e-01,1.13550e-12,7.46975e-01
7.92727e+02,5.22500e+03,1.12000e+03,4.10500e+03,9.40739e-13,7.54520e-01,6.27541e-13,7.54520e-01,1.38746e-12,7.54520e-01
7.92977e+02,4.50000e+03,1.68600e+03,2.81400e+03,5.82744e-13,7.62065e-01,5.59598e-13,7.62065e-01,3.95134e-13,7.62065e-01
7.93227e+02,3.30300e+03,2.14600e+03,1.15700e+03,1.29822e-12,7.69610e-01,8.98722e-13,7.69610e-01,4.09922e-13,7.69610e-01
7.93476e+02,2.62400e+03,2.92500e+03,-3.01000e+02,1.13804e-12,7.77155e-01,5.72408e-13,7.77155e-01,5.81089e-13,7.77155e-01
7.93726e+02,1.92100e+03,3.87400e+03,-1.95300e+03,6.96666e-13,7.84701e-01,1.04566e-12,7.84701e-01,4.77501e-13,7.84701e-01
7.93976e+02,1.38900e+03,4.81600e+03,-3.42700e+03,7.61187e-13,7.92246e-01,1.82107e-12,7.92246e-01,1.12879e-12,7.92246e-01
7.94226e+02,9.36000e+02,5.75000e+03,-4.81400e+03,3.41501e-13,7.99791e-01,1.31521e-12,7.99791e-01,1.00500e-12,7.99791e-01
7.94476e+02,7.97000e+02,6.86200e+03,-6.06500e+03,2.84178e-13,8.07336e-01,1.01630e-12,8.07336e-01,1.02237e-12,8.07336e-01
7.94725e+02,7.83000e+02,6.80000e+03,-6.01700e+03,2.97935e-13,8.14881e-01,6.86134e-13,8.14881e-01,8.89799e-13,8.14881e-01
7.94975e+02,1.04100e+03,7.36000e+03,-6.31900e+03,2.58720e-13,8.22427e-01,1.30106e-12,8.22427e-01,1.04378e-12,8.22427e-01
7.95225e+02,1.47000e+03,7.76000e+03,-6.29000e+03,7.03564e-13,8.29972e-01,1.72053e-12,8.29972e-01,1.46558e-12,8.29972e-01
7.95475e+02,2.27600e+03,7.72600e+03,-5.45000e+03,1.18311e-12,8.37517e-01,1.42661e-12,8.37517e-01,2.12027e-12,8.37517e-01
7.95724e+02,2.99600e+03,7.23900e+03,-4.24300e+03,1.30968e-12,8.45062e-01,8.30318e-13,8.45062e-01,2.06129e-12,8.45062e-01
7.95974e+02,3.91200e+03,7.07900e+03,-3.16700e+03,1.06435e-12,8.52607e-01,2.11818e-13,8.52607e-01,8.52763e-13,8.52607e-01
7.96224e+02,5.20000e+03,6.84200e+03,-1.64200e+03,5.40931e-13,8.60153e-01,8.18337e-13,8.60153e-01,7.00023e-13,8.60153e-01
7.96474e+02,6.56300e+03,6.58800e+03,-2.50000e+01,1.24238e-12,8.67698e-01,1.11722e-12,8.67698e-01,1.24455e-12,8.67698e-01
7.96723e+02,6.94800e+03,5.23900e+03,1.70900e+03,1.12648e-12,8.75243e-01,1.24508e-12,8.75243e-01,5.78872e-13,8.75243e-01
7.96973e+02,7.62000e+03,4.15000e+03,3.47000e+03,5.07688e-13,8.82788e-01,1.55136e-12,8.82788e-01,1.04595e-12,8.82788e-01
7.97223e+02,9.05200e+03,3.50900e+03,5.54300e+03,5.27035e-13,8.90333e-01,1.78880e-12,8.90333e-01,1.99660e-12,8.90333e-01
7.97472e+02,9.41900e+03,2.67300e+03,6.74600e+03,9.06265e-13,8.97879e-01,1.39102e-12,8.97879e-01,1.64363e-12,8.97879e-01
7.97722e+02,1.07060e+04,1.97200e+03,8.73400e+03,1.04041e-12,9.05424e-01,7.89253e-13,9.05424e-01,5.43804e-13,9.05424e-01
7.97972e+02,1.12810e+04,1.43800e+03,9.84300e+03,9.51100e-13,9.12969e-01,1.47103e-12,9.12969e-01,5.29854e-13,9.12969e-01
7.98221e+02,1.07040e+04,9.78000e+02,9.72600e+03,7.83813e-13,9.20514e-01,1.00107e-12,9.20514e-01,3.49810e-13,9.20514e-01
7.98471e+02,1.00840e+04,9.92000e+02,9.09200e+03,1.12351e-12,9.28059e-01,1.20337e-12,9.28059e-01,1.26093e-13,9.28059e-01
7.98721e+02,9.65500e+03,1.28700e+03,8.36800e+03,1.34973e-12,9.35605e-01,1.55005e-12,9.35605e-01,4.44481e-13,9.35605e-01
7.98970e+02,9.49100e+03,1.92100e+03,7.57000e+03,9.97601e-13,9.43150e-01,5.67046e-13,9.43150e-01,6.51208e-13,9.43150e-01
7.99220e+02,8.28300e+03,2.70000e+03,5.58300e+03,9.42817e-13,9.50695e-01,4.45949e-13,9.50695e-01,6.39510e-13,9.50695e-01
7.99469e+02,6.43900e+03,3.64400e+03,2.79500e+03,7.87133e-13,9.58240e-01,6.21589e-13,9.58240e-01,6.42125e-13,9.58240e-01
7.99719e+02,4.98500e+03,4.65900e+03,3.26000e+02,1.99173e-13,9.65785e-01,6.17428e-13,9.65785e-01,6.13202e-13,9.65785e-01
7.99969e+02,3.62700e+03,5.91400e+03,-2.28700e+03,2.47129e-13,9.73331e-01,5.41142e-13,9.73331e-01,7.88176e-13,9.73331e-01
8.00218e+02,2.74800e+03,7.52200e+03,-4.77400e+03,4.16648e-13,9.80876e-01,8.02371e-13,9.80876e-01,9.53758e-13,9.80876e-01
8.00468e+02,1.95000e+03,9.17200e+03,-7.22200e+03,4.43697e-13,9.88421e-01,1.26088e-12,9.88421e-01,8.31610e-13,9.88421e-01
8.00717e+02,1.16200e+03,1.00900e+04,-8.92800e+03,8.21949e-13,9.95966e-01,1.35617e-12,9.95966e-01,9.77365e-13,9.95966e-01
8.00967e+02,1.00600e+03,1.13690e+04,-1.03630e+04,7.38842e-13,1.00351e+00,4.25512e-13,1.00351e+00,1.06479e-12,1.00351e+00
8.01216e+02,1.08100e+03,1.30720e+04,-1.19910e+04,2.66147e-13,1.01106e+00,9.50160e-13,1.01106e+00,1.21628e-12,1.01106e+00
8.01466e+02,1.69500e+03,1.42800e+04,-1.25850e+04,6.89953e-13,1.01860e+00,8.47241e-13,1.01860e+00,1.24250e-12,1.01860e+00
8.01715e+02,2.51900e+03,1.43340e+04,-1.18150e+04,1.07466e-12,1.02615e+00,1.49405e-13,1.02615e+00,1.22386e-12,1.02615e+00
8.01965e+02,3.67900e+03,1.38320e+04,-1.01530e+04,7.68743e-13,1.03369e+00,3.47098e-13,1.03369e+00,1.08555e-12,1.03369e+00
8.02215e+02,5.12200e+03,1.32330e+04,-8.11100e+03,2.78889e-13,1.04124e+00,1.83102e-13,1.04124e+00,4.19449e-13,1.04124e+00
8.02464e+02,7.06800e+03,1.29150e+04,-5.84700e+03,8.59249e-13,1.04878e+00,3.88949e-13,1.04878e+00,1.24784e-12,1.04878e+00
8.02713e+02,9.25500e+03,1.23260e+04,-3.07100e+03,9.55835e-13,1.05633e+00,7.65338e-13,1.05633e+00,1.39225e-12,1.05633e+00
8.02963e+02,1.15630e+04,1.11750e+04,3.88000e+02,3.68627e-13,1.06387e+00,6.75536e-13,1.06387e+00,1.04000e-12,1.06387e+00
8.03212e+02,1.35890e+04,1.00220e+04,3.56700e+03,1.92990e-13,1.07142e+00,7.92926e-13,1.07142e+00,8.03026e-13,1.07142e+00
8.03462e+02,1.50260e+04,8.47900e+03,6.54700e+03,3.20073e-13,1.07896e+00,5.10860e-13,1.07896e+00,5.90817e-13,1.07896e+00
8.03711e+02,1.52670e+04,6.50100e+03,8.76600e+03,8.66171e-13,1.08651e+00,3.97010e-13,1.08651e+00,9.97866e-13,1.08651e+00
8.03961e+02,1.50150e+04,4.38300e+03,1.06320e+04,9.48632e-13,1.09405e+00,8.55842e-13,1.09405e+00,8.60289e-13,1.09405e+00
8.04210e+02,1.46750e+04,2.77200e+03,1.19030e+04,5.36018e-13,1.10160e+00,6.59649e-13,1.10160e+00,2.43278e-13,1.10160e+00
8.04460e+02,1.45580e+04,1.76600e+03,1.27920e+04,2.42127e-13,1.10914e+00,6.87573e-13,1.10914e+00,4.49781e-13,1.10914e+00
8.04709e+02,1.46630e+04,1.09900e+03,1.35640e+04,2.64392e-13,1.11669e+00,4.51617e-13,1.11669e+00,4.68587e-13,1.11669e+00
8.04958e+02,1.44400e+04,9.90000e+02,1.34500e+04,3.37748e-13,1.12423e+00,1.60410e-13,1.12423e+00,4.64370e-13,1.12423e+00
8.05208e+02,1.38240e+04,1.28800e+03,1.25360e+04,3.06573e-13,1.13178e+00,2.50612e-13,1.13178e+00,8.57846e-14,1.13178e+00
8.05457e+02,1.20810e+04,2.15700e+03,9.92400e+03,5.11273e-13,1.13932e+00,1.39642e-13,1.13932e+00,3.95180e-13,1.13932e+00
8.05707e+02,1.09420e+04,3.42400e+03,7.51800e+03,8.95135e-13,1.14687e+00,4.18399e-13,1.14687e+00,4.82104e-13,1.14687e+00
8.05956e+02,9.28900e+03,5.15300e+03,4.13600e+03,4.69922e-13,1.15442e+00,6.01804e-13,1.15442e+00,1.31936e-13,1.15442e+00
8.06205e+02,6.94200e+03,6.75500e+03,1.87000e+02,2.05493e-13,1.16196e+00,4.31397e-13,1.16196e+00,3.45744e-13,1.16196e+00
8.06455e+02,5.01500e+03,8.41500e+03,-3.40000e+03,2.63337e-13,1.16951e+00,3.45039e-13,1.16951e+00,1.88891e-13,1.16951e+00
8.06704e+02,3.68100e+03,1.03730e+04,-6.69200e+03,3.39722e-13,1.17705e+00,2.97905e-13,1.17705e+00,5.22487e-13,1.17705e+00
8.06953e+02,2.55100e+03,1.29240e+04,-1.03730e+04,3.12072e-13,1.18460e+00,3.26378e-13,1.18460e+00,5.36442e-13,1.18460e+00
8.07203e+02,1.46200e+03,1.32870e+04,-1.18250e+04,2.79034e-13,1.19214e+00,3.82671e-13,1.19214e+00,2.97796e-13,1.19214e+00
8.07452e+02,1.07000e+03,1.41900e+04,-1.31200e+04,4.05930e-13,1.19969e+00,7.34387e-13,1.19969e+00,4.06118e-13,1.19969e+00
8.07701e+02,1.08800e+03,1.50030e+04,-1.39150e+04,2.43753e-13,1.20723e+00,7.50770e-13,1.20723e+00,6.36845e-13,1.20723e+00
8.07951e+02,1.72900e+03,1.50910e+04,-1.33620e+04,3.36109e-13,1.21478e+00,4.22902e-13,1.21478e+00,5.15739e-13,1.21478e+00
8.08200e+02,2.58500e+03,1.46600e+04,-1.20750e+04,2.76569e-13,1.22232e+00,2.06206e-13,1.22232e+00,4.71859e-13,1.22232e+00
8.08449e+02,4.18000e+03,1.48860e+04,-1.07060e+04,1.70745e-13,1.22987e+00,2.84895e-13,1.22987e+00,2.73651e-13,1.22987e+00
8.08698e+02,6.35100e+03,1.53360e+04,-8.98500e+03,1.92965e-13,1.23741e+00,4.33924e-13,1.23741e+00,2.78543e-13,1.23741e+00
8.08948e+02,8.59800e+03,1.52260e+04,-6.62800e+03,4.97543e-13,1.24496e+00,3.80754e-13,1.24496e+00,4.91148e-13,1.24496e+00
8.09197e+02,1.13070e+04,1.47360e+04,-3.42900e+03,5.18883e-13,1.25250e+00,5.95880e-13,1.25250e+00,9.91535e-13,1.25250e+00
8.09446e+02,1.29920e+04,1.27130e+04,2.79000e+02,1.62108e-13,1.26005e+00,5.81274e-13,1.26005e+00,6.18277e-13,1.26005e+00
8.09695e+02,1.45610e+04,1.06780e+04,3.88300e+03,7.82435e-13,1.26759e+00,5.31316e-13,1.26759e+00,5.67901e-13,1.26759e+00
8.09945e+02,1.55530e+04,9.04000e+03,6.51300e+03,5.57716e-13,1.27514e+00,1.93008e-13,1.27514e+00,6.38031e-13,1.27514e+00
8.10194e+02,1.57420e+04,6.68400e+03,9.05800e+03,4.69135e-13,1.28268e+00,1.05453e-13,1.28268e+00,4.09289e-13,1.28268e+00
8.10443e+02,1.58100e+04,4.70000e+03,1.11100e+04,7.11655e-13,1.29023e+00,1.84253e-13,1.29023e+00,7.35047e-13,1.29023e+00
8.10692e+02,1.58500e+04,3.11500e+03,1.27350e+04,5.77555e-13,1.29777e+00,2.70773e-13,1.29777e+00,7.40225e-13,1.29777e+00
8.10941e+02,1.58930e+04,2.09200e+03,1.38010e+04,5.10011e-13,1.30532e+00,4.64922e-13,1.30532e+00,7.74830e-13,1.30532e+00
8.11191e+02,1.57930e+04,1.29600e+03,1.44970e+04,2.12895e-13,1.31286e+00,4.99422e-13,1.31286e+00,6.07098e-13,1.31286e+00
8.11440e+02,1.58020e+04,1.27800e+03,1.45240e+04,1.59276e-12,-1.32041e+00,1.57568e-12,-1.32041e+00,1.70809e-14,-1.32041e+00
8.11689e+02,1.56180e+04,1.83100e+03,1.37870e+04,2.12895e-13,-1.31286e+00,4.99422e-13,-1.31286e+00,6.07098e-13,-1.31286e+00
8.11938e+02,1.46970e+04,2.91400e+03,1.17830e+04,5.10011e-13,-1.30532e+00,4.64922e-13,-1.30532e+00,7.74830e-13,-1.30532e+00
8.12187e+02,1.27460e+04,4.42100e+03,8.32500e+03,5.77555e-13,-1.29777e+00,2.70773e-13,-1.29777e+00,7.40225e-13,-1.29777e+00
8.12436e+02,1.01240e+04,5.89300e+03,4.23100e+03,7.11655e-13,-1.29023e+00,1.84253e-13,-1.29023e+00,7.35047e-13,-1.29023e+00
8.12685e+02,7.43200e+03,7.44300e+03,-1.10000e+01,4.69135e-13,-1.28268e+00,1.05453e-13,-1.28268e+00,4.09289e-13,-1.28268e+00
8.12935e+02,5.79400e+03,9.92100e+03,-4.12700e+03,5.57716e-13,-1.27514e+00,1.93008e-13,-1.27514e+00,6.38031e-13,-1.27514e+00
8.13184e+02,4.25300e+03,1.24210e+04,-8.16800e+03,7.82435e-13,-1.26759e+00,5.31316e-13,-1.26759e+00,5.67901e-13,-1.26759e+00
8.13433e+02,2.87600e+03,1.36770e+04,-1.08010e+04,1.62108e-13,-1.26005e+00,5.81274e-13,-1.26005e+00,6.18277e-13,-1.26005e+00
8.13682e+02,1.83300e+03,1.52690e+04,-1.34360e+04,5.18883e-13,-1.25250e+00,5.95880e-13,-1.25250e+00,9.91535e-13,-1.25250e+00
8.13931e+02,1.29000e+03,1.57420e+04,-1.44520e+04,4.97543e-13,-1.24496e+00,3.80754e-13,-1.24496e+00,4.91148e-13,-1.24496e+00
8.14180e+02,1.19600e+03,1.56460e+04,-1.44500e+04,1.92965e-13,-1.23741e+00,4.33924e-13,-1.23741e+00,2.78543e-13,-1.23741e+00
8.14429e+02,1.76000e+03,1.57720e+04,-1.40120e+04,1.70745e-13,-1.22987e+00,2.84895e-13,-1.22987e+00,2.73651e-13,-1.22987e+00
8.14678e+02,2.74300e+03,1.57390e+04,-1.29960e+04,2.76569e-13,-1.22232e+00,2.06206e-13,-1.22232e+00,4.71859e-13,-1.22232e+00
8.14927e+02,3.87200e+03,1.54470e+04,-1.15750e+04,3.36109e-13,-1.21478e+00,4.22902e-13,-1.21478e+00,5.15739e-13,-1.21478e+00
8.15176e+02,5.16800e+03,1.51230e+04,-9.95500e+03,2.43753e-13,-1.20723e+00,7.50770e-13,-1.20723e+00,6.36845e-13,-1.20723e+00
8.15425e+02,6.68000e+03,1.39960e+04,-7.31600e+03,4.05930e-13,-1.19969e+00,7.34387e-13,-1.19969e+00,4.06118e-13,-1.19969e+00
8.15674e+02,8.60100e+03,1.33880e+04,-4.78700e+03,2.79034e-13,-1.19214e+00,3.82671e-13,-1.19214e+00,2.97796e-13,-1.19214e+00
8.15923e+02,1.17080e+04,1.33840e+04,-1.67600e+03,3.12072e-13,-1.18460e+00,3.26378e-13,-1.18460e+00,5.36442e-13,-1.18460e+00
8.16172e+02,1.30930e+04,1.13130e+04,1.78000e+03,3.39722e-13,-1.17705e+00,2.97905e-13,-1.17705e+00,5.22487e-13,-1.17705e+00
8.16421e+02,1.30570e+04,8.32200e+03,4.73500e+03,2.63337e-13,-1.16951e+00,3.45039e-13,-1.16951e+00,1.88891e-13,-1.16951e+00
8.16670e+02,1.36080e+04,6.15400e+03,7.45400e+03,2.05493e-13,-1.16196e+00,4.31397e-13,-1.16196e+00,3.45744e-13,-1.16196e+00
8.16919e+02,1.49490e+04,5.14000e+03,9.80900e+03,4.69922e-13,-1.15442e+00,6.01804e-13,-1.15442e+00,1.31936e-13,-1.15442e+00
8.17168e+02,1.46110e+04,3.51100e+03,1.11000e+04,8.95135e-13,-1.14687e+00,4.18399e-13,-1.14687e+00,4.82104e-13,-1.14687e+00
8.17417e+02,1.44720e+04,2.36200e+03,1.21100e+04,5.11273e-13,-1.13932e+00,1.39642e-13,-1.13932e+00,3.95180e-13,-1.13932e+00
8.17666e+02,1.48030e+04,1.62500e+03,1.31780e+04,3.06573e-13,-1.13178e+00,2.50612e-13,-1.13178e+00,8.57846e-14,-1.13178e+00
8.17915e+02,1.42480e+04,1.24000e+03,1.30080e+04,3.37748e-13,-1.12423e+00,1.60410e-13,-1.12423e+00,4.64370e-13,-1.12423e+00
8.18164e+02,1.30040e+04,1.06400e+03,1.19400e+04,2.64392e-13,-1.11669e+00,4.51617e-13,-1.11669e+00,4.68587e-13,-1.11669e+00
8.18413e+02,1.16270e+04,1.38500e+03,1.02420e+04,2.42127e-13,-1.10914e+00,6.87573e-13,-1.10914e+00,4.49781e-13,-1.10914e+00
8.18662e+02,9.14500e+03,1.83100e+03,7.31400e+03,5.36018e-13,-1.10160e+00,6.59649e-13,-1.10160e+00,2.43278e-13,-1.10160e+00
8.18911e+02,8.79500e+03,2.73700e+03,6.05800e+03,9.48632e-13,-1.09405e+00,8.55842e-13,-1.09405e+00,8.60289e-13,-1.09405e+00
8.19160e+02,7.35700e+03,3.52100e+03,3.83600e+03,8.66171e-13,-1.08651e+00,3.97010e-13,-1.08651e+00,9.97866e-13,-1.08651e+00
8.19408e+02,6.01400e+03,4.71300e+03,1.30100e+03,3.20073e-13,-1.07896e+00,5.10860e-13,-1.07896e+00,5.90817e-13,-1.07896e+00
8.19657e+02,5.28300e+03,6.86100e+03,-1.57800e+03,1.92990e-13,-1.07142e+00,7.92926e-13,-1.07142e+00,8.03026e-13,-1.07142e+00
8.19906e+02,4.33100e+03,8.94500e+03,-4.61400e+03,3.68627e-13,-1.06387e+00,6.75536e-13,-1.06387e+00,1.04000e-12,-1.06387e+00
8.20155e+02,3.20000e+03,1.03940e+04,-7.19400e+03,9.55835e-13,-1.05633e+00,7.65338e-13,-1.05633e+00,1.39225e-12,-1.05633e+00
8.20404e+02,2.20000e+03,1.10370e+04,-8.83700e+03,8.59249e-13,-1.04878e+00,3.88949e-13,-1.04878e+00,1.24784e-12,-1.04878e+00
8.20653e+02,1.34600e+03,1.08450e+04,-9.49900e+03,2.78889e-13,-1.04124e+00,1.83102e-13,-1.04124e+00,4.19449e-13,-1.04124e+00
8.20901e+02,1.06200e+03,1.16520e+04,-1.05900e+04,7.68743e-13,-1.03369e+00,3.47098e-13,-1.03369e+00,1.08555e-12,-1.03369e+00
8.21150e+02,9.62000e+02,1.29010e+04,-1.19390e+04,1.07466e-12,-1.02615e+00,1.49405e-13,-1.02615e+00,1.22386e-12,-1.02615e+00
8.21399e+02,1.25900e+03,1.13840e+04,-1.01250e+04,6.89953e-13,-1.01860e+00,8.47241e-13,-1.01860e+00,1.24250e-12,-1.01860e+00
8.21648e+02,1.73600e+03,1.17240e+04,-9.98800e+03,2.66147e-13,-1.01106e+00,9.50160e-13,-1.01106e+00,1.21628e-12,-1.01106e+00
8.21897e+02,2.52200e+03,1.18700e+04,-9.34800e+03,7.38842e-13,-1.00351e+00,4.25512e-13,-1.00351e+00,1.06479e-12,-1.00351e+00
8.22145e+02,3.08600e+03,1.02570e+04,-7.17100e+03,8.21949e-13,-9.95966e-01,1.35617e-12,-9.95966e-01,9.77365e-13,-9.95966e-01
8.22394e+02,4.12100e+03,9.78200e+03,-5.66100e+03,4.43697e-13,-9.88421e-01,1.26088e-12,-9.88421e-01,8.31610e-13,-9.88421e-01
8.22643e+02,5.27800e+03,9.17700e+03,-3.89900e+03,4.16648e-13,-9.80876e-01,8.02371e-13,-9.80876e-01,9.53758e-13,-9.80876e-01
8.22892e+02,6.06000e+03,8.04000e+03,-1.98000e+03,2.47129e-13,-9.73331e-01,5.41142e-13,-9.73331e-01,7.88176e-13,-9.73331e-01
8.23140e+02,7.19700e+03,6.93000e+03,2.67000e+02,1.99173e-13,-9.65785e-01,6.17428e-13,-9.65785e-01,6.13202e-13,-9.65785e-01
8.23389e+02,8.37800e+03,5.80500e+03,2.57300e+03,7.87133e-13,-9.58240e-01,6.21589e-13,-9.58240e-01,6.42125e-13,-9.58240e-01
8.23638e+02,8.92100e+03,4.82800e+03,4.09300e+03,9.42817e-13,-9.50695e-01,4.45949e-13,-9.50695e-01,6.39510e-13,-9.50695e-01
8.23887e+02,8.91700e+03,3.54800e+03,5.36900e+03,9.97601e-13,-9.43150e-01,5.67046e-13,-9.43150e-01,6.51208e-13,-9.43150e-01
8.24135e+02,9.05600e+03,2.53200e+03,6.52400e+03,1.34973e-12,-9.35605e-01,1.55005e-12,-9.35605e-01,4.44481e-13,-9.35605e-01
8.24384e+02,9.42700e+03,1.80500e+03,7.62200e+03,1.12351e-12,-9.28059e-01,1.20337e-12,-9.28059e-01,1.26093e-13,-9.28059e-01
8.24633e+02,1.02670e+04,1.17500e+03,9.09200e+03,7.83813e-13,-9.20514e-01,1.00107e-12,-9.20514e-01,3.49810e-13,-9.20514e-01
8.24881e+02,9.99600e+03,9.14000e+02,9.08200e+03,9.51100e-13,-9.12969e-01,1.47103e-12,-9.12969e-01,5.29854e-13,-9.12969e-01
8.25130e+02,9.78300e+03,7.52000e+02,9.03100e+03,1.04041e-12,-9.05424e-01,7.89253e-13,-9.05424e-01,5.43804e-13,-9.05424e-01
8.25379e+02,9.44700e+03,9.30000e+02,8.51700e+03,9.06265e-13,-8.97879e-01,1.39102e-12,-8.97879e-01,1.64363e-12,-8.97879e-01
8.25627e+02,7.84700e+03,1.08100e+03,6.76600e+03,5.27035e-13,-8.90333e-01,1.78880e-12,-8.90333e-01,1.99660e-12,-8.90333e-01
8.25876e+02,6.80700e+03,1.56600e+03,5.24100e+03,5.07688e-13,-8.82788e-01,1.55136e-12,-8.82788e-01,1.04595e-12,-8.82788e-01
8.26125e+02,5.72000e+03,2.11300e+03,3.60700e+03,1.12648e-12,-8.75243e-01,1.24508e-12,-8.75243e-01,5.78872e-13,-8.75243e-01
8.26373e+02,4.25100e+03,2.55900e+03,1.69200e+03,1.24238e-12,-8.67698e-01,1.11722e-12,-8.67698e-01,1.24455e-12,-8.67698e-01
8.26622e+02,3.29800e+03,3.01000e+03,2.88000e+02,5.40931e-13,-8.60153e-01,8.18337e-13,-8.60153e-01,7.00023e-13,-8.60153e-01
8.26870e+02,2.40000e+03,3.20300e+03,-8.03000e+02,1.06435e-12,-8.52607e-01,2.11818e-13,-8.52607e-01,8.52763e-13,-8.52607e-01
8.27119e+02,1.78100e+03,4.05500e+03,-2.27400e+03,1.30968e-12,-8.45062e-01,8.30318e-13,-8.45062e-01,2.06129e-12,-8.45062e-01
8.27368e+02,1.45000e+03,5.12600e+03,-3.67600e+03,1.18311e-12,-8.37517e-01,1.42661e-12,-8.37517e-01,2.12027e-12,-8.37517e-01
8.27616e+02,1.02200e+03,5.34800e+03,-4.32600e+03,7.03564e-13,-8.29972e-01,1.72053e-12,-8.29972e-01,1.46558e-12,-8.29972e-01
8.27865e+02,8.09000e+02,5.50900e+03,-4.70000e+03,2.58720e-13,-8.22427e-01,1.30106e-12,-8.22427e-01,1.04378e-12,-8.22427e-01
8.28113e+02,6.75000e+02,6.40900e+03,-5.73400e+03,2.97935e-13,-8.14881e-01,6.86134e-13,-8.14881e-01,8.89799e-13,-8.14881e-01
8.28362e+02,6.88000e+02,6.95000e+03,-6.26200e+03,2.84178e-13,-8.07336e-01,1.01630e-12,-8.07336e-01,1.02237e-12,-8.07336e-01
8.28610e+02,7.69000e+02,6.29800e+03,-5.52900e+03,3.41501e-13,-7.99791e-01,1.31521e-12,-7.99791e-01,1.00500e-12,-7.99791e-01
8.28859e+02,1.03700e+03,5.98100e+03,-4.94400e+03,7.61187e-13,-7.92246e-01,1.82107e-12,-7.92246e-01,1.12879e-12,-7.92246e-01
8.29108e+02,1.22400e+03,5.33700e+03,-4.11300e+03,6.96666e-13,-7.84701e-01,1.04566e-12,-7.84701e-01,4.77501e-13,-7.84701e-01
8.29356e+02,1.51400e+03,4.44800e+03,-2.93400e+03,1.13804e-12,-7.77155e-01,5.72408e-13,-7.77155e-01,5.81089e-13,-7.77155e-01
8.29605e+02,1.79900e+03,3.86200e+03,-2.06300e+03,1.29822e-12,-7.69610e-01,8.98722e-13,-7.69610e-01,4.09922e-13,-7.69610e-01
8.29853e+02,2.17000e+03,3.23900e+03,-1.06900e+03,5.82744e-13,-7.62065e-01,5.59598e-13,-7.62065e-01,3.95134e-13,-7.62065e-01
8.30101e+02,2.60800e+03,2.92100e+03,-3.13000e+02,9.40739e-13,-7.54520e-01,6.27541e-13,-7.54520e-01,1.38746e-12,-7.54520e-01
8.30350e+02,3.11500e+03,2.68000e+03,4.35000e+02,8.51686e-13,-7.46975e-01,1.43121e-12,-7.46975e-01,1.13550e-12,-7.46975e-01
8.30598e+02,3.06000e+03,1.96900e+03,1.09100e+03,6.09700e-13,-7.39429e-01,1.74568e-12,-7.39429e-01,1.46062e-12,-7.39429e-01
8.30847e+02,3.24600e+03,1.60800e+03,1.63800e+03,1.17179e-12,-7.31884e-01,9.40913e-13,-7.31884e-01,1.74796e-12,-7.31884e-01
8.31095e+02,3.55300e+03,1.27300e+03,2.28000e+03,9.12796e-13,-7.24339e-01,4.11003e-13,-7.24339e-01,8.85281e-13,-7.24339e-01
8.31344e+02,3.50900e+03,9.67000e+02,2.54200e+03,4.43204e-13,-7.16794e-01,9.15008e-13,-7.16794e-01,8.01015e-13,-7.16794e-01
8.31592e+02,3.33100e+03,7.49000e+02,2.58200e+03,1.20546e-12,-7.09249e-01,1.27902e-12,-7.09249e-01,1.33745e-12,-7.09249e-01
8.31841e+02,3.08900e+03,6.58000e+02,2.43100e+03,1.98405e-12,-7.01703e-01,1.57144e-12,-7.01703e-01,1.04295e-12,-7.01703e-01
8.32089e+02,3.07200e+03,6.66000e+02,2.40600e+03,1.28430e-12,-6.94158e-01,9.71206e-13,-6.94158e-01,3.47456e-13,-6.94158e-01
8.32337e+02,3.04100e+03,6.50000e+02,2.39100e+03,1.17501e-12,-6.86613e-01,1.06005e-12,-6.86613e-01,1.15724e-13,-6.86613e-01
8.32586e+02,2.54700e+03,6.55000e+02,1.89200e+03,1.23131e-12,-6.79068e-01,1.76598e-12,-6.79068e-01,5.35984e-13,-6.79068e-01
8.32834e+02,2.43500e+03,7.75000e+02,1.66000e+03,1.02442e-12,-6.71523e-01,1.81946e-12,-6.71523e-01,1.25710e-12,-6.71523e-01
8.33083e+02,1.96400e+03,8.13000e+02,1.15100e+03,1.38104e-12,-6.63977e-01,1.43034e-12,-6.63977e-01,1.10316e-12,-6.63977e-01
8.33331e+02,1.61400e+03,1.04300e+03,5.71000e+02,1.68568e-12,-6.56432e-01,1.16621e-12,-6.56432e-01,5.57549e-13,-6.56432e-01
8.33579e+02,1.25900e+03,1.17300e+03,8.60000e+01,1.84362e-12,-6.48887e-01,2.19961e-12,-6.48887e-01,9.28282e-13,-6.48887e-01
8.33828e+02,1.05900e+03,1.34000e+03,-2.81000e+02,1.27341e-12,-6.41342e-01,2.87239e-12,-6.41342e-01,1.84798e-12,-6.41342e-01
8.34076e+02,8.32000e+02,1.41800e+03,-5.86000e+02,1.09776e-12,-6.33797e-01,2.56528e-12,-6.33797e-01,1.48305e-12,-6.33797e-01
8.34324e+02,7.58000e+02,1.67200e+03,-9.14000e+02,1.30002e-12,-6.26251e-01,1.03924e-12,-6.26251e-01,7.19759e-13,-6.26251e-01
8.34573e+02,6.73000e+02,1.72800e+03,-1.05500e+03,9.52432e-13,-6.18706e-01,1.35460e-12,-6.18706e-01,2.10756e-12,-6.18706e-01
8.34821e+02,6.44000e+02,1.74600e+03,-1.10200e+03,6.23725e-13,-6.11161e-01,1.57130e-12,-6.11161e-01,2.10227e-12,-6.11161e-01
8.35069e+02,6.35000e+02,1.80000e+03,-1.16500e+03,9.22962e-13,-6.03616e-01,7.82262e-13,-6.03616e-01,7.08912e-13,-6.03616e-01
8.35318e+02,6.65000e+02,1.88200e+03,-1.21700e+03,1.65549e-12,-5.96071e-01,5.35242e-13,-5.96071e-01,1.16002e-12,-5.96071e-01
8.35566e+02,6.25000e+02,1.76800e+03,-1.14300e+03,1.58904e-12,-5.88525e-01,1.12068e-12,-5.88525e-01,5.49580e-13,-5.88525e-01
8.35814e+02,6.50000e+02,1.69300e+03,-1.04300e+03,9.96924e-13,-5.80980e-01,1.56626e-12,-5.80980e-01,5.92226e-13,-5.80980e-01
8.36062e+02,6.73000e+02,1.48200e+03,-8.09000e+02,4.02485e-13,-5.73435e-01,1.25873e-12,-5.73435e-01,8.90919e-13,-5.73435e-01
8.36311e+02,7.11000e+02,1.39400e+03,-6.83000e+02,5.42255e-13,-5.65890e-01,2.31218e-13,-5.65890e-01,5.00669e-13,-5.65890e-01
8.36559e+02,7.58000e+02,1.26200e+03,-5.04000e+02,9.35957e-13,-5.58345e-01,5.02756e-13,-5.58345e-01,4.62600e-13,-5.58345e-01
8.36807e+02,8.82000e+02,1.22900e+03,-3.47000e+02,1.04038e-12,-5.50799e-01,4.67868e-13,-5.50799e-01,1.31898e-12,-5.50799e-01
8.37055e+02,8.77000e+02,1.02700e+03,-1.50000e+02,1.34799e-12,-5.43254e-01,1.37097e-12,-5.43254e-01,2.10495e-12,-5.43254e-01
8.37304e+02,9.76000e+02,9.29000e+02,4.70000e+01,1.07238e-12,-5.35709e-01,1.98339e-12,-5.35709e-01,1.45717e-12,-5.35709e-01
8.37552e+02,9.73000e+02,7.96000e+02,1.77000e+02,4.96411e-13,-5.28164e-01,1.58968e-12,-5.28164e-01,1.11428e-12,-5.28164e-01
8.37800e+02,1.04400e+03,7.75000e+02,2.69000e+02,1.10515e-12,-5.20619e-01,7.85844e-13,-5.20619e-01,1.14658e-12,-5.20619e-01
8.38048e+02,9.26000e+02,6.62000e+02,2.64000e+02,2.50506e-12,-5.13073e-01,1.77195e-12,-5.13073e-01,9.15318e-13,-5.13073e-01
8.38296e+02,9.37000e+02,6.51000e+02,2.86000e+02,2.28457e-12,-5.05528e-01,2.65730e-12,-5.05528e-01,3.98906e-13,-5.05528e-01
8.38545e+02,9.16000e+02,6.42000e+02,2.74000e+02,9.98575e-13,-4.97983e-01,2.29760e-12,-4.97983e-01,1.87094e-12,-4.97983e-01
8.38793e+02,9.46000e+02,6.29000e+02,3.17000e+02,1.26892e-12,-4.90438e-01,9.81567e-13,-4.90438e-01,2.24395e-12,-4.90438e-01
8.39041e+02,8.66000e+02,6.28000e+02,2.38000e+02,1.39955e-12,-4.82893e-01,1.13026e-12,-4.82893e-01,9.69345e-13,-4.82893e-01
8.39289e+02,8.38000e+02,6.30000e+02,2.08000e+02,2.03400e-12,-4.75347e-01,2.28006e-12,-4.75347e-01,1.00831e-12,-4.75347e-01
8.39537e+02,7.74000e+02,6.22000e+02,1.52000e+02,2.22063e-12,-4.67802e-01,2.27354e-12,-4.67802e-01,1.89949e-12,-4.67802e-01
8.39785e+02,7.76000e+02,6.38000e+02,1.38000e+02,2.42366e-12,-4.60257e-01,2.11539e-12,-4.60257e-01,2.56924e-12,-4.60257e-01
8.40033e+02,7.16000e+02,6.19000e+02,9.70000e+01,2.31823e-12,-4.52712e-01,1.85504e-12,-4.52712e-01,2.53626e-12,-4.52712e-01
8.40281e+02,7.33000e+02,6.75000e+02,5.80000e+01,1.29374e-12,-4.45167e-01,8.60560e-13,-4.45167e-01,5.30598e-13,-4.45167e-01
8.40530e+02,6.59000e+02,6.40000e+02,1.90000e+01,3.63377e-13,-4.37621e-01,1.18827e-12,-4.37621e-01,1.44250e-12,-4.37621e-01
8.40778e+02,6.70000e+02,6.77000e+02,-7.00000e+00,1.76548e-12,-4.30076e-01,9.08699e-13,-4.30076e-01,2.62415e-12,-4.30076e-01
8.41026e+02,6.45000e+02,6.62000e+02,-1.70000e+01,1.81192e-12,-4.22531e-01,1.02139e-12,-4.22531e-01,2.70947e-12,-4.22531e-01
8.41274e+02,6.46000e+02,6.88000e+02,-4.20000e+01,1.76127e-12,-4.14986e-01,8.58305e-13,-4.14986e-01,2.18487e-12,-4.14986e-01
8.41522e+02,6.32000e+02,6.58000e+02,-2.60000e+01,8.14756e-13,-4.07441e-01,8.58126e-13,-4.07441e-01,1.32739e-12,-4.07441e-01
8.41770e+02,6.34000e+02,6.91000e+02,-5.70000e+01,1.23863e-12,-3.99895e-01,4.10049e-13,-3.99895e-01,1.64862e-12,-3.99895e-01
8.42018e+02,6.29000e+02,6.63000e+02,-3.40000e+01,2.63201e-12,-3.92350e-01,9.77090e-13,-3.92350e-01,2.06231e-12,-3.92350e-01
8.42266e+02,6.40000e+02,6.93000e+02,-5.30000e+01,2.25992e-12,-3.84805e-01,1.40412e-12,-3.84805e-01,1.15658e-12,-3.84805e-01
8.42514e+02,6.29000e+02,6.76000e+02,-4.70000e+01,8.10299e-13,-3.77260e-01,9.37537e-13,-3.77260e-01,5.20583e-13,-3.77260e-01
8.42762e+02,6.60000e+02,7.22000e+02,-6.20000e+01,2.96402e-12,-3.69715e-01,2.49409e-12,-3.69715e-01,4.97328e-13,-3.69715e-01
8.43010e+02,6.06000e+02,6.41000e+02,-3.50000e+01,3.10430e-12,-3.62169e-01,2.47774e-12,-3.62169e-01,6.54206e-13,-3.62169e-01
8.43258e+02,6.25000e+02,6.65000e+02,-4.00000e+01,2.15044e-12,-3.54624e-01,1.67335e-12,-3.54624e-01,1.70171e-12,-3.54624e-01
8.43506e+02,6.33000e+02,6.56000e+02,-2.30000e+01,2.19143e-12,-3.47079e-01,1.21163e-12,-3.47079e-01,3.13579e-12,-3.47079e-01
8.43754e+02,6.24000e+02,6.53000e+02,-2.90000e+01,1.74992e-12,-3.39534e-01,8.20310e-13,-3.39534e-01,2.14239e-12,-3.39534e-01
8.44002e+02,6.36000e+02,6.33000e+02,3.00000e+00,3.67182e-12,-3.31989e-01,1.17069e-12,-3.31989e-01,2.54432e-12,-3.31989e-01
8.44250e+02,6.40000e+02,6.47000e+02,-7.00000e+00,4.86048e-12,-3.24444e-01,3.21446e-12,-3.24444e-01,1.65002e-12,-3.24444e-01
8.44498e+02,6.25000e+02,6.45000e+02,-2.00000e+01,5.10295e-12,-3.16898e-01,5.10189e-12,-3.16898e-01,1.39236e-12,-3.16898e-01
8.44746e+02,6.41000e+02,6.46000e+02,-5.00000e+00,5.49147e-12,-3.09353e-01,5.39764e-12,-3.09353e-01,3.44878e-12,-3.09353e-01
8.44994e+02,6.49000e+02,6.36000e+02,1.30000e+01,4.92340e-12,-3.01808e-01,3.87521e-12,-3.01808e-01,4.69372e-12,-3.01808e-01
8.45242e+02,6.74000e+02,6.60000e+02,1.40000e+01,4.41001e-12,-2.94263e-01,2.15178e-12,-2.94263e-01,3.97027e-12,-2.94263e-01
8.45490e+02,6.16000e+02,6.21000e+02,-5.00000e+00,4.13864e-12,-2.86718e-01,1.51345e-12,-2.86718e-01,4.24120e-12,-2.86718e-01
8.45738e+02,6.41000e+02,6.38000e+02,3.00000e+00,1.91655e-12,-2.79172e-01,3.33009e-12,-2.79172e-01,4.53012e-12,-2.79172e-01
8.45985e+02,6.40000e+02,6.36000e+02,4.00000e+00,2.43732e-12,-2.71627e-01,4.42625e-12,-2.71627e-01,5.60870e-12,-2.71627e-01
8.46233e+02,6.28000e+02,6.44000e+02,-1.60000e+01,2.50278e-12,-2.64082e-01,3.01433e-12,-2.64082e-01,3.43851e-12,-2.64082e-01
8.46481e+02,6.44000e+02,6.17000e+02,2.70000e+01,1.84929e-12,-2.56537e-01,8.17971e-13,-2.56537e-01,2.66562e-12,-2.56537e-01
8.46729e+02,6.45000e+02,6.30000e+02,1.50000e+01,5.72307e-12,-2.48992e-01,2.99600e-12,-2.48992e-01,5.32962e-12,-2.48992e-01
8.46977e+02,6.39000e+02,6.29000e+02,1.00000e+01,5.21615e-12,-2.41446e-01,3.43080e-12,-2.41446e-01,4.33280e-12,-2.41446e-01
8.47225e+02,6.40000e+02,6.28000e+02,1.20000e+01,5.13296e-12,-2.33901e-01,2.76990e-12,-2.33901e-01,4.15388e-12,-2.33901e-01
8.47473e+02,6.36000e+02,6.38000e+02,-2.00000e+00,4.71749e-12,-2.26356e-01,1.77256e-12,-2.26356e-01,4.65928e-12,-2.26356e-01
8.47720e+02,6.66000e+02,6.57000e+02,9.00000e+00,4.46340e-12,-2.18811e-01,4.53479e-12,-2.18811e-01,4.92141e-12,-2.18811e-01
8.47968e+02,6.14000e+02,6.28000e+02,-1.40000e+01,6.09225e-12,-2.11266e-01,7.71697e-12,-2.11266e-01,7.04426e-12,-2.11266e-01
8.48216e+02,6.44000e+02,6.27000e+02,1.70000e+01,9.04742e-12,-2.03720e-01,8.21644e-12,-2.03720e-01,8.60811e-12,-2.03720e-01
8.48464e+02,6.28000e+02,6.30000e+02,-2.00000e+00,8.60667e-12,-1.96175e-01,8.00717e-12,-1.96175e-01,7.62231e-12,-1.96175e-01
8.48712e+02,6.41000e+02,6.21000e+02,2.00000e+01,5.90856e-12,-1.88630e-01,8.45071e-12,-1.88630e-01,6.43425e-12,-1.88630e-01
8.48960e+02,6.26000e+02,6.32000e+02,-6.00000e+00,5.14369e-12,-1.81085e-01,8.47566e-12,-1.81085e-01,4.42052e-12,-1.81085e-01
8.49207e+02,6.26000e+02,6.30000e+02,-4.00000e+00,4.95907e-12,-1.73540e-01,7.84736e-12,-1.73540e-01,2.88862e-12,-1.73540e-01
8.49455e+02,6.44000e+02,6.34000e+02,1.00000e+01,1.85093e-12,-1.65994e-01,4.71688e-12,-1.65994e-01,3.66056e-12,-1.65994e-01
8.49703e+02,6.34000e+02,6.35000e+02,-1.00000e+00,6.96769e-12,-1.58449e-01,1.96494e-12,-1.58449e-01,7.43852e-12,-1.58449e-01
8.49951e+02,6.41000e+02,6.31000e+02,1.00000e+01,8.73338e-12,-1.50904e-01,4.59093e-12,-1.50904e-01,8.22942e-12,-1.50904e-01
8.50198e+02,6.53000e+02,6.52000e+02,1.00000e+00,2.77768e-12,-1.43359e-01,2.92509e-12,-1.43359e-01,1.09109e-12,-1.43359e-01
8.50446e+02,6.06000e+02,6.07000e+02,-1.00000e+00,7.27963e-12,-1.35814e-01,6.97840e-12,-1.35814e-01,1.36937e-11,-1.35814e-01
8.50694e+02,6.25000e+02,6.40000e+02,-1.50000e+01,2.91807e-12,-1.28268e-01,2.98418e-12,-1.28268e-01,5.29608e-12,-1.28268e-01
8.50941e+02,6.31000e+02,6.32000e+02,-1.00000e+00,1.85866e-11,-1.20723e-01,1.54212e-11,-1.20723e-01,3.09889e-11,-1.20723e-01
8.51189e+02,6.28000e+02,6.41000e+02,-1.30000e+01,5.26481e-11,-1.13178e-01,5.53435e-11,-1.13178e-01,9.98023e-11,-1.13178e-01
8.51437e+02,6.28000e+02,6.26000e+02,2.00000e+00,1.12944e-10,-1.05633e-01,1.15407e-10,-1.05633e-01,2.16532e-10,-1.05633e-01
8.51685e+02,6.35000e+02,6.32000e+02,3.00000e+00,1.34786e-10,-9.80876e-02,1.30320e-10,-9.80876e-02,2.54554e-10,-9.80876e-02
8.51932e+02,6.25000e+02,6.34000e+02,-9.00000e+00,9.57861e-11,-9.05424e-02,8.77461e-11,-9.05424e-02,1.76916e-10,-9.05424e-02
8.52180e+02,6.29000e+02,6.26000e+02,3.00000e+00,4.33786e-11,-8.29972e-02,3.49031e-11,-8.29972e-02,7.61500e-11,-8.29972e-02
8.52428e+02,6.23000e+02,6.37000e+02,-1.40000e+01,1.50896e-11,-7.54520e-02,1.42326e-11,-7.54520e-02,2.91961e-11,-7.54520e-02
8.52675e+02,6.56000e+02,6.58000e+02,-2.00000e+00,1.27336e-11,-6.79068e-02,1.52413e-11,-6.79068e-02,2.60370e-11,-6.79068e-02
8.52923e+02,6.29000e+02,6.05000e+02,2.40000e+01,8.19404e-12,-6.03616e-02,1.05331e-11,-6.03616e-02,1.19359e-11,-6.03616e-02
8.53170e+02,6.45000e+02,6.24000e+02,2.10000e+01,7.86905e-12,-5.28164e-02,7.87879e-12,-5.28164e-02,5.02993e-13,-5.28164e-02
8.53418e+02,6.19000e+02,6.24000e+02,-5.00000e+00,3.22703e-12,-4.52712e-02,5.07588e-12,-4.52712e-02,4.63193e-12,-4.52712e-02
8.53666e+02,6.43000e+02,6.21000e+02,2.20000e+01,4.08990e-12,-3.77260e-02,3.80893e-12,-3.77260e-02,3.08015e-12,-3.77260e-02
8.53913e+02,6.38000e+02,6.26000e+02,1.20000e+01,6.07808e-12,-3.01808e-02,2.57986e-12,-3.01808e-02,3.50538e-12,-3.01808e-02
8.54161e+02,6.37000e+02,6.40000e+02,-3.00000e+00,1.08142e-11,-2.26356e-02,1.35371e-11,-2.26356e-02,2.72841e-12,-2.26356e-02
8.54409e+02,6.30000e+02,6.18000e+02,1.20000e+01,7.68672e-11,-1.50904e-02,7.80596e-11,-1.50904e-02,3.78362e-12,-1.50904e-02
8.54656e+02,6.43000e+02,6.40000e+02,3.00000e+00,2.27573e-10,-7.54520e-03,2.25161e-10,-7.54520e-03,5.28062e-12,-7.54520e-03
