7.67698e+02,6.25000e+02,6.13000e+02,1.20000e+01,3.88055e-10,0.00000e+00,3.85594e-10,0.00000e+00,2.46088e-12,0.00000e+00
7.67949e+02,6.43000e+02,6.61000e+02,-1.80000e+01,2.32749e-10,7.54520e-03,2.31243e-10,7.54520e-03,3.19255e-12,7.54520e-03
7.68199e+02,6.07000e+02,6.28000e+02,-2.10000e+01,8.39318e-11,1.50904e-02,8.46926e-11,1.50904e-02,1.09112e-12,1.50904e-02
7.68450e+02,6.34000e+02,6.18000e+02,1.60000e+01,1.80766e-11,2.26356e-02,1.73862e-11,2.26356e-02,3.26271e-12,2.26356e-02
7.68701e+02,6.24000e+02,6.30000e+02,-6.00000e+00,3.80623e-12,3.01808e-02,5.42285e-12,3.01808e-02,2.38256e-12,3.01808e-02
7.68951e+02,6.26000e+02,6.40000e+02,-1.40000e+01,5.23704e-12,3.77260e-02,4.11024e-12,3.77260e-02,1.15864e-12,3.77260e-02
7.69202e+02,6.16000e+02,6.32000e+02,-1.60000e+01,3.94615e-12,4.52712e-02,3.24167e-12,4.52712e-02,3.02723e-12,4.52712e-02
7.69453e+02,6.39000e+02,6.24000e+02,1.50000e+01,6.97305e-12,5.28164e-02,8.44926e-12,5.28164e-02,3.17978e-12,5.28164e-02
7.69703e+02,6.36000e+02,6.33000e+02,3.00000e+00,8.09045e-12,6.03616e-02,9.70733e-12,6.03616e-02,2.64136e-12,6.03616e-02
7.69954e+02,6.44000e+02,6.37000e+02,7.00000e+00,6.85325e-12,6.79068e-02,8.68723e-12,6.79068e-02,2.50464e-12,6.79068e-02
7.70205e+02,6.32000e+02,6.41000e+02,-9.00000e+00,4.61763e-12,7.54520e-02,5.98367e-12,7.54520e-02,1.87389e-12,7.54520e-02
7.70455e+02,6.65000e+02,6.78000e+02,-1.30000e+01,4.59486e-12,8.29972e-02,4.32093e-12,8.29972e-02,9.28240e-13,8.29972e-02
7.70706e+02,6.33000e+02,6.33000e+02,0.00000e+00,4.49806e-12,9.05424e-02,3.01220e-12,9.05424e-02,2.85528e-12,9.05424e-02
7.70957e+02,6.39000e+02,6.24000e+02,1.50000e+01,3.57023e-12,9.80876e-02,3.12691e-12,9.80876e-02,1.88890e-12,9.80876e-02
7.71207e+02,6.31000e+02,6.40000e+02,-9.00000e+00,4.33066e-12,1.05633e-01,3.94369e-12,1.05633e-01,4.16046e-13,1.05633e-01
7.71458e+02,6.29000e+02,6.64000e+02,-3.50000e+01,4.66167e-12,1.13178e-01,3.81760e-12,1.13178e-01,1.85321e-12,1.13178e-01
7.71708e+02,6.40000e+02,6.41000e+02,-1.00000e+00,3.06144e-12,1.20723e-01,3.89287e-12,1.20723e-01,3.41474e-12,1.20723e-01
7.71959e+02,6.55000e+02,6.45000e+02,1.00000e+01,1.04313e-12,1.28268e-01,2.82089e-12,1.28268e-01,3.78168e-12,1.28268e-01
7.72210e+02,6.28000e+02,6.55000e+02,-2.70000e+01,2.56004e-12,1.35814e-01,1.28998e-12,1.35814e-01,3.50146e-12,1.35814e-01
7.72460e+02,6.70000e+02,6.24000e+02,4.60000e+01,5.53311e-12,1.43359e-01,3.12508e-12,1.43359e-01,2.42977e-12,1.43359e-01
7.72711e+02,6.52000e+02,6.47000e+02,5.00000e+00,7.97699e-12,1.50904e-01,6.74845e-12,1.50904e-01,1.78101e-12,1.50904e-01
7.72961e+02,6.76000e+02,7.13000e+02,-3.70000e+01,6.85691e-12,1.58449e-01,5.77276e-12,1.58449e-01,1.77376e-12,1.58449e-01
7.73212e+02,6.46000e+02,6.35000e+02,1.10000e+01,2.33142e-12,1.65994e-01,2.42897e-12,1.65994e-01,1.53731e-12,1.65994e-01
7.73462e+02,6.66000e+02,6.56000e+02,1.00000e+01,3.93786e-12,1.73540e-01,3.99397e-12,1.73540e-01,7.16242e-13,1.73540e-01
7.73713e+02,6.46000e+02,6.49000e+02,-3.00000e+00,5.11682e-12,1.81085e-01,4.05978e-12,1.81085e-01,2.69357e-12,1.81085e-01
7.73963e+02,6.38000e+02,6.71000e+02,-3.30000e+01,4.91585e-12,1.88630e-01,3.82778e-12,1.88630e-01,3.05698e-12,1.88630e-01
7.74214e+02,6.56000e+02,6.54000e+02,2.00000e+00,3.48897e-12,1.96175e-01,2.36366e-12,1.96175e-01,2.41385e-12,1.96175e-01
7.74465e+02,6.64000e+02,6.62000e+02,2.00000e+00,2.44733e-12,2.03720e-01,1.81922e-12,2.03720e-01,2.13697e-12,2.03720e-01
7.74715e+02,6.61000e+02,6.78000e+02,-1.70000e+01,2.15622e-12,2.11266e-01,2.09465e-12,2.11266e-01,2.41804e-12,2.11266e-01
7.74965e+02,6.88000e+02,6.66000e+02,2.20000e+01,2.12600e-12,2.18811e-01,8.24922e-13,2.18811e-01,2.08763e-12,2.18811e-01
7.75216e+02,6.54000e+02,6.74000e+02,-2.00000e+01,1.49013e-12,2.26356e-01,1.12667e-12,2.26356e-01,6.94344e-13,2.26356e-01
7.75466e+02,6.98000e+02,7.61000e+02,-6.30000e+01,1.80594e-12,2.33901e-01,3.49935e-12,2.33901e-01,1.69341e-12,2.33901e-01
7.75717e+02,6.64000e+02,6.65000e+02,-1.00000e+00,3.35895e-12,2.41446e-01,4.86106e-12,2.41446e-01,1.67869e-12,2.41446e-01
7.75967e+02,6.90000e+02,6.70000e+02,2.00000e+01,4.76533e-12,2.48992e-01,3.72071e-12,2.48992e-01,2.68937e-12,2.48992e-01
7.76218e+02,6.70000e+02,6.96000e+02,-2.60000e+01,2.90887e-12,2.56537e-01,2.87672e-12,2.56537e-01,4.22491e-12,2.56537e-01
7.76468e+02,7.10000e+02,7.59000e+02,-4.90000e+01,2.14449e-12,2.64082e-01,4.08484e-12,2.64082e-01,2.29866e-12,2.64082e-01
7.76719e+02,7.39000e+02,6.74000e+02,6.50000e+01,4.23053e-12,2.71627e-01,3.46015e-12,2.71627e-01,8.59938e-13,2.71627e-01
7.76969e+02,7.10000e+02,7.66000e+02,-5.60000e+01,2.85028e-12,2.79172e-01,8.63574e-13,2.79172e-01,1.99319e-12,2.79172e-01
7.77219e+02,7.02000e+02,7.87000e+02,-8.50000e+01,1.79174e-12,2.86718e-01,2.35159e-12,2.86718e-01,1.82217e-12,2.86718e-01
7.77470e+02,8.35000e+02,7.44000e+02,9.10000e+01,1.18351e-12,2.94263e-01,2.88891e-12,2.94263e-01,1.87071e-12,2.94263e-01
7.77720e+02,7.30000e+02,7.58000e+02,-2.80000e+01,2.03016e-12,3.01808e-01,2.97614e-12,3.01808e-01,1.09592e-12,3.01808e-01
7.77971e+02,7.67000e+02,9.03000e+02,-1.36000e+02,4.83286e-12,3.09353e-01,3.94720e-12,3.09353e-01,9.07373e-13,3.09353e-01
7.78221e+02,8.60000e+02,7.91000e+02,6.90000e+01,5.20482e-12,3.16898e-01,3.16216e-12,3.16898e-01,2.13505e-12,3.16898e-01
7.78471e+02,8.50000e+02,7.72000e+02,7.80000e+01,2.95198e-12,3.24444e-01,2.51865e-12,3.24444e-01,8.52096e-13,3.24444e-01
7.78722e+02,7.34000e+02,9.28000e+02,-1.94000e+02,6.62760e-13,3.31989e-01,1.22168e-12,3.31989e-01,1.88444e-12,3.31989e-01
7.78972e+02,9.85000e+02,1.02100e+03,-3.60000e+01,3.17217e-12,3.39534e-01,1.06940e-12,3.39534e-01,2.37355e-12,3.39534e-01
7.79222e+02,9.64000e+02,7.86000e+02,1.78000e+02,3.97265e-12,3.47079e-01,3.23463e-12,3.47079e-01,1.81169e-12,3.47079e-01
7.79473e+02,8.49000e+02,9.31000e+02,-8.20000e+01,3.06981e-12,3.54624e-01,3.60344e-12,3.54624e-01,7.00237e-13,3.54624e-01
7.79723e+02,8.70000e+02,1.00500e+03,-1.35000e+02,3.53304e-12,3.62169e-01,3.30104e-12,3.62169e-01,1.45736e-12,3.62169e-01
7.79973e+02,1.07900e+03,8.83000e+02,1.96000e+02,3.49406e-12,3.69715e-01,2.96316e-12,3.69715e-01,1.44197e-12,3.69715e-01
7.80224e+02,8.83000e+02,8.86000e+02,-3.00000e+00,1.35197e-12,3.77260e-01,1.09087e-12,3.77260e-01,3.12405e-13,3.77260e-01
7.80474e+02,9.09000e+02,1.23500e+03,-3.26000e+02,1.54541e-12,3.84805e-01,1.79175e-12,3.84805e-01,2.35338e-12,3.84805e-01
7.80724e+02,9.98000e+02,9.46000e+02,5.20000e+01,1.89185e-12,3.92350e-01,2.53271e-12,3.92350e-01,3.53383e-12,3.92350e-01
7.80974e+02,1.01700e+03,8.86000e+02,1.31000e+02,2.18194e-12,3.99895e-01,1.97936e-12,3.99895e-01,4.15368e-12,3.99895e-01
7.81225e+02,8.80000e+02,1.13600e+03,-2.56000e+02,2.85285e-12,4.07441e-01,2.73983e-12,4.07441e-01,4.20094e-12,4.07441e-01
7.81475e+02,1.25600e+03,1.36200e+03,-1.06000e+02,2.02489e-12,4.14986e-01,3.01896e-12,4.14986e-01,3.25827e-12,4.14986e-01
7.81725e+02,1.34100e+03,1.00200e+03,3.39000e+02,5.88635e-13,4.22531e-01,2.65825e-12,4.22531e-01,2.57522e-12,4.22531e-01
7.81975e+02,1.17000e+03,1.28700e+03,-1.17000e+02,6.41481e-13,4.30076e-01,2.09075e-12,4.30076e-01,1.86630e-12,4.30076e-01
7.82226e+02,1.09500e+03,1.43700e+03,-3.42000e+02,1.61593e-12,4.37621e-01,1.71560e-12,4.37621e-01,1.57743e-12,4.37621e-01
7.82476e+02,1.51700e+03,1.16900e+03,3.48000e+02,1.89409e-12,4.45167e-01,1.42420e-12,4.45167e-01,1.34149e-12,4.45167e-01
7.82726e+02,1.36000e+03,1.11900e+03,2.41000e+02,2.44937e-12,4.52712e-01,9.81282e-13,4.52712e-01,2.04023e-12,4.52712e-01
7.82976e+02,1.15500e+03,1.47900e+03,-3.24000e+02,2.73342e-12,4.60257e-01,1.20889e-12,4.60257e-01,3.06800e-12,4.60257e-01
7.83226e+02,1.39300e+03,1.18800e+03,2.05000e+02,1.93869e-12,4.67802e-01,1.67479e-12,4.67802e-01,3.07342e-12,4.67802e-01
7.83477e+02,1.57200e+03,1.11300e+03,4.59000e+02,1.23566e-12,4.75347e-01,1.11193e-12,4.75347e-01,2.02739e-12,4.75347e-01
7.83727e+02,1.14000e+03,1.34700e+03,-2.07000e+02,9.81518e-13,4.82893e-01,7.36849e-13,4.82893e-01,3.41617e-13,4.82893e-01
7.83977e+02,1.40000e+03,1.50600e+03,-1.06000e+02,8.78296e-13,4.90438e-01,1.27451e-12,4.90438e-01,4.95785e-13,4.90438e-01
7.84227e+02,1.65000e+03,1.18400e+03,4.66000e+02,2.79230e-13,4.97983e-01,2.26297e-13,4.97983e-01,2.78338e-13,4.97983e-01
7.84477e+02,1.46100e+03,1.45500e+03,6.00000e+00,1.50444e-12,5.05528e-01,9.11076e-13,5.05528e-01,6.18905e-13,5.05528e-01
7.84727e+02,1.44800e+03,1.82700e+03,-3.79000e+02,2.64284e-12,5.13073e-01,1.08887e-12,5.13073e-01,1.56449e-12,5.13073e-01
7.84978e+02,1.98600e+03,1.64000e+03,3.46000e+02,2.65623e-12,5.20619e-01,7.33130e-13,5.20619e-01,2.36705e-12,5.20619e-01
7.85228e+02,1.90600e+03,1.67100e+03,2.35000e+02,2.14843e-12,5.28164e-01,4.95343e-13,5.28164e-01,2.57321e-12,5.28164e-01
7.85478e+02,1.63100e+03,2.43600e+03,-8.05000e+02,2.22212e-12,5.35709e-01,1.81806e-13,5.35709e-01,2.10090e-12,5.35709e-01
7.85728e+02,2.30000e+03,2.27100e+03,2.90000e+01,2.09765e-12,5.43254e-01,3.29468e-13,5.43254e-01,2.42564e-12,5.43254e-01
7.85978e+02,2.52700e+03,1.76200e+03,7.65000e+02,1.91401e-12,5.50799e-01,7.71174e-13,5.50799e-01,2.52172e-12,5.50799e-01
7.86228e+02,1.74000e+03,2.07500e+03,-3.35000e+02,2.00920e-12,5.58345e-01,2.53186e-13,5.58345e-01,1.75693e-12,5.58345e-01
7.86478e+02,2.08200e+03,2.39500e+03,-3.13000e+02,1.83541e-12,5.65890e-01,8.31403e-13,5.65890e-01,2.10982e-12,5.65890e-01
7.86728e+02,2.63300e+03,1.82900e+03,8.04000e+02,8.99226e-13,5.73435e-01,7.30634e-13,5.73435e-01,1.43942e-12,5.73435e-01
7.86978e+02,2.01700e+03,1.85900e+03,1.58000e+02,5.38450e-13,5.80980e-01,5.64844e-14,5.80980e-01,5.10986e-13,5.80980e-01
7.87228e+02,1.77200e+03,2.51900e+03,-7.47000e+02,1.69863e-12,5.88525e-01,6.39304e-13,5.88525e-01,2.17591e-12,5.88525e-01
7.87478e+02,2.52700e+03,2.36000e+03,1.67000e+02,1.90592e-12,5.96071e-01,1.40400e-12,5.96071e-01,3.00004e-12,5.96071e-01
7.87728e+02,2.38400e+03,1.84300e+03,5.41000e+02,4.45686e-13,6.03616e-01,1.13961e-12,6.03616e-01,1.45363e-12,6.03616e-01
7.87978e+02,1.84800e+03,2.57400e+03,-7.26000e+02,1.43948e-12,6.11161e-01,3.04476e-13,6.11161e-01,1.68516e-12,6.11161e-01
7.88228e+02,2.15400e+03,2.42500e+03,-2.71000e+02,1.33529e-12,6.18706e-01,1.32852e-12,6.18706e-01,2.65988e-12,6.18706e-01
7.88478e+02,2.88100e+03,1.90600e+03,9.75000e+02,1.05422e-12,6.26251e-01,2.23176e-12,6.26251e-01,2.76767e-12,6.26251e-01
7.88728e+02,2.30900e+03,2.17700e+03,1.32000e+02,1.57813e-12,6.33797e-01,2.89237e-12,6.33797e-01,3.26286e-12,6.33797e-01
7.88978e+02,2.30400e+03,2.90700e+03,-6.03000e+02,1.46135e-12,6.41342e-01,2.96235e-12,6.41342e-01,3.57147e-12,6.41342e-01
7.89228e+02,3.49700e+03,2.55500e+03,9.42000e+02,1.06705e-12,6.48887e-01,3.50062e-12,6.48887e-01,3.93179e-12,6.48887e-01
7.89478e+02,3.11100e+03,2.30100e+03,8.10000e+02,2.34213e-12,6.56432e-01,3.51005e-12,6.56432e-01,5.41313e-12,6.56432e-01
7.89728e+02,2.34100e+03,3.48600e+03,-1.14500e+03,4.72278e-12,6.63977e-01,2.24925e-12,6.63977e-01,6.87671e-12,6.63977e-01
7.89978e+02,3.37600e+03,3.72800e+03,-3.52000e+02,8.12477e-12,6.71523e-01,4.53261e-12,6.71523e-01,1.15881e-11,6.71523e-01
7.90228e+02,3.66500e+03,2.54900e+03,1.11600e+03,1.03155e-11,6.79068e-01,9.21044e-12,6.79068e-01,1.74075e-11,6.79068e-01
7.90478e+02,2.69800e+03,3.03600e+03,-3.38000e+02,1.23429e-11,6.86613e-01,1.29055e-11,6.86613e-01,2.33172e-11,6.86613e-01
7.90728e+02,3.12400e+03,3.51600e+03,-3.92000e+02,1.68076e-11,6.94158e-01,1.70359e-11,6.94158e-01,3.16330e-11,6.94158e-01
7.90978e+02,4.62500e+03,3.04200e+03,1.58300e+03,2.17866e-11,7.01703e-01,2.15416e-11,7.01703e-01,4.02444e-11,7.01703e-01
7.91228e+02,3.84700e+03,2.90100e+03,9.46000e+02,2.51811e-11,7.09249e-01,2.52944e-11,7.09249e-01,4.69883e-11,7.09249e-01
7.91478e+02,3.02400e+03,3.88000e+03,-8.56000e+02,2.60037e-11,7.16794e-01,2.59656e-11,7.16794e-01,4.89108e-11,7.16794e-01
7.91728e+02,3.89200e+03,3.40000e+03,4.92000e+02,2.49818e-11,7.24339e-01,2.46318e-11,7.24339e-01,4.69234e-11,7.24339e-01
7.91977e+02,3.89000e+03,2.56600e+03,1.32400e+03,2.29467e-11,7.31884e-01,2.20805e-11,7.31884e-01,4.20957e-11,7.31884e-01
7.92227e+02,2.56600e+03,3.21400e+03,-6.48000e+02,1.97906e-11,7.39429e-01,1.80638e-11,7.39429e-01,3.50049e-11,7.39429e-01
7.92477e+02,3.21900e+03,3.95300e+03,-7.34000e+02,1.46400e-11,7.46975e-01,1.33338e-11,7.46975e-01,2.60235e-11,7.46975e-01
7.92727e+02,4.78700e+03,3.28500e+03,1.50200e+03,8.34161e-12,7.54520e-01,8.73008e-12,7.54520e-01,1.55090e-11,7.54520e-01
7.92977e+02,4.10400e+03,3.54200e+03,5.62000e+02,5.88053e-12,7.62065e-01,5.22541e-12,7.62065e-01,9.63317e-12,7.62065e-01
7.93227e+02,3.21800e+03,4.58200e+03,-1.36400e+03,5.64123e-12,7.69610e-01,4.67627e-12,7.69610e-01,9.29695e-12,7.69610e-01
7.93476e+02,4.54400e+03,4.07600e+03,4.68000e+02,3.35678e-12,7.77155e-01,2.93985e-12,7.77155e-01,5.75980e-12,7.77155e-01
7.93726e+02,4.54800e+03,3.18700e+03,1.36100e+03,2.28114e-12,7.84701e-01,1.96503e-12,7.84701e-01,3.49880e-12,7.84701e-01
7.93976e+02,3.26000e+03,4.37800e+03,-1.11800e+03,1.80790e-12,7.92246e-01,7.21601e-13,7.92246e-01,2.43995e-12,7.92246e-01
7.94226e+02,4.30800e+03,4.87900e+03,-5.71000e+02,9.10923e-13,7.99791e-01,1.82239e-12,7.99791e-01,2.71237e-12,7.99791e-01
7.94476e+02,5.70500e+03,3.67600e+03,2.02900e+03,8.48313e-13,8.07336e-01,9.00664e-13,8.07336e-01,1.41778e-12,8.07336e-01
7.94725e+02,4.10400e+03,3.38400e+03,7.20000e+02,8.12870e-14,8.14881e-01,1.29915e-13,8.14881e-01,8.25438e-14,8.14881e-01
7.94975e+02,3.18700e+03,4.77900e+03,-1.59200e+03,1.17486e-12,8.22427e-01,7.97626e-13,8.22427e-01,1.17271e-12,8.22427e-01
7.95225e+02,4.61400e+03,4.40400e+03,2.10000e+02,1.49801e-12,8.29972e-01,1.44155e-12,8.29972e-01,2.14845e-12,8.29972e-01
7.95475e+02,5.04500e+03,3.27300e+03,1.77200e+03,1.58048e-12,8.37517e-01,1.70237e-12,8.37517e-01,3.03421e-12,8.37517e-01
7.95724e+02,3.44500e+03,4.22600e+03,-7.81000e+02,1.34042e-12,8.45062e-01,1.38033e-12,8.45062e-01,2.56415e-12,8.45062e-01
7.95974e+02,3.96400e+03,5.25300e+03,-1.28900e+03,1.11458e-12,8.52607e-01,8.14188e-13,8.52607e-01,6.16651e-13,8.52607e-01
7.96224e+02,5.78300e+03,3.95300e+03,1.83000e+03,1.70731e-12,8.60153e-01,8.60354e-13,8.60153e-01,1.31943e-12,8.60153e-01
7.96474e+02,5.33900e+03,3.86500e+03,1.47400e+03,2.63651e-12,8.67698e-01,8.19880e-13,8.67698e-01,1.85226e-12,8.67698e-01
7.96723e+02,3.82000e+03,5.51100e+03,-1.69100e+03,2.57631e-12,8.75243e-01,8.65312e-13,8.75243e-01,2.24363e-12,8.75243e-01
7.96973e+02,5.33200e+03,4.81100e+03,5.21000e+02,2.30038e-12,8.82788e-01,1.38843e-12,8.82788e-01,2.79451e-12,8.82788e-01
7.97223e+02,6.40300e+03,3.66000e+03,2.74300e+03,2.02670e-12,8.90333e-01,1.81083e-12,8.90333e-01,2.81274e-12,8.90333e-01
7.97472e+02,4.12600e+03,5.03800e+03,-9.12000e+02,1.35415e-12,8.97879e-01,2.28038e-12,8.97879e-01,2.76497e-12,8.97879e-01
7.97722e+02,4.60900e+03,6.65800e+03,-2.04900e+03,3.12496e-13,9.05424e-01,2.75450e-12,9.05424e-01,2.48200e-12,9.05424e-01
7.97972e+02,7.06600e+03,5.43000e+03,1.63600e+03,1.29643e-12,9.12969e-01,2.64668e-12,9.12969e-01,1.38470e-12,9.12969e-01
7.98221e+02,5.98000e+03,5.39100e+03,5.89000e+02,1.18203e-12,9.20514e-01,1.63524e-12,9.20514e-01,4.53585e-13,9.20514e-01
7.98471e+02,5.10500e+03,7.80600e+03,-2.70100e+03,6.26935e-13,9.28059e-01,1.03359e-12,9.28059e-01,4.24253e-13,9.28059e-01
7.98721e+02,7.97000e+03,6.64000e+03,1.33000e+03,5.75473e-13,9.35605e-01,7.45178e-13,9.35605e-01,2.30054e-13,9.35605e-01
7.98970e+02,8.78100e+03,4.64600e+03,4.13500e+03,1.04624e-12,9.43150e-01,2.60284e-13,9.43150e-01,1.30318e-12,9.43150e-01
7.99220e+02,5.87400e+03,6.18600e+03,-3.12000e+02,1.78787e-12,9.50695e-01,1.25797e-13,9.50695e-01,1.69236e-12,9.50695e-01
7.99469e+02,5.07200e+03,7.65600e+03,-2.58400e+03,1.40711e-12,9.58240e-01,4.85533e-13,9.58240e-01,1.01381e-12,9.58240e-01
7.99719e+02,7.28300e+03,5.52000e+03,1.76300e+03,7.52522e-13,9.65785e-01,6.87546e-13,9.65785e-01,5.69405e-13,9.65785e-01
7.99969e+02,6.12900e+03,4.30800e+03,1.82100e+03,6.57298e-13,9.73331e-01,4.29964e-13,9.73331e-01,5.20887e-13,9.73331e-01
8.00218e+02,4.53200e+03,6.40800e+03,-1.87600e+03,3.05041e-13,9.80876e-01,6.22520e-13,9.80876e-01,4.67587e-13,9.80876e-01
8.00468e+02,6.18800e+03,7.03300e+03,-8.45000e+02,8.04667e-13,9.88421e-01,9.38113e-13,9.88421e-01,1.61294e-13,9.88421e-01
8.00717e+02,7.75600e+03,5.12500e+03,2.63100e+03,8.87199e-13,9.95966e-01,1.02719e-12,9.95966e-01,1.99414e-13,9.95966e-01
8.00967e+02,6.09200e+03,6.76500e+03,-6.73000e+02,1.83044e-13,1.00351e+00,5.34394e-13,1.00351e+00,6.05515e-13,1.00351e+00
8.01216e+02,5.63300e+03,9.39600e+03,-3.76300e+03,1.29455e-13,1.01106e+00,1.13778e-12,1.01106e+00,1.13275e-12,1.01106e+00
8.01466e+02,8.40200e+03,7.75100e+03,6.51000e+02,5.24020e-13,1.01860e+00,1.35786e-12,1.01860e+00,1.44742e-12,1.01860e+00
8.01715e+02,8.21400e+03,5.37700e+03,2.83700e+03,3.91116e-13,1.02615e+00,9.82271e-13,1.02615e+00,9.83831e-13,1.02615e+00
8.01965e+02,5.87400e+03,7.51200e+03,-1.63800e+03,3.86323e-13,1.03369e+00,7.01256e-13,1.03369e+00,3.98946e-13,1.03369e+00
8.02215e+02,6.82400e+03,8.82800e+03,-2.00400e+03,1.75835e-13,1.04124e+00,4.11484e-13,1.04124e+00,3.93746e-13,1.04124e+00
8.02464e+02,9.98800e+03,6.43200e+03,3.55600e+03,2.44911e-13,1.04878e+00,7.29858e-13,1.04878e+00,4.95543e-13,1.04878e+00
8.02713e+02,8.34100e+03,8.02300e+03,3.18000e+02,4.41119e-13,1.05633e+00,1.43719e-12,1.05633e+00,1.03059e-12,1.05633e+00
8.02963e+02,6.96800e+03,1.23460e+04,-5.37800e+03,2.71544e-13,1.06387e+00,8.55786e-13,1.06387e+00,1.08817e-12,1.06387e+00
8.03212e+02,1.09440e+04,1.06360e+04,3.08000e+02,6.92728e-13,1.07142e+00,5.32282e-13,1.07142e+00,1.22362e-12,1.07142e+00
8.03462e+02,1.16720e+04,7.52800e+03,4.14400e+03,7.29127e-13,1.07896e+00,5.40337e-13,1.07896e+00,1.20555e-12,1.07896e+00
8.03711e+02,7.42500e+03,9.47500e+03,-2.05000e+03,1.29334e-13,1.08651e+00,1.03216e-12,1.08651e+00,1.13841e-12,1.08651e+00
8.03961e+02,7.15500e+03,1.10320e+04,-3.87700e+03,9.46490e-13,1.09405e+00,1.05518e-12,1.09405e+00,9.20205e-13,1.09405e+00
8.04210e+02,9.93600e+03,7.85700e+03,2.07900e+03,1.13545e-12,1.10160e+00,9.32287e-13,1.10160e+00,1.06683e-12,1.10160e+00
8.04460e+02,8.53200e+03,6.55400e+03,1.97800e+03,8.73819e-13,1.10914e+00,8.12797e-13,1.10914e+00,5.99184e-13,1.10914e+00
8.04709e+02,6.23200e+03,9.56900e+03,-3.33700e+03,5.72139e-13,1.11669e+00,6.00834e-13,1.11669e+00,3.06686e-13,1.11669e+00
8.04958e+02,8.01400e+03,9.53600e+03,-1.52200e+03,4.08739e-13,1.12423e+00,2.91846e-13,1.12423e+00,1.45528e-13,1.12423e+00
8.05208e+02,1.05000e+04,6.29000e+03,4.21000e+03,2.41364e-13,1.13178e+00,7.62327e-14,1.13178e+00,1.89771e-13,1.13178e+00
8.05457e+02,7.78700e+03,7.47200e+03,3.15000e+02,3.91604e-13,1.13932e+00,1.69914e-13,1.13932e+00,2.96886e-13,1.13932e+00
8.05707e+02,6.89000e+03,1.10990e+04,-4.20900e+03,8.14124e-13,1.14687e+00,4.23595e-13,1.14687e+00,5.72894e-13,1.14687e+00
8.05956e+02,1.07360e+04,9.36200e+03,1.37400e+03,8.36259e-13,1.15442e+00,8.25915e-13,1.15442e+00,8.87034e-13,1.15442e+00
8.06205e+02,1.13140e+04,6.71700e+03,4.59700e+03,6.26546e-13,1.16196e+00,9.12133e-13,1.16196e+00,9.39768e-13,1.16196e+00
8.06455e+02,6.99900e+03,9.24800e+03,-2.24900e+03,5.52425e-13,1.16951e+00,7.24942e-13,1.16951e+00,6.30378e-13,1.16951e+00
8.06704e+02,8.09700e+03,1.09890e+04,-2.89200e+03,4.32794e-13,1.17705e+00,3.06808e-13,1.17705e+00,1.63997e-13,1.17705e+00
8.06953e+02,1.21460e+04,8.10400e+03,4.04200e+03,3.53430e-13,1.18460e+00,1.53611e-13,1.18460e+00,2.35878e-13,1.18460e+00
8.07203e+02,9.82900e+03,7.32400e+03,2.50500e+03,3.96263e-13,1.19214e+00,4.60584e-13,1.19214e+00,7.78492e-14,1.19214e+00
8.07452e+02,6.71700e+03,1.06690e+04,-3.95200e+03,2.81683e-13,1.19969e+00,8.74517e-13,1.19969e+00,6.06683e-13,1.19969e+00
8.07701e+02,8.75100e+03,9.94400e+03,-1.19300e+03,4.86942e-13,1.20723e+00,1.06819e-12,1.20723e+00,1.17926e-12,1.20723e+00
8.07951e+02,1.01670e+04,6.67800e+03,3.48900e+03,1.08917e-12,1.21478e+00,9.06968e-13,1.21478e+00,1.44549e-12,1.21478e+00
8.08200e+02,7.27300e+03,7.88500e+03,-6.12000e+02,1.52057e-12,1.22232e+00,6.57472e-13,1.22232e+00,1.29667e-12,1.22232e+00
8.08449e+02,7.31400e+03,1.09180e+04,-3.60400e+03,1.34915e-12,1.22987e+00,6.88948e-13,1.22987e+00,8.93157e-13,1.22987e+00
8.08698e+02,1.15460e+04,9.52800e+03,2.01800e+03,8.87282e-13,1.23741e+00,6.01097e-13,1.23741e+00,3.65252e-13,1.23741e+00
8.08948e+02,1.12610e+04,7.18200e+03,4.07900e+03,5.14520e-13,1.24496e+00,6.62001e-13,1.24496e+00,2.93647e-13,1.24496e+00
8.09197e+02,7.70200e+03,1.09390e+04,-3.23700e+03,3.94596e-13,1.25250e+00,4.46783e-13,1.25250e+00,2.61842e-13,1.25250e+00
8.09446e+02,9.04400e+03,1.23030e+04,-3.25900e+03,5.58850e-13,1.26005e+00,2.40042e-13,1.26005e+00,3.57559e-13,1.26005e+00
8.09695e+02,1.26310e+04,8.26800e+03,4.36300e+03,8.23883e-13,1.26759e+00,4.38097e-13,1.26759e+00,5.40660e-13,1.26759e+00
8.09945e+02,1.09690e+04,8.65900e+03,2.31000e+03,5.34490e-13,1.27514e+00,2.58369e-13,1.27514e+00,2.79980e-13,1.27514e+00
8.10194e+02,7.89600e+03,1.27470e+04,-4.85100e+03,7.33189e-13,1.28268e+00,4.71405e-13,1.28268e+00,2.82681e-13,1.28268e+00
8.10443e+02,1.12210e+04,1.15720e+04,-3.51000e+02,5.87713e-13,1.29023e+00,3.52040e-13,1.29023e+00,2.57345e-13,1.29023e+00
8.10692e+02,1.34930e+04,7.90600e+03,5.58700e+03,4.52717e-13,1.29777e+00,3.74174e-13,1.29777e+00,1.43352e-13,1.29777e+00
8.10941e+02,9.81900e+03,1.12140e+04,-1.39500e+03,6.07612e-13,1.30532e+00,3.25303e-13,1.30532e+00,3.23101e-13,1.30532e+00
8.11191e+02,8.12800e+03,1.30960e+04,-4.96800e+03,1.85920e-13,1.31286e+00,3.77439e-13,1.31286e+00,5.21767e-13,1.31286e+00
8.11440e+02,1.23540e+04,9.87700e+03,2.47700e+03,1.10784e-12,-1.32041e+00,1.78750e-12,-1.32041e+00,6.79661e-13,-1.32041e+00
8.11689e+02,1.30250e+04,8.41600e+03,4.60900e+03,1.85920e-13,-1.31286e+00,3.77439e-13,-1.31286e+00,5.21767e-13,-1.31286e+00
8.11938e+02,9.03200e+03,1.18630e+04,-2.83100e+03,6.07612e-13,-1.30532e+00,3.25303e-13,-1.30532e+00,3.23101e-13,-1.30532e+00
8.12187e+02,1.10410e+04,1.30320e+04,-1.99100e+03,4.52717e-13,-1.29777e+00,3.74174e-13,-1.29777e+00,1.43352e-13,-1.29777e+00
8.12436e+02,1.30060e+04,8.95500e+03,4.05100e+03,5.87713e-13,-1.29023e+00,3.52040e-13,-1.29023e+00,2.57345e-13,-1.29023e+00
8.12685e+02,9.97800e+03,8.19200e+03,1.78600e+03,7.33189e-13,-1.28268e+00,4.71405e-13,-1.28268e+00,2.82681e-13,-1.28268e+00
8.12935e+02,7.71400e+03,1.21560e+04,-4.44200e+03,5.34490e-13,-1.27514e+00,2.58369e-13,-1.27514e+00,2.79980e-13,-1.27514e+00
8.13184e+02,1.09920e+04,1.18210e+04,-8.29000e+02,8.23883e-13,-1.26759e+00,4.38097e-13,-1.26759e+00,5.40660e-13,-1.26759e+00
8.13433e+02,1.18740e+04,7.45400e+03,4.42000e+03,5.58850e-13,-1.26005e+00,2.40042e-13,-1.26005e+00,3.57559e-13,-1.26005e+00
8.13682e+02,9.09000e+03,9.58100e+03,-4.91000e+02,3.94596e-13,-1.25250e+00,4.46783e-13,-1.25250e+00,2.61842e-13,-1.25250e+00
8.13931e+02,8.00800e+03,1.35880e+04,-5.58000e+03,5.14520e-13,-1.24496e+00,6.62001e-13,-1.24496e+00,2.93647e-13,-1.24496e+00
8.14180e+02,1.05220e+04,1.05730e+04,-5.10000e+01,8.87282e-13,-1.23741e+00,6.01097e-13,-1.23741e+00,3.65252e-13,-1.23741e+00
8.14429e+02,1.12830e+04,7.40300e+03,3.88000e+03,1.34915e-12,-1.22987e+00,6.88948e-13,-1.22987e+00,8.93157e-13,-1.22987e+00
8.14678e+02,7.29900e+03,1.01250e+04,-2.82600e+03,1.52057e-12,-1.22232e+00,6.57472e-13,-1.22232e+00,1.29667e-12,-1.22232e+00
8.14927e+02,7.98400e+03,1.09740e+04,-2.99000e+03,1.08917e-12,-1.21478e+00,9.06968e-13,-1.21478e+00,1.44549e-12,-1.21478e+00
8.15176e+02,1.11410e+04,8.31000e+03,2.83100e+03,4.86942e-13,-1.20723e+00,1.06819e-12,-1.20723e+00,1.17926e-12,-1.20723e+00
8.15425e+02,9.61000e+03,7.30800e+03,2.30200e+03,2.81683e-13,-1.19969e+00,8.74517e-13,-1.19969e+00,6.06683e-13,-1.19969e+00
8.15674e+02,7.13100e+03,9.90300e+03,-2.77200e+03,3.96263e-13,-1.19214e+00,4.60584e-13,-1.19214e+00,7.78492e-14,-1.19214e+00
8.15923e+02,1.01940e+04,1.12680e+04,-1.07400e+03,3.53430e-13,-1.18460e+00,1.53611e-13,-1.18460e+00,2.35878e-13,-1.18460e+00
8.16172e+02,1.12160e+04,7.26900e+03,3.94700e+03,4.32794e-13,-1.17705e+00,3.06808e-13,-1.17705e+00,1.63997e-13,-1.17705e+00
8.16421e+02,7.98000e+03,7.69500e+03,2.85000e+02,5.52425e-13,-1.16951e+00,7.24942e-13,-1.16951e+00,6.30378e-13,-1.16951e+00
8.16670e+02,6.34700e+03,1.00370e+04,-3.69000e+03,6.26546e-13,-1.16196e+00,9.12133e-13,-1.16196e+00,9.39768e-13,-1.16196e+00
8.16919e+02,9.78800e+03,8.78100e+03,1.00700e+03,8.36259e-13,-1.15442e+00,8.25915e-13,-1.15442e+00,8.87034e-13,-1.15442e+00
8.17168e+02,9.64400e+03,6.11900e+03,3.52500e+03,8.14124e-13,-1.14687e+00,4.23595e-13,-1.14687e+00,5.72894e-13,-1.14687e+00
8.17417e+02,6.67700e+03,7.76600e+03,-1.08900e+03,3.91604e-13,-1.13932e+00,1.69914e-13,-1.13932e+00,2.96886e-13,-1.13932e+00
8.17666e+02,6.76700e+03,9.89400e+03,-3.12700e+03,2.41364e-13,-1.13178e+00,7.62327e-14,-1.13178e+00,1.89771e-13,-1.13178e+00
8.17915e+02,9.74000e+03,7.92300e+03,1.81700e+03,4.08739e-13,-1.12423e+00,2.91846e-13,-1.12423e+00,1.45528e-13,-1.12423e+00
8.18164e+02,8.74500e+03,6.14900e+03,2.59600e+03,5.72139e-13,-1.11669e+00,6.00834e-13,-1.11669e+00,3.06686e-13,-1.11669e+00
8.18413e+02,5.56300e+03,8.29000e+03,-2.72700e+03,8.73819e-13,-1.10914e+00,8.12797e-13,-1.10914e+00,5.99184e-13,-1.10914e+00
8.18662e+02,6.12400e+03,8.24400e+03,-2.12000e+03,1.13545e-12,-1.10160e+00,9.32287e-13,-1.10160e+00,1.06683e-12,-1.10160e+00
8.18911e+02,8.50100e+03,6.02200e+03,2.47900e+03,9.46490e-13,-1.09405e+00,1.05518e-12,-1.09405e+00,9.20205e-13,-1.09405e+00
8.19160e+02,7.24600e+03,5.58900e+03,1.65700e+03,1.29334e-13,-1.08651e+00,1.03216e-12,-1.08651e+00,1.13841e-12,-1.08651e+00
8.19408e+02,5.23400e+03,8.45800e+03,-3.22400e+03,7.29127e-13,-1.07896e+00,5.40337e-13,-1.07896e+00,1.20555e-12,-1.07896e+00
8.19657e+02,8.16500e+03,9.37400e+03,-1.20900e+03,6.92728e-13,-1.07142e+00,5.32282e-13,-1.07142e+00,1.22362e-12,-1.07142e+00
8.19906e+02,1.07930e+04,6.34900e+03,4.44400e+03,2.71544e-13,-1.06387e+00,8.55786e-13,-1.06387e+00,1.08817e-12,-1.06387e+00
8.20155e+02,8.37100e+03,6.66900e+03,1.70200e+03,4.41119e-13,-1.05633e+00,1.43719e-12,-1.05633e+00,1.03059e-12,-1.05633e+00
8.20404e+02,5.79600e+03,9.14900e+03,-3.35300e+03,2.44911e-13,-1.04878e+00,7.29858e-13,-1.04878e+00,4.95543e-13,-1.04878e+00
8.20653e+02,7.63000e+03,7.73800e+03,-1.08000e+02,1.75835e-13,-1.04124e+00,4.11484e-13,-1.04124e+00,3.93746e-13,-1.04124e+00
8.20901e+02,9.01600e+03,5.32900e+03,3.68700e+03,3.86323e-13,-1.03369e+00,7.01256e-13,-1.03369e+00,3.98946e-13,-1.03369e+00
8.21150e+02,6.75800e+03,6.97400e+03,-2.16000e+02,3.91116e-13,-1.02615e+00,9.82271e-13,-1.02615e+00,9.83831e-13,-1.02615e+00
8.21399e+02,5.22800e+03,8.30500e+03,-3.07700e+03,5.24020e-13,-1.01860e+00,1.35786e-12,-1.01860e+00,1.44742e-12,-1.01860e+00
8.21648e+02,7.87200e+03,6.85900e+03,1.01300e+03,1.29455e-13,-1.01106e+00,1.13778e-12,-1.01106e+00,1.13275e-12,-1.01106e+00
8.21897e+02,8.52900e+03,4.80900e+03,3.72000e+03,1.83044e-13,-1.00351e+00,5.34394e-13,-1.00351e+00,6.05515e-13,-1.00351e+00
8.22145e+02,5.55500e+03,6.08400e+03,-5.29000e+02,8.87199e-13,-9.95966e-01,1.02719e-12,-9.95966e-01,1.99414e-13,-9.95966e-01
8.22394e+02,5.12600e+03,7.83200e+03,-2.70600e+03,8.04667e-13,-9.88421e-01,9.38113e-13,-9.88421e-01,1.61294e-13,-9.88421e-01
8.22643e+02,6.90600e+03,5.84000e+03,1.06600e+03,3.05041e-13,-9.80876e-01,6.22520e-13,-9.80876e-01,4.67587e-13,-9.80876e-01
8.22892e+02,6.77400e+03,4.51800e+03,2.25600e+03,6.57298e-13,-9.73331e-01,4.29964e-13,-9.73331e-01,5.20887e-13,-9.73331e-01
8.23140e+02,4.61700e+03,6.66500e+03,-2.04800e+03,7.52522e-13,-9.65785e-01,6.87546e-13,-9.65785e-01,5.69405e-13,-9.65785e-01
8.23389e+02,5.40100e+03,7.79700e+03,-2.39600e+03,1.40711e-12,-9.58240e-01,4.85533e-13,-9.58240e-01,1.01381e-12,-9.58240e-01
8.23638e+02,7.47200e+03,5.50100e+03,1.97100e+03,1.78787e-12,-9.50695e-01,1.25797e-13,-9.50695e-01,1.69236e-12,-9.50695e-01
8.23887e+02,6.17200e+03,4.67800e+03,1.49400e+03,1.04624e-12,-9.43150e-01,2.60284e-13,-9.43150e-01,1.30318e-12,-9.43150e-01
8.24135e+02,4.02800e+03,6.29800e+03,-2.27000e+03,5.75473e-13,-9.35605e-01,7.45178e-13,-9.35605e-01,2.30054e-13,-9.35605e-01
8.24384e+02,4.97900e+03,6.53400e+03,-1.55500e+03,6.26935e-13,-9.28059e-01,1.03359e-12,-9.28059e-01,4.24253e-13,-9.28059e-01
8.24633e+02,7.12400e+03,4.50500e+03,2.61900e+03,1.18203e-12,-9.20514e-01,1.63524e-12,-9.20514e-01,4.53585e-13,-9.20514e-01
8.24881e+02,5.34300e+03,4.55300e+03,7.90000e+02,1.29643e-12,-9.12969e-01,2.64668e-12,-9.12969e-01,1.38470e-12,-9.12969e-01
8.25130e+02,3.89700e+03,6.57200e+03,-2.67500e+03,3.12496e-13,-9.05424e-01,2.75450e-12,-9.05424e-01,2.48200e-12,-9.05424e-01
8.25379e+02,5.33200e+03,5.88100e+03,-5.49000e+02,1.35415e-12,-8.97879e-01,2.28038e-12,-8.97879e-01,2.76497e-12,-8.97879e-01
8.25627e+02,5.91200e+03,3.66200e+03,2.25000e+03,2.02670e-12,-8.90333e-01,1.81083e-12,-8.90333e-01,2.81274e-12,-8.90333e-01
8.25876e+02,4.21900e+03,4.07800e+03,1.41000e+02,2.30038e-12,-8.82788e-01,1.38843e-12,-8.82788e-01,2.79451e-12,-8.82788e-01
8.26125e+02,3.22100e+03,5.61900e+03,-2.39800e+03,2.57631e-12,-8.75243e-01,8.65312e-13,-8.75243e-01,2.24363e-12,-8.75243e-01
8.26373e+02,4.45100e+03,4.38900e+03,6.20000e+01,2.63651e-12,-8.67698e-01,8.19880e-13,-8.67698e-01,1.85226e-12,-8.67698e-01
8.26622e+02,5.12300e+03,2.89300e+03,2.23000e+03,1.70731e-12,-8.60153e-01,8.60354e-13,-8.60153e-01,1.31943e-12,-8.60153e-01
8.26870e+02,3.39100e+03,3.31400e+03,7.70000e+01,1.11458e-12,-8.52607e-01,8.14188e-13,-8.52607e-01,6.16651e-13,-8.52607e-01
8.27119e+02,2.90400e+03,4.33300e+03,-1.42900e+03,1.34042e-12,-8.45062e-01,1.38033e-12,-8.45062e-01,2.56415e-12,-8.45062e-01
8.27368e+02,4.40200e+03,3.83400e+03,5.68000e+02,1.58048e-12,-8.37517e-01,1.70237e-12,-8.37517e-01,3.03421e-12,-8.37517e-01
8.27616e+02,4.64600e+03,2.65400e+03,1.99200e+03,1.49801e-12,-8.29972e-01,1.44155e-12,-8.29972e-01,2.14845e-12,-8.29972e-01
8.27865e+02,3.10400e+03,3.56100e+03,-4.57000e+02,1.17486e-12,-8.22427e-01,7.97626e-13,-8.22427e-01,1.17271e-12,-8.22427e-01
8.28113e+02,2.81200e+03,4.67600e+03,-1.86400e+03,8.12870e-14,-8.14881e-01,1.29915e-13,-8.14881e-01,8.25438e-14,-8.14881e-01
8.28362e+02,4.23600e+03,3.91600e+03,3.20000e+02,8.48313e-13,-8.07336e-01,9.00664e-13,-8.07336e-01,1.41778e-12,-8.07336e-01
8.28610e+02,3.70600e+03,2.57000e+03,1.13600e+03,9.10923e-13,-7.99791e-01,1.82239e-12,-7.99791e-01,2.71237e-12,-7.99791e-01
8.28859e+02,2.41000e+03,3.34300e+03,-9.33000e+02,1.80790e-12,-7.92246e-01,7.21601e-13,-7.92246e-01,2.43995e-12,-7.92246e-01
8.29108e+02,2.14700e+03,3.70300e+03,-1.55600e+03,2.28114e-12,-7.84701e-01,1.96503e-12,-7.84701e-01,3.49880e-12,-7.84701e-01
8.29356e+02,2.78400e+03,2.45300e+03,3.31000e+02,3.35678e-12,-7.77155e-01,2.93985e-12,-7.77155e-01,5.75980e-12,-7.77155e-01
8.29605e+02,2.55800e+03,1.86100e+03,6.97000e+02,5.64123e-12,-7.69610e-01,4.67627e-12,-7.69610e-01,9.29695e-12,-7.69610e-01
8.29853e+02,1.88400e+03,2.61800e+03,-7.34000e+02,5.88053e-12,-7.62065e-01,5.22541e-12,-7.62065e-01,9.63317e-12,-7.62065e-01
8.30101e+02,2.19800e+03,2.89500e+03,-6.97000e+02,8.34161e-12,-7.54520e-01,8.73008e-12,-7.54520e-01,1.55090e-11,-7.54520e-01
8.30350e+02,2.98200e+03,2.21800e+03,7.64000e+02,1.46400e-11,-7.46975e-01,1.33338e-11,-7.46975e-01,2.60235e-11,-7.46975e-01
8.30598e+02,2.32200e+03,1.88000e+03,4.42000e+02,1.97906e-11,-7.39429e-01,1.80638e-11,-7.39429e-01,3.50049e-11,-7.39429e-01
8.30847e+02,1.65200e+03,2.50600e+03,-8.54000e+02,2.29467e-11,-7.31884e-01,2.20805e-11,-7.31884e-01,4.20957e-11,-7.31884e-01
8.31095e+02,1.87000e+03,2.47200e+03,-6.02000e+02,2.49818e-11,-7.24339e-01,2.46318e-11,-7.24339e-01,4.69234e-11,-7.24339e-01
8.31344e+02,2.26400e+03,1.66100e+03,6.03000e+02,2.60037e-11,-7.16794e-01,2.59656e-11,-7.16794e-01,4.89108e-11,-7.16794e-01
8.31592e+02,1.79400e+03,1.75400e+03,4.00000e+01,2.51811e-11,-7.09249e-01,2.52944e-11,-7.09249e-01,4.69883e-11,-7.09249e-01
8.31841e+02,1.40000e+03,2.36400e+03,-9.64000e+02,2.17866e-11,-7.01703e-01,2.15416e-11,-7.01703e-01,4.02444e-11,-7.01703e-01
8.32089e+02,1.74000e+03,2.07700e+03,-3.37000e+02,1.68076e-11,-6.94158e-01,1.70359e-11,-6.94158e-01,3.16330e-11,-6.94158e-01
8.32337e+02,2.23700e+03,1.44300e+03,7.94000e+02,1.23429e-11,-6.86613e-01,1.29055e-11,-6.86613e-01,2.33172e-11,-6.86613e-01
8.32586e+02,1.65900e+03,1.53200e+03,1.27000e+02,1.03155e-11,-6.79068e-01,9.21044e-12,-6.79068e-01,1.74075e-11,-6.79068e-01
8.32834e+02,1.32900e+03,2.17000e+03,-8.41000e+02,8.12477e-12,-6.71523e-01,4.53261e-12,-6.71523e-01,1.15881e-11,-6.71523e-01
8.33083e+02,1.62500e+03,1.77800e+03,-1.53000e+02,4.72278e-12,-6.63977e-01,2.24925e-12,-6.63977e-01,6.87671e-12,-6.63977e-01
8.33331e+02,1.67600e+03,1.19600e+03,4.80000e+02,2.34213e-12,-6.56432e-01,3.51005e-12,-6.56432e-01,5.41313e-12,-6.56432e-01
8.33579e+02,1.24200e+03,1.28500e+03,-4.30000e+01,1.06705e-12,-6.48887e-01,3.50062e-12,-6.48887e-01,3.93179e-12,-6.48887e-01
8.33828e+02,1.08200e+03,1.55600e+03,-4.74000e+02,1.46135e-12,-6.41342e-01,2.96235e-12,-6.41342e-01,3.57147e-12,-6.41342e-01
8.34076e+02,1.25300e+03,1.27100e+03,-1.80000e+01,1.57813e-12,-6.33797e-01,2.89237e-12,-6.33797e-01,3.26286e-12,-6.33797e-01
8.34324e+02,1.56100e+03,1.04800e+03,5.13000e+02,1.05422e-12,-6.26251e-01,2.23176e-12,-6.26251e-01,2.76767e-12,-6.26251e-01
8.34573e+02,1.18600e+03,1.19600e+03,-1.00000e+01,1.33529e-12,-6.18706e-01,1.32852e-12,-6.18706e-01,2.65988e-12,-6.18706e-01
8.34821e+02,9.88000e+02,1.44400e+03,-4.56000e+02,1.43948e-12,-6.11161e-01,3.04476e-13,-6.11161e-01,1.68516e-12,-6.11161e-01
8.35069e+02,1.28300e+03,1.21700e+03,6.60000e+01,4.45686e-13,-6.03616e-01,1.13961e-12,-6.03616e-01,1.45363e-12,-6.03616e-01
8.35318e+02,1.33800e+03,1.00600e+03,3.32000e+02,1.90592e-12,-5.96071e-01,1.40400e-12,-5.96071e-01,3.00004e-12,-5.96071e-01
8.35566e+02,9.52000e+02,1.06100e+03,-1.09000e+02,1.69863e-12,-5.88525e-01,6.39304e-13,-5.88525e-01,2.17591e-12,-5.88525e-01
8.35814e+02,8.35000e+02,1.18400e+03,-3.49000e+02,5.38450e-13,-5.80980e-01,5.64844e-14,-5.80980e-01,5.10986e-13,-5.80980e-01
8.36062e+02,1.01800e+03,8.91000e+02,1.27000e+02,8.99226e-13,-5.73435e-01,7.30634e-13,-5.73435e-01,1.43942e-12,-5.73435e-01
8.36311e+02,1.10500e+03,8.05000e+02,3.00000e+02,1.83541e-12,-5.65890e-01,8.31403e-13,-5.65890e-01,2.10982e-12,-5.65890e-01
8.36559e+02,8.23000e+02,9.33000e+02,-1.10000e+02,2.00920e-12,-5.58345e-01,2.53186e-13,-5.58345e-01,1.75693e-12,-5.58345e-01
8.36807e+02,7.64000e+02,1.11200e+03,-3.48000e+02,1.91401e-12,-5.50799e-01,7.71174e-13,-5.50799e-01,2.52172e-12,-5.50799e-01
8.37055e+02,8.45000e+02,8.89000e+02,-4.40000e+01,2.09765e-12,-5.43254e-01,3.29468e-13,-5.43254e-01,2.42564e-12,-5.43254e-01
8.37304e+02,9.06000e+02,7.61000e+02,1.45000e+02,2.22212e-12,-5.35709e-01,1.81806e-13,-5.35709e-01,2.10090e-12,-5.35709e-01
8.37552e+02,7.41000e+02,8.04000e+02,-6.30000e+01,2.14843e-12,-5.28164e-01,4.95343e-13,-5.28164e-01,2.57321e-12,-5.28164e-01
8.37800e+02,7.84000e+02,9.15000e+02,-1.31000e+02,2.65623e-12,-5.20619e-01,7.33130e-13,-5.20619e-01,2.36705e-12,-5.20619e-01
8.38048e+02,8.05000e+02,7.07000e+02,9.80000e+01,2.64284e-12,-5.13073e-01,1.08887e-12,-5.13073e-01,1.56449e-12,-5.13073e-01
8.38296e+02,7.96000e+02,6.86000e+02,1.10000e+02,1.50444e-12,-5.05528e-01,9.11076e-13,-5.05528e-01,6.18905e-13,-5.05528e-01
8.38545e+02,6.97000e+02,7.25000e+02,-2.80000e+01,2.79230e-13,-4.97983e-01,2.26297e-13,-4.97983e-01,2.78338e-13,-4.97983e-01
8.38793e+02,6.81000e+02,7.85000e+02,-1.04000e+02,8.78296e-13,-4.90438e-01,1.27451e-12,-4.90438e-01,4.95785e-13,-4.90438e-01
8.39041e+02,7.44000e+02,6.98000e+02,4.60000e+01,9.81518e-13,-4.82893e-01,7.36849e-13,-4.82893e-01,3.41617e-13,-4.82893e-01
8.39289e+02,7.34000e+02,6.82000e+02,5.20000e+01,1.23566e-12,-4.75347e-01,1.11193e-12,-4.75347e-01,2.02739e-12,-4.75347e-01
8.39537e+02,6.64000e+02,6.93000e+02,-2.90000e+01,1.93869e-12,-4.67802e-01,1.67479e-12,-4.67802e-01,3.07342e-12,-4.67802e-01
8.39785e+02,6.72000e+02,7.44000e+02,-7.20000e+01,2.73342e-12,-4.60257e-01,1.20889e-12,-4.60257e-01,3.06800e-12,-4.60257e-01
8.40033e+02,6.72000e+02,6.77000e+02,-5.00000e+00,2.44937e-12,-4.52712e-01,9.81282e-13,-4.52712e-01,2.04023e-12,-4.52712e-01
8.40281e+02,7.19000e+02,6.78000e+02,4.10000e+01,1.89409e-12,-4.45167e-01,1.42420e-12,-4.45167e-01,1.34149e-12,-4.45167e-01
8.40530e+02,6.36000e+02,6.58000e+02,-2.20000e+01,1.61593e-12,-4.37621e-01,1.71560e-12,-4.37621e-01,1.57743e-12,-4.37621e-01
8.40778e+02,6.54000e+02,6.74000e+02,-2.00000e+01,6.41481e-13,-4.30076e-01,2.09075e-12,-4.30076e-01,1.86630e-12,-4.30076e-01
8.41026e+02,6.80000e+02,6.45000e+02,3.50000e+01,5.88635e-13,-4.22531e-01,2.65825e-12,-4.22531e-01,2.57522e-12,-4.22531e-01
8.41274e+02,6.74000e+02,6.51000e+02,2.30000e+01,2.02489e-12,-4.14986e-01,3.01896e-12,-4.14986e-01,3.25827e-12,-4.14986e-01
8.41522e+02,6.33000e+02,6.63000e+02,-3.00000e+01,2.85285e-12,-4.07441e-01,2.73983e-12,-4.07441e-01,4.20094e-12,-4.07441e-01
8.41770e+02,6.53000e+02,6.58000e+02,-5.00000e+00,2.18194e-12,-3.99895e-01,1.97936e-12,-3.99895e-01,4.15368e-12,-3.99895e-01
8.42018e+02,6.62000e+02,6.41000e+02,2.10000e+01,1.89185e-12,-3.92350e-01,2.53271e-12,-3.92350e-01,3.53383e-12,-3.92350e-01
8.42266e+02,6.68000e+02,6.46000e+02,2.20000e+01,1.54541e-12,-3.84805e-01,1.79175e-12,-3.84805e-01,2.35338e-12,-3.84805e-01
8.42514e+02,6.39000e+02,6.52000e+02,-1.30000e+01,1.35197e-12,-3.77260e-01,1.09087e-12,-3.77260e-01,3.12405e-13,-3.77260e-01
8.42762e+02,6.60000e+02,6.75000e+02,-1.50000e+01,3.49406e-12,-3.69715e-01,2.96316e-12,-3.69715e-01,1.44197e-12,-3.69715e-01
8.43010e+02,6.40000e+02,6.21000e+02,1.90000e+01,3.53304e-12,-3.62169e-01,3.30104e-12,-3.62169e-01,1.45736e-12,-3.62169e-01
8.43258e+02,6.52000e+02,6.27000e+02,2.50000e+01,3.06981e-12,-3.54624e-01,3.60344e-12,-3.54624e-01,7.00237e-13,-3.54624e-01
8.43506e+02,6.42000e+02,6.46000e+02,-4.00000e+00,3.97265e-12,-3.47079e-01,3.23463e-12,-3.47079e-01,1.81169e-12,-3.47079e-01
8.43754e+02,6.34000e+02,6.42000e+02,-8.00000e+00,3.17217e-12,-3.39534e-01,1.06940e-12,-3.39534e-01,2.37355e-12,-3.39534e-01
8.44002e+02,6.38000e+02,6.38000e+02,0.00000e+00,6.62760e-13,-3.31989e-01,1.22168e-12,-3.31989e-01,1.88444e-12,-3.31989e-01
8.44250e+02,6.45000e+02,6.28000e+02,1.70000e+01,2.95198e-12,-3.24444e-01,2.51865e-12,-3.24444e-01,8.52096e-13,-3.24444e-01
8.44498e+02,6.27000e+02,6.36000e+02,-9.00000e+00,5.20482e-12,-3.16898e-01,3.16216e-12,-3.16898e-01,2.13505e-12,-3.16898e-01
8.44746e+02,6.29000e+02,6.29000e+02,0.00000e+00,4.83286e-12,-3.09353e-01,3.94720e-12,-3.09353e-01,9.07373e-13,-3.09353e-01
8.44994e+02,6.33000e+02,6.32000e+02,1.00000e+00,2.03016e-12,-3.01808e-01,2.97614e-12,-3.01808e-01,1.09592e-12,-3.01808e-01
8.45242e+02,6.58000e+02,6.50000e+02,8.00000e+00,1.18351e-12,-2.94263e-01,2.88891e-12,-2.94263e-01,1.87071e-12,-2.94263e-01
8.45490e+02,6.22000e+02,6.06000e+02,1.60000e+01,1.79174e-12,-2.86718e-01,2.35159e-12,-2.86718e-01,1.82217e-12,-2.86718e-01
8.45738e+02,6.34000e+02,6.44000e+02,-1.00000e+01,2.85028e-12,-2.79172e-01,8.63574e-13,-2.79172e-01,1.99319e-12,-2.79172e-01
8.45985e+02,6.31000e+02,6.29000e+02,2.00000e+00,4.23053e-12,-2.71627e-01,3.46015e-12,-2.71627e-01,8.59938e-13,-2.71627e-01
8.46233e+02,6.29000e+02,6.23000e+02,6.00000e+00,2.14449e-12,-2.64082e-01,4.08484e-12,-2.64082e-01,2.29866e-12,-2.64082e-01
8.46481e+02,6.31000e+02,6.28000e+02,3.00000e+00,2.90887e-12,-2.56537e-01,2.87672e-12,-2.56537e-01,4.22491e-12,-2.56537e-01
8.46729e+02,6.33000e+02,6.33000e+02,0.00000e+00,4.76533e-12,-2.48992e-01,3.72071e-12,-2.48992e-01,2.68937e-12,-2.48992e-01
8.46977e+02,6.23000e+02,6.34000e+02,-1.10000e+01,3.35895e-12,-2.41446e-01,4.86106e-12,-2.41446e-01,1.67869e-12,-2.41446e-01
8.47225e+02,6.40000e+02,6.27000e+02,1.30000e+01,1.80594e-12,-2.33901e-01,3.49935e-12,-2.33901e-01,1.69341e-12,-2.33901e-01
8.47473e+02,6.30000e+02,6.20000e+02,1.00000e+01,1.49013e-12,-2.26356e-01,1.12667e-12,-2.26356e-01,6.94344e-13,-2.26356e-01
8.47720e+02,6.63000e+02,6.68000e+02,-5.00000e+00,2.12600e-12,-2.18811e-01,8.24922e-13,-2.18811e-01,2.08763e-12,-2.18811e-01
8.47968e+02,6.12000e+02,6.23000e+02,-1.10000e+01,2.15622e-12,-2.11266e-01,2.09465e-12,-2.11266e-01,2.41804e-12,-2.11266e-01
8.48216e+02,6.19000e+02,6.34000e+02,-1.50000e+01,2.44733e-12,-2.03720e-01,1.81922e-12,-2.03720e-01,2.13697e-12,-2.03720e-01
8.48464e+02,6.27000e+02,6.34000e+02,-7.00000e+00,3.48897e-12,-1.96175e-01,2.36366e-12,-1.96175e-01,2.41385e-12,-1.96175e-01
8.48712e+02,6.17000e+02,6.35000e+02,-1.80000e+01,4.91585e-12,-1.88630e-01,3.82778e-12,-1.88630e-01,3.05698e-12,-1.88630e-01
8.48960e+02,6.38000e+02,6.29000e+02,9.00000e+00,5.11682e-12,-1.81085e-01,4.05978e-12,-1.81085e-01,2.69357e-12,-1.81085e-01
8.49207e+02,6.36000e+02,6.41000e+02,-5.00000e+00,3.93786e-12,-1.73540e-01,3.99397e-12,-1.73540e-01,7.16242e-13,-1.73540e-01
8.49455e+02,6.31000e+02,6.19000e+02,1.20000e+01,2.33142e-12,-1.65994e-01,2.42897e-12,-1.65994e-01,1.53731e-12,-1.65994e-01
8.49703e+02,6.26000e+02,6.23000e+02,3.00000e+00,6.85691e-12,-1.58449e-01,5.77276e-12,-1.58449e-01,1.77376e-12,-1.58449e-01
8.49951e+02,6.31000e+02,6.21000e+02,1.00000e+01,7.97699e-12,-1.50904e-01,6.74845e-12,-1.50904e-01,1.78101e-12,-1.50904e-01
8.50198e+02,6.58000e+02,6.51000e+02,7.00000e+00,5.53311e-12,-1.43359e-01,3.12508e-12,-1.43359e-01,2.42977e-12,-1.43359e-01
8.50446e+02,6.17000e+02,6.19000e+02,-2.00000e+00,2.56004e-12,-1.35814e-01,1.28998e-12,-1.35814e-01,3.50146e-12,-1.35814e-01
8.50694e+02,6.31000e+02,6.44000e+02,-1.30000e+01,1.04313e-12,-1.28268e-01,2.82089e-12,-1.28268e-01,3.78168e-12,-1.28268e-01
8.50941e+02,6.21000e+02,6.36000e+02,-1.50000e+01,3.06144e-12,-1.20723e-01,3.89287e-12,-1.20723e-01,3.41474e-12,-1.20723e-01
8.51189e+02,6.35000e+02,6.36000e+02,-1.00000e+00,4.66167e-12,-1.13178e-01,3.81760e-12,-1.13178e-01,1.85321e-12,-1.13178e-01
8.51437e+02,6.35000e+02,6.32000e+02,3.00000e+00,4.33066e-12,-1.05633e-01,3.94369e-12,-1.05633e-01,4.16046e-13,-1.05633e-01
8.51685e+02,6.24000e+02,6.34000e+02,-1.00000e+01,3.57023e-12,-9.80876e-02,3.12691e-12,-9.80876e-02,1.88890e-12,-9.80876e-02
8.51932e+02,6.40000e+02,6.35000e+02,5.00000e+00,4.49806e-12,-9.05424e-02,3.01220e-12,-9.05424e-02,2.85528e-12,-9.05424e-02
8.52180e+02,6.33000e+02,6.31000e+02,2.00000e+00,4.59486e-12,-8.29972e-02,4.32093e-12,-8.29972e-02,9.28240e-13,-8.29972e-02
8.52428e+02,6.25000e+02,6.28000e+02,-3.00000e+00,4.61763e-12,-7.54520e-02,5.98367e-12,-7.54520e-02,1.87389e-12,-7.54520e-02
8.52675e+02,6.53000e+02,6.54000e+02,-1.00000e+00,6.85325e-12,-6.79068e-02,8.68723e-12,-6.79068e-02,2.50464e-12,-6.79068e-02
8.52923e+02,6.20000e+02,6.04000e+02,1.60000e+01,8.09045e-12,-6.03616e-02,9.70733e-12,-6.03616e-02,2.64136e-12,-6.03616e-02
8.53170e+02,6.25000e+02,6.31000e+02,-6.00000e+00,6.97305e-12,-5.28164e-02,8.44926e-12,-5.28164e-02,3.17978e-12,-5.28164e-02
8.53418e+02,6.41000e+02,6.10000e+02,3.10000e+01,3.94615e-12,-4.52712e-02,3.24167e-12,-4.52712e-02,3.02723e-12,-4.52712e-02
8.53666e+02,6.33000e+02,6.25000e+02,8.00000e+00,5.23704e-12,-3.77260e-02,4.11024e-12,-3.77260e-02,1.15864e-12,-3.77260e-02
8.53913e+02,6.31000e+02,6.25000e+02,6.00000e+00,3.80623e-12,-3.01808e-02,5.42285e-12,-3.01808e-02,2.38256e-12,-3.01808e-02
8.54161e+02,6.36000e+02,6.32000e+02,4.00000e+00,1.80766e-11,-2.26356e-02,1.73862e-11,-2.26356e-02,3.26271e-12,-2.26356e-02
8.54409e+02,6.30000e+02,6.29000e+02,1.00000e+00,8.39318e-11,-1.50904e-02,8.46926e-11,-1.50904e-02,1.09112e-12,-1.50904e-02
8.54656e+02,6.36000e+02,6.28000e+02,8.00000e+00,2.32749e-10,-7.54520e-03,2.31243e-10,-7.54520e-03,3.19255e-12,-7.54520e-03
