7.67698e+02,6.29000e+02,6.36000e+02,-7.00000e+00,3.93012e-10,0.00000e+00,3.95407e-10,0.00000e+00,2.39567e-12,0.00000e+00
7.67949e+02,6.46000e+02,6.66000e+02,-2.00000e+01,2.35417e-10,7.54520e-03,2.36908e-10,7.54520e-03,3.49684e-12,7.54520e-03
7.68199e+02,5.99000e+02,6.18000e+02,-1.90000e+01,8.39095e-11,1.50904e-02,8.55285e-11,1.50904e-02,2.40386e-12,1.50904e-02
7.68450e+02,6.36000e+02,6.16000e+02,2.00000e+01,1.93173e-11,2.26356e-02,1.97417e-11,2.26356e-02,2.85881e-12,2.26356e-02
7.68701e+02,6.40000e+02,6.31000e+02,9.00000e+00,4.28522e-12,3.01808e-02,2.85315e-12,3.01808e-02,3.21414e-12,3.01808e-02
7.68951e+02,6.35000e+02,6.28000e+02,7.00000e+00,2.92443e-12,3.77260e-02,2.27758e-12,3.77260e-02,9.94027e-13,3.77260e-02
7.69202e+02,6.20000e+02,6.24000e+02,-4.00000e+00,5.20425e-12,4.52712e-02,5.81183e-12,4.52712e-02,6.69561e-13,4.52712e-02
7.69453e+02,6.29000e+02,6.35000e+02,-6.00000e+00,8.20346e-12,5.28164e-02,7.65918e-12,5.28164e-02,8.69320e-13,5.28164e-02
7.69703e+02,6.26000e+02,6.28000e+02,-2.00000e+00,9.34797e-12,6.03616e-02,5.87303e-12,6.03616e-02,3.49317e-12,6.03616e-02
7.69954e+02,6.49000e+02,6.30000e+02,1.90000e+01,8.02391e-12,6.79068e-02,3.81143e-12,6.79068e-02,5.32152e-12,6.79068e-02
7.70205e+02,6.40000e+02,6.33000e+02,7.00000e+00,3.27538e-12,7.54520e-02,2.58706e-12,7.54520e-02,4.03309e-12,7.54520e-02
7.70455e+02,6.68000e+02,6.84000e+02,-1.60000e+01,6.83848e-13,8.29972e-02,2.11458e-12,8.29972e-02,2.26758e-12,8.29972e-02
7.70706e+02,6.22000e+02,6.38000e+02,-1.60000e+01,1.51628e-12,9.05424e-02,2.87272e-12,9.05424e-02,1.99565e-12,9.05424e-02
7.70957e+02,6.43000e+02,6.25000e+02,1.80000e+01,2.20245e-12,9.80876e-02,4.68418e-12,9.80876e-02,2.54620e-12,9.80876e-02
7.71207e+02,6.47000e+02,6.34000e+02,1.30000e+01,1.45666e-12,1.05633e-01,4.24059e-12,1.05633e-01,3.04909e-12,1.05633e-01
7.71458e+02,6.59000e+02,6.56000e+02,3.00000e+00,1.17841e-12,1.13178e-01,3.36455e-12,1.13178e-01,3.14596e-12,1.13178e-01
7.71708e+02,6.37000e+02,6.69000e+02,-3.20000e+01,6.85055e-13,1.20723e-01,2.77147e-12,1.20723e-01,2.11931e-12,1.20723e-01
7.71959e+02,6.41000e+02,6.83000e+02,-4.20000e+01,3.13365e-12,1.28268e-01,1.97582e-12,1.28268e-01,1.98631e-12,1.28268e-01
7.72210e+02,6.51000e+02,6.46000e+02,5.00000e+00,5.90539e-12,1.35814e-01,1.94875e-12,1.35814e-01,4.04128e-12,1.35814e-01
7.72460e+02,6.96000e+02,6.42000e+02,5.40000e+01,7.10546e-12,1.43359e-01,3.49366e-12,1.43359e-01,6.32959e-12,1.43359e-01
7.72711e+02,6.56000e+02,6.46000e+02,1.00000e+01,6.29474e-12,1.50904e-01,6.36124e-12,1.50904e-01,6.53072e-12,1.50904e-01
7.72961e+02,6.86000e+02,7.21000e+02,-3.50000e+01,1.60334e-12,1.58449e-01,4.70403e-12,1.58449e-01,4.01234e-12,1.58449e-01
7.73212e+02,6.22000e+02,6.77000e+02,-5.50000e+01,3.97613e-12,1.65994e-01,4.55788e-12,1.65994e-01,1.06724e-12,1.65994e-01
7.73462e+02,6.45000e+02,6.52000e+02,-7.00000e+00,5.44828e-12,1.73540e-01,5.47014e-12,1.73540e-01,5.76683e-13,1.73540e-01
7.73713e+02,6.78000e+02,6.53000e+02,2.50000e+01,3.76443e-12,1.81085e-01,3.00316e-12,1.81085e-01,2.44203e-12,1.81085e-01
7.73963e+02,6.95000e+02,6.53000e+02,4.20000e+01,3.71780e-12,1.88630e-01,1.57810e-12,1.88630e-01,4.45118e-12,1.88630e-01
7.74214e+02,6.70000e+02,6.80000e+02,-1.00000e+01,4.06216e-12,1.96175e-01,8.53598e-13,1.96175e-01,4.58323e-12,1.96175e-01
7.74465e+02,6.63000e+02,7.51000e+02,-8.80000e+01,4.57874e-12,2.03720e-01,8.85689e-13,2.03720e-01,4.19204e-12,2.03720e-01
7.74715e+02,6.38000e+02,7.20000e+02,-8.20000e+01,5.16166e-12,2.11266e-01,1.30769e-12,2.11266e-01,4.60457e-12,2.11266e-01
7.74965e+02,7.21000e+02,6.60000e+02,6.10000e+01,2.87041e-12,2.18811e-01,1.42039e-12,2.18811e-01,4.15359e-12,2.18811e-01
7.75216e+02,7.47000e+02,6.54000e+02,9.30000e+01,8.94951e-13,2.26356e-01,1.87926e-12,2.26356e-01,1.74408e-12,2.26356e-01
7.75466e+02,7.89000e+02,7.36000e+02,5.30000e+01,3.01590e-12,2.33901e-01,1.51353e-12,2.33901e-01,1.54931e-12,2.33901e-01
7.75717e+02,6.57000e+02,7.33000e+02,-7.60000e+01,5.07642e-12,2.41446e-01,2.13201e-12,2.41446e-01,3.75328e-12,2.41446e-01
7.75967e+02,6.38000e+02,7.91000e+02,-1.53000e+02,4.70293e-12,2.48992e-01,2.41872e-12,2.48992e-01,3.48146e-12,2.48992e-01
7.76218e+02,6.83000e+02,6.84000e+02,-1.00000e+00,2.20164e-12,2.56537e-01,1.66303e-12,2.56537e-01,1.94803e-12,2.56537e-01
7.76468e+02,8.02000e+02,6.63000e+02,1.39000e+02,8.20363e-13,2.64082e-01,9.61304e-13,2.64082e-01,1.11176e-12,2.64082e-01
7.76719e+02,7.75000e+02,6.89000e+02,8.60000e+01,1.23109e-12,2.71627e-01,8.40411e-13,2.71627e-01,5.37381e-13,2.71627e-01
7.76969e+02,7.22000e+02,8.02000e+02,-8.00000e+01,1.15251e-12,2.79172e-01,2.96876e-12,2.79172e-01,2.05982e-12,2.79172e-01
7.77219e+02,6.56000e+02,8.16000e+02,-1.60000e+02,1.01606e-12,2.86718e-01,4.31227e-12,2.86718e-01,3.94017e-12,2.86718e-01
7.77470e+02,7.14000e+02,7.90000e+02,-7.60000e+01,2.16776e-12,2.94263e-01,3.63144e-12,2.94263e-01,4.62519e-12,2.94263e-01
7.77720e+02,8.38000e+02,6.83000e+02,1.55000e+02,1.10342e-12,3.01808e-01,2.14247e-12,3.01808e-01,3.21294e-12,3.01808e-01
7.77971e+02,9.83000e+02,7.50000e+02,2.33000e+02,3.08659e-12,3.09353e-01,3.70378e-12,3.09353e-01,7.68129e-13,3.09353e-01
7.78221e+02,8.29000e+02,8.58000e+02,-2.90000e+01,4.16285e-12,3.16898e-01,4.91241e-12,3.16898e-01,2.40538e-12,3.16898e-01
7.78471e+02,7.24000e+02,1.04600e+03,-3.22000e+02,2.78456e-12,3.24444e-01,4.19483e-12,3.24444e-01,1.56869e-12,3.24444e-01
7.78722e+02,6.94000e+02,9.12000e+02,-2.18000e+02,1.87760e-12,3.31989e-01,2.09410e-12,3.31989e-01,1.23829e-12,3.31989e-01
7.78972e+02,9.37000e+02,7.64000e+02,1.73000e+02,1.67723e-12,3.39534e-01,1.56640e-12,3.39534e-01,1.66616e-13,3.39534e-01
7.79222e+02,1.18000e+03,7.29000e+02,4.51000e+02,1.06814e-12,3.47079e-01,9.88172e-13,3.47079e-01,8.47764e-13,3.47079e-01
7.79473e+02,1.20200e+03,9.41000e+02,2.61000e+02,2.01213e-12,3.54624e-01,1.71357e-12,3.54624e-01,6.18018e-13,3.54624e-01
7.79723e+02,8.68000e+02,1.17400e+03,-3.06000e+02,2.11220e-12,3.62169e-01,2.90333e-12,3.62169e-01,1.25337e-12,3.62169e-01
7.79973e+02,7.67000e+02,1.25200e+03,-4.85000e+02,1.81691e-12,3.69715e-01,1.81389e-12,3.69715e-01,1.53026e-12,3.69715e-01
7.80224e+02,8.76000e+02,8.97000e+02,-2.10000e+01,1.65646e-12,3.77260e-01,2.23189e-12,3.77260e-01,3.70795e-12,3.77260e-01
7.80474e+02,1.33200e+03,8.08000e+02,5.24000e+02,6.30216e-13,3.84805e-01,3.97153e-12,3.84805e-01,4.50197e-12,3.84805e-01
7.80724e+02,1.28900e+03,8.24000e+02,4.65000e+02,8.94441e-13,3.92350e-01,3.02199e-12,3.92350e-01,2.61039e-12,3.92350e-01
7.80974e+02,1.07200e+03,1.30100e+03,-2.29000e+02,1.11633e-12,3.99895e-01,1.26055e-12,3.99895e-01,2.26615e-13,3.99895e-01
7.81225e+02,8.25000e+02,1.55600e+03,-7.31000e+02,2.04997e-12,4.07441e-01,1.10965e-12,4.07441e-01,3.03323e-12,4.07441e-01
7.81475e+02,9.14000e+02,1.43800e+03,-5.24000e+02,2.64541e-12,4.14986e-01,2.42944e-12,4.14986e-01,4.92118e-12,4.14986e-01
7.81725e+02,1.28600e+03,9.39000e+02,3.47000e+02,3.81025e-12,4.22531e-01,3.29632e-12,4.22531e-01,6.99464e-12,4.22531e-01
7.81975e+02,1.71300e+03,9.23000e+02,7.90000e+02,4.34796e-12,4.30076e-01,8.18710e-12,4.30076e-01,1.21308e-11,4.30076e-01
7.82226e+02,1.53600e+03,1.33100e+03,2.05000e+02,1.79828e-11,4.37621e-01,1.81871e-11,4.37621e-01,3.51686e-11,4.37621e-01
7.82476e+02,1.03600e+03,1.74700e+03,-7.11000e+02,3.46312e-11,4.45167e-01,3.79448e-11,4.45167e-01,7.13216e-11,4.45167e-01
7.82726e+02,8.63000e+02,1.62800e+03,-7.65000e+02,5.01796e-11,4.52712e-01,5.50178e-11,4.52712e-01,1.02485e-10,4.52712e-01
7.82976e+02,1.36400e+03,1.16300e+03,2.01000e+02,6.10427e-11,4.60257e-01,6.34852e-11,4.60257e-01,1.20334e-10,4.60257e-01
7.83226e+02,1.69700e+03,8.84000e+02,8.13000e+02,5.70016e-11,4.67802e-01,5.81831e-11,4.67802e-01,1.10747e-10,4.67802e-01
7.83477e+02,1.85500e+03,1.36900e+03,4.86000e+02,3.57170e-11,4.75347e-01,3.87124e-11,4.75347e-01,7.16153e-11,4.75347e-01
7.83727e+02,1.28800e+03,1.79200e+03,-5.04000e+02,1.61103e-11,4.82893e-01,1.73176e-11,4.82893e-01,3.28939e-11,4.82893e-01
7.83977e+02,1.02900e+03,1.96000e+03,-9.31000e+02,1.08944e-11,4.90438e-01,8.61155e-12,4.90438e-01,1.90659e-11,4.90438e-01
7.84227e+02,1.27600e+03,1.57000e+03,-2.94000e+02,4.48974e-12,4.97983e-01,4.33602e-12,4.97983e-01,8.46705e-12,4.97983e-01
7.84477e+02,2.14200e+03,1.17500e+03,9.67000e+02,1.44258e-12,5.05528e-01,2.76325e-12,5.05528e-01,4.18294e-12,5.05528e-01
7.84727e+02,2.34900e+03,1.27000e+03,1.07900e+03,3.61926e-12,5.13073e-01,4.01636e-12,5.13073e-01,7.44838e-12,5.13073e-01
7.84978e+02,2.12200e+03,2.08200e+03,4.00000e+01,4.55960e-12,5.20619e-01,2.38080e-12,5.20619e-01,6.75810e-12,5.20619e-01
7.85228e+02,1.38100e+03,2.75100e+03,-1.37000e+03,2.86492e-12,5.28164e-01,7.80718e-13,5.28164e-01,2.08936e-12,5.28164e-01
7.85478e+02,1.36500e+03,2.53800e+03,-1.17300e+03,1.61717e-12,5.35709e-01,1.93363e-12,5.35709e-01,1.21715e-12,5.35709e-01
7.85728e+02,1.97700e+03,1.63900e+03,3.38000e+02,1.97918e-12,5.43254e-01,2.22766e-12,5.43254e-01,3.80046e-12,5.43254e-01
7.85978e+02,2.80300e+03,1.32400e+03,1.47900e+03,2.35182e-12,5.50799e-01,1.77038e-12,5.50799e-01,4.12072e-12,5.50799e-01
7.86228e+02,2.54200e+03,1.86300e+03,6.79000e+02,1.70473e-12,5.58345e-01,1.38310e-12,5.58345e-01,3.08783e-12,5.58345e-01
7.86478e+02,1.76500e+03,2.76000e+03,-9.95000e+02,1.02841e-12,5.65890e-01,2.41166e-12,5.65890e-01,3.20280e-12,5.65890e-01
7.86728e+02,1.30100e+03,2.82800e+03,-1.52700e+03,8.07232e-13,5.73435e-01,4.14995e-12,5.73435e-01,4.74354e-12,5.73435e-01
7.86978e+02,1.68800e+03,2.11000e+03,-4.22000e+02,4.87751e-13,5.80980e-01,5.35604e-12,5.80980e-01,5.82938e-12,5.80980e-01
7.87228e+02,2.53300e+03,1.37200e+03,1.16100e+03,8.66328e-13,5.88525e-01,4.92617e-12,5.88525e-01,4.20111e-12,5.88525e-01
7.87478e+02,2.83600e+03,1.57700e+03,1.25900e+03,2.75551e-12,5.96071e-01,2.81478e-12,5.96071e-01,2.08764e-12,5.96071e-01
7.87728e+02,2.30000e+03,2.45400e+03,-1.54000e+02,3.75982e-12,6.03616e-01,4.49957e-13,6.03616e-01,3.89352e-12,6.03616e-01
7.87978e+02,1.69400e+03,3.29000e+03,-1.59600e+03,3.00127e-12,6.11161e-01,1.12398e-12,6.11161e-01,3.70961e-12,6.11161e-01
7.88228e+02,1.65300e+03,2.82200e+03,-1.16900e+03,1.12805e-12,6.18706e-01,1.36862e-12,6.18706e-01,2.18046e-12,6.18706e-01
7.88478e+02,2.73000e+03,1.96100e+03,7.69000e+02,1.40891e-12,6.26251e-01,1.10984e-12,6.26251e-01,5.44553e-13,6.26251e-01
7.88728e+02,3.56600e+03,1.57400e+03,1.99200e+03,3.13269e-12,6.33797e-01,1.49762e-12,6.33797e-01,1.64355e-12,6.33797e-01
7.88978e+02,3.42500e+03,2.38800e+03,1.03700e+03,3.12657e-12,6.41342e-01,2.18455e-12,6.41342e-01,1.32187e-12,6.41342e-01
7.89228e+02,2.41900e+03,3.56100e+03,-1.14200e+03,2.15965e-12,6.48887e-01,2.60812e-12,6.48887e-01,1.36239e-12,6.48887e-01
7.89478e+02,1.70500e+03,4.01800e+03,-2.31300e+03,1.59602e-12,6.56432e-01,1.25308e-12,6.56432e-01,1.11379e-12,6.56432e-01
7.89728e+02,2.20100e+03,3.04800e+03,-8.47000e+02,1.99404e-12,6.63977e-01,3.86587e-13,6.63977e-01,2.11998e-12,6.63977e-01
7.89978e+02,3.75600e+03,2.09000e+03,1.66600e+03,2.13793e-12,6.71523e-01,5.12606e-13,6.71523e-01,1.75162e-12,6.71523e-01
7.90228e+02,4.50600e+03,2.14200e+03,2.36400e+03,1.45685e-12,6.79068e-01,1.02467e-12,6.79068e-01,5.05494e-13,6.79068e-01
7.90478e+02,4.07800e+03,3.71600e+03,3.62000e+02,7.77057e-13,6.86613e-01,8.43423e-13,6.86613e-01,7.25055e-13,6.86613e-01
7.90728e+02,2.56200e+03,4.73600e+03,-2.17400e+03,1.51254e-12,6.94158e-01,6.99089e-13,6.94158e-01,1.50129e-12,6.94158e-01
7.90978e+02,2.15600e+03,4.64600e+03,-2.49000e+03,1.71403e-12,7.01703e-01,1.23030e-12,7.01703e-01,1.03450e-12,7.01703e-01
7.91228e+02,3.42200e+03,3.05500e+03,3.67000e+02,7.14759e-13,7.09249e-01,8.11902e-13,7.09249e-01,1.94553e-13,7.09249e-01
7.91478e+02,4.64400e+03,2.13800e+03,2.50600e+03,1.08346e-12,7.16794e-01,5.99756e-13,7.16794e-01,4.91662e-13,7.16794e-01
7.91728e+02,4.44200e+03,2.63400e+03,1.80800e+03,1.24363e-12,7.24339e-01,1.19312e-12,7.24339e-01,5.95704e-13,7.24339e-01
7.91977e+02,3.24100e+03,3.89200e+03,-6.51000e+02,1.02747e-12,7.31884e-01,1.10111e-12,7.31884e-01,8.92550e-13,7.31884e-01
7.92227e+02,2.10300e+03,4.15800e+03,-2.05500e+03,4.77373e-13,7.39429e-01,8.77894e-13,7.39429e-01,1.25771e-12,7.39429e-01
7.92477e+02,2.95600e+03,3.64800e+03,-6.92000e+02,1.16476e-12,7.46975e-01,8.95497e-13,7.46975e-01,1.97690e-12,7.46975e-01
7.92727e+02,4.87500e+03,2.53200e+03,2.34300e+03,1.42217e-12,7.54520e-01,1.12995e-12,7.54520e-01,2.14732e-12,7.54520e-01
7.92977e+02,6.01200e+03,2.48800e+03,3.52400e+03,1.09578e-12,7.62065e-01,1.41883e-12,7.62065e-01,1.38900e-12,7.62065e-01
7.93227e+02,4.84800e+03,3.83800e+03,1.01000e+03,1.43170e-12,7.69610e-01,1.72148e-12,7.69610e-01,6.66606e-13,7.69610e-01
7.93476e+02,3.02900e+03,4.93600e+03,-1.90700e+03,1.15297e-12,7.77155e-01,1.72294e-12,7.77155e-01,5.70666e-13,7.77155e-01
7.93726e+02,2.37000e+03,4.64500e+03,-2.27500e+03,3.19446e-13,7.84701e-01,1.53756e-12,7.84701e-01,1.23411e-12,7.84701e-01
7.93976e+02,3.82000e+03,3.29400e+03,5.26000e+02,4.39695e-13,7.92246e-01,1.16004e-12,7.92246e-01,1.05619e-12,7.92246e-01
7.94226e+02,5.60700e+03,2.40400e+03,3.20300e+03,2.44255e-13,7.99791e-01,5.45799e-13,7.99791e-01,7.86997e-13,7.99791e-01
7.94476e+02,6.36700e+03,3.78300e+03,2.58400e+03,7.11866e-13,8.07336e-01,5.52007e-13,8.07336e-01,1.11484e-12,8.07336e-01
7.94725e+02,4.35800e+03,5.35300e+03,-9.95000e+02,1.00202e-12,8.14881e-01,9.08721e-13,8.14881e-01,1.36273e-12,8.14881e-01
7.94975e+02,2.84200e+03,6.04200e+03,-3.20000e+03,1.56193e-12,8.22427e-01,1.74580e-12,8.22427e-01,1.63987e-12,8.22427e-01
7.95225e+02,3.03500e+03,4.63900e+03,-1.60400e+03,1.44783e-12,8.29972e-01,2.11548e-12,8.29972e-01,1.24599e-12,8.29972e-01
7.95475e+02,5.02000e+03,3.04300e+03,1.97700e+03,1.07875e-12,8.37517e-01,1.72228e-12,8.37517e-01,9.65656e-13,8.37517e-01
7.95724e+02,6.43100e+03,2.94700e+03,3.48400e+03,8.67255e-13,8.45062e-01,6.34140e-13,8.45062e-01,4.60249e-13,8.45062e-01
7.95974e+02,5.78300e+03,4.64000e+03,1.14300e+03,6.40925e-13,8.52607e-01,7.24496e-13,8.52607e-01,5.96870e-13,8.52607e-01
7.96224e+02,3.86700e+03,6.56600e+03,-2.69900e+03,1.60902e-13,8.60153e-01,9.16185e-13,8.60153e-01,1.07689e-12,8.60153e-01
7.96474e+02,3.07700e+03,6.80800e+03,-3.73100e+03,3.77823e-13,8.67698e-01,1.07246e-12,8.67698e-01,1.44747e-12,8.67698e-01
7.96723e+02,4.42600e+03,4.47400e+03,-4.80000e+01,3.32584e-13,8.75243e-01,1.19405e-12,8.75243e-01,1.15187e-12,8.75243e-01
7.96973e+02,7.09900e+03,3.11800e+03,3.98100e+03,8.11580e-13,8.82788e-01,9.62524e-13,8.82788e-01,1.30632e-12,8.82788e-01
7.97223e+02,8.58300e+03,4.72600e+03,3.85700e+03,1.02887e-12,8.90333e-01,8.31557e-13,8.90333e-01,1.80893e-12,8.90333e-01
7.97472e+02,5.74000e+03,7.36100e+03,-1.62100e+03,1.50755e-12,8.97879e-01,6.26115e-13,8.97879e-01,2.02559e-12,8.97879e-01
7.97722e+02,3.58500e+03,9.14500e+03,-5.56000e+03,1.93867e-12,9.05424e-01,5.01159e-13,9.05424e-01,2.13753e-12,9.05424e-01
7.97972e+02,4.05300e+03,7.32800e+03,-3.27500e+03,2.05511e-12,9.12969e-01,5.99269e-13,9.12969e-01,1.70059e-12,9.12969e-01
7.98221e+02,6.89400e+03,4.00700e+03,2.88700e+03,1.39509e-12,9.20514e-01,2.97306e-13,9.20514e-01,1.10077e-12,9.20514e-01
7.98471e+02,8.33600e+03,3.50900e+03,4.82700e+03,7.99777e-13,9.28059e-01,1.70990e-13,9.28059e-01,9.49147e-13,9.28059e-01
7.98721e+02,7.18200e+03,5.64200e+03,1.54000e+03,1.17733e-12,9.35605e-01,4.77993e-13,9.35605e-01,1.32032e-12,9.35605e-01
7.98970e+02,5.07600e+03,9.03700e+03,-3.96100e+03,1.91988e-12,9.43150e-01,6.84831e-13,9.43150e-01,1.70984e-12,9.43150e-01
7.99220e+02,3.64400e+03,9.07800e+03,-5.43400e+03,1.94316e-12,9.50695e-01,6.68229e-13,9.50695e-01,1.56502e-12,9.50695e-01
7.99469e+02,5.26600e+03,6.11100e+03,-8.45000e+02,1.63659e-12,9.58240e-01,8.91214e-13,9.58240e-01,1.39416e-12,9.58240e-01
7.99719e+02,8.23300e+03,3.76000e+03,4.47300e+03,9.52216e-13,9.65785e-01,1.08787e-12,9.65785e-01,1.89589e-12,9.65785e-01
7.99969e+02,9.47100e+03,4.80400e+03,4.66700e+03,7.32701e-13,9.73331e-01,1.51587e-12,9.73331e-01,2.02651e-12,9.73331e-01
8.00218e+02,7.13500e+03,7.84400e+03,-7.09000e+02,1.18872e-12,9.80876e-01,1.17805e-12,9.80876e-01,1.59342e-12,9.80876e-01
8.00468e+02,4.42200e+03,9.56500e+03,-5.14300e+03,1.39953e-12,9.88421e-01,3.25320e-13,9.88421e-01,1.18763e-12,9.88421e-01
8.00717e+02,4.78600e+03,7.63000e+03,-2.84400e+03,1.41848e-12,9.95966e-01,8.30277e-13,9.95966e-01,6.25777e-13,9.95966e-01
8.00967e+02,8.01900e+03,4.72000e+03,3.29900e+03,9.75627e-13,1.00351e+00,3.35333e-13,1.00351e+00,7.14825e-13,1.00351e+00
8.01216e+02,1.14790e+04,4.04800e+03,7.43100e+03,1.60780e-13,1.01106e+00,7.36315e-13,1.01106e+00,8.68634e-13,1.01106e+00
8.01466e+02,1.08600e+04,6.69700e+03,4.16300e+03,2.37743e-13,1.01860e+00,1.15438e-12,1.01860e+00,9.45338e-13,1.01860e+00
8.01715e+02,7.42800e+03,1.03450e+04,-2.91700e+03,9.83276e-14,1.02615e+00,7.91752e-13,1.02615e+00,7.43676e-13,1.02615e+00
8.01965e+02,4.73100e+03,1.08740e+04,-6.14300e+03,1.34210e-13,1.03369e+00,1.68807e-13,1.03369e+00,7.35214e-14,1.03369e+00
8.02215e+02,6.08800e+03,8.24000e+03,-2.15200e+03,1.93599e-13,1.04124e+00,8.60772e-13,1.04124e+00,8.99803e-13,1.04124e+00
8.02464e+02,1.01830e+04,4.69400e+03,5.48900e+03,4.23294e-13,1.04878e+00,1.10378e-12,1.04878e+00,1.43799e-12,1.04878e+00
8.02713e+02,1.13920e+04,4.96400e+03,6.42800e+03,5.27955e-13,1.05633e+00,9.39911e-13,1.05633e+00,1.32497e-12,1.05633e+00
8.02963e+02,8.66600e+03,8.86200e+03,-1.96000e+02,8.25304e-13,1.06387e+00,6.80063e-13,1.06387e+00,1.26013e-12,1.06387e+00
8.03212e+02,5.59800e+03,1.22270e+04,-6.62900e+03,5.35996e-13,1.07142e+00,8.00814e-13,1.07142e+00,1.03667e-12,1.07142e+00
8.03462e+02,5.34400e+03,1.12560e+04,-5.91200e+03,3.40182e-13,1.07896e+00,9.28829e-13,1.07896e+00,5.88650e-13,1.07896e+00
8.03711e+02,9.26500e+03,7.09700e+03,2.16800e+03,9.51488e-13,1.08651e+00,7.63669e-13,1.08651e+00,3.25820e-13,1.08651e+00
8.03961e+02,1.16060e+04,4.61000e+03,6.99600e+03,1.13865e-12,1.09405e+00,8.00824e-13,1.09405e+00,8.21909e-13,1.09405e+00
8.04210e+02,1.09350e+04,6.77100e+03,4.16400e+03,9.02107e-13,1.10160e+00,7.90974e-13,1.10160e+00,7.94011e-13,1.10160e+00
8.04460e+02,7.52700e+03,1.14730e+04,-3.94600e+03,4.81923e-13,1.10914e+00,8.52713e-13,1.10914e+00,9.01943e-13,1.10914e+00
8.04709e+02,4.77800e+03,1.32690e+04,-8.49100e+03,2.64677e-13,1.11669e+00,8.91940e-13,1.11669e+00,1.14203e-12,1.11669e+00
8.04958e+02,5.80100e+03,9.63800e+03,-3.83700e+03,2.40497e-13,1.12423e+00,6.58207e-13,1.12423e+00,8.90408e-13,1.12423e+00
8.05208e+02,9.65700e+03,5.51300e+03,4.14400e+03,3.61699e-13,1.13178e+00,4.11778e-13,1.13178e+00,5.52062e-13,1.13178e+00
8.05457e+02,1.12860e+04,4.75400e+03,6.53200e+03,9.61815e-13,1.13932e+00,4.55222e-13,1.13932e+00,6.17175e-13,1.13932e+00
8.05707e+02,1.07730e+04,8.40400e+03,2.36900e+03,1.25818e-12,1.14687e+00,8.60667e-13,1.14687e+00,4.11617e-13,1.14687e+00
8.05956e+02,7.53600e+03,1.27740e+04,-5.23800e+03,8.20965e-13,1.15442e+00,9.84688e-13,1.15442e+00,3.31473e-13,1.15442e+00
8.06205e+02,4.90100e+03,1.14750e+04,-6.57400e+03,2.09797e-13,1.16196e+00,6.45121e-13,1.16196e+00,4.77407e-13,1.16196e+00
8.06455e+02,7.34600e+03,8.18700e+03,-8.41000e+02,6.18932e-13,1.16951e+00,3.13074e-13,1.16951e+00,5.15472e-13,1.16951e+00
8.06704e+02,1.16580e+04,5.36500e+03,6.29300e+03,8.64993e-13,1.17705e+00,1.66396e-13,1.17705e+00,7.05504e-13,1.17705e+00
8.06953e+02,1.31590e+04,5.84300e+03,7.31600e+03,6.01105e-13,1.18460e+00,9.92619e-14,1.18460e+00,6.90108e-13,1.18460e+00
8.07203e+02,9.64100e+03,9.04300e+03,5.98000e+02,1.82209e-13,1.19214e+00,3.54729e-13,1.19214e+00,4.09478e-13,1.19214e+00
8.07452e+02,6.05400e+03,1.29090e+04,-6.85500e+03,7.74755e-13,1.19969e+00,7.67866e-13,1.19969e+00,4.68791e-13,1.19969e+00
8.07701e+02,4.76200e+03,1.20980e+04,-7.33600e+03,1.29670e-12,1.20723e+00,8.98218e-13,1.20723e+00,7.16467e-13,1.20723e+00
8.07951e+02,7.96900e+03,8.13100e+03,-1.62000e+02,1.13482e-12,1.21478e+00,8.50678e-13,1.21478e+00,4.14920e-13,1.21478e+00
8.08200e+02,1.05850e+04,4.98100e+03,5.60400e+03,6.00750e-13,1.22232e+00,9.45975e-13,1.22232e+00,3.66934e-13,1.22232e+00
8.08449e+02,1.17710e+04,6.47300e+03,5.29800e+03,5.10926e-13,1.22987e+00,1.01392e-12,1.22987e+00,1.41914e-12,1.22987e+00
8.08698e+02,9.25200e+03,1.14240e+04,-2.17200e+03,1.25609e-12,1.23741e+00,8.37946e-13,1.23741e+00,1.99298e-12,1.23741e+00
8.08948e+02,5.79200e+03,1.44960e+04,-8.70400e+03,1.06929e-12,1.24496e+00,4.73522e-13,1.24496e+00,1.45508e-12,1.24496e+00
8.09197e+02,6.10200e+03,1.32040e+04,-7.10200e+03,5.63940e-13,1.25250e+00,2.87707e-13,1.25250e+00,8.34295e-13,1.25250e+00
8.09446e+02,1.03490e+04,7.50200e+03,2.84700e+03,4.38753e-13,1.26005e+00,5.26745e-13,1.26005e+00,9.33913e-13,1.26005e+00
8.09695e+02,1.44050e+04,5.74600e+03,8.65900e+03,3.53703e-13,1.26759e+00,4.96909e-13,1.26759e+00,4.67026e-13,1.26759e+00
8.09945e+02,1.42360e+04,9.27500e+03,4.96100e+03,1.03818e-12,1.27514e+00,4.89984e-13,1.27514e+00,8.89558e-13,1.27514e+00
8.10194e+02,9.66200e+03,1.30900e+04,-3.42800e+03,1.09212e-12,1.28268e+00,2.49938e-13,1.28268e+00,8.67223e-13,1.28268e+00
8.10443e+02,5.79400e+03,1.38940e+04,-8.10000e+03,1.17326e-12,1.29023e+00,5.52825e-13,1.29023e+00,8.03502e-13,1.29023e+00
8.10692e+02,7.60400e+03,1.04610e+04,-2.85700e+03,5.91283e-13,1.29777e+00,4.35179e-13,1.29777e+00,1.73816e-13,1.29777e+00
8.10941e+02,1.27780e+04,6.48700e+03,6.29100e+03,4.74864e-13,1.30532e+00,3.65337e-13,1.30532e+00,6.22978e-13,1.30532e+00
8.11191e+02,1.45280e+04,6.16300e+03,8.36500e+03,7.43861e-14,1.31286e+00,6.31705e-13,1.31286e+00,5.68578e-13,1.31286e+00
8.11440e+02,1.29140e+04,1.11420e+04,1.77200e+03,1.61699e-12,-1.32041e+00,1.60460e-12,-1.32041e+00,1.23851e-14,-1.32041e+00
8.11689e+02,8.56500e+03,1.50990e+04,-6.53400e+03,7.43861e-14,-1.31286e+00,6.31705e-13,-1.31286e+00,5.68578e-13,-1.31286e+00
8.11938e+02,6.00500e+03,1.48220e+04,-8.81700e+03,4.74864e-13,-1.30532e+00,3.65337e-13,-1.30532e+00,6.22978e-13,-1.30532e+00
8.12187e+02,9.08500e+03,1.03410e+04,-1.25600e+03,5.91283e-13,-1.29777e+00,4.35179e-13,-1.29777e+00,1.73816e-13,-1.29777e+00
8.12436e+02,1.39070e+04,6.54000e+03,7.36700e+03,1.17326e-12,-1.29023e+00,5.52825e-13,-1.29023e+00,8.03502e-13,-1.29023e+00
8.12685e+02,1.46870e+04,7.72800e+03,6.95900e+03,1.09212e-12,-1.28268e+00,2.49938e-13,-1.28268e+00,8.67223e-13,-1.28268e+00
8.12935e+02,1.17280e+04,1.17990e+04,-7.10000e+01,1.03818e-12,-1.27514e+00,4.89984e-13,-1.27514e+00,8.89558e-13,-1.27514e+00
8.13184e+02,7.13300e+03,1.41780e+04,-7.04500e+03,3.53703e-13,-1.26759e+00,4.96909e-13,-1.26759e+00,4.67026e-13,-1.26759e+00
8.13433e+02,6.06300e+03,1.38680e+04,-7.80500e+03,4.38753e-13,-1.26005e+00,5.26745e-13,-1.26005e+00,9.33913e-13,-1.26005e+00
8.13682e+02,1.01100e+04,9.22100e+03,8.89000e+02,5.63940e-13,-1.25250e+00,2.87707e-13,-1.25250e+00,8.34295e-13,-1.25250e+00
8.13931e+02,1.40820e+04,5.88400e+03,8.19800e+03,1.06929e-12,-1.24496e+00,4.73522e-13,-1.24496e+00,1.45508e-12,-1.24496e+00
8.14180e+02,1.37670e+04,6.93900e+03,6.82800e+03,1.25609e-12,-1.23741e+00,8.37946e-13,-1.23741e+00,1.99298e-12,-1.23741e+00
8.14429e+02,1.07650e+04,1.18190e+04,-1.05400e+03,5.10926e-13,-1.22987e+00,1.01392e-12,-1.22987e+00,1.41914e-12,-1.22987e+00
8.14678e+02,6.43600e+03,1.46890e+04,-8.25300e+03,6.00750e-13,-1.22232e+00,9.45975e-13,-1.22232e+00,3.66934e-13,-1.22232e+00
8.14927e+02,6.01200e+03,1.19060e+04,-5.89400e+03,1.13482e-12,-1.21478e+00,8.50678e-13,-1.21478e+00,4.14920e-13,-1.21478e+00
8.15176e+02,9.77300e+03,7.50200e+03,2.27100e+03,1.29670e-12,-1.20723e+00,8.98218e-13,-1.20723e+00,7.16467e-13,-1.20723e+00
8.15425e+02,1.29580e+04,5.17500e+03,7.78300e+03,7.74755e-13,-1.19969e+00,7.67866e-13,-1.19969e+00,4.68791e-13,-1.19969e+00
8.15674e+02,1.33680e+04,8.40000e+03,4.96800e+03,1.82209e-13,-1.19214e+00,3.54729e-13,-1.19214e+00,4.09478e-13,-1.19214e+00
8.15923e+02,9.28200e+03,1.38530e+04,-4.57100e+03,6.01105e-13,-1.18460e+00,9.92619e-14,-1.18460e+00,6.90108e-13,-1.18460e+00
8.16172e+02,5.96100e+03,1.53190e+04,-9.35800e+03,8.64993e-13,-1.17705e+00,1.66396e-13,-1.17705e+00,7.05504e-13,-1.17705e+00
8.16421e+02,6.90900e+03,1.07660e+04,-3.85700e+03,6.18932e-13,-1.16951e+00,3.13074e-13,-1.16951e+00,5.15472e-13,-1.16951e+00
8.16670e+02,1.05640e+04,5.58100e+03,4.98300e+03,2.09797e-13,-1.16196e+00,6.45121e-13,-1.16196e+00,4.77407e-13,-1.16196e+00
8.16919e+02,1.32510e+04,5.16600e+03,8.08500e+03,8.20965e-13,-1.15442e+00,9.84688e-13,-1.15442e+00,3.31473e-13,-1.15442e+00
8.17168e+02,1.12750e+04,8.53400e+03,2.74100e+03,1.25818e-12,-1.14687e+00,8.60667e-13,-1.14687e+00,4.11617e-13,-1.14687e+00
8.17417e+02,6.73500e+03,1.14960e+04,-4.76100e+03,9.61815e-13,-1.13932e+00,4.55222e-13,-1.13932e+00,6.17175e-13,-1.13932e+00
8.17666e+02,4.66200e+03,1.21840e+04,-7.52200e+03,3.61699e-13,-1.13178e+00,4.11778e-13,-1.13178e+00,5.52062e-13,-1.13178e+00
8.17915e+02,6.78100e+03,8.91600e+03,-2.13500e+03,2.40497e-13,-1.12423e+00,6.58207e-13,-1.12423e+00,8.90408e-13,-1.12423e+00
8.18164e+02,9.38100e+03,5.27900e+03,4.10200e+03,2.64677e-13,-1.11669e+00,8.91940e-13,-1.11669e+00,1.14203e-12,-1.11669e+00
8.18413e+02,1.02840e+04,4.76700e+03,5.51700e+03,4.81923e-13,-1.10914e+00,8.52713e-13,-1.10914e+00,9.01943e-13,-1.10914e+00
8.18662e+02,8.38000e+03,7.51200e+03,8.68000e+02,9.02107e-13,-1.10160e+00,7.90974e-13,-1.10160e+00,7.94011e-13,-1.10160e+00
8.18911e+02,5.33300e+03,1.02690e+04,-4.93600e+03,1.13865e-12,-1.09405e+00,8.00824e-13,-1.09405e+00,8.21909e-13,-1.09405e+00
8.19160e+02,4.10900e+03,9.56000e+03,-5.45100e+03,9.51488e-13,-1.08651e+00,7.63669e-13,-1.08651e+00,3.25820e-13,-1.08651e+00
8.19408e+02,6.46000e+03,6.74200e+03,-2.82000e+02,3.40182e-13,-1.07896e+00,9.28829e-13,-1.07896e+00,5.88650e-13,-1.07896e+00
8.19657e+02,1.10710e+04,4.28800e+03,6.78300e+03,5.35996e-13,-1.07142e+00,8.00814e-13,-1.07142e+00,1.03667e-12,-1.07142e+00
8.19906e+02,1.23870e+04,5.71200e+03,6.67500e+03,8.25304e-13,-1.06387e+00,6.80063e-13,-1.06387e+00,1.26013e-12,-1.06387e+00
8.20155e+02,9.56500e+03,9.84900e+03,-2.84000e+02,5.27955e-13,-1.05633e+00,9.39911e-13,-1.05633e+00,1.32497e-12,-1.05633e+00
8.20404e+02,5.39700e+03,1.17410e+04,-6.34400e+03,4.23294e-13,-1.04878e+00,1.10378e-12,-1.04878e+00,1.43799e-12,-1.04878e+00
8.20653e+02,4.46800e+03,9.44000e+03,-4.97200e+03,1.93599e-13,-1.04124e+00,8.60772e-13,-1.04124e+00,8.99803e-13,-1.04124e+00
8.20901e+02,6.73500e+03,5.98900e+03,7.46000e+02,1.34210e-13,-1.03369e+00,1.68807e-13,-1.03369e+00,7.35214e-14,-1.03369e+00
8.21150e+02,1.01360e+04,3.95500e+03,6.18100e+03,9.83276e-14,-1.02615e+00,7.91752e-13,-1.02615e+00,7.43676e-13,-1.02615e+00
8.21399e+02,9.05800e+03,4.92600e+03,4.13200e+03,2.37743e-13,-1.01860e+00,1.15438e-12,-1.01860e+00,9.45338e-13,-1.01860e+00
8.21648e+02,6.30300e+03,8.18100e+03,-1.87800e+03,1.60780e-13,-1.01106e+00,7.36315e-13,-1.01106e+00,8.68634e-13,-1.01106e+00
8.21897e+02,3.95600e+03,9.63400e+03,-5.67800e+03,9.75627e-13,-1.00351e+00,3.35333e-13,-1.00351e+00,7.14825e-13,-1.00351e+00
8.22145e+02,3.58200e+03,7.75300e+03,-4.17100e+03,1.41848e-12,-9.95966e-01,8.30277e-13,-9.95966e-01,6.25777e-13,-9.95966e-01
8.22394e+02,6.48400e+03,4.96200e+03,1.52200e+03,1.39953e-12,-9.88421e-01,3.25320e-13,-9.88421e-01,1.18763e-12,-9.88421e-01
8.22643e+02,9.01500e+03,3.33100e+03,5.68400e+03,1.18872e-12,-9.80876e-01,1.17805e-12,-9.80876e-01,1.59342e-12,-9.80876e-01
8.22892e+02,8.22900e+03,4.72300e+03,3.50600e+03,7.32701e-13,-9.73331e-01,1.51587e-12,-9.73331e-01,2.02651e-12,-9.73331e-01
8.23140e+02,5.57700e+03,7.18600e+03,-1.60900e+03,9.52216e-13,-9.65785e-01,1.08787e-12,-9.65785e-01,1.89589e-12,-9.65785e-01
8.23389e+02,3.50800e+03,8.76000e+03,-5.25200e+03,1.63659e-12,-9.58240e-01,8.91214e-13,-9.58240e-01,1.39416e-12,-9.58240e-01
8.23638e+02,4.07000e+03,7.44500e+03,-3.37500e+03,1.94316e-12,-9.50695e-01,6.68229e-13,-9.50695e-01,1.56502e-12,-9.50695e-01
8.23887e+02,6.91800e+03,4.31900e+03,2.59900e+03,1.91988e-12,-9.43150e-01,6.84831e-13,-9.43150e-01,1.70984e-12,-9.43150e-01
8.24135e+02,8.66200e+03,3.37900e+03,5.28300e+03,1.17733e-12,-9.35605e-01,4.77993e-13,-9.35605e-01,1.32032e-12,-9.35605e-01
8.24384e+02,7.56100e+03,4.78900e+03,2.77200e+03,7.99777e-13,-9.28059e-01,1.70990e-13,-9.28059e-01,9.49147e-13,-9.28059e-01
8.24633e+02,4.65600e+03,7.27300e+03,-2.61700e+03,1.39509e-12,-9.20514e-01,2.97306e-13,-9.20514e-01,1.10077e-12,-9.20514e-01
8.24881e+02,3.04000e+03,8.23800e+03,-5.19800e+03,2.05511e-12,-9.12969e-01,5.99269e-13,-9.12969e-01,1.70059e-12,-9.12969e-01
8.25130e+02,3.75700e+03,6.58000e+03,-2.82300e+03,1.93867e-12,-9.05424e-01,5.01159e-13,-9.05424e-01,2.13753e-12,-9.05424e-01
8.25379e+02,6.73900e+03,3.80300e+03,2.93600e+03,1.50755e-12,-8.97879e-01,6.26115e-13,-8.97879e-01,2.02559e-12,-8.97879e-01
8.25627e+02,6.78000e+03,2.82400e+03,3.95600e+03,1.02887e-12,-8.90333e-01,8.31557e-13,-8.90333e-01,1.80893e-12,-8.90333e-01
8.25876e+02,5.62900e+03,4.25500e+03,1.37400e+03,8.11580e-13,-8.82788e-01,9.62524e-13,-8.82788e-01,1.30632e-12,-8.82788e-01
8.26125e+02,3.63600e+03,6.18400e+03,-2.54800e+03,3.32584e-13,-8.75243e-01,1.19405e-12,-8.75243e-01,1.15187e-12,-8.75243e-01
8.26373e+02,2.30900e+03,5.75200e+03,-3.44300e+03,3.77823e-13,-8.67698e-01,1.07246e-12,-8.67698e-01,1.44747e-12,-8.67698e-01
8.26622e+02,2.57400e+03,4.19100e+03,-1.61700e+03,1.60902e-13,-8.60153e-01,9.16185e-13,-8.60153e-01,1.07689e-12,-8.60153e-01
8.26870e+02,3.88100e+03,2.50000e+03,1.38100e+03,6.40925e-13,-8.52607e-01,7.24496e-13,-8.52607e-01,5.96870e-13,-8.52607e-01
8.27119e+02,4.50800e+03,2.22600e+03,2.28200e+03,8.67255e-13,-8.45062e-01,6.34140e-13,-8.45062e-01,4.60249e-13,-8.45062e-01
8.27368e+02,4.08100e+03,3.39300e+03,6.88000e+02,1.07875e-12,-8.37517e-01,1.72228e-12,-8.37517e-01,9.65656e-13,-8.37517e-01
8.27616e+02,2.68200e+03,4.10900e+03,-1.42700e+03,1.44783e-12,-8.29972e-01,2.11548e-12,-8.29972e-01,1.24599e-12,-8.29972e-01
8.27865e+02,1.93400e+03,4.38100e+03,-2.44700e+03,1.56193e-12,-8.22427e-01,1.74580e-12,-8.22427e-01,1.63987e-12,-8.22427e-01
8.28113e+02,2.80200e+03,4.06300e+03,-1.26100e+03,1.00202e-12,-8.14881e-01,9.08721e-13,-8.14881e-01,1.36273e-12,-8.14881e-01
8.28362e+02,4.17400e+03,2.55700e+03,1.61700e+03,7.11866e-13,-8.07336e-01,5.52007e-13,-8.07336e-01,1.11484e-12,-8.07336e-01
8.28610e+02,4.62200e+03,2.05800e+03,2.56400e+03,2.44255e-13,-7.99791e-01,5.45799e-13,-7.99791e-01,7.86997e-13,-7.99791e-01
8.28859e+02,3.70700e+03,2.96400e+03,7.43000e+02,4.39695e-13,-7.92246e-01,1.16004e-12,-7.92246e-01,1.05619e-12,-7.92246e-01
8.29108e+02,2.25900e+03,4.00300e+03,-1.74400e+03,3.19446e-13,-7.84701e-01,1.53756e-12,-7.84701e-01,1.23411e-12,-7.84701e-01
8.29356e+02,1.59600e+03,4.09300e+03,-2.49700e+03,1.15297e-12,-7.77155e-01,1.72294e-12,-7.77155e-01,5.70666e-13,-7.77155e-01
8.29605e+02,2.03800e+03,3.08600e+03,-1.04800e+03,1.43170e-12,-7.69610e-01,1.72148e-12,-7.69610e-01,6.66606e-13,-7.69610e-01
8.29853e+02,2.95900e+03,1.87400e+03,1.08500e+03,1.09578e-12,-7.62065e-01,1.41883e-12,-7.62065e-01,1.38900e-12,-7.62065e-01
8.30101e+02,3.42800e+03,1.58800e+03,1.84000e+03,1.42217e-12,-7.54520e-01,1.12995e-12,-7.54520e-01,2.14732e-12,-7.54520e-01
8.30350e+02,2.95000e+03,2.35800e+03,5.92000e+02,1.16476e-12,-7.46975e-01,8.95497e-13,-7.46975e-01,1.97690e-12,-7.46975e-01
8.30598e+02,1.86200e+03,2.87200e+03,-1.01000e+03,4.77373e-13,-7.39429e-01,8.77894e-13,-7.39429e-01,1.25771e-12,-7.39429e-01
8.30847e+02,1.37700e+03,3.04300e+03,-1.66600e+03,1.02747e-12,-7.31884e-01,1.10111e-12,-7.31884e-01,8.92550e-13,-7.31884e-01
8.31095e+02,1.70500e+03,2.47000e+03,-7.65000e+02,1.24363e-12,-7.24339e-01,1.19312e-12,-7.24339e-01,5.95704e-13,-7.24339e-01
8.31344e+02,2.58800e+03,1.54300e+03,1.04500e+03,1.08346e-12,-7.16794e-01,5.99756e-13,-7.16794e-01,4.91662e-13,-7.16794e-01
8.31592e+02,2.82500e+03,1.23400e+03,1.59100e+03,7.14759e-13,-7.09249e-01,8.11902e-13,-7.09249e-01,1.94553e-13,-7.09249e-01
8.31841e+02,2.21400e+03,1.72100e+03,4.93000e+02,1.71403e-12,-7.01703e-01,1.23030e-12,-7.01703e-01,1.03450e-12,-7.01703e-01
8.32089e+02,1.49500e+03,2.55300e+03,-1.05800e+03,1.51254e-12,-6.94158e-01,6.99089e-13,-6.94158e-01,1.50129e-12,-6.94158e-01
8.32337e+02,1.12900e+03,2.67200e+03,-1.54300e+03,7.77057e-13,-6.86613e-01,8.43423e-13,-6.86613e-01,7.25055e-13,-6.86613e-01
8.32586e+02,1.26500e+03,1.85000e+03,-5.85000e+02,1.45685e-12,-6.79068e-01,1.02467e-12,-6.79068e-01,5.05494e-13,-6.79068e-01
8.32834e+02,1.91300e+03,1.29100e+03,6.22000e+02,2.13793e-12,-6.71523e-01,5.12606e-13,-6.71523e-01,1.75162e-12,-6.71523e-01
8.33083e+02,2.03500e+03,9.85000e+02,1.05000e+03,1.99404e-12,-6.63977e-01,3.86587e-13,-6.63977e-01,2.11998e-12,-6.63977e-01
8.33331e+02,1.81000e+03,1.47900e+03,3.31000e+02,1.59602e-12,-6.56432e-01,1.25308e-12,-6.56432e-01,1.11379e-12,-6.56432e-01
8.33579e+02,1.19200e+03,1.94500e+03,-7.53000e+02,2.15965e-12,-6.48887e-01,2.60812e-12,-6.48887e-01,1.36239e-12,-6.48887e-01
8.33828e+02,9.37000e+02,1.95500e+03,-1.01800e+03,3.12657e-12,-6.41342e-01,2.18455e-12,-6.41342e-01,1.32187e-12,-6.41342e-01
8.34076e+02,1.00100e+03,1.43000e+03,-4.29000e+02,3.13269e-12,-6.33797e-01,1.49762e-12,-6.33797e-01,1.64355e-12,-6.33797e-01
8.34324e+02,1.38700e+03,1.01500e+03,3.72000e+02,1.40891e-12,-6.26251e-01,1.10984e-12,-6.26251e-01,5.44553e-13,-6.26251e-01
8.34573e+02,1.63200e+03,8.05000e+02,8.27000e+02,1.12805e-12,-6.18706e-01,1.36862e-12,-6.18706e-01,2.18046e-12,-6.18706e-01
8.34821e+02,1.51000e+03,1.06900e+03,4.41000e+02,3.00127e-12,-6.11161e-01,1.12398e-12,-6.11161e-01,3.70961e-12,-6.11161e-01
8.35069e+02,9.70000e+02,1.35500e+03,-3.85000e+02,3.75982e-12,-6.03616e-01,4.49957e-13,-6.03616e-01,3.89352e-12,-6.03616e-01
8.35318e+02,8.34000e+02,1.62600e+03,-7.92000e+02,2.75551e-12,-5.96071e-01,2.81478e-12,-5.96071e-01,2.08764e-12,-5.96071e-01
8.35566e+02,8.21000e+02,1.22000e+03,-3.99000e+02,8.66328e-13,-5.88525e-01,4.92617e-12,-5.88525e-01,4.20111e-12,-5.88525e-01
8.35814e+02,1.11800e+03,8.78000e+02,2.40000e+02,4.87751e-13,-5.80980e-01,5.35604e-12,-5.80980e-01,5.82938e-12,-5.80980e-01
8.36062e+02,1.15300e+03,7.52000e+02,4.01000e+02,8.07232e-13,-5.73435e-01,4.14995e-12,-5.73435e-01,4.74354e-12,-5.73435e-01
8.36311e+02,1.07600e+03,8.48000e+02,2.28000e+02,1.02841e-12,-5.65890e-01,2.41166e-12,-5.65890e-01,3.20280e-12,-5.65890e-01
8.36559e+02,8.45000e+02,1.05400e+03,-2.09000e+02,1.70473e-12,-5.58345e-01,1.38310e-12,-5.58345e-01,3.08783e-12,-5.58345e-01
8.36807e+02,7.37000e+02,1.26300e+03,-5.26000e+02,2.35182e-12,-5.50799e-01,1.77038e-12,-5.50799e-01,4.12072e-12,-5.50799e-01
8.37055e+02,7.18000e+02,1.10600e+03,-3.88000e+02,1.97918e-12,-5.43254e-01,2.22766e-12,-5.43254e-01,3.80046e-12,-5.43254e-01
8.37304e+02,8.92000e+02,8.06000e+02,8.60000e+01,1.61717e-12,-5.35709e-01,1.93363e-12,-5.35709e-01,1.21715e-12,-5.35709e-01
8.37552e+02,9.62000e+02,7.02000e+02,2.60000e+02,2.86492e-12,-5.28164e-01,7.80718e-13,-5.28164e-01,2.08936e-12,-5.28164e-01
8.37800e+02,9.77000e+02,7.68000e+02,2.09000e+02,4.55960e-12,-5.20619e-01,2.38080e-12,-5.20619e-01,6.75810e-12,-5.20619e-01
8.38048e+02,7.33000e+02,8.35000e+02,-1.02000e+02,3.61926e-12,-5.13073e-01,4.01636e-12,-5.13073e-01,7.44838e-12,-5.13073e-01
8.38296e+02,6.67000e+02,9.13000e+02,-2.46000e+02,1.44258e-12,-5.05528e-01,2.76325e-12,-5.05528e-01,4.18294e-12,-5.05528e-01
8.38545e+02,6.77000e+02,8.37000e+02,-1.60000e+02,4.48974e-12,-4.97983e-01,4.33602e-12,-4.97983e-01,8.46705e-12,-4.97983e-01
8.38793e+02,7.38000e+02,7.26000e+02,1.20000e+01,1.08944e-11,-4.90438e-01,8.61155e-12,-4.90438e-01,1.90659e-11,-4.90438e-01
8.39041e+02,7.54000e+02,6.44000e+02,1.10000e+02,1.61103e-11,-4.82893e-01,1.73176e-11,-4.82893e-01,3.28939e-11,-4.82893e-01
8.39289e+02,7.46000e+02,6.61000e+02,8.50000e+01,3.57170e-11,-4.75347e-01,3.87124e-11,-4.75347e-01,7.16153e-11,-4.75347e-01
8.39537e+02,6.87000e+02,6.95000e+02,-8.00000e+00,5.70016e-11,-4.67802e-01,5.81831e-11,-4.67802e-01,1.10747e-10,-4.67802e-01
8.39785e+02,6.65000e+02,7.54000e+02,-8.90000e+01,6.10427e-11,-4.60257e-01,6.34852e-11,-4.60257e-01,1.20334e-10,-4.60257e-01
8.40033e+02,6.37000e+02,7.17000e+02,-8.00000e+01,5.01796e-11,-4.52712e-01,5.50178e-11,-4.52712e-01,1.02485e-10,-4.52712e-01
8.40281e+02,7.14000e+02,7.11000e+02,3.00000e+00,3.46312e-11,-4.45167e-01,3.79448e-11,-4.45167e-01,7.13216e-11,-4.45167e-01
8.40530e+02,6.91000e+02,6.35000e+02,5.60000e+01,1.79828e-11,-4.37621e-01,1.81871e-11,-4.37621e-01,3.51686e-11,-4.37621e-01
8.40778e+02,7.32000e+02,6.52000e+02,8.00000e+01,4.34796e-12,-4.30076e-01,8.18710e-12,-4.30076e-01,1.21308e-11,-4.30076e-01
8.41026e+02,6.72000e+02,6.54000e+02,1.80000e+01,3.81025e-12,-4.22531e-01,3.29632e-12,-4.22531e-01,6.99464e-12,-4.22531e-01
8.41274e+02,6.48000e+02,6.87000e+02,-3.90000e+01,2.64541e-12,-4.14986e-01,2.42944e-12,-4.14986e-01,4.92118e-12,-4.14986e-01
8.41522e+02,6.37000e+02,6.68000e+02,-3.10000e+01,2.04997e-12,-4.07441e-01,1.10965e-12,-4.07441e-01,3.03323e-12,-4.07441e-01
8.41770e+02,6.49000e+02,6.65000e+02,-1.60000e+01,1.11633e-12,-3.99895e-01,1.26055e-12,-3.99895e-01,2.26615e-13,-3.99895e-01
8.42018e+02,6.56000e+02,6.36000e+02,2.00000e+01,8.94441e-13,-3.92350e-01,3.02199e-12,-3.92350e-01,2.61039e-12,-3.92350e-01
8.42266e+02,6.80000e+02,6.42000e+02,3.80000e+01,6.30216e-13,-3.84805e-01,3.97153e-12,-3.84805e-01,4.50197e-12,-3.84805e-01
8.42514e+02,6.56000e+02,6.37000e+02,1.90000e+01,1.65646e-12,-3.77260e-01,2.23189e-12,-3.77260e-01,3.70795e-12,-3.77260e-01
8.42762e+02,6.74000e+02,6.95000e+02,-2.10000e+01,1.81691e-12,-3.69715e-01,1.81389e-12,-3.69715e-01,1.53026e-12,-3.69715e-01
8.43010e+02,6.29000e+02,6.52000e+02,-2.30000e+01,2.11220e-12,-3.62169e-01,2.90333e-12,-3.62169e-01,1.25337e-12,-3.62169e-01
8.43258e+02,6.24000e+02,6.58000e+02,-3.40000e+01,2.01213e-12,-3.54624e-01,1.71357e-12,-3.54624e-01,6.18018e-13,-3.54624e-01
8.43506e+02,6.40000e+02,6.30000e+02,1.00000e+01,1.06814e-12,-3.47079e-01,9.88172e-13,-3.47079e-01,8.47764e-13,-3.47079e-01
8.43754e+02,6.32000e+02,6.37000e+02,-5.00000e+00,1.67723e-12,-3.39534e-01,1.56640e-12,-3.39534e-01,1.66616e-13,-3.39534e-01
8.44002e+02,6.48000e+02,6.34000e+02,1.40000e+01,1.87760e-12,-3.31989e-01,2.09410e-12,-3.31989e-01,1.23829e-12,-3.31989e-01
8.44250e+02,6.33000e+02,6.54000e+02,-2.10000e+01,2.78456e-12,-3.24444e-01,4.19483e-12,-3.24444e-01,1.56869e-12,-3.24444e-01
8.44498e+02,6.35000e+02,6.25000e+02,1.00000e+01,4.16285e-12,-3.16898e-01,4.91241e-12,-3.16898e-01,2.40538e-12,-3.16898e-01
8.44746e+02,6.29000e+02,6.34000e+02,-5.00000e+00,3.08659e-12,-3.09353e-01,3.70378e-12,-3.09353e-01,7.68129e-13,-3.09353e-01
8.44994e+02,6.32000e+02,6.32000e+02,0.00000e+00,1.10342e-12,-3.01808e-01,2.14247e-12,-3.01808e-01,3.21294e-12,-3.01808e-01
8.45242e+02,6.64000e+02,6.74000e+02,-1.00000e+01,2.16776e-12,-2.94263e-01,3.63144e-12,-2.94263e-01,4.62519e-12,-2.94263e-01
8.45490e+02,6.13000e+02,6.18000e+02,-5.00000e+00,1.01606e-12,-2.86718e-01,4.31227e-12,-2.86718e-01,3.94017e-12,-2.86718e-01
8.45738e+02,6.36000e+02,6.26000e+02,1.00000e+01,1.15251e-12,-2.79172e-01,2.96876e-12,-2.79172e-01,2.05982e-12,-2.79172e-01
8.45985e+02,6.24000e+02,6.41000e+02,-1.70000e+01,1.23109e-12,-2.71627e-01,8.40411e-13,-2.71627e-01,5.37381e-13,-2.71627e-01
8.46233e+02,6.28000e+02,6.40000e+02,-1.20000e+01,8.20363e-13,-2.64082e-01,9.61304e-13,-2.64082e-01,1.11176e-12,-2.64082e-01
8.46481e+02,6.19000e+02,6.31000e+02,-1.20000e+01,2.20164e-12,-2.56537e-01,1.66303e-12,-2.56537e-01,1.94803e-12,-2.56537e-01
8.46729e+02,6.22000e+02,6.24000e+02,-2.00000e+00,4.70293e-12,-2.48992e-01,2.41872e-12,-2.48992e-01,3.48146e-12,-2.48992e-01
8.46977e+02,6.29000e+02,6.18000e+02,1.10000e+01,5.07642e-12,-2.41446e-01,2.13201e-12,-2.41446e-01,3.75328e-12,-2.41446e-01
8.47225e+02,6.25000e+02,6.38000e+02,-1.30000e+01,3.01590e-12,-2.33901e-01,1.51353e-12,-2.33901e-01,1.54931e-12,-2.33901e-01
8.47473e+02,6.21000e+02,6.34000e+02,-1.30000e+01,8.94951e-13,-2.26356e-01,1.87926e-12,-2.26356e-01,1.74408e-12,-2.26356e-01
8.47720e+02,6.67000e+02,6.61000e+02,6.00000e+00,2.87041e-12,-2.18811e-01,1.42039e-12,-2.18811e-01,4.15359e-12,-2.18811e-01
8.47968e+02,6.12000e+02,6.08000e+02,4.00000e+00,5.16166e-12,-2.11266e-01,1.30769e-12,-2.11266e-01,4.60457e-12,-2.11266e-01
8.48216e+02,6.32000e+02,6.23000e+02,9.00000e+00,4.57874e-12,-2.03720e-01,8.85689e-13,-2.03720e-01,4.19204e-12,-2.03720e-01
8.48464e+02,6.26000e+02,6.15000e+02,1.10000e+01,4.06216e-12,-1.96175e-01,8.53598e-13,-1.96175e-01,4.58323e-12,-1.96175e-01
8.48712e+02,6.19000e+02,6.22000e+02,-3.00000e+00,3.71780e-12,-1.88630e-01,1.57810e-12,-1.88630e-01,4.45118e-12,-1.88630e-01
8.48960e+02,6.37000e+02,6.38000e+02,-1.00000e+00,3.76443e-12,-1.81085e-01,3.00316e-12,-1.81085e-01,2.44203e-12,-1.81085e-01
8.49207e+02,6.27000e+02,6.33000e+02,-6.00000e+00,5.44828e-12,-1.73540e-01,5.47014e-12,-1.73540e-01,5.76683e-13,-1.73540e-01
8.49455e+02,6.29000e+02,6.14000e+02,1.50000e+01,3.97613e-12,-1.65994e-01,4.55788e-12,-1.65994e-01,1.06724e-12,-1.65994e-01
8.49703e+02,6.30000e+02,6.27000e+02,3.00000e+00,1.60334e-12,-1.58449e-01,4.70403e-12,-1.58449e-01,4.01234e-12,-1.58449e-01
8.49951e+02,6.27000e+02,6.24000e+02,3.00000e+00,6.29474e-12,-1.50904e-01,6.36124e-12,-1.50904e-01,6.53072e-12,-1.50904e-01
8.50198e+02,6.58000e+02,6.56000e+02,2.00000e+00,7.10546e-12,-1.43359e-01,3.49366e-12,-1.43359e-01,6.32959e-12,-1.43359e-01
8.50446e+02,6.05000e+02,6.24000e+02,-1.90000e+01,5.90539e-12,-1.35814e-01,1.94875e-12,-1.35814e-01,4.04128e-12,-1.35814e-01
8.50694e+02,6.32000e+02,6.20000e+02,1.20000e+01,3.13365e-12,-1.28268e-01,1.97582e-12,-1.28268e-01,1.98631e-12,-1.28268e-01
8.50941e+02,6.17000e+02,6.16000e+02,1.00000e+00,6.85055e-13,-1.20723e-01,2.77147e-12,-1.20723e-01,2.11931e-12,-1.20723e-01
8.51189e+02,6.22000e+02,6.33000e+02,-1.10000e+01,1.17841e-12,-1.13178e-01,3.36455e-12,-1.13178e-01,3.14596e-12,-1.13178e-01
8.51437e+02,6.21000e+02,6.28000e+02,-7.00000e+00,1.45666e-12,-1.05633e-01,4.24059e-12,-1.05633e-01,3.04909e-12,-1.05633e-01
8.51685e+02,6.29000e+02,6.28000e+02,1.00000e+00,2.20245e-12,-9.80876e-02,4.68418e-12,-9.80876e-02,2.54620e-12,-9.80876e-02
8.51932e+02,6.26000e+02,6.31000e+02,-5.00000e+00,1.51628e-12,-9.05424e-02,2.87272e-12,-9.05424e-02,1.99565e-12,-9.05424e-02
8.52180e+02,6.40000e+02,6.28000e+02,1.20000e+01,6.83848e-13,-8.29972e-02,2.11458e-12,-8.29972e-02,2.26758e-12,-8.29972e-02
8.52428e+02,6.36000e+02,6.24000e+02,1.20000e+01,3.27538e-12,-7.54520e-02,2.58706e-12,-7.54520e-02,4.03309e-12,-7.54520e-02
8.52675e+02,6.60000e+02,6.49000e+02,1.10000e+01,8.02391e-12,-6.79068e-02,3.81143e-12,-6.79068e-02,5.32152e-12,-6.79068e-02
8.52923e+02,6.05000e+02,6.12000e+02,-7.00000e+00,9.34797e-12,-6.03616e-02,5.87303e-12,-6.03616e-02,3.49317e-12,-6.03616e-02
8.53170e+02,6.29000e+02,6.34000e+02,-5.00000e+00,8.20346e-12,-5.28164e-02,7.65918e-12,-5.28164e-02,8.69320e-13,-5.28164e-02
8.53418e+02,6.26000e+02,6.36000e+02,-1.00000e+01,5.20425e-12,-4.52712e-02,5.81183e-12,-4.52712e-02,6.69561e-13,-4.52712e-02
8.53666e+02,6.36000e+02,6.48000e+02,-1.20000e+01,2.92443e-12,-3.77260e-02,2.27758e-12,-3.77260e-02,9.94027e-13,-3.77260e-02
8.53913e+02,6.24000e+02,6.32000e+02,-8.00000e+00,4.28522e-12,-3.01808e-02,2.85315e-12,-3.01808e-02,3.21414e-12,-3.01808e-02
8.54161e+02,6.30000e+02,6.26000e+02,4.00000e+00,1.93173e-11,-2.26356e-02,1.97417e-11,-2.26356e-02,2.85881e-12,-2.26356e-02
8.54409e+02,6.34000e+02,6.34000e+02,0.00000e+00,8.39095e-11,-1.50904e-02,8.55285e-11,-1.50904e-02,2.40386e-12,-1.50904e-02
8.54656e+02,6.35000e+02,6.41000e+02,-6.00000e+00,2.35417e-10,-7.54520e-03,2.36908e-10,-7.54520e-03,3.49684e-12,-7.54520e-03
