7.67698e+02,6.26000e+02,6.40000e+02,-1.40000e+01,3.95444e-10,0.00000e+00,3.88011e-10,0.00000e+00,7.43294e-12,0.00000e+00
7.67949e+02,6.71000e+02,6.54000e+02,1.70000e+01,2.36581e-10,7.54520e-03,2.30348e-10,7.54520e-03,8.06386e-12,7.54520e-03
7.68199e+02,6.28000e+02,6.18000e+02,1.00000e+01,8.37200e-11,1.50904e-02,8.05924e-11,1.50904e-02,5.14268e-12,1.50904e-02
7.68450e+02,6.41000e+02,6.31000e+02,1.00000e+01,1.80645e-11,2.26356e-02,1.57180e-11,2.26356e-02,2.44302e-12,2.26356e-02
7.68701e+02,6.14000e+02,6.41000e+02,-2.70000e+01,3.20116e-12,3.01808e-02,3.47905e-13,3.01808e-02,3.50785e-12,3.01808e-02
7.68951e+02,6.34000e+02,6.60000e+02,-2.60000e+01,2.27654e-12,3.77260e-02,1.76299e-12,3.77260e-02,1.36654e-12,3.77260e-02
7.69202e+02,6.27000e+02,6.36000e+02,-9.00000e+00,4.90611e-12,4.52712e-02,7.71337e-12,4.52712e-02,2.90740e-12,4.52712e-02
7.69453e+02,6.40000e+02,6.33000e+02,7.00000e+00,7.63230e-12,5.28164e-02,1.15718e-11,5.28164e-02,4.01734e-12,5.28164e-02
7.69703e+02,6.35000e+02,6.29000e+02,6.00000e+00,7.68770e-12,6.03616e-02,9.56109e-12,6.03616e-02,2.82698e-12,6.03616e-02
7.69954e+02,6.48000e+02,6.29000e+02,1.90000e+01,5.77661e-12,6.79068e-02,5.20291e-12,6.79068e-02,3.83457e-12,6.79068e-02
7.70205e+02,6.49000e+02,6.48000e+02,1.00000e+00,2.15805e-12,7.54520e-02,2.61109e-12,7.54520e-02,4.26882e-12,7.54520e-02
7.70455e+02,6.72000e+02,6.67000e+02,5.00000e+00,5.34739e-13,8.29972e-02,7.08398e-13,8.29972e-02,1.23987e-12,8.29972e-02
7.70706e+02,6.17000e+02,6.40000e+02,-2.30000e+01,8.62482e-13,9.05424e-02,3.24908e-12,9.05424e-02,2.48319e-12,9.05424e-02
7.70957e+02,6.37000e+02,6.74000e+02,-3.70000e+01,2.16723e-12,9.80876e-02,5.05825e-12,9.80876e-02,4.18465e-12,9.80876e-02
7.71207e+02,6.23000e+02,6.64000e+02,-4.10000e+01,1.80861e-12,1.05633e-01,4.62992e-12,1.05633e-01,4.16839e-12,1.05633e-01
7.71458e+02,6.34000e+02,6.46000e+02,-1.20000e+01,7.98927e-13,1.13178e-01,3.12335e-12,1.13178e-01,2.52205e-12,1.13178e-01
7.71708e+02,6.68000e+02,6.36000e+02,3.20000e+01,2.97092e-12,1.20723e-01,1.14348e-12,1.20723e-01,1.92127e-12,1.20723e-01
7.71959e+02,7.02000e+02,6.40000e+02,6.20000e+01,3.76098e-12,1.28268e-01,2.27741e-12,1.28268e-01,5.03665e-12,1.28268e-01
7.72210e+02,6.99000e+02,6.40000e+02,5.90000e+01,2.78990e-12,1.35814e-01,3.02906e-12,1.35814e-01,3.90207e-12,1.35814e-01
7.72460e+02,6.73000e+02,6.49000e+02,2.40000e+01,3.64532e-12,1.43359e-01,4.77981e-12,1.43359e-01,2.23230e-12,1.43359e-01
7.72711e+02,6.51000e+02,6.90000e+02,-3.90000e+01,6.43887e-12,1.50904e-01,5.25335e-12,1.50904e-01,1.33054e-12,1.50904e-01
7.72961e+02,6.77000e+02,7.53000e+02,-7.60000e+01,5.93800e-12,1.58449e-01,1.57760e-12,1.58449e-01,4.54540e-12,1.58449e-01
7.73212e+02,6.07000e+02,6.91000e+02,-8.40000e+01,4.33911e-12,1.65994e-01,4.60775e-12,1.65994e-01,5.40300e-12,1.65994e-01
7.73462e+02,6.54000e+02,6.66000e+02,-1.20000e+01,3.87517e-12,1.73540e-01,4.57902e-12,1.73540e-01,2.01923e-12,1.73540e-01
7.73713e+02,6.63000e+02,6.36000e+02,2.70000e+01,3.25902e-12,1.81085e-01,1.94266e-12,1.81085e-01,1.68635e-12,1.81085e-01
7.73963e+02,7.18000e+02,6.41000e+02,7.70000e+01,1.97880e-12,1.88630e-01,1.68299e-12,1.88630e-01,1.73674e-12,1.88630e-01
7.74214e+02,7.25000e+02,6.33000e+02,9.20000e+01,1.46777e-12,1.96175e-01,1.45389e-12,1.96175e-01,4.39632e-13,1.96175e-01
7.74465e+02,7.26000e+02,6.68000e+02,5.80000e+01,2.03454e-12,2.03720e-01,2.06987e-12,2.03720e-01,3.05463e-13,2.03720e-01
7.74715e+02,6.54000e+02,7.20000e+02,-6.60000e+01,2.19080e-12,2.11266e-01,3.48012e-12,2.11266e-01,2.48306e-12,2.11266e-01
7.74965e+02,6.48000e+02,8.00000e+02,-1.52000e+02,2.47661e-12,2.18811e-01,1.90896e-12,2.18811e-01,3.84769e-12,2.18811e-01
7.75216e+02,6.39000e+02,7.57000e+02,-1.18000e+02,3.04956e-12,2.26356e-01,2.28708e-12,2.26356e-01,4.59752e-12,2.26356e-01
7.75466e+02,6.88000e+02,7.67000e+02,-7.90000e+01,1.86108e-12,2.33901e-01,4.87128e-12,2.33901e-01,4.54973e-12,2.33901e-01
7.75717e+02,6.79000e+02,6.48000e+02,3.10000e+01,3.48359e-12,2.41446e-01,5.19930e-12,2.41446e-01,2.29379e-12,2.41446e-01
7.75967e+02,8.05000e+02,6.37000e+02,1.68000e+02,3.79432e-12,2.48992e-01,3.94748e-12,2.48992e-01,2.53069e-12,2.48992e-01
7.76218e+02,8.04000e+02,6.36000e+02,1.68000e+02,1.55910e-12,2.56537e-01,2.94891e-12,2.56537e-01,4.15566e-12,2.56537e-01
7.76468e+02,8.08000e+02,7.04000e+02,1.04000e+02,1.84414e-12,2.64082e-01,1.73690e-12,2.64082e-01,3.38134e-12,2.64082e-01
7.76719e+02,7.17000e+02,7.62000e+02,-4.50000e+01,1.81898e-12,2.71627e-01,3.76695e-12,2.71627e-01,5.30555e-12,2.71627e-01
7.76969e+02,6.69000e+02,8.68000e+02,-1.99000e+02,2.30304e-12,2.79172e-01,2.99828e-12,2.79172e-01,3.91324e-12,2.79172e-01
7.77219e+02,6.31000e+02,8.65000e+02,-2.34000e+02,1.86525e-11,2.86718e-01,1.94002e-11,2.86718e-01,3.76026e-11,2.86718e-01
7.77470e+02,6.75000e+02,8.33000e+02,-1.58000e+02,4.09886e-11,2.94263e-01,4.40193e-11,2.94263e-01,8.43663e-11,2.94263e-01
7.77720e+02,7.92000e+02,6.99000e+02,9.30000e+01,7.16450e-11,3.01808e-01,7.31815e-11,3.01808e-01,1.43271e-10,3.01808e-01
7.77971e+02,1.01500e+03,6.94000e+02,3.21000e+02,9.50349e-11,3.09353e-01,8.93827e-11,3.09353e-01,1.82117e-10,3.09353e-01
7.78221e+02,1.00100e+03,6.53000e+02,3.48000e+02,7.47586e-11,3.16898e-01,6.65022e-11,3.16898e-01,1.39040e-10,3.16898e-01
7.78471e+02,1.02000e+03,7.92000e+02,2.28000e+02,2.92523e-11,3.24444e-01,2.71364e-11,3.24444e-01,5.46106e-11,3.24444e-01
7.78722e+02,8.37000e+02,8.96000e+02,-5.90000e+01,7.24155e-12,3.31989e-01,9.76393e-12,3.31989e-01,1.69946e-11,3.31989e-01
7.78972e+02,7.35000e+02,1.18800e+03,-4.53000e+02,9.28649e-12,3.39534e-01,5.24762e-12,3.39534e-01,1.43390e-11,3.39534e-01
7.79222e+02,6.65000e+02,1.23000e+03,-5.65000e+02,6.88883e-12,3.47079e-01,2.64525e-12,3.47079e-01,9.51564e-12,3.47079e-01
7.79473e+02,7.41000e+02,1.18100e+03,-4.40000e+02,4.44946e-12,3.54624e-01,4.48157e-12,3.54624e-01,7.43141e-12,3.54624e-01
7.79723e+02,9.41000e+02,8.41000e+02,1.00000e+02,2.43768e-12,3.62169e-01,5.87322e-12,3.62169e-01,6.53139e-12,3.62169e-01
7.79973e+02,1.24000e+03,7.33000e+02,5.07000e+02,2.44424e-12,3.69715e-01,3.54768e-12,3.69715e-01,3.15613e-12,3.69715e-01
7.80224e+02,1.38700e+03,6.98000e+02,6.89000e+02,1.40276e-12,3.77260e-01,7.01700e-13,3.77260e-01,1.32216e-12,3.77260e-01
7.80474e+02,1.47700e+03,9.12000e+02,5.65000e+02,1.86763e-12,3.84805e-01,2.06436e-12,3.84805e-01,3.04033e-12,3.84805e-01
7.80724e+02,1.07100e+03,1.08400e+03,-1.30000e+01,3.70755e-12,3.92350e-01,2.28385e-12,3.92350e-01,5.17882e-12,3.92350e-01
7.80974e+02,8.31000e+02,1.47900e+03,-6.48000e+02,3.00001e-12,3.99895e-01,1.10404e-12,3.99895e-01,4.10099e-12,3.99895e-01
7.81225e+02,7.08000e+02,1.61400e+03,-9.06000e+02,1.36498e-12,4.07441e-01,1.34033e-12,4.07441e-01,2.65340e-12,4.07441e-01
7.81475e+02,7.93000e+02,1.59100e+03,-7.98000e+02,1.29995e-12,4.14986e-01,1.06429e-12,4.14986e-01,1.06951e-12,4.14986e-01
7.81725e+02,1.10800e+03,1.08800e+03,2.00000e+01,1.83997e-12,4.22531e-01,2.89618e-12,4.22531e-01,2.91901e-12,4.22531e-01
7.81975e+02,1.63600e+03,8.43000e+02,7.93000e+02,2.93158e-12,4.30076e-01,2.94327e-12,4.30076e-01,4.72634e-12,4.30076e-01
7.82226e+02,1.82900e+03,7.55000e+02,1.07400e+03,2.69914e-12,4.37621e-01,1.02557e-12,4.37621e-01,3.57927e-12,4.37621e-01
7.82476e+02,1.69500e+03,1.02000e+03,6.75000e+02,1.31502e-12,4.45167e-01,3.46982e-12,4.45167e-01,2.35345e-12,4.45167e-01
7.82726e+02,1.37400e+03,1.42800e+03,-5.40000e+01,2.60794e-12,4.52712e-01,3.24891e-12,4.52712e-01,3.49537e-12,4.52712e-01
7.82976e+02,1.02200e+03,1.84400e+03,-8.22000e+02,4.20888e-12,4.60257e-01,2.17703e-12,4.60257e-01,5.75180e-12,4.60257e-01
7.83226e+02,7.62000e+02,1.81400e+03,-1.05200e+03,3.94541e-12,4.67802e-01,1.02134e-12,4.67802e-01,4.19565e-12,4.67802e-01
7.83477e+02,9.21000e+02,1.75300e+03,-8.32000e+02,3.40473e-12,4.75347e-01,2.37479e-12,4.75347e-01,1.77493e-12,4.75347e-01
7.83727e+02,1.33800e+03,1.27700e+03,6.10000e+01,2.97569e-12,4.82893e-01,2.89386e-12,4.82893e-01,3.25682e-12,4.82893e-01
7.83977e+02,1.96800e+03,9.57000e+02,1.01100e+03,1.38927e-12,4.90438e-01,1.46023e-12,4.90438e-01,1.93900e-12,4.90438e-01
7.84227e+02,2.34600e+03,8.61000e+02,1.48500e+03,1.54425e-12,4.97983e-01,3.04862e-13,4.97983e-01,1.52364e-12,4.97983e-01
7.84477e+02,2.59700e+03,1.25900e+03,1.33800e+03,2.61403e-12,5.05528e-01,2.33380e-13,5.05528e-01,2.43275e-12,5.05528e-01
7.84727e+02,2.00800e+03,1.77600e+03,2.32000e+02,2.66518e-12,5.13073e-01,6.33020e-13,5.13073e-01,2.09269e-12,5.13073e-01
7.84978e+02,1.52000e+03,2.50400e+03,-9.84000e+02,1.89422e-12,5.20619e-01,1.23333e-12,5.20619e-01,7.41015e-13,5.20619e-01
7.85228e+02,9.85000e+02,2.97700e+03,-1.99200e+03,1.44187e-12,5.28164e-01,1.91663e-12,5.28164e-01,2.04527e-12,5.28164e-01
7.85478e+02,1.12600e+03,2.82500e+03,-1.69900e+03,1.78283e-12,5.35709e-01,2.60890e-12,5.35709e-01,3.64174e-12,5.35709e-01
7.85728e+02,1.64600e+03,2.13800e+03,-4.92000e+02,1.23169e-12,5.43254e-01,1.91199e-12,5.43254e-01,3.09177e-12,5.43254e-01
7.85978e+02,2.53400e+03,1.42500e+03,1.10900e+03,1.64336e-12,5.50799e-01,5.91468e-13,5.50799e-01,2.03995e-12,5.50799e-01
7.86228e+02,2.94600e+03,9.97000e+02,1.94900e+03,1.64488e-12,5.58345e-01,6.03471e-13,5.58345e-01,1.29149e-12,5.58345e-01
7.86478e+02,3.06000e+03,1.31300e+03,1.74700e+03,5.18165e-13,5.65890e-01,1.42523e-12,5.65890e-01,1.70889e-12,5.65890e-01
7.86728e+02,2.63100e+03,2.03800e+03,5.93000e+02,7.54973e-13,5.73435e-01,1.12749e-12,5.73435e-01,1.58124e-12,5.73435e-01
7.86978e+02,1.87500e+03,2.78800e+03,-9.13000e+02,1.25576e-12,5.80980e-01,2.34385e-13,5.80980e-01,1.12822e-12,5.80980e-01
7.87228e+02,1.24200e+03,3.21100e+03,-1.96900e+03,1.33480e-12,5.88525e-01,6.21489e-13,5.88525e-01,1.04082e-12,5.88525e-01
7.87478e+02,1.15600e+03,2.94400e+03,-1.78800e+03,1.23954e-12,5.96071e-01,9.63189e-13,5.96071e-01,7.59272e-13,5.96071e-01
7.87728e+02,1.68900e+03,2.29800e+03,-6.09000e+02,2.15640e-12,6.03616e-01,2.20696e-12,6.03616e-01,8.25753e-13,6.03616e-01
7.87978e+02,2.80400e+03,1.74000e+03,1.06400e+03,3.00311e-12,6.11161e-01,3.12489e-12,6.11161e-01,5.20596e-13,6.11161e-01
7.88228e+02,3.55400e+03,1.16400e+03,2.39000e+03,3.27110e-12,6.18706e-01,3.38077e-12,6.18706e-01,1.10545e-13,6.18706e-01
7.88478e+02,4.09400e+03,1.40300e+03,2.69100e+03,3.32722e-12,6.26251e-01,3.45497e-12,6.26251e-01,2.83610e-13,6.26251e-01
7.88728e+02,3.67300e+03,2.06700e+03,1.60600e+03,3.80492e-12,6.33797e-01,3.70545e-12,6.33797e-01,1.10899e-13,6.33797e-01
7.88978e+02,2.76700e+03,3.08200e+03,-3.15000e+02,3.88528e-12,6.41342e-01,3.39657e-12,6.41342e-01,9.16408e-13,6.41342e-01
7.89228e+02,1.69100e+03,4.07300e+03,-2.38200e+03,3.27351e-12,6.48887e-01,2.73010e-12,6.48887e-01,1.01852e-12,6.48887e-01
7.89478e+02,1.30000e+03,4.57600e+03,-3.27600e+03,2.35798e-12,6.56432e-01,1.73414e-12,6.56432e-01,6.43374e-13,6.56432e-01
7.89728e+02,1.64100e+03,3.95700e+03,-2.31600e+03,2.04047e-12,6.63977e-01,1.62057e-12,6.63977e-01,2.23851e-12,6.63977e-01
7.89978e+02,2.84400e+03,3.04100e+03,-1.97000e+02,1.89550e-12,6.71523e-01,2.38523e-12,6.71523e-01,3.76397e-12,6.71523e-01
7.90228e+02,4.14500e+03,1.86500e+03,2.28000e+03,1.91625e-12,6.79068e-01,1.97957e-12,6.79068e-01,3.45453e-12,6.79068e-01
7.90478e+02,5.14600e+03,1.58100e+03,3.56500e+03,8.57725e-13,6.86613e-01,6.51414e-13,6.86613e-01,1.37890e-12,6.86613e-01
7.90728e+02,5.05600e+03,2.20100e+03,2.85500e+03,5.52747e-13,6.94158e-01,7.21678e-13,6.94158e-01,2.02430e-13,6.94158e-01
7.90978e+02,4.38800e+03,3.67600e+03,7.12000e+02,1.29877e-12,7.01703e-01,1.59105e-12,7.01703e-01,5.85025e-13,7.01703e-01
7.91228e+02,2.90700e+03,4.87600e+03,-1.96900e+03,5.89605e-13,7.09249e-01,1.69014e-12,7.09249e-01,1.16683e-12,7.09249e-01
7.91478e+02,1.82500e+03,5.10000e+03,-3.27500e+03,9.20166e-13,7.16794e-01,1.24358e-12,7.16794e-01,8.63925e-13,7.16794e-01
7.91728e+02,1.66100e+03,4.44400e+03,-2.78300e+03,1.52262e-12,7.24339e-01,7.84969e-13,7.24339e-01,8.25420e-13,7.24339e-01
7.91977e+02,2.47500e+03,3.34600e+03,-8.71000e+02,1.32598e-12,7.31884e-01,9.08373e-13,7.31884e-01,1.20124e-12,7.31884e-01
7.92227e+02,3.83700e+03,2.01500e+03,1.82200e+03,3.76618e-13,7.39429e-01,4.78520e-13,7.39429e-01,5.17508e-13,7.39429e-01
7.92477e+02,5.78100e+03,1.60700e+03,4.17400e+03,1.07749e-12,7.46975e-01,2.77188e-13,7.46975e-01,1.20136e-12,7.46975e-01
7.92727e+02,6.57600e+03,2.00700e+03,4.56900e+03,1.95269e-12,7.54520e-01,4.30642e-13,7.54520e-01,2.36304e-12,7.54520e-01
7.92977e+02,5.70800e+03,3.34400e+03,2.36400e+03,1.58078e-12,7.62065e-01,3.91019e-13,7.62065e-01,1.42211e-12,7.62065e-01
7.93227e+02,3.71300e+03,4.64200e+03,-9.29000e+02,1.49833e-12,7.69610e-01,1.13978e-12,7.69610e-01,4.27061e-13,7.69610e-01
7.93476e+02,2.27600e+03,5.23400e+03,-2.95800e+03,1.51276e-12,7.77155e-01,1.20245e-12,7.77155e-01,1.49823e-12,7.77155e-01
7.93726e+02,1.79700e+03,5.37600e+03,-3.57900e+03,1.23812e-12,7.84701e-01,1.53020e-12,7.84701e-01,2.02628e-12,7.84701e-01
7.93976e+02,2.74800e+03,4.80100e+03,-2.05300e+03,9.59249e-13,7.92246e-01,1.85847e-12,7.92246e-01,1.82775e-12,7.92246e-01
7.94226e+02,4.67600e+03,3.09500e+03,1.58100e+03,2.60379e-13,7.99791e-01,7.94261e-13,7.99791e-01,7.86041e-13,7.99791e-01
7.94476e+02,6.82100e+03,2.01100e+03,4.81000e+03,8.55726e-13,8.07336e-01,4.22489e-13,8.07336e-01,6.76640e-13,8.07336e-01
7.94725e+02,6.90100e+03,1.96900e+03,4.93200e+03,1.19150e-12,8.14881e-01,1.18007e-12,8.14881e-01,1.63250e-12,8.14881e-01
7.94975e+02,6.20300e+03,3.20500e+03,2.99800e+03,9.37349e-13,8.22427e-01,2.16914e-12,8.22427e-01,1.79761e-12,8.22427e-01
7.95225e+02,4.51700e+03,4.77300e+03,-2.56000e+02,1.37325e-12,8.29972e-01,2.10401e-12,8.29972e-01,7.81157e-13,8.29972e-01
7.95475e+02,3.01400e+03,6.22000e+03,-3.20600e+03,1.45097e-12,8.37517e-01,1.07034e-12,8.37517e-01,5.63449e-13,8.37517e-01
7.95724e+02,2.17100e+03,6.67200e+03,-4.50100e+03,9.02575e-13,8.45062e-01,5.09639e-13,8.45062e-01,1.11483e-12,8.45062e-01
7.95974e+02,2.74200e+03,5.94500e+03,-3.20300e+03,1.72112e-13,8.52607e-01,6.68976e-13,8.52607e-01,8.12893e-13,8.52607e-01
7.96224e+02,4.53600e+03,4.35200e+03,1.84000e+02,7.89863e-13,8.60153e-01,6.90266e-13,8.60153e-01,1.41872e-12,8.60153e-01
7.96474e+02,6.80800e+03,2.91800e+03,3.89000e+03,5.86873e-13,8.67698e-01,8.25959e-13,8.67698e-01,1.37740e-12,8.67698e-01
7.96723e+02,7.79100e+03,2.23000e+03,5.56100e+03,3.52856e-13,8.75243e-01,8.53572e-13,8.75243e-01,7.52977e-13,8.75243e-01
7.96973e+02,7.60500e+03,3.45700e+03,4.14800e+03,4.54244e-13,8.82788e-01,6.94516e-13,8.82788e-01,2.58378e-13,8.82788e-01
7.97223e+02,6.57100e+03,6.19500e+03,3.76000e+02,4.75556e-13,8.90333e-01,6.36869e-13,8.90333e-01,4.93920e-13,8.90333e-01
7.97472e+02,4.02200e+03,8.02300e+03,-4.00100e+03,6.07746e-13,8.97879e-01,7.58728e-13,8.97879e-01,1.06534e-12,8.97879e-01
7.97722e+02,2.65500e+03,9.60200e+03,-6.94700e+03,1.02280e-12,9.05424e-01,9.01209e-13,9.05424e-01,1.46314e-12,9.05424e-01
7.97972e+02,3.00800e+03,8.96000e+03,-5.95200e+03,1.30921e-12,9.12969e-01,8.86145e-13,9.12969e-01,1.63024e-12,9.12969e-01
7.98221e+02,5.16800e+03,6.20200e+03,-1.03400e+03,1.53454e-12,9.20514e-01,2.61686e-13,9.20514e-01,1.74720e-12,9.20514e-01
7.98471e+02,7.79300e+03,3.68800e+03,4.10500e+03,1.51532e-12,9.28059e-01,1.07830e-12,9.28059e-01,1.77493e-12,9.28059e-01
7.98721e+02,9.60700e+03,2.63600e+03,6.97100e+03,1.32696e-12,9.35605e-01,1.80861e-12,9.35605e-01,1.98104e-12,9.35605e-01
7.98970e+02,1.07240e+04,3.59100e+03,7.13300e+03,6.82736e-13,9.43150e-01,1.82188e-12,9.43150e-01,1.99107e-12,9.43150e-01
7.99220e+02,8.90200e+03,6.16400e+03,2.73800e+03,1.47001e-13,9.50695e-01,1.50565e-12,9.50695e-01,1.39558e-12,9.50695e-01
7.99469e+02,5.71500e+03,8.51300e+03,-2.79800e+03,6.98363e-13,9.58240e-01,1.04417e-12,9.58240e-01,7.03928e-13,9.58240e-01
7.99719e+02,3.26800e+03,9.69400e+03,-6.42600e+03,7.57134e-13,9.65785e-01,4.59887e-13,9.65785e-01,9.31794e-13,9.65785e-01
7.99969e+02,2.92900e+03,9.63800e+03,-6.70900e+03,5.42035e-13,9.73331e-01,3.11683e-13,9.73331e-01,2.75404e-13,9.73331e-01
8.00218e+02,4.92900e+03,7.65700e+03,-2.72800e+03,5.24325e-13,9.80876e-01,7.23792e-13,9.80876e-01,3.13232e-13,9.80876e-01
8.00468e+02,8.21300e+03,4.84200e+03,3.37100e+03,7.64331e-13,9.88421e-01,5.63197e-13,9.88421e-01,2.03077e-13,9.88421e-01
8.00717e+02,1.06100e+04,3.08200e+03,7.52800e+03,5.94719e-13,9.95966e-01,1.36650e-12,9.95966e-01,8.28226e-13,9.95966e-01
8.00967e+02,1.11490e+04,3.62300e+03,7.52600e+03,4.63500e-13,1.00351e+00,1.18876e-12,1.00351e+00,1.27017e-12,1.00351e+00
8.01216e+02,1.03290e+04,6.46500e+03,3.86400e+03,3.04244e-13,1.01106e+00,3.59680e-13,1.01106e+00,6.61870e-13,1.01106e+00
8.01466e+02,7.80100e+03,9.48200e+03,-1.68100e+03,3.09348e-13,1.01860e+00,5.66184e-13,1.01860e+00,7.84534e-13,1.01860e+00
8.01715e+02,4.86600e+03,1.18210e+04,-6.95500e+03,2.62059e-13,1.02615e+00,2.34832e-13,1.02615e+00,4.95780e-13,1.02615e+00
8.01965e+02,3.44500e+03,1.21200e+04,-8.67500e+03,2.98721e-13,1.03369e+00,3.25873e-13,1.03369e+00,3.21775e-13,1.03369e+00
8.02215e+02,4.46600e+03,1.02950e+04,-5.82900e+03,1.30573e-13,1.04124e+00,5.20986e-13,1.04124e+00,4.42373e-13,1.04124e+00
8.02464e+02,7.99800e+03,6.64900e+03,1.34900e+03,2.69899e-13,1.04878e+00,4.94834e-13,1.04878e+00,6.96148e-13,1.04878e+00
8.02713e+02,1.08910e+04,3.96100e+03,6.93000e+03,2.33369e-13,1.05633e+00,5.28557e-13,1.05633e+00,6.98112e-13,1.05633e+00
8.02963e+02,1.26760e+04,3.39900e+03,9.27700e+03,9.84695e-13,1.06387e+00,2.74975e-13,1.06387e+00,7.90560e-13,1.06387e+00
8.03212e+02,1.29160e+04,5.73100e+03,7.18500e+03,8.29414e-13,1.07142e+00,7.04327e-13,1.07142e+00,9.60495e-13,1.07142e+00
8.03462e+02,1.03630e+04,9.82500e+03,5.38000e+02,3.48334e-13,1.07896e+00,1.14336e-12,1.07896e+00,1.30862e-12,1.07896e+00
8.03711e+02,6.26300e+03,1.35720e+04,-7.30900e+03,2.90444e-13,1.08651e+00,1.15707e-12,1.08651e+00,1.42613e-12,1.08651e+00
8.03961e+02,3.60300e+03,1.32380e+04,-9.63500e+03,2.98216e-15,1.09405e+00,1.08739e-12,1.09405e+00,1.08442e-12,1.09405e+00
8.04210e+02,3.91700e+03,1.12400e+04,-7.32300e+03,3.59323e-13,1.10160e+00,8.39704e-13,1.10160e+00,9.27722e-13,1.10160e+00
8.04460e+02,7.23200e+03,8.34200e+03,-1.11000e+03,5.71578e-13,1.10914e+00,4.23435e-13,1.10914e+00,8.25642e-13,1.10914e+00
8.04709e+02,1.13520e+04,5.40000e+03,5.95200e+03,7.18978e-13,1.11669e+00,4.60448e-13,1.11669e+00,1.17577e-12,1.11669e+00
8.04958e+02,1.31770e+04,3.49700e+03,9.68000e+03,8.16884e-13,1.12423e+00,5.44609e-13,1.12423e+00,1.35257e-12,1.12423e+00
8.05208e+02,1.30170e+04,4.19000e+03,8.82700e+03,9.27507e-13,1.13178e+00,2.34187e-13,1.13178e+00,1.12576e-12,1.13178e+00
8.05457e+02,1.03390e+04,6.63800e+03,3.70100e+03,1.62241e-12,1.13932e+00,3.07252e-13,1.13932e+00,1.34339e-12,1.13932e+00
8.05707e+02,7.62900e+03,1.07650e+04,-3.13600e+03,1.62472e-12,1.14687e+00,7.71390e-13,1.14687e+00,8.82966e-13,1.14687e+00
8.05956e+02,4.87900e+03,1.38430e+04,-8.96400e+03,1.02468e-12,1.15442e+00,8.12197e-13,1.15442e+00,2.19526e-13,1.15442e+00
8.06205e+02,3.53700e+03,1.26520e+04,-9.11500e+03,3.35822e-13,1.16196e+00,6.08907e-13,1.16196e+00,4.11698e-13,1.16196e+00
8.06455e+02,5.44200e+03,1.05590e+04,-5.11700e+03,3.74654e-13,1.16951e+00,4.94094e-13,1.16951e+00,8.39083e-13,1.16951e+00
8.06704e+02,9.10600e+03,7.65200e+03,1.45400e+03,7.82488e-13,1.17705e+00,3.81335e-13,1.17705e+00,7.90935e-13,1.17705e+00
8.06953e+02,1.26330e+04,4.47500e+03,8.15800e+03,9.19213e-13,1.18460e+00,3.78965e-13,1.18460e+00,9.87967e-13,1.18460e+00
8.07203e+02,1.31480e+04,3.30300e+03,9.84500e+03,7.71893e-13,1.19214e+00,4.12194e-13,1.19214e+00,1.04883e-12,1.19214e+00
8.07452e+02,1.31900e+04,5.38200e+03,7.80800e+03,1.03365e-12,1.19969e+00,1.20283e-13,1.19969e+00,9.57838e-13,1.19969e+00
8.07701e+02,1.05690e+04,9.36000e+03,1.20900e+03,1.13683e-12,1.20723e+00,5.64406e-13,1.20723e+00,6.03006e-13,1.20723e+00
8.07951e+02,6.96700e+03,1.24550e+04,-5.48800e+03,9.47973e-13,1.21478e+00,7.67613e-13,1.21478e+00,3.07417e-13,1.21478e+00
8.08200e+02,4.23700e+03,1.27940e+04,-8.55700e+03,9.59074e-13,1.22232e+00,3.74406e-13,1.22232e+00,7.65460e-13,1.22232e+00
8.08449e+02,4.17300e+03,1.22380e+04,-8.06500e+03,8.39791e-13,1.22987e+00,2.29243e-13,1.22987e+00,1.06023e-12,1.22987e+00
8.08698e+02,7.20800e+03,9.97000e+03,-2.76200e+03,5.53172e-13,1.23741e+00,7.55218e-13,1.23741e+00,1.17499e-12,1.23741e+00
8.08948e+02,1.18750e+04,6.82300e+03,5.05200e+03,6.82303e-13,1.24496e+00,1.10761e-12,1.24496e+00,1.78585e-12,1.24496e+00
8.09197e+02,1.48890e+04,4.21500e+03,1.06740e+04,6.63447e-13,1.25250e+00,7.86629e-13,1.25250e+00,1.43452e-12,1.25250e+00
8.09446e+02,1.47490e+04,4.48000e+03,1.02690e+04,6.14154e-13,1.26005e+00,3.25592e-13,1.26005e+00,9.12590e-13,1.26005e+00
8.09695e+02,1.33230e+04,8.34900e+03,4.97400e+03,5.31824e-13,1.26759e+00,2.06368e-13,1.26759e+00,6.14261e-13,1.26759e+00
8.09945e+02,1.00170e+04,1.28570e+04,-2.84000e+03,5.27459e-13,1.27514e+00,4.33684e-13,1.27514e+00,9.57530e-14,1.27514e+00
8.10194e+02,6.18400e+03,1.46950e+04,-8.51100e+03,4.56404e-13,1.28268e+00,6.77161e-13,1.28268e+00,4.30396e-13,1.28268e+00
8.10443e+02,4.32700e+03,1.48460e+04,-1.05190e+04,6.05585e-13,1.29023e+00,7.96789e-13,1.29023e+00,2.39340e-13,1.29023e+00
8.10692e+02,5.94600e+03,1.29840e+04,-7.03800e+03,2.63017e-13,1.29777e+00,5.46284e-13,1.29777e+00,3.64332e-13,1.29777e+00
8.10941e+02,1.01720e+04,9.29300e+03,8.79000e+02,5.02523e-13,1.30532e+00,6.73238e-13,1.30532e+00,6.44721e-13,1.30532e+00
8.11191e+02,1.37660e+04,5.30500e+03,8.46100e+03,4.68830e-13,1.31286e+00,1.97374e-13,1.31286e+00,6.02743e-13,1.31286e+00
8.11440e+02,1.54800e+04,4.21900e+03,1.12610e+04,1.67403e-12,-1.32041e+00,1.19029e-12,-1.32041e+00,4.83741e-13,-1.32041e+00
8.11689e+02,1.57050e+04,6.47400e+03,9.23100e+03,4.68830e-13,-1.31286e+00,1.97374e-13,-1.31286e+00,6.02743e-13,-1.31286e+00
8.11938e+02,1.39470e+04,1.05690e+04,3.37800e+03,5.02523e-13,-1.30532e+00,6.73238e-13,-1.30532e+00,6.44721e-13,-1.30532e+00
8.12187e+02,9.10000e+03,1.45210e+04,-5.42100e+03,2.63017e-13,-1.29777e+00,5.46284e-13,-1.29777e+00,3.64332e-13,-1.29777e+00
8.12436e+02,5.40900e+03,1.55280e+04,-1.01190e+04,6.05585e-13,-1.29023e+00,7.96789e-13,-1.29023e+00,2.39340e-13,-1.29023e+00
8.12685e+02,4.98500e+03,1.49520e+04,-9.96700e+03,4.56404e-13,-1.28268e+00,6.77161e-13,-1.28268e+00,4.30396e-13,-1.28268e+00
8.12935e+02,7.47800e+03,1.22260e+04,-4.74800e+03,5.27459e-13,-1.27514e+00,4.33684e-13,-1.27514e+00,9.57530e-14,-1.27514e+00
8.13184e+02,1.11310e+04,7.92000e+03,3.21100e+03,5.31824e-13,-1.26759e+00,2.06368e-13,-1.26759e+00,6.14261e-13,-1.26759e+00
8.13433e+02,1.46010e+04,4.93500e+03,9.66600e+03,6.14154e-13,-1.26005e+00,3.25592e-13,-1.26005e+00,9.12590e-13,-1.26005e+00
8.13682e+02,1.54170e+04,4.58400e+03,1.08330e+04,6.63447e-13,-1.25250e+00,7.86629e-13,-1.25250e+00,1.43452e-12,-1.25250e+00
8.13931e+02,1.49850e+04,7.17800e+03,7.80700e+03,6.82303e-13,-1.24496e+00,1.10761e-12,-1.24496e+00,1.78585e-12,-1.24496e+00
8.14180e+02,1.11130e+04,1.06490e+04,4.64000e+02,5.53172e-13,-1.23741e+00,7.55218e-13,-1.23741e+00,1.17499e-12,-1.23741e+00
8.14429e+02,7.12300e+03,1.42460e+04,-7.12300e+03,8.39791e-13,-1.22987e+00,2.29243e-13,-1.22987e+00,1.06023e-12,-1.22987e+00
8.14678e+02,4.37100e+03,1.52980e+04,-1.09270e+04,9.59074e-13,-1.22232e+00,3.74406e-13,-1.22232e+00,7.65460e-13,-1.22232e+00
8.14927e+02,4.61600e+03,1.36920e+04,-9.07600e+03,9.47973e-13,-1.21478e+00,7.67613e-13,-1.21478e+00,3.07417e-13,-1.21478e+00
8.15176e+02,7.27300e+03,1.01380e+04,-2.86500e+03,1.13683e-12,-1.20723e+00,5.64406e-13,-1.20723e+00,6.03006e-13,-1.20723e+00
8.15425e+02,1.09610e+04,6.13200e+03,4.82900e+03,1.03365e-12,-1.19969e+00,1.20283e-13,-1.19969e+00,9.57838e-13,-1.19969e+00
8.15674e+02,1.43660e+04,4.07200e+03,1.02940e+04,7.71893e-13,-1.19214e+00,4.12194e-13,-1.19214e+00,1.04883e-12,-1.19214e+00
8.15923e+02,1.52630e+04,5.18500e+03,1.00780e+04,9.19213e-13,-1.18460e+00,3.78965e-13,-1.18460e+00,9.87967e-13,-1.18460e+00
8.16172e+02,1.43570e+04,9.06900e+03,5.28800e+03,7.82488e-13,-1.17705e+00,3.81335e-13,-1.17705e+00,7.90935e-13,-1.17705e+00
8.16421e+02,8.32800e+03,1.22140e+04,-3.88600e+03,3.74654e-13,-1.16951e+00,4.94094e-13,-1.16951e+00,8.39083e-13,-1.16951e+00
8.16670e+02,4.24200e+03,1.33340e+04,-9.09200e+03,3.35822e-13,-1.16196e+00,6.08907e-13,-1.16196e+00,4.11698e-13,-1.16196e+00
8.16919e+02,3.51600e+03,1.39480e+04,-1.04320e+04,1.02468e-12,-1.15442e+00,8.12197e-13,-1.15442e+00,2.19526e-13,-1.15442e+00
8.17168e+02,5.28100e+03,1.15940e+04,-6.31300e+03,1.62472e-12,-1.14687e+00,7.71390e-13,-1.14687e+00,8.82966e-13,-1.14687e+00
8.17417e+02,8.35400e+03,7.50700e+03,8.47000e+02,1.62241e-12,-1.13932e+00,3.07252e-13,-1.13932e+00,1.34339e-12,-1.13932e+00
8.17666e+02,1.16380e+04,4.60600e+03,7.03200e+03,9.27507e-13,-1.13178e+00,2.34187e-13,-1.13178e+00,1.12576e-12,-1.13178e+00
8.17915e+02,1.32610e+04,3.54000e+03,9.72100e+03,8.16884e-13,-1.12423e+00,5.44609e-13,-1.12423e+00,1.35257e-12,-1.12423e+00
8.18164e+02,1.14830e+04,4.63200e+03,6.85100e+03,7.18978e-13,-1.11669e+00,4.60448e-13,-1.11669e+00,1.17577e-12,-1.11669e+00
8.18413e+02,8.21100e+03,7.36000e+03,8.51000e+02,5.71578e-13,-1.10914e+00,4.23435e-13,-1.10914e+00,8.25642e-13,-1.10914e+00
8.18662e+02,5.15700e+03,9.54100e+03,-4.38400e+03,3.59323e-13,-1.10160e+00,8.39704e-13,-1.10160e+00,9.27722e-13,-1.10160e+00
8.18911e+02,3.35800e+03,1.09590e+04,-7.60100e+03,2.98216e-15,-1.09405e+00,1.08739e-12,-1.09405e+00,1.08442e-12,-1.09405e+00
8.19160e+02,3.37900e+03,1.00800e+04,-6.70100e+03,2.90444e-13,-1.08651e+00,1.15707e-12,-1.08651e+00,1.42613e-12,-1.08651e+00
8.19408e+02,5.24800e+03,8.12400e+03,-2.87600e+03,3.48334e-13,-1.07896e+00,1.14336e-12,-1.07896e+00,1.30862e-12,-1.07896e+00
8.19657e+02,9.16400e+03,5.69600e+03,3.46800e+03,8.29414e-13,-1.07142e+00,7.04327e-13,-1.07142e+00,9.60495e-13,-1.07142e+00
8.19906e+02,1.24820e+04,3.56000e+03,8.92200e+03,9.84695e-13,-1.06387e+00,2.74975e-13,-1.06387e+00,7.90560e-13,-1.06387e+00
8.20155e+02,1.34780e+04,3.43600e+03,1.00420e+04,2.33369e-13,-1.05633e+00,5.28557e-13,-1.05633e+00,6.98112e-13,-1.05633e+00
8.20404e+02,1.09680e+04,5.44500e+03,5.52300e+03,2.69899e-13,-1.04878e+00,4.94834e-13,-1.04878e+00,6.96148e-13,-1.04878e+00
8.20653e+02,6.91200e+03,8.22800e+03,-1.31600e+03,1.30573e-13,-1.04124e+00,5.20986e-13,-1.04124e+00,4.42373e-13,-1.04124e+00
8.20901e+02,4.26200e+03,1.03220e+04,-6.06000e+03,2.98721e-13,-1.03369e+00,3.25873e-13,-1.03369e+00,3.21775e-13,-1.03369e+00
8.21150e+02,2.93800e+03,1.16110e+04,-8.67300e+03,2.62059e-13,-1.02615e+00,2.34832e-13,-1.02615e+00,4.95780e-13,-1.02615e+00
8.21399e+02,3.34800e+03,8.95400e+03,-5.60600e+03,3.09348e-13,-1.01860e+00,5.66184e-13,-1.01860e+00,7.84534e-13,-1.01860e+00
8.21648e+02,5.47600e+03,6.39300e+03,-9.17000e+02,3.04244e-13,-1.01106e+00,3.59680e-13,-1.01106e+00,6.61870e-13,-1.01106e+00
8.21897e+02,7.85000e+03,4.31300e+03,3.53700e+03,4.63500e-13,-1.00351e+00,1.18876e-12,-1.00351e+00,1.27017e-12,-1.00351e+00
8.22145e+02,8.62100e+03,2.81400e+03,5.80700e+03,5.94719e-13,-9.95966e-01,1.36650e-12,-9.95966e-01,8.28226e-13,-9.95966e-01
8.22394e+02,9.33400e+03,3.30500e+03,6.02900e+03,7.64331e-13,-9.88421e-01,5.63197e-13,-9.88421e-01,2.03077e-13,-9.88421e-01
8.22643e+02,8.16200e+03,5.10700e+03,3.05500e+03,5.24325e-13,-9.80876e-01,7.23792e-13,-9.80876e-01,3.13232e-13,-9.80876e-01
8.22892e+02,5.38200e+03,7.32400e+03,-1.94200e+03,5.42035e-13,-9.73331e-01,3.11683e-13,-9.73331e-01,2.75404e-13,-9.73331e-01
8.23140e+02,3.22200e+03,8.98100e+03,-5.75900e+03,7.57134e-13,-9.65785e-01,4.59887e-13,-9.65785e-01,9.31794e-13,-9.65785e-01
8.23389e+02,2.58500e+03,9.66500e+03,-7.08000e+03,6.98363e-13,-9.58240e-01,1.04417e-12,-9.58240e-01,7.03928e-13,-9.58240e-01
8.23638e+02,3.64600e+03,8.47200e+03,-4.82600e+03,1.47001e-13,-9.50695e-01,1.50565e-12,-9.50695e-01,1.39558e-12,-9.50695e-01
8.23887e+02,5.92900e+03,5.47600e+03,4.53000e+02,6.82736e-13,-9.43150e-01,1.82188e-12,-9.43150e-01,1.99107e-12,-9.43150e-01
8.24135e+02,8.03300e+03,3.29000e+03,4.74300e+03,1.32696e-12,-9.35605e-01,1.80861e-12,-9.35605e-01,1.98104e-12,-9.35605e-01
8.24384e+02,8.81800e+03,2.40600e+03,6.41200e+03,1.51532e-12,-9.28059e-01,1.07830e-12,-9.28059e-01,1.77493e-12,-9.28059e-01
8.24633e+02,8.00000e+03,3.27000e+03,4.73000e+03,1.53454e-12,-9.20514e-01,2.61686e-13,-9.20514e-01,1.74720e-12,-9.20514e-01
8.24881e+02,6.45300e+03,5.32100e+03,1.13200e+03,1.30921e-12,-9.12969e-01,8.86145e-13,-9.12969e-01,1.63024e-12,-9.12969e-01
8.25130e+02,4.33600e+03,7.50600e+03,-3.17000e+03,1.02280e-12,-9.05424e-01,9.01209e-13,-9.05424e-01,1.46314e-12,-9.05424e-01
8.25379e+02,2.57000e+03,9.36400e+03,-6.79400e+03,6.07746e-13,-8.97879e-01,7.58728e-13,-8.97879e-01,1.06534e-12,-8.97879e-01
8.25627e+02,2.23100e+03,7.71800e+03,-5.48700e+03,4.75556e-13,-8.90333e-01,6.36869e-13,-8.90333e-01,4.93920e-13,-8.90333e-01
8.25876e+02,3.38900e+03,5.73700e+03,-2.34800e+03,4.54244e-13,-8.82788e-01,6.94516e-13,-8.82788e-01,2.58378e-13,-8.82788e-01
8.26125e+02,5.06600e+03,3.80500e+03,1.26100e+03,3.52856e-13,-8.75243e-01,8.53572e-13,-8.75243e-01,7.52977e-13,-8.75243e-01
8.26373e+02,5.77700e+03,2.27200e+03,3.50500e+03,5.86873e-13,-8.67698e-01,8.25959e-13,-8.67698e-01,1.37740e-12,-8.67698e-01
8.26622e+02,5.54600e+03,1.82300e+03,3.72300e+03,7.89863e-13,-8.60153e-01,6.90266e-13,-8.60153e-01,1.41872e-12,-8.60153e-01
8.26870e+02,4.49900e+03,2.52400e+03,1.97500e+03,1.72112e-13,-8.52607e-01,6.68976e-13,-8.52607e-01,8.12893e-13,-8.52607e-01
8.27119e+02,3.49400e+03,3.65700e+03,-1.63000e+02,9.02575e-13,-8.45062e-01,5.09639e-13,-8.45062e-01,1.11483e-12,-8.45062e-01
8.27368e+02,2.40300e+03,4.88800e+03,-2.48500e+03,1.45097e-12,-8.37517e-01,1.07034e-12,-8.37517e-01,5.63449e-13,-8.37517e-01
8.27616e+02,1.60700e+03,4.92800e+03,-3.32100e+03,1.37325e-12,-8.29972e-01,2.10401e-12,-8.29972e-01,7.81157e-13,-8.29972e-01
8.27865e+02,1.74500e+03,4.70600e+03,-2.96100e+03,9.37349e-13,-8.22427e-01,2.16914e-12,-8.22427e-01,1.79761e-12,-8.22427e-01
8.28113e+02,2.76800e+03,4.44100e+03,-1.67300e+03,1.19150e-12,-8.14881e-01,1.18007e-12,-8.14881e-01,1.63250e-12,-8.14881e-01
8.28362e+02,4.02200e+03,3.00800e+03,1.01400e+03,8.55726e-13,-8.07336e-01,4.22489e-13,-8.07336e-01,6.76640e-13,-8.07336e-01
8.28610e+02,4.71100e+03,1.74100e+03,2.97000e+03,2.60379e-13,-7.99791e-01,7.94261e-13,-7.99791e-01,7.86041e-13,-7.99791e-01
8.28859e+02,4.71300e+03,1.49500e+03,3.21800e+03,9.59249e-13,-7.92246e-01,1.85847e-12,-7.92246e-01,1.82775e-12,-7.92246e-01
8.29108e+02,3.94200e+03,2.03800e+03,1.90400e+03,1.23812e-12,-7.84701e-01,1.53020e-12,-7.84701e-01,2.02628e-12,-7.84701e-01
8.29356e+02,2.95300e+03,2.92900e+03,2.40000e+01,1.51276e-12,-7.77155e-01,1.20245e-12,-7.77155e-01,1.49823e-12,-7.77155e-01
8.29605e+02,1.85200e+03,3.64000e+03,-1.78800e+03,1.49833e-12,-7.69610e-01,1.13978e-12,-7.69610e-01,4.27061e-13,-7.69610e-01
8.29853e+02,1.30000e+03,3.77600e+03,-2.47600e+03,1.58078e-12,-7.62065e-01,3.91019e-13,-7.62065e-01,1.42211e-12,-7.62065e-01
8.30101e+02,1.30900e+03,3.51700e+03,-2.20800e+03,1.95269e-12,-7.54520e-01,4.30642e-13,-7.54520e-01,2.36304e-12,-7.54520e-01
8.30350e+02,1.97200e+03,2.82600e+03,-8.54000e+02,1.07749e-12,-7.46975e-01,2.77188e-13,-7.46975e-01,1.20136e-12,-7.46975e-01
8.30598e+02,2.47800e+03,1.80200e+03,6.76000e+02,3.76618e-13,-7.39429e-01,4.78520e-13,-7.39429e-01,5.17508e-13,-7.39429e-01
8.30847e+02,3.06200e+03,1.27900e+03,1.78300e+03,1.32598e-12,-7.31884e-01,9.08373e-13,-7.31884e-01,1.20124e-12,-7.31884e-01
8.31095e+02,3.27400e+03,1.13100e+03,2.14300e+03,1.52262e-12,-7.24339e-01,7.84969e-13,-7.24339e-01,8.25420e-13,-7.24339e-01
8.31344e+02,2.81200e+03,1.69300e+03,1.11900e+03,9.20166e-13,-7.16794e-01,1.24358e-12,-7.16794e-01,8.63925e-13,-7.16794e-01
8.31592e+02,2.00800e+03,2.14200e+03,-1.34000e+02,5.89605e-13,-7.09249e-01,1.69014e-12,-7.09249e-01,1.16683e-12,-7.09249e-01
8.31841e+02,1.29100e+03,2.49900e+03,-1.20800e+03,1.29877e-12,-7.01703e-01,1.59105e-12,-7.01703e-01,5.85025e-13,-7.01703e-01
8.32089e+02,9.24000e+02,2.82300e+03,-1.89900e+03,5.52747e-13,-6.94158e-01,7.21678e-13,-6.94158e-01,2.02430e-13,-6.94158e-01
8.32337e+02,1.01900e+03,2.68900e+03,-1.67000e+03,8.57725e-13,-6.86613e-01,6.51414e-13,-6.86613e-01,1.37890e-12,-6.86613e-01
8.32586e+02,1.31000e+03,1.91700e+03,-6.07000e+02,1.91625e-12,-6.79068e-01,1.97957e-12,-6.79068e-01,3.45453e-12,-6.79068e-01
8.32834e+02,1.93100e+03,1.44500e+03,4.86000e+02,1.89550e-12,-6.71523e-01,2.38523e-12,-6.71523e-01,3.76397e-12,-6.71523e-01
8.33083e+02,2.16000e+03,9.14000e+02,1.24600e+03,2.04047e-12,-6.63977e-01,1.62057e-12,-6.63977e-01,2.23851e-12,-6.63977e-01
8.33331e+02,2.24000e+03,9.09000e+02,1.33100e+03,2.35798e-12,-6.56432e-01,1.73414e-12,-6.56432e-01,6.43374e-13,-6.56432e-01
8.33579e+02,1.92600e+03,1.13200e+03,7.94000e+02,3.27351e-12,-6.48887e-01,2.73010e-12,-6.48887e-01,1.01852e-12,-6.48887e-01
8.33828e+02,1.48800e+03,1.54000e+03,-5.20000e+01,3.88528e-12,-6.41342e-01,3.39657e-12,-6.41342e-01,9.16408e-13,-6.41342e-01
8.34076e+02,9.88000e+02,1.64900e+03,-6.61000e+02,3.80492e-12,-6.33797e-01,3.70545e-12,-6.33797e-01,1.10899e-13,-6.33797e-01
8.34324e+02,7.64000e+02,1.87800e+03,-1.11400e+03,3.32722e-12,-6.26251e-01,3.45497e-12,-6.26251e-01,2.83610e-13,-6.26251e-01
8.34573e+02,7.59000e+02,1.75300e+03,-9.94000e+02,3.27110e-12,-6.18706e-01,3.38077e-12,-6.18706e-01,1.10545e-13,-6.18706e-01
8.34821e+02,9.44000e+02,1.47500e+03,-5.31000e+02,3.00311e-12,-6.11161e-01,3.12489e-12,-6.11161e-01,5.20596e-13,-6.11161e-01
8.35069e+02,1.19100e+03,9.96000e+02,1.95000e+02,2.15640e-12,-6.03616e-01,2.20696e-12,-6.03616e-01,8.25753e-13,-6.03616e-01
8.35318e+02,1.57100e+03,8.46000e+02,7.25000e+02,1.23954e-12,-5.96071e-01,9.63189e-13,-5.96071e-01,7.59272e-13,-5.96071e-01
8.35566e+02,1.45200e+03,6.91000e+02,7.61000e+02,1.33480e-12,-5.88525e-01,6.21489e-13,-5.88525e-01,1.04082e-12,-5.88525e-01
8.35814e+02,1.33700e+03,7.87000e+02,5.50000e+02,1.25576e-12,-5.80980e-01,2.34385e-13,-5.80980e-01,1.12822e-12,-5.80980e-01
8.36062e+02,9.93000e+02,8.73000e+02,1.20000e+02,7.54973e-13,-5.73435e-01,1.12749e-12,-5.73435e-01,1.58124e-12,-5.73435e-01
8.36311e+02,7.89000e+02,1.09400e+03,-3.05000e+02,5.18165e-13,-5.65890e-01,1.42523e-12,-5.65890e-01,1.70889e-12,-5.65890e-01
8.36559e+02,6.76000e+02,1.22400e+03,-5.48000e+02,1.64488e-12,-5.58345e-01,6.03471e-13,-5.58345e-01,1.29149e-12,-5.58345e-01
8.36807e+02,6.85000e+02,1.29500e+03,-6.10000e+02,1.64336e-12,-5.50799e-01,5.91468e-13,-5.50799e-01,2.03995e-12,-5.50799e-01
8.37055e+02,7.45000e+02,1.08500e+03,-3.40000e+02,1.23169e-12,-5.43254e-01,1.91199e-12,-5.43254e-01,3.09177e-12,-5.43254e-01
8.37304e+02,8.83000e+02,8.41000e+02,4.20000e+01,1.78283e-12,-5.35709e-01,2.60890e-12,-5.35709e-01,3.64174e-12,-5.35709e-01
8.37552e+02,9.33000e+02,6.93000e+02,2.40000e+02,1.44187e-12,-5.28164e-01,1.91663e-12,-5.28164e-01,2.04527e-12,-5.28164e-01
8.37800e+02,1.04500e+03,6.85000e+02,3.60000e+02,1.89422e-12,-5.20619e-01,1.23333e-12,-5.20619e-01,7.41015e-13,-5.20619e-01
8.38048e+02,8.69000e+02,6.49000e+02,2.20000e+02,2.66518e-12,-5.13073e-01,6.33020e-13,-5.13073e-01,2.09269e-12,-5.13073e-01
8.38296e+02,8.12000e+02,7.37000e+02,7.50000e+01,2.61403e-12,-5.05528e-01,2.33380e-13,-5.05528e-01,2.43275e-12,-5.05528e-01
8.38545e+02,6.90000e+02,8.13000e+02,-1.23000e+02,1.54425e-12,-4.97983e-01,3.04862e-13,-4.97983e-01,1.52364e-12,-4.97983e-01
8.38793e+02,6.54000e+02,8.54000e+02,-2.00000e+02,1.38927e-12,-4.90438e-01,1.46023e-12,-4.90438e-01,1.93900e-12,-4.90438e-01
8.39041e+02,6.48000e+02,7.86000e+02,-1.38000e+02,2.97569e-12,-4.82893e-01,2.89386e-12,-4.82893e-01,3.25682e-12,-4.82893e-01
8.39289e+02,6.64000e+02,7.46000e+02,-8.20000e+01,3.40473e-12,-4.75347e-01,2.37479e-12,-4.75347e-01,1.77493e-12,-4.75347e-01
8.39537e+02,6.91000e+02,6.80000e+02,1.10000e+01,3.94541e-12,-4.67802e-01,1.02134e-12,-4.67802e-01,4.19565e-12,-4.67802e-01
8.39785e+02,7.41000e+02,6.48000e+02,9.30000e+01,4.20888e-12,-4.60257e-01,2.17703e-12,-4.60257e-01,5.75180e-12,-4.60257e-01
8.40033e+02,7.46000e+02,6.31000e+02,1.15000e+02,2.60794e-12,-4.52712e-01,3.24891e-12,-4.52712e-01,3.49537e-12,-4.52712e-01
8.40281e+02,7.69000e+02,6.67000e+02,1.02000e+02,1.31502e-12,-4.45167e-01,3.46982e-12,-4.45167e-01,2.35345e-12,-4.45167e-01
8.40530e+02,6.80000e+02,6.48000e+02,3.20000e+01,2.69914e-12,-4.37621e-01,1.02557e-12,-4.37621e-01,3.57927e-12,-4.37621e-01
8.40778e+02,6.57000e+02,6.97000e+02,-4.00000e+01,2.93158e-12,-4.30076e-01,2.94327e-12,-4.30076e-01,4.72634e-12,-4.30076e-01
8.41026e+02,6.34000e+02,6.93000e+02,-5.90000e+01,1.83997e-12,-4.22531e-01,2.89618e-12,-4.22531e-01,2.91901e-12,-4.22531e-01
8.41274e+02,6.30000e+02,6.98000e+02,-6.80000e+01,1.29995e-12,-4.14986e-01,1.06429e-12,-4.14986e-01,1.06951e-12,-4.14986e-01
8.41522e+02,6.33000e+02,6.76000e+02,-4.30000e+01,1.36498e-12,-4.07441e-01,1.34033e-12,-4.07441e-01,2.65340e-12,-4.07441e-01
8.41770e+02,6.51000e+02,6.53000e+02,-2.00000e+00,3.00001e-12,-3.99895e-01,1.10404e-12,-3.99895e-01,4.10099e-12,-3.99895e-01
8.42018e+02,6.48000e+02,6.51000e+02,-3.00000e+00,3.70755e-12,-3.92350e-01,2.28385e-12,-3.92350e-01,5.17882e-12,-3.92350e-01
8.42266e+02,6.73000e+02,6.33000e+02,4.00000e+01,1.86763e-12,-3.84805e-01,2.06436e-12,-3.84805e-01,3.04033e-12,-3.84805e-01
8.42514e+02,6.66000e+02,6.37000e+02,2.90000e+01,1.40276e-12,-3.77260e-01,7.01700e-13,-3.77260e-01,1.32216e-12,-3.77260e-01
8.42762e+02,6.78000e+02,6.73000e+02,5.00000e+00,2.44424e-12,-3.69715e-01,3.54768e-12,-3.69715e-01,3.15613e-12,-3.69715e-01
8.43010e+02,6.24000e+02,6.22000e+02,2.00000e+00,2.43768e-12,-3.62169e-01,5.87322e-12,-3.62169e-01,6.53139e-12,-3.62169e-01
8.43258e+02,6.32000e+02,6.42000e+02,-1.00000e+01,4.44946e-12,-3.54624e-01,4.48157e-12,-3.54624e-01,7.43141e-12,-3.54624e-01
8.43506e+02,6.29000e+02,6.58000e+02,-2.90000e+01,6.88883e-12,-3.47079e-01,2.64525e-12,-3.47079e-01,9.51564e-12,-3.47079e-01
8.43754e+02,6.30000e+02,6.49000e+02,-1.90000e+01,9.28649e-12,-3.39534e-01,5.24762e-12,-3.39534e-01,1.43390e-11,-3.39534e-01
8.44002e+02,6.41000e+02,6.40000e+02,1.00000e+00,7.24155e-12,-3.31989e-01,9.76393e-12,-3.31989e-01,1.69946e-11,-3.31989e-01
8.44250e+02,6.49000e+02,6.41000e+02,8.00000e+00,2.92523e-11,-3.24444e-01,2.71364e-11,-3.24444e-01,5.46106e-11,-3.24444e-01
8.44498e+02,6.39000e+02,6.22000e+02,1.70000e+01,7.47586e-11,-3.16898e-01,6.65022e-11,-3.16898e-01,1.39040e-10,-3.16898e-01
8.44746e+02,6.49000e+02,6.38000e+02,1.10000e+01,9.50349e-11,-3.09353e-01,8.93827e-11,-3.09353e-01,1.82117e-10,-3.09353e-01
8.44994e+02,6.46000e+02,6.30000e+02,1.60000e+01,7.16450e-11,-3.01808e-01,7.31815e-11,-3.01808e-01,1.43271e-10,-3.01808e-01
8.45242e+02,6.68000e+02,6.63000e+02,5.00000e+00,4.09886e-11,-2.94263e-01,4.40193e-11,-2.94263e-01,8.43663e-11,-2.94263e-01
8.45490e+02,6.11000e+02,6.11000e+02,0.00000e+00,1.86525e-11,-2.86718e-01,1.94002e-11,-2.86718e-01,3.76026e-11,-2.86718e-01
8.45738e+02,6.31000e+02,6.34000e+02,-3.00000e+00,2.30304e-12,-2.79172e-01,2.99828e-12,-2.79172e-01,3.91324e-12,-2.79172e-01
8.45985e+02,6.36000e+02,6.36000e+02,0.00000e+00,1.81898e-12,-2.71627e-01,3.76695e-12,-2.71627e-01,5.30555e-12,-2.71627e-01
8.46233e+02,6.41000e+02,6.32000e+02,9.00000e+00,1.84414e-12,-2.64082e-01,1.73690e-12,-2.64082e-01,3.38134e-12,-2.64082e-01
8.46481e+02,6.21000e+02,6.33000e+02,-1.20000e+01,1.55910e-12,-2.56537e-01,2.94891e-12,-2.56537e-01,4.15566e-12,-2.56537e-01
8.46729e+02,6.44000e+02,6.32000e+02,1.20000e+01,3.79432e-12,-2.48992e-01,3.94748e-12,-2.48992e-01,2.53069e-12,-2.48992e-01
8.46977e+02,6.37000e+02,6.42000e+02,-5.00000e+00,3.48359e-12,-2.41446e-01,5.19930e-12,-2.41446e-01,2.29379e-12,-2.41446e-01
8.47225e+02,6.28000e+02,6.26000e+02,2.00000e+00,1.86108e-12,-2.33901e-01,4.87128e-12,-2.33901e-01,4.54973e-12,-2.33901e-01
8.47473e+02,6.23000e+02,6.40000e+02,-1.70000e+01,3.04956e-12,-2.26356e-01,2.28708e-12,-2.26356e-01,4.59752e-12,-2.26356e-01
8.47720e+02,6.69000e+02,6.64000e+02,5.00000e+00,2.47661e-12,-2.18811e-01,1.90896e-12,-2.18811e-01,3.84769e-12,-2.18811e-01
8.47968e+02,6.18000e+02,6.22000e+02,-4.00000e+00,2.19080e-12,-2.11266e-01,3.48012e-12,-2.11266e-01,2.48306e-12,-2.11266e-01
8.48216e+02,6.26000e+02,6.29000e+02,-3.00000e+00,2.03454e-12,-2.03720e-01,2.06987e-12,-2.03720e-01,3.05463e-13,-2.03720e-01
8.48464e+02,6.32000e+02,6.35000e+02,-3.00000e+00,1.46777e-12,-1.96175e-01,1.45389e-12,-1.96175e-01,4.39632e-13,-1.96175e-01
8.48712e+02,6.41000e+02,6.32000e+02,9.00000e+00,1.97880e-12,-1.88630e-01,1.68299e-12,-1.88630e-01,1.73674e-12,-1.88630e-01
8.48960e+02,6.38000e+02,6.30000e+02,8.00000e+00,3.25902e-12,-1.81085e-01,1.94266e-12,-1.81085e-01,1.68635e-12,-1.81085e-01
8.49207e+02,6.30000e+02,6.50000e+02,-2.00000e+01,3.87517e-12,-1.73540e-01,4.57902e-12,-1.73540e-01,2.01923e-12,-1.73540e-01
8.49455e+02,6.33000e+02,6.42000e+02,-9.00000e+00,4.33911e-12,-1.65994e-01,4.60775e-12,-1.65994e-01,5.40300e-12,-1.65994e-01
8.49703e+02,6.20000e+02,6.28000e+02,-8.00000e+00,5.93800e-12,-1.58449e-01,1.57760e-12,-1.58449e-01,4.54540e-12,-1.58449e-01
8.49951e+02,6.28000e+02,6.42000e+02,-1.40000e+01,6.43887e-12,-1.50904e-01,5.25335e-12,-1.50904e-01,1.33054e-12,-1.50904e-01
8.50198e+02,6.53000e+02,6.65000e+02,-1.20000e+01,3.64532e-12,-1.43359e-01,4.77981e-12,-1.43359e-01,2.23230e-12,-1.43359e-01
8.50446e+02,6.17000e+02,6.06000e+02,1.10000e+01,2.78990e-12,-1.35814e-01,3.02906e-12,-1.35814e-01,3.90207e-12,-1.35814e-01
8.50694e+02,6.36000e+02,6.37000e+02,-1.00000e+00,3.76098e-12,-1.28268e-01,2.27741e-12,-1.28268e-01,5.03665e-12,-1.28268e-01
8.50941e+02,6.34000e+02,6.25000e+02,9.00000e+00,2.97092e-12,-1.20723e-01,1.14348e-12,-1.20723e-01,1.92127e-12,-1.20723e-01
8.51189e+02,6.33000e+02,6.09000e+02,2.40000e+01,7.98927e-13,-1.13178e-01,3.12335e-12,-1.13178e-01,2.52205e-12,-1.13178e-01
8.51437e+02,6.29000e+02,6.29000e+02,0.00000e+00,1.80861e-12,-1.05633e-01,4.62992e-12,-1.05633e-01,4.16839e-12,-1.05633e-01
8.51685e+02,6.26000e+02,6.21000e+02,5.00000e+00,2.16723e-12,-9.80876e-02,5.05825e-12,-9.80876e-02,4.18465e-12,-9.80876e-02
8.51932e+02,6.30000e+02,6.22000e+02,8.00000e+00,8.62482e-13,-9.05424e-02,3.24908e-12,-9.05424e-02,2.48319e-12,-9.05424e-02
8.52180e+02,6.17000e+02,6.27000e+02,-1.00000e+01,5.34739e-13,-8.29972e-02,7.08398e-13,-8.29972e-02,1.23987e-12,-8.29972e-02
8.52428e+02,6.28000e+02,6.44000e+02,-1.60000e+01,2.15805e-12,-7.54520e-02,2.61109e-12,-7.54520e-02,4.26882e-12,-7.54520e-02
8.52675e+02,6.49000e+02,6.62000e+02,-1.30000e+01,5.77661e-12,-6.79068e-02,5.20291e-12,-6.79068e-02,3.83457e-12,-6.79068e-02
8.52923e+02,6.18000e+02,6.06000e+02,1.20000e+01,7.68770e-12,-6.03616e-02,9.56109e-12,-6.03616e-02,2.82698e-12,-6.03616e-02
8.53170e+02,6.29000e+02,6.24000e+02,5.00000e+00,7.63230e-12,-5.28164e-02,1.15718e-11,-5.28164e-02,4.01734e-12,-5.28164e-02
8.53418e+02,6.27000e+02,6.28000e+02,-1.00000e+00,4.90611e-12,-4.52712e-02,7.71337e-12,-4.52712e-02,2.90740e-12,-4.52712e-02
8.53666e+02,6.39000e+02,6.18000e+02,2.10000e+01,2.27654e-12,-3.77260e-02,1.76299e-12,-3.77260e-02,1.36654e-12,-3.77260e-02
8.53913e+02,6.33000e+02,6.36000e+02,-3.00000e+00,3.20116e-12,-3.01808e-02,3.47905e-13,-3.01808e-02,3.50785e-12,-3.01808e-02
8.54161e+02,6.40000e+02,6.16000e+02,2.40000e+01,1.80645e-11,-2.26356e-02,1.57180e-11,-2.26356e-02,2.44302e-12,-2.26356e-02
8.54409e+02,6.29000e+02,6.29000e+02,0.00000e+00,8.37200e-11,-1.50904e-02,8.05924e-11,-1.50904e-02,5.14268e-12,-1.50904e-02
8.54656e+02,6.43000e+02,6.26000e+02,1.70000e+01,2.36581e-10,-7.54520e-03,2.30348e-10,-7.54520e-03,8.06386e-12,-7.54520e-03
