7.67698e+02,6.30000e+02,6.44000e+02,-1.40000e+01,3.86090e-10,0.00000e+00,3.86185e-10,0.00000e+00,9.44490e-14,0.00000e+00
7.67949e+02,6.43000e+02,6.70000e+02,-2.70000e+01,2.27833e-10,7.54520e-03,2.27387e-10,7.54520e-03,3.21859e-12,7.54520e-03
7.68199e+02,6.12000e+02,6.20000e+02,-8.00000e+00,7.84434e-11,1.50904e-02,7.61618e-11,1.50904e-02,2.37985e-12,1.50904e-02
7.68450e+02,6.24000e+02,6.41000e+02,-1.70000e+01,1.36901e-11,2.26356e-02,1.04479e-11,2.26356e-02,3.25134e-12,2.26356e-02
7.68701e+02,6.20000e+02,6.45000e+02,-2.50000e+01,2.79523e-12,3.01808e-02,5.06743e-12,3.01808e-02,3.27319e-12,3.01808e-02
7.68951e+02,6.24000e+02,6.28000e+02,-4.00000e+00,2.10652e-12,3.77260e-02,3.97886e-12,3.77260e-02,4.06420e-12,3.77260e-02
7.69202e+02,6.31000e+02,6.34000e+02,-3.00000e+00,4.32096e-12,4.52712e-02,4.11557e-12,4.52712e-02,6.90016e-13,4.52712e-02
7.69453e+02,6.30000e+02,6.35000e+02,-5.00000e+00,5.24139e-12,5.28164e-02,1.48853e-11,5.28164e-02,1.10816e-11,5.28164e-02
7.69703e+02,6.37000e+02,6.20000e+02,1.70000e+01,6.79423e-13,6.03616e-02,1.55829e-11,6.03616e-02,1.51620e-11,6.03616e-02
7.69954e+02,6.43000e+02,6.37000e+02,6.00000e+00,6.90419e-12,6.79068e-02,6.39078e-12,6.79068e-02,1.18199e-11,6.79068e-02
7.70205e+02,6.42000e+02,6.17000e+02,2.50000e+01,2.29770e-11,7.54520e-02,2.36633e-11,7.54520e-02,4.62769e-11,7.54520e-02
7.70455e+02,6.96000e+02,6.51000e+02,4.50000e+01,8.88882e-11,8.29972e-02,9.17191e-11,8.29972e-02,1.77954e-10,8.29972e-02
7.70706e+02,6.55000e+02,6.07000e+02,4.80000e+01,1.38935e-10,9.05424e-02,1.38195e-10,9.05424e-02,2.73041e-10,9.05424e-02
7.70957e+02,6.89000e+02,6.28000e+02,6.10000e+01,1.02852e-10,9.80876e-02,9.93794e-11,9.80876e-02,1.99522e-10,9.80876e-02
7.71207e+02,6.80000e+02,6.07000e+02,7.30000e+01,3.70168e-11,1.05633e-01,3.23289e-11,1.05633e-01,6.80723e-11,1.05633e-01
7.71458e+02,7.13000e+02,6.34000e+02,7.90000e+01,4.53312e-12,1.13178e-01,3.16827e-12,1.13178e-01,2.56336e-12,1.13178e-01
7.71708e+02,7.12000e+02,6.36000e+02,7.60000e+01,4.38875e-12,1.20723e-01,1.28770e-11,1.20723e-01,1.72483e-11,1.20723e-01
7.71959e+02,7.19000e+02,6.34000e+02,8.50000e+01,2.78521e-12,1.28268e-01,9.24653e-12,1.28268e-01,1.18538e-11,1.28268e-01
7.72210e+02,7.04000e+02,6.40000e+02,6.40000e+01,4.51585e-12,1.35814e-01,2.71494e-12,1.35814e-01,5.84553e-12,1.35814e-01
7.72460e+02,7.16000e+02,6.65000e+02,5.10000e+01,4.38226e-12,1.43359e-01,7.02232e-12,1.43359e-01,1.14040e-11,1.43359e-01
7.72711e+02,6.98000e+02,6.56000e+02,4.20000e+01,5.24640e-12,1.50904e-01,8.73811e-12,1.50904e-01,1.24730e-11,1.50904e-01
7.72961e+02,7.25000e+02,7.20000e+02,5.00000e+00,5.25779e-12,1.58449e-01,3.89503e-12,1.58449e-01,8.99611e-12,1.58449e-01
7.73212e+02,6.56000e+02,6.71000e+02,-1.50000e+01,5.67199e-12,1.65994e-01,7.66422e-12,1.65994e-01,6.05955e-12,1.65994e-01
7.73462e+02,6.49000e+02,6.99000e+02,-5.00000e+01,7.50182e-12,1.73540e-01,1.09471e-11,1.73540e-01,4.26416e-12,1.73540e-01
7.73713e+02,6.40000e+02,7.14000e+02,-7.40000e+01,8.39779e-12,1.81085e-01,1.01512e-11,1.81085e-01,2.88969e-12,1.81085e-01
7.73963e+02,6.43000e+02,7.38000e+02,-9.50000e+01,8.73861e-12,1.88630e-01,7.34250e-12,1.88630e-01,3.21441e-12,1.88630e-01
7.74214e+02,6.38000e+02,7.43000e+02,-1.05000e+02,5.64289e-12,1.96175e-01,4.76057e-12,1.96175e-01,3.04295e-12,1.96175e-01
7.74465e+02,6.37000e+02,7.89000e+02,-1.52000e+02,1.85615e-12,2.03720e-01,4.47381e-12,2.03720e-01,3.37801e-12,2.03720e-01
7.74715e+02,6.20000e+02,7.78000e+02,-1.58000e+02,2.48013e-12,2.11266e-01,4.76220e-12,2.11266e-01,3.00734e-12,2.11266e-01
7.74965e+02,6.25000e+02,8.17000e+02,-1.92000e+02,1.92155e-12,2.18811e-01,2.79130e-12,2.18811e-01,1.31232e-12,2.18811e-01
7.75216e+02,6.29000e+02,7.72000e+02,-1.43000e+02,8.23300e-13,2.26356e-01,2.48598e-12,2.26356e-01,1.86595e-12,2.26356e-01
7.75466e+02,6.50000e+02,8.50000e+02,-2.00000e+02,8.43360e-13,2.33901e-01,3.28168e-12,2.33901e-01,2.49917e-12,2.33901e-01
7.75717e+02,6.25000e+02,7.59000e+02,-1.34000e+02,2.47011e-12,2.41446e-01,4.86154e-12,2.41446e-01,5.47961e-12,2.41446e-01
7.75967e+02,6.18000e+02,8.08000e+02,-1.90000e+02,2.93909e-12,2.48992e-01,3.28666e-12,2.48992e-01,1.91260e-12,2.48992e-01
7.76218e+02,6.28000e+02,7.72000e+02,-1.44000e+02,1.51672e-12,2.56537e-01,3.93829e-12,2.56537e-01,5.29024e-12,2.56537e-01
7.76468e+02,6.36000e+02,7.62000e+02,-1.26000e+02,3.52789e-12,2.64082e-01,6.45068e-12,2.64082e-01,9.53845e-12,2.64082e-01
7.76719e+02,6.54000e+02,7.13000e+02,-5.90000e+01,3.82977e-12,2.71627e-01,6.57395e-12,2.71627e-01,9.79710e-12,2.71627e-01
7.76969e+02,6.88000e+02,7.02000e+02,-1.40000e+01,2.74202e-12,2.79172e-01,3.92264e-12,2.79172e-01,6.65546e-12,2.79172e-01
7.77219e+02,7.40000e+02,6.78000e+02,6.20000e+01,1.20153e-12,2.86718e-01,2.20756e-12,2.86718e-01,2.63547e-12,2.86718e-01
7.77470e+02,8.58000e+02,6.77000e+02,1.81000e+02,1.85731e-12,2.94263e-01,2.00588e-12,2.94263e-01,8.21073e-13,2.94263e-01
7.77720e+02,9.03000e+02,6.44000e+02,2.59000e+02,3.29695e-12,3.01808e-01,1.52242e-12,3.01808e-01,2.11610e-12,3.01808e-01
7.77971e+02,1.07300e+03,6.77000e+02,3.96000e+02,3.68887e-12,3.09353e-01,1.51655e-12,3.09353e-01,2.17336e-12,3.09353e-01
7.78221e+02,1.02000e+03,6.18000e+02,4.02000e+02,1.68760e-12,3.16898e-01,1.98650e-12,3.16898e-01,5.82721e-13,3.16898e-01
7.78471e+02,1.16000e+03,6.41000e+02,5.19000e+02,5.95142e-13,3.24444e-01,1.87812e-12,3.24444e-01,1.52703e-12,3.24444e-01
7.78722e+02,1.15300e+03,6.29000e+02,5.24000e+02,8.75591e-13,3.31989e-01,9.99640e-13,3.31989e-01,1.61606e-12,3.31989e-01
7.78972e+02,1.31100e+03,6.53000e+02,6.58000e+02,3.28004e-13,3.39534e-01,2.56155e-12,3.39534e-01,2.86367e-12,3.39534e-01
7.79222e+02,1.40500e+03,6.67000e+02,7.38000e+02,1.26285e-12,3.47079e-01,4.46658e-12,3.47079e-01,3.66731e-12,3.47079e-01
7.79473e+02,1.48200e+03,7.02000e+02,7.80000e+02,2.48136e-12,3.54624e-01,4.31780e-12,3.54624e-01,2.84211e-12,3.54624e-01
7.79723e+02,1.38700e+03,7.32000e+02,6.55000e+02,3.80169e-12,3.62169e-01,4.20786e-12,3.62169e-01,2.56012e-12,3.62169e-01
7.79973e+02,1.43800e+03,8.73000e+02,5.65000e+02,3.37783e-12,3.69715e-01,3.14073e-12,3.69715e-01,7.90673e-13,3.69715e-01
7.80224e+02,1.30400e+03,9.39000e+02,3.65000e+02,1.56129e-12,3.77260e-01,1.28766e-12,3.77260e-01,1.55012e-12,3.77260e-01
7.80474e+02,1.32900e+03,1.15800e+03,1.71000e+02,1.73381e-12,3.84805e-01,1.56360e-12,3.84805e-01,2.29961e-12,3.84805e-01
7.80724e+02,1.10500e+03,1.12300e+03,-1.80000e+01,1.53549e-12,3.92350e-01,2.02132e-12,3.92350e-01,2.05425e-12,3.92350e-01
7.80974e+02,1.04200e+03,1.35900e+03,-3.17000e+02,4.38599e-13,3.99895e-01,8.55610e-13,3.99895e-01,1.28286e-12,3.99895e-01
7.81225e+02,9.63000e+02,1.56000e+03,-5.97000e+02,4.58586e-13,4.07441e-01,1.07362e-12,4.07441e-01,9.19041e-13,4.07441e-01
7.81475e+02,9.56000e+02,1.88900e+03,-9.33000e+02,1.03645e-12,4.14986e-01,1.04071e-12,4.14986e-01,1.86033e-12,4.14986e-01
7.81725e+02,7.86000e+02,1.87200e+03,-1.08600e+03,1.16845e-12,4.22531e-01,5.01631e-13,4.22531e-01,1.16956e-12,4.22531e-01
7.81975e+02,7.35000e+02,2.09600e+03,-1.36100e+03,1.08834e-12,4.30076e-01,1.57753e-12,4.30076e-01,1.24778e-12,4.30076e-01
7.82226e+02,6.59000e+02,2.05100e+03,-1.39200e+03,5.11957e-13,4.37621e-01,1.89183e-12,4.37621e-01,1.38470e-12,4.37621e-01
7.82476e+02,6.56000e+02,2.04800e+03,-1.39200e+03,1.66528e-12,4.45167e-01,1.56339e-12,4.45167e-01,2.32552e-12,4.45167e-01
7.82726e+02,6.34000e+02,2.00300e+03,-1.36900e+03,2.58579e-12,4.52712e-01,1.22199e-12,4.52712e-01,3.46118e-12,4.52712e-01
7.82976e+02,6.92000e+02,1.87800e+03,-1.18600e+03,2.36575e-12,4.60257e-01,4.76247e-13,4.60257e-01,2.70243e-12,4.60257e-01
7.83226e+02,6.53000e+02,1.68800e+03,-1.03500e+03,9.94314e-13,4.67802e-01,7.70823e-13,4.67802e-01,2.51902e-13,4.67802e-01
7.83477e+02,7.25000e+02,1.70900e+03,-9.84000e+02,1.48956e-12,4.75347e-01,2.06338e-12,4.75347e-01,2.64131e-12,4.75347e-01
7.83727e+02,8.15000e+02,1.58600e+03,-7.71000e+02,9.58572e-13,4.82893e-01,2.80378e-12,4.82893e-01,3.24231e-12,4.82893e-01
7.83977e+02,1.08900e+03,1.55000e+03,-4.61000e+02,2.71700e-13,4.90438e-01,2.23856e-12,4.90438e-01,1.96701e-12,4.90438e-01
7.84227e+02,1.29300e+03,1.35000e+03,-5.70000e+01,9.58742e-13,4.97983e-01,1.23955e-12,4.97983e-01,1.11939e-12,4.97983e-01
7.84477e+02,1.70800e+03,1.29700e+03,4.11000e+02,1.64195e-12,5.05528e-01,1.28120e-12,5.05528e-01,1.44356e-12,5.05528e-01
7.84727e+02,1.80000e+03,1.04400e+03,7.56000e+02,1.48934e-12,5.13073e-01,1.32813e-12,5.13073e-01,2.17689e-12,5.13073e-01
7.84978e+02,2.21200e+03,9.62000e+02,1.25000e+03,9.76934e-13,5.20619e-01,1.79743e-12,5.20619e-01,2.62798e-12,5.20619e-01
7.85228e+02,2.75200e+03,7.83000e+02,1.96900e+03,2.22079e-12,5.28164e-01,2.32008e-12,5.28164e-01,1.79284e-12,5.28164e-01
7.85478e+02,3.28100e+03,7.41000e+02,2.54000e+03,2.92050e-12,5.35709e-01,1.46529e-12,5.35709e-01,1.47247e-12,5.35709e-01
7.85728e+02,3.70800e+03,6.64000e+02,3.04400e+03,2.50304e-12,5.43254e-01,7.28952e-13,5.43254e-01,2.70775e-12,5.43254e-01
7.85978e+02,3.94600e+03,6.85000e+02,3.26100e+03,1.40326e-12,5.50799e-01,1.14435e-12,5.50799e-01,2.54679e-12,5.50799e-01
7.86228e+02,3.85300e+03,7.08000e+02,3.14500e+03,6.34155e-13,5.58345e-01,1.75850e-12,5.58345e-01,2.34912e-12,5.58345e-01
7.86478e+02,3.81600e+03,8.20000e+02,2.99600e+03,9.90308e-13,5.65890e-01,1.09038e-12,5.65890e-01,1.62259e-12,5.65890e-01
7.86728e+02,3.76100e+03,9.72000e+02,2.78900e+03,1.12279e-12,5.73435e-01,8.61977e-13,5.73435e-01,5.06197e-13,5.73435e-01
7.86978e+02,3.53700e+03,1.18900e+03,2.34800e+03,1.33551e-12,5.80980e-01,1.34863e-12,5.80980e-01,1.73816e-14,5.80980e-01
7.87228e+02,3.52100e+03,1.47500e+03,2.04600e+03,1.73715e-12,5.88525e-01,1.40467e-12,5.88525e-01,7.52673e-13,5.88525e-01
7.87478e+02,3.35000e+03,1.88500e+03,1.46500e+03,1.94039e-12,5.96071e-01,1.69530e-12,5.96071e-01,1.28624e-12,5.96071e-01
7.87728e+02,2.99600e+03,2.25000e+03,7.46000e+02,1.18189e-12,6.03616e-01,1.72557e-12,6.03616e-01,6.77954e-13,6.03616e-01
7.87978e+02,3.01100e+03,2.79900e+03,2.12000e+02,9.66592e-13,6.11161e-01,1.74915e-12,6.11161e-01,1.84226e-12,6.11161e-01
7.88228e+02,2.70400e+03,3.02800e+03,-3.24000e+02,1.55512e-12,6.18706e-01,1.35965e-12,6.18706e-01,2.80656e-12,6.18706e-01
7.88478e+02,2.53000e+03,3.62200e+03,-1.09200e+03,1.37550e-12,6.26251e-01,1.44005e-12,6.26251e-01,2.15511e-12,6.26251e-01
7.88728e+02,2.31100e+03,4.05900e+03,-1.74800e+03,1.45556e-12,6.33797e-01,2.00001e-12,6.33797e-01,9.68203e-13,6.33797e-01
7.88978e+02,1.89100e+03,4.20500e+03,-2.31400e+03,1.41174e-12,6.41342e-01,2.30649e-12,6.41342e-01,9.44469e-13,6.41342e-01
7.89228e+02,1.47400e+03,4.82100e+03,-3.34700e+03,1.06935e-12,6.48887e-01,2.42691e-12,6.48887e-01,1.50943e-12,6.48887e-01
7.89478e+02,1.26100e+03,5.25300e+03,-3.99200e+03,4.19442e-13,6.56432e-01,1.68270e-12,6.56432e-01,1.28372e-12,6.56432e-01
7.89728e+02,9.87000e+02,5.43500e+03,-4.44800e+03,5.38679e-13,6.63977e-01,1.09273e-12,6.63977e-01,7.48501e-13,6.63977e-01
7.89978e+02,8.65000e+02,5.53600e+03,-4.67100e+03,1.03908e-12,6.71523e-01,1.14072e-12,6.71523e-01,9.77994e-13,6.71523e-01
7.90228e+02,7.45000e+02,5.21200e+03,-4.46700e+03,1.34348e-12,6.79068e-01,9.27656e-13,6.79068e-01,1.31141e-12,6.79068e-01
7.90478e+02,8.26000e+02,5.17500e+03,-4.34900e+03,9.48616e-13,6.86613e-01,3.89229e-13,6.86613e-01,1.25717e-12,6.86613e-01
7.90728e+02,8.87000e+02,5.05900e+03,-4.17200e+03,6.15720e-13,6.94158e-01,9.36718e-13,6.94158e-01,6.13300e-13,6.94158e-01
7.90978e+02,1.19300e+03,5.14300e+03,-3.95000e+03,1.45018e-12,7.01703e-01,1.27914e-12,7.01703e-01,2.66488e-13,7.01703e-01
7.91228e+02,1.53600e+03,4.74400e+03,-3.20800e+03,1.07192e-12,7.09249e-01,1.00607e-12,7.09249e-01,4.28420e-13,7.09249e-01
7.91478e+02,2.03300e+03,3.99600e+03,-1.96300e+03,6.77339e-13,7.16794e-01,1.22406e-12,7.16794e-01,5.57818e-13,7.16794e-01
7.91728e+02,2.37300e+03,3.23300e+03,-8.60000e+02,6.85505e-13,7.24339e-01,1.37837e-12,7.24339e-01,7.98744e-13,7.24339e-01
7.91977e+02,2.83700e+03,2.72800e+03,1.09000e+02,6.21016e-13,7.31884e-01,9.14178e-13,7.31884e-01,7.53960e-13,7.31884e-01
7.92227e+02,3.27100e+03,2.12200e+03,1.14900e+03,9.39827e-13,7.39429e-01,5.91876e-14,7.39429e-01,8.85101e-13,7.39429e-01
7.92477e+02,4.30200e+03,1.90700e+03,2.39500e+03,1.12603e-12,7.46975e-01,5.04306e-13,7.46975e-01,9.33336e-13,7.46975e-01
7.92727e+02,5.21100e+03,1.66700e+03,3.54400e+03,8.35786e-13,7.54520e-01,1.38657e-13,7.54520e-01,6.97646e-13,7.54520e-01
7.92977e+02,5.82800e+03,1.37500e+03,4.45300e+03,1.85991e-13,7.62065e-01,8.52077e-13,7.62065e-01,8.44466e-13,7.62065e-01
7.93227e+02,5.77000e+03,9.47000e+02,4.82300e+03,7.54959e-13,7.69610e-01,1.45183e-12,7.69610e-01,8.02038e-13,7.69610e-01
7.93476e+02,6.20400e+03,8.77000e+02,5.32700e+03,1.13149e-12,7.77155e-01,1.01316e-12,7.77155e-01,4.89620e-13,7.77155e-01
7.93726e+02,6.84600e+03,8.81000e+02,5.96500e+03,1.42220e-12,7.84701e-01,2.99301e-13,7.84701e-01,1.14176e-12,7.84701e-01
7.93976e+02,7.70200e+03,1.03600e+03,6.66600e+03,1.48144e-12,7.92246e-01,6.48953e-13,7.92246e-01,1.27044e-12,7.92246e-01
7.94226e+02,8.00000e+03,1.32100e+03,6.67900e+03,9.71722e-13,7.99791e-01,1.78493e-13,7.99791e-01,1.07778e-12,7.99791e-01
7.94476e+02,8.07900e+03,1.96600e+03,6.11300e+03,5.77641e-13,8.07336e-01,2.89805e-13,8.07336e-01,4.32778e-13,8.07336e-01
7.94725e+02,7.19900e+03,2.33200e+03,4.86700e+03,1.06684e-12,8.14881e-01,4.84560e-13,8.14881e-01,7.74194e-13,8.14881e-01
7.94975e+02,6.86900e+03,3.13000e+03,3.73900e+03,1.54593e-12,8.22427e-01,4.93251e-13,8.22427e-01,1.06362e-12,8.22427e-01
7.95225e+02,6.37000e+03,3.84800e+03,2.52200e+03,1.74919e-12,8.29972e-01,8.07631e-13,8.29972e-01,9.47340e-13,8.29972e-01
7.95475e+02,5.96600e+03,4.62600e+03,1.34000e+03,1.97197e-12,8.37517e-01,6.75463e-13,8.37517e-01,1.81302e-12,8.37517e-01
7.95724e+02,5.05300e+03,5.31800e+03,-2.65000e+02,1.50519e-12,8.45062e-01,9.90482e-13,8.45062e-01,2.15608e-12,8.45062e-01
7.95974e+02,4.29700e+03,6.20300e+03,-1.90600e+03,6.59709e-13,8.52607e-01,1.00314e-12,8.52607e-01,1.33814e-12,8.52607e-01
7.96224e+02,3.62600e+03,6.99800e+03,-3.37200e+03,1.40300e-13,8.60153e-01,6.95276e-13,8.60153e-01,6.92412e-13,8.60153e-01
7.96474e+02,3.10800e+03,8.20100e+03,-5.09300e+03,4.45214e-13,8.67698e-01,6.99831e-13,8.67698e-01,2.64422e-13,8.67698e-01
7.96723e+02,2.31400e+03,8.26100e+03,-5.94700e+03,7.47810e-13,8.75243e-01,2.12108e-13,8.75243e-01,5.89999e-13,8.75243e-01
7.96973e+02,1.75800e+03,8.33900e+03,-6.58100e+03,5.20119e-13,8.82788e-01,5.19559e-13,8.82788e-01,8.97048e-13,8.82788e-01
7.97223e+02,1.31800e+03,9.16900e+03,-7.85100e+03,4.99289e-13,8.90333e-01,3.24914e-13,8.90333e-01,7.70080e-13,8.90333e-01
7.97472e+02,1.12600e+03,9.19200e+03,-8.06600e+03,7.34131e-13,8.97879e-01,2.81716e-13,8.97879e-01,1.00517e-12,8.97879e-01
7.97722e+02,1.07300e+03,9.94300e+03,-8.87000e+03,3.68337e-13,9.05424e-01,8.45735e-13,9.05424e-01,8.67918e-13,9.05424e-01
7.97972e+02,1.36500e+03,1.01460e+04,-8.78100e+03,7.73896e-13,9.12969e-01,1.19477e-12,9.12969e-01,6.83923e-13,9.12969e-01
7.98221e+02,1.86800e+03,9.41300e+03,-7.54500e+03,9.41230e-13,9.20514e-01,8.82810e-13,9.20514e-01,6.53969e-13,9.20514e-01
7.98471e+02,2.74000e+03,8.53300e+03,-5.79300e+03,1.10132e-12,9.28059e-01,1.03082e-12,9.28059e-01,3.77644e-13,9.28059e-01
7.98721e+02,3.88400e+03,7.86100e+03,-3.97700e+03,1.25095e-12,9.35605e-01,1.33656e-12,9.35605e-01,2.13595e-13,9.35605e-01
7.98970e+02,5.63200e+03,7.29800e+03,-1.66600e+03,6.35340e-13,9.43150e-01,1.16224e-12,9.43150e-01,5.27024e-13,9.43150e-01
7.99220e+02,7.05600e+03,6.04100e+03,1.01500e+03,6.83489e-13,9.50695e-01,1.11676e-12,9.50695e-01,5.30916e-13,9.50695e-01
7.99469e+02,7.69900e+03,4.37300e+03,3.32600e+03,6.31146e-13,9.58240e-01,1.03539e-12,9.58240e-01,4.04403e-13,9.58240e-01
7.99719e+02,8.37200e+03,3.11100e+03,5.26100e+03,1.39377e-13,9.65785e-01,5.64878e-13,9.65785e-01,4.64854e-13,9.65785e-01
7.99969e+02,9.30300e+03,2.25400e+03,7.04900e+03,4.63486e-13,9.73331e-01,6.67126e-13,9.73331e-01,1.11698e-12,9.73331e-01
8.00218e+02,1.07680e+04,1.65700e+03,9.11100e+03,5.74232e-13,9.80876e-01,5.86815e-13,9.80876e-01,1.10903e-12,9.80876e-01
8.00468e+02,1.17630e+04,1.35600e+03,1.04070e+04,8.85033e-13,9.88421e-01,6.14613e-13,9.88421e-01,3.47713e-13,9.88421e-01
8.00717e+02,1.19510e+04,1.24400e+03,1.07070e+04,7.98911e-13,9.95966e-01,1.30718e-12,9.95966e-01,9.39537e-13,9.95966e-01
8.00967e+02,1.23230e+04,1.49400e+03,1.08290e+04,5.16022e-13,1.00351e+00,1.15842e-12,1.00351e+00,1.62239e-12,1.00351e+00
8.01216e+02,1.32990e+04,2.10100e+03,1.11980e+04,9.19604e-13,1.01106e+00,5.78068e-13,1.01106e+00,1.42782e-12,1.01106e+00
8.01466e+02,1.38090e+04,2.91800e+03,1.08910e+04,7.00538e-13,1.01860e+00,9.46778e-13,1.01860e+00,1.15899e-12,1.01860e+00
8.01715e+02,1.34650e+04,4.04400e+03,9.42100e+03,2.77311e-13,1.02615e+00,9.50780e-13,1.02615e+00,8.64739e-13,1.02615e+00
8.01965e+02,1.22960e+04,5.32400e+03,6.97200e+03,2.67940e-13,1.03369e+00,6.66360e-13,1.03369e+00,4.20709e-13,1.03369e+00
8.02215e+02,1.12560e+04,6.58400e+03,4.67200e+03,4.02699e-13,1.04124e+00,7.33148e-13,1.04124e+00,6.61060e-13,1.04124e+00
8.02464e+02,1.03600e+04,8.46100e+03,1.89900e+03,6.03733e-13,1.04878e+00,8.34648e-13,1.04878e+00,1.05452e-12,1.04878e+00
8.02713e+02,9.36000e+03,1.01530e+04,-7.93000e+02,4.66527e-13,1.05633e+00,6.71951e-13,1.05633e+00,1.12737e-12,1.05633e+00
8.02963e+02,8.08700e+03,1.23160e+04,-4.22900e+03,9.10391e-13,1.06387e+00,5.80376e-13,1.06387e+00,7.47116e-13,1.06387e+00
8.03212e+02,6.81500e+03,1.40820e+04,-7.26700e+03,1.00763e-12,1.07142e+00,5.58470e-13,1.07142e+00,5.22583e-13,1.07142e+00
8.03462e+02,5.52900e+03,1.51460e+04,-9.61700e+03,9.43203e-13,1.07896e+00,2.48306e-13,1.07896e+00,6.94926e-13,1.07896e+00
8.03711e+02,4.01400e+03,1.53830e+04,-1.13690e+04,5.59598e-13,1.08651e+00,4.20104e-13,1.08651e+00,7.51684e-13,1.08651e+00
8.03961e+02,2.64200e+03,1.49020e+04,-1.22600e+04,4.87143e-13,1.09405e+00,6.81943e-13,1.09405e+00,3.88784e-13,1.09405e+00
8.04210e+02,1.80800e+03,1.39250e+04,-1.21170e+04,6.11320e-13,1.10160e+00,2.64155e-13,1.10160e+00,3.53086e-13,1.10160e+00
8.04460e+02,1.37200e+03,1.41010e+04,-1.27290e+04,7.43067e-13,1.10914e+00,3.66414e-13,1.10914e+00,8.31539e-13,1.10914e+00
8.04709e+02,1.36200e+03,1.45710e+04,-1.32090e+04,8.40767e-13,1.11669e+00,3.92010e-13,1.11669e+00,1.04676e-12,1.11669e+00
8.04958e+02,1.73800e+03,1.39890e+04,-1.22510e+04,4.63165e-13,1.12423e+00,4.18894e-13,1.12423e+00,8.80657e-13,1.12423e+00
8.05208e+02,2.38400e+03,1.32230e+04,-1.08390e+04,3.80907e-13,1.13178e+00,2.29989e-13,1.13178e+00,6.10059e-13,1.13178e+00
8.05457e+02,3.30500e+03,1.15560e+04,-8.25100e+03,4.53226e-13,1.13932e+00,5.10967e-13,1.13932e+00,5.38079e-13,1.13932e+00
8.05707e+02,4.65800e+03,1.08120e+04,-6.15400e+03,4.33525e-13,1.14687e+00,8.73210e-13,1.14687e+00,6.75848e-13,1.14687e+00
8.05956e+02,6.28000e+03,9.80000e+03,-3.52000e+03,3.50632e-13,1.15442e+00,8.78463e-13,1.15442e+00,6.76982e-13,1.15442e+00
8.06205e+02,7.45300e+03,7.67500e+03,-2.22000e+02,2.90324e-13,1.16196e+00,5.39561e-13,1.16196e+00,4.21205e-13,1.16196e+00
8.06455e+02,9.46500e+03,6.02400e+03,3.44100e+03,2.76568e-13,1.16951e+00,2.32618e-13,1.16951e+00,2.21121e-13,1.16951e+00
8.06704e+02,1.12200e+04,4.87500e+03,6.34500e+03,2.18095e-13,1.17705e+00,1.92912e-13,1.17705e+00,2.87679e-13,1.17705e+00
8.06953e+02,1.31130e+04,3.76600e+03,9.34700e+03,3.86525e-13,1.18460e+00,2.22039e-13,1.18460e+00,4.75259e-13,1.18460e+00
8.07203e+02,1.31570e+04,2.61800e+03,1.05390e+04,3.14617e-13,1.19214e+00,4.05655e-13,1.19214e+00,3.31022e-13,1.19214e+00
8.07452e+02,1.43110e+04,1.92000e+03,1.23910e+04,5.05602e-13,1.19969e+00,7.32349e-13,1.19969e+00,6.03279e-13,1.19969e+00
8.07701e+02,1.52390e+04,1.42000e+03,1.38190e+04,5.28838e-13,1.20723e+00,5.71919e-13,1.20723e+00,5.20083e-14,1.20723e+00
8.07951e+02,1.53580e+04,1.54900e+03,1.38090e+04,4.09391e-13,1.21478e+00,2.62763e-13,1.21478e+00,1.59810e-13,1.21478e+00
8.08200e+02,1.50020e+04,1.73100e+03,1.32710e+04,3.34623e-13,1.22232e+00,2.16189e-13,1.22232e+00,5.46305e-13,1.22232e+00
8.08449e+02,1.51070e+04,2.54000e+03,1.25670e+04,1.14841e-14,1.22987e+00,5.31713e-13,1.22987e+00,5.28642e-13,1.22987e+00
8.08698e+02,1.54640e+04,3.74700e+03,1.17170e+04,1.96973e-13,1.23741e+00,6.77277e-13,1.23741e+00,5.01042e-13,1.23741e+00
8.08948e+02,1.56220e+04,5.32800e+03,1.02940e+04,4.59170e-13,1.24496e+00,7.01460e-13,1.24496e+00,6.89727e-13,1.24496e+00
8.09197e+02,1.54780e+04,6.72300e+03,8.75500e+03,8.73188e-13,1.25250e+00,2.76089e-13,1.25250e+00,8.34282e-13,1.25250e+00
8.09446e+02,1.42190e+04,7.79400e+03,6.42500e+03,1.07902e-12,1.26005e+00,4.57983e-13,1.26005e+00,6.69475e-13,1.26005e+00
8.09695e+02,1.26960e+04,1.00110e+04,2.68500e+03,7.86118e-13,1.26759e+00,7.51749e-13,1.26759e+00,2.09584e-13,1.26759e+00
8.09945e+02,1.19100e+04,1.21040e+04,-1.94000e+02,2.02502e-13,1.27514e+00,6.37394e-13,1.27514e+00,7.24048e-13,1.27514e+00
8.10194e+02,1.04990e+04,1.33780e+04,-2.87900e+03,6.32910e-13,1.28268e+00,6.53203e-13,1.28268e+00,1.06132e-12,1.28268e+00
8.10443e+02,8.29000e+03,1.44160e+04,-6.12600e+03,7.02278e-13,1.29023e+00,5.18398e-13,1.29023e+00,8.78533e-13,1.29023e+00
8.10692e+02,6.44600e+03,1.53680e+04,-8.92200e+03,4.67515e-13,1.29777e+00,4.96987e-13,1.29777e+00,7.43135e-13,1.29777e+00
8.10941e+02,4.86000e+03,1.56840e+04,-1.08240e+04,4.42820e-13,1.30532e+00,5.20275e-13,1.30532e+00,8.84395e-13,1.30532e+00
8.11191e+02,3.43600e+03,1.56000e+04,-1.21640e+04,5.83588e-13,1.31286e+00,2.18092e-13,1.31286e+00,6.40159e-13,1.31286e+00
8.11440e+02,2.58200e+03,1.58240e+04,-1.32420e+04,1.49779e-12,-1.32041e+00,1.80927e-12,-1.32041e+00,3.11485e-13,-1.32041e+00
8.11689e+02,1.89500e+03,1.58490e+04,-1.39540e+04,5.83588e-13,-1.31286e+00,2.18092e-13,-1.31286e+00,6.40159e-13,-1.31286e+00
8.11938e+02,1.69500e+03,1.58970e+04,-1.42020e+04,4.42820e-13,-1.30532e+00,5.20275e-13,-1.30532e+00,8.84395e-13,-1.30532e+00
8.12187e+02,1.83500e+03,1.59150e+04,-1.40800e+04,4.67515e-13,-1.29777e+00,4.96987e-13,-1.29777e+00,7.43135e-13,-1.29777e+00
8.12436e+02,2.38400e+03,1.58570e+04,-1.34730e+04,7.02278e-13,-1.29023e+00,5.18398e-13,-1.29023e+00,8.78533e-13,-1.29023e+00
8.12685e+02,3.48300e+03,1.54830e+04,-1.20000e+04,6.32910e-13,-1.28268e+00,6.53203e-13,-1.28268e+00,1.06132e-12,-1.28268e+00
8.12935e+02,4.68600e+03,1.36330e+04,-8.94700e+03,2.02502e-13,-1.27514e+00,6.37394e-13,-1.27514e+00,7.24048e-13,-1.27514e+00
8.13184e+02,6.32000e+03,1.16410e+04,-5.32100e+03,7.86118e-13,-1.26759e+00,7.51749e-13,-1.26759e+00,2.09584e-13,-1.26759e+00
8.13433e+02,8.03800e+03,9.94900e+03,-1.91100e+03,1.07902e-12,-1.26005e+00,4.57983e-13,-1.26005e+00,6.69475e-13,-1.26005e+00
8.13682e+02,1.01140e+04,8.72400e+03,1.39000e+03,8.73188e-13,-1.25250e+00,2.76089e-13,-1.25250e+00,8.34282e-13,-1.25250e+00
8.13931e+02,1.23020e+04,7.11800e+03,5.18400e+03,4.59170e-13,-1.24496e+00,7.01460e-13,-1.24496e+00,6.89727e-13,-1.24496e+00
8.14180e+02,1.28640e+04,5.15700e+03,7.70700e+03,1.96973e-13,-1.23741e+00,6.77277e-13,-1.23741e+00,5.01042e-13,-1.23741e+00
8.14429e+02,1.42690e+04,3.82100e+03,1.04480e+04,1.14841e-14,-1.22987e+00,5.31713e-13,-1.22987e+00,5.28642e-13,-1.22987e+00
8.14678e+02,1.52690e+04,2.76000e+03,1.25090e+04,3.34623e-13,-1.22232e+00,2.16189e-13,-1.22232e+00,5.46305e-13,-1.22232e+00
8.14927e+02,1.51770e+04,1.86800e+03,1.33090e+04,4.09391e-13,-1.21478e+00,2.62763e-13,-1.21478e+00,1.59810e-13,-1.21478e+00
8.15176e+02,1.51710e+04,1.58000e+03,1.35910e+04,5.28838e-13,-1.20723e+00,5.71919e-13,-1.20723e+00,5.20083e-14,-1.20723e+00
8.15425e+02,1.49430e+04,1.77600e+03,1.31670e+04,5.05602e-13,-1.19969e+00,7.32349e-13,-1.19969e+00,6.03279e-13,-1.19969e+00
8.15674e+02,1.52460e+04,2.17700e+03,1.30690e+04,3.14617e-13,-1.19214e+00,4.05655e-13,-1.19214e+00,3.31022e-13,-1.19214e+00
8.15923e+02,1.56440e+04,3.27300e+03,1.23710e+04,3.86525e-13,-1.18460e+00,2.22039e-13,-1.18460e+00,4.75259e-13,-1.18460e+00
8.16172e+02,1.55190e+04,4.40100e+03,1.11180e+04,2.18095e-13,-1.17705e+00,1.92912e-13,-1.17705e+00,2.87679e-13,-1.17705e+00
8.16421e+02,1.40080e+04,5.53300e+03,8.47500e+03,2.76568e-13,-1.16951e+00,2.32618e-13,-1.16951e+00,2.21121e-13,-1.16951e+00
8.16670e+02,1.16330e+04,6.69200e+03,4.94100e+03,2.90324e-13,-1.16196e+00,5.39561e-13,-1.16196e+00,4.21205e-13,-1.16196e+00
8.16919e+02,1.10460e+04,8.71100e+03,2.33500e+03,3.50632e-13,-1.15442e+00,8.78463e-13,-1.15442e+00,6.76982e-13,-1.15442e+00
8.17168e+02,9.28000e+03,9.25200e+03,2.80000e+01,4.33525e-13,-1.14687e+00,8.73210e-13,-1.14687e+00,6.75848e-13,-1.14687e+00
8.17417e+02,7.75800e+03,1.02070e+04,-2.44900e+03,4.53226e-13,-1.13932e+00,5.10967e-13,-1.13932e+00,5.38079e-13,-1.13932e+00
8.17666e+02,6.63700e+03,1.17970e+04,-5.16000e+03,3.80907e-13,-1.13178e+00,2.29989e-13,-1.13178e+00,6.10059e-13,-1.13178e+00
8.17915e+02,5.18800e+03,1.27020e+04,-7.51400e+03,4.63165e-13,-1.12423e+00,4.18894e-13,-1.12423e+00,8.80657e-13,-1.12423e+00
8.18164e+02,3.61800e+03,1.26120e+04,-8.99400e+03,8.40767e-13,-1.11669e+00,3.92010e-13,-1.11669e+00,1.04676e-12,-1.11669e+00
8.18413e+02,2.61600e+03,1.26540e+04,-1.00380e+04,7.43067e-13,-1.10914e+00,3.66414e-13,-1.10914e+00,8.31539e-13,-1.10914e+00
8.18662e+02,1.83700e+03,1.14920e+04,-9.65500e+03,6.11320e-13,-1.10160e+00,2.64155e-13,-1.10160e+00,3.53086e-13,-1.10160e+00
8.18911e+02,1.45200e+03,1.23290e+04,-1.08770e+04,4.87143e-13,-1.09405e+00,6.81943e-13,-1.09405e+00,3.88784e-13,-1.09405e+00
8.19160e+02,1.38900e+03,1.14610e+04,-1.00720e+04,5.59598e-13,-1.08651e+00,4.20104e-13,-1.08651e+00,7.51684e-13,-1.08651e+00
8.19408e+02,1.53900e+03,1.11570e+04,-9.61800e+03,9.43203e-13,-1.07896e+00,2.48306e-13,-1.07896e+00,6.94926e-13,-1.07896e+00
8.19657e+02,2.06200e+03,1.14650e+04,-9.40300e+03,1.00763e-12,-1.07142e+00,5.58470e-13,-1.07142e+00,5.22583e-13,-1.07142e+00
8.19906e+02,2.90400e+03,1.16390e+04,-8.73500e+03,9.10391e-13,-1.06387e+00,5.80376e-13,-1.06387e+00,7.47116e-13,-1.06387e+00
8.20155e+02,3.87300e+03,1.09080e+04,-7.03500e+03,4.66527e-13,-1.05633e+00,6.71951e-13,-1.05633e+00,1.12737e-12,-1.05633e+00
8.20404e+02,4.70700e+03,8.72400e+03,-4.01700e+03,6.03733e-13,-1.04878e+00,8.34648e-13,-1.04878e+00,1.05452e-12,-1.04878e+00
8.20653e+02,5.59100e+03,6.45700e+03,-8.66000e+02,4.02699e-13,-1.04124e+00,7.33148e-13,-1.04124e+00,6.61060e-13,-1.04124e+00
8.20901e+02,6.86800e+03,5.48300e+03,1.38500e+03,2.67940e-13,-1.03369e+00,6.66360e-13,-1.03369e+00,4.20709e-13,-1.03369e+00
8.21150e+02,8.58600e+03,4.64700e+03,3.93900e+03,2.77311e-13,-1.02615e+00,9.50780e-13,-1.02615e+00,8.64739e-13,-1.02615e+00
8.21399e+02,8.33200e+03,3.11700e+03,5.21500e+03,7.00538e-13,-1.01860e+00,9.46778e-13,-1.01860e+00,1.15899e-12,-1.01860e+00
8.21648e+02,9.69000e+03,2.30600e+03,7.38400e+03,9.19604e-13,-1.01106e+00,5.78068e-13,-1.01106e+00,1.42782e-12,-1.01106e+00
8.21897e+02,1.02840e+04,1.79300e+03,8.49100e+03,5.16022e-13,-1.00351e+00,1.15842e-12,-1.00351e+00,1.62239e-12,-1.00351e+00
8.22145e+02,9.70000e+03,1.35100e+03,8.34900e+03,7.98911e-13,-9.95966e-01,1.30718e-12,-9.95966e-01,9.39537e-13,-9.95966e-01
8.22394e+02,1.02510e+04,1.28300e+03,8.96800e+03,8.85033e-13,-9.88421e-01,6.14613e-13,-9.88421e-01,3.47713e-13,-9.88421e-01
8.22643e+02,1.09920e+04,1.37600e+03,9.61600e+03,5.74232e-13,-9.80876e-01,5.86815e-13,-9.80876e-01,1.10903e-12,-9.80876e-01
8.22892e+02,1.05650e+04,1.79700e+03,8.76800e+03,4.63486e-13,-9.73331e-01,6.67126e-13,-9.73331e-01,1.11698e-12,-9.73331e-01
8.23140e+02,1.05270e+04,2.22100e+03,8.30600e+03,1.39377e-13,-9.65785e-01,5.64878e-13,-9.65785e-01,4.64854e-13,-9.65785e-01
8.23389e+02,1.02600e+04,3.05900e+03,7.20100e+03,6.31146e-13,-9.58240e-01,1.03539e-12,-9.58240e-01,4.04403e-13,-9.58240e-01
8.23638e+02,9.49700e+03,3.93200e+03,5.56500e+03,6.83489e-13,-9.50695e-01,1.11676e-12,-9.50695e-01,5.30916e-13,-9.50695e-01
8.23887e+02,7.83100e+03,4.70300e+03,3.12800e+03,6.35340e-13,-9.43150e-01,1.16224e-12,-9.43150e-01,5.27024e-13,-9.43150e-01
8.24135e+02,6.65200e+03,5.34800e+03,1.30400e+03,1.25095e-12,-9.35605e-01,1.33656e-12,-9.35605e-01,2.13595e-13,-9.35605e-01
8.24384e+02,5.83700e+03,6.22500e+03,-3.88000e+02,1.10132e-12,-9.28059e-01,1.03082e-12,-9.28059e-01,3.77644e-13,-9.28059e-01
8.24633e+02,4.95500e+03,7.54500e+03,-2.59000e+03,9.41230e-13,-9.20514e-01,8.82810e-13,-9.20514e-01,6.53969e-13,-9.20514e-01
8.24881e+02,3.91600e+03,8.44000e+03,-4.52400e+03,7.73896e-13,-9.12969e-01,1.19477e-12,-9.12969e-01,6.83923e-13,-9.12969e-01
8.25130e+02,3.02600e+03,9.46100e+03,-6.43500e+03,3.68337e-13,-9.05424e-01,8.45735e-13,-9.05424e-01,8.67918e-13,-9.05424e-01
8.25379e+02,2.23400e+03,1.03350e+04,-8.10100e+03,7.34131e-13,-8.97879e-01,2.81716e-13,-8.97879e-01,1.00517e-12,-8.97879e-01
8.25627e+02,1.48000e+03,9.36400e+03,-7.88400e+03,4.99289e-13,-8.90333e-01,3.24914e-13,-8.90333e-01,7.70080e-13,-8.90333e-01
8.25876e+02,1.04900e+03,8.79200e+03,-7.74300e+03,5.20119e-13,-8.82788e-01,5.19559e-13,-8.82788e-01,8.97048e-13,-8.82788e-01
8.26125e+02,8.64000e+02,8.54800e+03,-7.68400e+03,7.47810e-13,-8.75243e-01,2.12108e-13,-8.75243e-01,5.89999e-13,-8.75243e-01
8.26373e+02,9.34000e+02,7.31800e+03,-6.38400e+03,4.45214e-13,-8.67698e-01,6.99831e-13,-8.67698e-01,2.64422e-13,-8.67698e-01
8.26622e+02,1.02700e+03,6.27600e+03,-5.24900e+03,1.40300e-13,-8.60153e-01,6.95276e-13,-8.60153e-01,6.92412e-13,-8.60153e-01
8.26870e+02,1.29500e+03,5.12500e+03,-3.83000e+03,6.59709e-13,-8.52607e-01,1.00314e-12,-8.52607e-01,1.33814e-12,-8.52607e-01
8.27119e+02,1.58600e+03,4.68600e+03,-3.10000e+03,1.50519e-12,-8.45062e-01,9.90482e-13,-8.45062e-01,2.15608e-12,-8.45062e-01
8.27368e+02,2.12500e+03,4.62700e+03,-2.50200e+03,1.97197e-12,-8.37517e-01,6.75463e-13,-8.37517e-01,1.81302e-12,-8.37517e-01
8.27616e+02,2.36200e+03,3.86900e+03,-1.50700e+03,1.74919e-12,-8.29972e-01,8.07631e-13,-8.29972e-01,9.47340e-13,-8.29972e-01
8.27865e+02,2.89800e+03,3.20300e+03,-3.05000e+02,1.54593e-12,-8.22427e-01,4.93251e-13,-8.22427e-01,1.06362e-12,-8.22427e-01
8.28113e+02,3.72300e+03,2.87300e+03,8.50000e+02,1.06684e-12,-8.14881e-01,4.84560e-13,-8.14881e-01,7.74194e-13,-8.14881e-01
8.28362e+02,4.34000e+03,2.38600e+03,1.95400e+03,5.77641e-13,-8.07336e-01,2.89805e-13,-8.07336e-01,4.32778e-13,-8.07336e-01
8.28610e+02,4.43300e+03,1.67800e+03,2.75500e+03,9.71722e-13,-7.99791e-01,1.78493e-13,-7.99791e-01,1.07778e-12,-7.99791e-01
8.28859e+02,4.70900e+03,1.25700e+03,3.45200e+03,1.48144e-12,-7.92246e-01,6.48953e-13,-7.92246e-01,1.27044e-12,-7.92246e-01
8.29108e+02,4.61700e+03,9.10000e+02,3.70700e+03,1.42220e-12,-7.84701e-01,2.99301e-13,-7.84701e-01,1.14176e-12,-7.84701e-01
8.29356e+02,4.28500e+03,7.79000e+02,3.50600e+03,1.13149e-12,-7.77155e-01,1.01316e-12,-7.77155e-01,4.89620e-13,-7.77155e-01
8.29605e+02,4.11500e+03,7.14000e+02,3.40100e+03,7.54959e-13,-7.69610e-01,1.45183e-12,-7.69610e-01,8.02038e-13,-7.69610e-01
8.29853e+02,3.85100e+03,7.42000e+02,3.10900e+03,1.85991e-13,-7.62065e-01,8.52077e-13,-7.62065e-01,8.44466e-13,-7.62065e-01
8.30101e+02,3.82500e+03,7.81000e+02,3.04400e+03,8.35786e-13,-7.54520e-01,1.38657e-13,-7.54520e-01,6.97646e-13,-7.54520e-01
8.30350e+02,3.91800e+03,1.00100e+03,2.91700e+03,1.12603e-12,-7.46975e-01,5.04306e-13,-7.46975e-01,9.33336e-13,-7.46975e-01
8.30598e+02,3.36400e+03,1.10400e+03,2.26000e+03,9.39827e-13,-7.39429e-01,5.91876e-14,-7.39429e-01,8.85101e-13,-7.39429e-01
8.30847e+02,3.08100e+03,1.38900e+03,1.69200e+03,6.21016e-13,-7.31884e-01,9.14178e-13,-7.31884e-01,7.53960e-13,-7.31884e-01
8.31095e+02,3.00300e+03,1.69400e+03,1.30900e+03,6.85505e-13,-7.24339e-01,1.37837e-12,-7.24339e-01,7.98744e-13,-7.24339e-01
8.31344e+02,2.59500e+03,2.02000e+03,5.75000e+02,6.77339e-13,-7.16794e-01,1.22406e-12,-7.16794e-01,5.57818e-13,-7.16794e-01
8.31592e+02,2.14300e+03,2.17600e+03,-3.30000e+01,1.07192e-12,-7.09249e-01,1.00607e-12,-7.09249e-01,4.28420e-13,-7.09249e-01
8.31841e+02,1.76400e+03,2.20900e+03,-4.45000e+02,1.45018e-12,-7.01703e-01,1.27914e-12,-7.01703e-01,2.66488e-13,-7.01703e-01
8.32089e+02,1.44300e+03,2.45000e+03,-1.00700e+03,6.15720e-13,-6.94158e-01,9.36718e-13,-6.94158e-01,6.13300e-13,-6.94158e-01
8.32337e+02,1.22700e+03,2.65100e+03,-1.42400e+03,9.48616e-13,-6.86613e-01,3.89229e-13,-6.86613e-01,1.25717e-12,-6.86613e-01
8.32586e+02,9.14000e+02,2.51000e+03,-1.59600e+03,1.34348e-12,-6.79068e-01,9.27656e-13,-6.79068e-01,1.31141e-12,-6.79068e-01
8.32834e+02,8.48000e+02,2.76000e+03,-1.91200e+03,1.03908e-12,-6.71523e-01,1.14072e-12,-6.71523e-01,9.77994e-13,-6.71523e-01
8.33083e+02,7.07000e+02,2.73200e+03,-2.02500e+03,5.38679e-13,-6.63977e-01,1.09273e-12,-6.63977e-01,7.48501e-13,-6.63977e-01
8.33331e+02,6.76000e+02,2.50200e+03,-1.82600e+03,4.19442e-13,-6.56432e-01,1.68270e-12,-6.56432e-01,1.28372e-12,-6.56432e-01
8.33579e+02,6.38000e+02,2.41400e+03,-1.77600e+03,1.06935e-12,-6.48887e-01,2.42691e-12,-6.48887e-01,1.50943e-12,-6.48887e-01
8.33828e+02,6.63000e+02,2.27100e+03,-1.60800e+03,1.41174e-12,-6.41342e-01,2.30649e-12,-6.41342e-01,9.44469e-13,-6.41342e-01
8.34076e+02,6.71000e+02,1.94500e+03,-1.27400e+03,1.45556e-12,-6.33797e-01,2.00001e-12,-6.33797e-01,9.68203e-13,-6.33797e-01
8.34324e+02,6.96000e+02,1.95700e+03,-1.26100e+03,1.37550e-12,-6.26251e-01,1.44005e-12,-6.26251e-01,2.15511e-12,-6.26251e-01
8.34573e+02,7.16000e+02,1.72700e+03,-1.01100e+03,1.55512e-12,-6.18706e-01,1.35965e-12,-6.18706e-01,2.80656e-12,-6.18706e-01
8.34821e+02,7.90000e+02,1.56000e+03,-7.70000e+02,9.66592e-13,-6.11161e-01,1.74915e-12,-6.11161e-01,1.84226e-12,-6.11161e-01
8.35069e+02,8.38000e+02,1.33000e+03,-4.92000e+02,1.18189e-12,-6.03616e-01,1.72557e-12,-6.03616e-01,6.77954e-13,-6.03616e-01
8.35318e+02,1.01900e+03,1.31800e+03,-2.99000e+02,1.94039e-12,-5.96071e-01,1.69530e-12,-5.96071e-01,1.28624e-12,-5.96071e-01
8.35566e+02,1.02900e+03,1.01400e+03,1.50000e+01,1.73715e-12,-5.88525e-01,1.40467e-12,-5.88525e-01,7.52673e-13,-5.88525e-01
8.35814e+02,1.14500e+03,9.10000e+02,2.35000e+02,1.33551e-12,-5.80980e-01,1.34863e-12,-5.80980e-01,1.73816e-14,-5.80980e-01
8.36062e+02,1.11200e+03,7.46000e+02,3.66000e+02,1.12279e-12,-5.73435e-01,8.61977e-13,-5.73435e-01,5.06197e-13,-5.73435e-01
8.36311e+02,1.20700e+03,7.01000e+02,5.06000e+02,9.90308e-13,-5.65890e-01,1.09038e-12,-5.65890e-01,1.62259e-12,-5.65890e-01
8.36559e+02,1.27100e+03,6.60000e+02,6.11000e+02,6.34155e-13,-5.58345e-01,1.75850e-12,-5.58345e-01,2.34912e-12,-5.58345e-01
8.36807e+02,1.35200e+03,6.60000e+02,6.92000e+02,1.40326e-12,-5.50799e-01,1.14435e-12,-5.50799e-01,2.54679e-12,-5.50799e-01
8.37055e+02,1.27700e+03,6.38000e+02,6.39000e+02,2.50304e-12,-5.43254e-01,7.28952e-13,-5.43254e-01,2.70775e-12,-5.43254e-01
8.37304e+02,1.25600e+03,6.40000e+02,6.16000e+02,2.92050e-12,-5.35709e-01,1.46529e-12,-5.35709e-01,1.47247e-12,-5.35709e-01
8.37552e+02,1.13800e+03,6.32000e+02,5.06000e+02,2.22079e-12,-5.28164e-01,2.32008e-12,-5.28164e-01,1.79284e-12,-5.28164e-01
8.37800e+02,1.12200e+03,6.71000e+02,4.51000e+02,9.76934e-13,-5.20619e-01,1.79743e-12,-5.20619e-01,2.62798e-12,-5.20619e-01
8.38048e+02,9.29000e+02,6.25000e+02,3.04000e+02,1.48934e-12,-5.13073e-01,1.32813e-12,-5.13073e-01,2.17689e-12,-5.13073e-01
8.38296e+02,9.03000e+02,6.66000e+02,2.37000e+02,1.64195e-12,-5.05528e-01,1.28120e-12,-5.05528e-01,1.44356e-12,-5.05528e-01
8.38545e+02,8.50000e+02,6.69000e+02,1.81000e+02,9.58742e-13,-4.97983e-01,1.23955e-12,-4.97983e-01,1.11939e-12,-4.97983e-01
8.38793e+02,7.97000e+02,6.97000e+02,1.00000e+02,2.71700e-13,-4.90438e-01,2.23856e-12,-4.90438e-01,1.96701e-12,-4.90438e-01
8.39041e+02,7.20000e+02,6.73000e+02,4.70000e+01,9.58572e-13,-4.82893e-01,2.80378e-12,-4.82893e-01,3.24231e-12,-4.82893e-01
8.39289e+02,7.05000e+02,6.90000e+02,1.50000e+01,1.48956e-12,-4.75347e-01,2.06338e-12,-4.75347e-01,2.64131e-12,-4.75347e-01
8.39537e+02,6.70000e+02,7.17000e+02,-4.70000e+01,9.94314e-13,-4.67802e-01,7.70823e-13,-4.67802e-01,2.51902e-13,-4.67802e-01
8.39785e+02,6.72000e+02,7.36000e+02,-6.40000e+01,2.36575e-12,-4.60257e-01,4.76247e-13,-4.60257e-01,2.70243e-12,-4.60257e-01
8.40033e+02,6.56000e+02,7.29000e+02,-7.30000e+01,2.58579e-12,-4.52712e-01,1.22199e-12,-4.52712e-01,3.46118e-12,-4.52712e-01
8.40281e+02,6.91000e+02,8.03000e+02,-1.12000e+02,1.66528e-12,-4.45167e-01,1.56339e-12,-4.45167e-01,2.32552e-12,-4.45167e-01
8.40530e+02,6.32000e+02,7.36000e+02,-1.04000e+02,5.11957e-13,-4.37621e-01,1.89183e-12,-4.37621e-01,1.38470e-12,-4.37621e-01
8.40778e+02,6.38000e+02,7.69000e+02,-1.31000e+02,1.08834e-12,-4.30076e-01,1.57753e-12,-4.30076e-01,1.24778e-12,-4.30076e-01
8.41026e+02,6.30000e+02,7.28000e+02,-9.80000e+01,1.16845e-12,-4.22531e-01,5.01631e-13,-4.22531e-01,1.16956e-12,-4.22531e-01
8.41274e+02,6.29000e+02,7.22000e+02,-9.30000e+01,1.03645e-12,-4.14986e-01,1.04071e-12,-4.14986e-01,1.86033e-12,-4.14986e-01
8.41522e+02,6.21000e+02,7.08000e+02,-8.70000e+01,4.58586e-13,-4.07441e-01,1.07362e-12,-4.07441e-01,9.19041e-13,-4.07441e-01
8.41770e+02,6.23000e+02,7.05000e+02,-8.20000e+01,4.38599e-13,-3.99895e-01,8.55610e-13,-3.99895e-01,1.28286e-12,-3.99895e-01
8.42018e+02,6.22000e+02,6.68000e+02,-4.60000e+01,1.53549e-12,-3.92350e-01,2.02132e-12,-3.92350e-01,2.05425e-12,-3.92350e-01
8.42266e+02,6.35000e+02,6.81000e+02,-4.60000e+01,1.73381e-12,-3.84805e-01,1.56360e-12,-3.84805e-01,2.29961e-12,-3.84805e-01
8.42514e+02,6.32000e+02,6.67000e+02,-3.50000e+01,1.56129e-12,-3.77260e-01,1.28766e-12,-3.77260e-01,1.55012e-12,-3.77260e-01
8.42762e+02,6.56000e+02,6.86000e+02,-3.00000e+01,3.37783e-12,-3.69715e-01,3.14073e-12,-3.69715e-01,7.90673e-13,-3.69715e-01
8.43010e+02,6.41000e+02,6.26000e+02,1.50000e+01,3.80169e-12,-3.62169e-01,4.20786e-12,-3.62169e-01,2.56012e-12,-3.62169e-01
8.43258e+02,6.49000e+02,6.35000e+02,1.40000e+01,2.48136e-12,-3.54624e-01,4.31780e-12,-3.54624e-01,2.84211e-12,-3.54624e-01
8.43506e+02,6.61000e+02,6.38000e+02,2.30000e+01,1.26285e-12,-3.47079e-01,4.46658e-12,-3.47079e-01,3.66731e-12,-3.47079e-01
8.43754e+02,6.67000e+02,6.27000e+02,4.00000e+01,3.28004e-13,-3.39534e-01,2.56155e-12,-3.39534e-01,2.86367e-12,-3.39534e-01
8.44002e+02,6.41000e+02,6.35000e+02,6.00000e+00,8.75591e-13,-3.31989e-01,9.99640e-13,-3.31989e-01,1.61606e-12,-3.31989e-01
8.44250e+02,6.61000e+02,6.43000e+02,1.80000e+01,5.95142e-13,-3.24444e-01,1.87812e-12,-3.24444e-01,1.52703e-12,-3.24444e-01
8.44498e+02,6.50000e+02,6.30000e+02,2.00000e+01,1.68760e-12,-3.16898e-01,1.98650e-12,-3.16898e-01,5.82721e-13,-3.16898e-01
8.44746e+02,6.46000e+02,6.40000e+02,6.00000e+00,3.68887e-12,-3.09353e-01,1.51655e-12,-3.09353e-01,2.17336e-12,-3.09353e-01
8.44994e+02,6.47000e+02,6.19000e+02,2.80000e+01,3.29695e-12,-3.01808e-01,1.52242e-12,-3.01808e-01,2.11610e-12,-3.01808e-01
8.45242e+02,6.64000e+02,6.66000e+02,-2.00000e+00,1.85731e-12,-2.94263e-01,2.00588e-12,-2.94263e-01,8.21073e-13,-2.94263e-01
8.45490e+02,6.29000e+02,6.20000e+02,9.00000e+00,1.20153e-12,-2.86718e-01,2.20756e-12,-2.86718e-01,2.63547e-12,-2.86718e-01
8.45738e+02,6.46000e+02,6.45000e+02,1.00000e+00,2.74202e-12,-2.79172e-01,3.92264e-12,-2.79172e-01,6.65546e-12,-2.79172e-01
8.45985e+02,6.36000e+02,6.39000e+02,-3.00000e+00,3.82977e-12,-2.71627e-01,6.57395e-12,-2.71627e-01,9.79710e-12,-2.71627e-01
8.46233e+02,6.42000e+02,6.28000e+02,1.40000e+01,3.52789e-12,-2.64082e-01,6.45068e-12,-2.64082e-01,9.53845e-12,-2.64082e-01
8.46481e+02,6.24000e+02,6.28000e+02,-4.00000e+00,1.51672e-12,-2.56537e-01,3.93829e-12,-2.56537e-01,5.29024e-12,-2.56537e-01
8.46729e+02,6.46000e+02,6.29000e+02,1.70000e+01,2.93909e-12,-2.48992e-01,3.28666e-12,-2.48992e-01,1.91260e-12,-2.48992e-01
8.46977e+02,6.34000e+02,6.16000e+02,1.80000e+01,2.47011e-12,-2.41446e-01,4.86154e-12,-2.41446e-01,5.47961e-12,-2.41446e-01
8.47225e+02,6.29000e+02,6.26000e+02,3.00000e+00,8.43360e-13,-2.33901e-01,3.28168e-12,-2.33901e-01,2.49917e-12,-2.33901e-01
8.47473e+02,6.27000e+02,6.22000e+02,5.00000e+00,8.23300e-13,-2.26356e-01,2.48598e-12,-2.26356e-01,1.86595e-12,-2.26356e-01
8.47720e+02,6.55000e+02,6.61000e+02,-6.00000e+00,1.92155e-12,-2.18811e-01,2.79130e-12,-2.18811e-01,1.31232e-12,-2.18811e-01
8.47968e+02,6.17000e+02,6.15000e+02,2.00000e+00,2.48013e-12,-2.11266e-01,4.76220e-12,-2.11266e-01,3.00734e-12,-2.11266e-01
8.48216e+02,6.35000e+02,6.35000e+02,0.00000e+00,1.85615e-12,-2.03720e-01,4.47381e-12,-2.03720e-01,3.37801e-12,-2.03720e-01
8.48464e+02,6.28000e+02,6.36000e+02,-8.00000e+00,5.64289e-12,-1.96175e-01,4.76057e-12,-1.96175e-01,3.04295e-12,-1.96175e-01
8.48712e+02,6.37000e+02,6.40000e+02,-3.00000e+00,8.73861e-12,-1.88630e-01,7.34250e-12,-1.88630e-01,3.21441e-12,-1.88630e-01
8.48960e+02,6.25000e+02,6.27000e+02,-2.00000e+00,8.39779e-12,-1.81085e-01,1.01512e-11,-1.81085e-01,2.88969e-12,-1.81085e-01
8.49207e+02,6.45000e+02,6.36000e+02,9.00000e+00,7.50182e-12,-1.73540e-01,1.09471e-11,-1.73540e-01,4.26416e-12,-1.73540e-01
8.49455e+02,6.27000e+02,6.21000e+02,6.00000e+00,5.67199e-12,-1.65994e-01,7.66422e-12,-1.65994e-01,6.05955e-12,-1.65994e-01
8.49703e+02,6.40000e+02,6.38000e+02,2.00000e+00,5.25779e-12,-1.58449e-01,3.89503e-12,-1.58449e-01,8.99611e-12,-1.58449e-01
8.49951e+02,6.30000e+02,6.28000e+02,2.00000e+00,5.24640e-12,-1.50904e-01,8.73811e-12,-1.50904e-01,1.24730e-11,-1.50904e-01
8.50198e+02,6.67000e+02,6.54000e+02,1.30000e+01,4.38226e-12,-1.43359e-01,7.02232e-12,-1.43359e-01,1.14040e-11,-1.43359e-01
8.50446e+02,6.20000e+02,6.07000e+02,1.30000e+01,4.51585e-12,-1.35814e-01,2.71494e-12,-1.35814e-01,5.84553e-12,-1.35814e-01
8.50694e+02,6.39000e+02,6.44000e+02,-5.00000e+00,2.78521e-12,-1.28268e-01,9.24653e-12,-1.28268e-01,1.18538e-11,-1.28268e-01
8.50941e+02,6.35000e+02,6.30000e+02,5.00000e+00,4.38875e-12,-1.20723e-01,1.28770e-11,-1.20723e-01,1.72483e-11,-1.20723e-01
8.51189e+02,6.37000e+02,6.31000e+02,6.00000e+00,4.53312e-12,-1.13178e-01,3.16827e-12,-1.13178e-01,2.56336e-12,-1.13178e-01
8.51437e+02,6.35000e+02,6.20000e+02,1.50000e+01,3.70168e-11,-1.05633e-01,3.23289e-11,-1.05633e-01,6.80723e-11,-1.05633e-01
8.51685e+02,6.37000e+02,6.29000e+02,8.00000e+00,1.02852e-10,-9.80876e-02,9.93794e-11,-9.80876e-02,1.99522e-10,-9.80876e-02
8.51932e+02,6.24000e+02,6.33000e+02,-9.00000e+00,1.38935e-10,-9.05424e-02,1.38195e-10,-9.05424e-02,2.73041e-10,-9.05424e-02
8.52180e+02,6.39000e+02,6.38000e+02,1.00000e+00,8.88882e-11,-8.29972e-02,9.17191e-11,-8.29972e-02,1.77954e-10,-8.29972e-02
8.52428e+02,6.14000e+02,6.21000e+02,-7.00000e+00,2.29770e-11,-7.54520e-02,2.36633e-11,-7.54520e-02,4.62769e-11,-7.54520e-02
8.52675e+02,6.46000e+02,6.67000e+02,-2.10000e+01,6.90419e-12,-6.79068e-02,6.39078e-12,-6.79068e-02,1.18199e-11,-6.79068e-02
8.52923e+02,6.19000e+02,6.20000e+02,-1.00000e+00,6.79423e-13,-6.03616e-02,1.55829e-11,-6.03616e-02,1.51620e-11,-6.03616e-02
8.53170e+02,6.32000e+02,6.40000e+02,-8.00000e+00,5.24139e-12,-5.28164e-02,1.48853e-11,-5.28164e-02,1.10816e-11,-5.28164e-02
8.53418e+02,6.28000e+02,6.29000e+02,-1.00000e+00,4.32096e-12,-4.52712e-02,4.11557e-12,-4.52712e-02,6.90016e-13,-4.52712e-02
8.53666e+02,6.42000e+02,6.34000e+02,8.00000e+00,2.10652e-12,-3.77260e-02,3.97886e-12,-3.77260e-02,4.06420e-12,-3.77260e-02
8.53913e+02,6.35000e+02,6.32000e+02,3.00000e+00,2.79523e-12,-3.01808e-02,5.06743e-12,-3.01808e-02,3.27319e-12,-3.01808e-02
8.54161e+02,6.30000e+02,6.31000e+02,-1.00000e+00,1.36901e-11,-2.26356e-02,1.04479e-11,-2.26356e-02,3.25134e-12,-2.26356e-02
8.54409e+02,6.22000e+02,6.28000e+02,-6.00000e+00,7.84434e-11,-1.50904e-02,7.61618e-11,-1.50904e-02,2.37985e-12,-1.50904e-02
8.54656e+02,6.24000e+02,6.38000e+02,-1.40000e+01,2.27833e-10,-7.54520e-03,2.27387e-10,-7.54520e-03,3.21859e-12,-7.54520e-03
