7.67698e+02,6.22000e+02,6.24000e+02,-2.00000e+00,3.83676e-10,0.00000e+00,3.87167e-10,0.00000e+00,3.49080e-12,0.00000e+00
7.67949e+02,6.74000e+02,6.61000e+02,1.30000e+01,2.26319e-10,7.54520e-03,2.28791e-10,7.54520e-03,5.75321e-12,7.54520e-03
7.68199e+02,6.07000e+02,6.32000e+02,-2.50000e+01,7.65310e-11,1.50904e-02,7.86627e-11,1.50904e-02,8.47668e-12,1.50904e-02
7.68450e+02,6.16000e+02,6.46000e+02,-3.00000e+01,1.03289e-11,2.26356e-02,1.64329e-11,2.26356e-02,7.32705e-12,2.26356e-02
7.68701e+02,6.18000e+02,6.40000e+02,-2.20000e+01,2.93073e-12,3.01808e-02,2.12785e-12,3.01808e-02,4.43664e-12,3.01808e-02
7.68951e+02,6.37000e+02,6.52000e+02,-1.50000e+01,2.18495e-12,3.77260e-02,3.00758e-12,3.77260e-02,4.93479e-12,3.77260e-02
7.69202e+02,6.33000e+02,6.27000e+02,6.00000e+00,7.44598e-12,4.52712e-02,5.77038e-12,4.52712e-02,3.47424e-12,4.52712e-02
7.69453e+02,6.36000e+02,6.32000e+02,4.00000e+00,1.16329e-11,5.28164e-02,7.91945e-12,5.28164e-02,3.83566e-12,5.28164e-02
7.69703e+02,6.41000e+02,6.33000e+02,8.00000e+00,8.26391e-12,6.03616e-02,6.13695e-12,6.03616e-02,3.80495e-12,6.03616e-02
7.69954e+02,6.62000e+02,6.22000e+02,4.00000e+01,9.98004e-13,6.79068e-02,3.60125e-12,6.79068e-02,3.11747e-12,6.79068e-02
7.70205e+02,6.45000e+02,6.07000e+02,3.80000e+01,4.08377e-12,7.54520e-02,2.39093e-12,7.54520e-02,6.05056e-12,7.54520e-02
7.70455e+02,6.72000e+02,6.52000e+02,2.00000e+01,1.99104e-12,8.29972e-02,2.25661e-12,8.29972e-02,3.74521e-12,8.29972e-02
7.70706e+02,6.16000e+02,6.19000e+02,-3.00000e+00,1.81781e-12,9.05424e-02,1.78146e-12,9.05424e-02,8.16806e-13,9.05424e-02
7.70957e+02,6.31000e+02,6.45000e+02,-1.40000e+01,2.93836e-12,9.80876e-02,1.79918e-12,9.80876e-02,1.76748e-12,9.80876e-02
7.71207e+02,6.32000e+02,6.56000e+02,-2.40000e+01,2.33582e-12,1.05633e-01,2.60581e-12,1.05633e-01,2.80696e-13,1.05633e-01
7.71458e+02,6.42000e+02,6.98000e+02,-5.60000e+01,3.87950e-12,1.13178e-01,1.29305e-12,1.13178e-01,2.64378e-12,1.13178e-01
7.71708e+02,6.25000e+02,6.79000e+02,-5.40000e+01,5.50774e-12,1.20723e-01,1.22663e-12,1.20723e-01,4.59387e-12,1.20723e-01
7.71959e+02,6.49000e+02,6.84000e+02,-3.50000e+01,4.54942e-12,1.28268e-01,2.03698e-12,1.28268e-01,2.86073e-12,1.28268e-01
7.72210e+02,6.84000e+02,6.41000e+02,4.30000e+01,3.50174e-12,1.35814e-01,3.32138e-12,1.35814e-01,2.18234e-12,1.35814e-01
7.72460e+02,7.34000e+02,6.48000e+02,8.60000e+01,5.46825e-12,1.43359e-01,4.52787e-12,1.43359e-01,3.27164e-12,1.43359e-01
7.72711e+02,7.08000e+02,6.27000e+02,8.10000e+01,6.46925e-12,1.50904e-01,5.35860e-12,1.50904e-01,2.38920e-12,1.50904e-01
7.72961e+02,7.45000e+02,6.58000e+02,8.70000e+01,3.14044e-12,1.58449e-01,2.55670e-12,1.58449e-01,5.35465e-12,1.58449e-01
7.73212e+02,6.49000e+02,6.09000e+02,4.00000e+01,1.00898e-11,1.65994e-01,1.28980e-11,1.65994e-01,1.95710e-11,1.65994e-01
7.73462e+02,6.46000e+02,6.44000e+02,2.00000e+00,1.31078e-11,1.73540e-01,2.22521e-11,1.73540e-01,3.30065e-11,1.73540e-01
7.73713e+02,6.43000e+02,6.73000e+02,-3.00000e+01,2.49742e-11,1.81085e-01,3.06663e-11,1.81085e-01,5.48144e-11,1.81085e-01
7.73963e+02,6.20000e+02,7.11000e+02,-9.10000e+01,6.46996e-11,1.88630e-01,6.51402e-11,1.88630e-01,1.26826e-10,1.88630e-01
7.74214e+02,6.29000e+02,7.33000e+02,-1.04000e+02,1.03805e-10,1.96175e-01,1.01550e-10,1.96175e-01,1.99103e-10,1.96175e-01
7.74465e+02,6.45000e+02,7.63000e+02,-1.18000e+02,1.08636e-10,2.03720e-01,1.08665e-10,2.03720e-01,2.09336e-10,2.03720e-01
7.74715e+02,6.77000e+02,7.12000e+02,-3.50000e+01,7.42243e-11,2.11266e-01,7.92366e-11,2.11266e-01,1.46999e-10,2.11266e-01
7.74965e+02,7.43000e+02,6.89000e+02,5.40000e+01,3.90790e-11,2.18811e-01,4.18249e-11,2.18811e-01,7.59120e-11,2.18811e-01
7.75216e+02,7.66000e+02,6.45000e+02,1.21000e+02,1.54169e-11,2.26356e-01,1.22544e-11,2.26356e-01,2.65049e-11,2.26356e-01
7.75466e+02,8.68000e+02,6.74000e+02,1.94000e+02,6.10612e-12,2.33901e-01,7.72812e-12,2.33901e-01,9.97028e-12,2.33901e-01
7.75717e+02,7.61000e+02,6.18000e+02,1.43000e+02,1.16068e-11,2.41446e-01,2.89936e-12,2.41446e-01,1.32503e-11,2.41446e-01
7.75967e+02,7.36000e+02,6.36000e+02,1.00000e+02,4.30540e-12,2.48992e-01,4.27862e-12,2.48992e-01,3.26806e-12,2.48992e-01
7.76218e+02,6.63000e+02,6.65000e+02,-2.00000e+00,3.09116e-12,2.56537e-01,3.29395e-12,2.56537e-01,5.02262e-12,2.56537e-01
7.76468e+02,6.37000e+02,7.46000e+02,-1.09000e+02,1.52910e-12,2.64082e-01,2.00867e-12,2.64082e-01,2.89986e-12,2.64082e-01
7.76719e+02,6.40000e+02,8.08000e+02,-1.68000e+02,2.68848e-12,2.71627e-01,2.25941e-12,2.71627e-01,2.17261e-12,2.71627e-01
7.76969e+02,6.45000e+02,9.28000e+02,-2.83000e+02,2.93305e-12,2.79172e-01,6.63597e-13,2.79172e-01,3.47761e-12,2.79172e-01
7.77219e+02,6.61000e+02,9.23000e+02,-2.62000e+02,9.55214e-13,2.86718e-01,1.36998e-12,2.86718e-01,2.22279e-12,2.86718e-01
7.77470e+02,7.90000e+02,9.87000e+02,-1.97000e+02,9.83790e-13,2.94263e-01,1.35204e-12,2.94263e-01,9.79892e-13,2.94263e-01
7.77720e+02,8.89000e+02,8.28000e+02,6.10000e+01,2.58273e-12,3.01808e-01,1.48261e-12,3.01808e-01,2.26437e-12,3.01808e-01
7.77971e+02,1.08700e+03,7.80000e+02,3.07000e+02,4.50188e-12,3.09353e-01,2.45492e-12,3.09353e-01,3.58906e-12,3.09353e-01
7.78221e+02,1.08400e+03,6.51000e+02,4.33000e+02,4.31333e-12,3.16898e-01,2.51945e-12,3.16898e-01,4.01514e-12,3.16898e-01
7.78471e+02,1.11200e+03,6.42000e+02,4.70000e+02,2.74216e-12,3.24444e-01,2.32475e-12,3.24444e-01,3.30560e-12,3.24444e-01
7.78722e+02,9.84000e+02,6.38000e+02,3.46000e+02,9.63311e-13,3.31989e-01,1.34899e-12,3.31989e-01,7.02448e-13,3.31989e-01
7.78972e+02,8.89000e+02,7.20000e+02,1.69000e+02,1.08672e-12,3.39534e-01,1.86793e-12,3.39534e-01,2.83369e-12,3.39534e-01
7.79222e+02,7.30000e+02,8.75000e+02,-1.45000e+02,1.61390e-12,3.47079e-01,2.14585e-12,3.47079e-01,3.75468e-12,3.47079e-01
7.79473e+02,6.74000e+02,1.15400e+03,-4.80000e+02,9.31672e-13,3.54624e-01,1.93810e-12,3.54624e-01,2.27809e-12,3.54624e-01
7.79723e+02,6.57000e+02,1.32800e+03,-6.71000e+02,3.42331e-12,3.62169e-01,1.84629e-12,3.62169e-01,1.57703e-12,3.62169e-01
7.79973e+02,7.12000e+02,1.55700e+03,-8.45000e+02,4.62281e-12,3.69715e-01,1.10375e-12,3.69715e-01,4.56958e-12,3.69715e-01
7.80224e+02,8.54000e+02,1.49500e+03,-6.41000e+02,3.64713e-12,3.77260e-01,2.68848e-12,3.77260e-01,6.02716e-12,3.77260e-01
7.80474e+02,1.20000e+03,1.42100e+03,-2.21000e+02,3.43285e-12,3.84805e-01,6.18598e-12,3.84805e-01,6.53386e-12,3.84805e-01
7.80724e+02,1.27600e+03,1.02900e+03,2.47000e+02,4.97785e-12,3.92350e-01,7.36800e-12,3.92350e-01,7.34220e-12,3.92350e-01
7.80974e+02,1.54400e+03,8.13000e+02,7.31000e+02,5.40440e-12,3.99895e-01,6.12577e-12,3.99895e-01,8.03503e-12,3.99895e-01
7.81225e+02,1.67800e+03,6.98000e+02,9.80000e+02,4.52035e-12,4.07441e-01,4.73607e-12,4.07441e-01,6.85030e-12,4.07441e-01
7.81475e+02,1.76800e+03,6.64000e+02,1.10400e+03,4.69412e-12,4.14986e-01,4.18641e-12,4.14986e-01,4.30143e-12,4.14986e-01
7.81725e+02,1.40100e+03,6.91000e+02,7.10000e+02,4.68544e-12,4.22531e-01,4.35863e-12,4.22531e-01,2.29506e-12,4.22531e-01
7.81975e+02,1.18400e+03,9.28000e+02,2.56000e+02,2.66021e-12,4.30076e-01,3.78292e-12,4.30076e-01,1.60143e-12,4.30076e-01
7.82226e+02,8.44000e+02,1.25000e+03,-4.06000e+02,5.44297e-13,4.37621e-01,2.30735e-12,4.37621e-01,1.78320e-12,4.37621e-01
7.82476e+02,6.86000e+02,1.70700e+03,-1.02100e+03,4.73104e-13,4.45167e-01,1.51924e-12,4.45167e-01,1.70571e-12,4.45167e-01
7.82726e+02,6.66000e+02,2.06500e+03,-1.39900e+03,7.19624e-13,4.52712e-01,1.97895e-12,4.52712e-01,1.26131e-12,4.52712e-01
7.82976e+02,8.28000e+02,2.11500e+03,-1.28700e+03,1.70769e-12,4.60257e-01,1.92800e-12,4.60257e-01,4.88784e-13,4.60257e-01
7.83226e+02,1.02900e+03,1.87500e+03,-8.46000e+02,1.82964e-12,4.67802e-01,9.82505e-13,4.67802e-01,8.80379e-13,4.67802e-01
7.83477e+02,1.62300e+03,1.82800e+03,-2.05000e+02,2.21132e-12,4.75347e-01,2.32460e-12,4.75347e-01,4.48336e-13,4.75347e-01
7.83727e+02,1.88800e+03,1.32500e+03,5.63000e+02,1.80566e-12,4.82893e-01,2.96292e-12,4.82893e-01,1.21131e-12,4.82893e-01
7.83977e+02,2.28100e+03,9.89000e+02,1.29200e+03,1.01384e-12,4.90438e-01,2.67300e-12,4.90438e-01,1.68665e-12,4.90438e-01
7.84227e+02,2.34700e+03,7.29000e+02,1.61800e+03,8.31155e-13,4.97983e-01,1.94944e-12,4.97983e-01,2.75910e-12,4.97983e-01
7.84477e+02,2.34500e+03,7.19000e+02,1.62600e+03,2.06652e-12,5.05528e-01,1.37349e-12,5.05528e-01,2.93014e-12,5.05528e-01
7.84727e+02,1.78300e+03,8.24000e+02,9.59000e+02,1.64521e-12,5.13073e-01,7.81414e-13,5.13073e-01,1.55924e-12,5.13073e-01
7.84978e+02,1.42400e+03,1.44000e+03,-1.60000e+01,3.37755e-13,5.20619e-01,7.19941e-13,5.20619e-01,8.54216e-13,5.20619e-01
7.85228e+02,9.46000e+02,2.14000e+03,-1.19400e+03,1.30578e-12,5.28164e-01,2.20659e-12,5.28164e-01,1.24426e-12,5.28164e-01
7.85478e+02,7.85000e+02,2.90200e+03,-2.11700e+03,2.29124e-12,5.35709e-01,2.09000e-12,5.35709e-01,2.29407e-12,5.35709e-01
7.85728e+02,7.94000e+02,3.47900e+03,-2.68500e+03,1.76236e-12,5.43254e-01,1.11627e-12,5.43254e-01,1.88629e-12,5.43254e-01
7.85978e+02,1.31700e+03,3.61300e+03,-2.29600e+03,5.16429e-13,5.50799e-01,3.81785e-13,5.50799e-01,5.03287e-13,5.50799e-01
7.86228e+02,1.98000e+03,3.22200e+03,-1.24200e+03,4.43651e-13,5.58345e-01,1.54557e-12,5.58345e-01,1.96418e-12,5.58345e-01
7.86478e+02,2.62700e+03,2.46200e+03,1.65000e+02,1.52788e-12,5.65890e-01,1.15916e-12,5.65890e-01,2.67647e-12,5.65890e-01
7.86728e+02,3.16600e+03,1.78000e+03,1.38600e+03,2.05057e-12,5.73435e-01,9.43406e-13,5.73435e-01,2.46024e-12,5.73435e-01
7.86978e+02,3.34200e+03,1.15000e+03,2.19200e+03,1.50240e-12,5.80980e-01,1.70858e-12,5.80980e-01,1.90419e-12,5.80980e-01
7.87228e+02,3.41700e+03,7.88000e+02,2.62900e+03,1.49729e-12,5.88525e-01,2.87645e-12,5.88525e-01,3.02631e-12,5.88525e-01
7.87478e+02,3.06500e+03,8.64000e+02,2.20100e+03,2.04867e-12,5.96071e-01,3.87747e-12,5.96071e-01,3.98470e-12,5.96071e-01
7.87728e+02,2.30900e+03,1.29200e+03,1.01700e+03,2.10203e-12,6.03616e-01,3.89598e-12,6.03616e-01,4.07719e-12,6.03616e-01
7.87978e+02,1.69600e+03,2.25200e+03,-5.56000e+02,1.31188e-12,6.11161e-01,2.90516e-12,6.11161e-01,2.66809e-12,6.11161e-01
7.88228e+02,9.65000e+02,3.01700e+03,-2.05200e+03,5.71766e-13,6.18706e-01,1.75208e-12,6.18706e-01,1.87797e-12,6.18706e-01
7.88478e+02,8.37000e+02,4.07800e+03,-3.24100e+03,1.76694e-12,6.26251e-01,1.09995e-12,6.26251e-01,1.16631e-12,6.26251e-01
7.88728e+02,1.04400e+03,4.48000e+03,-3.43600e+03,2.22546e-12,6.33797e-01,1.78995e-12,6.33797e-01,1.02626e-12,6.33797e-01
7.88978e+02,1.79800e+03,4.28900e+03,-2.49100e+03,1.35847e-12,6.41342e-01,2.11713e-12,6.41342e-01,1.76471e-12,6.41342e-01
7.89228e+02,2.96600e+03,3.97600e+03,-1.01000e+03,7.95335e-13,6.48887e-01,1.97013e-12,6.48887e-01,1.37154e-12,6.48887e-01
7.89478e+02,4.13200e+03,3.32300e+03,8.09000e+02,3.79681e-13,6.56432e-01,6.15680e-13,6.56432e-01,4.66732e-13,6.56432e-01
7.89728e+02,5.05700e+03,2.24500e+03,2.81200e+03,1.25973e-13,6.63977e-01,2.62145e-13,6.63977e-01,3.28681e-13,6.63977e-01
7.89978e+02,5.59600e+03,1.47800e+03,4.11800e+03,2.32300e-13,6.71523e-01,6.50210e-13,6.71523e-01,4.64885e-13,6.71523e-01
7.90228e+02,4.97100e+03,9.22000e+02,4.04900e+03,3.35527e-13,6.79068e-01,6.42040e-13,6.79068e-01,6.14380e-13,6.79068e-01
7.90478e+02,4.16000e+03,1.17500e+03,2.98500e+03,2.53252e-13,6.86613e-01,4.88411e-13,6.86613e-01,7.27784e-13,6.86613e-01
7.90728e+02,3.19800e+03,1.85800e+03,1.34000e+03,9.66781e-13,6.94158e-01,1.22459e-12,6.94158e-01,5.43443e-13,6.94158e-01
7.90978e+02,2.27600e+03,3.32400e+03,-1.04800e+03,2.47456e-12,7.01703e-01,1.22382e-12,7.01703e-01,1.26865e-12,7.01703e-01
7.91228e+02,1.35000e+03,4.55800e+03,-3.20800e+03,2.13920e-12,7.09249e-01,1.25357e-12,7.09249e-01,2.49872e-12,7.09249e-01
7.91478e+02,1.04200e+03,5.34600e+03,-4.30400e+03,7.92248e-13,7.16794e-01,1.86110e-12,7.16794e-01,2.17689e-12,7.16794e-01
7.91728e+02,1.36800e+03,5.48600e+03,-4.11800e+03,9.44040e-13,7.24339e-01,1.13397e-12,7.24339e-01,8.99115e-13,7.24339e-01
7.91977e+02,2.31600e+03,5.13200e+03,-2.81600e+03,9.11715e-13,7.31884e-01,5.07675e-13,7.31884e-01,1.27299e-12,7.31884e-01
7.92227e+02,3.27200e+03,4.18900e+03,-9.17000e+02,7.46368e-13,7.39429e-01,1.23792e-12,7.39429e-01,5.35512e-13,7.39429e-01
7.92477e+02,5.21400e+03,3.68800e+03,1.52600e+03,1.60710e-12,7.46975e-01,5.63455e-13,7.46975e-01,1.24384e-12,7.46975e-01
7.92727e+02,6.77600e+03,2.71200e+03,4.06400e+03,1.16738e-12,7.54520e-01,8.57645e-13,7.54520e-01,1.90709e-12,7.54520e-01
7.92977e+02,7.11900e+03,1.70200e+03,5.41700e+03,3.62261e-13,7.62065e-01,1.60655e-12,7.62065e-01,1.62180e-12,7.62065e-01
7.93227e+02,5.93200e+03,1.03400e+03,4.89800e+03,1.22389e-12,7.69610e-01,1.26020e-12,7.69610e-01,6.68269e-13,7.69610e-01
7.93476e+02,5.02200e+03,1.37600e+03,3.64600e+03,1.37500e-12,7.77155e-01,4.55266e-13,7.77155e-01,1.17220e-12,7.77155e-01
7.93726e+02,3.73400e+03,2.37600e+03,1.35800e+03,1.36832e-12,7.84701e-01,1.71254e-12,7.84701e-01,1.92936e-12,7.84701e-01
7.93976e+02,2.54600e+03,3.85300e+03,-1.30700e+03,1.02896e-12,7.92246e-01,2.34503e-12,7.92246e-01,1.99272e-12,7.92246e-01
7.94226e+02,1.49400e+03,5.32800e+03,-3.83400e+03,7.49250e-13,7.99791e-01,1.54225e-12,7.99791e-01,1.58803e-12,7.99791e-01
7.94476e+02,1.14800e+03,7.15300e+03,-6.00500e+03,2.93872e-13,8.07336e-01,1.26908e-12,8.07336e-01,1.53037e-12,8.07336e-01
7.94725e+02,1.47700e+03,7.03000e+03,-5.55300e+03,4.13335e-13,8.14881e-01,1.28523e-12,8.14881e-01,1.69832e-12,8.14881e-01
7.94975e+02,2.61400e+03,6.94100e+03,-4.32700e+03,1.07892e-12,8.22427e-01,8.71957e-13,8.22427e-01,1.56654e-12,8.22427e-01
7.95225e+02,4.12200e+03,6.28000e+03,-2.15800e+03,9.20358e-13,8.29972e-01,1.16849e-12,8.29972e-01,7.81515e-13,8.29972e-01
7.95475e+02,5.66000e+03,4.86700e+03,7.93000e+02,2.83688e-13,8.37517e-01,1.43582e-12,8.37517e-01,1.15425e-12,8.37517e-01
7.95724e+02,6.87200e+03,3.24700e+03,3.62500e+03,4.61668e-13,8.45062e-01,9.74087e-13,8.45062e-01,1.22100e-12,8.45062e-01
7.95974e+02,7.72700e+03,2.19600e+03,5.53100e+03,9.72354e-13,8.52607e-01,5.42863e-13,8.52607e-01,6.57561e-13,8.52607e-01
7.96224e+02,8.13600e+03,1.36800e+03,6.76800e+03,7.74933e-13,8.60153e-01,7.15697e-13,8.60153e-01,1.58599e-13,8.60153e-01
7.96474e+02,7.80800e+03,1.39600e+03,6.41200e+03,1.29659e-12,8.67698e-01,1.18030e-12,8.67698e-01,6.14279e-13,8.67698e-01
7.96723e+02,5.81200e+03,2.16500e+03,3.64700e+03,1.30582e-12,8.75243e-01,1.02818e-12,8.75243e-01,2.98662e-13,8.75243e-01
7.96973e+02,3.92600e+03,3.73100e+03,1.95000e+02,1.28486e-12,8.82788e-01,9.08122e-13,8.82788e-01,6.42258e-13,8.82788e-01
7.97223e+02,2.54900e+03,6.00800e+03,-3.45900e+03,1.37594e-12,8.90333e-01,9.51670e-13,8.90333e-01,5.35443e-13,8.90333e-01
7.97472e+02,1.61300e+03,7.63700e+03,-6.02400e+03,1.33552e-12,8.97879e-01,7.64341e-13,8.97879e-01,6.38680e-13,8.97879e-01
7.97722e+02,1.50400e+03,9.92100e+03,-8.41700e+03,1.49667e-12,9.05424e-01,7.14250e-13,9.05424e-01,7.83569e-13,9.05424e-01
7.97972e+02,2.84600e+03,1.08840e+04,-8.03800e+03,1.60407e-12,9.12969e-01,1.26843e-12,9.12969e-01,3.36722e-13,9.12969e-01
7.98221e+02,4.95000e+03,1.01780e+04,-5.22800e+03,1.13848e-12,9.20514e-01,9.21518e-13,9.20514e-01,3.15498e-13,9.20514e-01
7.98471e+02,7.44600e+03,8.26000e+03,-8.14000e+02,1.12768e-12,9.28059e-01,7.14558e-13,9.28059e-01,5.08331e-13,9.28059e-01
7.98721e+02,9.91800e+03,6.26500e+03,3.65300e+03,9.82757e-13,9.35605e-01,1.20226e-12,9.35605e-01,3.39665e-13,9.35605e-01
7.98970e+02,1.18870e+04,4.37700e+03,7.51000e+03,9.33891e-13,9.43150e-01,9.79417e-13,9.43150e-01,7.79692e-13,9.43150e-01
7.99220e+02,1.24440e+04,2.56300e+03,9.88100e+03,1.32973e-12,9.50695e-01,1.35139e-13,9.50695e-01,1.25224e-12,9.50695e-01
7.99469e+02,1.11460e+04,1.61900e+03,9.52700e+03,1.00760e-12,9.58240e-01,7.52540e-13,9.58240e-01,9.28915e-13,9.58240e-01
7.99719e+02,9.39600e+03,1.81100e+03,7.58500e+03,2.34292e-13,9.65785e-01,1.02092e-12,9.65785e-01,8.20131e-13,9.65785e-01
7.99969e+02,6.99200e+03,3.29200e+03,3.70000e+03,1.97937e-13,9.73331e-01,7.54185e-13,9.73331e-01,9.05970e-13,9.73331e-01
8.00218e+02,4.96500e+03,5.60400e+03,-6.39000e+02,5.15458e-13,9.80876e-01,4.72305e-13,9.80876e-01,8.60207e-13,9.80876e-01
8.00468e+02,3.00000e+03,8.23500e+03,-5.23500e+03,7.17517e-13,9.88421e-01,6.71366e-13,9.88421e-01,9.25948e-13,9.88421e-01
8.00717e+02,1.72200e+03,1.05160e+04,-8.79400e+03,8.11052e-13,9.95966e-01,7.46730e-13,9.95966e-01,9.92170e-13,9.95966e-01
8.00967e+02,2.03700e+03,1.22020e+04,-1.01650e+04,3.33750e-13,1.00351e+00,4.95477e-13,1.00351e+00,8.02226e-13,1.00351e+00
8.01216e+02,3.67200e+03,1.31720e+04,-9.50000e+03,3.76947e-13,1.01106e+00,5.17731e-13,1.01106e+00,4.57642e-13,1.01106e+00
8.01466e+02,6.25000e+03,1.29010e+04,-6.65100e+03,5.83176e-13,1.01860e+00,7.60941e-13,1.01860e+00,3.80501e-13,1.01860e+00
8.01715e+02,9.01600e+03,1.06510e+04,-1.63500e+03,5.68385e-13,1.02615e+00,6.26419e-13,1.02615e+00,2.21889e-13,1.02615e+00
8.01965e+02,1.14660e+04,7.51200e+03,3.95400e+03,2.24362e-13,1.03369e+00,1.67557e-13,1.03369e+00,2.50730e-13,1.03369e+00
8.02215e+02,1.32690e+04,4.75500e+03,8.51400e+03,6.20425e-13,1.04124e+00,1.92420e-13,1.04124e+00,5.67512e-13,1.04124e+00
8.02464e+02,1.39520e+04,2.60000e+03,1.13520e+04,8.30917e-13,1.04878e+00,5.79922e-13,1.04878e+00,1.05140e-12,1.04878e+00
8.02713e+02,1.33940e+04,1.74600e+03,1.16480e+04,1.02416e-12,1.05633e+00,2.82777e-13,1.05633e+00,1.30686e-12,1.05633e+00
8.02963e+02,1.13210e+04,2.54400e+03,8.77700e+03,3.21057e-13,1.06387e+00,6.47602e-13,1.06387e+00,7.94172e-13,1.06387e+00
8.03212e+02,9.06700e+03,4.74600e+03,4.32100e+03,2.02378e-13,1.07142e+00,6.02342e-13,1.07142e+00,4.49852e-13,1.07142e+00
8.03462e+02,6.21600e+03,8.33200e+03,-2.11600e+03,2.27979e-13,1.07896e+00,2.72569e-13,1.07896e+00,3.83341e-13,1.07896e+00
8.03711e+02,3.38800e+03,1.12750e+04,-7.88700e+03,4.96790e-13,1.08651e+00,1.67186e-13,1.08651e+00,5.75144e-13,1.08651e+00
8.03961e+02,1.92500e+03,1.26590e+04,-1.07340e+04,9.34460e-13,1.09405e+00,3.15826e-13,1.09405e+00,9.04125e-13,1.09405e+00
8.04210e+02,2.03000e+03,1.32110e+04,-1.11810e+04,7.73300e-13,1.10160e+00,5.85806e-13,1.10160e+00,6.80086e-13,1.10160e+00
8.04460e+02,3.77400e+03,1.33830e+04,-9.60900e+03,7.47829e-13,1.10914e+00,7.07063e-13,1.10914e+00,6.53553e-13,1.10914e+00
8.04709e+02,6.79900e+03,1.28190e+04,-6.02000e+03,3.59534e-13,1.11669e+00,9.03883e-13,1.11669e+00,6.83440e-13,1.11669e+00
8.04958e+02,9.97000e+03,1.08090e+04,-8.39000e+02,4.68304e-13,1.12423e+00,6.09939e-13,1.12423e+00,1.06964e-12,1.12423e+00
8.05208e+02,1.27880e+04,7.80100e+03,4.98700e+03,6.56496e-13,1.13178e+00,5.57435e-13,1.13178e+00,1.16301e-12,1.13178e+00
8.05457e+02,1.41350e+04,4.73500e+03,9.40000e+03,7.59474e-13,1.13932e+00,2.22965e-13,1.13932e+00,9.66022e-13,1.13932e+00
8.05707e+02,1.50120e+04,2.64100e+03,1.23710e+04,3.69200e-13,1.14687e+00,5.78561e-13,1.14687e+00,2.20889e-13,1.14687e+00
8.05956e+02,1.46620e+04,1.84400e+03,1.28180e+04,9.56087e-14,1.15442e+00,8.26958e-13,1.15442e+00,8.89676e-13,1.15442e+00
8.06205e+02,1.20710e+04,2.65500e+03,9.41600e+03,5.53171e-13,1.16196e+00,5.05405e-13,1.16196e+00,9.97638e-13,1.16196e+00
8.06455e+02,8.74400e+03,5.09000e+03,3.65400e+03,4.53815e-13,1.16951e+00,4.45433e-13,1.16951e+00,8.02234e-13,1.16951e+00
8.06704e+02,5.85600e+03,8.17200e+03,-2.31600e+03,1.30824e-13,1.17705e+00,1.70289e-13,1.17705e+00,1.08653e-13,1.17705e+00
8.06953e+02,3.34000e+03,1.18660e+04,-8.52600e+03,4.39751e-13,1.18460e+00,1.93848e-13,1.18460e+00,4.20577e-13,1.18460e+00
8.07203e+02,1.86800e+03,1.30860e+04,-1.12180e+04,5.00496e-13,1.19214e+00,1.33430e-13,1.19214e+00,3.75690e-13,1.19214e+00
8.07452e+02,2.31900e+03,1.43950e+04,-1.20760e+04,5.28719e-13,1.19969e+00,7.17989e-13,1.19969e+00,4.49020e-13,1.19969e+00
8.07701e+02,4.26400e+03,1.47430e+04,-1.04790e+04,4.43602e-13,1.20723e+00,9.13264e-13,1.20723e+00,5.13065e-13,1.20723e+00
8.07951e+02,7.14500e+03,1.33450e+04,-6.20000e+03,4.10216e-13,1.21478e+00,5.04380e-13,1.21478e+00,3.12978e-13,1.21478e+00
8.08200e+02,9.91300e+03,1.03160e+04,-4.03000e+02,5.79739e-13,1.22232e+00,1.60141e-13,1.22232e+00,7.39753e-13,1.22232e+00
8.08449e+02,1.32150e+04,7.36700e+03,5.84800e+03,5.26698e-13,1.22987e+00,4.45382e-13,1.22987e+00,8.74519e-13,1.22987e+00
8.08698e+02,1.53250e+04,4.88700e+03,1.04380e+04,3.92305e-13,1.23741e+00,5.71613e-13,1.23741e+00,6.08952e-13,1.23741e+00
8.08948e+02,1.56620e+04,2.81600e+03,1.28460e+04,5.76167e-13,1.24496e+00,3.16493e-13,1.24496e+00,5.18726e-13,1.24496e+00
8.09197e+02,1.55940e+04,2.13400e+03,1.34600e+04,4.14245e-13,1.25250e+00,1.79871e-13,1.25250e+00,5.91324e-13,1.25250e+00
8.09446e+02,1.37800e+04,3.31400e+03,1.04660e+04,2.16562e-13,1.26005e+00,4.39210e-13,1.26005e+00,5.88007e-13,1.26005e+00
8.09695e+02,1.01850e+04,6.43000e+03,3.75500e+03,5.19637e-13,1.26759e+00,5.08188e-13,1.26759e+00,5.26867e-13,1.26759e+00
8.09945e+02,6.73600e+03,1.08480e+04,-4.11200e+03,5.19005e-13,1.27514e+00,5.61160e-13,1.27514e+00,4.14403e-13,1.27514e+00
8.10194e+02,3.56400e+03,1.43080e+04,-1.07440e+04,3.09876e-13,1.28268e+00,4.61453e-13,1.28268e+00,4.14390e-13,1.28268e+00
8.10443e+02,2.26200e+03,1.54510e+04,-1.31890e+04,4.76726e-13,1.29023e+00,4.91877e-13,1.29023e+00,3.70292e-13,1.29023e+00
8.10692e+02,3.01400e+03,1.57150e+04,-1.27010e+04,5.02007e-13,1.29777e+00,3.04818e-13,1.29777e+00,7.25716e-13,1.29777e+00
8.10941e+02,5.65400e+03,1.57930e+04,-1.01390e+04,6.89627e-13,1.30532e+00,5.17603e-13,1.30532e+00,8.34301e-13,1.30532e+00
8.11191e+02,8.81700e+03,1.48990e+04,-6.08200e+03,2.17573e-13,1.31286e+00,5.18510e-13,1.31286e+00,6.66674e-13,1.31286e+00
8.11440e+02,1.31400e+04,1.29960e+04,1.44000e+02,2.02238e-12,-1.32041e+00,1.22228e-12,-1.32041e+00,8.00100e-13,-1.32041e+00
8.11689e+02,1.54650e+04,9.69400e+03,5.77100e+03,2.17573e-13,-1.31286e+00,5.18510e-13,-1.31286e+00,6.66674e-13,-1.31286e+00
8.11938e+02,1.57480e+04,5.68100e+03,1.00670e+04,6.89627e-13,-1.30532e+00,5.17603e-13,-1.30532e+00,8.34301e-13,-1.30532e+00
8.12187e+02,1.57670e+04,2.88100e+03,1.28860e+04,5.02007e-13,-1.29777e+00,3.04818e-13,-1.29777e+00,7.25716e-13,-1.29777e+00
8.12436e+02,1.54680e+04,2.23500e+03,1.32330e+04,4.76726e-13,-1.29023e+00,4.91877e-13,-1.29023e+00,3.70292e-13,-1.29023e+00
8.12685e+02,1.31260e+04,3.56600e+03,9.56000e+03,3.09876e-13,-1.28268e+00,4.61453e-13,-1.28268e+00,4.14390e-13,-1.28268e+00
8.12935e+02,9.92800e+03,6.57300e+03,3.35500e+03,5.19005e-13,-1.27514e+00,5.61160e-13,-1.27514e+00,4.14403e-13,-1.27514e+00
8.13184e+02,6.47900e+03,1.01900e+04,-3.71100e+03,5.19637e-13,-1.26759e+00,5.08188e-13,-1.26759e+00,5.26867e-13,-1.26759e+00
8.13433e+02,3.65800e+03,1.31780e+04,-9.52000e+03,2.16562e-13,-1.26005e+00,4.39210e-13,-1.26005e+00,5.88007e-13,-1.26005e+00
8.13682e+02,2.21800e+03,1.53940e+04,-1.31760e+04,4.14245e-13,-1.25250e+00,1.79871e-13,-1.25250e+00,5.91324e-13,-1.25250e+00
8.13931e+02,2.73800e+03,1.58050e+04,-1.30670e+04,5.76167e-13,-1.24496e+00,3.16493e-13,-1.24496e+00,5.18726e-13,-1.24496e+00
8.14180e+02,4.61500e+03,1.56730e+04,-1.10580e+04,3.92305e-13,-1.23741e+00,5.71613e-13,-1.23741e+00,6.08952e-13,-1.23741e+00
8.14429e+02,8.06400e+03,1.54830e+04,-7.41900e+03,5.26698e-13,-1.22987e+00,4.45382e-13,-1.22987e+00,8.74519e-13,-1.22987e+00
8.14678e+02,1.16950e+04,1.29060e+04,-1.21100e+03,5.79739e-13,-1.22232e+00,1.60141e-13,-1.22232e+00,7.39753e-13,-1.22232e+00
8.14927e+02,1.35300e+04,8.47700e+03,5.05300e+03,4.10216e-13,-1.21478e+00,5.04380e-13,-1.21478e+00,3.12978e-13,-1.21478e+00
8.15176e+02,1.48700e+04,5.38800e+03,9.48200e+03,4.43602e-13,-1.20723e+00,9.13264e-13,-1.20723e+00,5.13065e-13,-1.20723e+00
8.15425e+02,1.48170e+04,3.00400e+03,1.18130e+04,5.28719e-13,-1.19969e+00,7.17989e-13,-1.19969e+00,4.49020e-13,-1.19969e+00
8.15674e+02,1.47630e+04,2.06200e+03,1.27010e+04,5.00496e-13,-1.19214e+00,1.33430e-13,-1.19214e+00,3.75690e-13,-1.19214e+00
8.15923e+02,1.42920e+04,3.05200e+03,1.12400e+04,4.39751e-13,-1.18460e+00,1.93848e-13,-1.18460e+00,4.20577e-13,-1.18460e+00
8.16172e+02,1.10980e+04,5.38700e+03,5.71100e+03,1.30824e-13,-1.17705e+00,1.70289e-13,-1.17705e+00,1.08653e-13,-1.17705e+00
8.16421e+02,6.61600e+03,8.10500e+03,-1.48900e+03,4.53815e-13,-1.16951e+00,4.45433e-13,-1.16951e+00,8.02234e-13,-1.16951e+00
8.16670e+02,3.59500e+03,1.11840e+04,-7.58900e+03,5.53171e-13,-1.16196e+00,5.05405e-13,-1.16196e+00,9.97638e-13,-1.16196e+00
8.16919e+02,2.23900e+03,1.43120e+04,-1.20730e+04,9.56087e-14,-1.15442e+00,8.26958e-13,-1.15442e+00,8.89676e-13,-1.15442e+00
8.17168e+02,2.00000e+03,1.46000e+04,-1.26000e+04,3.69200e-13,-1.14687e+00,5.78561e-13,-1.14687e+00,2.20889e-13,-1.14687e+00
8.17417e+02,3.30700e+03,1.42550e+04,-1.09480e+04,7.59474e-13,-1.13932e+00,2.22965e-13,-1.13932e+00,9.66022e-13,-1.13932e+00
8.17666e+02,5.50900e+03,1.39040e+04,-8.39500e+03,6.56496e-13,-1.13178e+00,5.57435e-13,-1.13178e+00,1.16301e-12,-1.13178e+00
8.17915e+02,7.87500e+03,1.16620e+04,-3.78700e+03,4.68304e-13,-1.12423e+00,6.09939e-13,-1.12423e+00,1.06964e-12,-1.12423e+00
8.18164e+02,9.85200e+03,8.66000e+03,1.19200e+03,3.59534e-13,-1.11669e+00,9.03883e-13,-1.11669e+00,6.83440e-13,-1.11669e+00
8.18413e+02,1.14530e+04,5.47200e+03,5.98100e+03,7.47829e-13,-1.10914e+00,7.07063e-13,-1.10914e+00,6.53553e-13,-1.10914e+00
8.18662e+02,1.10910e+04,3.05400e+03,8.03700e+03,7.73300e-13,-1.10160e+00,5.85806e-13,-1.10160e+00,6.80086e-13,-1.10160e+00
8.18911e+02,1.17250e+04,1.94100e+03,9.78400e+03,9.34460e-13,-1.09405e+00,3.15826e-13,-1.09405e+00,9.04125e-13,-1.09405e+00
8.19160e+02,1.05500e+04,1.67800e+03,8.87200e+03,4.96790e-13,-1.08651e+00,1.67186e-13,-1.08651e+00,5.75144e-13,-1.08651e+00
8.19408e+02,8.90800e+03,2.71700e+03,6.19100e+03,2.27979e-13,-1.07896e+00,2.72569e-13,-1.07896e+00,3.83341e-13,-1.07896e+00
8.19657e+02,7.44700e+03,5.25100e+03,2.19600e+03,2.02378e-13,-1.07142e+00,6.02342e-13,-1.07142e+00,4.49852e-13,-1.07142e+00
8.19906e+02,5.29700e+03,8.53200e+03,-3.23500e+03,3.21057e-13,-1.06387e+00,6.47602e-13,-1.06387e+00,7.94172e-13,-1.06387e+00
8.20155e+02,3.14800e+03,1.12880e+04,-8.14000e+03,1.02416e-12,-1.05633e+00,2.82777e-13,-1.05633e+00,1.30686e-12,-1.05633e+00
8.20404e+02,1.92500e+03,1.23390e+04,-1.04140e+04,8.30917e-13,-1.04878e+00,5.79922e-13,-1.04878e+00,1.05140e-12,-1.04878e+00
8.20653e+02,1.82100e+03,1.22400e+04,-1.04190e+04,6.20425e-13,-1.04124e+00,1.92420e-13,-1.04124e+00,5.67512e-13,-1.04124e+00
8.20901e+02,3.09600e+03,1.23150e+04,-9.21900e+03,2.24362e-13,-1.03369e+00,1.67557e-13,-1.03369e+00,2.50730e-13,-1.03369e+00
8.21150e+02,5.09300e+03,1.18050e+04,-6.71200e+03,5.68385e-13,-1.02615e+00,6.26419e-13,-1.02615e+00,2.21889e-13,-1.02615e+00
8.21399e+02,6.35200e+03,8.37900e+03,-2.02700e+03,5.83176e-13,-1.01860e+00,7.60941e-13,-1.01860e+00,3.80501e-13,-1.01860e+00
8.21648e+02,8.20000e+03,6.11800e+03,2.08200e+03,3.76947e-13,-1.01106e+00,5.17731e-13,-1.01106e+00,4.57642e-13,-1.01106e+00
8.21897e+02,9.95900e+03,4.25600e+03,5.70300e+03,3.33750e-13,-1.00351e+00,4.95477e-13,-1.00351e+00,8.02226e-13,-1.00351e+00
8.22145e+02,9.95200e+03,2.44600e+03,7.50600e+03,8.11052e-13,-9.95966e-01,7.46730e-13,-9.95966e-01,9.92170e-13,-9.95966e-01
8.22394e+02,1.01320e+04,1.56400e+03,8.56800e+03,7.17517e-13,-9.88421e-01,6.71366e-13,-9.88421e-01,9.25948e-13,-9.88421e-01
8.22643e+02,9.23700e+03,1.59000e+03,7.64700e+03,5.15458e-13,-9.80876e-01,4.72305e-13,-9.80876e-01,8.60207e-13,-9.80876e-01
8.22892e+02,7.30200e+03,2.61600e+03,4.68600e+03,1.97937e-13,-9.73331e-01,7.54185e-13,-9.73331e-01,9.05970e-13,-9.73331e-01
8.23140e+02,5.16200e+03,4.32700e+03,8.35000e+02,2.34292e-13,-9.65785e-01,1.02092e-12,-9.65785e-01,8.20131e-13,-9.65785e-01
8.23389e+02,3.46200e+03,6.58100e+03,-3.11900e+03,1.00760e-12,-9.58240e-01,7.52540e-13,-9.58240e-01,9.28915e-13,-9.58240e-01
8.23638e+02,2.11100e+03,8.12600e+03,-6.01500e+03,1.32973e-12,-9.50695e-01,1.35139e-13,-9.50695e-01,1.25224e-12,-9.50695e-01
8.23887e+02,1.36300e+03,9.22700e+03,-7.86400e+03,9.33891e-13,-9.43150e-01,9.79417e-13,-9.43150e-01,7.79692e-13,-9.43150e-01
8.24135e+02,1.52900e+03,9.45600e+03,-7.92700e+03,9.82757e-13,-9.35605e-01,1.20226e-12,-9.35605e-01,3.39665e-13,-9.35605e-01
8.24384e+02,2.62600e+03,9.29600e+03,-6.67000e+03,1.12768e-12,-9.28059e-01,7.14558e-13,-9.28059e-01,5.08331e-13,-9.28059e-01
8.24633e+02,4.31000e+03,8.61700e+03,-4.30700e+03,1.13848e-12,-9.20514e-01,9.21518e-13,-9.20514e-01,3.15498e-13,-9.20514e-01
8.24881e+02,5.92400e+03,7.07600e+03,-1.15200e+03,1.60407e-12,-9.12969e-01,1.26843e-12,-9.12969e-01,3.36722e-13,-9.12969e-01
8.25130e+02,8.01900e+03,5.39500e+03,2.62400e+03,1.49667e-12,-9.05424e-01,7.14250e-13,-9.05424e-01,7.83569e-13,-9.05424e-01
8.25379e+02,9.78600e+03,3.48200e+03,6.30400e+03,1.33552e-12,-8.97879e-01,7.64341e-13,-8.97879e-01,6.38680e-13,-8.97879e-01
8.25627e+02,9.10100e+03,1.78900e+03,7.31200e+03,1.37594e-12,-8.90333e-01,9.51670e-13,-8.90333e-01,5.35443e-13,-8.90333e-01
8.25876e+02,8.55700e+03,1.16500e+03,7.39200e+03,1.28486e-12,-8.82788e-01,9.08122e-13,-8.82788e-01,6.42258e-13,-8.82788e-01
8.26125e+02,7.27100e+03,1.33200e+03,5.93900e+03,1.30582e-12,-8.75243e-01,1.02818e-12,-8.75243e-01,2.98662e-13,-8.75243e-01
8.26373e+02,5.13100e+03,2.11300e+03,3.01800e+03,1.29659e-12,-8.67698e-01,1.18030e-12,-8.67698e-01,6.14279e-13,-8.67698e-01
8.26622e+02,3.53600e+03,2.93500e+03,6.01000e+02,7.74933e-13,-8.60153e-01,7.15697e-13,-8.60153e-01,1.58599e-13,-8.60153e-01
8.26870e+02,2.12800e+03,3.59100e+03,-1.46300e+03,9.72354e-13,-8.52607e-01,5.42863e-13,-8.52607e-01,6.57561e-13,-8.52607e-01
8.27119e+02,1.23300e+03,4.93500e+03,-3.70200e+03,4.61668e-13,-8.45062e-01,9.74087e-13,-8.45062e-01,1.22100e-12,-8.45062e-01
8.27368e+02,9.53000e+02,6.26300e+03,-5.31000e+03,2.83688e-13,-8.37517e-01,1.43582e-12,-8.37517e-01,1.15425e-12,-8.37517e-01
8.27616e+02,9.72000e+02,6.15300e+03,-5.18100e+03,9.20358e-13,-8.29972e-01,1.16849e-12,-8.29972e-01,7.81515e-13,-8.29972e-01
8.27865e+02,1.73600e+03,5.66900e+03,-3.93300e+03,1.07892e-12,-8.22427e-01,8.71957e-13,-8.22427e-01,1.56654e-12,-8.22427e-01
8.28113e+02,2.87900e+03,5.75400e+03,-2.87500e+03,4.13335e-13,-8.14881e-01,1.28523e-12,-8.14881e-01,1.69832e-12,-8.14881e-01
8.28362e+02,4.12600e+03,4.88100e+03,-7.55000e+02,2.93872e-13,-8.07336e-01,1.26908e-12,-8.07336e-01,1.53037e-12,-8.07336e-01
8.28610e+02,4.72000e+03,3.22800e+03,1.49200e+03,7.49250e-13,-7.99791e-01,1.54225e-12,-7.99791e-01,1.58803e-12,-7.99791e-01
8.28859e+02,5.19500e+03,2.00000e+03,3.19500e+03,1.02896e-12,-7.92246e-01,2.34503e-12,-7.92246e-01,1.99272e-12,-7.92246e-01
8.29108e+02,5.02700e+03,1.13600e+03,3.89100e+03,1.36832e-12,-7.84701e-01,1.71254e-12,-7.84701e-01,1.92936e-12,-7.84701e-01
8.29356e+02,4.39100e+03,8.46000e+02,3.54500e+03,1.37500e-12,-7.77155e-01,4.55266e-13,-7.77155e-01,1.17220e-12,-7.77155e-01
8.29605e+02,3.63900e+03,9.05000e+02,2.73400e+03,1.22389e-12,-7.69610e-01,1.26020e-12,-7.69610e-01,6.68269e-13,-7.69610e-01
8.29853e+02,2.80700e+03,1.45000e+03,1.35700e+03,3.62261e-13,-7.62065e-01,1.60655e-12,-7.62065e-01,1.62180e-12,-7.62065e-01
8.30101e+02,2.02500e+03,2.17500e+03,-1.50000e+02,1.16738e-12,-7.54520e-01,8.57645e-13,-7.54520e-01,1.90709e-12,-7.54520e-01
8.30350e+02,1.47800e+03,2.90800e+03,-1.43000e+03,1.60710e-12,-7.46975e-01,5.63455e-13,-7.46975e-01,1.24384e-12,-7.46975e-01
8.30598e+02,8.59000e+02,3.13300e+03,-2.27400e+03,7.46368e-13,-7.39429e-01,1.23792e-12,-7.39429e-01,5.35512e-13,-7.39429e-01
8.30847e+02,7.41000e+02,3.45100e+03,-2.71000e+03,9.11715e-13,-7.31884e-01,5.07675e-13,-7.31884e-01,1.27299e-12,-7.31884e-01
8.31095e+02,7.87000e+02,3.70000e+03,-2.91300e+03,9.44040e-13,-7.24339e-01,1.13397e-12,-7.24339e-01,8.99115e-13,-7.24339e-01
8.31344e+02,1.21700e+03,3.37700e+03,-2.16000e+03,7.92248e-13,-7.16794e-01,1.86110e-12,-7.16794e-01,2.17689e-12,-7.16794e-01
8.31592e+02,1.63300e+03,2.77700e+03,-1.14400e+03,2.13920e-12,-7.09249e-01,1.25357e-12,-7.09249e-01,2.49872e-12,-7.09249e-01
8.31841e+02,2.04500e+03,2.15500e+03,-1.10000e+02,2.47456e-12,-7.01703e-01,1.22382e-12,-7.01703e-01,1.26865e-12,-7.01703e-01
8.32089e+02,2.55600e+03,1.56900e+03,9.87000e+02,9.66781e-13,-6.94158e-01,1.22459e-12,-6.94158e-01,5.43443e-13,-6.94158e-01
8.32337e+02,2.97200e+03,1.10000e+03,1.87200e+03,2.53252e-13,-6.86613e-01,4.88411e-13,-6.86613e-01,7.27784e-13,-6.86613e-01
8.32586e+02,2.70800e+03,7.52000e+02,1.95600e+03,3.35527e-13,-6.79068e-01,6.42040e-13,-6.79068e-01,6.14380e-13,-6.79068e-01
8.32834e+02,2.71600e+03,7.23000e+02,1.99300e+03,2.32300e-13,-6.71523e-01,6.50210e-13,-6.71523e-01,4.64885e-13,-6.71523e-01
8.33083e+02,2.28700e+03,7.42000e+02,1.54500e+03,1.25973e-13,-6.63977e-01,2.62145e-13,-6.63977e-01,3.28681e-13,-6.63977e-01
8.33331e+02,1.69800e+03,1.02900e+03,6.69000e+02,3.79681e-13,-6.56432e-01,6.15680e-13,-6.56432e-01,4.66732e-13,-6.56432e-01
8.33579e+02,1.18800e+03,1.36800e+03,-1.80000e+02,7.95335e-13,-6.48887e-01,1.97013e-12,-6.48887e-01,1.37154e-12,-6.48887e-01
8.33828e+02,8.47000e+02,1.66100e+03,-8.14000e+02,1.35847e-12,-6.41342e-01,2.11713e-12,-6.41342e-01,1.76471e-12,-6.41342e-01
8.34076e+02,6.76000e+02,1.75000e+03,-1.07400e+03,2.22546e-12,-6.33797e-01,1.78995e-12,-6.33797e-01,1.02626e-12,-6.33797e-01
8.34324e+02,6.65000e+02,2.02600e+03,-1.36100e+03,1.76694e-12,-6.26251e-01,1.09995e-12,-6.26251e-01,1.16631e-12,-6.26251e-01
8.34573e+02,6.91000e+02,1.98400e+03,-1.29300e+03,5.71766e-13,-6.18706e-01,1.75208e-12,-6.18706e-01,1.87797e-12,-6.18706e-01
8.34821e+02,8.19000e+02,1.80200e+03,-9.83000e+02,1.31188e-12,-6.11161e-01,2.90516e-12,-6.11161e-01,2.66809e-12,-6.11161e-01
8.35069e+02,9.93000e+02,1.54800e+03,-5.55000e+02,2.10203e-12,-6.03616e-01,3.89598e-12,-6.03616e-01,4.07719e-12,-6.03616e-01
8.35318e+02,1.34200e+03,1.33300e+03,9.00000e+00,2.04867e-12,-5.96071e-01,3.87747e-12,-5.96071e-01,3.98470e-12,-5.96071e-01
8.35566e+02,1.41500e+03,9.01000e+02,5.14000e+02,1.49729e-12,-5.88525e-01,2.87645e-12,-5.88525e-01,3.02631e-12,-5.88525e-01
8.35814e+02,1.52100e+03,7.31000e+02,7.90000e+02,1.50240e-12,-5.80980e-01,1.70858e-12,-5.80980e-01,1.90419e-12,-5.80980e-01
8.36062e+02,1.36300e+03,6.50000e+02,7.13000e+02,2.05057e-12,-5.73435e-01,9.43406e-13,-5.73435e-01,2.46024e-12,-5.73435e-01
8.36311e+02,1.30800e+03,6.42000e+02,6.66000e+02,1.52788e-12,-5.65890e-01,1.15916e-12,-5.65890e-01,2.67647e-12,-5.65890e-01
8.36559e+02,1.19700e+03,6.65000e+02,5.32000e+02,4.43651e-13,-5.58345e-01,1.54557e-12,-5.58345e-01,1.96418e-12,-5.58345e-01
8.36807e+02,1.06800e+03,7.43000e+02,3.25000e+02,5.16429e-13,-5.50799e-01,3.81785e-13,-5.50799e-01,5.03287e-13,-5.50799e-01
8.37055e+02,8.22000e+02,8.08000e+02,1.40000e+01,1.76236e-12,-5.43254e-01,1.11627e-12,-5.43254e-01,1.88629e-12,-5.43254e-01
8.37304e+02,7.16000e+02,9.60000e+02,-2.44000e+02,2.29124e-12,-5.35709e-01,2.09000e-12,-5.35709e-01,2.29407e-12,-5.35709e-01
8.37552e+02,6.45000e+02,1.03600e+03,-3.91000e+02,1.30578e-12,-5.28164e-01,2.20659e-12,-5.28164e-01,1.24426e-12,-5.28164e-01
8.37800e+02,6.64000e+02,1.13200e+03,-4.68000e+02,3.37755e-13,-5.20619e-01,7.19941e-13,-5.20619e-01,8.54216e-13,-5.20619e-01
8.38048e+02,6.27000e+02,9.88000e+02,-3.61000e+02,1.64521e-12,-5.13073e-01,7.81414e-13,-5.13073e-01,1.55924e-12,-5.13073e-01
8.38296e+02,6.59000e+02,9.38000e+02,-2.79000e+02,2.06652e-12,-5.05528e-01,1.37349e-12,-5.05528e-01,2.93014e-12,-5.05528e-01
8.38545e+02,6.86000e+02,8.24000e+02,-1.38000e+02,8.31155e-13,-4.97983e-01,1.94944e-12,-4.97983e-01,2.75910e-12,-4.97983e-01
8.38793e+02,7.58000e+02,7.86000e+02,-2.80000e+01,1.01384e-12,-4.90438e-01,2.67300e-12,-4.90438e-01,1.68665e-12,-4.90438e-01
8.39041e+02,7.76000e+02,7.05000e+02,7.10000e+01,1.80566e-12,-4.82893e-01,2.96292e-12,-4.82893e-01,1.21131e-12,-4.82893e-01
8.39289e+02,8.37000e+02,6.61000e+02,1.76000e+02,2.21132e-12,-4.75347e-01,2.32460e-12,-4.75347e-01,4.48336e-13,-4.75347e-01
8.39537e+02,7.96000e+02,6.41000e+02,1.55000e+02,1.82964e-12,-4.67802e-01,9.82505e-13,-4.67802e-01,8.80379e-13,-4.67802e-01
8.39785e+02,8.15000e+02,6.32000e+02,1.83000e+02,1.70769e-12,-4.60257e-01,1.92800e-12,-4.60257e-01,4.88784e-13,-4.60257e-01
8.40033e+02,7.33000e+02,6.27000e+02,1.06000e+02,7.19624e-13,-4.52712e-01,1.97895e-12,-4.52712e-01,1.26131e-12,-4.52712e-01
8.40281e+02,7.46000e+02,6.76000e+02,7.00000e+01,4.73104e-13,-4.45167e-01,1.51924e-12,-4.45167e-01,1.70571e-12,-4.45167e-01
8.40530e+02,6.52000e+02,6.39000e+02,1.30000e+01,5.44297e-13,-4.37621e-01,2.30735e-12,-4.37621e-01,1.78320e-12,-4.37621e-01
8.40778e+02,6.56000e+02,6.92000e+02,-3.60000e+01,2.66021e-12,-4.30076e-01,3.78292e-12,-4.30076e-01,1.60143e-12,-4.30076e-01
8.41026e+02,6.38000e+02,6.97000e+02,-5.90000e+01,4.68544e-12,-4.22531e-01,4.35863e-12,-4.22531e-01,2.29506e-12,-4.22531e-01
8.41274e+02,6.35000e+02,6.95000e+02,-6.00000e+01,4.69412e-12,-4.14986e-01,4.18641e-12,-4.14986e-01,4.30143e-12,-4.14986e-01
8.41522e+02,6.43000e+02,6.84000e+02,-4.10000e+01,4.52035e-12,-4.07441e-01,4.73607e-12,-4.07441e-01,6.85030e-12,-4.07441e-01
8.41770e+02,6.37000e+02,6.90000e+02,-5.30000e+01,5.40440e-12,-3.99895e-01,6.12577e-12,-3.99895e-01,8.03503e-12,-3.99895e-01
8.42018e+02,6.40000e+02,6.78000e+02,-3.80000e+01,4.97785e-12,-3.92350e-01,7.36800e-12,-3.92350e-01,7.34220e-12,-3.92350e-01
8.42266e+02,6.51000e+02,6.61000e+02,-1.00000e+01,3.43285e-12,-3.84805e-01,6.18598e-12,-3.84805e-01,6.53386e-12,-3.84805e-01
8.42514e+02,6.58000e+02,6.38000e+02,2.00000e+01,3.64713e-12,-3.77260e-01,2.68848e-12,-3.77260e-01,6.02716e-12,-3.77260e-01
8.42762e+02,7.04000e+02,6.76000e+02,2.80000e+01,4.62281e-12,-3.69715e-01,1.10375e-12,-3.69715e-01,4.56958e-12,-3.69715e-01
8.43010e+02,6.50000e+02,6.16000e+02,3.40000e+01,3.42331e-12,-3.62169e-01,1.84629e-12,-3.62169e-01,1.57703e-12,-3.62169e-01
8.43258e+02,6.67000e+02,6.23000e+02,4.40000e+01,9.31672e-13,-3.54624e-01,1.93810e-12,-3.54624e-01,2.27809e-12,-3.54624e-01
8.43506e+02,6.56000e+02,6.28000e+02,2.80000e+01,1.61390e-12,-3.47079e-01,2.14585e-12,-3.47079e-01,3.75468e-12,-3.47079e-01
8.43754e+02,6.54000e+02,6.32000e+02,2.20000e+01,1.08672e-12,-3.39534e-01,1.86793e-12,-3.39534e-01,2.83369e-12,-3.39534e-01
8.44002e+02,6.28000e+02,6.30000e+02,-2.00000e+00,9.63311e-13,-3.31989e-01,1.34899e-12,-3.31989e-01,7.02448e-13,-3.31989e-01
8.44250e+02,6.46000e+02,6.33000e+02,1.30000e+01,2.74216e-12,-3.24444e-01,2.32475e-12,-3.24444e-01,3.30560e-12,-3.24444e-01
8.44498e+02,6.28000e+02,6.41000e+02,-1.30000e+01,4.31333e-12,-3.16898e-01,2.51945e-12,-3.16898e-01,4.01514e-12,-3.16898e-01
8.44746e+02,6.35000e+02,6.50000e+02,-1.50000e+01,4.50188e-12,-3.09353e-01,2.45492e-12,-3.09353e-01,3.58906e-12,-3.09353e-01
8.44994e+02,6.37000e+02,6.42000e+02,-5.00000e+00,2.58273e-12,-3.01808e-01,1.48261e-12,-3.01808e-01,2.26437e-12,-3.01808e-01
8.45242e+02,6.63000e+02,6.70000e+02,-7.00000e+00,9.83790e-13,-2.94263e-01,1.35204e-12,-2.94263e-01,9.79892e-13,-2.94263e-01
8.45490e+02,6.21000e+02,6.28000e+02,-7.00000e+00,9.55214e-13,-2.86718e-01,1.36998e-12,-2.86718e-01,2.22279e-12,-2.86718e-01
8.45738e+02,6.34000e+02,6.44000e+02,-1.00000e+01,2.93305e-12,-2.79172e-01,6.63597e-13,-2.79172e-01,3.47761e-12,-2.79172e-01
8.45985e+02,6.40000e+02,6.34000e+02,6.00000e+00,2.68848e-12,-2.71627e-01,2.25941e-12,-2.71627e-01,2.17261e-12,-2.71627e-01
8.46233e+02,6.49000e+02,6.22000e+02,2.70000e+01,1.52910e-12,-2.64082e-01,2.00867e-12,-2.64082e-01,2.89986e-12,-2.64082e-01
8.46481e+02,6.48000e+02,6.28000e+02,2.00000e+01,3.09116e-12,-2.56537e-01,3.29395e-12,-2.56537e-01,5.02262e-12,-2.56537e-01
8.46729e+02,6.49000e+02,6.35000e+02,1.40000e+01,4.30540e-12,-2.48992e-01,4.27862e-12,-2.48992e-01,3.26806e-12,-2.48992e-01
8.46977e+02,6.29000e+02,6.25000e+02,4.00000e+00,1.16068e-11,-2.41446e-01,2.89936e-12,-2.41446e-01,1.32503e-11,-2.41446e-01
8.47225e+02,6.35000e+02,6.24000e+02,1.10000e+01,6.10612e-12,-2.33901e-01,7.72812e-12,-2.33901e-01,9.97028e-12,-2.33901e-01
8.47473e+02,6.40000e+02,6.18000e+02,2.20000e+01,1.54169e-11,-2.26356e-01,1.22544e-11,-2.26356e-01,2.65049e-11,-2.26356e-01
8.47720e+02,6.60000e+02,6.51000e+02,9.00000e+00,3.90790e-11,-2.18811e-01,4.18249e-11,-2.18811e-01,7.59120e-11,-2.18811e-01
8.47968e+02,6.16000e+02,6.07000e+02,9.00000e+00,7.42243e-11,-2.11266e-01,7.92366e-11,-2.11266e-01,1.46999e-10,-2.11266e-01
8.48216e+02,6.29000e+02,6.21000e+02,8.00000e+00,1.08636e-10,-2.03720e-01,1.08665e-10,-2.03720e-01,2.09336e-10,-2.03720e-01
8.48464e+02,6.24000e+02,6.32000e+02,-8.00000e+00,1.03805e-10,-1.96175e-01,1.01550e-10,-1.96175e-01,1.99103e-10,-1.96175e-01
8.48712e+02,6.33000e+02,6.32000e+02,1.00000e+00,6.46996e-11,-1.88630e-01,6.51402e-11,-1.88630e-01,1.26826e-10,-1.88630e-01
8.48960e+02,6.18000e+02,6.30000e+02,-1.20000e+01,2.49742e-11,-1.81085e-01,3.06663e-11,-1.81085e-01,5.48144e-11,-1.81085e-01
8.49207e+02,6.34000e+02,6.23000e+02,1.10000e+01,1.31078e-11,-1.73540e-01,2.22521e-11,-1.73540e-01,3.30065e-11,-1.73540e-01
8.49455e+02,6.26000e+02,6.24000e+02,2.00000e+00,1.00898e-11,-1.65994e-01,1.28980e-11,-1.65994e-01,1.95710e-11,-1.65994e-01
8.49703e+02,6.31000e+02,6.40000e+02,-9.00000e+00,3.14044e-12,-1.58449e-01,2.55670e-12,-1.58449e-01,5.35465e-12,-1.58449e-01
8.49951e+02,6.23000e+02,6.18000e+02,5.00000e+00,6.46925e-12,-1.50904e-01,5.35860e-12,-1.50904e-01,2.38920e-12,-1.50904e-01
8.50198e+02,6.66000e+02,6.65000e+02,1.00000e+00,5.46825e-12,-1.43359e-01,4.52787e-12,-1.43359e-01,3.27164e-12,-1.43359e-01
8.50446e+02,6.11000e+02,6.21000e+02,-1.00000e+01,3.50174e-12,-1.35814e-01,3.32138e-12,-1.35814e-01,2.18234e-12,-1.35814e-01
8.50694e+02,6.38000e+02,6.25000e+02,1.30000e+01,4.54942e-12,-1.28268e-01,2.03698e-12,-1.28268e-01,2.86073e-12,-1.28268e-01
8.50941e+02,6.18000e+02,6.21000e+02,-3.00000e+00,5.50774e-12,-1.20723e-01,1.22663e-12,-1.20723e-01,4.59387e-12,-1.20723e-01
8.51189e+02,6.32000e+02,6.20000e+02,1.20000e+01,3.87950e-12,-1.13178e-01,1.29305e-12,-1.13178e-01,2.64378e-12,-1.13178e-01
8.51437e+02,6.29000e+02,6.31000e+02,-2.00000e+00,2.33582e-12,-1.05633e-01,2.60581e-12,-1.05633e-01,2.80696e-13,-1.05633e-01
8.51685e+02,6.40000e+02,6.25000e+02,1.50000e+01,2.93836e-12,-9.80876e-02,1.79918e-12,-9.80876e-02,1.76748e-12,-9.80876e-02
8.51932e+02,6.18000e+02,6.27000e+02,-9.00000e+00,1.81781e-12,-9.05424e-02,1.78146e-12,-9.05424e-02,8.16806e-13,-9.05424e-02
8.52180e+02,6.29000e+02,6.33000e+02,-4.00000e+00,1.99104e-12,-8.29972e-02,2.25661e-12,-8.29972e-02,3.74521e-12,-8.29972e-02
8.52428e+02,6.25000e+02,6.33000e+02,-8.00000e+00,4.08377e-12,-7.54520e-02,2.39093e-12,-7.54520e-02,6.05056e-12,-7.54520e-02
8.52675e+02,6.58000e+02,6.50000e+02,8.00000e+00,9.98004e-13,-6.79068e-02,3.60125e-12,-6.79068e-02,3.11747e-12,-6.79068e-02
8.52923e+02,6.17000e+02,6.19000e+02,-2.00000e+00,8.26391e-12,-6.03616e-02,6.13695e-12,-6.03616e-02,3.80495e-12,-6.03616e-02
8.53170e+02,6.30000e+02,6.26000e+02,4.00000e+00,1.16329e-11,-5.28164e-02,7.91945e-12,-5.28164e-02,3.83566e-12,-5.28164e-02
8.53418e+02,6.28000e+02,6.36000e+02,-8.00000e+00,7.44598e-12,-4.52712e-02,5.77038e-12,-4.52712e-02,3.47424e-12,-4.52712e-02
8.53666e+02,6.36000e+02,6.44000e+02,-8.00000e+00,2.18495e-12,-3.77260e-02,3.00758e-12,-3.77260e-02,4.93479e-12,-3.77260e-02
8.53913e+02,6.28000e+02,6.26000e+02,2.00000e+00,2.93073e-12,-3.01808e-02,2.12785e-12,-3.01808e-02,4.43664e-12,-3.01808e-02
8.54161e+02,6.34000e+02,6.24000e+02,1.00000e+01,1.03289e-11,-2.26356e-02,1.64329e-11,-2.26356e-02,7.32705e-12,-2.26356e-02
8.54409e+02,6.13000e+02,6.32000e+02,-1.90000e+01,7.65310e-11,-1.50904e-02,7.86627e-11,-1.50904e-02,8.47668e-12,-1.50904e-02
8.54656e+02,6.30000e+02,6.38000e+02,-8.00000e+00,2.26319e-10,-7.54520e-03,2.28791e-10,-7.54520e-03,5.75321e-12,-7.54520e-03
