7.67698e+02,6.44000e+02,6.34000e+02,1.00000e+01,3.85860e-10,0.00000e+00,3.85138e-10,0.00000e+00,7.22273e-13,0.00000e+00
7.67949e+02,6.71000e+02,6.60000e+02,1.10000e+01,2.31235e-10,7.54520e-03,2.30325e-10,7.54520e-03,2.78734e-12,7.54520e-03
7.68199e+02,6.18000e+02,6.24000e+02,-6.00000e+00,8.41508e-11,1.50904e-02,8.33469e-11,1.50904e-02,1.60298e-12,1.50904e-02
7.68450e+02,6.25000e+02,6.32000e+02,-7.00000e+00,1.85474e-11,2.26356e-02,1.65811e-11,2.26356e-02,1.97192e-12,2.26356e-02
7.68701e+02,6.39000e+02,6.35000e+02,4.00000e+00,4.81273e-12,3.01808e-02,4.80764e-12,3.01808e-02,1.92691e-12,3.01808e-02
7.68951e+02,6.24000e+02,6.28000e+02,-4.00000e+00,4.85029e-12,3.77260e-02,4.89091e-12,3.77260e-02,7.88977e-13,3.77260e-02
7.69202e+02,6.36000e+02,6.31000e+02,5.00000e+00,2.21268e-12,4.52712e-02,5.10014e-12,4.52712e-02,3.12134e-12,4.52712e-02
7.69453e+02,6.36000e+02,6.44000e+02,-8.00000e+00,6.04690e-12,5.28164e-02,9.94530e-12,5.28164e-02,3.99867e-12,5.28164e-02
7.69703e+02,6.50000e+02,6.40000e+02,1.00000e+01,8.19978e-12,6.03616e-02,1.03852e-11,6.03616e-02,2.19914e-12,6.03616e-02
7.69954e+02,6.33000e+02,6.41000e+02,-8.00000e+00,8.19357e-12,6.79068e-02,7.60458e-12,6.79068e-02,2.13357e-12,6.79068e-02
7.70205e+02,6.31000e+02,6.40000e+02,-9.00000e+00,6.26110e-12,7.54520e-02,4.43679e-12,7.54520e-02,2.39139e-12,7.54520e-02
7.70455e+02,6.69000e+02,6.64000e+02,5.00000e+00,5.11760e-12,8.29972e-02,4.08446e-12,8.29972e-02,2.21619e-12,8.29972e-02
7.70706e+02,6.35000e+02,6.26000e+02,9.00000e+00,3.89715e-12,9.05424e-02,3.95161e-12,9.05424e-02,3.39184e-12,9.05424e-02
7.70957e+02,6.45000e+02,6.56000e+02,-1.10000e+01,2.86010e-12,9.80876e-02,3.65209e-12,9.80876e-02,1.02416e-12,9.80876e-02
7.71207e+02,6.34000e+02,6.45000e+02,-1.10000e+01,4.98711e-12,1.05633e-01,3.91792e-12,1.05633e-01,2.21951e-12,1.05633e-01
7.71458e+02,6.48000e+02,6.42000e+02,6.00000e+00,5.79592e-12,1.13178e-01,3.11259e-12,1.13178e-01,3.04610e-12,1.13178e-01
7.71708e+02,6.48000e+02,6.37000e+02,1.10000e+01,4.86342e-12,1.20723e-01,2.20430e-12,1.20723e-01,2.71891e-12,1.20723e-01
7.71959e+02,6.29000e+02,6.58000e+02,-2.90000e+01,2.21716e-12,1.28268e-01,4.82975e-13,1.28268e-01,1.92874e-12,1.28268e-01
7.72210e+02,6.46000e+02,6.52000e+02,-6.00000e+00,7.60267e-13,1.35814e-01,1.24123e-12,1.35814e-01,8.52341e-13,1.35814e-01
7.72460e+02,6.84000e+02,6.60000e+02,2.40000e+01,4.69683e-12,1.43359e-01,4.32480e-12,1.43359e-01,1.16916e-12,1.43359e-01
7.72711e+02,6.50000e+02,6.47000e+02,3.00000e+00,7.36082e-12,1.50904e-01,7.18190e-12,1.50904e-01,1.96342e-12,1.50904e-01
7.72961e+02,6.68000e+02,7.09000e+02,-4.10000e+01,5.95840e-12,1.58449e-01,5.48561e-12,1.58449e-01,1.56776e-12,1.58449e-01
7.73212e+02,6.52000e+02,6.39000e+02,1.30000e+01,3.02069e-12,1.65994e-01,2.17678e-12,1.65994e-01,1.22241e-12,1.65994e-01
7.73462e+02,6.67000e+02,6.46000e+02,2.10000e+01,4.92833e-12,1.73540e-01,3.54948e-12,1.73540e-01,2.29284e-12,1.73540e-01
7.73713e+02,6.52000e+02,6.50000e+02,2.00000e+00,4.92423e-12,1.81085e-01,3.82330e-12,1.81085e-01,1.62252e-12,1.81085e-01
7.73963e+02,6.68000e+02,6.65000e+02,3.00000e+00,3.78891e-12,1.88630e-01,4.27083e-12,1.88630e-01,2.09718e-12,1.88630e-01
7.74214e+02,6.69000e+02,6.44000e+02,2.50000e+01,1.81257e-12,1.96175e-01,4.20477e-12,1.96175e-01,3.54174e-12,1.96175e-01
7.74465e+02,6.65000e+02,6.58000e+02,7.00000e+00,4.53697e-13,2.03720e-01,3.62872e-12,2.03720e-01,3.18543e-12,2.03720e-01
7.74715e+02,6.48000e+02,6.74000e+02,-2.60000e+01,7.12384e-13,2.11266e-01,2.71107e-12,2.11266e-01,2.08433e-12,2.11266e-01
7.74965e+02,6.90000e+02,6.79000e+02,1.10000e+01,2.39613e-13,2.18811e-01,2.00224e-12,2.18811e-01,2.15298e-12,2.18811e-01
7.75216e+02,6.84000e+02,6.44000e+02,4.00000e+01,1.58696e-12,2.26356e-01,2.53907e-12,2.26356e-01,2.98857e-12,2.26356e-01
7.75466e+02,7.05000e+02,7.20000e+02,-1.50000e+01,2.56232e-12,2.33901e-01,3.73241e-12,2.33901e-01,2.57617e-12,2.33901e-01
7.75717e+02,6.46000e+02,7.04000e+02,-5.80000e+01,4.36702e-12,2.41446e-01,3.51571e-12,2.41446e-01,2.51744e-12,2.41446e-01
7.75967e+02,7.18000e+02,7.01000e+02,1.70000e+01,4.55278e-12,2.48992e-01,2.33967e-12,2.48992e-01,3.44619e-12,2.48992e-01
7.76218e+02,7.03000e+02,6.61000e+02,4.20000e+01,2.59730e-12,2.56537e-01,9.48643e-13,2.56537e-01,1.65600e-12,2.56537e-01
7.76468e+02,6.74000e+02,7.40000e+02,-6.60000e+01,3.46904e-12,2.64082e-01,3.05201e-12,2.64082e-01,1.19878e-12,2.64082e-01
7.76719e+02,7.14000e+02,7.34000e+02,-2.00000e+01,3.54663e-12,2.71627e-01,3.36908e-12,2.71627e-01,7.34783e-13,2.71627e-01
7.76969e+02,8.00000e+02,6.86000e+02,1.14000e+02,1.45161e-12,2.79172e-01,1.99259e-12,2.79172e-01,1.50345e-12,2.79172e-01
7.77219e+02,7.15000e+02,7.10000e+02,5.00000e+00,7.32674e-13,2.86718e-01,2.95686e-12,2.86718e-01,2.30156e-12,2.86718e-01
7.77470e+02,7.27000e+02,8.81000e+02,-1.54000e+02,7.05115e-13,2.94263e-01,3.19228e-12,2.94263e-01,2.83215e-12,2.94263e-01
7.77720e+02,8.12000e+02,7.63000e+02,4.90000e+01,1.65598e-12,3.01808e-01,3.46928e-12,3.01808e-01,3.55075e-12,3.01808e-01
7.77971e+02,8.90000e+02,7.70000e+02,1.20000e+02,3.97628e-12,3.09353e-01,4.56292e-12,3.09353e-01,2.22472e-12,3.09353e-01
7.78221e+02,7.02000e+02,8.21000e+02,-1.19000e+02,4.30197e-12,3.16898e-01,3.88861e-12,3.16898e-01,1.75913e-12,3.16898e-01
7.78471e+02,7.92000e+02,9.57000e+02,-1.65000e+02,4.02352e-12,3.24444e-01,2.87904e-12,3.24444e-01,4.74080e-12,3.24444e-01
7.78722e+02,9.44000e+02,8.05000e+02,1.39000e+02,2.72249e-12,3.31989e-01,2.16806e-12,3.31989e-01,4.69687e-12,3.31989e-01
7.78972e+02,9.88000e+02,8.27000e+02,1.61000e+02,3.03135e-12,3.39534e-01,1.09862e-12,3.39534e-01,3.65761e-12,3.39534e-01
7.79222e+02,7.61000e+02,9.92000e+02,-2.31000e+02,3.25933e-12,3.47079e-01,2.80563e-12,3.47079e-01,2.42650e-12,3.47079e-01
7.79473e+02,8.88000e+02,9.94000e+02,-1.06000e+02,1.71944e-12,3.54624e-01,3.95068e-12,3.54624e-01,2.34174e-12,3.54624e-01
7.79723e+02,1.04200e+03,7.76000e+02,2.66000e+02,2.93671e-12,3.62169e-01,3.53843e-12,3.62169e-01,2.37075e-12,3.62169e-01
7.79973e+02,9.68000e+02,9.18000e+02,5.00000e+01,4.16015e-12,3.69715e-01,2.66006e-12,3.69715e-01,2.40307e-12,3.69715e-01
7.80224e+02,7.98000e+02,1.15600e+03,-3.58000e+02,2.55954e-12,3.77260e-01,8.12453e-13,3.77260e-01,2.03914e-12,3.77260e-01
7.80474e+02,1.10000e+03,1.18000e+03,-8.00000e+01,8.73870e-13,3.84805e-01,1.64537e-12,3.84805e-01,1.67965e-12,3.84805e-01
7.80724e+02,1.05700e+03,8.34000e+02,2.23000e+02,1.58621e-12,3.92350e-01,1.97716e-12,3.92350e-01,2.25692e-12,3.92350e-01
7.80974e+02,8.67000e+02,1.10400e+03,-2.37000e+02,9.61862e-13,3.99895e-01,2.05636e-12,3.99895e-01,2.98664e-12,3.99895e-01
7.81225e+02,8.89000e+02,1.26200e+03,-3.73000e+02,2.22135e-12,4.07441e-01,2.93318e-12,4.07441e-01,3.03329e-12,4.07441e-01
7.81475e+02,1.41300e+03,1.13700e+03,2.76000e+02,2.47972e-12,4.14986e-01,2.84775e-12,4.14986e-01,2.48550e-12,4.14986e-01
7.81725e+02,1.30400e+03,9.36000e+02,3.68000e+02,1.49602e-12,4.22531e-01,2.01605e-12,4.22531e-01,2.00083e-12,4.22531e-01
7.81975e+02,1.05700e+03,1.39200e+03,-3.35000e+02,1.01157e-12,4.30076e-01,1.05569e-12,4.30076e-01,1.50971e-12,4.30076e-01
7.82226e+02,1.11500e+03,1.46100e+03,-3.46000e+02,1.05668e-12,4.37621e-01,5.43263e-13,4.37621e-01,8.03907e-13,4.37621e-01
7.82476e+02,1.55000e+03,1.10800e+03,4.42000e+02,1.56531e-12,4.45167e-01,1.34292e-12,4.45167e-01,2.04237e-12,4.45167e-01
7.82726e+02,1.40800e+03,1.06800e+03,3.40000e+02,1.10382e-12,4.52712e-01,2.63688e-12,4.52712e-01,3.03485e-12,4.52712e-01
7.82976e+02,1.11400e+03,1.45500e+03,-3.41000e+02,2.61370e-13,4.60257e-01,2.42433e-12,4.60257e-01,2.66885e-12,4.60257e-01
7.83226e+02,1.30400e+03,1.21900e+03,8.50000e+01,6.88264e-13,4.67802e-01,8.43875e-13,4.67802e-01,1.51962e-12,4.67802e-01
7.83477e+02,1.71800e+03,1.09100e+03,6.27000e+02,6.66974e-13,4.75347e-01,7.18353e-13,4.75347e-01,1.37384e-12,4.75347e-01
7.83727e+02,1.26900e+03,1.18300e+03,8.60000e+01,1.14763e-12,4.82893e-01,1.75621e-12,4.82893e-01,2.05084e-12,4.82893e-01
7.83977e+02,1.17900e+03,1.65100e+03,-4.72000e+02,2.11317e-12,4.90438e-01,1.90032e-12,4.90438e-01,2.58495e-12,4.90438e-01
7.84227e+02,1.63600e+03,1.42600e+03,2.10000e+02,2.04430e-12,4.97983e-01,1.47356e-12,4.97983e-01,3.51150e-12,4.97983e-01
7.84477e+02,1.84400e+03,1.25100e+03,5.93000e+02,1.19424e-12,5.05528e-01,2.55251e-12,5.05528e-01,3.00696e-12,5.05528e-01
7.84727e+02,1.32000e+03,1.70600e+03,-3.86000e+02,1.39392e-12,5.13073e-01,2.41985e-12,5.13073e-01,1.05866e-12,5.13073e-01
7.84978e+02,1.57600e+03,2.05500e+03,-4.79000e+02,1.62914e-12,5.20619e-01,1.46078e-12,5.20619e-01,1.52845e-12,5.20619e-01
7.85228e+02,2.35200e+03,1.63600e+03,7.16000e+02,2.50418e-12,5.28164e-01,1.22102e-12,5.28164e-01,3.33532e-12,5.28164e-01
7.85478e+02,2.26500e+03,1.63400e+03,6.31000e+02,2.00240e-12,5.35709e-01,9.96673e-13,5.35709e-01,2.06738e-12,5.35709e-01
7.85728e+02,1.63500e+03,2.39300e+03,-7.58000e+02,1.03667e-12,5.43254e-01,1.34487e-12,5.43254e-01,1.91373e-12,5.43254e-01
7.85978e+02,2.13900e+03,2.57800e+03,-4.39000e+02,2.42889e-12,5.50799e-01,1.67485e-12,5.50799e-01,3.89548e-12,5.50799e-01
7.86228e+02,2.60500e+03,1.72900e+03,8.76000e+02,2.43578e-12,5.58345e-01,1.83363e-12,5.58345e-01,3.32536e-12,5.58345e-01
7.86478e+02,1.99700e+03,2.00200e+03,-5.00000e+00,2.42922e-12,5.65890e-01,1.99755e-12,5.65890e-01,3.66249e-12,5.65890e-01
7.86728e+02,1.57800e+03,2.61900e+03,-1.04100e+03,2.48284e-12,5.73435e-01,1.61539e-12,5.73435e-01,4.04218e-12,5.73435e-01
7.86978e+02,2.14800e+03,2.18800e+03,-4.00000e+01,2.15323e-12,5.80980e-01,1.82031e-12,5.80980e-01,3.92327e-12,5.80980e-01
7.87228e+02,2.69100e+03,1.67400e+03,1.01700e+03,2.28751e-12,5.88525e-01,2.77384e-12,5.88525e-01,5.01914e-12,5.88525e-01
7.87478e+02,2.14100e+03,2.18800e+03,-4.70000e+01,2.96374e-12,5.96071e-01,3.08039e-12,5.96071e-01,6.00961e-12,5.96071e-01
7.87728e+02,1.84900e+03,2.63800e+03,-7.89000e+02,5.42404e-12,6.03616e-01,5.37704e-12,6.03616e-01,1.06814e-11,6.03616e-01
7.87978e+02,2.80200e+03,2.21800e+03,5.84000e+02,9.77884e-12,6.11161e-01,9.17054e-12,6.11161e-01,1.86973e-11,6.11161e-01
7.88228e+02,2.52700e+03,1.62600e+03,9.01000e+02,1.30505e-11,6.18706e-01,1.36766e-11,6.18706e-01,2.61744e-11,6.18706e-01
7.88478e+02,1.86200e+03,2.62800e+03,-7.66000e+02,1.77910e-11,6.26251e-01,1.86355e-11,6.26251e-01,3.61337e-11,6.26251e-01
7.88728e+02,2.04800e+03,3.16400e+03,-1.11600e+03,2.60287e-11,6.33797e-01,2.43762e-11,6.33797e-01,4.99022e-11,6.33797e-01
7.88978e+02,2.99400e+03,2.32300e+03,6.71000e+02,3.19451e-11,6.41342e-01,3.01855e-11,6.41342e-01,6.12093e-11,6.41342e-01
7.89228e+02,3.06400e+03,2.17300e+03,8.91000e+02,3.28265e-11,6.48887e-01,3.20864e-11,6.48887e-01,6.37953e-11,6.48887e-01
7.89478e+02,2.19000e+03,3.40800e+03,-1.21800e+03,3.06977e-11,6.56432e-01,3.06603e-11,6.56432e-01,6.01140e-11,6.56432e-01
7.89728e+02,2.87200e+03,3.75800e+03,-8.86000e+02,2.63441e-11,6.63977e-01,2.71590e-11,6.63977e-01,5.23773e-11,6.63977e-01
7.89978e+02,4.14200e+03,2.75500e+03,1.38700e+03,2.06674e-11,6.71523e-01,2.28927e-11,6.71523e-01,4.26521e-11,6.71523e-01
7.90228e+02,3.30700e+03,2.56500e+03,7.42000e+02,1.48151e-11,6.79068e-01,1.81411e-11,6.79068e-01,3.17818e-11,6.79068e-01
7.90478e+02,2.48000e+03,3.64000e+03,-1.16000e+03,9.88476e-12,6.86613e-01,1.06340e-11,6.86613e-01,1.91326e-11,6.86613e-01
7.90728e+02,3.44600e+03,3.28800e+03,1.58000e+02,6.01757e-12,6.94158e-01,5.73512e-12,6.94158e-01,1.13811e-11,6.94158e-01
7.90978e+02,4.63400e+03,2.56400e+03,2.07000e+03,5.56385e-12,7.01703e-01,5.99317e-12,7.01703e-01,1.06468e-11,7.01703e-01
7.91228e+02,3.54700e+03,3.12400e+03,4.23000e+02,3.37318e-12,7.09249e-01,2.66641e-12,7.09249e-01,5.85818e-12,7.09249e-01
7.91478e+02,2.88200e+03,4.07800e+03,-1.19600e+03,2.03362e-12,7.16794e-01,2.39210e-12,7.16794e-01,3.37244e-12,7.16794e-01
7.91728e+02,3.87500e+03,3.26000e+03,6.15000e+02,2.87474e-12,7.24339e-01,5.85511e-13,7.24339e-01,3.40294e-12,7.24339e-01
7.91977e+02,4.02500e+03,2.38800e+03,1.63700e+03,1.65146e-12,7.31884e-01,1.46966e-12,7.31884e-01,3.03648e-12,7.31884e-01
7.92227e+02,2.61300e+03,3.11600e+03,-5.03000e+02,1.17752e-12,7.39429e-01,1.08872e-12,7.39429e-01,6.16818e-13,7.39429e-01
7.92477e+02,2.73600e+03,4.24100e+03,-1.50500e+03,6.72315e-13,7.46975e-01,1.52242e-12,7.46975e-01,8.50933e-13,7.46975e-01
7.92727e+02,4.75700e+03,3.62600e+03,1.13100e+03,7.14197e-13,7.54520e-01,6.10781e-13,7.54520e-01,2.30126e-13,7.54520e-01
7.92977e+02,5.16500e+03,2.94200e+03,2.22300e+03,6.99641e-13,7.62065e-01,1.12869e-12,7.62065e-01,1.70217e-12,7.62065e-01
7.93227e+02,3.18700e+03,4.06800e+03,-8.81000e+02,1.42395e-12,7.69610e-01,1.83139e-12,7.69610e-01,3.24843e-12,7.69610e-01
7.93476e+02,3.44200e+03,4.78500e+03,-1.34300e+03,1.81353e-12,7.77155e-01,1.42971e-12,7.77155e-01,3.24249e-12,7.77155e-01
7.93726e+02,4.89400e+03,3.48100e+03,1.41300e+03,9.17323e-13,7.84701e-01,7.77231e-13,7.84701e-01,1.29441e-12,7.84701e-01
7.93976e+02,4.44000e+03,3.18400e+03,1.25600e+03,1.01063e-12,7.92246e-01,1.01525e-12,7.92246e-01,8.58561e-13,7.92246e-01
7.94226e+02,3.21300e+03,4.92900e+03,-1.71600e+03,1.19748e-12,7.99791e-01,1.15598e-12,7.99791e-01,2.01128e-12,7.99791e-01
7.94476e+02,4.13900e+03,5.49300e+03,-1.35400e+03,1.30900e-12,8.07336e-01,1.59246e-12,8.07336e-01,2.88608e-12,8.07336e-01
7.94725e+02,5.22200e+03,3.38200e+03,1.84000e+03,1.83125e-12,8.14881e-01,1.49307e-12,8.14881e-01,3.32274e-12,8.14881e-01
7.94975e+02,4.50300e+03,3.10300e+03,1.40000e+03,1.89147e-12,8.22427e-01,1.06806e-12,8.22427e-01,2.67071e-12,8.22427e-01
7.95225e+02,3.16300e+03,4.70600e+03,-1.54300e+03,1.30014e-12,8.29972e-01,1.66082e-12,8.29972e-01,2.02869e-12,8.29972e-01
7.95475e+02,4.02900e+03,4.98000e+03,-9.51000e+02,5.44459e-13,8.37517e-01,2.33843e-12,8.37517e-01,2.57110e-12,8.37517e-01
7.95724e+02,5.16200e+03,3.22800e+03,1.93400e+03,6.16844e-13,8.45062e-01,1.93499e-12,8.45062e-01,2.02828e-12,8.45062e-01
7.95974e+02,4.61800e+03,3.45700e+03,1.16100e+03,1.24381e-12,8.52607e-01,1.09183e-12,8.52607e-01,5.02773e-13,8.52607e-01
7.96224e+02,3.50100e+03,5.68000e+03,-2.17900e+03,1.52670e-12,8.60153e-01,7.41339e-13,8.60153e-01,7.89719e-13,8.60153e-01
7.96474e+02,4.69300e+03,5.99000e+03,-1.29700e+03,1.91195e-12,8.67698e-01,1.55301e-12,8.67698e-01,7.24206e-13,8.67698e-01
7.96723e+02,5.97100e+03,3.76400e+03,2.20700e+03,2.12024e-12,8.75243e-01,1.72426e-12,8.75243e-01,1.71014e-12,8.75243e-01
7.96973e+02,4.49000e+03,4.12400e+03,3.66000e+02,1.76334e-12,8.82788e-01,1.25597e-12,8.82788e-01,1.43551e-12,8.82788e-01
7.97223e+02,3.48800e+03,6.45500e+03,-2.96700e+03,1.54226e-12,8.90333e-01,9.61460e-13,8.90333e-01,6.34569e-13,8.90333e-01
7.97472e+02,5.18900e+03,5.60900e+03,-4.20000e+02,1.61707e-12,8.97879e-01,9.10567e-13,8.97879e-01,7.27024e-13,8.97879e-01
7.97722e+02,7.11900e+03,4.04700e+03,3.07200e+03,1.56755e-12,9.05424e-01,7.85052e-13,9.05424e-01,7.91711e-13,9.05424e-01
7.97972e+02,5.76300e+03,5.45400e+03,3.09000e+02,1.96257e-12,9.12969e-01,1.24844e-12,9.12969e-01,7.19505e-13,9.12969e-01
7.98221e+02,4.69100e+03,7.92900e+03,-3.23800e+03,1.57574e-12,9.20514e-01,1.36110e-12,9.20514e-01,3.09939e-13,9.20514e-01
7.98471e+02,7.43000e+03,6.22000e+03,1.21000e+03,1.05774e-12,9.28059e-01,1.00478e-12,9.28059e-01,2.64079e-13,9.28059e-01
7.98721e+02,8.43400e+03,4.39300e+03,4.04100e+03,1.04146e-12,9.35605e-01,7.34654e-13,9.35605e-01,4.77824e-13,9.35605e-01
7.98970e+02,5.80900e+03,6.63300e+03,-8.24000e+02,8.41317e-13,9.43150e-01,3.60518e-13,9.43150e-01,1.05147e-12,9.43150e-01
7.99220e+02,4.48300e+03,8.59600e+03,-4.11300e+03,1.09765e-12,9.50695e-01,1.07238e-12,9.50695e-01,9.94889e-13,9.50695e-01
7.99469e+02,6.66000e+03,6.55400e+03,1.06000e+02,1.07123e-12,9.58240e-01,1.23329e-12,9.58240e-01,5.55098e-13,9.58240e-01
7.99719e+02,7.70200e+03,4.03200e+03,3.67000e+03,7.97050e-13,9.65785e-01,1.14744e-12,9.65785e-01,4.95280e-13,9.65785e-01
7.99969e+02,4.94800e+03,5.28800e+03,-3.40000e+02,8.77045e-13,9.73331e-01,1.17601e-12,9.73331e-01,5.95755e-13,9.73331e-01
8.00218e+02,4.24900e+03,7.43200e+03,-3.18300e+03,9.36431e-13,9.80876e-01,1.01828e-12,9.80876e-01,8.34483e-13,9.80876e-01
8.00468e+02,6.85400e+03,6.34000e+03,5.14000e+02,1.38670e-12,9.88421e-01,7.22019e-13,9.88421e-01,1.26597e-12,9.88421e-01
8.00717e+02,7.82800e+03,4.74300e+03,3.08500e+03,1.60058e-12,9.95966e-01,6.27775e-13,9.95966e-01,1.44267e-12,9.95966e-01
8.00967e+02,5.76100e+03,7.14100e+03,-1.38000e+03,9.78246e-13,1.00351e+00,2.14196e-13,1.00351e+00,1.08428e-12,1.00351e+00
8.01216e+02,5.22900e+03,9.74100e+03,-4.51200e+03,9.79794e-13,1.01106e+00,7.44515e-13,1.01106e+00,8.26788e-13,1.01106e+00
8.01466e+02,8.11700e+03,7.88300e+03,2.34000e+02,5.60425e-13,1.01860e+00,1.61546e-12,1.01860e+00,1.28078e-12,1.01860e+00
8.01715e+02,8.90100e+03,5.05900e+03,3.84200e+03,2.63291e-13,1.02615e+00,1.47320e-12,1.02615e+00,1.23140e-12,1.02615e+00
8.01965e+02,6.24900e+03,7.04200e+03,-7.93000e+02,3.54050e-13,1.03369e+00,7.86091e-13,1.03369e+00,5.51934e-13,1.03369e+00
8.02215e+02,5.77800e+03,9.47800e+03,-3.70000e+03,5.14676e-13,1.04124e+00,5.26277e-13,1.04124e+00,1.37303e-13,1.04124e+00
8.02464e+02,9.88500e+03,7.55700e+03,2.32800e+03,2.65005e-13,1.04878e+00,2.97758e-13,1.04878e+00,4.04329e-13,1.04878e+00
8.02713e+02,1.11790e+04,6.24100e+03,4.93800e+03,9.83090e-13,1.05633e+00,8.77245e-14,1.05633e+00,9.06559e-13,1.05633e+00
8.02963e+02,7.19600e+03,1.04580e+04,-3.26200e+03,5.94695e-13,1.06387e+00,5.31902e-13,1.06387e+00,8.30040e-13,1.06387e+00
8.03212e+02,7.16200e+03,1.27980e+04,-5.63600e+03,3.12736e-13,1.07142e+00,3.07059e-13,1.07142e+00,2.52991e-13,1.07142e+00
8.03462e+02,1.19390e+04,9.23500e+03,2.70400e+03,6.37684e-13,1.07896e+00,2.16863e-13,1.07896e+00,8.48717e-13,1.07896e+00
8.03711e+02,1.19810e+04,6.00900e+03,5.97200e+03,1.01575e-12,1.08651e+00,8.05392e-13,1.08651e+00,1.58020e-12,1.08651e+00
8.03961e+02,7.49900e+03,8.58500e+03,-1.08600e+03,9.27996e-13,1.09405e+00,1.15402e-12,1.09405e+00,1.23803e-12,1.09405e+00
8.04210e+02,6.16000e+03,1.06050e+04,-4.44500e+03,6.44938e-13,1.10160e+00,1.24897e-12,1.10160e+00,8.35450e-13,1.10160e+00
8.04460e+02,9.65400e+03,7.67400e+03,1.98000e+03,6.01916e-13,1.10914e+00,9.99665e-13,1.10914e+00,4.03725e-13,1.10914e+00
8.04709e+02,1.02660e+04,5.67100e+03,4.59500e+03,6.80950e-13,1.11669e+00,9.00547e-13,1.11669e+00,6.45110e-13,1.11669e+00
8.04958e+02,6.59600e+03,8.16000e+03,-1.56400e+03,4.95158e-13,1.12423e+00,5.10807e-13,1.12423e+00,5.60296e-13,1.12423e+00
8.05208e+02,6.05800e+03,1.07830e+04,-4.72500e+03,1.26208e-13,1.13178e+00,3.44944e-13,1.13178e+00,3.62939e-13,1.13178e+00
8.05457e+02,9.85200e+03,8.10500e+03,1.74700e+03,2.31034e-13,1.13932e+00,8.51510e-13,1.13932e+00,9.98553e-13,1.13932e+00
8.05707e+02,1.12120e+04,6.11400e+03,5.09800e+03,7.85750e-14,1.14687e+00,1.23539e-12,1.14687e+00,1.20137e-12,1.14687e+00
8.05956e+02,7.72000e+03,9.55300e+03,-1.83300e+03,5.89301e-13,1.15442e+00,9.30723e-13,1.15442e+00,6.90720e-13,1.15442e+00
8.06205e+02,6.95400e+03,1.23170e+04,-5.36300e+03,6.32359e-13,1.16196e+00,4.73003e-13,1.16196e+00,1.59898e-13,1.16196e+00
8.06455e+02,1.03010e+04,8.13300e+03,2.16800e+03,4.51422e-13,1.16951e+00,2.70502e-13,1.16951e+00,4.82660e-13,1.16951e+00
8.06704e+02,1.12230e+04,5.97100e+03,5.25200e+03,1.67523e-13,1.17705e+00,6.49705e-14,1.17705e+00,2.28186e-13,1.17705e+00
8.06953e+02,7.85400e+03,9.97300e+03,-2.11900e+03,3.88916e-13,1.18460e+00,2.98005e-13,1.18460e+00,6.66758e-13,1.18460e+00
8.07203e+02,6.71800e+03,1.18140e+04,-5.09600e+03,3.86401e-13,1.19214e+00,3.83119e-13,1.19214e+00,5.77265e-13,1.19214e+00
8.07452e+02,1.03240e+04,8.74100e+03,1.58300e+03,5.38594e-13,1.19969e+00,3.07114e-13,1.19969e+00,3.04585e-13,1.19969e+00
8.07701e+02,1.09180e+04,5.74100e+03,5.17700e+03,6.51685e-13,1.20723e+00,4.68938e-14,1.20723e+00,6.05806e-13,1.20723e+00
8.07951e+02,7.36800e+03,8.33700e+03,-9.69000e+02,7.76386e-13,1.21478e+00,4.22599e-13,1.21478e+00,7.79445e-13,1.21478e+00
8.08200e+02,6.50100e+03,1.06360e+04,-4.13500e+03,9.56588e-13,1.22232e+00,8.58723e-13,1.22232e+00,5.10384e-13,1.22232e+00
8.08449e+02,1.06050e+04,8.34600e+03,2.25900e+03,9.92248e-13,1.22987e+00,8.98997e-13,1.22987e+00,1.18609e-13,1.22987e+00
8.08698e+02,1.22750e+04,6.69300e+03,5.58200e+03,7.11006e-13,1.23741e+00,7.13822e-13,1.23741e+00,2.86721e-13,1.23741e+00
8.08948e+02,8.38200e+03,9.64600e+03,-1.26400e+03,3.63004e-13,1.24496e+00,4.55523e-13,1.24496e+00,3.84807e-13,1.24496e+00
8.09197e+02,7.30200e+03,1.30580e+04,-5.75600e+03,6.56019e-14,1.25250e+00,1.11927e-13,1.25250e+00,1.77413e-13,1.25250e+00
8.09446e+02,1.13370e+04,1.02910e+04,1.04600e+03,2.08246e-13,1.26005e+00,3.36586e-13,1.26005e+00,2.75028e-13,1.26005e+00
8.09695e+02,1.25730e+04,7.13600e+03,5.43700e+03,5.51035e-13,1.26759e+00,4.42119e-13,1.26759e+00,4.73944e-13,1.26759e+00
8.09945e+02,9.07300e+03,1.09420e+04,-1.86900e+03,3.02847e-13,1.27514e+00,4.56940e-13,1.27514e+00,5.21003e-13,1.27514e+00
8.10194e+02,7.74000e+03,1.38360e+04,-6.09600e+03,4.89683e-13,1.28268e+00,7.70568e-13,1.28268e+00,3.34499e-13,1.28268e+00
8.10443e+02,1.21460e+04,1.04930e+04,1.65300e+03,4.25082e-13,1.29023e+00,9.06078e-13,1.29023e+00,4.84680e-13,1.29023e+00
8.10692e+02,1.39610e+04,7.44400e+03,6.51700e+03,3.26955e-13,1.29777e+00,1.02400e-12,1.29777e+00,7.63026e-13,1.29777e+00
8.10941e+02,1.00290e+04,1.14270e+04,-1.39800e+03,5.37023e-13,1.30532e+00,2.64033e-13,1.30532e+00,6.56818e-13,1.30532e+00
8.11191e+02,7.34400e+03,1.34450e+04,-6.10100e+03,3.63712e-13,1.31286e+00,5.39278e-13,1.31286e+00,5.32273e-13,1.31286e+00
8.11440e+02,1.16030e+04,1.04050e+04,1.19800e+03,1.96051e-12,-1.32041e+00,1.56768e-12,-1.32041e+00,3.92824e-13,-1.32041e+00
8.11689e+02,1.43230e+04,7.80000e+03,6.52300e+03,3.63712e-13,-1.31286e+00,5.39278e-13,-1.31286e+00,5.32273e-13,-1.31286e+00
8.11938e+02,1.00370e+04,1.06480e+04,-6.11000e+02,5.37023e-13,-1.30532e+00,2.64033e-13,-1.30532e+00,6.56818e-13,-1.30532e+00
8.12187e+02,7.90400e+03,1.42570e+04,-6.35300e+03,3.26955e-13,-1.29777e+00,1.02400e-12,-1.29777e+00,7.63026e-13,-1.29777e+00
8.12436e+02,1.09770e+04,1.13690e+04,-3.92000e+02,4.25082e-13,-1.29023e+00,9.06078e-13,-1.29023e+00,4.84680e-13,-1.29023e+00
8.12685e+02,1.21430e+04,7.26900e+03,4.87400e+03,4.89683e-13,-1.28268e+00,7.70568e-13,-1.28268e+00,3.34499e-13,-1.28268e+00
8.12935e+02,9.37000e+03,9.60200e+03,-2.32000e+02,3.02847e-13,-1.27514e+00,4.56940e-13,-1.27514e+00,5.21003e-13,-1.27514e+00
8.13184e+02,7.61400e+03,1.32430e+04,-5.62900e+03,5.51035e-13,-1.26759e+00,4.42119e-13,-1.26759e+00,4.73944e-13,-1.26759e+00
8.13433e+02,9.88900e+03,1.05700e+04,-6.81000e+02,2.08246e-13,-1.26005e+00,3.36586e-13,-1.26005e+00,2.75028e-13,-1.26005e+00
8.13682e+02,1.34010e+04,7.16400e+03,6.23700e+03,6.56019e-14,-1.25250e+00,1.11927e-13,-1.25250e+00,1.77413e-13,-1.25250e+00
8.13931e+02,1.09600e+04,9.09000e+03,1.87000e+03,3.63004e-13,-1.24496e+00,4.55523e-13,-1.24496e+00,3.84807e-13,-1.24496e+00
8.14180e+02,6.96100e+03,1.18860e+04,-4.92500e+03,7.11006e-13,-1.23741e+00,7.13822e-13,-1.23741e+00,2.86721e-13,-1.23741e+00
8.14429e+02,9.67300e+03,1.09890e+04,-1.31600e+03,9.92248e-13,-1.22987e+00,8.98997e-13,-1.22987e+00,1.18609e-13,-1.22987e+00
8.14678e+02,1.23320e+04,6.73900e+03,5.59300e+03,9.56588e-13,-1.22232e+00,8.58723e-13,-1.22232e+00,5.10384e-13,-1.22232e+00
8.14927e+02,8.96200e+03,7.76100e+03,1.20100e+03,7.76386e-13,-1.21478e+00,4.22599e-13,-1.21478e+00,7.79445e-13,-1.21478e+00
8.15176e+02,6.50000e+03,1.13450e+04,-4.84500e+03,6.51685e-13,-1.20723e+00,4.68938e-14,-1.20723e+00,6.05806e-13,-1.20723e+00
8.15425e+02,8.77400e+03,1.03810e+04,-1.60700e+03,5.38594e-13,-1.19969e+00,3.07114e-13,-1.19969e+00,3.04585e-13,-1.19969e+00
8.15674e+02,1.12390e+04,7.28900e+03,3.95000e+03,3.86401e-13,-1.19214e+00,3.83119e-13,-1.19214e+00,5.77265e-13,-1.19214e+00
8.15923e+02,1.01240e+04,8.38100e+03,1.74300e+03,3.88916e-13,-1.18460e+00,2.98005e-13,-1.18460e+00,6.66758e-13,-1.18460e+00
8.16172e+02,6.49400e+03,1.09300e+04,-4.43600e+03,1.67523e-13,-1.17705e+00,6.49705e-14,-1.17705e+00,2.28186e-13,-1.17705e+00
8.16421e+02,7.97400e+03,1.01730e+04,-2.19900e+03,4.51422e-13,-1.16951e+00,2.70502e-13,-1.16951e+00,4.82660e-13,-1.16951e+00
8.16670e+02,1.02460e+04,6.10100e+03,4.14500e+03,6.32359e-13,-1.16196e+00,4.73003e-13,-1.16196e+00,1.59898e-13,-1.16196e+00
8.16919e+02,9.02100e+03,6.93700e+03,2.08400e+03,5.89301e-13,-1.15442e+00,9.30723e-13,-1.15442e+00,6.90720e-13,-1.15442e+00
8.17168e+02,5.84800e+03,9.44900e+03,-3.60100e+03,7.85750e-14,-1.14687e+00,1.23539e-12,-1.14687e+00,1.20137e-12,-1.14687e+00
8.17417e+02,6.90400e+03,9.65100e+03,-2.74700e+03,2.31034e-13,-1.13932e+00,8.51510e-13,-1.13932e+00,9.98553e-13,-1.13932e+00
8.17666e+02,1.00530e+04,6.84400e+03,3.20900e+03,1.26208e-13,-1.13178e+00,3.44944e-13,-1.13178e+00,3.62939e-13,-1.13178e+00
8.17915e+02,9.65700e+03,5.70400e+03,3.95300e+03,4.95158e-13,-1.12423e+00,5.10807e-13,-1.12423e+00,5.60296e-13,-1.12423e+00
8.18164e+02,6.05000e+03,8.58000e+03,-2.53000e+03,6.80950e-13,-1.11669e+00,9.00547e-13,-1.11669e+00,6.45110e-13,-1.11669e+00
8.18413e+02,5.95600e+03,9.39900e+03,-3.44300e+03,6.01916e-13,-1.10914e+00,9.99665e-13,-1.10914e+00,4.03725e-13,-1.10914e+00
8.18662e+02,8.06800e+03,5.94800e+03,2.12000e+03,6.44938e-13,-1.10160e+00,1.24897e-12,-1.10160e+00,8.35450e-13,-1.10160e+00
8.18911e+02,8.36300e+03,4.89600e+03,3.46700e+03,9.27996e-13,-1.09405e+00,1.15402e-12,-1.09405e+00,1.23803e-12,-1.09405e+00
8.19160e+02,5.55600e+03,7.53600e+03,-1.98000e+03,1.01575e-12,-1.08651e+00,8.05392e-13,-1.08651e+00,1.58020e-12,-1.08651e+00
8.19408e+02,5.23600e+03,9.38300e+03,-4.14700e+03,6.37684e-13,-1.07896e+00,2.16863e-13,-1.07896e+00,8.48717e-13,-1.07896e+00
8.19657e+02,9.50500e+03,7.38000e+03,2.12500e+03,3.12736e-13,-1.07142e+00,3.07059e-13,-1.07142e+00,2.52991e-13,-1.07142e+00
8.19906e+02,1.08890e+04,5.31900e+03,5.57000e+03,5.94695e-13,-1.06387e+00,5.31902e-13,-1.06387e+00,8.30040e-13,-1.06387e+00
8.20155e+02,7.45700e+03,7.73000e+03,-2.73000e+02,9.83090e-13,-1.05633e+00,8.77245e-14,-1.05633e+00,9.06559e-13,-1.05633e+00
8.20404e+02,5.35700e+03,9.79900e+03,-4.44200e+03,2.65005e-13,-1.04878e+00,2.97758e-13,-1.04878e+00,4.04329e-13,-1.04878e+00
8.20653e+02,7.58900e+03,7.44500e+03,1.44000e+02,5.14676e-13,-1.04124e+00,5.26277e-13,-1.04124e+00,1.37303e-13,-1.04124e+00
8.20901e+02,9.52600e+03,4.98900e+03,4.53700e+03,3.54050e-13,-1.03369e+00,7.86091e-13,-1.03369e+00,5.51934e-13,-1.03369e+00
8.21150e+02,7.46300e+03,6.60600e+03,8.57000e+02,2.63291e-13,-1.02615e+00,1.47320e-12,-1.02615e+00,1.23140e-12,-1.02615e+00
8.21399e+02,4.80000e+03,8.43400e+03,-3.63400e+03,5.60425e-13,-1.01860e+00,1.61546e-12,-1.01860e+00,1.28078e-12,-1.01860e+00
8.21648e+02,6.70200e+03,7.78000e+03,-1.07800e+03,9.79794e-13,-1.01106e+00,7.44515e-13,-1.01106e+00,8.26788e-13,-1.01106e+00
8.21897e+02,8.83200e+03,4.93900e+03,3.89300e+03,9.78246e-13,-1.00351e+00,2.14196e-13,-1.00351e+00,1.08428e-12,-1.00351e+00
8.22145e+02,6.98200e+03,4.72100e+03,2.26100e+03,1.60058e-12,-9.95966e-01,6.27775e-13,-9.95966e-01,1.44267e-12,-9.95966e-01
8.22394e+02,4.57000e+03,7.52200e+03,-2.95200e+03,1.38670e-12,-9.88421e-01,7.22019e-13,-9.88421e-01,1.26597e-12,-9.88421e-01
8.22643e+02,4.87600e+03,7.56400e+03,-2.68800e+03,9.36431e-13,-9.80876e-01,1.01828e-12,-9.80876e-01,8.34483e-13,-9.80876e-01
8.22892e+02,7.13800e+03,5.06600e+03,2.07200e+03,8.77045e-13,-9.73331e-01,1.17601e-12,-9.73331e-01,5.95755e-13,-9.73331e-01
8.23140e+02,6.59100e+03,4.85500e+03,1.73600e+03,7.97050e-13,-9.65785e-01,1.14744e-12,-9.65785e-01,4.95280e-13,-9.65785e-01
8.23389e+02,4.41300e+03,7.54100e+03,-3.12800e+03,1.07123e-12,-9.58240e-01,1.23329e-12,-9.58240e-01,5.55098e-13,-9.58240e-01
8.23638e+02,4.60800e+03,8.25900e+03,-3.65100e+03,1.09765e-12,-9.50695e-01,1.07238e-12,-9.50695e-01,9.94889e-13,-9.50695e-01
8.23887e+02,7.08200e+03,5.17800e+03,1.90400e+03,8.41317e-13,-9.43150e-01,3.60518e-13,-9.43150e-01,1.05147e-12,-9.43150e-01
8.24135e+02,6.34300e+03,3.87700e+03,2.46600e+03,1.04146e-12,-9.35605e-01,7.34654e-13,-9.35605e-01,4.77824e-13,-9.35605e-01
8.24384e+02,4.36300e+03,5.81000e+03,-1.44700e+03,1.05774e-12,-9.28059e-01,1.00478e-12,-9.28059e-01,2.64079e-13,-9.28059e-01
8.24633e+02,3.93900e+03,7.61300e+03,-3.67400e+03,1.57574e-12,-9.20514e-01,1.36110e-12,-9.20514e-01,3.09939e-13,-9.20514e-01
8.24881e+02,5.73000e+03,5.40700e+03,3.23000e+02,1.96257e-12,-9.12969e-01,1.24844e-12,-9.12969e-01,7.19505e-13,-9.12969e-01
8.25130e+02,6.89000e+03,3.76200e+03,3.12800e+03,1.56755e-12,-9.05424e-01,7.85052e-13,-9.05424e-01,7.91711e-13,-9.05424e-01
8.25379e+02,4.62500e+03,5.21800e+03,-5.93000e+02,1.61707e-12,-8.97879e-01,9.10567e-13,-8.97879e-01,7.27024e-13,-8.97879e-01
8.25627e+02,3.20400e+03,6.31600e+03,-3.11200e+03,1.54226e-12,-8.90333e-01,9.61460e-13,-8.90333e-01,6.34569e-13,-8.90333e-01
8.25876e+02,4.58200e+03,5.13800e+03,-5.56000e+02,1.76334e-12,-8.82788e-01,1.25597e-12,-8.82788e-01,1.43551e-12,-8.82788e-01
8.26125e+02,5.76200e+03,3.28100e+03,2.48100e+03,2.12024e-12,-8.75243e-01,1.72426e-12,-8.75243e-01,1.71014e-12,-8.75243e-01
8.26373e+02,4.19100e+03,3.78400e+03,4.07000e+02,1.91195e-12,-8.67698e-01,1.55301e-12,-8.67698e-01,7.24206e-13,-8.67698e-01
8.26622e+02,2.66700e+03,5.34300e+03,-2.67600e+03,1.52670e-12,-8.60153e-01,7.41339e-13,-8.60153e-01,7.89719e-13,-8.60153e-01
8.26870e+02,3.00300e+03,4.35700e+03,-1.35400e+03,1.24381e-12,-8.52607e-01,1.09183e-12,-8.52607e-01,5.02773e-13,-8.52607e-01
8.27119e+02,4.30000e+03,2.83600e+03,1.46400e+03,6.16844e-13,-8.45062e-01,1.93499e-12,-8.45062e-01,2.02828e-12,-8.45062e-01
8.27368e+02,4.25500e+03,2.87300e+03,1.38200e+03,5.44459e-13,-8.37517e-01,2.33843e-12,-8.37517e-01,2.57110e-12,-8.37517e-01
8.27616e+02,2.84600e+03,4.08500e+03,-1.23900e+03,1.30014e-12,-8.29972e-01,1.66082e-12,-8.29972e-01,2.02869e-12,-8.29972e-01
8.27865e+02,2.76500e+03,4.34600e+03,-1.58100e+03,1.89147e-12,-8.22427e-01,1.06806e-12,-8.22427e-01,2.67071e-12,-8.22427e-01
8.28113e+02,4.29000e+03,3.24800e+03,1.04200e+03,1.83125e-12,-8.14881e-01,1.49307e-12,-8.14881e-01,3.32274e-12,-8.14881e-01
8.28362e+02,4.85500e+03,2.42500e+03,2.43000e+03,1.30900e-12,-8.07336e-01,1.59246e-12,-8.07336e-01,2.88608e-12,-8.07336e-01
8.28610e+02,2.84200e+03,3.33100e+03,-4.89000e+02,1.19748e-12,-7.99791e-01,1.15598e-12,-7.99791e-01,2.01128e-12,-7.99791e-01
8.28859e+02,2.09700e+03,4.13600e+03,-2.03900e+03,1.01063e-12,-7.92246e-01,1.01525e-12,-7.92246e-01,8.58561e-13,-7.92246e-01
8.29108e+02,2.92500e+03,3.07000e+03,-1.45000e+02,9.17323e-13,-7.84701e-01,7.77231e-13,-7.84701e-01,1.29441e-12,-7.84701e-01
8.29356e+02,3.08800e+03,1.87500e+03,1.21300e+03,1.81353e-12,-7.77155e-01,1.42971e-12,-7.77155e-01,3.24249e-12,-7.77155e-01
8.29605e+02,2.30700e+03,2.12000e+03,1.87000e+02,1.42395e-12,-7.69610e-01,1.83139e-12,-7.69610e-01,3.24843e-12,-7.69610e-01
8.29853e+02,1.81900e+03,2.80800e+03,-9.89000e+02,6.99641e-13,-7.62065e-01,1.12869e-12,-7.62065e-01,1.70217e-12,-7.62065e-01
8.30101e+02,2.42700e+03,2.53600e+03,-1.09000e+02,7.14197e-13,-7.54520e-01,6.10781e-13,-7.54520e-01,2.30126e-13,-7.54520e-01
8.30350e+02,3.13700e+03,1.92100e+03,1.21600e+03,6.72315e-13,-7.46975e-01,1.52242e-12,-7.46975e-01,8.50933e-13,-7.46975e-01
8.30598e+02,2.25600e+03,1.95100e+03,3.05000e+02,1.17752e-12,-7.39429e-01,1.08872e-12,-7.39429e-01,6.16818e-13,-7.39429e-01
8.30847e+02,1.57100e+03,2.59300e+03,-1.02200e+03,1.65146e-12,-7.31884e-01,1.46966e-12,-7.31884e-01,3.03648e-12,-7.31884e-01
8.31095e+02,1.76000e+03,2.47000e+03,-7.10000e+02,2.87474e-12,-7.24339e-01,5.85511e-13,-7.24339e-01,3.40294e-12,-7.24339e-01
8.31344e+02,2.37300e+03,1.61600e+03,7.57000e+02,2.03362e-12,-7.16794e-01,2.39210e-12,-7.16794e-01,3.37244e-12,-7.16794e-01
8.31592e+02,2.07600e+03,1.53200e+03,5.44000e+02,3.37318e-12,-7.09249e-01,2.66641e-12,-7.09249e-01,5.85818e-12,-7.09249e-01
8.31841e+02,1.43700e+03,2.21700e+03,-7.80000e+02,5.56385e-12,-7.01703e-01,5.99317e-12,-7.01703e-01,1.06468e-11,-7.01703e-01
8.32089e+02,1.38300e+03,2.25600e+03,-8.73000e+02,6.01757e-12,-6.94158e-01,5.73512e-12,-6.94158e-01,1.13811e-11,-6.94158e-01
8.32337e+02,2.12400e+03,1.63400e+03,4.90000e+02,9.88476e-12,-6.86613e-01,1.06340e-11,-6.86613e-01,1.91326e-11,-6.86613e-01
8.32586e+02,2.02100e+03,1.26200e+03,7.59000e+02,1.48151e-11,-6.79068e-01,1.81411e-11,-6.79068e-01,3.17818e-11,-6.79068e-01
8.32834e+02,1.58000e+03,1.78700e+03,-2.07000e+02,2.06674e-11,-6.71523e-01,2.28927e-11,-6.71523e-01,4.26521e-11,-6.71523e-01
8.33083e+02,1.13300e+03,2.07600e+03,-9.43000e+02,2.63441e-11,-6.63977e-01,2.71590e-11,-6.63977e-01,5.23773e-11,-6.63977e-01
8.33331e+02,1.45000e+03,1.55100e+03,-1.01000e+02,3.06977e-11,-6.56432e-01,3.06603e-11,-6.56432e-01,6.01140e-11,-6.56432e-01
8.33579e+02,1.56800e+03,1.08000e+03,4.88000e+02,3.28265e-11,-6.48887e-01,3.20864e-11,-6.48887e-01,6.37953e-11,-6.48887e-01
8.33828e+02,1.25900e+03,1.26800e+03,-9.00000e+00,3.19451e-11,-6.41342e-01,3.01855e-11,-6.41342e-01,6.12093e-11,-6.41342e-01
8.34076e+02,9.32000e+02,1.45400e+03,-5.22000e+02,2.60287e-11,-6.33797e-01,2.43762e-11,-6.33797e-01,4.99022e-11,-6.33797e-01
8.34324e+02,1.27200e+03,1.47600e+03,-2.04000e+02,1.77910e-11,-6.26251e-01,1.86355e-11,-6.26251e-01,3.61337e-11,-6.26251e-01
8.34573e+02,1.56100e+03,1.04900e+03,5.12000e+02,1.30505e-11,-6.18706e-01,1.36766e-11,-6.18706e-01,2.61744e-11,-6.18706e-01
8.34821e+02,1.38900e+03,1.01200e+03,3.77000e+02,9.77884e-12,-6.11161e-01,9.17054e-12,-6.11161e-01,1.86973e-11,-6.11161e-01
8.35069e+02,9.41000e+02,1.38500e+03,-4.44000e+02,5.42404e-12,-6.03616e-01,5.37704e-12,-6.03616e-01,1.06814e-11,-6.03616e-01
8.35318e+02,1.02400e+03,1.40900e+03,-3.85000e+02,2.96374e-12,-5.96071e-01,3.08039e-12,-5.96071e-01,6.00961e-12,-5.96071e-01
8.35566e+02,1.19900e+03,9.83000e+02,2.16000e+02,2.28751e-12,-5.88525e-01,2.77384e-12,-5.88525e-01,5.01914e-12,-5.88525e-01
8.35814e+02,1.18100e+03,8.35000e+02,3.46000e+02,2.15323e-12,-5.80980e-01,1.82031e-12,-5.80980e-01,3.92327e-12,-5.80980e-01
8.36062e+02,8.27000e+02,9.84000e+02,-1.57000e+02,2.48284e-12,-5.73435e-01,1.61539e-12,-5.73435e-01,4.04218e-12,-5.73435e-01
8.36311e+02,7.88000e+02,1.17700e+03,-3.89000e+02,2.42922e-12,-5.65890e-01,1.99755e-12,-5.65890e-01,3.66249e-12,-5.65890e-01
8.36559e+02,9.44000e+02,9.45000e+02,-1.00000e+00,2.43578e-12,-5.58345e-01,1.83363e-12,-5.58345e-01,3.32536e-12,-5.58345e-01
8.36807e+02,1.08400e+03,7.91000e+02,2.93000e+02,2.42889e-12,-5.50799e-01,1.67485e-12,-5.50799e-01,3.89548e-12,-5.50799e-01
8.37055e+02,8.91000e+02,7.78000e+02,1.13000e+02,1.03667e-12,-5.43254e-01,1.34487e-12,-5.43254e-01,1.91373e-12,-5.43254e-01
8.37304e+02,7.36000e+02,9.65000e+02,-2.29000e+02,2.00240e-12,-5.35709e-01,9.96673e-13,-5.35709e-01,2.06738e-12,-5.35709e-01
8.37552e+02,7.54000e+02,8.58000e+02,-1.04000e+02,2.50418e-12,-5.28164e-01,1.22102e-12,-5.28164e-01,3.33532e-12,-5.28164e-01
8.37800e+02,9.03000e+02,7.58000e+02,1.45000e+02,1.62914e-12,-5.20619e-01,1.46078e-12,-5.20619e-01,1.52845e-12,-5.20619e-01
8.38048e+02,7.73000e+02,6.94000e+02,7.90000e+01,1.39392e-12,-5.13073e-01,2.41985e-12,-5.13073e-01,1.05866e-12,-5.13073e-01
8.38296e+02,7.00000e+02,7.72000e+02,-7.20000e+01,1.19424e-12,-5.05528e-01,2.55251e-12,-5.05528e-01,3.00696e-12,-5.05528e-01
8.38545e+02,6.77000e+02,7.78000e+02,-1.01000e+02,2.04430e-12,-4.97983e-01,1.47356e-12,-4.97983e-01,3.51150e-12,-4.97983e-01
8.38793e+02,7.45000e+02,7.20000e+02,2.50000e+01,2.11317e-12,-4.90438e-01,1.90032e-12,-4.90438e-01,2.58495e-12,-4.90438e-01
8.39041e+02,7.36000e+02,6.66000e+02,7.00000e+01,1.14763e-12,-4.82893e-01,1.75621e-12,-4.82893e-01,2.05084e-12,-4.82893e-01
8.39289e+02,6.96000e+02,6.94000e+02,2.00000e+00,6.66974e-13,-4.75347e-01,7.18353e-13,-4.75347e-01,1.37384e-12,-4.75347e-01
8.39537e+02,6.49000e+02,7.21000e+02,-7.20000e+01,6.88264e-13,-4.67802e-01,8.43875e-13,-4.67802e-01,1.51962e-12,-4.67802e-01
8.39785e+02,6.86000e+02,7.04000e+02,-1.80000e+01,2.61370e-13,-4.60257e-01,2.42433e-12,-4.60257e-01,2.66885e-12,-4.60257e-01
8.40033e+02,7.09000e+02,6.37000e+02,7.20000e+01,1.10382e-12,-4.52712e-01,2.63688e-12,-4.52712e-01,3.03485e-12,-4.52712e-01
8.40281e+02,7.16000e+02,6.96000e+02,2.00000e+01,1.56531e-12,-4.45167e-01,1.34292e-12,-4.45167e-01,2.04237e-12,-4.45167e-01
8.40530e+02,6.34000e+02,6.70000e+02,-3.60000e+01,1.05668e-12,-4.37621e-01,5.43263e-13,-4.37621e-01,8.03907e-13,-4.37621e-01
8.40778e+02,6.64000e+02,6.92000e+02,-2.80000e+01,1.01157e-12,-4.30076e-01,1.05569e-12,-4.30076e-01,1.50971e-12,-4.30076e-01
8.41026e+02,6.70000e+02,6.44000e+02,2.60000e+01,1.49602e-12,-4.22531e-01,2.01605e-12,-4.22531e-01,2.00083e-12,-4.22531e-01
8.41274e+02,6.79000e+02,6.41000e+02,3.80000e+01,2.47972e-12,-4.14986e-01,2.84775e-12,-4.14986e-01,2.48550e-12,-4.14986e-01
8.41522e+02,6.31000e+02,6.61000e+02,-3.00000e+01,2.22135e-12,-4.07441e-01,2.93318e-12,-4.07441e-01,3.03329e-12,-4.07441e-01
8.41770e+02,6.38000e+02,6.73000e+02,-3.50000e+01,9.61862e-13,-3.99895e-01,2.05636e-12,-3.99895e-01,2.98664e-12,-3.99895e-01
8.42018e+02,6.48000e+02,6.43000e+02,5.00000e+00,1.58621e-12,-3.92350e-01,1.97716e-12,-3.92350e-01,2.25692e-12,-3.92350e-01
8.42266e+02,6.68000e+02,6.52000e+02,1.60000e+01,8.73870e-13,-3.84805e-01,1.64537e-12,-3.84805e-01,1.67965e-12,-3.84805e-01
8.42514e+02,6.43000e+02,6.38000e+02,5.00000e+00,2.55954e-12,-3.77260e-01,8.12453e-13,-3.77260e-01,2.03914e-12,-3.77260e-01
8.42762e+02,6.62000e+02,6.77000e+02,-1.50000e+01,4.16015e-12,-3.69715e-01,2.66006e-12,-3.69715e-01,2.40307e-12,-3.69715e-01
8.43010e+02,6.24000e+02,6.33000e+02,-9.00000e+00,2.93671e-12,-3.62169e-01,3.53843e-12,-3.62169e-01,2.37075e-12,-3.62169e-01
8.43258e+02,6.53000e+02,6.39000e+02,1.40000e+01,1.71944e-12,-3.54624e-01,3.95068e-12,-3.54624e-01,2.34174e-12,-3.54624e-01
8.43506e+02,6.44000e+02,6.44000e+02,0.00000e+00,3.25933e-12,-3.47079e-01,2.80563e-12,-3.47079e-01,2.42650e-12,-3.47079e-01
8.43754e+02,6.37000e+02,6.41000e+02,-4.00000e+00,3.03135e-12,-3.39534e-01,1.09862e-12,-3.39534e-01,3.65761e-12,-3.39534e-01
8.44002e+02,6.35000e+02,6.34000e+02,1.00000e+00,2.72249e-12,-3.31989e-01,2.16806e-12,-3.31989e-01,4.69687e-12,-3.31989e-01
8.44250e+02,6.35000e+02,6.22000e+02,1.30000e+01,4.02352e-12,-3.24444e-01,2.87904e-12,-3.24444e-01,4.74080e-12,-3.24444e-01
8.44498e+02,6.42000e+02,6.21000e+02,2.10000e+01,4.30197e-12,-3.16898e-01,3.88861e-12,-3.16898e-01,1.75913e-12,-3.16898e-01
8.44746e+02,6.37000e+02,6.27000e+02,1.00000e+01,3.97628e-12,-3.09353e-01,4.56292e-12,-3.09353e-01,2.22472e-12,-3.09353e-01
8.44994e+02,6.33000e+02,6.28000e+02,5.00000e+00,1.65598e-12,-3.01808e-01,3.46928e-12,-3.01808e-01,3.55075e-12,-3.01808e-01
8.45242e+02,6.49000e+02,6.66000e+02,-1.70000e+01,7.05115e-13,-2.94263e-01,3.19228e-12,-2.94263e-01,2.83215e-12,-2.94263e-01
8.45490e+02,6.19000e+02,6.29000e+02,-1.00000e+01,7.32674e-13,-2.86718e-01,2.95686e-12,-2.86718e-01,2.30156e-12,-2.86718e-01
8.45738e+02,6.26000e+02,6.45000e+02,-1.90000e+01,1.45161e-12,-2.79172e-01,1.99259e-12,-2.79172e-01,1.50345e-12,-2.79172e-01
8.45985e+02,6.34000e+02,6.50000e+02,-1.60000e+01,3.54663e-12,-2.71627e-01,3.36908e-12,-2.71627e-01,7.34783e-13,-2.71627e-01
8.46233e+02,6.17000e+02,6.44000e+02,-2.70000e+01,3.46904e-12,-2.64082e-01,3.05201e-12,-2.64082e-01,1.19878e-12,-2.64082e-01
8.46481e+02,6.24000e+02,6.30000e+02,-6.00000e+00,2.59730e-12,-2.56537e-01,9.48643e-13,-2.56537e-01,1.65600e-12,-2.56537e-01
8.46729e+02,6.18000e+02,6.33000e+02,-1.50000e+01,4.55278e-12,-2.48992e-01,2.33967e-12,-2.48992e-01,3.44619e-12,-2.48992e-01
8.46977e+02,6.29000e+02,6.29000e+02,0.00000e+00,4.36702e-12,-2.41446e-01,3.51571e-12,-2.41446e-01,2.51744e-12,-2.41446e-01
8.47225e+02,6.27000e+02,6.36000e+02,-9.00000e+00,2.56232e-12,-2.33901e-01,3.73241e-12,-2.33901e-01,2.57617e-12,-2.33901e-01
8.47473e+02,6.22000e+02,6.28000e+02,-6.00000e+00,1.58696e-12,-2.26356e-01,2.53907e-12,-2.26356e-01,2.98857e-12,-2.26356e-01
8.47720e+02,6.68000e+02,6.69000e+02,-1.00000e+00,2.39613e-13,-2.18811e-01,2.00224e-12,-2.18811e-01,2.15298e-12,-2.18811e-01
8.47968e+02,6.14000e+02,6.12000e+02,2.00000e+00,7.12384e-13,-2.11266e-01,2.71107e-12,-2.11266e-01,2.08433e-12,-2.11266e-01
8.48216e+02,6.26000e+02,6.28000e+02,-2.00000e+00,4.53697e-13,-2.03720e-01,3.62872e-12,-2.03720e-01,3.18543e-12,-2.03720e-01
8.48464e+02,6.27000e+02,6.34000e+02,-7.00000e+00,1.81257e-12,-1.96175e-01,4.20477e-12,-1.96175e-01,3.54174e-12,-1.96175e-01
8.48712e+02,6.28000e+02,6.41000e+02,-1.30000e+01,3.78891e-12,-1.88630e-01,4.27083e-12,-1.88630e-01,2.09718e-12,-1.88630e-01
8.48960e+02,6.19000e+02,6.45000e+02,-2.60000e+01,4.92423e-12,-1.81085e-01,3.82330e-12,-1.81085e-01,1.62252e-12,-1.81085e-01
8.49207e+02,6.22000e+02,6.40000e+02,-1.80000e+01,4.92833e-12,-1.73540e-01,3.54948e-12,-1.73540e-01,2.29284e-12,-1.73540e-01
8.49455e+02,6.27000e+02,6.36000e+02,-9.00000e+00,3.02069e-12,-1.65994e-01,2.17678e-12,-1.65994e-01,1.22241e-12,-1.65994e-01
8.49703e+02,6.33000e+02,6.36000e+02,-3.00000e+00,5.95840e-12,-1.58449e-01,5.48561e-12,-1.58449e-01,1.56776e-12,-1.58449e-01
8.49951e+02,6.27000e+02,6.30000e+02,-3.00000e+00,7.36082e-12,-1.50904e-01,7.18190e-12,-1.50904e-01,1.96342e-12,-1.50904e-01
8.50198e+02,6.52000e+02,6.60000e+02,-8.00000e+00,4.69683e-12,-1.43359e-01,4.32480e-12,-1.43359e-01,1.16916e-12,-1.43359e-01
8.50446e+02,6.04000e+02,6.16000e+02,-1.20000e+01,7.60267e-13,-1.35814e-01,1.24123e-12,-1.35814e-01,8.52341e-13,-1.35814e-01
8.50694e+02,6.26000e+02,6.27000e+02,-1.00000e+00,2.21716e-12,-1.28268e-01,4.82975e-13,-1.28268e-01,1.92874e-12,-1.28268e-01
8.50941e+02,6.27000e+02,6.51000e+02,-2.40000e+01,4.86342e-12,-1.20723e-01,2.20430e-12,-1.20723e-01,2.71891e-12,-1.20723e-01
8.51189e+02,6.29000e+02,6.31000e+02,-2.00000e+00,5.79592e-12,-1.13178e-01,3.11259e-12,-1.13178e-01,3.04610e-12,-1.13178e-01
8.51437e+02,6.21000e+02,6.20000e+02,1.00000e+00,4.98711e-12,-1.05633e-01,3.91792e-12,-1.05633e-01,2.21951e-12,-1.05633e-01
8.51685e+02,6.42000e+02,6.28000e+02,1.40000e+01,2.86010e-12,-9.80876e-02,3.65209e-12,-9.80876e-02,1.02416e-12,-9.80876e-02
8.51932e+02,6.28000e+02,6.38000e+02,-1.00000e+01,3.89715e-12,-9.05424e-02,3.95161e-12,-9.05424e-02,3.39184e-12,-9.05424e-02
8.52180e+02,6.29000e+02,6.35000e+02,-6.00000e+00,5.11760e-12,-8.29972e-02,4.08446e-12,-8.29972e-02,2.21619e-12,-8.29972e-02
8.52428e+02,6.17000e+02,6.30000e+02,-1.30000e+01,6.26110e-12,-7.54520e-02,4.43679e-12,-7.54520e-02,2.39139e-12,-7.54520e-02
8.52675e+02,6.56000e+02,6.62000e+02,-6.00000e+00,8.19357e-12,-6.79068e-02,7.60458e-12,-6.79068e-02,2.13357e-12,-6.79068e-02
8.52923e+02,6.01000e+02,6.20000e+02,-1.90000e+01,8.19978e-12,-6.03616e-02,1.03852e-11,-6.03616e-02,2.19914e-12,-6.03616e-02
8.53170e+02,6.36000e+02,6.32000e+02,4.00000e+00,6.04690e-12,-5.28164e-02,9.94530e-12,-5.28164e-02,3.99867e-12,-5.28164e-02
8.53418e+02,6.40000e+02,6.26000e+02,1.40000e+01,2.21268e-12,-4.52712e-02,5.10014e-12,-4.52712e-02,3.12134e-12,-4.52712e-02
8.53666e+02,6.34000e+02,6.19000e+02,1.50000e+01,4.85029e-12,-3.77260e-02,4.89091e-12,-3.77260e-02,7.88977e-13,-3.77260e-02
8.53913e+02,6.24000e+02,6.41000e+02,-1.70000e+01,4.81273e-12,-3.01808e-02,4.80764e-12,-3.01808e-02,1.92691e-12,-3.01808e-02
8.54161e+02,6.33000e+02,6.21000e+02,1.20000e+01,1.85474e-11,-2.26356e-02,1.65811e-11,-2.26356e-02,1.97192e-12,-2.26356e-02
8.54409e+02,6.22000e+02,6.32000e+02,-1.00000e+01,8.41508e-11,-1.50904e-02,8.33469e-11,-1.50904e-02,1.60298e-12,-1.50904e-02
8.54656e+02,6.33000e+02,6.32000e+02,1.00000e+00,2.31235e-10,-7.54520e-03,2.30325e-10,-7.54520e-03,2.78734e-12,-7.54520e-03
