7.67698e+02,6.23000e+02,6.27000e+02,-4.00000e+00,4.05549e-10,0.00000e+00,4.02517e-10,0.00000e+00,3.03232e-12,0.00000e+00
7.67949e+02,6.55000e+02,6.61000e+02,-6.00000e+00,2.46264e-10,7.54520e-03,2.42415e-10,7.54520e-03,6.58774e-12,7.54520e-03
7.68199e+02,6.14000e+02,6.28000e+02,-1.40000e+01,9.15752e-11,1.50904e-02,8.87168e-11,1.50904e-02,6.34775e-12,1.50904e-02
7.68450e+02,6.32000e+02,6.29000e+02,3.00000e+00,2.49509e-11,2.26356e-02,2.54284e-11,2.26356e-02,1.94926e-12,2.26356e-02
7.68701e+02,6.20000e+02,6.18000e+02,2.00000e+00,6.64908e-12,3.01808e-02,7.60861e-12,3.01808e-02,1.39988e-12,3.01808e-02
7.68951e+02,6.30000e+02,6.18000e+02,1.20000e+01,3.58802e-12,3.77260e-02,5.78564e-12,3.77260e-02,2.73837e-12,3.77260e-02
7.69202e+02,6.34000e+02,6.25000e+02,9.00000e+00,5.17485e-12,4.52712e-02,7.74169e-12,4.52712e-02,2.56787e-12,4.52712e-02
7.69453e+02,6.40000e+02,6.44000e+02,-4.00000e+00,7.22264e-12,5.28164e-02,9.05465e-12,5.28164e-02,2.75152e-12,5.28164e-02
7.69703e+02,6.24000e+02,6.17000e+02,7.00000e+00,6.02298e-12,6.03616e-02,7.76406e-12,6.03616e-02,2.86110e-12,6.03616e-02
7.69954e+02,6.39000e+02,6.40000e+02,-1.00000e+00,3.95661e-12,6.79068e-02,5.43187e-12,6.79068e-02,1.47526e-12,6.79068e-02
7.70205e+02,6.27000e+02,6.34000e+02,-7.00000e+00,4.24728e-12,7.54520e-02,4.06280e-12,7.54520e-02,2.28259e-13,7.54520e-02
7.70455e+02,6.76000e+02,6.63000e+02,1.30000e+01,3.27319e-12,8.29972e-02,3.36320e-12,8.29972e-02,8.96366e-13,8.29972e-02
7.70706e+02,6.32000e+02,6.31000e+02,1.00000e+00,2.21653e-12,9.05424e-02,1.13288e-12,9.05424e-02,1.14014e-12,9.05424e-02
7.70957e+02,6.38000e+02,6.37000e+02,1.00000e+00,5.52595e-12,9.80876e-02,4.84624e-12,9.80876e-02,7.98619e-13,9.80876e-02
7.71207e+02,6.48000e+02,6.30000e+02,1.80000e+01,4.75650e-12,1.05633e-01,4.50977e-12,1.05633e-01,6.69545e-13,1.05633e-01
7.71458e+02,6.48000e+02,6.46000e+02,2.00000e+00,1.92163e-12,1.13178e-01,2.21463e-12,1.13178e-01,1.42948e-12,1.13178e-01
7.71708e+02,6.35000e+02,6.48000e+02,-1.30000e+01,1.01198e-12,1.20723e-01,2.19889e-12,1.20723e-01,2.55144e-12,1.20723e-01
7.71959e+02,6.60000e+02,6.44000e+02,1.60000e+01,3.75188e-12,1.28268e-01,1.34924e-12,1.28268e-01,2.96755e-12,1.28268e-01
7.72210e+02,6.44000e+02,6.43000e+02,1.00000e+00,6.58625e-12,1.35814e-01,3.29330e-12,1.35814e-01,3.33575e-12,1.35814e-01
7.72460e+02,6.50000e+02,6.61000e+02,-1.10000e+01,7.00070e-12,1.43359e-01,4.04334e-12,1.43359e-01,3.31943e-12,1.43359e-01
7.72711e+02,6.42000e+02,6.46000e+02,-4.00000e+00,6.40216e-12,1.50904e-01,4.14753e-12,1.50904e-01,3.10333e-12,1.50904e-01
7.72961e+02,6.79000e+02,6.90000e+02,-1.10000e+01,1.91126e-12,1.58449e-01,6.52620e-13,1.58449e-01,1.43057e-12,1.58449e-01
7.73212e+02,6.45000e+02,6.34000e+02,1.10000e+01,2.95141e-12,1.65994e-01,2.68215e-12,1.65994e-01,1.30292e-12,1.65994e-01
7.73462e+02,6.46000e+02,6.85000e+02,-3.90000e+01,2.78056e-12,1.73540e-01,1.82125e-12,1.73540e-01,2.27127e-12,1.73540e-01
7.73713e+02,6.67000e+02,6.46000e+02,2.10000e+01,1.68511e-12,1.81085e-01,1.48903e-12,1.81085e-01,2.68685e-12,1.81085e-01
7.73963e+02,6.73000e+02,6.59000e+02,1.40000e+01,1.46034e-12,1.88630e-01,2.73358e-12,1.88630e-01,3.32583e-12,1.88630e-01
7.74214e+02,6.55000e+02,6.83000e+02,-2.80000e+01,9.70867e-13,1.96175e-01,3.38068e-12,1.96175e-01,3.10705e-12,1.96175e-01
7.74465e+02,6.84000e+02,6.70000e+02,1.40000e+01,4.26714e-13,2.03720e-01,1.54110e-12,2.03720e-01,1.76936e-12,2.03720e-01
7.74715e+02,6.71000e+02,6.69000e+02,2.00000e+00,2.87683e-12,2.11266e-01,3.51711e-12,2.11266e-01,7.72210e-13,2.11266e-01
7.74965e+02,6.69000e+02,7.15000e+02,-4.60000e+01,2.58854e-12,2.18811e-01,3.43263e-12,2.18811e-01,1.49858e-12,2.18811e-01
7.75216e+02,6.77000e+02,6.86000e+02,-9.00000e+00,1.28844e-12,2.26356e-01,1.37951e-12,2.26356e-01,2.66577e-12,2.26356e-01
7.75466e+02,7.33000e+02,7.46000e+02,-1.30000e+01,1.85258e-12,2.33901e-01,1.68250e-12,2.33901e-01,2.77763e-12,2.33901e-01
7.75717e+02,6.41000e+02,6.68000e+02,-2.70000e+01,8.44144e-13,2.41446e-01,9.22418e-13,2.41446e-01,1.76377e-12,2.41446e-01
7.75967e+02,7.20000e+02,6.91000e+02,2.90000e+01,6.39629e-13,2.48992e-01,1.33423e-12,2.48992e-01,1.97322e-12,2.48992e-01
7.76218e+02,7.12000e+02,7.09000e+02,3.00000e+00,1.22182e-12,2.56537e-01,1.93434e-12,2.56537e-01,2.60380e-12,2.56537e-01
7.76468e+02,7.05000e+02,7.22000e+02,-1.70000e+01,1.20983e-12,2.64082e-01,1.72431e-12,2.64082e-01,2.77480e-12,2.64082e-01
7.76719e+02,7.44000e+02,7.09000e+02,3.50000e+01,2.71999e-12,2.71627e-01,1.20729e-12,2.71627e-01,1.71789e-12,2.71627e-01
7.76969e+02,7.25000e+02,7.74000e+02,-4.90000e+01,4.59813e-12,2.79172e-01,3.73549e-12,2.79172e-01,1.04514e-12,2.79172e-01
7.77219e+02,7.41000e+02,7.17000e+02,2.40000e+01,5.24152e-12,2.86718e-01,3.90091e-12,2.86718e-01,1.38045e-12,2.86718e-01
7.77470e+02,8.53000e+02,7.99000e+02,5.40000e+01,2.94197e-12,2.94263e-01,2.95782e-12,2.94263e-01,2.43434e-13,2.94263e-01
7.77720e+02,7.64000e+02,7.98000e+02,-3.40000e+01,1.34254e-12,3.01808e-01,2.08725e-12,3.01808e-01,2.89933e-12,3.01808e-01
7.77971e+02,8.52000e+02,7.82000e+02,7.00000e+01,4.03672e-12,3.09353e-01,2.58747e-12,3.09353e-01,3.41097e-12,3.09353e-01
7.78221e+02,8.26000e+02,8.33000e+02,-7.00000e+00,4.11610e-12,3.16898e-01,3.21609e-12,3.16898e-01,9.84170e-13,3.16898e-01
7.78471e+02,7.88000e+02,8.68000e+02,-8.00000e+01,3.70074e-12,3.24444e-01,2.26666e-12,3.24444e-01,2.84526e-12,3.24444e-01
7.78722e+02,8.21000e+02,7.90000e+02,3.10000e+01,3.17109e-12,3.31989e-01,1.60363e-12,3.31989e-01,3.96359e-12,3.31989e-01
7.78972e+02,8.69000e+02,9.58000e+02,-8.90000e+01,2.51350e-12,3.39534e-01,1.18349e-12,3.39534e-01,2.36223e-12,3.39534e-01
7.79222e+02,8.38000e+02,9.05000e+02,-6.70000e+01,1.61795e-12,3.47079e-01,4.54387e-13,3.47079e-01,1.16809e-12,3.47079e-01
7.79473e+02,1.01400e+03,9.27000e+02,8.70000e+01,1.62242e-12,3.54624e-01,1.04959e-12,3.54624e-01,6.58943e-13,3.54624e-01
7.79723e+02,9.11000e+02,1.07600e+03,-1.65000e+02,3.65092e-12,3.62169e-01,2.67153e-12,3.62169e-01,1.18516e-12,3.62169e-01
7.79973e+02,1.00600e+03,9.80000e+02,2.60000e+01,3.03778e-12,3.69715e-01,2.60861e-12,3.69715e-01,5.24008e-13,3.69715e-01
7.80224e+02,1.09700e+03,1.01600e+03,8.10000e+01,1.54907e-12,3.77260e-01,4.79966e-13,3.77260e-01,1.07657e-12,3.77260e-01
7.80474e+02,1.07300e+03,1.29900e+03,-2.26000e+02,2.31264e-12,3.84805e-01,2.19431e-12,3.84805e-01,1.98208e-12,3.84805e-01
7.80724e+02,9.68000e+02,1.02900e+03,-6.10000e+01,2.40650e-12,3.92350e-01,2.11329e-12,3.92350e-01,2.49349e-12,3.92350e-01
7.80974e+02,1.16200e+03,1.20400e+03,-4.20000e+01,3.09624e-12,3.99895e-01,1.42444e-12,3.99895e-01,3.03581e-12,3.99895e-01
7.81225e+02,1.00400e+03,1.21300e+03,-2.09000e+02,3.33035e-12,4.07441e-01,8.50285e-13,4.07441e-01,3.15387e-12,4.07441e-01
7.81475e+02,1.34100e+03,1.11000e+03,2.31000e+02,3.17359e-12,4.14986e-01,7.63615e-13,4.14986e-01,2.71184e-12,4.14986e-01
7.81725e+02,1.27400e+03,1.27300e+03,1.00000e+00,1.82091e-12,4.22531e-01,9.04869e-13,4.22531e-01,1.64694e-12,4.22531e-01
7.81975e+02,1.26000e+03,1.31500e+03,-5.50000e+01,5.50871e-13,4.30076e-01,7.52006e-13,4.30076e-01,5.62386e-13,4.30076e-01
7.82226e+02,1.50200e+03,1.20800e+03,2.94000e+02,3.38564e-13,4.37621e-01,1.05497e-12,4.37621e-01,7.19621e-13,4.37621e-01
7.82476e+02,1.31900e+03,1.48200e+03,-1.63000e+02,1.97431e-12,4.45167e-01,2.94298e-12,4.45167e-01,1.38762e-12,4.45167e-01
7.82726e+02,1.21600e+03,1.26500e+03,-4.90000e+01,3.26150e-12,4.52712e-01,3.09628e-12,4.52712e-01,1.52427e-12,4.52712e-01
7.82976e+02,1.49500e+03,1.39900e+03,9.60000e+01,3.76621e-12,4.60257e-01,2.36543e-12,4.60257e-01,1.68441e-12,4.60257e-01
7.83226e+02,1.22300e+03,1.41900e+03,-1.96000e+02,3.99584e-12,4.67802e-01,2.56057e-12,4.67802e-01,1.46606e-12,4.67802e-01
7.83477e+02,1.40800e+03,1.32800e+03,8.00000e+01,3.82322e-12,4.75347e-01,2.06523e-12,4.75347e-01,1.79916e-12,4.75347e-01
7.83727e+02,1.61000e+03,1.50200e+03,1.08000e+02,2.08169e-12,4.82893e-01,5.09206e-13,4.82893e-01,2.32566e-12,4.82893e-01
7.83977e+02,1.43900e+03,1.64700e+03,-2.08000e+02,7.56787e-13,4.90438e-01,2.11975e-12,4.90438e-01,1.45285e-12,4.90438e-01
7.84227e+02,1.55700e+03,1.36800e+03,1.89000e+02,2.53315e-12,4.97983e-01,2.54125e-12,4.97983e-01,6.88558e-13,4.97983e-01
7.84477e+02,1.92100e+03,1.91500e+03,6.00000e+00,2.08190e-12,5.05528e-01,2.29870e-12,5.05528e-01,3.44421e-13,5.05528e-01
7.84727e+02,1.61100e+03,1.94400e+03,-3.33000e+02,6.80257e-13,5.13073e-01,3.24713e-12,5.13073e-01,2.56740e-12,5.13073e-01
7.84978e+02,2.14600e+03,1.88600e+03,2.60000e+02,1.25556e-12,5.20619e-01,3.61839e-12,5.20619e-01,4.18399e-12,5.20619e-01
7.85228e+02,2.27300e+03,2.47700e+03,-2.04000e+02,2.12893e-12,5.28164e-01,2.87762e-12,5.28164e-01,3.82605e-12,5.28164e-01
7.85478e+02,2.11700e+03,2.44500e+03,-3.28000e+02,1.34056e-12,5.35709e-01,1.83193e-12,5.35709e-01,2.24958e-12,5.35709e-01
7.85728e+02,2.52800e+03,2.01500e+03,5.13000e+02,3.85732e-13,5.43254e-01,8.89918e-13,5.43254e-01,1.26528e-12,5.43254e-01
7.85978e+02,2.12800e+03,2.34000e+03,-2.12000e+02,1.47152e-12,5.50799e-01,4.38093e-13,5.50799e-01,1.58756e-12,5.50799e-01
7.86228e+02,1.85700e+03,1.81500e+03,4.20000e+01,1.78877e-12,5.58345e-01,1.06825e-12,5.58345e-01,1.34496e-12,5.58345e-01
7.86478e+02,2.45300e+03,1.91900e+03,5.34000e+02,1.54375e-12,5.65890e-01,1.00851e-12,5.65890e-01,1.49844e-12,5.65890e-01
7.86728e+02,2.09600e+03,2.38100e+03,-2.85000e+02,1.25178e-12,5.73435e-01,1.67347e-12,5.73435e-01,2.46358e-12,5.73435e-01
7.86978e+02,2.07600e+03,1.96900e+03,1.07000e+02,5.29477e-13,5.80980e-01,2.54125e-12,5.80980e-01,2.51809e-12,5.80980e-01
7.87228e+02,2.47800e+03,1.98400e+03,4.94000e+02,8.44162e-13,5.88525e-01,2.51980e-12,5.88525e-01,1.70653e-12,5.88525e-01
7.87478e+02,2.02000e+03,2.39300e+03,-3.73000e+02,1.38991e-12,5.96071e-01,2.20034e-12,5.96071e-01,8.99477e-13,5.96071e-01
7.87728e+02,2.02700e+03,1.96900e+03,5.80000e+01,1.99777e-12,6.03616e-01,1.48126e-12,6.03616e-01,8.62910e-13,6.03616e-01
7.87978e+02,2.62200e+03,2.39800e+03,2.24000e+02,2.25043e-12,6.11161e-01,1.07193e-12,6.11161e-01,1.21581e-12,6.11161e-01
7.88228e+02,2.22100e+03,2.69800e+03,-4.77000e+02,1.66161e-12,6.18706e-01,7.37290e-13,6.18706e-01,9.25825e-13,6.18706e-01
7.88478e+02,2.87200e+03,2.43300e+03,4.39000e+02,3.88918e-13,6.26251e-01,3.42906e-13,6.26251e-01,5.22818e-13,6.26251e-01
7.88728e+02,3.19200e+03,3.04100e+03,1.51000e+02,5.70333e-13,6.33797e-01,1.14516e-12,6.33797e-01,8.22332e-13,6.33797e-01
7.88978e+02,2.60000e+03,2.95100e+03,-3.51000e+02,5.98067e-13,6.41342e-01,1.84441e-12,6.41342e-01,1.26910e-12,6.41342e-01
7.89228e+02,3.19000e+03,2.36000e+03,8.30000e+02,1.12902e-12,6.48887e-01,2.97457e-12,6.48887e-01,1.86261e-12,6.48887e-01
7.89478e+02,3.29400e+03,3.14300e+03,1.51000e+02,9.55429e-13,6.56432e-01,2.80638e-12,6.56432e-01,1.95338e-12,6.56432e-01
7.89728e+02,2.47600e+03,3.06100e+03,-5.85000e+02,3.71929e-13,6.63977e-01,1.47038e-12,6.63977e-01,1.09845e-12,6.63977e-01
7.89978e+02,3.25400e+03,2.62600e+03,6.28000e+02,1.72870e-13,6.71523e-01,8.04294e-13,6.71523e-01,8.81487e-13,6.71523e-01
7.90228e+02,3.22600e+03,3.38400e+03,-1.58000e+02,8.70841e-13,6.79068e-01,1.00531e-12,6.79068e-01,1.70936e-12,6.79068e-01
7.90478e+02,3.11600e+03,3.45100e+03,-3.35000e+02,1.74967e-12,6.86613e-01,6.57881e-13,6.86613e-01,2.04330e-12,6.86613e-01
7.90728e+02,3.97400e+03,3.19000e+03,7.84000e+02,2.14420e-12,6.94158e-01,8.26853e-13,6.94158e-01,1.39660e-12,6.94158e-01
7.90978e+02,3.70200e+03,4.18500e+03,-4.83000e+02,2.19670e-12,7.01703e-01,1.64947e-12,7.01703e-01,1.90277e-12,7.01703e-01
7.91228e+02,3.38600e+03,3.52400e+03,-1.38000e+02,2.43915e-12,7.09249e-01,1.26464e-12,7.09249e-01,2.73412e-12,7.09249e-01
7.91478e+02,4.06300e+03,3.24900e+03,8.14000e+02,2.28490e-12,7.16794e-01,3.40689e-13,7.16794e-01,2.07681e-12,7.16794e-01
7.91728e+02,3.26800e+03,3.88000e+03,-6.12000e+02,1.54562e-12,7.24339e-01,9.66787e-13,7.24339e-01,5.79931e-13,7.24339e-01
7.91977e+02,3.07300e+03,3.36500e+03,-2.92000e+02,9.91513e-13,7.31884e-01,1.33572e-12,7.31884e-01,6.11226e-13,7.31884e-01
7.92227e+02,3.81000e+03,3.43700e+03,3.73000e+02,1.22435e-12,7.39429e-01,1.03621e-12,7.39429e-01,1.04009e-12,7.39429e-01
7.92477e+02,3.47000e+03,4.59600e+03,-1.12600e+03,1.91234e-12,7.46975e-01,9.28520e-13,7.46975e-01,1.05121e-12,7.46975e-01
7.92727e+02,4.02900e+03,3.48600e+03,5.43000e+02,1.94047e-12,7.54520e-01,1.54638e-12,7.54520e-01,7.03419e-13,7.54520e-01
7.92977e+02,4.44400e+03,3.78400e+03,6.60000e+02,1.68966e-12,7.62065e-01,1.95293e-12,7.62065e-01,1.20207e-12,7.62065e-01
7.93227e+02,3.24100e+03,4.09000e+03,-8.49000e+02,1.90630e-12,7.69610e-01,2.24708e-12,7.69610e-01,8.40757e-13,7.69610e-01
7.93476e+02,3.86800e+03,3.26000e+03,6.08000e+02,1.87355e-12,7.77155e-01,2.07490e-12,7.77155e-01,4.54305e-13,7.77155e-01
7.93726e+02,4.09200e+03,3.78700e+03,3.05000e+02,1.51213e-12,7.84701e-01,1.99049e-12,7.84701e-01,6.04639e-13,7.84701e-01
7.93976e+02,3.35200e+03,4.02200e+03,-6.70000e+02,1.31678e-12,7.92246e-01,2.07274e-12,7.92246e-01,1.95217e-12,7.92246e-01
7.94226e+02,4.29600e+03,3.15700e+03,1.13900e+03,1.55730e-12,7.99791e-01,1.16352e-12,7.99791e-01,2.16537e-12,7.99791e-01
7.94476e+02,4.63700e+03,4.63400e+03,3.00000e+00,1.50856e-12,8.07336e-01,6.49927e-13,8.07336e-01,1.70265e-12,8.07336e-01
7.94725e+02,3.58700e+03,4.62700e+03,-1.04000e+03,1.74131e-12,8.14881e-01,9.21780e-13,8.14881e-01,2.13952e-12,8.14881e-01
7.94975e+02,5.00400e+03,3.64800e+03,1.35600e+03,1.14424e-12,8.22427e-01,1.07563e-12,8.22427e-01,1.83841e-12,8.22427e-01
7.95225e+02,4.76200e+03,4.27600e+03,4.86000e+02,1.26232e-12,8.29972e-01,3.68270e-12,8.29972e-01,3.73447e-12,8.29972e-01
7.95475e+02,3.95400e+03,4.43200e+03,-4.78000e+02,4.41426e-12,8.37517e-01,3.74736e-12,8.37517e-01,6.09496e-12,8.37517e-01
7.95724e+02,5.38500e+03,4.26400e+03,1.12100e+03,6.61586e-12,8.45062e-01,5.88154e-12,8.45062e-01,1.12070e-11,8.45062e-01
7.95974e+02,5.02200e+03,5.49600e+03,-4.74000e+02,9.74741e-12,8.52607e-01,1.00084e-11,8.52607e-01,1.77353e-11,8.52607e-01
7.96224e+02,4.49800e+03,5.01900e+03,-5.21000e+02,1.33222e-11,8.60153e-01,1.33452e-11,8.60153e-01,2.34730e-11,8.60153e-01
7.96474e+02,6.04200e+03,4.87300e+03,1.16900e+03,1.63589e-11,8.67698e-01,1.60044e-11,8.67698e-01,2.83922e-11,8.67698e-01
7.96723e+02,5.19500e+03,6.03400e+03,-8.39000e+02,1.91407e-11,8.75243e-01,1.81884e-11,8.75243e-01,3.21904e-11,8.75243e-01
7.96973e+02,5.22100e+03,5.17500e+03,4.60000e+01,2.01859e-11,8.82788e-01,1.76964e-11,8.82788e-01,3.25339e-11,8.82788e-01
7.97223e+02,7.75500e+03,5.98900e+03,1.76600e+03,1.83334e-11,8.90333e-01,1.56259e-11,8.90333e-01,2.94378e-11,8.90333e-01
7.97472e+02,6.06600e+03,7.50900e+03,-1.44300e+03,1.46843e-11,8.97879e-01,1.31976e-11,8.97879e-01,2.42560e-11,8.97879e-01
7.97722e+02,7.22100e+03,6.18500e+03,1.03600e+03,1.15946e-11,9.05424e-01,1.05368e-11,9.05424e-01,1.94617e-11,9.05424e-01
7.97972e+02,8.23200e+03,6.38800e+03,1.84400e+03,1.09038e-11,9.12969e-01,8.74512e-12,9.12969e-01,1.70550e-11,9.12969e-01
7.98221e+02,5.59400e+03,7.10700e+03,-1.51300e+03,8.87603e-12,9.20514e-01,7.79107e-12,9.20514e-01,1.34125e-11,9.20514e-01
7.98471e+02,5.77900e+03,5.06100e+03,7.18000e+02,4.40969e-12,9.28059e-01,5.31024e-12,9.28059e-01,8.27025e-12,9.28059e-01
7.98721e+02,6.59700e+03,5.68800e+03,9.09000e+02,3.22628e-12,9.35605e-01,2.26501e-12,9.35605e-01,5.16866e-12,9.35605e-01
7.98970e+02,5.56200e+03,7.04400e+03,-1.48200e+03,1.25656e-12,9.43150e-01,7.92181e-13,9.43150e-01,1.53452e-12,9.43150e-01
7.99220e+02,6.94200e+03,5.40100e+03,1.54100e+03,1.68560e-12,9.50695e-01,9.40973e-13,9.50695e-01,2.31638e-12,9.50695e-01
7.99469e+02,7.68700e+03,6.15400e+03,1.53300e+03,1.24170e-12,9.58240e-01,8.45798e-13,9.58240e-01,2.08140e-12,9.58240e-01
7.99719e+02,5.47100e+03,7.03400e+03,-1.56300e+03,1.18069e-12,9.65785e-01,1.78325e-12,9.65785e-01,2.81764e-12,9.65785e-01
7.99969e+02,7.13000e+03,5.68000e+03,1.45000e+03,1.56079e-13,9.73331e-01,1.38110e-12,9.73331e-01,1.47288e-12,9.73331e-01
8.00218e+02,7.60100e+03,7.30200e+03,2.99000e+02,9.82787e-13,9.80876e-01,1.57728e-12,9.80876e-01,6.39792e-13,9.80876e-01
8.00468e+02,6.08400e+03,7.50200e+03,-1.41800e+03,1.45198e-12,9.88421e-01,2.13863e-12,9.88421e-01,9.06056e-13,9.88421e-01
8.00717e+02,7.62700e+03,5.63700e+03,1.99000e+03,1.89599e-12,9.95966e-01,2.17255e-12,9.95966e-01,1.15177e-12,9.95966e-01
8.00967e+02,6.98800e+03,7.24600e+03,-2.58000e+02,2.02116e-12,1.00351e+00,1.43736e-12,1.00351e+00,2.01840e-12,1.00351e+00
8.01216e+02,5.99900e+03,7.76700e+03,-1.76800e+03,1.66938e-12,1.01106e+00,9.86833e-13,1.01106e+00,2.29333e-12,1.01106e+00
8.01466e+02,8.63600e+03,6.40900e+03,2.22700e+03,1.01177e-12,1.01860e+00,6.47220e-13,1.01860e+00,1.65666e-12,1.01860e+00
8.01715e+02,8.99100e+03,8.71200e+03,2.79000e+02,7.28265e-13,1.02615e+00,6.79060e-13,1.02615e+00,1.36677e-12,1.02615e+00
8.01965e+02,7.11300e+03,8.26100e+03,-1.14800e+03,5.17649e-13,1.03369e+00,9.48572e-13,1.03369e+00,1.26310e-12,1.03369e+00
8.02215e+02,8.73000e+03,6.52400e+03,2.20600e+03,7.76504e-13,1.04124e+00,6.65773e-13,1.04124e+00,9.60705e-13,1.04124e+00
8.02464e+02,7.71100e+03,8.92300e+03,-1.21200e+03,5.92259e-13,1.04878e+00,1.74477e-13,1.04878e+00,4.91034e-13,1.04878e+00
8.02713e+02,6.34100e+03,7.67700e+03,-1.33600e+03,1.70682e-13,1.05633e+00,6.64426e-13,1.05633e+00,5.37010e-13,1.05633e+00
8.02963e+02,9.04200e+03,6.72800e+03,2.31400e+03,1.18682e-12,1.06387e+00,7.33478e-14,1.06387e+00,1.25118e-12,1.06387e+00
8.03212e+02,8.57200e+03,9.06100e+03,-4.89000e+02,1.52101e-12,1.07142e+00,4.35278e-13,1.07142e+00,1.27970e-12,1.07142e+00
8.03462e+02,7.68700e+03,7.77900e+03,-9.20000e+01,1.53750e-12,1.07896e+00,9.19299e-13,1.07896e+00,8.44728e-13,1.07896e+00
8.03711e+02,1.02370e+04,7.35700e+03,2.88000e+03,1.25617e-12,1.08651e+00,9.44333e-13,1.08651e+00,3.12017e-13,1.08651e+00
8.03961e+02,8.02500e+03,8.80400e+03,-7.79000e+02,1.53896e-12,1.09405e+00,9.93632e-13,1.09405e+00,5.64392e-13,1.09405e+00
8.04210e+02,7.29200e+03,7.28300e+03,9.00000e+00,1.48635e-12,1.10160e+00,1.12232e-12,1.10160e+00,4.10070e-13,1.10160e+00
8.04460e+02,9.81600e+03,7.79700e+03,2.01900e+03,6.47226e-13,1.10914e+00,1.03652e-12,1.10914e+00,4.52758e-13,1.10914e+00
8.04709e+02,8.35500e+03,1.07210e+04,-2.36600e+03,4.39287e-13,1.11669e+00,4.42440e-13,1.11669e+00,1.05884e-13,1.11669e+00
8.04958e+02,7.65900e+03,8.43100e+03,-7.72000e+02,5.25304e-13,1.12423e+00,2.40742e-13,1.12423e+00,3.49613e-13,1.12423e+00
8.05208e+02,1.06460e+04,7.96200e+03,2.68400e+03,8.84188e-13,1.13178e+00,1.43839e-13,1.13178e+00,7.40380e-13,1.13178e+00
8.05457e+02,7.83000e+03,9.11500e+03,-1.28500e+03,1.43520e-12,1.13932e+00,5.31890e-13,1.13932e+00,9.55066e-13,1.13932e+00
8.05707e+02,8.40500e+03,7.74400e+03,6.61000e+02,1.53927e-12,1.14687e+00,9.56648e-13,1.14687e+00,5.83146e-13,1.14687e+00
8.05956e+02,1.17220e+04,8.45900e+03,3.26300e+03,7.24902e-13,1.15442e+00,7.61194e-13,1.15442e+00,1.21212e-13,1.15442e+00
8.06205e+02,8.29000e+03,9.86500e+03,-1.57500e+03,3.94851e-13,1.16196e+00,2.72055e-13,1.16196e+00,6.50933e-13,1.16196e+00
8.06455e+02,8.82700e+03,7.68300e+03,1.14400e+03,1.12666e-12,1.16951e+00,2.92093e-13,1.16951e+00,9.26269e-13,1.16951e+00
8.06704e+02,1.14860e+04,8.60100e+03,2.88500e+03,1.16069e-12,1.17705e+00,6.65978e-13,1.17705e+00,7.13899e-13,1.17705e+00
8.06953e+02,8.86600e+03,1.06410e+04,-1.77500e+03,6.79290e-13,1.18460e+00,9.21244e-13,1.18460e+00,2.96485e-13,1.18460e+00
8.07203e+02,8.41600e+03,7.64600e+03,7.70000e+02,3.92218e-13,1.19214e+00,1.07366e-12,1.19214e+00,7.50568e-13,1.19214e+00
8.07452e+02,1.11840e+04,8.69200e+03,2.49200e+03,5.82857e-13,1.19969e+00,9.96400e-13,1.19969e+00,5.83623e-13,1.19969e+00
8.07701e+02,8.34600e+03,1.10600e+04,-2.71400e+03,1.13392e-12,1.20723e+00,6.12119e-13,1.20723e+00,7.33298e-13,1.20723e+00
8.07951e+02,8.46500e+03,8.29100e+03,1.74000e+02,1.46530e-12,1.21478e+00,4.46880e-13,1.21478e+00,1.23092e-12,1.21478e+00
8.08200e+02,9.90800e+03,8.02800e+03,1.88000e+03,1.06252e-12,1.22232e+00,5.78773e-13,1.22232e+00,9.71217e-13,1.22232e+00
8.08449e+02,8.54300e+03,1.10100e+04,-2.46700e+03,3.07063e-13,1.22987e+00,6.81267e-13,1.22987e+00,3.80834e-13,1.22987e+00
8.08698e+02,9.34500e+03,8.29900e+03,1.04600e+03,1.00795e-12,1.23741e+00,7.46983e-13,1.23741e+00,2.64382e-13,1.23741e+00
8.08948e+02,1.17900e+04,9.50300e+03,2.28700e+03,1.15867e-12,1.24496e+00,8.36877e-13,1.24496e+00,5.80720e-13,1.24496e+00
8.09197e+02,8.98800e+03,1.16690e+04,-2.68100e+03,7.20070e-13,1.25250e+00,4.48834e-13,1.25250e+00,2.74230e-13,1.25250e+00
8.09446e+02,9.55700e+03,8.44500e+03,1.11200e+03,2.13793e-13,1.26005e+00,5.16039e-13,1.26005e+00,3.04049e-13,1.26005e+00
8.09695e+02,1.19410e+04,1.01170e+04,1.82400e+03,2.95576e-13,1.26759e+00,6.19345e-13,1.26759e+00,4.09473e-13,1.26759e+00
8.09945e+02,9.66200e+03,1.22730e+04,-2.61100e+03,5.01501e-13,1.27514e+00,7.68765e-13,1.27514e+00,5.71883e-13,1.27514e+00
8.10194e+02,1.15600e+04,9.64100e+03,1.91900e+03,5.36692e-13,1.28268e+00,2.85480e-13,1.28268e+00,7.50957e-13,1.28268e+00
8.10443e+02,1.28820e+04,1.05330e+04,2.34900e+03,9.83206e-13,1.29023e+00,2.40806e-13,1.29023e+00,8.50612e-13,1.29023e+00
8.10692e+02,9.10900e+03,1.17980e+04,-2.68900e+03,9.91071e-13,1.29777e+00,3.62953e-13,1.29777e+00,9.25253e-13,1.29777e+00
8.10941e+02,1.12040e+04,9.52400e+03,1.68000e+03,8.07861e-13,1.30532e+00,7.88332e-13,1.30532e+00,1.10941e-12,1.30532e+00
8.11191e+02,1.25170e+04,1.14120e+04,1.10500e+03,6.36733e-13,1.31286e+00,4.91896e-13,1.31286e+00,1.12830e-12,1.31286e+00
8.11440e+02,9.97100e+03,1.23960e+04,-2.42500e+03,2.05795e-12,-1.32041e+00,1.11119e-12,-1.32041e+00,9.46766e-13,-1.32041e+00
8.11689e+02,1.26340e+04,1.02280e+04,2.40600e+03,6.36733e-13,-1.31286e+00,4.91896e-13,-1.31286e+00,1.12830e-12,-1.31286e+00
8.11938e+02,1.36710e+04,1.14270e+04,2.24400e+03,8.07861e-13,-1.30532e+00,7.88332e-13,-1.30532e+00,1.10941e-12,-1.30532e+00
8.12187e+02,9.66800e+03,1.27140e+04,-3.04600e+03,9.91071e-13,-1.29777e+00,3.62953e-13,-1.29777e+00,9.25253e-13,-1.29777e+00
8.12436e+02,1.06730e+04,9.84900e+03,8.24000e+02,9.83206e-13,-1.29023e+00,2.40806e-13,-1.29023e+00,8.50612e-13,-1.29023e+00
8.12685e+02,1.14780e+04,1.14110e+04,6.70000e+01,5.36692e-13,-1.28268e+00,2.85480e-13,-1.28268e+00,7.50957e-13,-1.28268e+00
8.12935e+02,8.47400e+03,1.19860e+04,-3.51200e+03,5.01501e-13,-1.27514e+00,7.68765e-13,-1.27514e+00,5.71883e-13,-1.27514e+00
8.13184e+02,1.04500e+04,9.12600e+03,1.32400e+03,2.95576e-13,-1.26759e+00,6.19345e-13,-1.26759e+00,4.09473e-13,-1.26759e+00
8.13433e+02,1.33520e+04,1.11680e+04,2.18400e+03,2.13793e-13,-1.26005e+00,5.16039e-13,-1.26005e+00,3.04049e-13,-1.26005e+00
8.13682e+02,9.79400e+03,1.32960e+04,-3.50200e+03,7.20070e-13,-1.25250e+00,4.48834e-13,-1.25250e+00,2.74230e-13,-1.25250e+00
8.13931e+02,1.04820e+04,1.00690e+04,4.13000e+02,1.15867e-12,-1.24496e+00,8.36877e-13,-1.24496e+00,5.80720e-13,-1.24496e+00
8.14180e+02,1.18530e+04,9.60900e+03,2.24400e+03,1.00795e-12,-1.23741e+00,7.46983e-13,-1.23741e+00,2.64382e-13,-1.23741e+00
8.14429e+02,9.83400e+03,1.21610e+04,-2.32700e+03,3.07063e-13,-1.22987e+00,6.81267e-13,-1.22987e+00,3.80834e-13,-1.22987e+00
8.14678e+02,1.01620e+04,9.87400e+03,2.88000e+02,1.06252e-12,-1.22232e+00,5.78773e-13,-1.22232e+00,9.71217e-13,-1.22232e+00
8.14927e+02,1.16310e+04,1.03170e+04,1.31400e+03,1.46530e-12,-1.21478e+00,4.46880e-13,-1.21478e+00,1.23092e-12,-1.21478e+00
8.15176e+02,9.03100e+03,1.25490e+04,-3.51800e+03,1.13392e-12,-1.20723e+00,6.12119e-13,-1.20723e+00,7.33298e-13,-1.20723e+00
8.15425e+02,1.00920e+04,8.79300e+03,1.29900e+03,5.82857e-13,-1.19969e+00,9.96400e-13,-1.19969e+00,5.83623e-13,-1.19969e+00
8.15674e+02,1.27580e+04,1.01210e+04,2.63700e+03,3.92218e-13,-1.19214e+00,1.07366e-12,-1.19214e+00,7.50568e-13,-1.19214e+00
8.15923e+02,9.22000e+03,1.30280e+04,-3.80800e+03,6.79290e-13,-1.18460e+00,9.21244e-13,-1.18460e+00,2.96485e-13,-1.18460e+00
8.16172e+02,1.07520e+04,1.02400e+04,5.12000e+02,1.16069e-12,-1.17705e+00,6.65978e-13,-1.17705e+00,7.13899e-13,-1.17705e+00
8.16421e+02,1.27210e+04,9.98100e+03,2.74000e+03,1.12666e-12,-1.16951e+00,2.92093e-13,-1.16951e+00,9.26269e-13,-1.16951e+00
8.16670e+02,8.16000e+03,1.08030e+04,-2.64300e+03,3.94851e-13,-1.16196e+00,2.72055e-13,-1.16196e+00,6.50933e-13,-1.16196e+00
8.16919e+02,9.04200e+03,7.57300e+03,1.46900e+03,7.24902e-13,-1.15442e+00,7.61194e-13,-1.15442e+00,1.21212e-13,-1.15442e+00
8.17168e+02,1.02640e+04,7.80200e+03,2.46200e+03,1.53927e-12,-1.14687e+00,9.56648e-13,-1.14687e+00,5.83146e-13,-1.14687e+00
8.17417e+02,7.64400e+03,9.97700e+03,-2.33300e+03,1.43520e-12,-1.13932e+00,5.31890e-13,-1.13932e+00,9.55066e-13,-1.13932e+00
8.17666e+02,8.00800e+03,7.79800e+03,2.10000e+02,8.84188e-13,-1.13178e+00,1.43839e-13,-1.13178e+00,7.40380e-13,-1.13178e+00
8.17915e+02,1.07560e+04,8.98900e+03,1.76700e+03,5.25304e-13,-1.12423e+00,2.40742e-13,-1.12423e+00,3.49613e-13,-1.12423e+00
8.18164e+02,7.83200e+03,1.00970e+04,-2.26500e+03,4.39287e-13,-1.11669e+00,4.42440e-13,-1.11669e+00,1.05884e-13,-1.11669e+00
8.18413e+02,7.32600e+03,7.27400e+03,5.20000e+01,6.47226e-13,-1.10914e+00,1.03652e-12,-1.10914e+00,4.52758e-13,-1.10914e+00
8.18662e+02,9.60800e+03,7.86300e+03,1.74500e+03,1.48635e-12,-1.10160e+00,1.12232e-12,-1.10160e+00,4.10070e-13,-1.10160e+00
8.18911e+02,7.47000e+03,1.01360e+04,-2.66600e+03,1.53896e-12,-1.09405e+00,9.93632e-13,-1.09405e+00,5.64392e-13,-1.09405e+00
8.19160e+02,7.14600e+03,7.11500e+03,3.10000e+01,1.25617e-12,-1.08651e+00,9.44333e-13,-1.08651e+00,3.12017e-13,-1.08651e+00
8.19408e+02,9.05800e+03,6.68000e+03,2.37800e+03,1.53750e-12,-1.07896e+00,9.19299e-13,-1.07896e+00,8.44728e-13,-1.07896e+00
8.19657e+02,6.78900e+03,9.29600e+03,-2.50700e+03,1.52101e-12,-1.07142e+00,4.35278e-13,-1.07142e+00,1.27970e-12,-1.07142e+00
8.19906e+02,7.62400e+03,7.42600e+03,1.98000e+02,1.18682e-12,-1.06387e+00,7.33478e-14,-1.06387e+00,1.25118e-12,-1.06387e+00
8.20155e+02,1.01170e+04,7.03400e+03,3.08300e+03,1.70682e-13,-1.05633e+00,6.64426e-13,-1.05633e+00,5.37010e-13,-1.05633e+00
8.20404e+02,7.50100e+03,9.10000e+03,-1.59900e+03,5.92259e-13,-1.04878e+00,1.74477e-13,-1.04878e+00,4.91034e-13,-1.04878e+00
8.20653e+02,6.81000e+03,6.74800e+03,6.20000e+01,7.76504e-13,-1.04124e+00,6.65773e-13,-1.04124e+00,9.60705e-13,-1.04124e+00
8.20901e+02,9.06600e+03,6.21600e+03,2.85000e+03,5.17649e-13,-1.03369e+00,9.48572e-13,-1.03369e+00,1.26310e-12,-1.03369e+00
8.21150e+02,7.25800e+03,8.63300e+03,-1.37500e+03,7.28265e-13,-1.02615e+00,6.79060e-13,-1.02615e+00,1.36677e-12,-1.02615e+00
8.21399e+02,6.41600e+03,6.63200e+03,-2.16000e+02,1.01177e-12,-1.01860e+00,6.47220e-13,-1.01860e+00,1.65666e-12,-1.01860e+00
8.21648e+02,9.14400e+03,6.44800e+03,2.69600e+03,1.66938e-12,-1.01106e+00,9.86833e-13,-1.01106e+00,2.29333e-12,-1.01106e+00
8.21897e+02,6.99900e+03,8.36000e+03,-1.36100e+03,2.02116e-12,-1.00351e+00,1.43736e-12,-1.00351e+00,2.01840e-12,-1.00351e+00
8.22145e+02,4.85700e+03,6.42200e+03,-1.56500e+03,1.89599e-12,-9.95966e-01,2.17255e-12,-9.95966e-01,1.15177e-12,-9.95966e-01
8.22394e+02,7.00400e+03,5.99200e+03,1.01200e+03,1.45198e-12,-9.88421e-01,2.13863e-12,-9.88421e-01,9.06056e-13,-9.88421e-01
8.22643e+02,6.31200e+03,8.13300e+03,-1.82100e+03,9.82787e-13,-9.80876e-01,1.57728e-12,-9.80876e-01,6.39792e-13,-9.80876e-01
8.22892e+02,5.76300e+03,7.25800e+03,-1.49500e+03,1.56079e-13,-9.73331e-01,1.38110e-12,-9.73331e-01,1.47288e-12,-9.73331e-01
8.23140e+02,7.68500e+03,5.27000e+03,2.41500e+03,1.18069e-12,-9.65785e-01,1.78325e-12,-9.65785e-01,2.81764e-12,-9.65785e-01
8.23389e+02,5.92700e+03,6.85400e+03,-9.27000e+02,1.24170e-12,-9.58240e-01,8.45798e-13,-9.58240e-01,2.08140e-12,-9.58240e-01
8.23638e+02,5.00500e+03,6.37000e+03,-1.36500e+03,1.68560e-12,-9.50695e-01,9.40973e-13,-9.50695e-01,2.31638e-12,-9.50695e-01
8.23887e+02,6.92100e+03,4.89000e+03,2.03100e+03,1.25656e-12,-9.43150e-01,7.92181e-13,-9.43150e-01,1.53452e-12,-9.43150e-01
8.24135e+02,5.83200e+03,6.83600e+03,-1.00400e+03,3.22628e-12,-9.35605e-01,2.26501e-12,-9.35605e-01,5.16866e-12,-9.35605e-01
8.24384e+02,4.66500e+03,6.39000e+03,-1.72500e+03,4.40969e-12,-9.28059e-01,5.31024e-12,-9.28059e-01,8.27025e-12,-9.28059e-01
8.24633e+02,6.54800e+03,4.88400e+03,1.66400e+03,8.87603e-12,-9.20514e-01,7.79107e-12,-9.20514e-01,1.34125e-11,-9.20514e-01
8.24881e+02,6.30300e+03,6.57400e+03,-2.71000e+02,1.09038e-11,-9.12969e-01,8.74512e-12,-9.12969e-01,1.70550e-11,-9.12969e-01
8.25130e+02,4.69100e+03,6.43900e+03,-1.74800e+03,1.15946e-11,-9.05424e-01,1.05368e-11,-9.05424e-01,1.94617e-11,-9.05424e-01
8.25379e+02,6.41700e+03,4.74400e+03,1.67300e+03,1.46843e-11,-8.97879e-01,1.31976e-11,-8.97879e-01,2.42560e-11,-8.97879e-01
8.25627e+02,5.12300e+03,5.18600e+03,-6.30000e+01,1.83334e-11,-8.90333e-01,1.56259e-11,-8.90333e-01,2.94378e-11,-8.90333e-01
8.25876e+02,3.53600e+03,5.03200e+03,-1.49600e+03,2.01859e-11,-8.82788e-01,1.76964e-11,-8.82788e-01,3.25339e-11,-8.82788e-01
8.26125e+02,4.26300e+03,3.75500e+03,5.08000e+02,1.91407e-11,-8.75243e-01,1.81884e-11,-8.75243e-01,3.21904e-11,-8.75243e-01
8.26373e+02,4.15100e+03,4.27000e+03,-1.19000e+02,1.63589e-11,-8.67698e-01,1.60044e-11,-8.67698e-01,2.83922e-11,-8.67698e-01
8.26622e+02,2.93800e+03,4.21100e+03,-1.27300e+03,1.33222e-11,-8.60153e-01,1.33452e-11,-8.60153e-01,2.34730e-11,-8.60153e-01
8.26870e+02,3.40500e+03,3.02000e+03,3.85000e+02,9.74741e-12,-8.52607e-01,1.00084e-11,-8.52607e-01,1.77353e-11,-8.52607e-01
8.27119e+02,3.65300e+03,3.33200e+03,3.21000e+02,6.61586e-12,-8.45062e-01,5.88154e-12,-8.45062e-01,1.12070e-11,-8.45062e-01
8.27368e+02,2.73900e+03,3.75200e+03,-1.01300e+03,4.41426e-12,-8.37517e-01,3.74736e-12,-8.37517e-01,6.09496e-12,-8.37517e-01
8.27616e+02,2.93100e+03,2.83800e+03,9.30000e+01,1.26232e-12,-8.29972e-01,3.68270e-12,-8.29972e-01,3.73447e-12,-8.29972e-01
8.27865e+02,3.55800e+03,3.28600e+03,2.72000e+02,1.14424e-12,-8.22427e-01,1.07563e-12,-8.22427e-01,1.83841e-12,-8.22427e-01
8.28113e+02,2.93500e+03,4.32800e+03,-1.39300e+03,1.74131e-12,-8.14881e-01,9.21780e-13,-8.14881e-01,2.13952e-12,-8.14881e-01
8.28362e+02,2.90000e+03,3.38000e+03,-4.80000e+02,1.50856e-12,-8.07336e-01,6.49927e-13,-8.07336e-01,1.70265e-12,-8.07336e-01
8.28610e+02,3.52700e+03,3.14700e+03,3.80000e+02,1.55730e-12,-7.99791e-01,1.16352e-12,-7.99791e-01,2.16537e-12,-7.99791e-01
8.28859e+02,2.68200e+03,3.76600e+03,-1.08400e+03,1.31678e-12,-7.92246e-01,2.07274e-12,-7.92246e-01,1.95217e-12,-7.92246e-01
8.29108e+02,2.66700e+03,2.69400e+03,-2.70000e+01,1.51213e-12,-7.84701e-01,1.99049e-12,-7.84701e-01,6.04639e-13,-7.84701e-01
8.29356e+02,3.37100e+03,2.40400e+03,9.67000e+02,1.87355e-12,-7.77155e-01,2.07490e-12,-7.77155e-01,4.54305e-13,-7.77155e-01
8.29605e+02,2.58100e+03,3.08900e+03,-5.08000e+02,1.90630e-12,-7.69610e-01,2.24708e-12,-7.69610e-01,8.40757e-13,-7.69610e-01
8.29853e+02,2.17600e+03,2.61800e+03,-4.42000e+02,1.68966e-12,-7.62065e-01,1.95293e-12,-7.62065e-01,1.20207e-12,-7.62065e-01
8.30101e+02,2.64200e+03,2.31600e+03,3.26000e+02,1.94047e-12,-7.54520e-01,1.54638e-12,-7.54520e-01,7.03419e-13,-7.54520e-01
8.30350e+02,2.31400e+03,2.81000e+03,-4.96000e+02,1.91234e-12,-7.46975e-01,9.28520e-13,-7.46975e-01,1.05121e-12,-7.46975e-01
8.30598e+02,1.88700e+03,2.38100e+03,-4.94000e+02,1.22435e-12,-7.39429e-01,1.03621e-12,-7.39429e-01,1.04009e-12,-7.39429e-01
8.30847e+02,2.52000e+03,2.05200e+03,4.68000e+02,9.91513e-13,-7.31884e-01,1.33572e-12,-7.31884e-01,6.11226e-13,-7.31884e-01
8.31095e+02,2.35900e+03,2.72500e+03,-3.66000e+02,1.54562e-12,-7.24339e-01,9.66787e-13,-7.24339e-01,5.79931e-13,-7.24339e-01
8.31344e+02,1.83000e+03,2.27900e+03,-4.49000e+02,2.28490e-12,-7.16794e-01,3.40689e-13,-7.16794e-01,2.07681e-12,-7.16794e-01
8.31592e+02,2.22800e+03,1.74100e+03,4.87000e+02,2.43915e-12,-7.09249e-01,1.26464e-12,-7.09249e-01,2.73412e-12,-7.09249e-01
8.31841e+02,2.06500e+03,2.13800e+03,-7.30000e+01,2.19670e-12,-7.01703e-01,1.64947e-12,-7.01703e-01,1.90277e-12,-7.01703e-01
8.32089e+02,1.62400e+03,2.25400e+03,-6.30000e+02,2.14420e-12,-6.94158e-01,8.26853e-13,-6.94158e-01,1.39660e-12,-6.94158e-01
8.32337e+02,2.02800e+03,1.75900e+03,2.69000e+02,1.74967e-12,-6.86613e-01,6.57881e-13,-6.86613e-01,2.04330e-12,-6.86613e-01
8.32586e+02,1.73400e+03,1.89800e+03,-1.64000e+02,8.70841e-13,-6.79068e-01,1.00531e-12,-6.79068e-01,1.70936e-12,-6.79068e-01
8.32834e+02,1.44400e+03,2.07600e+03,-6.32000e+02,1.72870e-13,-6.71523e-01,8.04294e-13,-6.71523e-01,8.81487e-13,-6.71523e-01
8.33083e+02,1.48500e+03,1.41800e+03,6.70000e+01,3.71929e-13,-6.63977e-01,1.47038e-12,-6.63977e-01,1.09845e-12,-6.63977e-01
8.33331e+02,1.63500e+03,1.51200e+03,1.23000e+02,9.55429e-13,-6.56432e-01,2.80638e-12,-6.56432e-01,1.95338e-12,-6.56432e-01
8.33579e+02,1.24500e+03,1.66500e+03,-4.20000e+02,1.12902e-12,-6.48887e-01,2.97457e-12,-6.48887e-01,1.86261e-12,-6.48887e-01
8.33828e+02,1.40600e+03,1.29800e+03,1.08000e+02,5.98067e-13,-6.41342e-01,1.84441e-12,-6.41342e-01,1.26910e-12,-6.41342e-01
8.34076e+02,1.40900e+03,1.20700e+03,2.02000e+02,5.70333e-13,-6.33797e-01,1.14516e-12,-6.33797e-01,8.22332e-13,-6.33797e-01
8.34324e+02,1.16400e+03,1.48000e+03,-3.16000e+02,3.88918e-13,-6.26251e-01,3.42906e-13,-6.26251e-01,5.22818e-13,-6.26251e-01
8.34573e+02,1.11900e+03,1.22100e+03,-1.02000e+02,1.66161e-12,-6.18706e-01,7.37290e-13,-6.18706e-01,9.25825e-13,-6.18706e-01
8.34821e+02,1.43700e+03,1.09300e+03,3.44000e+02,2.25043e-12,-6.11161e-01,1.07193e-12,-6.11161e-01,1.21581e-12,-6.11161e-01
8.35069e+02,1.02600e+03,1.25500e+03,-2.29000e+02,1.99777e-12,-6.03616e-01,1.48126e-12,-6.03616e-01,8.62910e-13,-6.03616e-01
8.35318e+02,9.86000e+02,1.25200e+03,-2.66000e+02,1.38991e-12,-5.96071e-01,2.20034e-12,-5.96071e-01,8.99477e-13,-5.96071e-01
8.35566e+02,1.11400e+03,9.40000e+02,1.74000e+02,8.44162e-13,-5.88525e-01,2.51980e-12,-5.88525e-01,1.70653e-12,-5.88525e-01
8.35814e+02,1.00200e+03,1.18000e+03,-1.78000e+02,5.29477e-13,-5.80980e-01,2.54125e-12,-5.80980e-01,2.51809e-12,-5.80980e-01
8.36062e+02,8.35000e+02,9.79000e+02,-1.44000e+02,1.25178e-12,-5.73435e-01,1.67347e-12,-5.73435e-01,2.46358e-12,-5.73435e-01
8.36311e+02,1.00000e+03,8.61000e+02,1.39000e+02,1.54375e-12,-5.65890e-01,1.00851e-12,-5.65890e-01,1.49844e-12,-5.65890e-01
8.36559e+02,9.95000e+02,1.02500e+03,-3.00000e+01,1.78877e-12,-5.58345e-01,1.06825e-12,-5.58345e-01,1.34496e-12,-5.58345e-01
8.36807e+02,8.62000e+02,1.14100e+03,-2.79000e+02,1.47152e-12,-5.50799e-01,4.38093e-13,-5.50799e-01,1.58756e-12,-5.50799e-01
8.37055e+02,8.82000e+02,8.44000e+02,3.80000e+01,3.85732e-13,-5.43254e-01,8.89918e-13,-5.43254e-01,1.26528e-12,-5.43254e-01
8.37304e+02,9.12000e+02,8.44000e+02,6.80000e+01,1.34056e-12,-5.35709e-01,1.83193e-12,-5.35709e-01,2.24958e-12,-5.35709e-01
8.37552e+02,7.48000e+02,8.38000e+02,-9.00000e+01,2.12893e-12,-5.28164e-01,2.87762e-12,-5.28164e-01,3.82605e-12,-5.28164e-01
8.37800e+02,7.99000e+02,7.95000e+02,4.00000e+00,1.25556e-12,-5.20619e-01,3.61839e-12,-5.20619e-01,4.18399e-12,-5.20619e-01
8.38048e+02,7.47000e+02,7.13000e+02,3.40000e+01,6.80257e-13,-5.13073e-01,3.24713e-12,-5.13073e-01,2.56740e-12,-5.13073e-01
8.38296e+02,7.27000e+02,8.16000e+02,-8.90000e+01,2.08190e-12,-5.05528e-01,2.29870e-12,-5.05528e-01,3.44421e-13,-5.05528e-01
8.38545e+02,7.08000e+02,7.26000e+02,-1.80000e+01,2.53315e-12,-4.97983e-01,2.54125e-12,-4.97983e-01,6.88558e-13,-4.97983e-01
8.38793e+02,7.70000e+02,7.08000e+02,6.20000e+01,7.56787e-13,-4.90438e-01,2.11975e-12,-4.90438e-01,1.45285e-12,-4.90438e-01
8.39041e+02,6.93000e+02,7.14000e+02,-2.10000e+01,2.08169e-12,-4.82893e-01,5.09206e-13,-4.82893e-01,2.32566e-12,-4.82893e-01
8.39289e+02,6.86000e+02,7.09000e+02,-2.30000e+01,3.82322e-12,-4.75347e-01,2.06523e-12,-4.75347e-01,1.79916e-12,-4.75347e-01
8.39537e+02,7.05000e+02,6.68000e+02,3.70000e+01,3.99584e-12,-4.67802e-01,2.56057e-12,-4.67802e-01,1.46606e-12,-4.67802e-01
8.39785e+02,7.03000e+02,6.91000e+02,1.20000e+01,3.76621e-12,-4.60257e-01,2.36543e-12,-4.60257e-01,1.68441e-12,-4.60257e-01
8.40033e+02,6.69000e+02,6.85000e+02,-1.60000e+01,3.26150e-12,-4.52712e-01,3.09628e-12,-4.52712e-01,1.52427e-12,-4.52712e-01
8.40281e+02,7.12000e+02,6.89000e+02,2.30000e+01,1.97431e-12,-4.45167e-01,2.94298e-12,-4.45167e-01,1.38762e-12,-4.45167e-01
8.40530e+02,6.62000e+02,6.52000e+02,1.00000e+01,3.38564e-13,-4.37621e-01,1.05497e-12,-4.37621e-01,7.19621e-13,-4.37621e-01
8.40778e+02,6.68000e+02,6.96000e+02,-2.80000e+01,5.50871e-13,-4.30076e-01,7.52006e-13,-4.30076e-01,5.62386e-13,-4.30076e-01
8.41026e+02,6.59000e+02,6.55000e+02,4.00000e+00,1.82091e-12,-4.22531e-01,9.04869e-13,-4.22531e-01,1.64694e-12,-4.22531e-01
8.41274e+02,6.67000e+02,6.56000e+02,1.10000e+01,3.17359e-12,-4.14986e-01,7.63615e-13,-4.14986e-01,2.71184e-12,-4.14986e-01
8.41522e+02,6.45000e+02,6.64000e+02,-1.90000e+01,3.33035e-12,-4.07441e-01,8.50285e-13,-4.07441e-01,3.15387e-12,-4.07441e-01
8.41770e+02,6.46000e+02,6.46000e+02,0.00000e+00,3.09624e-12,-3.99895e-01,1.42444e-12,-3.99895e-01,3.03581e-12,-3.99895e-01
8.42018e+02,6.52000e+02,6.37000e+02,1.50000e+01,2.40650e-12,-3.92350e-01,2.11329e-12,-3.92350e-01,2.49349e-12,-3.92350e-01
8.42266e+02,6.46000e+02,6.61000e+02,-1.50000e+01,2.31264e-12,-3.84805e-01,2.19431e-12,-3.84805e-01,1.98208e-12,-3.84805e-01
8.42514e+02,6.45000e+02,6.49000e+02,-4.00000e+00,1.54907e-12,-3.77260e-01,4.79966e-13,-3.77260e-01,1.07657e-12,-3.77260e-01
8.42762e+02,6.71000e+02,6.74000e+02,-3.00000e+00,3.03778e-12,-3.69715e-01,2.60861e-12,-3.69715e-01,5.24008e-13,-3.69715e-01
8.43010e+02,6.35000e+02,6.28000e+02,7.00000e+00,3.65092e-12,-3.62169e-01,2.67153e-12,-3.62169e-01,1.18516e-12,-3.62169e-01
8.43258e+02,6.40000e+02,6.31000e+02,9.00000e+00,1.62242e-12,-3.54624e-01,1.04959e-12,-3.54624e-01,6.58943e-13,-3.54624e-01
8.43506e+02,6.45000e+02,6.41000e+02,4.00000e+00,1.61795e-12,-3.47079e-01,4.54387e-13,-3.47079e-01,1.16809e-12,-3.47079e-01
8.43754e+02,6.33000e+02,6.39000e+02,-6.00000e+00,2.51350e-12,-3.39534e-01,1.18349e-12,-3.39534e-01,2.36223e-12,-3.39534e-01
8.44002e+02,6.30000e+02,6.47000e+02,-1.70000e+01,3.17109e-12,-3.31989e-01,1.60363e-12,-3.31989e-01,3.96359e-12,-3.31989e-01
8.44250e+02,6.40000e+02,6.47000e+02,-7.00000e+00,3.70074e-12,-3.24444e-01,2.26666e-12,-3.24444e-01,2.84526e-12,-3.24444e-01
8.44498e+02,6.46000e+02,6.35000e+02,1.10000e+01,4.11610e-12,-3.16898e-01,3.21609e-12,-3.16898e-01,9.84170e-13,-3.16898e-01
8.44746e+02,6.37000e+02,6.36000e+02,1.00000e+00,4.03672e-12,-3.09353e-01,2.58747e-12,-3.09353e-01,3.41097e-12,-3.09353e-01
8.44994e+02,6.37000e+02,6.24000e+02,1.30000e+01,1.34254e-12,-3.01808e-01,2.08725e-12,-3.01808e-01,2.89933e-12,-3.01808e-01
8.45242e+02,6.62000e+02,6.70000e+02,-8.00000e+00,2.94197e-12,-2.94263e-01,2.95782e-12,-2.94263e-01,2.43434e-13,-2.94263e-01
8.45490e+02,6.21000e+02,6.21000e+02,0.00000e+00,5.24152e-12,-2.86718e-01,3.90091e-12,-2.86718e-01,1.38045e-12,-2.86718e-01
8.45738e+02,6.39000e+02,6.42000e+02,-3.00000e+00,4.59813e-12,-2.79172e-01,3.73549e-12,-2.79172e-01,1.04514e-12,-2.79172e-01
8.45985e+02,6.36000e+02,6.32000e+02,4.00000e+00,2.71999e-12,-2.71627e-01,1.20729e-12,-2.71627e-01,1.71789e-12,-2.71627e-01
8.46233e+02,6.32000e+02,6.24000e+02,8.00000e+00,1.20983e-12,-2.64082e-01,1.72431e-12,-2.64082e-01,2.77480e-12,-2.64082e-01
8.46481e+02,6.29000e+02,6.28000e+02,1.00000e+00,1.22182e-12,-2.56537e-01,1.93434e-12,-2.56537e-01,2.60380e-12,-2.56537e-01
8.46729e+02,6.33000e+02,6.36000e+02,-3.00000e+00,6.39629e-13,-2.48992e-01,1.33423e-12,-2.48992e-01,1.97322e-12,-2.48992e-01
8.46977e+02,6.27000e+02,6.36000e+02,-9.00000e+00,8.44144e-13,-2.41446e-01,9.22418e-13,-2.41446e-01,1.76377e-12,-2.41446e-01
8.47225e+02,6.29000e+02,6.32000e+02,-3.00000e+00,1.85258e-12,-2.33901e-01,1.68250e-12,-2.33901e-01,2.77763e-12,-2.33901e-01
8.47473e+02,6.25000e+02,6.42000e+02,-1.70000e+01,1.28844e-12,-2.26356e-01,1.37951e-12,-2.26356e-01,2.66577e-12,-2.26356e-01
8.47720e+02,6.61000e+02,6.52000e+02,9.00000e+00,2.58854e-12,-2.18811e-01,3.43263e-12,-2.18811e-01,1.49858e-12,-2.18811e-01
8.47968e+02,6.16000e+02,6.07000e+02,9.00000e+00,2.87683e-12,-2.11266e-01,3.51711e-12,-2.11266e-01,7.72210e-13,-2.11266e-01
8.48216e+02,6.41000e+02,6.28000e+02,1.30000e+01,4.26714e-13,-2.03720e-01,1.54110e-12,-2.03720e-01,1.76936e-12,-2.03720e-01
8.48464e+02,6.30000e+02,6.20000e+02,1.00000e+01,9.70867e-13,-1.96175e-01,3.38068e-12,-1.96175e-01,3.10705e-12,-1.96175e-01
8.48712e+02,6.28000e+02,6.34000e+02,-6.00000e+00,1.46034e-12,-1.88630e-01,2.73358e-12,-1.88630e-01,3.32583e-12,-1.88630e-01
8.48960e+02,6.15000e+02,6.34000e+02,-1.90000e+01,1.68511e-12,-1.81085e-01,1.48903e-12,-1.81085e-01,2.68685e-12,-1.81085e-01
8.49207e+02,6.28000e+02,6.18000e+02,1.00000e+01,2.78056e-12,-1.73540e-01,1.82125e-12,-1.73540e-01,2.27127e-12,-1.73540e-01
8.49455e+02,6.26000e+02,6.36000e+02,-1.00000e+01,2.95141e-12,-1.65994e-01,2.68215e-12,-1.65994e-01,1.30292e-12,-1.65994e-01
8.49703e+02,6.38000e+02,6.30000e+02,8.00000e+00,1.91126e-12,-1.58449e-01,6.52620e-13,-1.58449e-01,1.43057e-12,-1.58449e-01
8.49951e+02,6.21000e+02,6.15000e+02,6.00000e+00,6.40216e-12,-1.50904e-01,4.14753e-12,-1.50904e-01,3.10333e-12,-1.50904e-01
8.50198e+02,6.58000e+02,6.56000e+02,2.00000e+00,7.00070e-12,-1.43359e-01,4.04334e-12,-1.43359e-01,3.31943e-12,-1.43359e-01
8.50446e+02,6.12000e+02,6.20000e+02,-8.00000e+00,6.58625e-12,-1.35814e-01,3.29330e-12,-1.35814e-01,3.33575e-12,-1.35814e-01
8.50694e+02,6.33000e+02,6.28000e+02,5.00000e+00,3.75188e-12,-1.28268e-01,1.34924e-12,-1.28268e-01,2.96755e-12,-1.28268e-01
8.50941e+02,6.28000e+02,6.09000e+02,1.90000e+01,1.01198e-12,-1.20723e-01,2.19889e-12,-1.20723e-01,2.55144e-12,-1.20723e-01
8.51189e+02,6.24000e+02,6.47000e+02,-2.30000e+01,1.92163e-12,-1.13178e-01,2.21463e-12,-1.13178e-01,1.42948e-12,-1.13178e-01
8.51437e+02,6.30000e+02,6.30000e+02,0.00000e+00,4.75650e-12,-1.05633e-01,4.50977e-12,-1.05633e-01,6.69545e-13,-1.05633e-01
8.51685e+02,6.23000e+02,6.31000e+02,-8.00000e+00,5.52595e-12,-9.80876e-02,4.84624e-12,-9.80876e-02,7.98619e-13,-9.80876e-02
8.51932e+02,6.18000e+02,6.25000e+02,-7.00000e+00,2.21653e-12,-9.05424e-02,1.13288e-12,-9.05424e-02,1.14014e-12,-9.05424e-02
8.52180e+02,6.32000e+02,6.44000e+02,-1.20000e+01,3.27319e-12,-8.29972e-02,3.36320e-12,-8.29972e-02,8.96366e-13,-8.29972e-02
8.52428e+02,6.29000e+02,6.22000e+02,7.00000e+00,4.24728e-12,-7.54520e-02,4.06280e-12,-7.54520e-02,2.28259e-13,-7.54520e-02
8.52675e+02,6.63000e+02,6.48000e+02,1.50000e+01,3.95661e-12,-6.79068e-02,5.43187e-12,-6.79068e-02,1.47526e-12,-6.79068e-02
8.52923e+02,6.09000e+02,6.19000e+02,-1.00000e+01,6.02298e-12,-6.03616e-02,7.76406e-12,-6.03616e-02,2.86110e-12,-6.03616e-02
8.53170e+02,6.26000e+02,6.39000e+02,-1.30000e+01,7.22264e-12,-5.28164e-02,9.05465e-12,-5.28164e-02,2.75152e-12,-5.28164e-02
8.53418e+02,6.36000e+02,6.28000e+02,8.00000e+00,5.17485e-12,-4.52712e-02,7.74169e-12,-4.52712e-02,2.56787e-12,-4.52712e-02
8.53666e+02,6.32000e+02,6.27000e+02,5.00000e+00,3.58802e-12,-3.77260e-02,5.78564e-12,-3.77260e-02,2.73837e-12,-3.77260e-02
8.53913e+02,6.17000e+02,6.24000e+02,-7.00000e+00,6.64908e-12,-3.01808e-02,7.60861e-12,-3.01808e-02,1.39988e-12,-3.01808e-02
8.54161e+02,6.24000e+02,6.15000e+02,9.00000e+00,2.49509e-11,-2.26356e-02,2.54284e-11,-2.26356e-02,1.94926e-12,-2.26356e-02
8.54409e+02,6.28000e+02,6.21000e+02,7.00000e+00,9.15752e-11,-1.50904e-02,8.87168e-11,-1.50904e-02,6.34775e-12,-1.50904e-02
8.54656e+02,6.27000e+02,6.28000e+02,-1.00000e+00,2.46264e-10,-7.54520e-03,2.42415e-10,-7.54520e-03,6.58774e-12,-7.54520e-03
