7.67698e+02,6.40000e+02,6.17000e+02,2.30000e+01,3.92342e-10,0.00000e+00,3.90034e-10,0.00000e+00,2.30846e-12,0.00000e+00
7.67949e+02,6.79000e+02,6.45000e+02,3.40000e+01,2.33478e-10,7.54520e-03,2.31912e-10,7.54520e-03,1.58500e-12,7.54520e-03
7.68199e+02,6.26000e+02,6.06000e+02,2.00000e+01,8.15248e-11,1.50904e-02,8.13971e-11,1.50904e-02,9.07589e-13,1.50904e-02
7.68450e+02,6.45000e+02,6.33000e+02,1.20000e+01,1.75732e-11,2.26356e-02,1.52766e-11,2.26356e-02,3.06197e-12,2.26356e-02
7.68701e+02,6.33000e+02,6.37000e+02,-4.00000e+00,2.85220e-12,3.01808e-02,8.78454e-13,3.01808e-02,3.72026e-12,3.01808e-02
7.68951e+02,6.21000e+02,6.57000e+02,-3.60000e+01,2.82809e-12,3.77260e-02,9.39914e-13,3.77260e-02,2.95616e-12,3.77260e-02
7.69202e+02,6.22000e+02,6.38000e+02,-1.60000e+01,6.48972e-12,4.52712e-02,5.07126e-12,4.52712e-02,1.43498e-12,4.52712e-02
7.69453e+02,6.28000e+02,6.40000e+02,-1.20000e+01,9.23907e-12,5.28164e-02,9.26317e-12,5.28164e-02,2.74058e-12,5.28164e-02
7.69703e+02,6.10000e+02,6.47000e+02,-3.70000e+01,7.10463e-12,6.03616e-02,9.31799e-12,6.03616e-02,4.42443e-12,6.03616e-02
7.69954e+02,6.41000e+02,6.24000e+02,1.70000e+01,4.52143e-12,6.79068e-02,5.41086e-12,6.79068e-02,4.09486e-12,6.79068e-02
7.70205e+02,6.48000e+02,6.16000e+02,3.20000e+01,2.25177e-12,7.54520e-02,6.39127e-13,7.54520e-02,2.62849e-12,7.54520e-02
7.70455e+02,6.81000e+02,6.54000e+02,2.70000e+01,3.03394e-12,8.29972e-02,2.45448e-12,8.29972e-02,5.48835e-12,8.29972e-02
7.70706e+02,6.54000e+02,6.23000e+02,3.10000e+01,4.17834e-12,9.05424e-02,1.13642e-12,9.05424e-02,4.35372e-12,9.05424e-02
7.70957e+02,6.44000e+02,6.58000e+02,-1.40000e+01,3.20388e-12,9.80876e-02,3.24338e-12,9.80876e-02,4.68054e-13,9.80876e-02
7.71207e+02,6.50000e+02,6.71000e+02,-2.10000e+01,1.79592e-12,1.05633e-01,4.05677e-12,1.05633e-01,2.39396e-12,1.05633e-01
7.71458e+02,6.29000e+02,6.84000e+02,-5.50000e+01,2.52517e-12,1.13178e-01,1.88932e-12,1.13178e-01,1.22698e-12,1.13178e-01
7.71708e+02,6.20000e+02,6.90000e+02,-7.00000e+01,3.76740e-12,1.20723e-01,1.25870e-12,1.20723e-01,2.51468e-12,1.20723e-01
7.71959e+02,6.15000e+02,6.80000e+02,-6.50000e+01,3.06855e-12,1.28268e-01,1.72197e-12,1.28268e-01,2.40243e-12,1.28268e-01
7.72210e+02,6.31000e+02,6.58000e+02,-2.70000e+01,8.54576e-13,1.35814e-01,1.88735e-12,1.35814e-01,1.05120e-12,1.35814e-01
7.72460e+02,6.72000e+02,6.50000e+02,2.20000e+01,5.23235e-12,1.43359e-01,3.64760e-12,1.43359e-01,1.58556e-12,1.43359e-01
7.72711e+02,6.93000e+02,6.20000e+02,7.30000e+01,7.45477e-12,1.50904e-01,5.85036e-12,1.50904e-01,1.76126e-12,1.50904e-01
7.72961e+02,7.56000e+02,6.46000e+02,1.10000e+02,3.35144e-12,1.58449e-01,4.63361e-12,1.58449e-01,1.42934e-12,1.58449e-01
7.73212e+02,6.85000e+02,6.25000e+02,6.00000e+01,3.27986e-12,1.65994e-01,3.01217e-12,1.65994e-01,2.63523e-12,1.65994e-01
7.73462e+02,7.02000e+02,6.63000e+02,3.90000e+01,3.83720e-12,1.73540e-01,3.77108e-12,1.73540e-01,7.16724e-13,1.73540e-01
7.73713e+02,6.61000e+02,6.78000e+02,-1.70000e+01,1.79161e-12,1.81085e-01,2.32724e-12,1.81085e-01,1.70675e-12,1.81085e-01
7.73963e+02,6.47000e+02,7.25000e+02,-7.80000e+01,2.15531e-12,1.88630e-01,1.84659e-12,1.88630e-01,3.24024e-12,1.88630e-01
7.74214e+02,6.30000e+02,7.58000e+02,-1.28000e+02,6.03588e-13,1.96175e-01,2.77267e-12,1.96175e-01,3.02572e-12,1.96175e-01
7.74465e+02,6.36000e+02,7.62000e+02,-1.26000e+02,2.68535e-12,2.03720e-01,3.41715e-12,2.03720e-01,5.51799e-12,2.03720e-01
7.74715e+02,6.22000e+02,6.95000e+02,-7.30000e+01,6.57013e-12,2.11266e-01,6.67953e-12,2.11266e-01,1.32469e-11,2.11266e-01
7.74965e+02,6.72000e+02,6.82000e+02,-1.00000e+01,2.70522e-11,2.18811e-01,2.80246e-11,2.18811e-01,5.43797e-11,2.18811e-01
7.75216e+02,6.97000e+02,6.48000e+02,4.90000e+01,6.34431e-11,2.26356e-01,6.31352e-11,2.26356e-01,1.24549e-10,2.26356e-01
7.75466e+02,8.16000e+02,6.60000e+02,1.56000e+02,1.05321e-10,2.33901e-01,1.03125e-10,2.33901e-01,2.04475e-10,2.33901e-01
7.75717e+02,7.75000e+02,6.13000e+02,1.62000e+02,9.75787e-11,2.41446e-01,9.44012e-11,2.41446e-01,1.87639e-10,2.41446e-01
7.75967e+02,8.27000e+02,6.46000e+02,1.81000e+02,4.41570e-11,2.48992e-01,4.35340e-11,2.48992e-01,8.52859e-11,2.48992e-01
7.76218e+02,7.65000e+02,6.82000e+02,8.30000e+01,7.49133e-12,2.56537e-01,7.95547e-12,2.56537e-01,1.51159e-11,2.56537e-01
7.76468e+02,7.40000e+02,7.94000e+02,-5.40000e+01,5.45668e-12,2.64082e-01,6.63558e-12,2.64082e-01,1.18109e-11,2.64082e-01
7.76719e+02,6.72000e+02,8.50000e+02,-1.78000e+02,3.01321e-12,2.71627e-01,6.41072e-12,2.71627e-01,9.34592e-12,2.71627e-01
7.76969e+02,6.56000e+02,8.98000e+02,-2.42000e+02,3.49190e-12,2.79172e-01,3.47584e-12,2.79172e-01,6.76973e-12,2.79172e-01
7.77219e+02,6.41000e+02,8.74000e+02,-2.33000e+02,5.46511e-12,2.86718e-01,4.12923e-12,2.86718e-01,9.59430e-12,2.86718e-01
7.77470e+02,6.66000e+02,8.86000e+02,-2.20000e+02,4.15184e-12,2.94263e-01,3.70528e-12,2.94263e-01,7.84489e-12,2.94263e-01
7.77720e+02,7.34000e+02,7.52000e+02,-1.80000e+01,2.69073e-12,3.01808e-01,1.82277e-12,3.01808e-01,3.56737e-12,3.01808e-01
7.77971e+02,9.52000e+02,6.93000e+02,2.59000e+02,2.60141e-12,3.09353e-01,4.12367e-12,3.09353e-01,1.54526e-12,3.09353e-01
7.78221e+02,1.03600e+03,6.32000e+02,4.04000e+02,1.63020e-12,3.16898e-01,5.08946e-12,3.16898e-01,3.87165e-12,3.16898e-01
7.78471e+02,1.12200e+03,6.60000e+02,4.62000e+02,1.03864e-12,3.24444e-01,3.90029e-12,3.24444e-01,2.88554e-12,3.24444e-01
7.78722e+02,1.04900e+03,7.12000e+02,3.37000e+02,6.55690e-13,3.31989e-01,2.89249e-12,3.31989e-01,2.36643e-12,3.31989e-01
7.78972e+02,1.04700e+03,9.16000e+02,1.31000e+02,6.73783e-13,3.39534e-01,3.01030e-12,3.39534e-01,2.34308e-12,3.39534e-01
7.79222e+02,8.86000e+02,1.15300e+03,-2.67000e+02,1.84822e-12,3.47079e-01,1.65180e-12,3.47079e-01,1.66142e-12,3.47079e-01
7.79473e+02,7.70000e+02,1.38000e+03,-6.10000e+02,3.51469e-12,3.54624e-01,1.09601e-12,3.54624e-01,2.50326e-12,3.54624e-01
7.79723e+02,6.66000e+02,1.38700e+03,-7.21000e+02,4.95639e-12,3.62169e-01,1.72526e-12,3.62169e-01,3.33145e-12,3.62169e-01
7.79973e+02,6.92000e+02,1.33700e+03,-6.45000e+02,4.51548e-12,3.69715e-01,2.69746e-12,3.69715e-01,5.08293e-12,3.69715e-01
7.80224e+02,7.70000e+02,1.05100e+03,-2.81000e+02,2.28228e-12,3.77260e-01,2.97462e-12,3.77260e-01,4.95950e-12,3.77260e-01
7.80474e+02,1.04500e+03,9.52000e+02,9.30000e+01,3.53785e-12,3.84805e-01,1.79040e-12,3.84805e-01,4.91127e-12,3.84805e-01
7.80724e+02,1.17900e+03,7.08000e+02,4.71000e+02,4.01407e-12,3.92350e-01,7.89932e-13,3.92350e-01,4.79690e-12,3.92350e-01
7.80974e+02,1.51000e+03,6.95000e+02,8.15000e+02,8.66855e-13,3.99895e-01,8.63778e-13,3.99895e-01,1.46945e-12,3.99895e-01
7.81225e+02,1.68700e+03,7.34000e+02,9.53000e+02,3.53825e-12,4.07441e-01,2.72823e-12,4.07441e-01,6.05610e-12,4.07441e-01
7.81475e+02,1.77400e+03,1.00300e+03,7.71000e+02,2.83395e-12,4.14986e-01,3.64196e-12,4.14986e-01,5.53189e-12,4.14986e-01
7.81725e+02,1.37100e+03,1.32100e+03,5.00000e+01,6.66894e-13,4.22531e-01,3.18816e-12,4.22531e-01,3.14142e-12,4.22531e-01
7.81975e+02,1.10500e+03,1.75200e+03,-6.47000e+02,5.38130e-13,4.30076e-01,1.89972e-12,4.30076e-01,2.39572e-12,4.30076e-01
7.82226e+02,7.93000e+02,1.95600e+03,-1.16300e+03,2.92395e-12,4.37621e-01,7.60185e-13,4.37621e-01,3.05998e-12,4.37621e-01
7.82476e+02,7.16000e+02,1.87000e+03,-1.15400e+03,5.03034e-12,4.45167e-01,2.81475e-12,4.45167e-01,3.91616e-12,4.45167e-01
7.82726e+02,7.64000e+02,1.61000e+03,-8.46000e+02,4.59172e-12,4.52712e-01,3.92672e-12,4.52712e-01,2.52777e-12,4.52712e-01
7.82976e+02,1.11700e+03,1.32000e+03,-2.03000e+02,3.69129e-12,4.60257e-01,4.49098e-12,4.60257e-01,1.29062e-12,4.60257e-01
7.83226e+02,1.38000e+03,9.20000e+02,4.60000e+02,4.78643e-12,4.67802e-01,5.50529e-12,4.67802e-01,2.25263e-12,4.67802e-01
7.83477e+02,1.88400e+03,7.95000e+02,1.08900e+03,7.01859e-12,4.75347e-01,4.94617e-12,4.75347e-01,2.23718e-12,4.75347e-01
7.83727e+02,2.06400e+03,7.93000e+02,1.27100e+03,6.87989e-12,4.82893e-01,3.27690e-12,4.82893e-01,3.88752e-12,4.82893e-01
7.83977e+02,2.21500e+03,1.05900e+03,1.15600e+03,4.45932e-12,4.90438e-01,2.71184e-12,4.90438e-01,3.42668e-12,4.90438e-01
7.84227e+02,2.12300e+03,1.47700e+03,6.46000e+02,2.37034e-12,4.97983e-01,1.81594e-12,4.97983e-01,2.24887e-12,4.97983e-01
7.84477e+02,1.87000e+03,2.15600e+03,-2.86000e+02,2.01833e-12,5.05528e-01,2.31252e-12,5.05528e-01,2.12704e-12,5.05528e-01
7.84727e+02,1.30000e+03,2.40400e+03,-1.10400e+03,1.49984e-12,5.13073e-01,1.81992e-12,5.13073e-01,1.81013e-12,5.13073e-01
7.84978e+02,9.80000e+02,2.84600e+03,-1.86600e+03,1.03393e-12,5.20619e-01,3.95299e-13,5.20619e-01,1.05846e-12,5.20619e-01
7.85228e+02,8.18000e+02,2.92900e+03,-2.11100e+03,7.62044e-13,5.28164e-01,8.91592e-13,5.28164e-01,8.40918e-13,5.28164e-01
7.85478e+02,1.15400e+03,2.64600e+03,-1.49200e+03,6.76635e-13,5.35709e-01,1.29919e-12,5.35709e-01,8.57945e-13,5.35709e-01
7.85728e+02,1.66300e+03,2.03600e+03,-3.73000e+02,1.77317e-13,5.43254e-01,4.71740e-13,5.43254e-01,5.62766e-13,5.43254e-01
7.85978e+02,2.45700e+03,1.41300e+03,1.04400e+03,7.84500e-13,5.50799e-01,7.52065e-13,5.50799e-01,2.01116e-13,5.50799e-01
7.86228e+02,2.95400e+03,9.27000e+02,2.02700e+03,9.87825e-13,5.58345e-01,1.02936e-12,5.58345e-01,2.21433e-13,5.58345e-01
7.86478e+02,3.32200e+03,9.52000e+02,2.37000e+03,1.11976e-12,5.65890e-01,7.96747e-13,5.65890e-01,5.27239e-13,5.65890e-01
7.86728e+02,3.31200e+03,1.32100e+03,1.99100e+03,9.27278e-13,5.73435e-01,1.39580e-12,5.73435e-01,8.89502e-13,5.73435e-01
7.86978e+02,2.93100e+03,1.96100e+03,9.70000e+02,1.05450e-12,5.80980e-01,2.16597e-12,5.80980e-01,1.19393e-12,5.80980e-01
7.87228e+02,2.26400e+03,2.64100e+03,-3.77000e+02,1.75639e-12,5.88525e-01,2.40736e-12,5.88525e-01,9.73237e-13,5.88525e-01
7.87478e+02,1.56700e+03,3.15700e+03,-1.59000e+03,1.67283e-12,5.96071e-01,2.62478e-12,5.96071e-01,9.56258e-13,5.96071e-01
7.87728e+02,1.03900e+03,3.39000e+03,-2.35100e+03,1.26720e-12,6.03616e-01,2.50364e-12,6.03616e-01,2.18133e-12,6.03616e-01
7.87978e+02,1.08200e+03,3.50500e+03,-2.42300e+03,1.55007e-12,6.11161e-01,1.46545e-12,6.11161e-01,1.67983e-12,6.11161e-01
7.88228e+02,1.41400e+03,2.97500e+03,-1.56100e+03,8.95974e-13,6.18706e-01,7.83595e-13,6.18706e-01,4.41963e-13,6.18706e-01
7.88478e+02,2.28900e+03,2.38800e+03,-9.90000e+01,1.00187e-12,6.26251e-01,2.42011e-12,6.26251e-01,1.59580e-12,6.26251e-01
7.88728e+02,3.09200e+03,1.65800e+03,1.43400e+03,1.69702e-12,6.33797e-01,3.46769e-12,6.33797e-01,1.78224e-12,6.33797e-01
7.88978e+02,3.86800e+03,1.19700e+03,2.67100e+03,2.37228e-12,6.41342e-01,3.11821e-12,6.41342e-01,1.10802e-12,6.41342e-01
7.89228e+02,4.60400e+03,1.08100e+03,3.52300e+03,2.35351e-12,6.48887e-01,2.52298e-12,6.48887e-01,1.81165e-13,6.48887e-01
7.89478e+02,4.89900e+03,1.65100e+03,3.24800e+03,1.18396e-12,6.56432e-01,1.82487e-12,6.56432e-01,9.55708e-13,6.56432e-01
7.89728e+02,4.45600e+03,2.58100e+03,1.87500e+03,1.13843e-12,6.63977e-01,1.24114e-12,6.63977e-01,9.83586e-13,6.63977e-01
7.89978e+02,3.61300e+03,3.72100e+03,-1.08000e+02,2.06234e-12,6.71523e-01,4.97263e-13,6.71523e-01,1.68922e-12,6.71523e-01
7.90228e+02,2.43700e+03,4.62100e+03,-2.18400e+03,2.57525e-12,6.79068e-01,6.00053e-13,6.79068e-01,3.04145e-12,6.79068e-01
7.90478e+02,1.62400e+03,5.21900e+03,-3.59500e+03,2.11287e-12,6.86613e-01,1.24171e-12,6.86613e-01,3.24400e-12,6.86613e-01
7.90728e+02,1.26200e+03,5.16500e+03,-3.90300e+03,1.28940e-12,6.94158e-01,1.08909e-12,6.94158e-01,2.33036e-12,6.94158e-01
7.90978e+02,1.77100e+03,4.80500e+03,-3.03400e+03,1.92815e-12,7.01703e-01,7.72256e-13,7.01703e-01,2.44614e-12,7.01703e-01
7.91228e+02,2.82100e+03,3.55200e+03,-7.31000e+02,2.38806e-12,7.09249e-01,1.11312e-12,7.09249e-01,3.49146e-12,7.09249e-01
7.91478e+02,3.87700e+03,2.28700e+03,1.59000e+03,2.96668e-12,7.16794e-01,1.74222e-12,7.16794e-01,4.22652e-12,7.16794e-01
7.91728e+02,4.59100e+03,1.40400e+03,3.18700e+03,2.79483e-12,7.24339e-01,1.70750e-12,7.24339e-01,3.36657e-12,7.24339e-01
7.91977e+02,5.08400e+03,1.35500e+03,3.72900e+03,1.46624e-12,7.31884e-01,1.22584e-12,7.31884e-01,1.31188e-12,7.31884e-01
7.92227e+02,4.79100e+03,1.87100e+03,2.92000e+03,5.31891e-13,7.39429e-01,7.75478e-13,7.39429e-01,5.90296e-13,7.39429e-01
7.92477e+02,5.14700e+03,3.32600e+03,1.82100e+03,1.14311e-12,7.46975e-01,3.69687e-13,7.46975e-01,1.31336e-12,7.46975e-01
7.92727e+02,4.52400e+03,4.79000e+03,-2.66000e+02,1.81127e-12,7.54520e-01,3.98723e-13,7.54520e-01,2.09578e-12,7.54520e-01
7.92977e+02,3.22000e+03,5.83500e+03,-2.61500e+03,1.69496e-12,7.62065e-01,7.47932e-13,7.62065e-01,1.62493e-12,7.62065e-01
7.93227e+02,1.82900e+03,5.96400e+03,-4.13500e+03,1.39727e-12,7.69610e-01,1.52322e-12,7.69610e-01,5.17677e-13,7.69610e-01
7.93476e+02,1.54600e+03,5.50900e+03,-3.96300e+03,1.21385e-12,7.77155e-01,1.46592e-12,7.77155e-01,5.55034e-13,7.77155e-01
7.93726e+02,1.99700e+03,4.85400e+03,-2.85700e+03,1.60605e-12,7.84701e-01,1.13295e-12,7.84701e-01,4.77165e-13,7.84701e-01
7.93976e+02,3.31500e+03,4.10800e+03,-7.93000e+02,1.54854e-12,7.92246e-01,1.33802e-12,7.92246e-01,1.01294e-12,7.92246e-01
7.94226e+02,5.01300e+03,2.66500e+03,2.34800e+03,7.87407e-13,7.99791e-01,1.24848e-12,7.99791e-01,1.54934e-12,7.99791e-01
7.94476e+02,7.02200e+03,1.75900e+03,5.26300e+03,3.74518e-13,8.07336e-01,1.09062e-12,8.07336e-01,1.39042e-12,8.07336e-01
7.94725e+02,7.14500e+03,1.58900e+03,5.55600e+03,1.11734e-12,8.14881e-01,4.68887e-13,8.14881e-01,1.16508e-12,8.14881e-01
7.94975e+02,7.04400e+03,2.46100e+03,4.58300e+03,1.69842e-12,8.22427e-01,9.60641e-13,8.22427e-01,1.44176e-12,8.22427e-01
7.95225e+02,5.97000e+03,3.74800e+03,2.22200e+03,1.90456e-12,8.29972e-01,1.92477e-12,8.29972e-01,1.66162e-12,8.29972e-01
7.95475e+02,4.71800e+03,5.23700e+03,-5.19000e+02,1.36456e-12,8.37517e-01,1.63318e-12,8.37517e-01,8.77077e-13,8.37517e-01
7.95724e+02,3.11200e+03,6.55200e+03,-3.44000e+03,6.17412e-13,8.45062e-01,1.07179e-12,8.45062e-01,4.74635e-13,8.45062e-01
7.95974e+02,2.12200e+03,7.36600e+03,-5.24400e+03,3.99848e-13,8.52607e-01,9.37633e-13,8.52607e-01,9.72030e-13,8.52607e-01
7.96224e+02,1.88700e+03,7.24400e+03,-5.35700e+03,6.50357e-13,8.60153e-01,6.54226e-13,8.60153e-01,1.26636e-12,8.60153e-01
7.96474e+02,2.72500e+03,6.58700e+03,-3.86200e+03,9.53048e-13,8.67698e-01,3.88331e-13,8.67698e-01,1.24241e-12,8.67698e-01
7.96723e+02,4.12600e+03,4.70700e+03,-5.81000e+02,6.29421e-13,8.75243e-01,4.59736e-13,8.75243e-01,9.39560e-13,8.75243e-01
7.96973e+02,6.19600e+03,3.03000e+03,3.16600e+03,1.33602e-13,8.82788e-01,1.97726e-13,8.82788e-01,3.21555e-13,8.82788e-01
7.97223e+02,8.72200e+03,2.05800e+03,6.66400e+03,4.46876e-13,8.90333e-01,3.94521e-13,8.90333e-01,3.59109e-13,8.90333e-01
7.97472e+02,9.18600e+03,2.13900e+03,7.04700e+03,8.18502e-13,8.97879e-01,4.50421e-13,8.97879e-01,6.00895e-13,8.97879e-01
7.97722e+02,9.78100e+03,3.38900e+03,6.39200e+03,1.63608e-12,9.05424e-01,1.50652e-13,9.05424e-01,1.66724e-12,9.05424e-01
7.97972e+02,8.68200e+03,5.58600e+03,3.09600e+03,1.92842e-12,9.12969e-01,4.79685e-13,9.12969e-01,1.81850e-12,9.12969e-01
7.98221e+02,6.13300e+03,8.09000e+03,-1.95700e+03,1.16060e-12,9.20514e-01,7.24259e-13,9.20514e-01,5.00194e-13,9.20514e-01
7.98471e+02,3.80400e+03,9.57400e+03,-5.77000e+03,9.52717e-13,9.28059e-01,5.49505e-13,9.28059e-01,8.44122e-13,9.28059e-01
7.98721e+02,2.47400e+03,1.03050e+04,-7.83100e+03,1.17922e-12,9.35605e-01,2.32858e-13,9.35605e-01,1.02206e-12,9.35605e-01
7.98970e+02,2.44400e+03,1.05930e+04,-8.14900e+03,8.89928e-13,9.43150e-01,5.33361e-13,9.43150e-01,6.36448e-13,9.43150e-01
7.99220e+02,3.88900e+03,8.74400e+03,-4.85500e+03,6.55664e-13,9.50695e-01,9.05932e-13,9.50695e-01,2.96504e-13,9.50695e-01
7.99469e+02,5.91600e+03,5.83600e+03,8.00000e+01,7.97832e-13,9.58240e-01,7.90300e-13,9.58240e-01,5.46364e-13,9.58240e-01
7.99719e+02,8.14600e+03,3.54700e+03,4.59900e+03,4.50806e-13,9.65785e-01,4.40767e-13,9.65785e-01,3.31085e-13,9.65785e-01
7.99969e+02,1.02510e+04,2.36000e+03,7.89100e+03,3.98857e-13,9.73331e-01,1.69842e-13,9.73331e-01,5.19160e-13,9.73331e-01
8.00218e+02,1.12610e+04,2.80500e+03,8.45600e+03,9.33072e-13,9.80876e-01,1.96786e-13,9.80876e-01,8.70184e-13,9.80876e-01
8.00468e+02,1.04960e+04,4.76300e+03,5.73300e+03,9.74860e-13,9.88421e-01,6.44677e-13,9.88421e-01,9.44251e-13,9.88421e-01
8.00717e+02,8.44900e+03,7.13400e+03,1.31500e+03,1.25498e-12,9.95966e-01,7.36241e-13,9.95966e-01,7.37583e-13,9.95966e-01
8.00967e+02,5.99700e+03,9.64500e+03,-3.64800e+03,1.07638e-12,1.00351e+00,1.99473e-13,1.00351e+00,9.80687e-13,1.00351e+00
8.01216e+02,3.79100e+03,1.22470e+04,-8.45600e+03,6.24863e-13,1.01106e+00,4.58771e-13,1.01106e+00,1.08029e-12,1.01106e+00
8.01466e+02,2.69700e+03,1.28350e+04,-1.01380e+04,7.41536e-13,1.01860e+00,5.59230e-13,1.01860e+00,1.24698e-12,1.01860e+00
8.01715e+02,2.82200e+03,1.19340e+04,-9.11200e+03,7.18752e-13,1.02615e+00,4.29876e-13,1.02615e+00,1.13579e-12,1.02615e+00
8.01965e+02,4.78200e+03,9.49700e+03,-4.71500e+03,2.57549e-13,1.03369e+00,5.14971e-13,1.03369e+00,3.93230e-13,1.03369e+00
8.02215e+02,7.52200e+03,6.52600e+03,9.96000e+02,3.74897e-13,1.04124e+00,7.50400e-13,1.04124e+00,5.34372e-13,1.04124e+00
8.02464e+02,1.06880e+04,3.91800e+03,6.77000e+03,3.92482e-13,1.04878e+00,7.41423e-13,1.04878e+00,7.38173e-13,1.04878e+00
8.02713e+02,1.26200e+04,2.65600e+03,9.96400e+03,3.81329e-13,1.05633e+00,9.81834e-13,1.05633e+00,9.55954e-13,1.05633e+00
8.02963e+02,1.34210e+04,3.33900e+03,1.00820e+04,4.34443e-13,1.06387e+00,7.63107e-13,1.06387e+00,1.16979e-12,1.06387e+00
8.03212e+02,1.34280e+04,5.81300e+03,7.61500e+03,3.51989e-13,1.07142e+00,4.95945e-13,1.07142e+00,8.31488e-13,1.07142e+00
8.03462e+02,1.15570e+04,9.50000e+03,2.05700e+03,3.36254e-13,1.07896e+00,2.28933e-13,1.07896e+00,1.50735e-13,1.07896e+00
8.03711e+02,8.14900e+03,1.29800e+04,-4.83100e+03,1.74109e-13,1.08651e+00,7.15990e-13,1.08651e+00,5.51407e-13,1.08651e+00
8.03961e+02,4.62500e+03,1.33800e+04,-8.75500e+03,4.57580e-13,1.09405e+00,5.56177e-13,1.09405e+00,3.99495e-13,1.09405e+00
8.04210e+02,2.91600e+03,1.28680e+04,-9.95200e+03,3.91996e-13,1.10160e+00,2.52415e-13,1.10160e+00,1.80585e-13,1.10160e+00
8.04460e+02,3.21400e+03,1.22390e+04,-9.02500e+03,1.20465e-13,1.10914e+00,2.97991e-13,1.10914e+00,3.56186e-13,1.10914e+00
8.04709e+02,5.44900e+03,1.05340e+04,-5.08500e+03,3.69633e-13,1.11669e+00,4.61916e-13,1.11669e+00,7.60003e-13,1.11669e+00
8.04958e+02,8.48200e+03,6.90000e+03,1.58200e+03,6.70465e-13,1.12423e+00,3.97244e-14,1.12423e+00,6.92940e-13,1.12423e+00
8.05208e+02,1.11980e+04,4.21600e+03,6.98200e+03,5.80469e-13,1.13178e+00,3.35281e-13,1.13178e+00,8.74186e-13,1.13178e+00
8.05457e+02,1.23960e+04,2.98100e+03,9.41500e+03,2.46507e-13,1.13932e+00,6.75437e-13,1.13932e+00,5.80874e-13,1.13932e+00
8.05707e+02,1.39240e+04,3.42600e+03,1.04980e+04,4.59881e-13,1.14687e+00,7.52791e-13,1.14687e+00,4.85236e-13,1.14687e+00
8.05956e+02,1.41380e+04,5.46200e+03,8.67600e+03,2.10571e-13,1.15442e+00,5.90061e-13,1.15442e+00,6.61330e-13,1.15442e+00
8.06205e+02,1.09770e+04,8.07000e+03,2.90700e+03,5.03632e-13,1.16196e+00,5.67303e-13,1.16196e+00,1.06737e-12,1.16196e+00
8.06455e+02,7.67800e+03,1.15440e+04,-3.86600e+03,8.21437e-13,1.16951e+00,4.91389e-13,1.16951e+00,1.29532e-12,1.16951e+00
8.06704e+02,5.18600e+03,1.39730e+04,-8.78700e+03,6.50869e-13,1.17705e+00,2.54065e-13,1.17705e+00,8.51844e-13,1.17705e+00
8.06953e+02,3.23200e+03,1.45610e+04,-1.13290e+04,4.54000e-13,1.18460e+00,5.72769e-13,1.18460e+00,9.27761e-13,1.18460e+00
8.07203e+02,2.90800e+03,1.28020e+04,-9.89400e+03,4.40950e-13,1.19214e+00,8.21832e-13,1.19214e+00,1.14768e-12,1.19214e+00
8.07452e+02,4.70700e+03,1.11540e+04,-6.44700e+03,4.43415e-13,1.19969e+00,1.19840e-12,1.19969e+00,1.19249e-12,1.19969e+00
8.07701e+02,8.08300e+03,8.28300e+03,-2.00000e+02,5.60016e-13,1.20723e+00,1.26393e-12,1.20723e+00,8.01048e-13,1.20723e+00
8.07951e+02,1.11950e+04,5.42700e+03,5.76800e+03,6.01255e-13,1.21478e+00,1.00271e-12,1.21478e+00,4.36497e-13,1.21478e+00
8.08200e+02,1.25560e+04,3.46100e+03,9.09500e+03,3.86499e-13,1.22232e+00,7.28769e-13,1.22232e+00,8.74280e-13,1.22232e+00
8.08449e+02,1.39490e+04,3.29600e+03,1.06530e+04,4.62644e-13,1.22987e+00,3.27185e-13,1.22987e+00,7.85002e-13,1.22987e+00
8.08698e+02,1.45300e+04,5.26600e+03,9.26400e+03,7.74408e-13,1.23741e+00,3.33749e-13,1.23741e+00,9.91838e-13,1.23741e+00
8.08948e+02,1.37490e+04,8.78000e+03,4.96900e+03,7.63814e-13,1.24496e+00,4.47794e-13,1.24496e+00,1.11791e-12,1.24496e+00
8.09197e+02,1.07450e+04,1.25720e+04,-1.82700e+03,3.12840e-13,1.25250e+00,4.60940e-13,1.25250e+00,7.48552e-13,1.25250e+00
8.09446e+02,6.48200e+03,1.41350e+04,-7.65300e+03,3.73855e-13,1.26005e+00,2.18357e-13,1.26005e+00,4.40244e-13,1.26005e+00
8.09695e+02,3.74800e+03,1.52340e+04,-1.14860e+04,2.21628e-13,1.26759e+00,3.70808e-13,1.26759e+00,1.76872e-13,1.26759e+00
8.09945e+02,3.28900e+03,1.53740e+04,-1.20850e+04,5.69188e-13,1.27514e+00,3.25648e-13,1.27514e+00,2.48821e-13,1.27514e+00
8.10194e+02,4.72800e+03,1.39480e+04,-9.22000e+03,3.97288e-13,1.28268e+00,3.47242e-13,1.28268e+00,2.68572e-13,1.28268e+00
8.10443e+02,7.92700e+03,1.03480e+04,-2.42100e+03,4.12813e-13,1.29023e+00,4.79212e-13,1.29023e+00,2.25494e-13,1.29023e+00
8.10692e+02,1.19530e+04,6.55600e+03,5.39700e+03,4.89908e-14,1.29777e+00,2.05708e-14,1.29777e+00,4.00389e-14,1.29777e+00
8.10941e+02,1.48210e+04,4.13400e+03,1.06870e+04,8.34570e-13,1.30532e+00,7.98691e-13,1.30532e+00,2.11555e-13,1.30532e+00
8.11191e+02,1.53440e+04,3.42400e+03,1.19200e+04,1.55668e-13,1.31286e+00,5.07031e-13,1.31286e+00,3.55401e-13,1.31286e+00
8.11440e+02,1.56080e+04,5.30900e+03,1.02990e+04,1.62059e-12,-1.32041e+00,9.27181e-13,-1.32041e+00,6.93411e-13,-1.32041e+00
8.11689e+02,1.54780e+04,9.37200e+03,6.10600e+03,1.55668e-13,-1.31286e+00,5.07031e-13,-1.31286e+00,3.55401e-13,-1.31286e+00
8.11938e+02,1.26720e+04,1.28360e+04,-1.64000e+02,8.34570e-13,-1.30532e+00,7.98691e-13,-1.30532e+00,2.11555e-13,-1.30532e+00
8.12187e+02,8.11500e+03,1.51090e+04,-6.99400e+03,4.89908e-14,-1.29777e+00,2.05708e-14,-1.29777e+00,4.00389e-14,-1.29777e+00
8.12436e+02,5.14800e+03,1.56570e+04,-1.05090e+04,4.12813e-13,-1.29023e+00,4.79212e-13,-1.29023e+00,2.25494e-13,-1.29023e+00
8.12685e+02,3.79900e+03,1.54420e+04,-1.16430e+04,3.97288e-13,-1.28268e+00,3.47242e-13,-1.28268e+00,2.68572e-13,-1.28268e+00
8.12935e+02,4.85000e+03,1.44010e+04,-9.55100e+03,5.69188e-13,-1.27514e+00,3.25648e-13,-1.27514e+00,2.48821e-13,-1.27514e+00
8.13184e+02,7.61400e+03,1.09810e+04,-3.36700e+03,2.21628e-13,-1.26759e+00,3.70808e-13,-1.26759e+00,1.76872e-13,-1.26759e+00
8.13433e+02,1.11080e+04,7.68500e+03,3.42300e+03,3.73855e-13,-1.26005e+00,2.18357e-13,-1.26005e+00,4.40244e-13,-1.26005e+00
8.13682e+02,1.43690e+04,4.93200e+03,9.43700e+03,3.12840e-13,-1.25250e+00,4.60940e-13,-1.25250e+00,7.48552e-13,-1.25250e+00
8.13931e+02,1.54940e+04,3.62900e+03,1.18650e+04,7.63814e-13,-1.24496e+00,4.47794e-13,-1.24496e+00,1.11791e-12,-1.24496e+00
8.14180e+02,1.53880e+04,4.05400e+03,1.13340e+04,7.74408e-13,-1.23741e+00,3.33749e-13,-1.23741e+00,9.91838e-13,-1.23741e+00
8.14429e+02,1.48820e+04,6.78000e+03,8.10200e+03,4.62644e-13,-1.22987e+00,3.27185e-13,-1.22987e+00,7.85002e-13,-1.22987e+00
8.14678e+02,1.27000e+04,1.04700e+04,2.23000e+03,3.86499e-13,-1.22232e+00,7.28769e-13,-1.22232e+00,8.74280e-13,-1.22232e+00
8.14927e+02,8.04600e+03,1.30680e+04,-5.02200e+03,6.01255e-13,-1.21478e+00,1.00271e-12,-1.21478e+00,4.36497e-13,-1.21478e+00
8.15176e+02,4.91200e+03,1.43160e+04,-9.40400e+03,5.60016e-13,-1.20723e+00,1.26393e-12,-1.20723e+00,8.01048e-13,-1.20723e+00
8.15425e+02,3.34500e+03,1.44170e+04,-1.10720e+04,4.43415e-13,-1.19969e+00,1.19840e-12,-1.19969e+00,1.19249e-12,-1.19969e+00
8.15674e+02,3.74900e+03,1.40080e+04,-1.02590e+04,4.40950e-13,-1.19214e+00,8.21832e-13,-1.19214e+00,1.14768e-12,-1.19214e+00
8.15923e+02,6.64800e+03,1.22730e+04,-5.62500e+03,4.54000e-13,-1.18460e+00,5.72769e-13,-1.18460e+00,9.27761e-13,-1.18460e+00
8.16172e+02,1.05150e+04,9.29700e+03,1.21800e+03,6.50869e-13,-1.17705e+00,2.54065e-13,-1.17705e+00,8.51844e-13,-1.17705e+00
8.16421e+02,1.27270e+04,4.84000e+03,7.88700e+03,8.21437e-13,-1.16951e+00,4.91389e-13,-1.16951e+00,1.29532e-12,-1.16951e+00
8.16670e+02,1.35330e+04,3.03400e+03,1.04990e+04,5.03632e-13,-1.16196e+00,5.67303e-13,-1.16196e+00,1.06737e-12,-1.16196e+00
8.16919e+02,1.46050e+04,3.56800e+03,1.10370e+04,2.10571e-13,-1.15442e+00,5.90061e-13,-1.15442e+00,6.61330e-13,-1.15442e+00
8.17168e+02,1.32890e+04,5.34700e+03,7.94200e+03,4.59881e-13,-1.14687e+00,7.52791e-13,-1.14687e+00,4.85236e-13,-1.14687e+00
8.17417e+02,1.04400e+04,7.87700e+03,2.56300e+03,2.46507e-13,-1.13932e+00,6.75437e-13,-1.13932e+00,5.80874e-13,-1.13932e+00
8.17666e+02,7.66600e+03,1.09940e+04,-3.32800e+03,5.80469e-13,-1.13178e+00,3.35281e-13,-1.13178e+00,8.74186e-13,-1.13178e+00
8.17915e+02,4.84300e+03,1.30700e+04,-8.22700e+03,6.70465e-13,-1.12423e+00,3.97244e-14,-1.12423e+00,6.92940e-13,-1.12423e+00
8.18164e+02,3.09200e+03,1.24730e+04,-9.38100e+03,3.69633e-13,-1.11669e+00,4.61916e-13,-1.11669e+00,7.60003e-13,-1.11669e+00
8.18413e+02,2.88500e+03,1.11010e+04,-8.21600e+03,1.20465e-13,-1.10914e+00,2.97991e-13,-1.10914e+00,3.56186e-13,-1.10914e+00
8.18662e+02,3.96800e+03,8.76100e+03,-4.79300e+03,3.91996e-13,-1.10160e+00,2.52415e-13,-1.10160e+00,1.80585e-13,-1.10160e+00
8.18911e+02,6.15300e+03,6.57600e+03,-4.23000e+02,4.57580e-13,-1.09405e+00,5.56177e-13,-1.09405e+00,3.99495e-13,-1.09405e+00
8.19160e+02,8.23200e+03,4.36200e+03,3.87000e+03,1.74109e-13,-1.08651e+00,7.15990e-13,-1.08651e+00,5.51407e-13,-1.08651e+00
8.19408e+02,1.03900e+04,2.89100e+03,7.49900e+03,3.36254e-13,-1.07896e+00,2.28933e-13,-1.07896e+00,1.50735e-13,-1.07896e+00
8.19657e+02,1.26330e+04,2.74000e+03,9.89300e+03,3.51989e-13,-1.07142e+00,4.95945e-13,-1.07142e+00,8.31488e-13,-1.07142e+00
8.19906e+02,1.29940e+04,4.31400e+03,8.68000e+03,4.34443e-13,-1.06387e+00,7.63107e-13,-1.06387e+00,1.16979e-12,-1.06387e+00
8.20155e+02,1.13570e+04,6.87400e+03,4.48300e+03,3.81329e-13,-1.05633e+00,9.81834e-13,-1.05633e+00,9.55954e-13,-1.05633e+00
8.20404e+02,7.93300e+03,9.03100e+03,-1.09800e+03,3.92482e-13,-1.04878e+00,7.41423e-13,-1.04878e+00,7.38173e-13,-1.04878e+00
8.20653e+02,4.42800e+03,1.03870e+04,-5.95900e+03,3.74897e-13,-1.04124e+00,7.50400e-13,-1.04124e+00,5.34372e-13,-1.04124e+00
8.20901e+02,2.82700e+03,1.13590e+04,-8.53200e+03,2.57549e-13,-1.03369e+00,5.14971e-13,-1.03369e+00,3.93230e-13,-1.03369e+00
8.21150e+02,2.52400e+03,1.16570e+04,-9.13300e+03,7.18752e-13,-1.02615e+00,4.29876e-13,-1.02615e+00,1.13579e-12,-1.02615e+00
8.21399e+02,3.19800e+03,8.68300e+03,-5.48500e+03,7.41536e-13,-1.01860e+00,5.59230e-13,-1.01860e+00,1.24698e-12,-1.01860e+00
8.21648e+02,5.09800e+03,6.56600e+03,-1.46800e+03,6.24863e-13,-1.01106e+00,4.58771e-13,-1.01106e+00,1.08029e-12,-1.01106e+00
8.21897e+02,7.09000e+03,4.71600e+03,2.37400e+03,1.07638e-12,-1.00351e+00,1.99473e-13,-1.00351e+00,9.80687e-13,-1.00351e+00
8.22145e+02,8.04300e+03,3.04600e+03,4.99700e+03,1.25498e-12,-9.95966e-01,7.36241e-13,-9.95966e-01,7.37583e-13,-9.95966e-01
8.22394e+02,9.51000e+03,2.45900e+03,7.05100e+03,9.74860e-13,-9.88421e-01,6.44677e-13,-9.88421e-01,9.44251e-13,-9.88421e-01
8.22643e+02,9.93300e+03,2.82400e+03,7.10900e+03,9.33072e-13,-9.80876e-01,1.96786e-13,-9.80876e-01,8.70184e-13,-9.80876e-01
8.22892e+02,8.35000e+03,4.35500e+03,3.99500e+03,3.98857e-13,-9.73331e-01,1.69842e-13,-9.73331e-01,5.19160e-13,-9.73331e-01
8.23140e+02,6.55400e+03,6.28200e+03,2.72000e+02,4.50806e-13,-9.65785e-01,4.40767e-13,-9.65785e-01,3.31085e-13,-9.65785e-01
8.23389e+02,4.71400e+03,8.46300e+03,-3.74900e+03,7.97832e-13,-9.58240e-01,7.90300e-13,-9.58240e-01,5.46364e-13,-9.58240e-01
8.23638e+02,2.94200e+03,9.81700e+03,-6.87500e+03,6.55664e-13,-9.50695e-01,9.05932e-13,-9.50695e-01,2.96504e-13,-9.50695e-01
8.23887e+02,2.09900e+03,9.69200e+03,-7.59300e+03,8.89928e-13,-9.43150e-01,5.33361e-13,-9.43150e-01,6.36448e-13,-9.43150e-01
8.24135e+02,2.44100e+03,8.60500e+03,-6.16400e+03,1.17922e-12,-9.35605e-01,2.32858e-13,-9.35605e-01,1.02206e-12,-9.35605e-01
8.24384e+02,3.65900e+03,6.91900e+03,-3.26000e+03,9.52717e-13,-9.28059e-01,5.49505e-13,-9.28059e-01,8.44122e-13,-9.28059e-01
8.24633e+02,5.57000e+03,4.60100e+03,9.69000e+02,1.16060e-12,-9.20514e-01,7.24259e-13,-9.20514e-01,5.00194e-13,-9.20514e-01
8.24881e+02,7.44600e+03,2.96600e+03,4.48000e+03,1.92842e-12,-9.12969e-01,4.79685e-13,-9.12969e-01,1.81850e-12,-9.12969e-01
8.25130e+02,8.85800e+03,2.03000e+03,6.82800e+03,1.63608e-12,-9.05424e-01,1.50652e-13,-9.05424e-01,1.66724e-12,-9.05424e-01
8.25379e+02,9.53300e+03,2.35600e+03,7.17700e+03,8.18502e-13,-8.97879e-01,4.50421e-13,-8.97879e-01,6.00895e-13,-8.97879e-01
8.25627e+02,7.44600e+03,3.22000e+03,4.22600e+03,4.46876e-13,-8.90333e-01,3.94521e-13,-8.90333e-01,3.59109e-13,-8.90333e-01
8.25876e+02,5.54300e+03,4.80000e+03,7.43000e+02,1.33602e-13,-8.82788e-01,1.97726e-13,-8.82788e-01,3.21555e-13,-8.82788e-01
8.26125e+02,3.84000e+03,6.22800e+03,-2.38800e+03,6.29421e-13,-8.75243e-01,4.59736e-13,-8.75243e-01,9.39560e-13,-8.75243e-01
8.26373e+02,2.38700e+03,6.43400e+03,-4.04700e+03,9.53048e-13,-8.67698e-01,3.88331e-13,-8.67698e-01,1.24241e-12,-8.67698e-01
8.26622e+02,1.60000e+03,6.08400e+03,-4.48400e+03,6.50357e-13,-8.60153e-01,6.54226e-13,-8.60153e-01,1.26636e-12,-8.60153e-01
8.26870e+02,1.61500e+03,5.09100e+03,-3.47600e+03,3.99848e-13,-8.52607e-01,9.37633e-13,-8.52607e-01,9.72030e-13,-8.52607e-01
8.27119e+02,2.14000e+03,4.31400e+03,-2.17400e+03,6.17412e-13,-8.45062e-01,1.07179e-12,-8.45062e-01,4.74635e-13,-8.45062e-01
8.27368e+02,3.15200e+03,3.48400e+03,-3.32000e+02,1.36456e-12,-8.37517e-01,1.63318e-12,-8.37517e-01,8.77077e-13,-8.37517e-01
8.27616e+02,3.70300e+03,2.34600e+03,1.35700e+03,1.90456e-12,-8.29972e-01,1.92477e-12,-8.29972e-01,1.66162e-12,-8.29972e-01
8.27865e+02,4.65600e+03,1.52600e+03,3.13000e+03,1.69842e-12,-8.22427e-01,9.60641e-13,-8.22427e-01,1.44176e-12,-8.22427e-01
8.28113e+02,5.89800e+03,1.26100e+03,4.63700e+03,1.11734e-12,-8.14881e-01,4.68887e-13,-8.14881e-01,1.16508e-12,-8.14881e-01
8.28362e+02,5.65600e+03,1.76000e+03,3.89600e+03,3.74518e-13,-8.07336e-01,1.09062e-12,-8.07336e-01,1.39042e-12,-8.07336e-01
8.28610e+02,4.41800e+03,2.53900e+03,1.87900e+03,7.87407e-13,-7.99791e-01,1.24848e-12,-7.99791e-01,1.54934e-12,-7.99791e-01
8.28859e+02,3.29800e+03,3.46400e+03,-1.66000e+02,1.54854e-12,-7.92246e-01,1.33802e-12,-7.92246e-01,1.01294e-12,-7.92246e-01
8.29108e+02,2.14400e+03,4.06900e+03,-1.92500e+03,1.60605e-12,-7.84701e-01,1.13295e-12,-7.84701e-01,4.77165e-13,-7.84701e-01
8.29356e+02,1.44100e+03,4.34200e+03,-2.90100e+03,1.21385e-12,-7.77155e-01,1.46592e-12,-7.77155e-01,5.55034e-13,-7.77155e-01
8.29605e+02,1.04100e+03,4.16500e+03,-3.12400e+03,1.39727e-12,-7.69610e-01,1.52322e-12,-7.69610e-01,5.17677e-13,-7.69610e-01
8.29853e+02,1.23100e+03,3.54400e+03,-2.31300e+03,1.69496e-12,-7.62065e-01,7.47932e-13,-7.62065e-01,1.62493e-12,-7.62065e-01
8.30101e+02,1.71300e+03,2.89200e+03,-1.17900e+03,1.81127e-12,-7.54520e-01,3.98723e-13,-7.54520e-01,2.09578e-12,-7.54520e-01
8.30350e+02,2.44800e+03,2.24400e+03,2.04000e+02,1.14311e-12,-7.46975e-01,3.69687e-13,-7.46975e-01,1.31336e-12,-7.46975e-01
8.30598e+02,2.70800e+03,1.39200e+03,1.31600e+03,5.31891e-13,-7.39429e-01,7.75478e-13,-7.39429e-01,5.90296e-13,-7.39429e-01
8.30847e+02,3.15400e+03,1.03800e+03,2.11600e+03,1.46624e-12,-7.31884e-01,1.22584e-12,-7.31884e-01,1.31188e-12,-7.31884e-01
8.31095e+02,3.39600e+03,9.62000e+02,2.43400e+03,2.79483e-12,-7.24339e-01,1.70750e-12,-7.24339e-01,3.36657e-12,-7.24339e-01
8.31344e+02,3.13100e+03,1.40700e+03,1.72400e+03,2.96668e-12,-7.16794e-01,1.74222e-12,-7.16794e-01,4.22652e-12,-7.16794e-01
8.31592e+02,2.46700e+03,1.74900e+03,7.18000e+02,2.38806e-12,-7.09249e-01,1.11312e-12,-7.09249e-01,3.49146e-12,-7.09249e-01
8.31841e+02,1.77700e+03,2.11000e+03,-3.33000e+02,1.92815e-12,-7.01703e-01,7.72256e-13,-7.01703e-01,2.44614e-12,-7.01703e-01
8.32089e+02,1.19000e+03,2.59300e+03,-1.40300e+03,1.28940e-12,-6.94158e-01,1.08909e-12,-6.94158e-01,2.33036e-12,-6.94158e-01
8.32337e+02,9.00000e+02,2.83100e+03,-1.93100e+03,2.11287e-12,-6.86613e-01,1.24171e-12,-6.86613e-01,3.24400e-12,-6.86613e-01
8.32586e+02,7.94000e+02,2.47700e+03,-1.68300e+03,2.57525e-12,-6.79068e-01,6.00053e-13,-6.79068e-01,3.04145e-12,-6.79068e-01
8.32834e+02,9.85000e+02,2.38800e+03,-1.40300e+03,2.06234e-12,-6.71523e-01,4.97263e-13,-6.71523e-01,1.68922e-12,-6.71523e-01
8.33083e+02,1.20400e+03,1.84700e+03,-6.43000e+02,1.13843e-12,-6.63977e-01,1.24114e-12,-6.63977e-01,9.83586e-13,-6.63977e-01
8.33331e+02,1.68100e+03,1.36900e+03,3.12000e+02,1.18396e-12,-6.56432e-01,1.82487e-12,-6.56432e-01,9.55708e-13,-6.56432e-01
8.33579e+02,1.97700e+03,9.22000e+02,1.05500e+03,2.35351e-12,-6.48887e-01,2.52298e-12,-6.48887e-01,1.81165e-13,-6.48887e-01
8.33828e+02,2.11800e+03,7.71000e+02,1.34700e+03,2.37228e-12,-6.41342e-01,3.11821e-12,-6.41342e-01,1.10802e-12,-6.41342e-01
8.34076e+02,1.86000e+03,7.68000e+02,1.09200e+03,1.69702e-12,-6.33797e-01,3.46769e-12,-6.33797e-01,1.78224e-12,-6.33797e-01
8.34324e+02,1.80700e+03,9.26000e+02,8.81000e+02,1.00187e-12,-6.26251e-01,2.42011e-12,-6.26251e-01,1.59580e-12,-6.26251e-01
8.34573e+02,1.52800e+03,1.12000e+03,4.08000e+02,8.95974e-13,-6.18706e-01,7.83595e-13,-6.18706e-01,4.41963e-13,-6.18706e-01
8.34821e+02,1.18600e+03,1.37700e+03,-1.91000e+02,1.55007e-12,-6.11161e-01,1.46545e-12,-6.11161e-01,1.67983e-12,-6.11161e-01
8.35069e+02,8.05000e+02,1.52900e+03,-7.24000e+02,1.26720e-12,-6.03616e-01,2.50364e-12,-6.03616e-01,2.18133e-12,-6.03616e-01
8.35318e+02,7.83000e+02,1.77400e+03,-9.91000e+02,1.67283e-12,-5.96071e-01,2.62478e-12,-5.96071e-01,9.56258e-13,-5.96071e-01
8.35566e+02,6.68000e+02,1.54500e+03,-8.77000e+02,1.75639e-12,-5.88525e-01,2.40736e-12,-5.88525e-01,9.73237e-13,-5.88525e-01
8.35814e+02,7.25000e+02,1.37100e+03,-6.46000e+02,1.05450e-12,-5.80980e-01,2.16597e-12,-5.80980e-01,1.19393e-12,-5.80980e-01
8.36062e+02,7.79000e+02,1.02000e+03,-2.41000e+02,9.27278e-13,-5.73435e-01,1.39580e-12,-5.73435e-01,8.89502e-13,-5.73435e-01
8.36311e+02,9.89000e+02,8.40000e+02,1.49000e+02,1.11976e-12,-5.65890e-01,7.96747e-13,-5.65890e-01,5.27239e-13,-5.65890e-01
8.36559e+02,1.06300e+03,7.20000e+02,3.43000e+02,9.87825e-13,-5.58345e-01,1.02936e-12,-5.58345e-01,2.21433e-13,-5.58345e-01
8.36807e+02,1.29100e+03,6.74000e+02,6.17000e+02,7.84500e-13,-5.50799e-01,7.52065e-13,-5.50799e-01,2.01116e-13,-5.50799e-01
8.37055e+02,1.21900e+03,6.62000e+02,5.57000e+02,1.77317e-13,-5.43254e-01,4.71740e-13,-5.43254e-01,5.62766e-13,-5.43254e-01
8.37304e+02,1.14100e+03,7.00000e+02,4.41000e+02,6.76635e-13,-5.35709e-01,1.29919e-12,-5.35709e-01,8.57945e-13,-5.35709e-01
8.37552e+02,9.12000e+02,7.68000e+02,1.44000e+02,7.62044e-13,-5.28164e-01,8.91592e-13,-5.28164e-01,8.40918e-13,-5.28164e-01
8.37800e+02,8.08000e+02,8.84000e+02,-7.60000e+01,1.03393e-12,-5.20619e-01,3.95299e-13,-5.20619e-01,1.05846e-12,-5.20619e-01
8.38048e+02,6.64000e+02,8.75000e+02,-2.11000e+02,1.49984e-12,-5.13073e-01,1.81992e-12,-5.13073e-01,1.81013e-12,-5.13073e-01
8.38296e+02,6.52000e+02,9.39000e+02,-2.87000e+02,2.01833e-12,-5.05528e-01,2.31252e-12,-5.05528e-01,2.12704e-12,-5.05528e-01
8.38545e+02,6.33000e+02,9.04000e+02,-2.71000e+02,2.37034e-12,-4.97983e-01,1.81594e-12,-4.97983e-01,2.24887e-12,-4.97983e-01
8.38793e+02,6.59000e+02,8.57000e+02,-1.98000e+02,4.45932e-12,-4.90438e-01,2.71184e-12,-4.90438e-01,3.42668e-12,-4.90438e-01
8.39041e+02,6.77000e+02,7.12000e+02,-3.50000e+01,6.87989e-12,-4.82893e-01,3.27690e-12,-4.82893e-01,3.88752e-12,-4.82893e-01
8.39289e+02,7.06000e+02,6.77000e+02,2.90000e+01,7.01859e-12,-4.75347e-01,4.94617e-12,-4.75347e-01,2.23718e-12,-4.75347e-01
8.39537e+02,7.47000e+02,6.48000e+02,9.90000e+01,4.78643e-12,-4.67802e-01,5.50529e-12,-4.67802e-01,2.25263e-12,-4.67802e-01
8.39785e+02,7.86000e+02,6.34000e+02,1.52000e+02,3.69129e-12,-4.60257e-01,4.49098e-12,-4.60257e-01,1.29062e-12,-4.60257e-01
8.40033e+02,7.59000e+02,6.52000e+02,1.07000e+02,4.59172e-12,-4.52712e-01,3.92672e-12,-4.52712e-01,2.52777e-12,-4.52712e-01
8.40281e+02,7.63000e+02,6.68000e+02,9.50000e+01,5.03034e-12,-4.45167e-01,2.81475e-12,-4.45167e-01,3.91616e-12,-4.45167e-01
8.40530e+02,6.82000e+02,6.44000e+02,3.80000e+01,2.92395e-12,-4.37621e-01,7.60185e-13,-4.37621e-01,3.05998e-12,-4.37621e-01
8.40778e+02,6.71000e+02,6.97000e+02,-2.60000e+01,5.38130e-13,-4.30076e-01,1.89972e-12,-4.30076e-01,2.39572e-12,-4.30076e-01
8.41026e+02,6.47000e+02,6.96000e+02,-4.90000e+01,6.66894e-13,-4.22531e-01,3.18816e-12,-4.22531e-01,3.14142e-12,-4.22531e-01
8.41274e+02,6.42000e+02,6.94000e+02,-5.20000e+01,2.83395e-12,-4.14986e-01,3.64196e-12,-4.14986e-01,5.53189e-12,-4.14986e-01
8.41522e+02,6.34000e+02,6.76000e+02,-4.20000e+01,3.53825e-12,-4.07441e-01,2.72823e-12,-4.07441e-01,6.05610e-12,-4.07441e-01
8.41770e+02,6.25000e+02,6.74000e+02,-4.90000e+01,8.66855e-13,-3.99895e-01,8.63778e-13,-3.99895e-01,1.46945e-12,-3.99895e-01
8.42018e+02,6.36000e+02,6.48000e+02,-1.20000e+01,4.01407e-12,-3.92350e-01,7.89932e-13,-3.92350e-01,4.79690e-12,-3.92350e-01
8.42266e+02,6.65000e+02,6.56000e+02,9.00000e+00,3.53785e-12,-3.84805e-01,1.79040e-12,-3.84805e-01,4.91127e-12,-3.84805e-01
8.42514e+02,6.57000e+02,6.38000e+02,1.90000e+01,2.28228e-12,-3.77260e-01,2.97462e-12,-3.77260e-01,4.95950e-12,-3.77260e-01
8.42762e+02,7.07000e+02,6.53000e+02,5.40000e+01,4.51548e-12,-3.69715e-01,2.69746e-12,-3.69715e-01,5.08293e-12,-3.69715e-01
8.43010e+02,6.52000e+02,6.17000e+02,3.50000e+01,4.95639e-12,-3.62169e-01,1.72526e-12,-3.62169e-01,3.33145e-12,-3.62169e-01
8.43258e+02,6.69000e+02,6.42000e+02,2.70000e+01,3.51469e-12,-3.54624e-01,1.09601e-12,-3.54624e-01,2.50326e-12,-3.54624e-01
8.43506e+02,6.60000e+02,6.52000e+02,8.00000e+00,1.84822e-12,-3.47079e-01,1.65180e-12,-3.47079e-01,1.66142e-12,-3.47079e-01
8.43754e+02,6.49000e+02,6.34000e+02,1.50000e+01,6.73783e-13,-3.39534e-01,3.01030e-12,-3.39534e-01,2.34308e-12,-3.39534e-01
8.44002e+02,6.42000e+02,6.43000e+02,-1.00000e+00,6.55690e-13,-3.31989e-01,2.89249e-12,-3.31989e-01,2.36643e-12,-3.31989e-01
8.44250e+02,6.29000e+02,6.62000e+02,-3.30000e+01,1.03864e-12,-3.24444e-01,3.90029e-12,-3.24444e-01,2.88554e-12,-3.24444e-01
8.44498e+02,6.17000e+02,6.42000e+02,-2.50000e+01,1.63020e-12,-3.16898e-01,5.08946e-12,-3.16898e-01,3.87165e-12,-3.16898e-01
8.44746e+02,6.32000e+02,6.40000e+02,-8.00000e+00,2.60141e-12,-3.09353e-01,4.12367e-12,-3.09353e-01,1.54526e-12,-3.09353e-01
8.44994e+02,6.38000e+02,6.22000e+02,1.60000e+01,2.69073e-12,-3.01808e-01,1.82277e-12,-3.01808e-01,3.56737e-12,-3.01808e-01
8.45242e+02,6.63000e+02,6.45000e+02,1.80000e+01,4.15184e-12,-2.94263e-01,3.70528e-12,-2.94263e-01,7.84489e-12,-2.94263e-01
8.45490e+02,6.19000e+02,6.06000e+02,1.30000e+01,5.46511e-12,-2.86718e-01,4.12923e-12,-2.86718e-01,9.59430e-12,-2.86718e-01
8.45738e+02,6.27000e+02,6.41000e+02,-1.40000e+01,3.49190e-12,-2.79172e-01,3.47584e-12,-2.79172e-01,6.76973e-12,-2.79172e-01
8.45985e+02,6.37000e+02,6.33000e+02,4.00000e+00,3.01321e-12,-2.71627e-01,6.41072e-12,-2.71627e-01,9.34592e-12,-2.71627e-01
8.46233e+02,6.34000e+02,6.33000e+02,1.00000e+00,5.45668e-12,-2.64082e-01,6.63558e-12,-2.64082e-01,1.18109e-11,-2.64082e-01
8.46481e+02,6.32000e+02,6.35000e+02,-3.00000e+00,7.49133e-12,-2.56537e-01,7.95547e-12,-2.56537e-01,1.51159e-11,-2.56537e-01
8.46729e+02,6.34000e+02,6.38000e+02,-4.00000e+00,4.41570e-11,-2.48992e-01,4.35340e-11,-2.48992e-01,8.52859e-11,-2.48992e-01
8.46977e+02,6.29000e+02,6.27000e+02,2.00000e+00,9.75787e-11,-2.41446e-01,9.44012e-11,-2.41446e-01,1.87639e-10,-2.41446e-01
8.47225e+02,6.40000e+02,6.52000e+02,-1.20000e+01,1.05321e-10,-2.33901e-01,1.03125e-10,-2.33901e-01,2.04475e-10,-2.33901e-01
8.47473e+02,6.29000e+02,6.44000e+02,-1.50000e+01,6.34431e-11,-2.26356e-01,6.31352e-11,-2.26356e-01,1.24549e-10,-2.26356e-01
8.47720e+02,6.64000e+02,6.67000e+02,-3.00000e+00,2.70522e-11,-2.18811e-01,2.80246e-11,-2.18811e-01,5.43797e-11,-2.18811e-01
8.47968e+02,6.20000e+02,6.20000e+02,0.00000e+00,6.57013e-12,-2.11266e-01,6.67953e-12,-2.11266e-01,1.32469e-11,-2.11266e-01
8.48216e+02,6.32000e+02,6.29000e+02,3.00000e+00,2.68535e-12,-2.03720e-01,3.41715e-12,-2.03720e-01,5.51799e-12,-2.03720e-01
8.48464e+02,6.43000e+02,6.26000e+02,1.70000e+01,6.03588e-13,-1.96175e-01,2.77267e-12,-1.96175e-01,3.02572e-12,-1.96175e-01
8.48712e+02,6.32000e+02,6.41000e+02,-9.00000e+00,2.15531e-12,-1.88630e-01,1.84659e-12,-1.88630e-01,3.24024e-12,-1.88630e-01
8.48960e+02,6.08000e+02,6.24000e+02,-1.60000e+01,1.79161e-12,-1.81085e-01,2.32724e-12,-1.81085e-01,1.70675e-12,-1.81085e-01
8.49207e+02,6.35000e+02,6.29000e+02,6.00000e+00,3.83720e-12,-1.73540e-01,3.77108e-12,-1.73540e-01,7.16724e-13,-1.73540e-01
8.49455e+02,6.26000e+02,6.40000e+02,-1.40000e+01,3.27986e-12,-1.65994e-01,3.01217e-12,-1.65994e-01,2.63523e-12,-1.65994e-01
8.49703e+02,6.46000e+02,6.35000e+02,1.10000e+01,3.35144e-12,-1.58449e-01,4.63361e-12,-1.58449e-01,1.42934e-12,-1.58449e-01
8.49951e+02,6.33000e+02,6.29000e+02,4.00000e+00,7.45477e-12,-1.50904e-01,5.85036e-12,-1.50904e-01,1.76126e-12,-1.50904e-01
8.50198e+02,6.72000e+02,6.53000e+02,1.90000e+01,5.23235e-12,-1.43359e-01,3.64760e-12,-1.43359e-01,1.58556e-12,-1.43359e-01
8.50446e+02,6.11000e+02,6.29000e+02,-1.80000e+01,8.54576e-13,-1.35814e-01,1.88735e-12,-1.35814e-01,1.05120e-12,-1.35814e-01
8.50694e+02,6.25000e+02,6.28000e+02,-3.00000e+00,3.06855e-12,-1.28268e-01,1.72197e-12,-1.28268e-01,2.40243e-12,-1.28268e-01
8.50941e+02,6.15000e+02,6.37000e+02,-2.20000e+01,3.76740e-12,-1.20723e-01,1.25870e-12,-1.20723e-01,2.51468e-12,-1.20723e-01
8.51189e+02,6.29000e+02,6.28000e+02,1.00000e+00,2.52517e-12,-1.13178e-01,1.88932e-12,-1.13178e-01,1.22698e-12,-1.13178e-01
8.51437e+02,6.27000e+02,6.33000e+02,-6.00000e+00,1.79592e-12,-1.05633e-01,4.05677e-12,-1.05633e-01,2.39396e-12,-1.05633e-01
8.51685e+02,6.32000e+02,6.34000e+02,-2.00000e+00,3.20388e-12,-9.80876e-02,3.24338e-12,-9.80876e-02,4.68054e-13,-9.80876e-02
8.51932e+02,6.41000e+02,6.24000e+02,1.70000e+01,4.17834e-12,-9.05424e-02,1.13642e-12,-9.05424e-02,4.35372e-12,-9.05424e-02
8.52180e+02,6.38000e+02,6.45000e+02,-7.00000e+00,3.03394e-12,-8.29972e-02,2.45448e-12,-8.29972e-02,5.48835e-12,-8.29972e-02
8.52428e+02,6.31000e+02,6.16000e+02,1.50000e+01,2.25177e-12,-7.54520e-02,6.39127e-13,-7.54520e-02,2.62849e-12,-7.54520e-02
8.52675e+02,6.62000e+02,6.54000e+02,8.00000e+00,4.52143e-12,-6.79068e-02,5.41086e-12,-6.79068e-02,4.09486e-12,-6.79068e-02
8.52923e+02,6.21000e+02,6.07000e+02,1.40000e+01,7.10463e-12,-6.03616e-02,9.31799e-12,-6.03616e-02,4.42443e-12,-6.03616e-02
8.53170e+02,6.40000e+02,6.25000e+02,1.50000e+01,9.23907e-12,-5.28164e-02,9.26317e-12,-5.28164e-02,2.74058e-12,-5.28164e-02
8.53418e+02,6.24000e+02,6.26000e+02,-2.00000e+00,6.48972e-12,-4.52712e-02,5.07126e-12,-4.52712e-02,1.43498e-12,-4.52712e-02
8.53666e+02,6.27000e+02,6.29000e+02,-2.00000e+00,2.82809e-12,-3.77260e-02,9.39914e-13,-3.77260e-02,2.95616e-12,-3.77260e-02
8.53913e+02,6.32000e+02,6.37000e+02,-5.00000e+00,2.85220e-12,-3.01808e-02,8.78454e-13,-3.01808e-02,3.72026e-12,-3.01808e-02
8.54161e+02,6.19000e+02,6.44000e+02,-2.50000e+01,1.75732e-11,-2.26356e-02,1.52766e-11,-2.26356e-02,3.06197e-12,-2.26356e-02
8.54409e+02,6.31000e+02,6.39000e+02,-8.00000e+00,8.15248e-11,-1.50904e-02,8.13971e-11,-1.50904e-02,9.07589e-13,-1.50904e-02
8.54656e+02,6.24000e+02,6.33000e+02,-9.00000e+00,2.33478e-10,-7.54520e-03,2.31912e-10,-7.54520e-03,1.58500e-12,-7.54520e-03
