7.67698e+02,6.34000e+02,6.26000e+02,8.00000e+00,3.84223e-10,0.00000e+00,3.87065e-10,0.00000e+00,2.84174e-12,0.00000e+00
7.67949e+02,6.58000e+02,6.62000e+02,-4.00000e+00,2.27578e-10,7.54520e-03,2.29809e-10,7.54520e-03,8.09431e-12,7.54520e-03
7.68199e+02,6.01000e+02,6.02000e+02,-1.00000e+00,7.87930e-11,1.50904e-02,8.09933e-11,1.50904e-02,9.36396e-12,1.50904e-02
7.68450e+02,6.10000e+02,6.41000e+02,-3.10000e+01,1.31251e-11,2.26356e-02,1.70732e-11,2.26356e-02,5.74292e-12,2.26356e-02
7.68701e+02,6.22000e+02,6.42000e+02,-2.00000e+01,2.20769e-12,3.01808e-02,4.72989e-13,3.01808e-02,2.67285e-12,3.01808e-02
7.68951e+02,6.19000e+02,6.49000e+02,-3.00000e+01,1.75656e-12,3.77260e-02,1.48254e-12,3.77260e-02,3.15521e-12,3.77260e-02
7.69202e+02,6.24000e+02,6.52000e+02,-2.80000e+01,7.30733e-12,4.52712e-02,2.90780e-12,4.52712e-02,5.53341e-12,4.52712e-02
7.69453e+02,6.43000e+02,6.44000e+02,-1.00000e+00,1.08503e-11,5.28164e-02,5.97116e-12,5.28164e-02,5.60615e-12,5.28164e-02
7.69703e+02,6.35000e+02,6.26000e+02,9.00000e+00,8.07874e-12,6.03616e-02,6.28068e-12,6.03616e-02,2.25525e-12,6.03616e-02
7.69954e+02,6.48000e+02,6.27000e+02,2.10000e+01,2.75110e-12,6.79068e-02,4.16396e-12,6.79068e-02,1.82265e-12,6.79068e-02
7.70205e+02,6.45000e+02,6.12000e+02,3.30000e+01,2.77121e-12,7.54520e-02,2.49235e-12,7.54520e-02,4.79655e-12,7.54520e-02
7.70455e+02,6.67000e+02,6.46000e+02,2.10000e+01,3.01824e-12,8.29972e-02,4.34159e-12,8.29972e-02,7.07569e-12,8.29972e-02
7.70706e+02,6.19000e+02,6.12000e+02,7.00000e+00,1.60791e-12,9.05424e-02,4.60282e-12,9.05424e-02,5.05261e-12,9.05424e-02
7.70957e+02,6.17000e+02,6.42000e+02,-2.50000e+01,3.05587e-12,9.80876e-02,2.24442e-12,9.80876e-02,1.35916e-12,9.80876e-02
7.71207e+02,6.16000e+02,6.57000e+02,-4.10000e+01,4.36106e-12,1.05633e-01,1.31233e-12,1.05633e-01,3.58063e-12,1.05633e-01
7.71458e+02,6.19000e+02,6.84000e+02,-6.50000e+01,3.52114e-12,1.13178e-01,2.85560e-12,1.13178e-01,1.61989e-12,1.13178e-01
7.71708e+02,6.45000e+02,6.89000e+02,-4.40000e+01,2.86857e-12,1.20723e-01,4.02727e-12,1.20723e-01,1.23867e-12,1.20723e-01
7.71959e+02,6.58000e+02,6.85000e+02,-2.70000e+01,1.44602e-12,1.28268e-01,3.16617e-12,1.28268e-01,1.78703e-12,1.28268e-01
7.72210e+02,6.82000e+02,6.43000e+02,3.90000e+01,2.16708e-12,1.35814e-01,6.80856e-13,1.35814e-01,1.73134e-12,1.35814e-01
7.72460e+02,7.21000e+02,6.30000e+02,9.10000e+01,4.77662e-12,1.43359e-01,3.64912e-12,1.43359e-01,2.82518e-12,1.43359e-01
7.72711e+02,7.08000e+02,6.38000e+02,7.00000e+01,6.11013e-12,1.50904e-01,5.10679e-12,1.50904e-01,1.72512e-12,1.50904e-01
7.72961e+02,7.11000e+02,6.64000e+02,4.70000e+01,2.30762e-12,1.58449e-01,2.18924e-12,1.58449e-01,1.60765e-12,1.58449e-01
7.73212e+02,6.42000e+02,6.16000e+02,2.60000e+01,4.85466e-12,1.65994e-01,3.05357e-12,1.65994e-01,2.51963e-12,1.65994e-01
7.73462e+02,6.26000e+02,6.64000e+02,-3.80000e+01,5.78433e-12,1.73540e-01,4.91853e-12,1.73540e-01,1.15649e-12,1.73540e-01
7.73713e+02,6.22000e+02,6.86000e+02,-6.40000e+01,2.87640e-12,1.81085e-01,4.73550e-12,1.81085e-01,1.90187e-12,1.81085e-01
7.73963e+02,6.26000e+02,7.22000e+02,-9.60000e+01,4.70296e-12,1.88630e-01,8.77547e-12,1.88630e-01,1.18813e-11,1.88630e-01
7.74214e+02,6.54000e+02,7.07000e+02,-5.30000e+01,1.22737e-11,1.96175e-01,1.55780e-11,1.96175e-01,2.72119e-11,1.96175e-01
7.74465e+02,7.01000e+02,7.11000e+02,-1.00000e+01,1.98831e-11,2.03720e-01,2.02224e-11,2.03720e-01,3.95035e-11,2.03720e-01
7.74715e+02,7.30000e+02,6.61000e+02,6.90000e+01,3.97942e-11,2.11266e-01,3.60155e-11,2.11266e-01,7.39214e-11,2.11266e-01
7.74965e+02,7.90000e+02,6.46000e+02,1.44000e+02,7.78392e-11,2.18811e-01,7.58277e-11,2.18811e-01,1.47548e-10,2.18811e-01
7.75216e+02,7.38000e+02,6.30000e+02,1.08000e+02,1.01037e-10,2.26356e-01,1.05640e-10,2.26356e-01,1.96866e-10,2.26356e-01
7.75466e+02,7.60000e+02,6.61000e+02,9.90000e+01,9.22354e-11,2.33901e-01,1.01633e-10,2.33901e-01,1.81670e-10,2.33901e-01
7.75717e+02,6.56000e+02,6.39000e+02,1.70000e+01,6.36082e-11,2.41446e-01,6.76807e-11,2.41446e-01,1.19195e-10,2.41446e-01
7.75967e+02,6.26000e+02,7.27000e+02,-1.01000e+02,3.61052e-11,2.48992e-01,3.19499e-11,2.48992e-01,6.13878e-11,2.48992e-01
7.76218e+02,6.24000e+02,7.89000e+02,-1.65000e+02,9.80993e-12,2.56537e-01,9.61668e-12,2.56537e-01,1.76985e-11,2.56537e-01
7.76468e+02,6.47000e+02,8.92000e+02,-2.45000e+02,8.29627e-12,2.64082e-01,4.35029e-12,2.64082e-01,1.25919e-11,2.64082e-01
7.76719e+02,6.89000e+02,8.35000e+02,-1.46000e+02,2.99628e-12,2.71627e-01,7.48212e-12,2.71627e-01,1.04567e-11,2.71627e-01
7.76969e+02,7.96000e+02,7.89000e+02,7.00000e+00,3.15202e-12,2.79172e-01,1.23302e-12,2.79172e-01,2.05111e-12,2.79172e-01
7.77219e+02,8.82000e+02,6.88000e+02,1.94000e+02,3.17952e-12,2.86718e-01,3.21982e-12,2.86718e-01,6.31952e-12,2.86718e-01
7.77470e+02,1.04100e+03,6.74000e+02,3.67000e+02,2.30356e-12,2.94263e-01,1.59753e-12,2.94263e-01,3.00785e-12,2.94263e-01
7.77720e+02,9.28000e+02,6.35000e+02,2.93000e+02,2.93113e-12,3.01808e-01,1.33955e-12,3.01808e-01,3.70952e-12,3.01808e-01
7.77971e+02,9.13000e+02,6.80000e+02,2.33000e+02,4.12745e-12,3.09353e-01,2.29277e-12,3.09353e-01,3.61925e-12,3.09353e-01
7.78221e+02,7.13000e+02,7.12000e+02,1.00000e+00,3.10935e-12,3.16898e-01,2.47402e-12,3.16898e-01,1.15379e-12,3.16898e-01
7.78471e+02,6.46000e+02,9.24000e+02,-2.78000e+02,1.53467e-12,3.24444e-01,2.76633e-12,3.24444e-01,1.26522e-12,3.24444e-01
7.78722e+02,6.53000e+02,1.04900e+03,-3.96000e+02,7.68474e-13,3.31989e-01,1.64422e-12,3.31989e-01,9.81129e-13,3.31989e-01
7.78972e+02,6.70000e+02,1.31700e+03,-6.47000e+02,9.38225e-13,3.39534e-01,1.01806e-12,3.39534e-01,1.30758e-12,3.39534e-01
7.79222e+02,7.84000e+02,1.31600e+03,-5.32000e+02,1.45754e-12,3.47079e-01,2.91740e-12,3.47079e-01,3.82616e-12,3.47079e-01
7.79473e+02,1.06800e+03,1.18600e+03,-1.18000e+02,9.77778e-13,3.54624e-01,4.11173e-12,3.54624e-01,4.37410e-12,3.54624e-01
7.79723e+02,1.21700e+03,8.89000e+02,3.28000e+02,3.32729e-12,3.62169e-01,4.02206e-12,3.62169e-01,3.73319e-12,3.62169e-01
7.79973e+02,1.50900e+03,7.55000e+02,7.54000e+02,5.90951e-12,3.69715e-01,2.16082e-12,3.69715e-01,5.27375e-12,3.69715e-01
7.80224e+02,1.41700e+03,6.60000e+02,7.57000e+02,4.69409e-12,3.77260e-01,1.09219e-12,3.77260e-01,3.77942e-12,3.77260e-01
7.80474e+02,1.32500e+03,7.00000e+02,6.25000e+02,8.61484e-13,3.84805e-01,2.12390e-12,3.84805e-01,1.48221e-12,3.84805e-01
7.80724e+02,9.20000e+02,7.31000e+02,1.89000e+02,1.65600e-12,3.92350e-01,1.20224e-12,3.92350e-01,2.76545e-12,3.92350e-01
7.80974e+02,7.23000e+02,1.10200e+03,-3.79000e+02,1.29217e-12,3.99895e-01,3.12095e-12,3.99895e-01,4.38002e-12,3.99895e-01
7.81225e+02,6.62000e+02,1.46700e+03,-8.05000e+02,7.47837e-13,4.07441e-01,4.01944e-12,4.07441e-01,4.73473e-12,4.07441e-01
7.81475e+02,7.12000e+02,1.88600e+03,-1.17400e+03,1.30828e-12,4.14986e-01,4.29088e-12,4.14986e-01,5.10588e-12,4.14986e-01
7.81725e+02,8.62000e+02,1.80200e+03,-9.40000e+02,2.48782e-12,4.22531e-01,3.73088e-12,4.22531e-01,5.50193e-12,4.22531e-01
7.81975e+02,1.32400e+03,1.81100e+03,-4.87000e+02,2.18826e-12,4.30076e-01,4.59392e-12,4.30076e-01,6.41024e-12,4.30076e-01
7.82226e+02,1.68500e+03,1.45900e+03,2.26000e+02,3.15788e-12,4.37621e-01,6.04837e-12,4.37621e-01,6.78236e-12,4.37621e-01
7.82476e+02,1.97800e+03,1.04200e+03,9.36000e+02,5.40027e-12,4.45167e-01,5.49531e-12,4.45167e-01,6.77811e-12,4.45167e-01
7.82726e+02,2.04500e+03,7.50000e+02,1.29500e+03,5.49134e-12,4.52712e-01,4.22573e-12,4.52712e-01,5.84379e-12,4.52712e-01
7.82976e+02,1.83900e+03,7.21000e+02,1.11800e+03,4.79793e-12,4.60257e-01,2.97189e-12,4.60257e-01,4.04037e-12,4.60257e-01
7.83226e+02,1.31500e+03,7.59000e+02,5.56000e+02,5.47542e-12,4.67802e-01,3.10885e-12,4.67802e-01,4.18518e-12,4.67802e-01
7.83477e+02,1.04300e+03,1.23100e+03,-1.88000e+02,5.67096e-12,4.75347e-01,3.46370e-12,4.75347e-01,4.77596e-12,4.75347e-01
7.83727e+02,7.40000e+02,1.62400e+03,-8.84000e+02,4.13140e-12,4.82893e-01,2.04601e-12,4.82893e-01,3.79635e-12,4.82893e-01
7.83977e+02,7.49000e+02,2.14500e+03,-1.39600e+03,2.87539e-12,4.90438e-01,2.59077e-13,4.90438e-01,2.83837e-12,4.90438e-01
7.84227e+02,9.13000e+02,2.33400e+03,-1.42100e+03,2.85585e-12,4.97983e-01,1.37929e-12,4.97983e-01,3.37859e-12,4.97983e-01
7.84477e+02,1.48300e+03,2.42300e+03,-9.40000e+02,2.89352e-12,5.05528e-01,2.72618e-12,5.05528e-01,3.33046e-12,5.05528e-01
7.84727e+02,1.98900e+03,1.91600e+03,7.30000e+01,2.41742e-12,5.13073e-01,2.76283e-12,5.13073e-01,2.86233e-12,5.13073e-01
7.84978e+02,2.68200e+03,1.53100e+03,1.15100e+03,1.12604e-12,5.20619e-01,1.59324e-12,5.20619e-01,2.12372e-12,5.20619e-01
7.85228e+02,3.10700e+03,9.94000e+02,2.11300e+03,7.21398e-13,5.28164e-01,1.76652e-12,5.28164e-01,1.14161e-12,5.28164e-01
7.85478e+02,3.10300e+03,8.06000e+02,2.29700e+03,1.33316e-12,5.35709e-01,1.14442e-12,5.35709e-01,4.80318e-13,5.35709e-01
7.85728e+02,2.54600e+03,8.89000e+02,1.65700e+03,6.49981e-13,5.43254e-01,4.03419e-13,5.43254e-01,1.05191e-12,5.43254e-01
7.85978e+02,1.79500e+03,1.59800e+03,1.97000e+02,2.35971e-13,5.50799e-01,1.29271e-12,5.50799e-01,1.07520e-12,5.50799e-01
7.86228e+02,1.00700e+03,2.35400e+03,-1.34700e+03,7.66835e-13,5.58345e-01,1.99143e-12,5.58345e-01,1.48461e-12,5.58345e-01
7.86478e+02,7.87000e+02,2.92500e+03,-2.13800e+03,1.44042e-12,5.65890e-01,1.91154e-12,5.65890e-01,2.45985e-12,5.65890e-01
7.86728e+02,9.58000e+02,3.30100e+03,-2.34300e+03,2.15366e-12,5.73435e-01,8.93787e-13,5.73435e-01,2.78579e-12,5.73435e-01
7.86978e+02,1.61800e+03,3.11700e+03,-1.49900e+03,2.27616e-12,5.80980e-01,6.05968e-13,5.80980e-01,2.76868e-12,5.80980e-01
7.87228e+02,2.48000e+03,2.81700e+03,-3.37000e+02,1.72306e-12,5.88525e-01,1.56538e-12,5.88525e-01,2.27114e-12,5.88525e-01
7.87478e+02,3.21300e+03,2.17100e+03,1.04200e+03,1.29344e-12,5.96071e-01,2.24360e-12,5.96071e-01,1.63853e-12,5.96071e-01
7.87728e+02,3.66500e+03,1.32600e+03,2.33900e+03,1.39910e-12,6.03616e-01,1.92971e-12,6.03616e-01,6.30918e-13,6.03616e-01
7.87978e+02,3.89300e+03,9.52000e+02,2.94100e+03,1.53904e-12,6.11161e-01,5.78959e-13,6.11161e-01,9.60657e-13,6.11161e-01
7.88228e+02,3.13000e+03,9.26000e+02,2.20400e+03,6.19479e-13,6.18706e-01,8.17153e-13,6.18706e-01,1.30334e-12,6.18706e-01
7.88478e+02,2.39800e+03,1.71000e+03,6.88000e+02,1.29180e-12,6.26251e-01,1.75238e-12,6.26251e-01,5.19439e-13,6.26251e-01
7.88728e+02,1.48200e+03,2.55000e+03,-1.06800e+03,2.03453e-12,6.33797e-01,2.00452e-12,6.33797e-01,2.62315e-13,6.33797e-01
7.88978e+02,9.54000e+02,3.56200e+03,-2.60800e+03,1.67226e-12,6.41342e-01,2.62242e-12,6.41342e-01,1.12148e-12,6.41342e-01
7.89228e+02,1.02300e+03,4.48800e+03,-3.46500e+03,2.28715e-12,6.48887e-01,2.63024e-12,6.48887e-01,2.34082e-12,6.48887e-01
7.89478e+02,1.91300e+03,4.82900e+03,-2.91600e+03,1.99105e-12,6.56432e-01,1.76562e-12,6.56432e-01,1.93226e-12,6.56432e-01
7.89728e+02,3.18300e+03,4.46700e+03,-1.28400e+03,1.27719e-12,6.63977e-01,1.91848e-12,6.63977e-01,2.17872e-12,6.63977e-01
7.89978e+02,4.38800e+03,3.70600e+03,6.82000e+02,1.22045e-12,6.71523e-01,2.18151e-12,6.71523e-01,2.78181e-12,6.71523e-01
7.90228e+02,4.94800e+03,2.33800e+03,2.61000e+03,1.83086e-12,6.79068e-01,2.48391e-12,6.79068e-01,2.66108e-12,6.79068e-01
7.90478e+02,5.04900e+03,1.40800e+03,3.64100e+03,2.36179e-12,6.86613e-01,2.32879e-12,6.86613e-01,2.31513e-12,6.86613e-01
7.90728e+02,4.76200e+03,1.01100e+03,3.75100e+03,2.31092e-12,6.94158e-01,1.51977e-12,6.94158e-01,2.20926e-12,6.94158e-01
7.90978e+02,4.05600e+03,1.61400e+03,2.44200e+03,2.16246e-12,7.01703e-01,1.13072e-12,7.01703e-01,2.18220e-12,7.01703e-01
7.91228e+02,2.64700e+03,2.77300e+03,-1.26000e+02,8.94429e-13,7.09249e-01,1.10412e-12,7.09249e-01,1.55682e-12,7.09249e-01
7.91478e+02,1.53600e+03,4.00500e+03,-2.46900e+03,1.07372e-12,7.16794e-01,1.11528e-12,7.16794e-01,4.02486e-13,7.16794e-01
7.91728e+02,1.02700e+03,4.80200e+03,-3.77500e+03,1.38587e-12,7.24339e-01,9.02604e-13,7.24339e-01,7.55488e-13,7.24339e-01
7.91977e+02,1.55700e+03,5.14000e+03,-3.58300e+03,1.05018e-12,7.31884e-01,3.57476e-13,7.31884e-01,8.13761e-13,7.31884e-01
7.92227e+02,2.57400e+03,4.75000e+03,-2.17600e+03,1.92087e-12,7.39429e-01,1.26780e-12,7.39429e-01,1.22137e-12,7.39429e-01
7.92477e+02,4.50200e+03,4.62100e+03,-1.19000e+02,1.59147e-12,7.46975e-01,1.77658e-12,7.46975e-01,1.52934e-12,7.46975e-01
7.92727e+02,6.33600e+03,3.71700e+03,2.61900e+03,4.35262e-13,7.54520e-01,1.34948e-12,7.54520e-01,1.01287e-12,7.54520e-01
7.92977e+02,6.94300e+03,2.38900e+03,4.55400e+03,7.45710e-13,7.62065e-01,5.15887e-13,7.62065e-01,2.71169e-13,7.62065e-01
7.93227e+02,5.99300e+03,1.25800e+03,4.73500e+03,1.04902e-12,7.69610e-01,2.53635e-13,7.69610e-01,9.18771e-13,7.69610e-01
7.93476e+02,5.08300e+03,1.34500e+03,3.73800e+03,7.85841e-13,7.77155e-01,2.85489e-13,7.77155e-01,8.14795e-13,7.77155e-01
7.93726e+02,3.61600e+03,2.33100e+03,1.28500e+03,7.87665e-13,7.84701e-01,1.08899e-12,7.84701e-01,6.34857e-13,7.84701e-01
7.93976e+02,2.31300e+03,3.88900e+03,-1.57600e+03,1.29675e-12,7.92246e-01,1.37037e-12,7.92246e-01,8.05937e-14,7.92246e-01
7.94226e+02,1.37700e+03,5.50100e+03,-4.12400e+03,1.00235e-12,7.99791e-01,7.39348e-13,7.99791e-01,5.52742e-13,7.99791e-01
7.94476e+02,1.38000e+03,7.36000e+03,-5.98000e+03,8.11355e-13,8.07336e-01,1.86723e-13,8.07336e-01,9.52072e-13,8.07336e-01
7.94725e+02,2.13600e+03,7.01600e+03,-4.88000e+03,7.69239e-13,8.14881e-01,1.13463e-12,8.14881e-01,1.33784e-12,8.14881e-01
7.94975e+02,3.65500e+03,6.49400e+03,-2.83900e+03,3.46506e-13,8.22427e-01,1.86422e-12,8.22427e-01,1.52177e-12,8.22427e-01
7.95225e+02,5.29600e+03,5.32200e+03,-2.60000e+01,1.08144e-12,8.29972e-01,1.72486e-12,8.29972e-01,1.18814e-12,8.29972e-01
7.95475e+02,6.68700e+03,3.66000e+03,3.02700e+03,1.03009e-12,8.37517e-01,1.09457e-12,8.37517e-01,1.02050e-12,8.37517e-01
7.95724e+02,7.23300e+03,2.05300e+03,5.18000e+03,4.65478e-13,8.45062e-01,8.18958e-13,8.45062e-01,3.57512e-13,8.45062e-01
7.95974e+02,7.27200e+03,1.39200e+03,5.88000e+03,1.09428e-12,8.52607e-01,1.08238e-12,8.52607e-01,1.37162e-12,8.52607e-01
7.96224e+02,6.37500e+03,1.56700e+03,4.80800e+03,1.11842e-12,8.60153e-01,9.58519e-13,8.60153e-01,1.44626e-12,8.60153e-01
7.96474e+02,5.02900e+03,2.73000e+03,2.29900e+03,1.09758e-12,8.67698e-01,1.19924e-12,8.67698e-01,1.26643e-12,8.67698e-01
7.96723e+02,2.97600e+03,4.35700e+03,-1.38100e+03,1.13868e-12,8.75243e-01,1.18235e-12,8.75243e-01,6.77114e-13,8.75243e-01
7.96973e+02,1.74900e+03,6.34800e+03,-4.59900e+03,1.05622e-12,8.82788e-01,9.44314e-13,8.82788e-01,2.97683e-13,8.82788e-01
7.97223e+02,1.57200e+03,8.57700e+03,-7.00500e+03,1.16689e-12,8.90333e-01,6.93474e-13,8.90333e-01,6.01546e-13,8.90333e-01
7.97472e+02,2.73600e+03,8.88700e+03,-6.15100e+03,1.31210e-12,8.97879e-01,5.61914e-13,8.97879e-01,7.52386e-13,8.97879e-01
7.97722e+02,5.08800e+03,9.29400e+03,-4.20600e+03,1.40040e-12,9.05424e-01,8.41254e-13,9.05424e-01,8.12768e-13,9.05424e-01
7.97972e+02,8.02000e+03,7.96100e+03,5.90000e+01,1.71839e-12,9.12969e-01,1.14706e-12,9.12969e-01,7.30318e-13,9.12969e-01
7.98221e+02,1.02900e+04,5.28400e+03,5.00600e+03,1.39077e-12,9.20514e-01,8.25390e-13,9.20514e-01,5.65932e-13,9.20514e-01
7.98471e+02,1.10590e+04,3.03500e+03,8.02400e+03,1.37267e-12,9.28059e-01,7.77078e-13,9.28059e-01,6.91257e-13,9.28059e-01
7.98721e+02,1.08620e+04,1.77200e+03,9.09000e+03,1.52788e-12,9.35605e-01,1.19627e-12,9.35605e-01,6.41965e-13,9.35605e-01
7.98970e+02,9.70500e+03,1.97200e+03,7.73300e+03,7.56587e-13,9.43150e-01,1.00460e-12,9.43150e-01,2.48843e-13,9.43150e-01
7.99220e+02,7.13600e+03,3.33100e+03,3.80500e+03,6.89055e-13,9.50695e-01,3.71915e-13,9.50695e-01,4.62655e-13,9.50695e-01
7.99469e+02,4.22800e+03,5.56300e+03,-1.33500e+03,7.67129e-13,9.58240e-01,3.53042e-13,9.58240e-01,4.17033e-13,9.58240e-01
7.99719e+02,2.30400e+03,8.10900e+03,-5.80500e+03,1.02264e-12,9.65785e-01,2.59574e-13,9.65785e-01,8.72038e-13,9.65785e-01
7.99969e+02,1.77900e+03,9.93100e+03,-8.15200e+03,1.27466e-12,9.73331e-01,2.39375e-13,9.73331e-01,1.51095e-12,9.73331e-01
8.00218e+02,2.76400e+03,1.15160e+04,-8.75200e+03,1.10689e-12,9.80876e-01,5.85909e-13,9.80876e-01,1.45028e-12,9.80876e-01
8.00468e+02,5.11500e+03,1.10130e+04,-5.89800e+03,5.41355e-13,9.88421e-01,8.80879e-13,9.88421e-01,7.51003e-13,9.88421e-01
8.00717e+02,8.18800e+03,9.09300e+03,-9.05000e+02,4.77709e-13,9.95966e-01,7.59730e-13,9.95966e-01,3.51938e-13,9.95966e-01
8.00967e+02,1.10430e+04,6.77000e+03,4.27300e+03,2.03538e-13,1.00351e+00,3.08382e-13,1.00351e+00,5.06098e-13,1.00351e+00
8.01216e+02,1.32240e+04,4.18400e+03,9.04000e+03,4.76171e-13,1.01106e+00,4.80071e-13,1.01106e+00,2.81652e-13,1.01106e+00
8.01466e+02,1.37900e+04,2.49800e+03,1.12920e+04,1.60122e-13,1.01860e+00,8.23272e-13,1.01860e+00,7.21263e-13,1.01860e+00
8.01715e+02,1.20050e+04,1.96300e+03,1.00420e+04,1.63838e-13,1.02615e+00,1.09718e-12,1.02615e+00,1.25908e-12,1.02615e+00
8.01965e+02,8.89400e+03,3.26400e+03,5.63000e+03,1.42298e-13,1.03369e+00,3.48877e-13,1.03369e+00,4.75553e-13,1.03369e+00
8.02215e+02,5.86800e+03,5.98400e+03,-1.16000e+02,5.42147e-13,1.04124e+00,4.24244e-13,1.04124e+00,7.46576e-13,1.04124e+00
8.02464e+02,3.18500e+03,9.46100e+03,-6.27600e+03,4.74272e-13,1.04878e+00,9.16078e-13,1.04878e+00,6.81918e-13,1.04878e+00
8.02713e+02,2.04000e+03,1.23320e+04,-1.02920e+04,7.02049e-13,1.05633e+00,7.94251e-13,1.05633e+00,5.26593e-13,1.05633e+00
8.02963e+02,2.88200e+03,1.39000e+04,-1.10180e+04,4.06530e-13,1.06387e+00,3.73110e-13,1.06387e+00,5.21333e-13,1.06387e+00
8.03212e+02,5.52900e+03,1.44920e+04,-8.96300e+03,3.16414e-13,1.07142e+00,6.12705e-13,1.07142e+00,9.10801e-13,1.07142e+00
8.03462e+02,9.61900e+03,1.34570e+04,-3.83800e+03,4.76046e-13,1.07896e+00,5.94677e-13,1.07896e+00,9.88209e-13,1.07896e+00
8.03711e+02,1.26400e+04,1.01880e+04,2.45200e+03,5.00503e-13,1.08651e+00,7.15461e-13,1.08651e+00,2.14964e-13,1.08651e+00
8.03961e+02,1.34930e+04,6.13700e+03,7.35600e+03,5.40301e-13,1.09405e+00,1.09378e-12,1.09405e+00,6.15125e-13,1.09405e+00
8.04210e+02,1.34270e+04,3.13300e+03,1.02940e+04,5.61027e-13,1.10160e+00,9.41210e-13,1.10160e+00,3.81031e-13,1.10160e+00
8.04460e+02,1.23770e+04,1.99600e+03,1.03810e+04,4.29062e-13,1.10914e+00,8.56079e-13,1.10914e+00,5.91551e-13,1.10914e+00
8.04709e+02,1.04160e+04,2.83700e+03,7.57900e+03,6.12716e-13,1.11669e+00,8.52545e-13,1.11669e+00,1.10208e-12,1.11669e+00
8.04958e+02,7.41400e+03,5.25800e+03,2.15600e+03,4.14070e-13,1.12423e+00,7.41675e-13,1.12423e+00,1.09216e-12,1.12423e+00
8.05208e+02,4.23700e+03,8.72300e+03,-4.48600e+03,9.43867e-14,1.13178e+00,3.45979e-13,1.13178e+00,4.28823e-13,1.13178e+00
8.05457e+02,2.31500e+03,1.17600e+04,-9.44500e+03,6.20754e-13,1.13932e+00,7.96350e-13,1.13932e+00,1.06509e-12,1.13932e+00
8.05707e+02,2.32400e+03,1.43120e+04,-1.19880e+04,1.08208e-12,1.14687e+00,5.46237e-13,1.14687e+00,1.20702e-12,1.14687e+00
8.05956e+02,4.48200e+03,1.50440e+04,-1.05620e+04,9.95478e-13,1.15442e+00,8.22615e-14,1.15442e+00,9.76870e-13,1.15442e+00
8.06205e+02,7.62500e+03,1.35740e+04,-5.94900e+03,8.57409e-13,1.16196e+00,4.93898e-13,1.16196e+00,1.11779e-12,1.16196e+00
8.06455e+02,1.12550e+04,1.06420e+04,6.13000e+02,8.16433e-13,1.16951e+00,7.00933e-13,1.16951e+00,1.30787e-12,1.16951e+00
8.06704e+02,1.39950e+04,7.46400e+03,6.53100e+03,3.84646e-13,1.17705e+00,4.10387e-13,1.17705e+00,7.63560e-13,1.17705e+00
8.06953e+02,1.51770e+04,4.38400e+03,1.07930e+04,1.83825e-13,1.18460e+00,9.93760e-14,1.18460e+00,9.31646e-14,1.18460e+00
8.07203e+02,1.38620e+04,2.25300e+03,1.16090e+04,4.48445e-13,1.19214e+00,7.54240e-14,1.19214e+00,5.20524e-13,1.19214e+00
8.07452e+02,1.21250e+04,2.35400e+03,9.77100e+03,7.19208e-13,1.19969e+00,4.73523e-13,1.19969e+00,5.90760e-13,1.19969e+00
8.07701e+02,9.16400e+03,4.37800e+03,4.78600e+03,8.05889e-13,1.20723e+00,6.56308e-13,1.20723e+00,1.78952e-13,1.20723e+00
8.07951e+02,5.67200e+03,7.57400e+03,-1.90200e+03,6.93817e-13,1.21478e+00,4.94783e-13,1.21478e+00,4.33322e-13,1.21478e+00
8.08200e+02,2.92300e+03,1.07040e+04,-7.78100e+03,4.13864e-13,1.22232e+00,1.10768e-13,1.22232e+00,3.50180e-13,1.22232e+00
8.08449e+02,2.30900e+03,1.37010e+04,-1.13920e+04,3.53772e-13,1.22987e+00,4.78783e-13,1.22987e+00,4.28859e-13,1.22987e+00
8.08698e+02,3.88200e+03,1.53500e+04,-1.14680e+04,3.70203e-13,1.23741e+00,5.59279e-13,1.23741e+00,3.44151e-13,1.23741e+00
8.08948e+02,7.34400e+03,1.54420e+04,-8.09800e+03,3.04234e-13,1.24496e+00,2.97843e-13,1.24496e+00,3.42043e-13,1.24496e+00
8.09197e+02,1.19920e+04,1.43070e+04,-2.31500e+03,4.22840e-13,1.25250e+00,6.80475e-13,1.25250e+00,1.10307e-12,1.25250e+00
8.09446e+02,1.46200e+04,1.00960e+04,4.52400e+03,5.30681e-13,1.26005e+00,5.75239e-13,1.26005e+00,1.07201e-12,1.26005e+00
8.09695e+02,1.55700e+04,5.95800e+03,9.61200e+03,6.45461e-13,1.26759e+00,1.56024e-13,1.26759e+00,5.01481e-13,1.26759e+00
8.09945e+02,1.57740e+04,3.29900e+03,1.24750e+04,5.92136e-13,1.27514e+00,4.07632e-13,1.27514e+00,3.77084e-13,1.27514e+00
8.10194e+02,1.54210e+04,2.58500e+03,1.28360e+04,1.81911e-13,1.28268e+00,3.68028e-13,1.28268e+00,4.28502e-13,1.28268e+00
8.10443e+02,1.29460e+04,4.44000e+03,8.50600e+03,3.86726e-14,1.29023e+00,4.73487e-13,1.29023e+00,4.37703e-13,1.29023e+00
8.10692e+02,8.08700e+03,8.38800e+03,-3.01000e+02,1.35567e-13,1.29777e+00,8.94821e-14,1.29777e+00,2.11858e-13,1.29777e+00
8.10941e+02,4.68100e+03,1.28640e+04,-8.18300e+03,6.63121e-13,1.30532e+00,7.82695e-13,1.30532e+00,1.58530e-13,1.30532e+00
8.11191e+02,2.62100e+03,1.47660e+04,-1.21450e+04,3.15963e-13,1.31286e+00,5.32213e-13,1.31286e+00,4.21491e-13,1.31286e+00
8.11440e+02,3.33300e+03,1.56160e+04,-1.22830e+04,1.45655e-12,-1.32041e+00,1.03859e-12,-1.32041e+00,4.17962e-13,-1.32041e+00
8.11689e+02,6.51400e+03,1.57780e+04,-9.26400e+03,3.15963e-13,-1.31286e+00,5.32213e-13,-1.31286e+00,4.21491e-13,-1.31286e+00
8.11938e+02,1.03210e+04,1.53040e+04,-4.98300e+03,6.63121e-13,-1.30532e+00,7.82695e-13,-1.30532e+00,1.58530e-13,-1.30532e+00
8.12187e+02,1.40570e+04,1.26250e+04,1.43200e+03,1.35567e-13,-1.29777e+00,8.94821e-14,-1.29777e+00,2.11858e-13,-1.29777e+00
8.12436e+02,1.52850e+04,7.86600e+03,7.41900e+03,3.86726e-14,-1.29023e+00,4.73487e-13,-1.29023e+00,4.37703e-13,-1.29023e+00
8.12685e+02,1.54240e+04,4.05500e+03,1.13690e+04,1.81911e-13,-1.28268e+00,3.68028e-13,-1.28268e+00,4.28502e-13,-1.28268e+00
8.12935e+02,1.53170e+04,2.62100e+03,1.26960e+04,5.92136e-13,-1.27514e+00,4.07632e-13,-1.27514e+00,3.77084e-13,-1.27514e+00
8.13184e+02,1.35870e+04,3.32100e+03,1.02660e+04,6.45461e-13,-1.26759e+00,1.56024e-13,-1.26759e+00,5.01481e-13,-1.26759e+00
8.13433e+02,9.70800e+03,5.86300e+03,3.84500e+03,5.30681e-13,-1.26005e+00,5.75239e-13,-1.26005e+00,1.07201e-12,-1.26005e+00
8.13682e+02,6.20600e+03,1.05740e+04,-4.36800e+03,4.22840e-13,-1.25250e+00,6.80475e-13,-1.25250e+00,1.10307e-12,-1.25250e+00
8.13931e+02,3.56100e+03,1.47390e+04,-1.11780e+04,3.04234e-13,-1.24496e+00,2.97843e-13,-1.24496e+00,3.42043e-13,-1.24496e+00
8.14180e+02,2.50100e+03,1.53400e+04,-1.28390e+04,3.70203e-13,-1.23741e+00,5.59279e-13,-1.23741e+00,3.44151e-13,-1.23741e+00
8.14429e+02,4.04900e+03,1.55890e+04,-1.15400e+04,3.53772e-13,-1.22987e+00,4.78783e-13,-1.22987e+00,4.28859e-13,-1.22987e+00
8.14678e+02,7.26600e+03,1.53630e+04,-8.09700e+03,4.13864e-13,-1.22232e+00,1.10768e-13,-1.22232e+00,3.50180e-13,-1.22232e+00
8.14927e+02,1.03410e+04,1.25060e+04,-2.16500e+03,6.93817e-13,-1.21478e+00,4.94783e-13,-1.21478e+00,4.33322e-13,-1.21478e+00
8.15176e+02,1.33210e+04,9.19500e+03,4.12600e+03,8.05889e-13,-1.20723e+00,6.56308e-13,-1.20723e+00,1.78952e-13,-1.20723e+00
8.15425e+02,1.44280e+04,5.46700e+03,8.96100e+03,7.19208e-13,-1.19969e+00,4.73523e-13,-1.19969e+00,5.90760e-13,-1.19969e+00
8.15674e+02,1.50240e+04,3.06400e+03,1.19600e+04,4.48445e-13,-1.19214e+00,7.54240e-14,-1.19214e+00,5.20524e-13,-1.19214e+00
8.15923e+02,1.51160e+04,2.48500e+03,1.26310e+04,1.83825e-13,-1.18460e+00,9.93760e-14,-1.18460e+00,9.31646e-14,-1.18460e+00
8.16172e+02,1.25240e+04,3.95200e+03,8.57200e+03,3.84646e-13,-1.17705e+00,4.10387e-13,-1.17705e+00,7.63560e-13,-1.17705e+00
8.16421e+02,7.54900e+03,6.58200e+03,9.67000e+02,8.16433e-13,-1.16951e+00,7.00933e-13,-1.16951e+00,1.30787e-12,-1.16951e+00
8.16670e+02,4.06200e+03,1.02160e+04,-6.15400e+03,8.57409e-13,-1.16196e+00,4.93898e-13,-1.16196e+00,1.11779e-12,-1.16196e+00
8.16919e+02,2.46900e+03,1.37250e+04,-1.12560e+04,9.95478e-13,-1.15442e+00,8.22615e-14,-1.15442e+00,9.76870e-13,-1.15442e+00
8.17168e+02,2.32600e+03,1.44100e+04,-1.20840e+04,1.08208e-12,-1.14687e+00,5.46237e-13,-1.14687e+00,1.20702e-12,-1.14687e+00
8.17417e+02,4.03700e+03,1.41510e+04,-1.01140e+04,6.20754e-13,-1.13932e+00,7.96350e-13,-1.13932e+00,1.06509e-12,-1.13932e+00
8.17666e+02,6.78400e+03,1.34420e+04,-6.65800e+03,9.43867e-14,-1.13178e+00,3.45979e-13,-1.13178e+00,4.28823e-13,-1.13178e+00
8.17915e+02,9.41200e+03,1.07460e+04,-1.33400e+03,4.14070e-13,-1.12423e+00,7.41675e-13,-1.12423e+00,1.09216e-12,-1.12423e+00
8.18164e+02,1.12130e+04,7.30900e+03,3.90400e+03,6.12716e-13,-1.11669e+00,8.52545e-13,-1.11669e+00,1.10208e-12,-1.11669e+00
8.18413e+02,1.22080e+04,4.11900e+03,8.08900e+03,4.29062e-13,-1.10914e+00,8.56079e-13,-1.10914e+00,5.91551e-13,-1.10914e+00
8.18662e+02,1.09840e+04,2.22700e+03,8.75700e+03,5.61027e-13,-1.10160e+00,9.41210e-13,-1.10160e+00,3.81031e-13,-1.10160e+00
8.18911e+02,1.04940e+04,1.88000e+03,8.61400e+03,5.40301e-13,-1.09405e+00,1.09378e-12,-1.09405e+00,6.15125e-13,-1.09405e+00
8.19160e+02,8.31200e+03,2.77400e+03,5.53800e+03,5.00503e-13,-1.08651e+00,7.15461e-13,-1.08651e+00,2.14964e-13,-1.08651e+00
8.19408e+02,5.79200e+03,4.94000e+03,8.52000e+02,4.76046e-13,-1.07896e+00,5.94677e-13,-1.07896e+00,9.88209e-13,-1.07896e+00
8.19657e+02,3.70400e+03,8.93700e+03,-5.23300e+03,3.16414e-13,-1.07142e+00,6.12705e-13,-1.07142e+00,9.10801e-13,-1.07142e+00
8.19906e+02,2.21000e+03,1.24580e+04,-1.02480e+04,4.06530e-13,-1.06387e+00,3.73110e-13,-1.06387e+00,5.21333e-13,-1.06387e+00
8.20155e+02,1.98200e+03,1.41110e+04,-1.21290e+04,7.02049e-13,-1.05633e+00,7.94251e-13,-1.05633e+00,5.26593e-13,-1.05633e+00
8.20404e+02,3.35700e+03,1.33200e+04,-9.96300e+03,4.74272e-13,-1.04878e+00,9.16078e-13,-1.04878e+00,6.81918e-13,-1.04878e+00
8.20653e+02,5.32000e+03,1.11700e+04,-5.85000e+03,5.42147e-13,-1.04124e+00,4.24244e-13,-1.04124e+00,7.46576e-13,-1.04124e+00
8.20901e+02,8.05300e+03,9.22200e+03,-1.16900e+03,1.42298e-13,-1.03369e+00,3.48877e-13,-1.03369e+00,4.75553e-13,-1.03369e+00
8.21150e+02,1.06850e+04,6.89400e+03,3.79100e+03,1.63838e-13,-1.02615e+00,1.09718e-12,-1.02615e+00,1.25908e-12,-1.02615e+00
8.21399e+02,1.00520e+04,3.80000e+03,6.25200e+03,1.60122e-13,-1.01860e+00,8.23272e-13,-1.01860e+00,7.21263e-13,-1.01860e+00
8.21648e+02,1.01200e+04,2.07100e+03,8.04900e+03,4.76171e-13,-1.01106e+00,4.80071e-13,-1.01106e+00,2.81652e-13,-1.01106e+00
8.21897e+02,9.66200e+03,1.67800e+03,7.98400e+03,2.03538e-13,-1.00351e+00,3.08382e-13,-1.00351e+00,5.06098e-13,-1.00351e+00
8.22145e+02,7.39200e+03,2.35200e+03,5.04000e+03,4.77709e-13,-9.95966e-01,7.59730e-13,-9.95966e-01,3.51938e-13,-9.95966e-01
8.22394e+02,5.32200e+03,4.31300e+03,1.00900e+03,5.41355e-13,-9.88421e-01,8.80879e-13,-9.88421e-01,7.51003e-13,-9.88421e-01
8.22643e+02,3.24500e+03,6.51400e+03,-3.26900e+03,1.10689e-12,-9.80876e-01,5.85909e-13,-9.80876e-01,1.45028e-12,-9.80876e-01
8.22892e+02,1.95600e+03,8.10700e+03,-6.15100e+03,1.27466e-12,-9.73331e-01,2.39375e-13,-9.73331e-01,1.51095e-12,-9.73331e-01
8.23140e+02,1.58500e+03,9.66100e+03,-8.07600e+03,1.02264e-12,-9.65785e-01,2.59574e-13,-9.65785e-01,8.72038e-13,-9.65785e-01
8.23389e+02,2.51000e+03,1.04190e+04,-7.90900e+03,7.67129e-13,-9.58240e-01,3.53042e-13,-9.58240e-01,4.17033e-13,-9.58240e-01
8.23638e+02,3.95900e+03,9.52200e+03,-5.56300e+03,6.89055e-13,-9.50695e-01,3.71915e-13,-9.50695e-01,4.62655e-13,-9.50695e-01
8.23887e+02,5.96400e+03,7.64200e+03,-1.67800e+03,7.56587e-13,-9.43150e-01,1.00460e-12,-9.43150e-01,2.48843e-13,-9.43150e-01
8.24135e+02,7.51800e+03,5.16100e+03,2.35700e+03,1.52788e-12,-9.35605e-01,1.19627e-12,-9.35605e-01,6.41965e-13,-9.35605e-01
8.24384e+02,8.90900e+03,3.23800e+03,5.67100e+03,1.37267e-12,-9.28059e-01,7.77078e-13,-9.28059e-01,6.91257e-13,-9.28059e-01
8.24633e+02,9.46400e+03,1.79100e+03,7.67300e+03,1.39077e-12,-9.20514e-01,8.25390e-13,-9.20514e-01,5.65932e-13,-9.20514e-01
8.24881e+02,8.60200e+03,1.43300e+03,7.16900e+03,1.71839e-12,-9.12969e-01,1.14706e-12,-9.12969e-01,7.30318e-13,-9.12969e-01
8.25130e+02,7.46800e+03,2.13000e+03,5.33800e+03,1.40040e-12,-9.05424e-01,8.41254e-13,-9.05424e-01,8.12768e-13,-9.05424e-01
8.25379e+02,5.46600e+03,4.14600e+03,1.32000e+03,1.31210e-12,-8.97879e-01,5.61914e-13,-8.97879e-01,7.52386e-13,-8.97879e-01
8.25627e+02,3.06200e+03,5.63200e+03,-2.57000e+03,1.16689e-12,-8.90333e-01,6.93474e-13,-8.90333e-01,6.01546e-13,-8.90333e-01
8.25876e+02,1.70800e+03,7.29800e+03,-5.59000e+03,1.05622e-12,-8.82788e-01,9.44314e-13,-8.82788e-01,2.97683e-13,-8.82788e-01
8.26125e+02,1.18100e+03,8.03300e+03,-6.85200e+03,1.13868e-12,-8.75243e-01,1.18235e-12,-8.75243e-01,6.77114e-13,-8.75243e-01
8.26373e+02,1.65600e+03,7.31600e+03,-5.66000e+03,1.09758e-12,-8.67698e-01,1.19924e-12,-8.67698e-01,1.26643e-12,-8.67698e-01
8.26622e+02,2.38800e+03,6.37900e+03,-3.99100e+03,1.11842e-12,-8.60153e-01,9.58519e-13,-8.60153e-01,1.44626e-12,-8.60153e-01
8.26870e+02,3.13500e+03,4.63800e+03,-1.50300e+03,1.09428e-12,-8.52607e-01,1.08238e-12,-8.52607e-01,1.37162e-12,-8.52607e-01
8.27119e+02,4.49700e+03,3.46400e+03,1.03300e+03,4.65478e-13,-8.45062e-01,8.18958e-13,-8.45062e-01,3.57512e-13,-8.45062e-01
8.27368e+02,5.91300e+03,2.47400e+03,3.43900e+03,1.03009e-12,-8.37517e-01,1.09457e-12,-8.37517e-01,1.02050e-12,-8.37517e-01
8.27616e+02,5.81900e+03,1.49400e+03,4.32500e+03,1.08144e-12,-8.29972e-01,1.72486e-12,-8.29972e-01,1.18814e-12,-8.29972e-01
8.27865e+02,5.23300e+03,1.08100e+03,4.15200e+03,3.46506e-13,-8.22427e-01,1.86422e-12,-8.22427e-01,1.52177e-12,-8.22427e-01
8.28113e+02,5.12200e+03,1.29800e+03,3.82400e+03,7.69239e-13,-8.14881e-01,1.13463e-12,-8.14881e-01,1.33784e-12,-8.14881e-01
8.28362e+02,4.10200e+03,2.31300e+03,1.78900e+03,8.11355e-13,-8.07336e-01,1.86723e-13,-8.07336e-01,9.52072e-13,-8.07336e-01
8.28610e+02,2.43000e+03,3.25900e+03,-8.29000e+02,1.00235e-12,-7.99791e-01,7.39348e-13,-7.99791e-01,5.52742e-13,-7.99791e-01
8.28859e+02,1.38100e+03,4.25400e+03,-2.87300e+03,1.29675e-12,-7.92246e-01,1.37037e-12,-7.92246e-01,8.05937e-14,-7.92246e-01
8.29108e+02,8.45000e+02,4.81600e+03,-3.97100e+03,7.87665e-13,-7.84701e-01,1.08899e-12,-7.84701e-01,6.34857e-13,-7.84701e-01
8.29356e+02,9.97000e+02,4.57700e+03,-3.58000e+03,7.85841e-13,-7.77155e-01,2.85489e-13,-7.77155e-01,8.14795e-13,-7.77155e-01
8.29605e+02,1.45400e+03,4.10800e+03,-2.65400e+03,1.04902e-12,-7.69610e-01,2.53635e-13,-7.69610e-01,9.18771e-13,-7.69610e-01
8.29853e+02,2.29500e+03,3.36600e+03,-1.07100e+03,7.45710e-13,-7.62065e-01,5.15887e-13,-7.62065e-01,2.71169e-13,-7.62065e-01
8.30101e+02,3.11700e+03,2.57000e+03,5.47000e+02,4.35262e-13,-7.54520e-01,1.34948e-12,-7.54520e-01,1.01287e-12,-7.54520e-01
8.30350e+02,3.68300e+03,1.87300e+03,1.81000e+03,1.59147e-12,-7.46975e-01,1.77658e-12,-7.46975e-01,1.52934e-12,-7.46975e-01
8.30598e+02,3.52200e+03,1.01200e+03,2.51000e+03,1.92087e-12,-7.39429e-01,1.26780e-12,-7.39429e-01,1.22137e-12,-7.39429e-01
8.30847e+02,3.33800e+03,8.03000e+02,2.53500e+03,1.05018e-12,-7.31884e-01,3.57476e-13,-7.31884e-01,8.13761e-13,-7.31884e-01
8.31095e+02,2.92800e+03,8.45000e+02,2.08300e+03,1.38587e-12,-7.24339e-01,9.02604e-13,-7.24339e-01,7.55488e-13,-7.24339e-01
8.31344e+02,2.26300e+03,1.33300e+03,9.30000e+02,1.07372e-12,-7.16794e-01,1.11528e-12,-7.16794e-01,4.02486e-13,-7.16794e-01
8.31592e+02,1.49500e+03,1.81800e+03,-3.23000e+02,8.94429e-13,-7.09249e-01,1.10412e-12,-7.09249e-01,1.55682e-12,-7.09249e-01
8.31841e+02,9.49000e+02,2.31700e+03,-1.36800e+03,2.16246e-12,-7.01703e-01,1.13072e-12,-7.01703e-01,2.18220e-12,-7.01703e-01
8.32089e+02,7.35000e+02,2.83300e+03,-2.09800e+03,2.31092e-12,-6.94158e-01,1.51977e-12,-6.94158e-01,2.20926e-12,-6.94158e-01
8.32337e+02,7.53000e+02,3.15300e+03,-2.40000e+03,2.36179e-12,-6.86613e-01,2.32879e-12,-6.86613e-01,2.31513e-12,-6.86613e-01
8.32586e+02,9.64000e+02,2.74800e+03,-1.78400e+03,1.83086e-12,-6.79068e-01,2.48391e-12,-6.79068e-01,2.66108e-12,-6.79068e-01
8.32834e+02,1.50800e+03,2.54600e+03,-1.03800e+03,1.22045e-12,-6.71523e-01,2.18151e-12,-6.71523e-01,2.78181e-12,-6.71523e-01
8.33083e+02,1.97600e+03,1.87400e+03,1.02000e+02,1.27719e-12,-6.63977e-01,1.91848e-12,-6.63977e-01,2.17872e-12,-6.63977e-01
8.33331e+02,2.20200e+03,1.26800e+03,9.34000e+02,1.99105e-12,-6.56432e-01,1.76562e-12,-6.56432e-01,1.93226e-12,-6.56432e-01
8.33579e+02,2.20200e+03,8.11000e+02,1.39100e+03,2.28715e-12,-6.48887e-01,2.63024e-12,-6.48887e-01,2.34082e-12,-6.48887e-01
8.33828e+02,2.07600e+03,7.04000e+02,1.37200e+03,1.67226e-12,-6.41342e-01,2.62242e-12,-6.41342e-01,1.12148e-12,-6.41342e-01
8.34076e+02,1.68600e+03,6.95000e+02,9.91000e+02,2.03453e-12,-6.33797e-01,2.00452e-12,-6.33797e-01,2.62315e-13,-6.33797e-01
8.34324e+02,1.45300e+03,8.64000e+02,5.89000e+02,1.29180e-12,-6.26251e-01,1.75238e-12,-6.26251e-01,5.19439e-13,-6.26251e-01
8.34573e+02,1.04200e+03,1.09300e+03,-5.10000e+01,6.19479e-13,-6.18706e-01,8.17153e-13,-6.18706e-01,1.30334e-12,-6.18706e-01
8.34821e+02,8.06000e+02,1.38400e+03,-5.78000e+02,1.53904e-12,-6.11161e-01,5.78959e-13,-6.11161e-01,9.60657e-13,-6.11161e-01
8.35069e+02,6.67000e+02,1.62100e+03,-9.54000e+02,1.39910e-12,-6.03616e-01,1.92971e-12,-6.03616e-01,6.30918e-13,-6.03616e-01
8.35318e+02,6.98000e+02,1.82800e+03,-1.13000e+03,1.29344e-12,-5.96071e-01,2.24360e-12,-5.96071e-01,1.63853e-12,-5.96071e-01
8.35566e+02,6.86000e+02,1.65300e+03,-9.67000e+02,1.72306e-12,-5.88525e-01,1.56538e-12,-5.88525e-01,2.27114e-12,-5.88525e-01
8.35814e+02,8.65000e+02,1.44400e+03,-5.79000e+02,2.27616e-12,-5.80980e-01,6.05968e-13,-5.80980e-01,2.76868e-12,-5.80980e-01
8.36062e+02,9.89000e+02,1.10500e+03,-1.16000e+02,2.15366e-12,-5.73435e-01,8.93787e-13,-5.73435e-01,2.78579e-12,-5.73435e-01
8.36311e+02,1.19600e+03,8.76000e+02,3.20000e+02,1.44042e-12,-5.65890e-01,1.91154e-12,-5.65890e-01,2.45985e-12,-5.65890e-01
8.36559e+02,1.32200e+03,7.01000e+02,6.21000e+02,7.66835e-13,-5.58345e-01,1.99143e-12,-5.58345e-01,1.48461e-12,-5.58345e-01
8.36807e+02,1.42500e+03,6.58000e+02,7.67000e+02,2.35971e-13,-5.50799e-01,1.29271e-12,-5.50799e-01,1.07520e-12,-5.50799e-01
8.37055e+02,1.22000e+03,6.41000e+02,5.79000e+02,6.49981e-13,-5.43254e-01,4.03419e-13,-5.43254e-01,1.05191e-12,-5.43254e-01
8.37304e+02,1.02000e+03,6.80000e+02,3.40000e+02,1.33316e-12,-5.35709e-01,1.14442e-12,-5.35709e-01,4.80318e-13,-5.35709e-01
8.37552e+02,8.24000e+02,7.28000e+02,9.60000e+01,7.21398e-13,-5.28164e-01,1.76652e-12,-5.28164e-01,1.14161e-12,-5.28164e-01
8.37800e+02,7.42000e+02,8.76000e+02,-1.34000e+02,1.12604e-12,-5.20619e-01,1.59324e-12,-5.20619e-01,2.12372e-12,-5.20619e-01
8.38048e+02,6.39000e+02,8.67000e+02,-2.28000e+02,2.41742e-12,-5.13073e-01,2.76283e-12,-5.13073e-01,2.86233e-12,-5.13073e-01
8.38296e+02,6.24000e+02,9.23000e+02,-2.99000e+02,2.89352e-12,-5.05528e-01,2.72618e-12,-5.05528e-01,3.33046e-12,-5.05528e-01
8.38545e+02,6.45000e+02,9.37000e+02,-2.92000e+02,2.85585e-12,-4.97983e-01,1.37929e-12,-4.97983e-01,3.37859e-12,-4.97983e-01
8.38793e+02,6.74000e+02,9.03000e+02,-2.29000e+02,2.87539e-12,-4.90438e-01,2.59077e-13,-4.90438e-01,2.83837e-12,-4.90438e-01
8.39041e+02,6.90000e+02,7.65000e+02,-7.50000e+01,4.13140e-12,-4.82893e-01,2.04601e-12,-4.82893e-01,3.79635e-12,-4.82893e-01
8.39289e+02,7.59000e+02,7.11000e+02,4.80000e+01,5.67096e-12,-4.75347e-01,3.46370e-12,-4.75347e-01,4.77596e-12,-4.75347e-01
8.39537e+02,7.70000e+02,6.54000e+02,1.16000e+02,5.47542e-12,-4.67802e-01,3.10885e-12,-4.67802e-01,4.18518e-12,-4.67802e-01
8.39785e+02,8.24000e+02,6.38000e+02,1.86000e+02,4.79793e-12,-4.60257e-01,2.97189e-12,-4.60257e-01,4.04037e-12,-4.60257e-01
8.40033e+02,7.55000e+02,6.26000e+02,1.29000e+02,5.49134e-12,-4.52712e-01,4.22573e-12,-4.52712e-01,5.84379e-12,-4.52712e-01
8.40281e+02,7.72000e+02,6.61000e+02,1.11000e+02,5.40027e-12,-4.45167e-01,5.49531e-12,-4.45167e-01,6.77811e-12,-4.45167e-01
8.40530e+02,6.79000e+02,6.31000e+02,4.80000e+01,3.15788e-12,-4.37621e-01,6.04837e-12,-4.37621e-01,6.78236e-12,-4.37621e-01
8.40778e+02,6.61000e+02,6.56000e+02,5.00000e+00,2.18826e-12,-4.30076e-01,4.59392e-12,-4.30076e-01,6.41024e-12,-4.30076e-01
8.41026e+02,6.33000e+02,6.66000e+02,-3.30000e+01,2.48782e-12,-4.22531e-01,3.73088e-12,-4.22531e-01,5.50193e-12,-4.22531e-01
8.41274e+02,6.36000e+02,6.82000e+02,-4.60000e+01,1.30828e-12,-4.14986e-01,4.29088e-12,-4.14986e-01,5.10588e-12,-4.14986e-01
8.41522e+02,6.30000e+02,6.84000e+02,-5.40000e+01,7.47837e-13,-4.07441e-01,4.01944e-12,-4.07441e-01,4.73473e-12,-4.07441e-01
8.41770e+02,6.28000e+02,6.90000e+02,-6.20000e+01,1.29217e-12,-3.99895e-01,3.12095e-12,-3.99895e-01,4.38002e-12,-3.99895e-01
8.42018e+02,6.29000e+02,6.62000e+02,-3.30000e+01,1.65600e-12,-3.92350e-01,1.20224e-12,-3.92350e-01,2.76545e-12,-3.92350e-01
8.42266e+02,6.61000e+02,6.58000e+02,3.00000e+00,8.61484e-13,-3.84805e-01,2.12390e-12,-3.84805e-01,1.48221e-12,-3.84805e-01
8.42514e+02,6.52000e+02,6.44000e+02,8.00000e+00,4.69409e-12,-3.77260e-01,1.09219e-12,-3.77260e-01,3.77942e-12,-3.77260e-01
8.42762e+02,6.92000e+02,6.67000e+02,2.50000e+01,5.90951e-12,-3.69715e-01,2.16082e-12,-3.69715e-01,5.27375e-12,-3.69715e-01
8.43010e+02,6.44000e+02,6.23000e+02,2.10000e+01,3.32729e-12,-3.62169e-01,4.02206e-12,-3.62169e-01,3.73319e-12,-3.62169e-01
8.43258e+02,6.58000e+02,6.32000e+02,2.60000e+01,9.77778e-13,-3.54624e-01,4.11173e-12,-3.54624e-01,4.37410e-12,-3.54624e-01
8.43506e+02,6.44000e+02,6.32000e+02,1.20000e+01,1.45754e-12,-3.47079e-01,2.91740e-12,-3.47079e-01,3.82616e-12,-3.47079e-01
8.43754e+02,6.50000e+02,6.43000e+02,7.00000e+00,9.38225e-13,-3.39534e-01,1.01806e-12,-3.39534e-01,1.30758e-12,-3.39534e-01
8.44002e+02,6.40000e+02,6.40000e+02,0.00000e+00,7.68474e-13,-3.31989e-01,1.64422e-12,-3.31989e-01,9.81129e-13,-3.31989e-01
8.44250e+02,6.29000e+02,6.47000e+02,-1.80000e+01,1.53467e-12,-3.24444e-01,2.76633e-12,-3.24444e-01,1.26522e-12,-3.24444e-01
8.44498e+02,6.31000e+02,6.36000e+02,-5.00000e+00,3.10935e-12,-3.16898e-01,2.47402e-12,-3.16898e-01,1.15379e-12,-3.16898e-01
8.44746e+02,6.19000e+02,6.38000e+02,-1.90000e+01,4.12745e-12,-3.09353e-01,2.29277e-12,-3.09353e-01,3.61925e-12,-3.09353e-01
8.44994e+02,6.36000e+02,6.41000e+02,-5.00000e+00,2.93113e-12,-3.01808e-01,1.33955e-12,-3.01808e-01,3.70952e-12,-3.01808e-01
8.45242e+02,6.60000e+02,6.61000e+02,-1.00000e+00,2.30356e-12,-2.94263e-01,1.59753e-12,-2.94263e-01,3.00785e-12,-2.94263e-01
8.45490e+02,6.18000e+02,6.17000e+02,1.00000e+00,3.17952e-12,-2.86718e-01,3.21982e-12,-2.86718e-01,6.31952e-12,-2.86718e-01
8.45738e+02,6.42000e+02,6.32000e+02,1.00000e+01,3.15202e-12,-2.79172e-01,1.23302e-12,-2.79172e-01,2.05111e-12,-2.79172e-01
8.45985e+02,6.38000e+02,6.23000e+02,1.50000e+01,2.99628e-12,-2.71627e-01,7.48212e-12,-2.71627e-01,1.04567e-11,-2.71627e-01
8.46233e+02,6.29000e+02,6.24000e+02,5.00000e+00,8.29627e-12,-2.64082e-01,4.35029e-12,-2.64082e-01,1.25919e-11,-2.64082e-01
8.46481e+02,6.37000e+02,6.36000e+02,1.00000e+00,9.80993e-12,-2.56537e-01,9.61668e-12,-2.56537e-01,1.76985e-11,-2.56537e-01
8.46729e+02,6.43000e+02,6.22000e+02,2.10000e+01,3.61052e-11,-2.48992e-01,3.19499e-11,-2.48992e-01,6.13878e-11,-2.48992e-01
8.46977e+02,6.30000e+02,6.30000e+02,0.00000e+00,6.36082e-11,-2.41446e-01,6.76807e-11,-2.41446e-01,1.19195e-10,-2.41446e-01
8.47225e+02,6.34000e+02,6.39000e+02,-5.00000e+00,9.22354e-11,-2.33901e-01,1.01633e-10,-2.33901e-01,1.81670e-10,-2.33901e-01
8.47473e+02,6.16000e+02,6.30000e+02,-1.40000e+01,1.01037e-10,-2.26356e-01,1.05640e-10,-2.26356e-01,1.96866e-10,-2.26356e-01
8.47720e+02,6.49000e+02,6.61000e+02,-1.20000e+01,7.78392e-11,-2.18811e-01,7.58277e-11,-2.18811e-01,1.47548e-10,-2.18811e-01
8.47968e+02,6.09000e+02,6.10000e+02,-1.00000e+00,3.97942e-11,-2.11266e-01,3.60155e-11,-2.11266e-01,7.39214e-11,-2.11266e-01
8.48216e+02,6.25000e+02,6.32000e+02,-7.00000e+00,1.98831e-11,-2.03720e-01,2.02224e-11,-2.03720e-01,3.95035e-11,-2.03720e-01
8.48464e+02,6.26000e+02,6.14000e+02,1.20000e+01,1.22737e-11,-1.96175e-01,1.55780e-11,-1.96175e-01,2.72119e-11,-1.96175e-01
8.48712e+02,6.20000e+02,6.24000e+02,-4.00000e+00,4.70296e-12,-1.88630e-01,8.77547e-12,-1.88630e-01,1.18813e-11,-1.88630e-01
8.48960e+02,6.32000e+02,6.24000e+02,8.00000e+00,2.87640e-12,-1.81085e-01,4.73550e-12,-1.81085e-01,1.90187e-12,-1.81085e-01
8.49207e+02,6.37000e+02,6.35000e+02,2.00000e+00,5.78433e-12,-1.73540e-01,4.91853e-12,-1.73540e-01,1.15649e-12,-1.73540e-01
8.49455e+02,6.38000e+02,6.22000e+02,1.60000e+01,4.85466e-12,-1.65994e-01,3.05357e-12,-1.65994e-01,2.51963e-12,-1.65994e-01
8.49703e+02,6.48000e+02,6.32000e+02,1.60000e+01,2.30762e-12,-1.58449e-01,2.18924e-12,-1.58449e-01,1.60765e-12,-1.58449e-01
8.49951e+02,6.28000e+02,6.27000e+02,1.00000e+00,6.11013e-12,-1.50904e-01,5.10679e-12,-1.50904e-01,1.72512e-12,-1.50904e-01
8.50198e+02,6.61000e+02,6.62000e+02,-1.00000e+00,4.77662e-12,-1.43359e-01,3.64912e-12,-1.43359e-01,2.82518e-12,-1.43359e-01
8.50446e+02,6.09000e+02,6.21000e+02,-1.20000e+01,2.16708e-12,-1.35814e-01,6.80856e-13,-1.35814e-01,1.73134e-12,-1.35814e-01
8.50694e+02,6.24000e+02,6.30000e+02,-6.00000e+00,1.44602e-12,-1.28268e-01,3.16617e-12,-1.28268e-01,1.78703e-12,-1.28268e-01
8.50941e+02,6.30000e+02,6.30000e+02,0.00000e+00,2.86857e-12,-1.20723e-01,4.02727e-12,-1.20723e-01,1.23867e-12,-1.20723e-01
8.51189e+02,6.25000e+02,6.35000e+02,-1.00000e+01,3.52114e-12,-1.13178e-01,2.85560e-12,-1.13178e-01,1.61989e-12,-1.13178e-01
8.51437e+02,6.19000e+02,6.38000e+02,-1.90000e+01,4.36106e-12,-1.05633e-01,1.31233e-12,-1.05633e-01,3.58063e-12,-1.05633e-01
8.51685e+02,6.30000e+02,6.27000e+02,3.00000e+00,3.05587e-12,-9.80876e-02,2.24442e-12,-9.80876e-02,1.35916e-12,-9.80876e-02
8.51932e+02,6.43000e+02,6.15000e+02,2.80000e+01,1.60791e-12,-9.05424e-02,4.60282e-12,-9.05424e-02,5.05261e-12,-9.05424e-02
8.52180e+02,6.25000e+02,6.36000e+02,-1.10000e+01,3.01824e-12,-8.29972e-02,4.34159e-12,-8.29972e-02,7.07569e-12,-8.29972e-02
8.52428e+02,6.08000e+02,6.36000e+02,-2.80000e+01,2.77121e-12,-7.54520e-02,2.49235e-12,-7.54520e-02,4.79655e-12,-7.54520e-02
8.52675e+02,6.63000e+02,6.59000e+02,4.00000e+00,2.75110e-12,-6.79068e-02,4.16396e-12,-6.79068e-02,1.82265e-12,-6.79068e-02
8.52923e+02,6.12000e+02,6.15000e+02,-3.00000e+00,8.07874e-12,-6.03616e-02,6.28068e-12,-6.03616e-02,2.25525e-12,-6.03616e-02
8.53170e+02,6.35000e+02,6.26000e+02,9.00000e+00,1.08503e-11,-5.28164e-02,5.97116e-12,-5.28164e-02,5.60615e-12,-5.28164e-02
8.53418e+02,6.34000e+02,6.30000e+02,4.00000e+00,7.30733e-12,-4.52712e-02,2.90780e-12,-4.52712e-02,5.53341e-12,-4.52712e-02
8.53666e+02,6.15000e+02,6.37000e+02,-2.20000e+01,1.75656e-12,-3.77260e-02,1.48254e-12,-3.77260e-02,3.15521e-12,-3.77260e-02
8.53913e+02,6.41000e+02,6.25000e+02,1.60000e+01,2.20769e-12,-3.01808e-02,4.72989e-13,-3.01808e-02,2.67285e-12,-3.01808e-02
8.54161e+02,6.30000e+02,6.32000e+02,-2.00000e+00,1.31251e-11,-2.26356e-02,1.70732e-11,-2.26356e-02,5.74292e-12,-2.26356e-02
8.54409e+02,6.12000e+02,6.40000e+02,-2.80000e+01,7.87930e-11,-1.50904e-02,8.09933e-11,-1.50904e-02,9.36396e-12,-1.50904e-02
8.54656e+02,6.22000e+02,6.34000e+02,-1.20000e+01,2.27578e-10,-7.54520e-03,2.29809e-10,-7.54520e-03,8.09431e-12,-7.54520e-03
