7.67698e+02,6.29000e+02,6.20000e+02,9.00000e+00,3.95886e-10,0.00000e+00,3.92859e-10,0.00000e+00,3.02702e-12,0.00000e+00
7.67949e+02,6.66000e+02,6.42000e+02,2.40000e+01,2.37643e-10,7.54520e-03,2.34336e-10,7.54520e-03,8.87498e-12,7.54520e-03
7.68199e+02,6.24000e+02,6.23000e+02,1.00000e+00,8.53408e-11,1.50904e-02,8.35649e-11,1.50904e-02,1.09412e-11,1.50904e-02
7.68450e+02,6.30000e+02,6.35000e+02,-5.00000e+00,1.83192e-11,2.26356e-02,2.15717e-11,2.26356e-02,6.56879e-12,2.26356e-02
7.68701e+02,6.24000e+02,6.35000e+02,-1.10000e+01,3.77462e-12,3.01808e-02,4.25651e-12,3.01808e-02,3.04320e-12,3.01808e-02
7.68951e+02,6.26000e+02,6.37000e+02,-1.10000e+01,3.77261e-12,3.77260e-02,3.25044e-12,3.77260e-02,3.62945e-12,3.77260e-02
7.69202e+02,6.33000e+02,6.25000e+02,8.00000e+00,6.30801e-12,4.52712e-02,5.43946e-12,4.52712e-02,3.73071e-12,4.52712e-02
7.69453e+02,6.34000e+02,6.19000e+02,1.50000e+01,8.23521e-12,5.28164e-02,7.45769e-12,5.28164e-02,2.74696e-12,5.28164e-02
7.69703e+02,6.27000e+02,6.54000e+02,-2.70000e+01,7.67613e-12,6.03616e-02,7.40701e-12,6.03616e-02,2.91917e-12,6.03616e-02
7.69954e+02,6.31000e+02,6.57000e+02,-2.60000e+01,4.74501e-12,6.79068e-02,6.67801e-12,6.79068e-02,4.39956e-12,6.79068e-02
7.70205e+02,6.28000e+02,6.21000e+02,7.00000e+00,1.00283e-12,7.54520e-02,4.34718e-12,7.54520e-02,5.16766e-12,7.54520e-02
7.70455e+02,6.79000e+02,6.54000e+02,2.50000e+01,1.04428e-12,8.29972e-02,3.03193e-12,8.29972e-02,4.03833e-12,8.29972e-02
7.70706e+02,6.46000e+02,6.32000e+02,1.40000e+01,2.63289e-12,9.05424e-02,1.39509e-12,9.05424e-02,2.99630e-12,9.05424e-02
7.70957e+02,6.43000e+02,6.54000e+02,-1.10000e+01,4.15341e-12,9.80876e-02,2.53714e-12,9.80876e-02,2.19783e-12,9.80876e-02
7.71207e+02,6.33000e+02,6.52000e+02,-1.90000e+01,3.34140e-12,1.05633e-01,2.16011e-12,1.05633e-01,1.25331e-12,1.05633e-01
7.71458e+02,6.48000e+02,6.32000e+02,1.60000e+01,3.22004e-12,1.13178e-01,1.88685e-12,1.13178e-01,1.34405e-12,1.13178e-01
7.71708e+02,6.68000e+02,6.42000e+02,2.60000e+01,2.63678e-12,1.20723e-01,2.12115e-12,1.20723e-01,1.96651e-12,1.20723e-01
7.71959e+02,6.63000e+02,6.85000e+02,-2.20000e+01,1.07973e-12,1.28268e-01,3.74972e-12,1.28268e-01,3.85141e-12,1.28268e-01
7.72210e+02,6.42000e+02,6.80000e+02,-3.80000e+01,3.69425e-12,1.35814e-01,4.78618e-12,1.35814e-01,3.97068e-12,1.35814e-01
7.72460e+02,6.34000e+02,6.74000e+02,-4.00000e+01,4.68598e-12,1.43359e-01,5.02674e-12,1.43359e-01,1.82694e-12,1.43359e-01
7.72711e+02,6.65000e+02,6.19000e+02,4.60000e+01,3.71310e-12,1.50904e-01,6.57053e-12,1.50904e-01,3.05590e-12,1.50904e-01
7.72961e+02,7.14000e+02,6.84000e+02,3.00000e+01,3.00552e-12,1.58449e-01,3.91494e-12,1.58449e-01,4.32021e-12,1.58449e-01
7.73212e+02,6.43000e+02,6.59000e+02,-1.60000e+01,6.32600e-12,1.65994e-01,3.58291e-12,1.65994e-01,2.76422e-12,1.65994e-01
7.73462e+02,6.41000e+02,7.15000e+02,-7.40000e+01,5.60253e-12,1.73540e-01,6.17454e-12,1.73540e-01,2.09663e-12,1.73540e-01
7.73713e+02,6.41000e+02,6.69000e+02,-2.80000e+01,2.17315e-12,1.81085e-01,5.56141e-12,1.81085e-01,3.86764e-12,1.81085e-01
7.73963e+02,6.78000e+02,6.52000e+02,2.60000e+01,3.67257e-13,1.88630e-01,4.54707e-12,1.88630e-01,4.26765e-12,1.88630e-01
7.74214e+02,7.17000e+02,6.46000e+02,7.10000e+01,5.07369e-13,1.96175e-01,4.23115e-12,1.96175e-01,4.73659e-12,1.96175e-01
7.74465e+02,6.97000e+02,7.17000e+02,-2.00000e+01,4.43542e-13,2.03720e-01,4.48343e-12,2.03720e-01,4.64777e-12,2.03720e-01
7.74715e+02,6.49000e+02,7.14000e+02,-6.50000e+01,1.12669e-12,2.11266e-01,4.02110e-12,2.11266e-01,2.92754e-12,2.11266e-01
7.74965e+02,6.78000e+02,7.05000e+02,-2.70000e+01,1.14888e-12,2.18811e-01,1.54959e-12,2.18811e-01,2.08492e-12,2.18811e-01
7.75216e+02,6.99000e+02,6.47000e+02,5.20000e+01,1.84001e-12,2.26356e-01,2.19479e-12,2.26356e-01,3.50612e-12,2.26356e-01
7.75466e+02,7.82000e+02,7.24000e+02,5.80000e+01,3.14387e-12,2.33901e-01,1.35352e-12,2.33901e-01,2.54342e-12,2.33901e-01
7.75717e+02,6.57000e+02,7.09000e+02,-5.20000e+01,3.59750e-12,2.41446e-01,2.90998e-12,2.41446e-01,7.38131e-13,2.41446e-01
7.75967e+02,6.53000e+02,7.69000e+02,-1.16000e+02,2.64454e-12,2.48992e-01,3.33898e-12,2.48992e-01,1.29939e-12,2.48992e-01
7.76218e+02,6.75000e+02,6.90000e+02,-1.50000e+01,6.00779e-13,2.56537e-01,2.23551e-12,2.56537e-01,2.40408e-12,2.56537e-01
7.76468e+02,8.02000e+02,6.71000e+02,1.31000e+02,5.14348e-13,2.64082e-01,1.27594e-12,2.64082e-01,1.77238e-12,2.64082e-01
7.76719e+02,7.68000e+02,6.95000e+02,7.30000e+01,1.47804e-12,2.71627e-01,1.02474e-12,2.71627e-01,1.36642e-12,2.71627e-01
7.76969e+02,7.07000e+02,8.46000e+02,-1.39000e+02,2.32533e-12,2.79172e-01,2.74881e-12,2.79172e-01,8.68679e-13,2.79172e-01
7.77219e+02,6.60000e+02,7.92000e+02,-1.32000e+02,2.04557e-12,2.86718e-01,3.67318e-12,2.86718e-01,2.21992e-12,2.86718e-01
7.77470e+02,7.49000e+02,7.40000e+02,9.00000e+00,1.52594e-12,2.94263e-01,2.90228e-12,2.94263e-01,3.06712e-12,2.94263e-01
7.77720e+02,8.60000e+02,6.94000e+02,1.66000e+02,1.17160e-12,3.01808e-01,1.30392e-12,3.01808e-01,2.38015e-12,3.01808e-01
7.77971e+02,9.54000e+02,8.43000e+02,1.11000e+02,3.08579e-12,3.09353e-01,2.47981e-12,3.09353e-01,1.68839e-12,3.09353e-01
7.78221e+02,7.33000e+02,9.40000e+02,-2.07000e+02,3.49716e-12,3.16898e-01,3.39121e-12,3.16898e-01,6.77250e-13,3.16898e-01
7.78471e+02,7.11000e+02,9.89000e+02,-2.78000e+02,2.88988e-12,3.24444e-01,3.11717e-12,3.24444e-01,1.89191e-12,3.24444e-01
7.78722e+02,8.02000e+02,7.63000e+02,3.90000e+01,2.53584e-12,3.31989e-01,2.62358e-12,3.31989e-01,3.96961e-12,3.31989e-01
7.78972e+02,1.09000e+03,7.57000e+02,3.33000e+02,1.83213e-12,3.39534e-01,2.61221e-12,3.39534e-01,4.24010e-12,3.39534e-01
7.79222e+02,1.05800e+03,9.83000e+02,7.50000e+01,1.35813e-12,3.47079e-01,1.87897e-12,3.47079e-01,2.76805e-12,3.47079e-01
7.79473e+02,8.65000e+02,1.26200e+03,-3.97000e+02,3.03911e-12,3.54624e-01,1.49828e-12,3.54624e-01,1.54315e-12,3.54624e-01
7.79723e+02,7.66000e+02,1.07600e+03,-3.10000e+02,4.27688e-12,3.62169e-01,2.68754e-12,3.62169e-01,2.73785e-12,3.62169e-01
7.79973e+02,1.06500e+03,8.53000e+02,2.12000e+02,2.72046e-12,3.69715e-01,2.31364e-12,3.69715e-01,1.67228e-12,3.69715e-01
7.80224e+02,1.24400e+03,8.04000e+02,4.40000e+02,5.79009e-13,3.77260e-01,5.11137e-13,3.77260e-01,8.62665e-13,3.77260e-01
7.80474e+02,1.29000e+03,1.22200e+03,6.80000e+01,2.43223e-12,3.84805e-01,1.28170e-12,3.84805e-01,1.26306e-12,3.84805e-01
7.80724e+02,8.77000e+02,1.29000e+03,-4.13000e+02,2.69989e-12,3.92350e-01,1.05344e-12,3.92350e-01,1.71737e-12,3.92350e-01
7.80974e+02,8.96000e+02,1.13000e+03,-2.34000e+02,1.96304e-12,3.99895e-01,2.44137e-13,3.99895e-01,2.10413e-12,3.99895e-01
7.81225e+02,1.22100e+03,8.54000e+02,3.67000e+02,1.06959e-12,4.07441e-01,5.11803e-13,4.07441e-01,1.47331e-12,4.07441e-01
7.81475e+02,1.65900e+03,9.78000e+02,6.81000e+02,2.07628e-12,4.14986e-01,5.70855e-13,4.14986e-01,1.55797e-12,4.14986e-01
7.81725e+02,1.34000e+03,1.33600e+03,4.00000e+00,2.96168e-12,4.22531e-01,3.51043e-13,4.22531e-01,2.70205e-12,4.22531e-01
7.81975e+02,9.76000e+02,1.70400e+03,-7.28000e+02,3.13016e-12,4.30076e-01,5.45619e-13,4.30076e-01,3.67360e-12,4.30076e-01
7.82226e+02,9.65000e+02,1.34700e+03,-3.82000e+02,1.56971e-12,4.37621e-01,1.92952e-12,4.37621e-01,3.17956e-12,4.37621e-01
7.82476e+02,1.45600e+03,9.76000e+02,4.80000e+02,3.71598e-13,4.45167e-01,2.91483e-12,4.45167e-01,2.77507e-12,4.45167e-01
7.82726e+02,1.70700e+03,1.04300e+03,6.64000e+02,9.75868e-13,4.52712e-01,3.48814e-12,4.52712e-01,3.76231e-12,4.52712e-01
7.82976e+02,1.43100e+03,1.65000e+03,-2.19000e+02,2.91733e-12,4.60257e-01,1.81204e-12,4.60257e-01,3.06341e-12,4.60257e-01
7.83226e+02,9.54000e+02,1.64300e+03,-6.89000e+02,3.73788e-12,4.67802e-01,3.72073e-12,4.67802e-01,6.22553e-12,4.67802e-01
7.83477e+02,1.20500e+03,1.39400e+03,-1.89000e+02,2.26306e-12,4.75347e-01,9.67806e-12,4.75347e-01,1.19351e-11,4.75347e-01
7.83727e+02,1.70500e+03,1.02700e+03,6.78000e+02,1.25672e-11,4.82893e-01,1.60206e-11,4.82893e-01,2.58954e-11,4.82893e-01
7.83977e+02,1.92700e+03,1.39400e+03,5.33000e+02,2.90939e-11,4.90438e-01,3.06052e-11,4.90438e-01,5.69477e-11,4.90438e-01
7.84227e+02,1.54000e+03,2.00200e+03,-4.62000e+02,4.35170e-11,4.97983e-01,4.61843e-11,4.97983e-01,8.59882e-11,4.97983e-01
7.84477e+02,1.18000e+03,2.37800e+03,-1.19800e+03,5.35877e-11,5.05528e-01,5.49735e-11,5.05528e-01,1.03911e-10,5.05528e-01
7.84727e+02,1.43800e+03,1.70000e+03,-2.62000e+02,5.45036e-11,5.13073e-01,5.50592e-11,5.13073e-01,1.04947e-10,5.13073e-01
7.84978e+02,2.27200e+03,1.31200e+03,9.60000e+02,4.32361e-11,5.20619e-01,4.22429e-11,5.20619e-01,8.22870e-11,5.20619e-01
7.85228e+02,2.66600e+03,1.70000e+03,9.66000e+02,2.70332e-11,5.28164e-01,2.19174e-11,5.28164e-01,4.72443e-11,5.28164e-01
7.85478e+02,2.07600e+03,2.64500e+03,-5.69000e+02,1.54341e-11,5.35709e-01,1.12018e-11,5.35709e-01,2.42488e-11,5.35709e-01
7.85728e+02,1.37000e+03,2.71700e+03,-1.34700e+03,7.63268e-12,5.43254e-01,6.94291e-12,5.43254e-01,1.32331e-11,5.43254e-01
7.85978e+02,1.78300e+03,1.93700e+03,-1.54000e+02,3.34773e-12,5.50799e-01,2.11845e-12,5.50799e-01,5.12841e-12,5.50799e-01
7.86228e+02,2.51800e+03,1.30200e+03,1.21600e+03,2.20066e-12,5.58345e-01,1.77890e-12,5.58345e-01,3.87021e-12,5.58345e-01
7.86478e+02,2.66700e+03,1.93000e+03,7.37000e+02,2.39386e-12,5.65890e-01,2.79893e-12,5.65890e-01,5.19152e-12,5.65890e-01
7.86728e+02,1.97700e+03,2.67400e+03,-6.97000e+02,2.49893e-12,5.73435e-01,1.54911e-12,5.73435e-01,3.37532e-12,5.73435e-01
7.86978e+02,1.36400e+03,2.75000e+03,-1.38600e+03,3.22705e-12,5.80980e-01,1.52929e-12,5.80980e-01,1.71184e-12,5.80980e-01
7.87228e+02,1.75700e+03,1.96600e+03,-2.09000e+02,3.98140e-12,5.88525e-01,1.50534e-12,5.88525e-01,2.52991e-12,5.88525e-01
7.87478e+02,2.60500e+03,1.44200e+03,1.16300e+03,4.03966e-12,5.96071e-01,1.06957e-12,5.96071e-01,3.42655e-12,5.96071e-01
7.87728e+02,2.70400e+03,1.97300e+03,7.31000e+02,2.79860e-12,6.03616e-01,3.08789e-13,6.03616e-01,2.57454e-12,6.03616e-01
7.87978e+02,2.23000e+03,3.08000e+03,-8.50000e+02,2.03537e-12,6.11161e-01,4.37524e-13,6.11161e-01,1.81291e-12,6.11161e-01
7.88228e+02,1.64900e+03,3.01700e+03,-1.36800e+03,1.71672e-12,6.18706e-01,6.00150e-13,6.18706e-01,2.31647e-12,6.18706e-01
7.88478e+02,2.40600e+03,2.26800e+03,1.38000e+02,1.27660e-12,6.26251e-01,2.58280e-12,6.26251e-01,3.66421e-12,6.26251e-01
7.88728e+02,3.41000e+03,1.66900e+03,1.74100e+03,6.63437e-13,6.33797e-01,3.79102e-12,6.33797e-01,4.21070e-12,6.33797e-01
7.88978e+02,3.46100e+03,2.41500e+03,1.04600e+03,8.28410e-13,6.41342e-01,3.54960e-12,6.41342e-01,2.89902e-12,6.41342e-01
7.89228e+02,2.48900e+03,3.55300e+03,-1.06400e+03,2.18940e-12,6.48887e-01,3.39639e-12,6.48887e-01,2.97237e-12,6.48887e-01
7.89478e+02,1.78500e+03,3.82500e+03,-2.04000e+03,2.67694e-12,6.56432e-01,2.07800e-12,6.56432e-01,3.26259e-12,6.56432e-01
7.89728e+02,2.49200e+03,2.64400e+03,-1.52000e+02,2.44786e-12,6.63977e-01,1.06390e-12,6.63977e-01,2.80598e-12,6.63977e-01
7.89978e+02,4.02300e+03,1.96200e+03,2.06100e+03,1.98296e-12,6.71523e-01,8.07106e-13,6.71523e-01,1.36760e-12,6.71523e-01
7.90228e+02,4.30500e+03,2.69800e+03,1.60700e+03,1.07904e-12,6.79068e-01,1.13372e-12,6.79068e-01,4.20131e-13,6.79068e-01
7.90478e+02,3.30900e+03,4.43600e+03,-1.12700e+03,7.78235e-13,6.86613e-01,3.02121e-13,6.86613e-01,1.03204e-12,6.86613e-01
7.90728e+02,2.24600e+03,4.56800e+03,-2.32200e+03,4.92603e-13,6.94158e-01,1.76244e-12,6.94158e-01,2.13302e-12,6.94158e-01
7.90978e+02,3.06000e+03,3.37800e+03,-3.18000e+02,2.36014e-13,7.01703e-01,2.73502e-12,7.01703e-01,2.65429e-12,7.01703e-01
7.91228e+02,4.67500e+03,2.31300e+03,2.36200e+03,4.61905e-13,7.09249e-01,2.51992e-12,7.09249e-01,2.76104e-12,7.09249e-01
7.91478e+02,4.73200e+03,2.96000e+03,1.77200e+03,6.36391e-13,7.16794e-01,2.06869e-12,7.16794e-01,2.49059e-12,7.16794e-01
7.91728e+02,3.20200e+03,4.09900e+03,-8.97000e+02,1.36709e-12,7.24339e-01,9.66592e-13,7.24339e-01,1.06524e-12,7.24339e-01
7.91977e+02,2.27500e+03,4.22400e+03,-1.94900e+03,1.66877e-12,7.31884e-01,1.20544e-13,7.31884e-01,1.71835e-12,7.31884e-01
7.92227e+02,3.04300e+03,2.78900e+03,2.54000e+02,1.66966e-12,7.39429e-01,1.07252e-12,7.39429e-01,2.71414e-12,7.39429e-01
7.92477e+02,5.15500e+03,2.28400e+03,2.87100e+03,1.14926e-12,7.46975e-01,1.24217e-12,7.46975e-01,2.22005e-12,7.46975e-01
7.92727e+02,5.77100e+03,3.31400e+03,2.45700e+03,1.45380e-12,7.54520e-01,2.98471e-13,7.54520e-01,1.19271e-12,7.54520e-01
7.92977e+02,4.06300e+03,4.98600e+03,-9.23000e+02,1.75888e-12,7.62065e-01,8.67712e-13,7.62065e-01,1.87944e-12,7.62065e-01
7.93227e+02,2.41400e+03,5.06300e+03,-2.64900e+03,1.28551e-12,7.69610e-01,1.66138e-12,7.69610e-01,9.93837e-13,7.69610e-01
7.93476e+02,3.20500e+03,3.53000e+03,-3.25000e+02,9.82326e-13,7.77155e-01,1.72187e-12,7.77155e-01,7.76352e-13,7.77155e-01
7.93726e+02,5.06700e+03,2.34700e+03,2.72000e+03,8.60997e-13,7.84701e-01,9.52661e-13,7.84701e-01,1.52051e-13,7.84701e-01
7.93976e+02,5.50200e+03,3.45600e+03,2.04600e+03,6.75833e-13,7.92246e-01,8.06486e-13,7.92246e-01,1.31571e-13,7.92246e-01
7.94226e+02,3.72400e+03,5.17700e+03,-1.45300e+03,1.12486e-13,7.99791e-01,6.86048e-13,7.99791e-01,7.50674e-13,7.99791e-01
7.94476e+02,2.66500e+03,5.79500e+03,-3.13000e+03,8.46438e-13,8.07336e-01,3.23641e-13,8.07336e-01,1.16836e-12,8.07336e-01
7.94725e+02,3.55700e+03,3.90500e+03,-3.48000e+02,1.21070e-12,8.14881e-01,4.69115e-13,8.14881e-01,9.95292e-13,8.14881e-01
7.94975e+02,5.53100e+03,2.80500e+03,2.72600e+03,1.62273e-12,8.22427e-01,1.37553e-12,8.22427e-01,7.30639e-13,8.22427e-01
7.95225e+02,5.79400e+03,3.60100e+03,2.19300e+03,1.68018e-12,8.29972e-01,1.78270e-12,8.29972e-01,8.81122e-13,8.29972e-01
7.95475e+02,4.32500e+03,5.63300e+03,-1.30800e+03,9.79722e-13,8.37517e-01,1.81681e-12,8.37517e-01,1.34162e-12,8.37517e-01
7.95724e+02,3.02400e+03,5.92000e+03,-2.89600e+03,1.80157e-13,8.45062e-01,1.41140e-12,8.45062e-01,1.50870e-12,8.45062e-01
7.95974e+02,4.01400e+03,4.28000e+03,-2.66000e+02,4.46502e-13,8.52607e-01,1.00621e-12,8.52607e-01,1.33912e-12,8.52607e-01
7.96224e+02,6.29700e+03,3.08900e+03,3.20800e+03,7.36555e-13,8.60153e-01,7.04786e-13,8.60153e-01,1.39208e-12,8.60153e-01
7.96474e+02,7.21500e+03,4.24800e+03,2.96700e+03,7.29923e-13,8.67698e-01,9.89151e-13,8.67698e-01,1.61558e-12,8.67698e-01
7.96723e+02,4.93200e+03,6.28300e+03,-1.35100e+03,9.92957e-13,8.75243e-01,8.96067e-13,8.75243e-01,1.46488e-12,8.75243e-01
7.96973e+02,3.40200e+03,6.75600e+03,-3.35400e+03,9.16424e-13,8.82788e-01,4.57279e-13,8.82788e-01,1.21627e-12,8.82788e-01
7.97223e+02,5.33600e+03,5.29400e+03,4.20000e+01,5.94707e-13,8.90333e-01,7.08038e-13,8.90333e-01,1.25428e-12,8.90333e-01
7.97472e+02,8.13500e+03,3.51300e+03,4.62200e+03,3.33597e-13,8.97879e-01,1.11914e-12,8.97879e-01,1.18537e-12,8.97879e-01
7.97722e+02,9.19800e+03,5.02100e+03,4.17700e+03,2.52574e-13,9.05424e-01,1.42038e-12,9.05424e-01,1.26582e-12,9.05424e-01
7.97972e+02,6.56800e+03,7.68700e+03,-1.11900e+03,2.66598e-13,9.12969e-01,1.81063e-12,9.12969e-01,1.60604e-12,9.12969e-01
7.98221e+02,3.67500e+03,7.91200e+03,-4.23700e+03,4.77610e-13,9.20514e-01,1.39055e-12,9.20514e-01,1.30437e-12,9.20514e-01
7.98471e+02,4.70100e+03,5.20200e+03,-5.01000e+02,7.75326e-13,9.28059e-01,9.90386e-13,9.28059e-01,5.16908e-13,9.28059e-01
7.98721e+02,7.32400e+03,3.58800e+03,3.73600e+03,5.36926e-13,9.35605e-01,8.63591e-13,9.35605e-01,5.07700e-13,9.35605e-01
7.98970e+02,9.02500e+03,5.30900e+03,3.71600e+03,3.38619e-13,9.43150e-01,8.91398e-13,9.43150e-01,5.53733e-13,9.43150e-01
7.99220e+02,6.60300e+03,8.42000e+03,-1.81700e+03,7.11704e-13,9.50695e-01,9.53757e-13,9.50695e-01,2.53364e-13,9.50695e-01
7.99469e+02,4.07100e+03,8.69800e+03,-4.62700e+03,6.70352e-13,9.58240e-01,7.17000e-13,9.58240e-01,6.97005e-13,9.58240e-01
7.99719e+02,5.24000e+03,5.91800e+03,-6.78000e+02,6.88153e-13,9.65785e-01,4.39276e-13,9.65785e-01,1.07229e-12,9.65785e-01
7.99969e+02,8.64300e+03,3.88600e+03,4.75700e+03,1.12115e-12,9.73331e-01,7.22645e-13,9.73331e-01,6.54120e-13,9.73331e-01
8.00218e+02,9.25300e+03,5.27800e+03,3.97500e+03,1.29530e-12,9.80876e-01,1.25881e-12,9.80876e-01,1.07534e-13,9.80876e-01
8.00468e+02,6.52200e+03,8.74300e+03,-2.22100e+03,1.41511e-12,9.88421e-01,1.27135e-12,9.88421e-01,2.34953e-13,9.88421e-01
8.00717e+02,4.33700e+03,9.01400e+03,-4.67700e+03,1.56925e-12,9.95966e-01,1.24019e-12,9.95966e-01,3.52362e-13,9.95966e-01
8.00967e+02,6.09300e+03,6.19200e+03,-9.90000e+01,6.78110e-13,1.00351e+00,9.56135e-13,1.00351e+00,3.00868e-13,1.00351e+00
8.01216e+02,1.05930e+04,4.01900e+03,6.57400e+03,9.48882e-13,1.01106e+00,7.48803e-13,1.01106e+00,1.01813e-12,1.01106e+00
8.01466e+02,1.14170e+04,5.69000e+03,5.72700e+03,1.75954e-12,1.01860e+00,6.61732e-13,1.01860e+00,1.96198e-12,1.01860e+00
8.01715e+02,8.69300e+03,9.69200e+03,-9.99000e+02,1.57444e-12,1.02615e+00,8.51832e-13,1.02615e+00,2.18822e-12,1.02615e+00
8.01965e+02,5.22200e+03,1.07810e+04,-5.55900e+03,1.16397e-12,1.03369e+00,7.43596e-13,1.03369e+00,1.87867e-12,1.03369e+00
8.02215e+02,5.91100e+03,8.26900e+03,-2.35800e+03,7.37026e-13,1.04124e+00,5.32784e-13,1.04124e+00,1.26288e-12,1.04124e+00
8.02464e+02,1.00580e+04,4.83400e+03,5.22400e+03,3.60691e-13,1.04878e+00,3.11441e-13,1.04878e+00,5.96628e-13,1.04878e+00
8.02713e+02,1.11340e+04,5.74000e+03,5.39400e+03,5.92522e-14,1.05633e+00,4.67813e-13,1.05633e+00,4.60221e-13,1.05633e+00
8.02963e+02,7.86700e+03,9.66900e+03,-1.80200e+03,9.17428e-13,1.06387e+00,3.05842e-13,1.06387e+00,7.11296e-13,1.06387e+00
8.03212e+02,5.24800e+03,1.16970e+04,-6.44900e+03,7.92329e-13,1.07142e+00,6.43807e-13,1.07142e+00,7.22320e-13,1.07142e+00
8.03462e+02,6.83600e+03,8.94800e+03,-2.11200e+03,7.55582e-13,1.07896e+00,7.41383e-13,1.07896e+00,3.21709e-13,1.07896e+00
8.03711e+02,1.15170e+04,5.23100e+03,6.28600e+03,8.91224e-13,1.08651e+00,4.14892e-13,1.08651e+00,5.21468e-13,1.08651e+00
8.03961e+02,1.19180e+04,5.77300e+03,6.14500e+03,1.08720e-12,1.09405e+00,3.72469e-13,1.09405e+00,1.20651e-12,1.09405e+00
8.04210e+02,8.40100e+03,9.50100e+03,-1.10000e+03,9.63610e-13,1.10160e+00,6.56787e-13,1.10160e+00,1.49398e-12,1.10160e+00
8.04460e+02,4.97800e+03,1.18690e+04,-6.89100e+03,7.61605e-13,1.10914e+00,6.38459e-13,1.10914e+00,1.30357e-12,1.10914e+00
8.04709e+02,6.25300e+03,9.68200e+03,-3.42900e+03,4.82605e-13,1.11669e+00,5.09516e-13,1.11669e+00,9.02079e-13,1.11669e+00
8.04958e+02,1.01130e+04,5.71400e+03,4.39900e+03,2.13875e-13,1.12423e+00,1.43096e-13,1.12423e+00,2.46717e-13,1.12423e+00
8.05208e+02,1.24990e+04,5.79800e+03,6.70100e+03,4.33784e-13,1.13178e+00,4.45918e-13,1.13178e+00,5.95654e-13,1.13178e+00
8.05457e+02,9.23300e+03,8.95800e+03,2.75000e+02,9.90882e-13,1.13932e+00,7.21625e-13,1.13932e+00,1.00628e-12,1.13932e+00
8.05707e+02,5.85600e+03,1.20020e+04,-6.14600e+03,1.26157e-12,1.14687e+00,7.78024e-13,1.14687e+00,1.07751e-12,1.14687e+00
8.05956e+02,5.73200e+03,1.10780e+04,-5.34600e+03,8.92102e-13,1.15442e+00,5.66304e-13,1.15442e+00,9.61242e-13,1.15442e+00
8.06205e+02,9.15200e+03,6.17300e+03,2.97900e+03,2.37474e-13,1.16196e+00,6.11845e-13,1.16196e+00,7.65954e-13,1.16196e+00
8.06455e+02,1.21560e+04,5.63200e+03,6.52400e+03,4.39280e-13,1.16951e+00,8.54606e-13,1.16951e+00,4.24913e-13,1.16951e+00
8.06704e+02,1.11920e+04,9.40000e+03,1.79200e+03,8.56205e-13,1.17705e+00,6.67752e-13,1.17705e+00,2.95078e-13,1.17705e+00
8.06953e+02,6.80200e+03,1.25100e+04,-5.70800e+03,8.40487e-13,1.18460e+00,3.00700e-13,1.18460e+00,5.46522e-13,1.18460e+00
8.07203e+02,5.02900e+03,1.02250e+04,-5.19600e+03,5.58931e-13,1.19214e+00,3.66154e-13,1.19214e+00,3.21308e-13,1.19214e+00
8.07452e+02,8.74700e+03,6.71600e+03,2.03100e+03,4.16351e-13,1.19969e+00,1.05735e-12,1.19969e+00,7.67211e-13,1.19969e+00
8.07701e+02,1.26170e+04,4.88900e+03,7.72800e+03,4.59667e-13,1.20723e+00,1.68816e-12,1.20723e+00,1.51334e-12,1.20723e+00
8.07951e+02,1.19380e+04,8.01800e+03,3.92000e+03,3.06095e-13,1.21478e+00,1.44472e-12,1.21478e+00,1.20157e-12,1.21478e+00
8.08200e+02,7.53200e+03,1.05420e+04,-3.01000e+03,1.66526e-13,1.22232e+00,7.55078e-13,1.22232e+00,6.63258e-13,1.22232e+00
8.08449e+02,5.40700e+03,1.10800e+04,-5.67300e+03,1.06242e-13,1.22987e+00,2.74333e-13,1.22987e+00,2.60715e-13,1.22987e+00
8.08698e+02,8.64200e+03,7.60700e+03,1.03500e+03,2.38796e-13,1.23741e+00,4.55997e-13,1.23741e+00,2.65048e-13,1.23741e+00
8.08948e+02,1.38580e+04,5.45400e+03,8.40400e+03,3.88258e-13,1.24496e+00,5.35870e-13,1.24496e+00,2.47229e-13,1.24496e+00
8.09197e+02,1.44740e+04,8.56600e+03,5.90800e+03,4.42277e-13,1.25250e+00,4.24218e-13,1.25250e+00,7.55444e-13,1.25250e+00
8.09446e+02,9.25900e+03,1.25500e+04,-3.29100e+03,6.65504e-13,1.26005e+00,2.65339e-13,1.26005e+00,9.25817e-13,1.26005e+00
8.09695e+02,6.06500e+03,1.34920e+04,-7.42700e+03,6.53535e-13,1.26759e+00,4.28848e-13,1.26759e+00,4.81076e-13,1.26759e+00
8.09945e+02,8.97000e+03,9.66700e+03,-6.97000e+02,6.35801e-13,1.27514e+00,1.02721e-12,1.27514e+00,8.60477e-13,1.27514e+00
8.10194e+02,1.34410e+04,6.02000e+03,7.42100e+03,9.26556e-13,1.28268e+00,1.06821e-12,1.28268e+00,1.57455e-12,1.28268e+00
8.10443e+02,1.38870e+04,7.59400e+03,6.29300e+03,8.37032e-13,1.29023e+00,1.03820e-12,1.29023e+00,1.35491e-12,1.29023e+00
8.10692e+02,9.81500e+03,1.24250e+04,-2.61000e+03,4.07584e-13,1.29777e+00,6.61622e-13,1.29777e+00,9.04085e-13,1.29777e+00
8.10941e+02,6.27200e+03,1.39270e+04,-7.65500e+03,8.65868e-13,1.30532e+00,5.45803e-13,1.30532e+00,6.60141e-13,1.30532e+00
8.11191e+02,7.94000e+03,1.00440e+04,-2.10400e+03,4.96138e-13,1.31286e+00,5.47605e-13,1.31286e+00,6.92297e-13,1.31286e+00
8.11440e+02,1.34410e+04,6.27200e+03,7.16900e+03,8.46616e-13,-1.32041e+00,1.67903e-12,-1.32041e+00,8.32417e-13,-1.32041e+00
8.11689e+02,1.53460e+04,7.57000e+03,7.77600e+03,4.96138e-13,-1.31286e+00,5.47605e-13,-1.31286e+00,6.92297e-13,-1.31286e+00
8.11938e+02,1.23220e+04,1.22080e+04,1.14000e+02,8.65868e-13,-1.30532e+00,5.45803e-13,-1.30532e+00,6.60141e-13,-1.30532e+00
8.12187e+02,7.06800e+03,1.46620e+04,-7.59400e+03,4.07584e-13,-1.29777e+00,6.61622e-13,-1.29777e+00,9.04085e-13,-1.29777e+00
8.12436e+02,7.23300e+03,1.25850e+04,-5.35200e+03,8.37032e-13,-1.29023e+00,1.03820e-12,-1.29023e+00,1.35491e-12,-1.29023e+00
8.12685e+02,1.25120e+04,7.27100e+03,5.24100e+03,9.26556e-13,-1.28268e+00,1.06821e-12,-1.28268e+00,1.57455e-12,-1.28268e+00
8.12935e+02,1.46500e+04,6.80000e+03,7.85000e+03,6.35801e-13,-1.27514e+00,1.02721e-12,-1.27514e+00,8.60477e-13,-1.27514e+00
8.13184e+02,1.22730e+04,1.11500e+04,1.12300e+03,6.53535e-13,-1.26759e+00,4.28848e-13,-1.26759e+00,4.81076e-13,-1.26759e+00
8.13433e+02,7.73800e+03,1.47280e+04,-6.99000e+03,6.65504e-13,-1.26005e+00,2.65339e-13,-1.26005e+00,9.25817e-13,-1.26005e+00
8.13682e+02,6.25500e+03,1.35890e+04,-7.33400e+03,4.42277e-13,-1.25250e+00,4.24218e-13,-1.25250e+00,7.55444e-13,-1.25250e+00
8.13931e+02,1.00090e+04,8.75800e+03,1.25100e+03,3.88258e-13,-1.24496e+00,5.35870e-13,-1.24496e+00,2.47229e-13,-1.24496e+00
8.14180e+02,1.30130e+04,5.81900e+03,7.19400e+03,2.38796e-13,-1.23741e+00,4.55997e-13,-1.23741e+00,2.65048e-13,-1.23741e+00
8.14429e+02,1.30340e+04,9.12300e+03,3.91100e+03,1.06242e-13,-1.22987e+00,2.74333e-13,-1.22987e+00,2.60715e-13,-1.22987e+00
8.14678e+02,8.91200e+03,1.38040e+04,-4.89200e+03,1.66526e-13,-1.22232e+00,7.55078e-13,-1.22232e+00,6.63258e-13,-1.22232e+00
8.14927e+02,5.60300e+03,1.30190e+04,-7.41600e+03,3.06095e-13,-1.21478e+00,1.44472e-12,-1.21478e+00,1.20157e-12,-1.21478e+00
8.15176e+02,8.09300e+03,8.89000e+03,-7.97000e+02,4.59667e-13,-1.20723e+00,1.68816e-12,-1.20723e+00,1.51334e-12,-1.20723e+00
8.15425e+02,1.21610e+04,5.52100e+03,6.64000e+03,4.16351e-13,-1.19969e+00,1.05735e-12,-1.19969e+00,7.67211e-13,-1.19969e+00
8.15674e+02,1.35270e+04,8.27500e+03,5.25200e+03,5.58931e-13,-1.19214e+00,3.66154e-13,-1.19214e+00,3.21308e-13,-1.19214e+00
8.15923e+02,9.56000e+03,1.39250e+04,-4.36500e+03,8.40487e-13,-1.18460e+00,3.00700e-13,-1.18460e+00,5.46522e-13,-1.18460e+00
8.16172e+02,6.29300e+03,1.52350e+04,-8.94200e+03,8.56205e-13,-1.17705e+00,6.67752e-13,-1.17705e+00,2.95078e-13,-1.17705e+00
8.16421e+02,7.71500e+03,9.72200e+03,-2.00700e+03,4.39280e-13,-1.16951e+00,8.54606e-13,-1.16951e+00,4.24913e-13,-1.16951e+00
8.16670e+02,1.12500e+04,5.36900e+03,5.88100e+03,2.37474e-13,-1.16196e+00,6.11845e-13,-1.16196e+00,7.65954e-13,-1.16196e+00
8.16919e+02,1.26170e+04,6.88100e+03,5.73600e+03,8.92102e-13,-1.15442e+00,5.66304e-13,-1.15442e+00,9.61242e-13,-1.15442e+00
8.17168e+02,9.23600e+03,1.06380e+04,-1.40200e+03,1.26157e-12,-1.14687e+00,7.78024e-13,-1.14687e+00,1.07751e-12,-1.14687e+00
8.17417e+02,5.38200e+03,1.18060e+04,-6.42400e+03,9.90882e-13,-1.13932e+00,7.21625e-13,-1.13932e+00,1.00628e-12,-1.13932e+00
8.17666e+02,6.04200e+03,9.56100e+03,-3.51900e+03,4.33784e-13,-1.13178e+00,4.45918e-13,-1.13178e+00,5.95654e-13,-1.13178e+00
8.17915e+02,1.01960e+04,5.64500e+03,4.55100e+03,2.13875e-13,-1.12423e+00,1.43096e-13,-1.12423e+00,2.46717e-13,-1.12423e+00
8.18164e+02,1.11760e+04,5.00300e+03,6.17300e+03,4.82605e-13,-1.11669e+00,5.09516e-13,-1.11669e+00,9.02079e-13,-1.11669e+00
8.18413e+02,8.50100e+03,8.02100e+03,4.80000e+02,7.61605e-13,-1.10914e+00,6.38459e-13,-1.10914e+00,1.30357e-12,-1.10914e+00
8.18662e+02,4.98000e+03,1.03590e+04,-5.37900e+03,9.63610e-13,-1.10160e+00,6.56787e-13,-1.10160e+00,1.49398e-12,-1.10160e+00
8.18911e+02,4.33300e+03,9.44300e+03,-5.11000e+03,1.08720e-12,-1.09405e+00,3.72469e-13,-1.09405e+00,1.20651e-12,-1.09405e+00
8.19160e+02,7.01200e+03,5.74000e+03,1.27200e+03,8.91224e-13,-1.08651e+00,4.14892e-13,-1.08651e+00,5.21468e-13,-1.08651e+00
8.19408e+02,9.98600e+03,4.40400e+03,5.58200e+03,7.55582e-13,-1.07896e+00,7.41383e-13,-1.07896e+00,3.21709e-13,-1.07896e+00
8.19657e+02,1.02700e+04,7.96200e+03,2.30800e+03,7.92329e-13,-1.07142e+00,6.43807e-13,-1.07142e+00,7.22320e-13,-1.07142e+00
8.19906e+02,6.48100e+03,1.22580e+04,-5.77700e+03,9.17428e-13,-1.06387e+00,3.05842e-13,-1.06387e+00,7.11296e-13,-1.06387e+00
8.20155e+02,4.49600e+03,1.22080e+04,-7.71200e+03,5.92522e-14,-1.05633e+00,4.67813e-13,-1.05633e+00,4.60221e-13,-1.05633e+00
8.20404e+02,6.81000e+03,7.62700e+03,-8.17000e+02,3.60691e-13,-1.04878e+00,3.11441e-13,-1.04878e+00,5.96628e-13,-1.04878e+00
8.20653e+02,9.68600e+03,4.47600e+03,5.21000e+03,7.37026e-13,-1.04124e+00,5.32784e-13,-1.04124e+00,1.26288e-12,-1.04124e+00
8.20901e+02,9.73800e+03,5.78300e+03,3.95500e+03,1.16397e-12,-1.03369e+00,7.43596e-13,-1.03369e+00,1.87867e-12,-1.03369e+00
8.21150e+02,6.91700e+03,9.50900e+03,-2.59200e+03,1.57444e-12,-1.02615e+00,8.51832e-13,-1.02615e+00,2.18822e-12,-1.02615e+00
8.21399e+02,4.09400e+03,9.28700e+03,-5.19300e+03,1.75954e-12,-1.01860e+00,6.61732e-13,-1.01860e+00,1.96198e-12,-1.01860e+00
8.21648e+02,5.08800e+03,6.73400e+03,-1.64600e+03,9.48882e-13,-1.01106e+00,7.48803e-13,-1.01106e+00,1.01813e-12,-1.01106e+00
8.21897e+02,7.73400e+03,4.20700e+03,3.52700e+03,6.78110e-13,-1.00351e+00,9.56135e-13,-1.00351e+00,3.00868e-13,-1.00351e+00
8.22145e+02,8.02500e+03,3.90100e+03,4.12400e+03,1.56925e-12,-9.95966e-01,1.24019e-12,-9.95966e-01,3.52362e-13,-9.95966e-01
8.22394e+02,6.37700e+03,7.17600e+03,-7.99000e+02,1.41511e-12,-9.88421e-01,1.27135e-12,-9.88421e-01,2.34953e-13,-9.88421e-01
8.22643e+02,3.89700e+03,9.50600e+03,-5.60900e+03,1.29530e-12,-9.80876e-01,1.25881e-12,-9.80876e-01,1.07534e-13,-9.80876e-01
8.22892e+02,3.93600e+03,7.55800e+03,-3.62200e+03,1.12115e-12,-9.73331e-01,7.22645e-13,-9.73331e-01,6.54120e-13,-9.73331e-01
8.23140e+02,6.14300e+03,4.54000e+03,1.60300e+03,6.88153e-13,-9.65785e-01,4.39276e-13,-9.65785e-01,1.07229e-12,-9.65785e-01
8.23389e+02,8.18600e+03,3.85700e+03,4.32900e+03,6.70352e-13,-9.58240e-01,7.17000e-13,-9.58240e-01,6.97005e-13,-9.58240e-01
8.23638e+02,7.34200e+03,6.01200e+03,1.33000e+03,7.11704e-13,-9.50695e-01,9.53757e-13,-9.50695e-01,2.53364e-13,-9.50695e-01
8.23887e+02,4.27700e+03,8.48600e+03,-4.20900e+03,3.38619e-13,-9.43150e-01,8.91398e-13,-9.43150e-01,5.53733e-13,-9.43150e-01
8.24135e+02,3.52500e+03,7.78900e+03,-4.26400e+03,5.36926e-13,-9.35605e-01,8.63591e-13,-9.35605e-01,5.07700e-13,-9.35605e-01
8.24384e+02,5.09600e+03,5.12100e+03,-2.50000e+01,7.75326e-13,-9.28059e-01,9.90386e-13,-9.28059e-01,5.16908e-13,-9.28059e-01
8.24633e+02,7.32800e+03,3.38200e+03,3.94600e+03,4.77610e-13,-9.20514e-01,1.39055e-12,-9.20514e-01,1.30437e-12,-9.20514e-01
8.24881e+02,7.52500e+03,4.70500e+03,2.82000e+03,2.66598e-13,-9.12969e-01,1.81063e-12,-9.12969e-01,1.60604e-12,-9.12969e-01
8.25130e+02,5.07900e+03,7.05400e+03,-1.97500e+03,2.52574e-13,-9.05424e-01,1.42038e-12,-9.05424e-01,1.26582e-12,-9.05424e-01
8.25379e+02,3.24500e+03,7.99000e+03,-4.74500e+03,3.33597e-13,-8.97879e-01,1.11914e-12,-8.97879e-01,1.18537e-12,-8.97879e-01
8.25627e+02,3.75000e+03,5.07800e+03,-1.32800e+03,5.94707e-13,-8.90333e-01,7.08038e-13,-8.90333e-01,1.25428e-12,-8.90333e-01
8.25876e+02,5.66600e+03,2.88800e+03,2.77800e+03,9.16424e-13,-8.82788e-01,4.57279e-13,-8.82788e-01,1.21627e-12,-8.82788e-01
8.26125e+02,6.17900e+03,3.18500e+03,2.99400e+03,9.92957e-13,-8.75243e-01,8.96067e-13,-8.75243e-01,1.46488e-12,-8.75243e-01
8.26373e+02,4.19000e+03,4.56600e+03,-3.76000e+02,7.29923e-13,-8.67698e-01,9.89151e-13,-8.67698e-01,1.61558e-12,-8.67698e-01
8.26622e+02,2.49600e+03,5.03700e+03,-2.54100e+03,7.36555e-13,-8.60153e-01,7.04786e-13,-8.60153e-01,1.39208e-12,-8.60153e-01
8.26870e+02,2.43000e+03,3.94100e+03,-1.51100e+03,4.46502e-13,-8.52607e-01,1.00621e-12,-8.52607e-01,1.33912e-12,-8.52607e-01
8.27119e+02,3.53500e+03,2.64800e+03,8.87000e+02,1.80157e-13,-8.45062e-01,1.41140e-12,-8.45062e-01,1.50870e-12,-8.45062e-01
8.27368e+02,4.66500e+03,2.31400e+03,2.35100e+03,9.79722e-13,-8.37517e-01,1.81681e-12,-8.37517e-01,1.34162e-12,-8.37517e-01
8.27616e+02,3.94000e+03,2.96500e+03,9.75000e+02,1.68018e-12,-8.29972e-01,1.78270e-12,-8.29972e-01,8.81122e-13,-8.29972e-01
8.27865e+02,2.43300e+03,4.26900e+03,-1.83600e+03,1.62273e-12,-8.22427e-01,1.37553e-12,-8.22427e-01,7.30639e-13,-8.22427e-01
8.28113e+02,2.00700e+03,5.10200e+03,-3.09500e+03,1.21070e-12,-8.14881e-01,4.69115e-13,-8.14881e-01,9.95292e-13,-8.14881e-01
8.28362e+02,2.99600e+03,3.60200e+03,-6.06000e+02,8.46438e-13,-8.07336e-01,3.23641e-13,-8.07336e-01,1.16836e-12,-8.07336e-01
8.28610e+02,4.23900e+03,2.09200e+03,2.14700e+03,1.12486e-13,-7.99791e-01,6.86048e-13,-7.99791e-01,7.50674e-13,-7.99791e-01
8.28859e+02,4.11600e+03,2.42500e+03,1.69100e+03,6.75833e-13,-7.92246e-01,8.06486e-13,-7.92246e-01,1.31571e-13,-7.92246e-01
8.29108e+02,2.80500e+03,3.57500e+03,-7.70000e+02,8.60997e-13,-7.84701e-01,9.52661e-13,-7.84701e-01,1.52051e-13,-7.84701e-01
8.29356e+02,1.80300e+03,4.04800e+03,-2.24500e+03,9.82326e-13,-7.77155e-01,1.72187e-12,-7.77155e-01,7.76352e-13,-7.77155e-01
8.29605e+02,1.85400e+03,3.10200e+03,-1.24800e+03,1.28551e-12,-7.69610e-01,1.66138e-12,-7.69610e-01,9.93837e-13,-7.69610e-01
8.29853e+02,2.80500e+03,1.92100e+03,8.84000e+02,1.75888e-12,-7.62065e-01,8.67712e-13,-7.62065e-01,1.87944e-12,-7.62065e-01
8.30101e+02,3.35600e+03,1.68900e+03,1.66700e+03,1.45380e-12,-7.54520e-01,2.98471e-13,-7.54520e-01,1.19271e-12,-7.54520e-01
8.30350e+02,2.85000e+03,2.56800e+03,2.82000e+02,1.14926e-12,-7.46975e-01,1.24217e-12,-7.46975e-01,2.22005e-12,-7.46975e-01
8.30598e+02,1.72400e+03,2.95800e+03,-1.23400e+03,1.66966e-12,-7.39429e-01,1.07252e-12,-7.39429e-01,2.71414e-12,-7.39429e-01
8.30847e+02,1.51200e+03,2.84200e+03,-1.33000e+03,1.66877e-12,-7.31884e-01,1.20544e-13,-7.31884e-01,1.71835e-12,-7.31884e-01
8.31095e+02,2.11800e+03,2.05800e+03,6.00000e+01,1.36709e-12,-7.24339e-01,9.66592e-13,-7.24339e-01,1.06524e-12,-7.24339e-01
8.31344e+02,2.79900e+03,1.48700e+03,1.31200e+03,6.36391e-13,-7.16794e-01,2.06869e-12,-7.16794e-01,2.49059e-12,-7.16794e-01
8.31592e+02,2.59500e+03,1.72500e+03,8.70000e+02,4.61905e-13,-7.09249e-01,2.51992e-12,-7.09249e-01,2.76104e-12,-7.09249e-01
8.31841e+02,1.75200e+03,2.27200e+03,-5.20000e+02,2.36014e-13,-7.01703e-01,2.73502e-12,-7.01703e-01,2.65429e-12,-7.01703e-01
8.32089e+02,1.19000e+03,2.67600e+03,-1.48600e+03,4.92603e-13,-6.94158e-01,1.76244e-12,-6.94158e-01,2.13302e-12,-6.94158e-01
8.32337e+02,1.47600e+03,2.14400e+03,-6.68000e+02,7.78235e-13,-6.86613e-01,3.02121e-13,-6.86613e-01,1.03204e-12,-6.86613e-01
8.32586e+02,1.91000e+03,1.24600e+03,6.64000e+02,1.07904e-12,-6.79068e-01,1.13372e-12,-6.79068e-01,4.20131e-13,-6.79068e-01
8.32834e+02,2.27800e+03,1.20300e+03,1.07500e+03,1.98296e-12,-6.71523e-01,8.07106e-13,-6.71523e-01,1.36760e-12,-6.71523e-01
8.33083e+02,1.69400e+03,1.57900e+03,1.15000e+02,2.44786e-12,-6.63977e-01,1.06390e-12,-6.63977e-01,2.80598e-12,-6.63977e-01
8.33331e+02,1.17500e+03,2.04100e+03,-8.66000e+02,2.67694e-12,-6.56432e-01,2.07800e-12,-6.56432e-01,3.26259e-12,-6.56432e-01
8.33579e+02,1.03500e+03,1.82500e+03,-7.90000e+02,2.18940e-12,-6.48887e-01,3.39639e-12,-6.48887e-01,2.97237e-12,-6.48887e-01
8.33828e+02,1.42400e+03,1.27800e+03,1.46000e+02,8.28410e-13,-6.41342e-01,3.54960e-12,-6.41342e-01,2.89902e-12,-6.41342e-01
8.34076e+02,1.56400e+03,9.18000e+02,6.46000e+02,6.63437e-13,-6.33797e-01,3.79102e-12,-6.33797e-01,4.21070e-12,-6.33797e-01
8.34324e+02,1.53700e+03,1.10200e+03,4.35000e+02,1.27660e-12,-6.26251e-01,2.58280e-12,-6.26251e-01,3.66421e-12,-6.26251e-01
8.34573e+02,1.13500e+03,1.47700e+03,-3.42000e+02,1.71672e-12,-6.18706e-01,6.00150e-13,-6.18706e-01,2.31647e-12,-6.18706e-01
8.34821e+02,8.62000e+02,1.64900e+03,-7.87000e+02,2.03537e-12,-6.11161e-01,4.37524e-13,-6.11161e-01,1.81291e-12,-6.11161e-01
8.35069e+02,8.80000e+02,1.17600e+03,-2.96000e+02,2.79860e-12,-6.03616e-01,3.08789e-13,-6.03616e-01,2.57454e-12,-6.03616e-01
8.35318e+02,1.31800e+03,9.60000e+02,3.58000e+02,4.03966e-12,-5.96071e-01,1.06957e-12,-5.96071e-01,3.42655e-12,-5.96071e-01
8.35566e+02,1.32200e+03,8.08000e+02,5.14000e+02,3.98140e-12,-5.88525e-01,1.50534e-12,-5.88525e-01,2.52991e-12,-5.88525e-01
8.35814e+02,1.10800e+03,1.06200e+03,4.60000e+01,3.22705e-12,-5.80980e-01,1.52929e-12,-5.80980e-01,1.71184e-12,-5.80980e-01
8.36062e+02,7.93000e+02,1.15600e+03,-3.63000e+02,2.49893e-12,-5.73435e-01,1.54911e-12,-5.73435e-01,3.37532e-12,-5.73435e-01
8.36311e+02,7.68000e+02,1.12200e+03,-3.54000e+02,2.39386e-12,-5.65890e-01,2.79893e-12,-5.65890e-01,5.19152e-12,-5.65890e-01
8.36559e+02,8.74000e+02,8.32000e+02,4.20000e+01,2.20066e-12,-5.58345e-01,1.77890e-12,-5.58345e-01,3.87021e-12,-5.58345e-01
8.36807e+02,1.16200e+03,7.30000e+02,4.32000e+02,3.34773e-12,-5.50799e-01,2.11845e-12,-5.50799e-01,5.12841e-12,-5.50799e-01
8.37055e+02,1.10000e+03,7.73000e+02,3.27000e+02,7.63268e-12,-5.43254e-01,6.94291e-12,-5.43254e-01,1.32331e-11,-5.43254e-01
8.37304e+02,8.59000e+02,9.90000e+02,-1.31000e+02,1.54341e-11,-5.35709e-01,1.12018e-11,-5.35709e-01,2.42488e-11,-5.35709e-01
8.37552e+02,7.02000e+02,9.63000e+02,-2.61000e+02,2.70332e-11,-5.28164e-01,2.19174e-11,-5.28164e-01,4.72443e-11,-5.28164e-01
8.37800e+02,7.48000e+02,8.92000e+02,-1.44000e+02,4.32361e-11,-5.20619e-01,4.22429e-11,-5.20619e-01,8.22870e-11,-5.20619e-01
8.38048e+02,7.96000e+02,6.93000e+02,1.03000e+02,5.45036e-11,-5.13073e-01,5.50592e-11,-5.13073e-01,1.04947e-10,-5.13073e-01
8.38296e+02,8.88000e+02,6.69000e+02,2.19000e+02,5.35877e-11,-5.05528e-01,5.49735e-11,-5.05528e-01,1.03911e-10,-5.05528e-01
8.38545e+02,7.94000e+02,7.69000e+02,2.50000e+01,4.35170e-11,-4.97983e-01,4.61843e-11,-4.97983e-01,8.59882e-11,-4.97983e-01
8.38793e+02,6.82000e+02,8.48000e+02,-1.66000e+02,2.90939e-11,-4.90438e-01,3.06052e-11,-4.90438e-01,5.69477e-11,-4.90438e-01
8.39041e+02,6.71000e+02,7.41000e+02,-7.00000e+01,1.25672e-11,-4.82893e-01,1.60206e-11,-4.82893e-01,2.58954e-11,-4.82893e-01
8.39289e+02,6.95000e+02,6.93000e+02,2.00000e+00,2.26306e-12,-4.75347e-01,9.67806e-12,-4.75347e-01,1.19351e-11,-4.75347e-01
8.39537e+02,7.21000e+02,6.47000e+02,7.40000e+01,3.73788e-12,-4.67802e-01,3.72073e-12,-4.67802e-01,6.22553e-12,-4.67802e-01
8.39785e+02,7.38000e+02,6.58000e+02,8.00000e+01,2.91733e-12,-4.60257e-01,1.81204e-12,-4.60257e-01,3.06341e-12,-4.60257e-01
8.40033e+02,6.84000e+02,6.90000e+02,-6.00000e+00,9.75868e-13,-4.52712e-01,3.48814e-12,-4.52712e-01,3.76231e-12,-4.52712e-01
8.40281e+02,6.75000e+02,7.70000e+02,-9.50000e+01,3.71598e-13,-4.45167e-01,2.91483e-12,-4.45167e-01,2.77507e-12,-4.45167e-01
8.40530e+02,6.30000e+02,6.61000e+02,-3.10000e+01,1.56971e-12,-4.37621e-01,1.92952e-12,-4.37621e-01,3.17956e-12,-4.37621e-01
8.40778e+02,6.90000e+02,6.50000e+02,4.00000e+01,3.13016e-12,-4.30076e-01,5.45619e-13,-4.30076e-01,3.67360e-12,-4.30076e-01
8.41026e+02,6.88000e+02,6.40000e+02,4.80000e+01,2.96168e-12,-4.22531e-01,3.51043e-13,-4.22531e-01,2.70205e-12,-4.22531e-01
8.41274e+02,6.81000e+02,6.49000e+02,3.20000e+01,2.07628e-12,-4.14986e-01,5.70855e-13,-4.14986e-01,1.55797e-12,-4.14986e-01
8.41522e+02,6.60000e+02,6.70000e+02,-1.00000e+01,1.06959e-12,-4.07441e-01,5.11803e-13,-4.07441e-01,1.47331e-12,-4.07441e-01
8.41770e+02,6.42000e+02,6.91000e+02,-4.90000e+01,1.96304e-12,-3.99895e-01,2.44137e-13,-3.99895e-01,2.10413e-12,-3.99895e-01
8.42018e+02,6.44000e+02,6.43000e+02,1.00000e+00,2.69989e-12,-3.92350e-01,1.05344e-12,-3.92350e-01,1.71737e-12,-3.92350e-01
8.42266e+02,6.67000e+02,6.43000e+02,2.40000e+01,2.43223e-12,-3.84805e-01,1.28170e-12,-3.84805e-01,1.26306e-12,-3.84805e-01
8.42514e+02,6.55000e+02,6.17000e+02,3.80000e+01,5.79009e-13,-3.77260e-01,5.11137e-13,-3.77260e-01,8.62665e-13,-3.77260e-01
8.42762e+02,6.83000e+02,6.76000e+02,7.00000e+00,2.72046e-12,-3.69715e-01,2.31364e-12,-3.69715e-01,1.67228e-12,-3.69715e-01
8.43010e+02,6.36000e+02,6.30000e+02,6.00000e+00,4.27688e-12,-3.62169e-01,2.68754e-12,-3.62169e-01,2.73785e-12,-3.62169e-01
8.43258e+02,6.36000e+02,6.49000e+02,-1.30000e+01,3.03911e-12,-3.54624e-01,1.49828e-12,-3.54624e-01,1.54315e-12,-3.54624e-01
8.43506e+02,6.48000e+02,6.34000e+02,1.40000e+01,1.35813e-12,-3.47079e-01,1.87897e-12,-3.47079e-01,2.76805e-12,-3.47079e-01
8.43754e+02,6.48000e+02,6.32000e+02,1.60000e+01,1.83213e-12,-3.39534e-01,2.61221e-12,-3.39534e-01,4.24010e-12,-3.39534e-01
8.44002e+02,6.45000e+02,6.28000e+02,1.70000e+01,2.53584e-12,-3.31989e-01,2.62358e-12,-3.31989e-01,3.96961e-12,-3.31989e-01
8.44250e+02,6.35000e+02,6.52000e+02,-1.70000e+01,2.88988e-12,-3.24444e-01,3.11717e-12,-3.24444e-01,1.89191e-12,-3.24444e-01
8.44498e+02,6.44000e+02,6.46000e+02,-2.00000e+00,3.49716e-12,-3.16898e-01,3.39121e-12,-3.16898e-01,6.77250e-13,-3.16898e-01
8.44746e+02,6.43000e+02,6.31000e+02,1.20000e+01,3.08579e-12,-3.09353e-01,2.47981e-12,-3.09353e-01,1.68839e-12,-3.09353e-01
8.44994e+02,6.39000e+02,6.23000e+02,1.60000e+01,1.17160e-12,-3.01808e-01,1.30392e-12,-3.01808e-01,2.38015e-12,-3.01808e-01
8.45242e+02,6.75000e+02,6.63000e+02,1.20000e+01,1.52594e-12,-2.94263e-01,2.90228e-12,-2.94263e-01,3.06712e-12,-2.94263e-01
8.45490e+02,6.36000e+02,6.22000e+02,1.40000e+01,2.04557e-12,-2.86718e-01,3.67318e-12,-2.86718e-01,2.21992e-12,-2.86718e-01
8.45738e+02,6.28000e+02,6.37000e+02,-9.00000e+00,2.32533e-12,-2.79172e-01,2.74881e-12,-2.79172e-01,8.68679e-13,-2.79172e-01
8.45985e+02,6.27000e+02,6.32000e+02,-5.00000e+00,1.47804e-12,-2.71627e-01,1.02474e-12,-2.71627e-01,1.36642e-12,-2.71627e-01
8.46233e+02,6.34000e+02,6.33000e+02,1.00000e+00,5.14348e-13,-2.64082e-01,1.27594e-12,-2.64082e-01,1.77238e-12,-2.64082e-01
8.46481e+02,6.30000e+02,6.32000e+02,-2.00000e+00,6.00779e-13,-2.56537e-01,2.23551e-12,-2.56537e-01,2.40408e-12,-2.56537e-01
8.46729e+02,6.37000e+02,6.23000e+02,1.40000e+01,2.64454e-12,-2.48992e-01,3.33898e-12,-2.48992e-01,1.29939e-12,-2.48992e-01
8.46977e+02,6.27000e+02,6.41000e+02,-1.40000e+01,3.59750e-12,-2.41446e-01,2.90998e-12,-2.41446e-01,7.38131e-13,-2.41446e-01
8.47225e+02,6.26000e+02,6.34000e+02,-8.00000e+00,3.14387e-12,-2.33901e-01,1.35352e-12,-2.33901e-01,2.54342e-12,-2.33901e-01
8.47473e+02,6.27000e+02,6.14000e+02,1.30000e+01,1.84001e-12,-2.26356e-01,2.19479e-12,-2.26356e-01,3.50612e-12,-2.26356e-01
8.47720e+02,6.51000e+02,6.53000e+02,-2.00000e+00,1.14888e-12,-2.18811e-01,1.54959e-12,-2.18811e-01,2.08492e-12,-2.18811e-01
8.47968e+02,6.17000e+02,6.19000e+02,-2.00000e+00,1.12669e-12,-2.11266e-01,4.02110e-12,-2.11266e-01,2.92754e-12,-2.11266e-01
8.48216e+02,6.32000e+02,6.29000e+02,3.00000e+00,4.43542e-13,-2.03720e-01,4.48343e-12,-2.03720e-01,4.64777e-12,-2.03720e-01
8.48464e+02,6.33000e+02,6.36000e+02,-3.00000e+00,5.07369e-13,-1.96175e-01,4.23115e-12,-1.96175e-01,4.73659e-12,-1.96175e-01
8.48712e+02,6.31000e+02,6.27000e+02,4.00000e+00,3.67257e-13,-1.88630e-01,4.54707e-12,-1.88630e-01,4.26765e-12,-1.88630e-01
8.48960e+02,6.36000e+02,6.38000e+02,-2.00000e+00,2.17315e-12,-1.81085e-01,5.56141e-12,-1.81085e-01,3.86764e-12,-1.81085e-01
8.49207e+02,6.32000e+02,6.32000e+02,0.00000e+00,5.60253e-12,-1.73540e-01,6.17454e-12,-1.73540e-01,2.09663e-12,-1.73540e-01
8.49455e+02,6.37000e+02,6.24000e+02,1.30000e+01,6.32600e-12,-1.65994e-01,3.58291e-12,-1.65994e-01,2.76422e-12,-1.65994e-01
8.49703e+02,6.40000e+02,6.33000e+02,7.00000e+00,3.00552e-12,-1.58449e-01,3.91494e-12,-1.58449e-01,4.32021e-12,-1.58449e-01
8.49951e+02,6.21000e+02,6.25000e+02,-4.00000e+00,3.71310e-12,-1.50904e-01,6.57053e-12,-1.50904e-01,3.05590e-12,-1.50904e-01
8.50198e+02,6.55000e+02,6.53000e+02,2.00000e+00,4.68598e-12,-1.43359e-01,5.02674e-12,-1.43359e-01,1.82694e-12,-1.43359e-01
8.50446e+02,6.10000e+02,6.20000e+02,-1.00000e+01,3.69425e-12,-1.35814e-01,4.78618e-12,-1.35814e-01,3.97068e-12,-1.35814e-01
8.50694e+02,6.25000e+02,6.26000e+02,-1.00000e+00,1.07973e-12,-1.28268e-01,3.74972e-12,-1.28268e-01,3.85141e-12,-1.28268e-01
8.50941e+02,6.34000e+02,6.28000e+02,6.00000e+00,2.63678e-12,-1.20723e-01,2.12115e-12,-1.20723e-01,1.96651e-12,-1.20723e-01
8.51189e+02,6.29000e+02,6.36000e+02,-7.00000e+00,3.22004e-12,-1.13178e-01,1.88685e-12,-1.13178e-01,1.34405e-12,-1.13178e-01
8.51437e+02,6.32000e+02,6.25000e+02,7.00000e+00,3.34140e-12,-1.05633e-01,2.16011e-12,-1.05633e-01,1.25331e-12,-1.05633e-01
8.51685e+02,6.41000e+02,6.18000e+02,2.30000e+01,4.15341e-12,-9.80876e-02,2.53714e-12,-9.80876e-02,2.19783e-12,-9.80876e-02
8.51932e+02,6.36000e+02,6.19000e+02,1.70000e+01,2.63289e-12,-9.05424e-02,1.39509e-12,-9.05424e-02,2.99630e-12,-9.05424e-02
8.52180e+02,6.44000e+02,6.27000e+02,1.70000e+01,1.04428e-12,-8.29972e-02,3.03193e-12,-8.29972e-02,4.03833e-12,-8.29972e-02
8.52428e+02,6.21000e+02,6.18000e+02,3.00000e+00,1.00283e-12,-7.54520e-02,4.34718e-12,-7.54520e-02,5.16766e-12,-7.54520e-02
8.52675e+02,6.66000e+02,6.64000e+02,2.00000e+00,4.74501e-12,-6.79068e-02,6.67801e-12,-6.79068e-02,4.39956e-12,-6.79068e-02
8.52923e+02,6.25000e+02,6.16000e+02,9.00000e+00,7.67613e-12,-6.03616e-02,7.40701e-12,-6.03616e-02,2.91917e-12,-6.03616e-02
8.53170e+02,6.35000e+02,6.29000e+02,6.00000e+00,8.23521e-12,-5.28164e-02,7.45769e-12,-5.28164e-02,2.74696e-12,-5.28164e-02
8.53418e+02,6.33000e+02,6.27000e+02,6.00000e+00,6.30801e-12,-4.52712e-02,5.43946e-12,-4.52712e-02,3.73071e-12,-4.52712e-02
8.53666e+02,6.21000e+02,6.31000e+02,-1.00000e+01,3.77261e-12,-3.77260e-02,3.25044e-12,-3.77260e-02,3.62945e-12,-3.77260e-02
8.53913e+02,6.45000e+02,6.31000e+02,1.40000e+01,3.77462e-12,-3.01808e-02,4.25651e-12,-3.01808e-02,3.04320e-12,-3.01808e-02
8.54161e+02,6.29000e+02,6.27000e+02,2.00000e+00,1.83192e-11,-2.26356e-02,2.15717e-11,-2.26356e-02,6.56879e-12,-2.26356e-02
8.54409e+02,6.27000e+02,6.33000e+02,-6.00000e+00,8.53408e-11,-1.50904e-02,8.35649e-11,-1.50904e-02,1.09412e-11,-1.50904e-02
8.54656e+02,6.28000e+02,6.32000e+02,-4.00000e+00,2.37643e-10,-7.54520e-03,2.34336e-10,-7.54520e-03,8.87498e-12,-7.54520e-03
