7.67698e+02,6.14000e+02,6.27000e+02,-1.30000e+01,3.85297e-10,0.00000e+00,3.88194e-10,0.00000e+00,2.89723e-12,0.00000e+00
7.67949e+02,6.51000e+02,6.80000e+02,-2.90000e+01,2.27609e-10,7.54520e-03,2.28703e-10,7.54520e-03,4.45422e-12,7.54520e-03
7.68199e+02,6.02000e+02,6.20000e+02,-1.80000e+01,7.81770e-11,1.50904e-02,7.62935e-11,1.50904e-02,3.57774e-12,1.50904e-02
7.68450e+02,6.21000e+02,6.50000e+02,-2.90000e+01,1.42771e-11,2.26356e-02,1.04717e-11,2.26356e-02,5.21267e-12,2.26356e-02
7.68701e+02,6.24000e+02,6.24000e+02,0.00000e+00,1.15851e-12,3.01808e-02,4.01090e-12,3.01808e-02,4.40543e-12,3.01808e-02
7.68951e+02,6.27000e+02,6.42000e+02,-1.50000e+01,1.04588e-12,3.77260e-02,1.10587e-12,3.77260e-02,1.87632e-12,3.77260e-02
7.69202e+02,6.25000e+02,6.42000e+02,-1.70000e+01,5.10430e-12,4.52712e-02,5.98462e-12,4.52712e-02,2.95630e-12,4.52712e-02
7.69453e+02,6.33000e+02,6.47000e+02,-1.40000e+01,7.56550e-12,5.28164e-02,1.17134e-11,5.28164e-02,4.37744e-12,5.28164e-02
7.69703e+02,6.34000e+02,6.21000e+02,1.30000e+01,6.99563e-12,6.03616e-02,8.79373e-12,6.03616e-02,1.85280e-12,6.03616e-02
7.69954e+02,6.43000e+02,6.12000e+02,3.10000e+01,5.19274e-12,6.79068e-02,4.86456e-12,6.79068e-02,4.08243e-12,6.79068e-02
7.70205e+02,6.44000e+02,6.33000e+02,1.10000e+01,8.06151e-13,7.54520e-02,4.71741e-12,7.54520e-02,4.01382e-12,7.54520e-02
7.70455e+02,6.93000e+02,6.58000e+02,3.50000e+01,2.42506e-12,8.29972e-02,9.81688e-13,8.29972e-02,2.29185e-12,8.29972e-02
7.70706e+02,6.56000e+02,6.12000e+02,4.40000e+01,3.76428e-12,9.05424e-02,4.67068e-12,9.05424e-02,8.34061e-12,9.05424e-02
7.70957e+02,6.78000e+02,6.32000e+02,4.60000e+01,4.10318e-12,9.80876e-02,3.61984e-12,9.80876e-02,7.31778e-12,9.80876e-02
7.71207e+02,6.76000e+02,6.45000e+02,3.10000e+01,1.10976e-11,1.05633e-01,9.52135e-12,1.05633e-01,2.05986e-11,1.05633e-01
7.71458e+02,6.81000e+02,6.49000e+02,3.20000e+01,3.27513e-11,1.13178e-01,4.06585e-11,1.13178e-01,7.28871e-11,1.13178e-01
7.71708e+02,6.62000e+02,6.66000e+02,-4.00000e+00,9.68244e-11,1.20723e-01,1.07141e-10,1.20723e-01,2.01690e-10,1.20723e-01
7.71959e+02,6.56000e+02,6.80000e+02,-2.40000e+01,1.31001e-10,1.28268e-01,1.34439e-10,1.28268e-01,2.62759e-10,1.28268e-01
7.72210e+02,6.34000e+02,6.98000e+02,-6.40000e+01,8.62962e-11,1.35814e-01,8.14343e-11,1.35814e-01,1.66251e-10,1.35814e-01
7.72460e+02,6.33000e+02,7.26000e+02,-9.30000e+01,2.77630e-11,1.43359e-01,1.67844e-11,1.43359e-01,4.38811e-11,1.43359e-01
7.72711e+02,6.44000e+02,7.28000e+02,-8.40000e+01,4.28824e-12,1.50904e-01,1.01532e-11,1.50904e-01,6.35348e-12,1.50904e-01
7.72961e+02,6.61000e+02,7.98000e+02,-1.37000e+02,3.77668e-12,1.58449e-01,1.14609e-11,1.58449e-01,1.46853e-11,1.58449e-01
7.73212e+02,6.13000e+02,7.30000e+02,-1.17000e+02,7.32983e-12,1.65994e-01,3.40624e-12,1.65994e-01,1.06118e-11,1.65994e-01
7.73462e+02,6.45000e+02,7.46000e+02,-1.01000e+02,6.98201e-12,1.73540e-01,6.33632e-12,1.73540e-01,8.26269e-12,1.73540e-01
7.73713e+02,6.28000e+02,6.97000e+02,-6.90000e+01,3.67492e-12,1.81085e-01,9.51056e-12,1.81085e-01,9.74885e-12,1.81085e-01
7.73963e+02,6.37000e+02,6.93000e+02,-5.60000e+01,1.79088e-12,1.88630e-01,6.85081e-12,1.88630e-01,6.37040e-12,1.88630e-01
7.74214e+02,6.42000e+02,6.90000e+02,-4.80000e+01,1.37967e-12,1.96175e-01,3.08978e-12,1.96175e-01,1.95833e-12,1.96175e-01
7.74465e+02,6.60000e+02,6.85000e+02,-2.50000e+01,3.34899e-12,2.03720e-01,2.32455e-12,2.03720e-01,3.59339e-12,2.03720e-01
7.74715e+02,6.85000e+02,6.40000e+02,4.50000e+01,5.10844e-12,2.11266e-01,2.86241e-12,2.11266e-01,3.58941e-12,2.11266e-01
7.74965e+02,7.27000e+02,6.37000e+02,9.00000e+01,4.42908e-12,2.18811e-01,3.09413e-12,2.18811e-01,2.18365e-12,2.18811e-01
7.75216e+02,7.26000e+02,6.12000e+02,1.14000e+02,3.93383e-12,2.26356e-01,2.85224e-12,2.26356e-01,2.31871e-12,2.26356e-01
7.75466e+02,8.48000e+02,6.56000e+02,1.92000e+02,2.30827e-12,2.33901e-01,5.80021e-13,2.33901e-01,1.72825e-12,2.33901e-01
7.75717e+02,7.87000e+02,6.10000e+02,1.77000e+02,1.37376e-12,2.41446e-01,8.86341e-13,2.41446e-01,2.25379e-12,2.41446e-01
7.75967e+02,8.44000e+02,6.42000e+02,2.02000e+02,3.23217e-12,2.48992e-01,2.43494e-12,2.48992e-01,4.19364e-12,2.48992e-01
7.76218e+02,8.44000e+02,6.43000e+02,2.01000e+02,7.24590e-12,2.56537e-01,4.57948e-12,2.56537e-01,7.03664e-12,2.56537e-01
7.76468e+02,8.80000e+02,6.61000e+02,2.19000e+02,8.40639e-12,2.64082e-01,5.97212e-12,2.64082e-01,5.93261e-12,2.64082e-01
7.76719e+02,8.29000e+02,6.73000e+02,1.56000e+02,4.08215e-12,2.71627e-01,7.09455e-12,2.71627e-01,4.30880e-12,2.71627e-01
7.76969e+02,8.28000e+02,7.26000e+02,1.02000e+02,1.87477e-12,2.79172e-01,7.11967e-12,2.79172e-01,8.65655e-12,2.79172e-01
7.77219e+02,7.76000e+02,7.94000e+02,-1.80000e+01,1.15441e-12,2.86718e-01,4.30747e-12,2.86718e-01,5.31818e-12,2.86718e-01
7.77470e+02,7.80000e+02,1.02800e+03,-2.48000e+02,1.75713e-12,2.94263e-01,1.74752e-13,2.94263e-01,1.91587e-12,2.94263e-01
7.77720e+02,7.07000e+02,1.05700e+03,-3.50000e+02,2.03174e-12,3.01808e-01,3.61426e-12,3.01808e-01,5.62444e-12,3.01808e-01
7.77971e+02,7.13000e+02,1.23000e+03,-5.17000e+02,8.75842e-13,3.09353e-01,5.55575e-12,3.09353e-01,5.44499e-12,3.09353e-01
7.78221e+02,6.33000e+02,1.16900e+03,-5.36000e+02,1.71835e-12,3.16898e-01,4.49548e-12,3.16898e-01,2.85959e-12,3.16898e-01
7.78471e+02,6.50000e+02,1.19200e+03,-5.42000e+02,1.94526e-12,3.24444e-01,2.56882e-12,3.24444e-01,1.08181e-12,3.24444e-01
7.78722e+02,6.43000e+02,1.11200e+03,-4.69000e+02,7.59304e-13,3.31989e-01,1.36760e-12,3.31989e-01,6.47026e-13,3.31989e-01
7.78972e+02,6.55000e+02,1.16700e+03,-5.12000e+02,3.88559e-13,3.39534e-01,1.56481e-12,3.39534e-01,1.59008e-12,3.39534e-01
7.79222e+02,6.62000e+02,1.14000e+03,-4.78000e+02,1.33632e-13,3.47079e-01,2.62259e-12,3.47079e-01,2.60628e-12,3.47079e-01
7.79473e+02,7.68000e+02,1.04100e+03,-2.73000e+02,1.27161e-12,3.54624e-01,3.79040e-12,3.54624e-01,4.42035e-12,3.54624e-01
7.79723e+02,8.33000e+02,8.65000e+02,-3.20000e+01,2.97120e-12,3.62169e-01,3.24332e-12,3.62169e-01,2.30063e-12,3.62169e-01
7.79973e+02,1.08300e+03,7.84000e+02,2.99000e+02,3.60735e-12,3.69715e-01,1.40722e-12,3.69715e-01,2.25178e-12,3.69715e-01
7.80224e+02,1.17500e+03,6.81000e+02,4.94000e+02,1.67538e-12,3.77260e-01,8.49267e-13,3.77260e-01,2.45666e-12,3.77260e-01
7.80474e+02,1.43800e+03,7.07000e+02,7.31000e+02,2.72664e-12,3.84805e-01,2.93369e-12,3.84805e-01,4.00917e-12,3.84805e-01
7.80724e+02,1.37000e+03,6.19000e+02,7.51000e+02,4.75122e-12,3.92350e-01,2.64886e-12,3.92350e-01,6.13146e-12,3.92350e-01
7.80974e+02,1.57100e+03,6.52000e+02,9.19000e+02,4.60020e-12,3.99895e-01,2.76384e-12,3.99895e-01,7.28175e-12,3.99895e-01
7.81225e+02,1.76800e+03,6.70000e+02,1.09800e+03,3.01688e-12,4.07441e-01,2.88379e-12,4.07441e-01,5.88903e-12,4.07441e-01
7.81475e+02,1.93800e+03,7.83000e+02,1.15500e+03,1.67704e-12,4.14986e-01,1.70223e-12,4.14986e-01,3.12544e-12,4.14986e-01
7.81725e+02,1.72100e+03,9.18000e+02,8.03000e+02,1.59610e-12,4.22531e-01,9.36001e-13,4.22531e-01,1.10049e-12,4.22531e-01
7.81975e+02,1.69900e+03,1.21300e+03,4.86000e+02,1.00331e-12,4.30076e-01,1.77103e-12,4.30076e-01,1.04147e-12,4.30076e-01
7.82226e+02,1.48000e+03,1.42900e+03,5.10000e+01,3.51816e-13,4.37621e-01,2.32326e-12,4.37621e-01,1.98465e-12,4.37621e-01
7.82476e+02,1.27800e+03,1.68300e+03,-4.05000e+02,8.05016e-13,4.45167e-01,2.42617e-12,4.45167e-01,1.82757e-12,4.45167e-01
7.82726e+02,1.02300e+03,1.87000e+03,-8.47000e+02,1.14692e-12,4.52712e-01,1.91928e-12,4.52712e-01,1.30135e-12,4.52712e-01
7.82976e+02,8.99000e+02,1.96900e+03,-1.07000e+03,1.11444e-12,4.60257e-01,1.85513e-12,4.60257e-01,9.47484e-13,4.60257e-01
7.83226e+02,6.93000e+02,1.91600e+03,-1.22300e+03,7.30657e-13,4.67802e-01,2.51625e-12,4.67802e-01,2.23155e-12,4.67802e-01
7.83477e+02,6.82000e+02,2.15500e+03,-1.47300e+03,1.14562e-12,4.75347e-01,3.22814e-12,4.75347e-01,2.76231e-12,4.75347e-01
7.83727e+02,6.73000e+02,2.04900e+03,-1.37600e+03,5.20021e-13,4.82893e-01,3.23685e-12,4.82893e-01,2.88499e-12,4.82893e-01
7.83977e+02,7.02000e+02,2.16200e+03,-1.46000e+03,1.67656e-12,4.90438e-01,2.38021e-12,4.90438e-01,2.89029e-12,4.90438e-01
7.84227e+02,7.84000e+02,2.08300e+03,-1.29900e+03,1.43550e-12,4.97983e-01,4.43965e-13,4.97983e-01,1.00958e-12,4.97983e-01
7.84477e+02,1.07600e+03,2.01800e+03,-9.42000e+02,9.53260e-14,5.05528e-01,2.34160e-12,5.05528e-01,2.35363e-12,5.05528e-01
7.84727e+02,1.29400e+03,1.58500e+03,-2.91000e+02,1.03143e-12,5.13073e-01,3.08571e-12,5.13073e-01,3.96730e-12,5.13073e-01
7.84978e+02,1.81000e+03,1.41200e+03,3.98000e+02,7.11003e-13,5.20619e-01,2.55319e-12,5.20619e-01,3.06655e-12,5.20619e-01
7.85228e+02,2.32200e+03,1.07000e+03,1.25200e+03,1.62962e-12,5.28164e-01,2.66089e-12,5.28164e-01,1.09938e-12,5.28164e-01
7.85478e+02,2.95300e+03,9.04000e+02,2.04900e+03,1.86815e-12,5.35709e-01,2.86045e-12,5.35709e-01,1.05935e-12,5.35709e-01
7.85728e+02,3.40100e+03,7.08000e+02,2.69300e+03,1.04635e-12,5.43254e-01,1.86283e-12,5.43254e-01,8.25613e-13,5.43254e-01
7.85978e+02,3.69200e+03,7.20000e+02,2.97200e+03,2.48846e-13,5.50799e-01,6.47597e-13,5.50799e-01,8.56899e-13,5.50799e-01
7.86228e+02,3.65600e+03,7.67000e+02,2.88900e+03,7.14483e-13,5.58345e-01,3.02242e-13,5.58345e-01,4.16790e-13,5.58345e-01
7.86478e+02,3.60800e+03,9.78000e+02,2.63000e+03,4.51963e-13,5.65890e-01,9.12770e-13,5.65890e-01,5.59833e-13,5.65890e-01
7.86728e+02,3.46100e+03,1.29800e+03,2.16300e+03,8.45452e-13,5.73435e-01,7.99682e-13,5.73435e-01,5.21115e-13,5.73435e-01
7.86978e+02,3.27200e+03,1.65800e+03,1.61400e+03,1.16242e-12,5.80980e-01,1.03579e-12,5.80980e-01,1.13715e-12,5.80980e-01
7.87228e+02,3.04900e+03,2.10000e+03,9.49000e+02,1.80100e-12,5.88525e-01,1.71421e-12,5.88525e-01,2.40608e-12,5.88525e-01
7.87478e+02,2.55400e+03,2.60300e+03,-4.90000e+01,1.49767e-12,5.96071e-01,2.10053e-12,5.96071e-01,2.19951e-12,5.96071e-01
7.87728e+02,2.02800e+03,3.07200e+03,-1.04400e+03,3.51338e-13,6.03616e-01,1.85809e-12,6.03616e-01,1.76403e-12,6.03616e-01
7.87978e+02,1.80000e+03,3.79600e+03,-1.99600e+03,2.66143e-13,6.11161e-01,1.22494e-12,6.11161e-01,1.30784e-12,6.11161e-01
7.88228e+02,1.31800e+03,4.04800e+03,-2.73000e+03,7.07704e-13,6.18706e-01,5.07174e-13,6.18706e-01,3.92296e-13,6.18706e-01
7.88478e+02,1.07200e+03,4.47200e+03,-3.40000e+03,1.67189e-12,6.26251e-01,1.83397e-12,6.26251e-01,2.28061e-13,6.26251e-01
7.88728e+02,8.40000e+02,4.68600e+03,-3.84600e+03,2.44816e-12,6.33797e-01,2.62772e-12,6.33797e-01,3.94059e-13,6.33797e-01
7.88978e+02,7.93000e+02,4.45400e+03,-3.66100e+03,2.54969e-12,6.41342e-01,2.20304e-12,6.41342e-01,3.46864e-13,6.41342e-01
7.89228e+02,8.31000e+02,4.44000e+03,-3.60900e+03,2.24697e-12,6.48887e-01,2.29412e-12,6.48887e-01,5.04635e-13,6.48887e-01
7.89478e+02,1.18400e+03,4.28400e+03,-3.10000e+03,1.31895e-12,6.56432e-01,1.94344e-12,6.56432e-01,1.02324e-12,6.56432e-01
7.89728e+02,1.60400e+03,3.82500e+03,-2.22100e+03,9.91984e-13,6.63977e-01,1.33787e-12,6.63977e-01,8.28307e-13,6.63977e-01
7.89978e+02,2.21700e+03,3.33900e+03,-1.12200e+03,1.21395e-12,6.71523e-01,9.28998e-13,6.71523e-01,2.86485e-13,6.71523e-01
7.90228e+02,2.93500e+03,2.53600e+03,3.99000e+02,1.29035e-12,6.79068e-01,6.03998e-13,6.79068e-01,1.16009e-12,6.79068e-01
7.90478e+02,3.82700e+03,1.97000e+03,1.85700e+03,1.24221e-12,6.86613e-01,5.06683e-13,6.86613e-01,1.74809e-12,6.86613e-01
7.90728e+02,4.68400e+03,1.41700e+03,3.26700e+03,5.61823e-13,6.94158e-01,1.32832e-12,6.94158e-01,1.09966e-12,6.94158e-01
7.90978e+02,5.60200e+03,1.13400e+03,4.46800e+03,1.78672e-12,7.01703e-01,1.60042e-12,7.01703e-01,1.97100e-13,7.01703e-01
7.91228e+02,6.11000e+03,9.05000e+02,5.20500e+03,1.82379e-12,7.09249e-01,7.77281e-13,7.09249e-01,1.05896e-12,7.09249e-01
7.91478e+02,6.08500e+03,1.00300e+03,5.08200e+03,1.46607e-12,7.16794e-01,6.12841e-13,7.16794e-01,1.43054e-12,7.16794e-01
7.91728e+02,5.68000e+03,1.16400e+03,4.51600e+03,9.39073e-13,7.24339e-01,8.91574e-13,7.24339e-01,1.23415e-12,7.24339e-01
7.91977e+02,5.45700e+03,1.62900e+03,3.82800e+03,3.99707e-13,7.31884e-01,4.74745e-13,7.31884e-01,7.82967e-13,7.31884e-01
7.92227e+02,4.84700e+03,2.12900e+03,2.71800e+03,6.46284e-13,7.39429e-01,4.18752e-13,7.39429e-01,3.88383e-13,7.39429e-01
7.92477e+02,5.14300e+03,3.21600e+03,1.92700e+03,8.45692e-13,7.46975e-01,7.07113e-13,7.46975e-01,3.03053e-13,7.46975e-01
7.92727e+02,5.00400e+03,4.19000e+03,8.14000e+02,6.10526e-13,7.54520e-01,9.22149e-13,7.54520e-01,1.27293e-12,7.54520e-01
7.92977e+02,4.25800e+03,5.07200e+03,-8.14000e+02,1.14272e-12,7.62065e-01,2.80140e-13,7.62065e-01,1.41491e-12,7.62065e-01
7.93227e+02,2.99200e+03,5.25100e+03,-2.25900e+03,1.48705e-12,7.69610e-01,7.32019e-13,7.69610e-01,8.70952e-13,7.69610e-01
7.93476e+02,2.25100e+03,5.70500e+03,-3.45400e+03,1.27535e-12,7.77155e-01,8.93021e-13,7.77155e-01,5.05158e-13,7.77155e-01
7.93726e+02,1.63700e+03,6.39700e+03,-4.76000e+03,9.89548e-13,7.84701e-01,8.77295e-13,7.84701e-01,3.26818e-13,7.84701e-01
7.93976e+02,1.34100e+03,7.30800e+03,-5.96700e+03,1.37074e-12,7.92246e-01,1.12070e-12,7.92246e-01,6.55540e-13,7.92246e-01
7.94226e+02,1.04900e+03,7.36700e+03,-6.31800e+03,1.38603e-12,7.99791e-01,6.14847e-13,7.99791e-01,1.40536e-12,7.99791e-01
7.94476e+02,1.30200e+03,7.21700e+03,-5.91500e+03,9.81451e-13,8.07336e-01,2.43323e-13,8.07336e-01,7.73939e-13,8.07336e-01
7.94725e+02,1.64900e+03,6.09900e+03,-4.45000e+03,1.42695e-12,8.14881e-01,4.60667e-13,8.14881e-01,1.79025e-12,8.14881e-01
7.94975e+02,2.47400e+03,5.39000e+03,-2.91600e+03,2.05331e-12,8.22427e-01,7.27665e-13,8.22427e-01,2.77882e-12,8.22427e-01
7.95225e+02,3.37800e+03,4.35700e+03,-9.79000e+02,2.30048e-12,8.29972e-01,5.11088e-13,8.29972e-01,2.73163e-12,8.29972e-01
7.95475e+02,4.34000e+03,3.63400e+03,7.06000e+02,1.51183e-12,8.37517e-01,4.75222e-13,8.37517e-01,1.70755e-12,8.37517e-01
7.95724e+02,5.42800e+03,2.60700e+03,2.82100e+03,5.56077e-13,8.45062e-01,3.96138e-13,8.45062e-01,9.14375e-13,8.45062e-01
7.95974e+02,6.62100e+03,1.87200e+03,4.74900e+03,6.44136e-13,8.52607e-01,2.01153e-13,8.52607e-01,7.95352e-13,8.52607e-01
7.96224e+02,7.58100e+03,1.40200e+03,6.17900e+03,2.79320e-13,8.60153e-01,2.88295e-13,8.60153e-01,5.67519e-13,8.60153e-01
7.96474e+02,8.78600e+03,1.28600e+03,7.50000e+03,7.67673e-13,8.67698e-01,5.74748e-13,8.67698e-01,5.35490e-13,8.67698e-01
7.96723e+02,8.65800e+03,1.37900e+03,7.27900e+03,9.75961e-13,8.75243e-01,4.36666e-13,8.75243e-01,7.13347e-13,8.75243e-01
7.96973e+02,8.50700e+03,1.95100e+03,6.55600e+03,7.08655e-13,8.82788e-01,2.67878e-13,8.82788e-01,4.40778e-13,8.82788e-01
7.97223e+02,8.92000e+03,3.00100e+03,5.91900e+03,3.67859e-13,8.90333e-01,6.39874e-13,8.90333e-01,3.28682e-13,8.90333e-01
7.97472e+02,8.10100e+03,4.00800e+03,4.09300e+03,6.77364e-13,8.97879e-01,9.21096e-13,8.97879e-01,1.03047e-12,8.97879e-01
7.97722e+02,7.90300e+03,5.66100e+03,2.24200e+03,8.27930e-13,9.05424e-01,5.33683e-13,9.05424e-01,9.14759e-13,9.05424e-01
7.97972e+02,7.19400e+03,7.36500e+03,-1.71000e+02,9.20462e-13,9.12969e-01,8.33265e-13,9.12969e-01,3.22424e-13,9.12969e-01
7.98221e+02,5.50000e+03,9.07000e+03,-3.57000e+03,3.99392e-13,9.20514e-01,6.70515e-13,9.20514e-01,2.71164e-13,9.20514e-01
7.98471e+02,3.94300e+03,1.04180e+04,-6.47500e+03,7.70888e-13,9.28059e-01,4.60035e-13,9.28059e-01,4.10807e-13,9.28059e-01
7.98721e+02,2.80100e+03,1.15800e+04,-8.77900e+03,1.23676e-12,9.35605e-01,4.70180e-13,9.35605e-01,7.67258e-13,9.35605e-01
7.98970e+02,1.96800e+03,1.30520e+04,-1.10840e+04,1.11816e-12,9.43150e-01,7.24658e-13,9.43150e-01,6.19276e-13,9.43150e-01
7.99220e+02,1.51700e+03,1.28870e+04,-1.13700e+04,1.27738e-12,9.50695e-01,8.99548e-13,9.50695e-01,5.34310e-13,9.50695e-01
7.99469e+02,1.71200e+03,1.12740e+04,-9.56200e+03,1.45865e-12,9.58240e-01,9.17513e-13,9.58240e-01,1.30449e-12,9.58240e-01
7.99719e+02,2.30200e+03,9.57400e+03,-7.27200e+03,1.08842e-12,9.65785e-01,6.42892e-13,9.65785e-01,1.25334e-12,9.65785e-01
7.99969e+02,3.43600e+03,8.03900e+03,-4.60300e+03,6.06702e-13,9.73331e-01,3.45751e-13,9.73331e-01,4.88988e-13,9.73331e-01
8.00218e+02,5.06000e+03,6.73800e+03,-1.67800e+03,1.76591e-13,9.80876e-01,1.08220e-13,9.80876e-01,2.59202e-13,9.80876e-01
8.00468e+02,6.94700e+03,5.20200e+03,1.74500e+03,6.01819e-13,9.88421e-01,3.90459e-13,9.88421e-01,2.19332e-13,9.88421e-01
8.00717e+02,8.42100e+03,3.67800e+03,4.74300e+03,1.18954e-12,9.95966e-01,7.15012e-13,9.95966e-01,5.00410e-13,9.95966e-01
8.00967e+02,1.00560e+04,2.60200e+03,7.45400e+03,7.61089e-13,1.00351e+00,4.90076e-13,1.00351e+00,4.07686e-13,1.00351e+00
8.01216e+02,1.22100e+04,1.74900e+03,1.04610e+04,2.97041e-13,1.01106e+00,4.35026e-13,1.01106e+00,7.17113e-13,1.01106e+00
8.01466e+02,1.35180e+04,1.61400e+03,1.19040e+04,4.99694e-13,1.01860e+00,8.56091e-13,1.01860e+00,1.21712e-12,1.01860e+00
8.01715e+02,1.39530e+04,1.83900e+03,1.21140e+04,3.67685e-13,1.02615e+00,5.47535e-13,1.02615e+00,8.86364e-13,1.02615e+00
8.01965e+02,1.35420e+04,2.81000e+03,1.07320e+04,4.74339e-13,1.03369e+00,2.43291e-13,1.03369e+00,5.41221e-13,1.03369e+00
8.02215e+02,1.27930e+04,3.98400e+03,8.80900e+03,7.04216e-13,1.04124e+00,7.53730e-13,1.04124e+00,8.58817e-13,1.04124e+00
8.02464e+02,1.19610e+04,5.88600e+03,6.07500e+03,3.91973e-13,1.04878e+00,7.19794e-13,1.04878e+00,4.37687e-13,1.04878e+00
8.02713e+02,1.08090e+04,7.91100e+03,2.89800e+03,2.98131e-13,1.05633e+00,5.15714e-13,1.05633e+00,5.60234e-13,1.05633e+00
8.02963e+02,8.96600e+03,1.05830e+04,-1.61700e+03,9.91649e-13,1.06387e+00,2.73420e-13,1.06387e+00,7.31111e-13,1.06387e+00
8.03212e+02,7.39400e+03,1.32410e+04,-5.84700e+03,8.98194e-13,1.07142e+00,3.43573e-13,1.07142e+00,6.66082e-13,1.07142e+00
8.03462e+02,5.68400e+03,1.49120e+04,-9.22800e+03,5.99111e-13,1.07896e+00,3.12472e-13,1.07896e+00,6.35990e-13,1.07896e+00
8.03711e+02,3.71500e+03,1.53710e+04,-1.16560e+04,5.02988e-13,1.08651e+00,3.24264e-14,1.08651e+00,4.82102e-13,1.08651e+00
8.03961e+02,2.38300e+03,1.46800e+04,-1.22970e+04,5.84781e-13,1.09405e+00,3.78405e-13,1.09405e+00,2.83220e-13,1.09405e+00
8.04210e+02,1.72700e+03,1.34540e+04,-1.17270e+04,5.34263e-13,1.10160e+00,3.08626e-13,1.10160e+00,2.34819e-13,1.10160e+00
8.04460e+02,1.89700e+03,1.31000e+04,-1.12030e+04,3.03338e-13,1.10914e+00,8.52130e-14,1.10914e+00,2.29859e-13,1.10914e+00
8.04709e+02,2.72300e+03,1.29950e+04,-1.02720e+04,2.84989e-13,1.11669e+00,1.17461e-13,1.11669e+00,3.97541e-13,1.11669e+00
8.04958e+02,4.11500e+03,1.13580e+04,-7.24300e+03,4.19559e-13,1.12423e+00,4.90331e-13,1.12423e+00,8.48591e-13,1.12423e+00
8.05208e+02,5.75900e+03,9.45300e+03,-3.69400e+03,2.53319e-13,1.13178e+00,2.11395e-13,1.13178e+00,4.63734e-13,1.13178e+00
8.05457e+02,7.31400e+03,7.22900e+03,8.50000e+01,5.05421e-13,1.13932e+00,4.63458e-13,1.13932e+00,2.57383e-13,1.13932e+00
8.05707e+02,9.84400e+03,5.71800e+03,4.12600e+03,7.56034e-13,1.14687e+00,7.71487e-13,1.14687e+00,7.06900e-13,1.14687e+00
8.05956e+02,1.24800e+04,4.34200e+03,8.13800e+03,5.98757e-13,1.15442e+00,6.27675e-13,1.15442e+00,6.15947e-13,1.15442e+00
8.06205e+02,1.33110e+04,2.81700e+03,1.04940e+04,2.51015e-13,1.16196e+00,4.50506e-13,1.16196e+00,3.16283e-13,1.16196e+00
8.06455e+02,1.45970e+04,1.99600e+03,1.26010e+04,3.09634e-13,1.16951e+00,1.53027e-13,1.16951e+00,2.96352e-13,1.16951e+00
8.06704e+02,1.52400e+04,1.89800e+03,1.33420e+04,1.60811e-13,1.17705e+00,2.77023e-13,1.17705e+00,4.33686e-13,1.17705e+00
8.06953e+02,1.54240e+04,2.51600e+03,1.29080e+04,1.98076e-13,1.18460e+00,4.45720e-13,1.18460e+00,6.42212e-13,1.18460e+00
8.07203e+02,1.45930e+04,3.41100e+03,1.11820e+04,2.24865e-13,1.19214e+00,3.96646e-13,1.19214e+00,5.01934e-13,1.19214e+00
8.07452e+02,1.42170e+04,5.08900e+03,9.12800e+03,3.86808e-13,1.19969e+00,6.11770e-13,1.19969e+00,3.65966e-13,1.19969e+00
8.07701e+02,1.34070e+04,7.42600e+03,5.98100e+03,6.37762e-13,1.20723e+00,6.98028e-13,1.20723e+00,5.46404e-13,1.20723e+00
8.07951e+02,1.16040e+04,9.30800e+03,2.29600e+03,8.13428e-13,1.21478e+00,3.32359e-13,1.21478e+00,5.90380e-13,1.21478e+00
8.08200e+02,9.05000e+03,1.03920e+04,-1.34200e+03,4.82772e-13,1.22232e+00,1.63549e-13,1.22232e+00,4.93164e-13,1.22232e+00
8.08449e+02,6.98900e+03,1.24640e+04,-5.47500e+03,3.81324e-13,1.22987e+00,1.14360e-13,1.22987e+00,2.66966e-13,1.22987e+00
8.08698e+02,5.14600e+03,1.47720e+04,-9.62600e+03,4.04763e-13,1.23741e+00,6.64043e-13,1.23741e+00,4.42183e-13,1.23741e+00
8.08948e+02,3.77900e+03,1.55700e+04,-1.17910e+04,4.28703e-13,1.24496e+00,8.50453e-13,1.24496e+00,6.90430e-13,1.24496e+00
8.09197e+02,2.57600e+03,1.57030e+04,-1.31270e+04,3.00564e-13,1.25250e+00,3.00963e-13,1.25250e+00,4.96475e-13,1.25250e+00
8.09446e+02,2.00300e+03,1.53880e+04,-1.33850e+04,4.04670e-13,1.26005e+00,9.54016e-14,1.26005e+00,3.60125e-13,1.26005e+00
8.09695e+02,2.28400e+03,1.51960e+04,-1.29120e+04,4.90422e-13,1.26759e+00,4.15311e-13,1.26759e+00,3.27091e-13,1.26759e+00
8.09945e+02,3.24500e+03,1.50300e+04,-1.17850e+04,2.36089e-13,1.27514e+00,3.26281e-13,1.27514e+00,2.49280e-13,1.27514e+00
8.10194e+02,4.56100e+03,1.37940e+04,-9.23300e+03,6.25141e-13,1.28268e+00,1.32743e-13,1.28268e+00,6.85738e-13,1.28268e+00
8.10443e+02,6.74200e+03,1.14040e+04,-4.66200e+03,8.89410e-13,1.29023e+00,2.27735e-13,1.29023e+00,8.16404e-13,1.29023e+00
8.10692e+02,9.36800e+03,8.95500e+03,4.13000e+02,8.47861e-13,1.29777e+00,1.66338e-13,1.29777e+00,1.00649e-12,1.29777e+00
8.10941e+02,1.22860e+04,6.74800e+03,5.53800e+03,2.30861e-13,1.30532e+00,7.13371e-13,1.30532e+00,9.43609e-13,1.30532e+00
8.11191e+02,1.34350e+04,4.57700e+03,8.85800e+03,5.97929e-13,1.31286e+00,4.40804e-13,1.31286e+00,6.93881e-13,1.31286e+00
8.11440e+02,1.53250e+04,3.25000e+03,1.20750e+04,1.92054e-12,-1.32041e+00,1.37594e-12,-1.32041e+00,5.44598e-13,-1.32041e+00
8.11689e+02,1.57820e+04,2.32100e+03,1.34610e+04,5.97929e-13,-1.31286e+00,4.40804e-13,-1.31286e+00,6.93881e-13,-1.31286e+00
8.11938e+02,1.58460e+04,2.22900e+03,1.36170e+04,2.30861e-13,-1.30532e+00,7.13371e-13,-1.30532e+00,9.43609e-13,-1.30532e+00
8.12187e+02,1.58940e+04,2.83300e+03,1.30610e+04,8.47861e-13,-1.29777e+00,1.66338e-13,-1.29777e+00,1.00649e-12,-1.29777e+00
8.12436e+02,1.59020e+04,3.97800e+03,1.19240e+04,8.89410e-13,-1.29023e+00,2.27735e-13,-1.29023e+00,8.16404e-13,-1.29023e+00
8.12685e+02,1.57980e+04,6.02400e+03,9.77400e+03,6.25141e-13,-1.28268e+00,1.32743e-13,-1.28268e+00,6.85738e-13,-1.28268e+00
8.12935e+02,1.49390e+04,8.18400e+03,6.75500e+03,2.36089e-13,-1.27514e+00,3.26281e-13,-1.27514e+00,2.49280e-13,-1.27514e+00
8.13184e+02,1.23820e+04,1.04870e+04,1.89500e+03,4.90422e-13,-1.26759e+00,4.15311e-13,-1.26759e+00,3.27091e-13,-1.26759e+00
8.13433e+02,1.00410e+04,1.28710e+04,-2.83000e+03,4.04670e-13,-1.26005e+00,9.54016e-14,-1.26005e+00,3.60125e-13,-1.26005e+00
8.13682e+02,8.25600e+03,1.48000e+04,-6.54400e+03,3.00564e-13,-1.25250e+00,3.00963e-13,-1.25250e+00,4.96475e-13,-1.25250e+00
8.13931e+02,6.23800e+03,1.55580e+04,-9.32000e+03,4.28703e-13,-1.24496e+00,8.50453e-13,-1.24496e+00,6.90430e-13,-1.24496e+00
8.14180e+02,4.08200e+03,1.55660e+04,-1.14840e+04,4.04763e-13,-1.23741e+00,6.64043e-13,-1.23741e+00,4.42183e-13,-1.23741e+00
8.14429e+02,2.81400e+03,1.56880e+04,-1.28740e+04,3.81324e-13,-1.22987e+00,1.14360e-13,-1.22987e+00,2.66966e-13,-1.22987e+00
8.14678e+02,2.13800e+03,1.57310e+04,-1.35930e+04,4.82772e-13,-1.22232e+00,1.63549e-13,-1.22232e+00,4.93164e-13,-1.22232e+00
8.14927e+02,2.18000e+03,1.52340e+04,-1.30540e+04,8.13428e-13,-1.21478e+00,3.32359e-13,-1.21478e+00,5.90380e-13,-1.21478e+00
8.15176e+02,2.95600e+03,1.41740e+04,-1.12180e+04,6.37762e-13,-1.20723e+00,6.98028e-13,-1.20723e+00,5.46404e-13,-1.20723e+00
8.15425e+02,4.22800e+03,1.20130e+04,-7.78500e+03,3.86808e-13,-1.19969e+00,6.11770e-13,-1.19969e+00,3.65966e-13,-1.19969e+00
8.15674e+02,6.39700e+03,1.06700e+04,-4.27300e+03,2.24865e-13,-1.19214e+00,3.96646e-13,-1.19214e+00,5.01934e-13,-1.19214e+00
8.15923e+02,9.68900e+03,8.98800e+03,7.01000e+02,1.98076e-13,-1.18460e+00,4.45720e-13,-1.18460e+00,6.42212e-13,-1.18460e+00
8.16172e+02,1.20260e+04,6.86600e+03,5.16000e+03,1.60811e-13,-1.17705e+00,2.77023e-13,-1.17705e+00,4.33686e-13,-1.17705e+00
8.16421e+02,1.27410e+04,4.21200e+03,8.52900e+03,3.09634e-13,-1.16951e+00,1.53027e-13,-1.16951e+00,2.96352e-13,-1.16951e+00
8.16670e+02,1.30980e+04,2.49900e+03,1.05990e+04,2.51015e-13,-1.16196e+00,4.50506e-13,-1.16196e+00,3.16283e-13,-1.16196e+00
8.16919e+02,1.47300e+04,1.91000e+03,1.28200e+04,5.98757e-13,-1.15442e+00,6.27675e-13,-1.15442e+00,6.15947e-13,-1.15442e+00
8.17168e+02,1.43750e+04,1.89900e+03,1.24760e+04,7.56034e-13,-1.14687e+00,7.71487e-13,-1.14687e+00,7.06900e-13,-1.14687e+00
8.17417e+02,1.37710e+04,2.40400e+03,1.13670e+04,5.05421e-13,-1.13932e+00,4.63458e-13,-1.13932e+00,2.57383e-13,-1.13932e+00
8.17666e+02,1.37490e+04,3.46800e+03,1.02810e+04,2.53319e-13,-1.13178e+00,2.11395e-13,-1.13178e+00,4.63734e-13,-1.13178e+00
8.17915e+02,1.25880e+04,4.98100e+03,7.60700e+03,4.19559e-13,-1.12423e+00,4.90331e-13,-1.12423e+00,8.48591e-13,-1.12423e+00
8.18164e+02,1.02290e+04,6.18900e+03,4.04000e+03,2.84989e-13,-1.11669e+00,1.17461e-13,-1.11669e+00,3.97541e-13,-1.11669e+00
8.18413e+02,8.12400e+03,7.63700e+03,4.87000e+02,3.03338e-13,-1.10914e+00,8.52130e-14,-1.10914e+00,2.29859e-13,-1.10914e+00
8.18662e+02,6.00900e+03,8.40800e+03,-2.39900e+03,5.34263e-13,-1.10160e+00,3.08626e-13,-1.10160e+00,2.34819e-13,-1.10160e+00
8.18911e+02,4.80400e+03,1.01160e+04,-5.31200e+03,5.84781e-13,-1.09405e+00,3.78405e-13,-1.09405e+00,2.83220e-13,-1.09405e+00
8.19160e+02,3.43600e+03,1.06530e+04,-7.21700e+03,5.02988e-13,-1.08651e+00,3.24264e-14,-1.08651e+00,4.82102e-13,-1.08651e+00
8.19408e+02,2.51900e+03,1.13630e+04,-8.84400e+03,5.99111e-13,-1.07896e+00,3.12472e-13,-1.07896e+00,6.35990e-13,-1.07896e+00
8.19657e+02,1.87800e+03,1.29490e+04,-1.10710e+04,8.98194e-13,-1.07142e+00,3.43573e-13,-1.07142e+00,6.66082e-13,-1.07142e+00
8.19906e+02,1.69900e+03,1.38580e+04,-1.21590e+04,9.91649e-13,-1.06387e+00,2.73420e-13,-1.06387e+00,7.31111e-13,-1.06387e+00
8.20155e+02,2.05400e+03,1.34340e+04,-1.13800e+04,2.98131e-13,-1.05633e+00,5.15714e-13,-1.05633e+00,5.60234e-13,-1.05633e+00
8.20404e+02,2.88100e+03,1.11440e+04,-8.26300e+03,3.91973e-13,-1.04878e+00,7.19794e-13,-1.04878e+00,4.37687e-13,-1.04878e+00
8.20653e+02,3.97200e+03,8.49100e+03,-4.51900e+03,7.04216e-13,-1.04124e+00,7.53730e-13,-1.04124e+00,8.58817e-13,-1.04124e+00
8.20901e+02,5.40300e+03,7.23700e+03,-1.83400e+03,4.74339e-13,-1.03369e+00,2.43291e-13,-1.03369e+00,5.41221e-13,-1.03369e+00
8.21150e+02,7.40600e+03,5.98900e+03,1.41700e+03,3.67685e-13,-1.02615e+00,5.47535e-13,-1.02615e+00,8.86364e-13,-1.02615e+00
8.21399e+02,7.65400e+03,3.91100e+03,3.74300e+03,4.99694e-13,-1.01860e+00,8.56091e-13,-1.01860e+00,1.21712e-12,-1.01860e+00
8.21648e+02,9.15800e+03,2.71800e+03,6.44000e+03,2.97041e-13,-1.01106e+00,4.35026e-13,-1.01106e+00,7.17113e-13,-1.01106e+00
8.21897e+02,1.01040e+04,2.04800e+03,8.05600e+03,7.61089e-13,-1.00351e+00,4.90076e-13,-1.00351e+00,4.07686e-13,-1.00351e+00
8.22145e+02,9.72400e+03,1.55800e+03,8.16600e+03,1.18954e-12,-9.95966e-01,7.15012e-13,-9.95966e-01,5.00410e-13,-9.95966e-01
8.22394e+02,1.02120e+04,1.64900e+03,8.56300e+03,6.01819e-13,-9.88421e-01,3.90459e-13,-9.88421e-01,2.19332e-13,-9.88421e-01
8.22643e+02,1.05170e+04,2.05100e+03,8.46600e+03,1.76591e-13,-9.80876e-01,1.08220e-13,-9.80876e-01,2.59202e-13,-9.80876e-01
8.22892e+02,9.60800e+03,2.95700e+03,6.65100e+03,6.06702e-13,-9.73331e-01,3.45751e-13,-9.73331e-01,4.88988e-13,-9.73331e-01
8.23140e+02,8.91400e+03,3.92600e+03,4.98800e+03,1.08842e-12,-9.65785e-01,6.42892e-13,-9.65785e-01,1.25334e-12,-9.65785e-01
8.23389e+02,8.09200e+03,5.30200e+03,2.79000e+03,1.45865e-12,-9.58240e-01,9.17513e-13,-9.58240e-01,1.30449e-12,-9.58240e-01
8.23638e+02,6.67500e+03,6.76000e+03,-8.50000e+01,1.27738e-12,-9.50695e-01,8.99548e-13,-9.50695e-01,5.34310e-13,-9.50695e-01
8.23887e+02,4.79300e+03,7.60400e+03,-2.81100e+03,1.11816e-12,-9.43150e-01,7.24658e-13,-9.43150e-01,6.19276e-13,-9.43150e-01
8.24135e+02,3.52100e+03,8.37700e+03,-4.85600e+03,1.23676e-12,-9.35605e-01,4.70180e-13,-9.35605e-01,7.67258e-13,-9.35605e-01
8.24384e+02,2.60400e+03,9.15000e+03,-6.54600e+03,7.70888e-13,-9.28059e-01,4.60035e-13,-9.28059e-01,4.10807e-13,-9.28059e-01
8.24633e+02,1.73100e+03,9.91200e+03,-8.18100e+03,3.99392e-13,-9.20514e-01,6.70515e-13,-9.20514e-01,2.71164e-13,-9.20514e-01
8.24881e+02,1.28800e+03,1.00480e+04,-8.76000e+03,9.20462e-13,-9.12969e-01,8.33265e-13,-9.12969e-01,3.22424e-13,-9.12969e-01
8.25130e+02,1.29300e+03,1.00480e+04,-8.75500e+03,8.27930e-13,-9.05424e-01,5.33683e-13,-9.05424e-01,9.14759e-13,-9.05424e-01
8.25379e+02,1.87900e+03,9.53100e+03,-7.65200e+03,6.77364e-13,-8.97879e-01,9.21096e-13,-8.97879e-01,1.03047e-12,-8.97879e-01
8.25627e+02,2.39400e+03,7.52800e+03,-5.13400e+03,3.67859e-13,-8.90333e-01,6.39874e-13,-8.90333e-01,3.28682e-13,-8.90333e-01
8.25876e+02,3.31500e+03,5.81800e+03,-2.50300e+03,7.08655e-13,-8.82788e-01,2.67878e-13,-8.82788e-01,4.40778e-13,-8.82788e-01
8.26125e+02,4.22600e+03,4.71100e+03,-4.85000e+02,9.75961e-13,-8.75243e-01,4.36666e-13,-8.75243e-01,7.13347e-13,-8.75243e-01
8.26373e+02,4.50700e+03,3.36300e+03,1.14400e+03,7.67673e-13,-8.67698e-01,5.74748e-13,-8.67698e-01,5.35490e-13,-8.67698e-01
8.26622e+02,4.66200e+03,2.33200e+03,2.33000e+03,2.79320e-13,-8.60153e-01,2.88295e-13,-8.60153e-01,5.67519e-13,-8.60153e-01
8.26870e+02,4.80100e+03,1.55200e+03,3.24900e+03,6.44136e-13,-8.52607e-01,2.01153e-13,-8.52607e-01,7.95352e-13,-8.52607e-01
8.27119e+02,5.21600e+03,1.14000e+03,4.07600e+03,5.56077e-13,-8.45062e-01,3.96138e-13,-8.45062e-01,9.14375e-13,-8.45062e-01
8.27368e+02,5.87600e+03,1.05000e+03,4.82600e+03,1.51183e-12,-8.37517e-01,4.75222e-13,-8.37517e-01,1.70755e-12,-8.37517e-01
8.27616e+02,5.53100e+03,9.79000e+02,4.55200e+03,2.30048e-12,-8.29972e-01,5.11088e-13,-8.29972e-01,2.73163e-12,-8.29972e-01
8.27865e+02,5.24900e+03,1.30200e+03,3.94700e+03,2.05331e-12,-8.22427e-01,7.27665e-13,-8.22427e-01,2.77882e-12,-8.22427e-01
8.28113e+02,5.74500e+03,1.79000e+03,3.95500e+03,1.42695e-12,-8.14881e-01,4.60667e-13,-8.14881e-01,1.79025e-12,-8.14881e-01
8.28362e+02,5.30600e+03,2.48800e+03,2.81800e+03,9.81451e-13,-8.07336e-01,2.43323e-13,-8.07336e-01,7.73939e-13,-8.07336e-01
8.28610e+02,4.17700e+03,2.96000e+03,1.21700e+03,1.38603e-12,-7.99791e-01,6.14847e-13,-7.99791e-01,1.40536e-12,-7.99791e-01
8.28859e+02,3.35900e+03,3.54300e+03,-1.84000e+02,1.37074e-12,-7.92246e-01,1.12070e-12,-7.92246e-01,6.55540e-13,-7.92246e-01
8.29108e+02,2.47900e+03,3.82800e+03,-1.34900e+03,9.89548e-13,-7.84701e-01,8.77295e-13,-7.84701e-01,3.26818e-13,-7.84701e-01
8.29356e+02,1.80800e+03,3.95800e+03,-2.15000e+03,1.27535e-12,-7.77155e-01,8.93021e-13,-7.77155e-01,5.05158e-13,-7.77155e-01
8.29605e+02,1.25800e+03,3.99300e+03,-2.73500e+03,1.48705e-12,-7.69610e-01,7.32019e-13,-7.69610e-01,8.70952e-13,-7.69610e-01
8.29853e+02,9.54000e+02,3.88900e+03,-2.93500e+03,1.14272e-12,-7.62065e-01,2.80140e-13,-7.62065e-01,1.41491e-12,-7.62065e-01
8.30101e+02,7.62000e+02,4.02300e+03,-3.26100e+03,6.10526e-13,-7.54520e-01,9.22149e-13,-7.54520e-01,1.27293e-12,-7.54520e-01
8.30350e+02,8.01000e+02,4.05500e+03,-3.25400e+03,8.45692e-13,-7.46975e-01,7.07113e-13,-7.46975e-01,3.03053e-13,-7.46975e-01
8.30598e+02,8.24000e+02,3.44200e+03,-2.61800e+03,6.46284e-13,-7.39429e-01,4.18752e-13,-7.39429e-01,3.88383e-13,-7.39429e-01
8.30847e+02,1.08900e+03,3.08900e+03,-2.00000e+03,3.99707e-13,-7.31884e-01,4.74745e-13,-7.31884e-01,7.82967e-13,-7.31884e-01
8.31095e+02,1.35900e+03,2.92900e+03,-1.57000e+03,9.39073e-13,-7.24339e-01,8.91574e-13,-7.24339e-01,1.23415e-12,-7.24339e-01
8.31344e+02,1.78200e+03,2.42800e+03,-6.46000e+02,1.46607e-12,-7.16794e-01,6.12841e-13,-7.16794e-01,1.43054e-12,-7.16794e-01
8.31592e+02,2.00300e+03,1.82000e+03,1.83000e+02,1.82379e-12,-7.09249e-01,7.77281e-13,-7.09249e-01,1.05896e-12,-7.09249e-01
8.31841e+02,2.14100e+03,1.43700e+03,7.04000e+02,1.78672e-12,-7.01703e-01,1.60042e-12,-7.01703e-01,1.97100e-13,-7.01703e-01
8.32089e+02,2.44300e+03,1.03200e+03,1.41100e+03,5.61823e-13,-6.94158e-01,1.32832e-12,-6.94158e-01,1.09966e-12,-6.94158e-01
8.32337e+02,2.67600e+03,8.41000e+02,1.83500e+03,1.24221e-12,-6.86613e-01,5.06683e-13,-6.86613e-01,1.74809e-12,-6.86613e-01
8.32586e+02,2.54500e+03,7.08000e+02,1.83700e+03,1.29035e-12,-6.79068e-01,6.03998e-13,-6.79068e-01,1.16009e-12,-6.79068e-01
8.32834e+02,2.68300e+03,7.30000e+02,1.95300e+03,1.21395e-12,-6.71523e-01,9.28998e-13,-6.71523e-01,2.86485e-13,-6.71523e-01
8.33083e+02,2.57500e+03,6.97000e+02,1.87800e+03,9.91984e-13,-6.63977e-01,1.33787e-12,-6.63977e-01,8.28307e-13,-6.63977e-01
8.33331e+02,2.35200e+03,7.99000e+02,1.55300e+03,1.31895e-12,-6.56432e-01,1.94344e-12,-6.56432e-01,1.02324e-12,-6.56432e-01
8.33579e+02,2.12900e+03,9.11000e+02,1.21800e+03,2.24697e-12,-6.48887e-01,2.29412e-12,-6.48887e-01,5.04635e-13,-6.48887e-01
8.33828e+02,1.83900e+03,1.12000e+03,7.19000e+02,2.54969e-12,-6.41342e-01,2.20304e-12,-6.41342e-01,3.46864e-13,-6.41342e-01
8.34076e+02,1.50400e+03,1.20400e+03,3.00000e+02,2.44816e-12,-6.33797e-01,2.62772e-12,-6.33797e-01,3.94059e-13,-6.33797e-01
8.34324e+02,1.32600e+03,1.43500e+03,-1.09000e+02,1.67189e-12,-6.26251e-01,1.83397e-12,-6.26251e-01,2.28061e-13,-6.26251e-01
8.34573e+02,1.08000e+03,1.53100e+03,-4.51000e+02,7.07704e-13,-6.18706e-01,5.07174e-13,-6.18706e-01,3.92296e-13,-6.18706e-01
8.34821e+02,9.01000e+02,1.65100e+03,-7.50000e+02,2.66143e-13,-6.11161e-01,1.22494e-12,-6.11161e-01,1.30784e-12,-6.11161e-01
8.35069e+02,7.41000e+02,1.69200e+03,-9.51000e+02,3.51338e-13,-6.03616e-01,1.85809e-12,-6.03616e-01,1.76403e-12,-6.03616e-01
8.35318e+02,7.06000e+02,1.85600e+03,-1.15000e+03,1.49767e-12,-5.96071e-01,2.10053e-12,-5.96071e-01,2.19951e-12,-5.96071e-01
8.35566e+02,6.41000e+02,1.67700e+03,-1.03600e+03,1.80100e-12,-5.88525e-01,1.71421e-12,-5.88525e-01,2.40608e-12,-5.88525e-01
8.35814e+02,6.58000e+02,1.63800e+03,-9.80000e+02,1.16242e-12,-5.80980e-01,1.03579e-12,-5.80980e-01,1.13715e-12,-5.80980e-01
8.36062e+02,6.47000e+02,1.39300e+03,-7.46000e+02,8.45452e-13,-5.73435e-01,7.99682e-13,-5.73435e-01,5.21115e-13,-5.73435e-01
8.36311e+02,6.81000e+02,1.23800e+03,-5.57000e+02,4.51963e-13,-5.65890e-01,9.12770e-13,-5.65890e-01,5.59833e-13,-5.65890e-01
8.36559e+02,7.13000e+02,1.14400e+03,-4.31000e+02,7.14483e-13,-5.58345e-01,3.02242e-13,-5.58345e-01,4.16790e-13,-5.58345e-01
8.36807e+02,7.85000e+02,1.09600e+03,-3.11000e+02,2.48846e-13,-5.50799e-01,6.47597e-13,-5.50799e-01,8.56899e-13,-5.50799e-01
8.37055e+02,8.33000e+02,8.70000e+02,-3.70000e+01,1.04635e-12,-5.43254e-01,1.86283e-12,-5.43254e-01,8.25613e-13,-5.43254e-01
8.37304e+02,9.68000e+02,7.76000e+02,1.92000e+02,1.86815e-12,-5.35709e-01,2.86045e-12,-5.35709e-01,1.05935e-12,-5.35709e-01
8.37552e+02,9.64000e+02,6.80000e+02,2.84000e+02,1.62962e-12,-5.28164e-01,2.66089e-12,-5.28164e-01,1.09938e-12,-5.28164e-01
8.37800e+02,1.05000e+03,6.86000e+02,3.64000e+02,7.11003e-13,-5.20619e-01,2.55319e-12,-5.20619e-01,3.06655e-12,-5.20619e-01
8.38048e+02,9.44000e+02,6.34000e+02,3.10000e+02,1.03143e-12,-5.13073e-01,3.08571e-12,-5.13073e-01,3.96730e-12,-5.13073e-01
8.38296e+02,9.26000e+02,6.38000e+02,2.88000e+02,9.53260e-14,-5.05528e-01,2.34160e-12,-5.05528e-01,2.35363e-12,-5.05528e-01
8.38545e+02,9.09000e+02,6.34000e+02,2.75000e+02,1.43550e-12,-4.97983e-01,4.43965e-13,-4.97983e-01,1.00958e-12,-4.97983e-01
8.38793e+02,8.99000e+02,6.45000e+02,2.54000e+02,1.67656e-12,-4.90438e-01,2.38021e-12,-4.90438e-01,2.89029e-12,-4.90438e-01
8.39041e+02,7.88000e+02,6.56000e+02,1.32000e+02,5.20021e-13,-4.82893e-01,3.23685e-12,-4.82893e-01,2.88499e-12,-4.82893e-01
8.39289e+02,7.91000e+02,6.70000e+02,1.21000e+02,1.14562e-12,-4.75347e-01,3.22814e-12,-4.75347e-01,2.76231e-12,-4.75347e-01
8.39537e+02,7.07000e+02,6.75000e+02,3.20000e+01,7.30657e-13,-4.67802e-01,2.51625e-12,-4.67802e-01,2.23155e-12,-4.67802e-01
8.39785e+02,6.92000e+02,7.17000e+02,-2.50000e+01,1.11444e-12,-4.60257e-01,1.85513e-12,-4.60257e-01,9.47484e-13,-4.60257e-01
8.40033e+02,6.64000e+02,7.00000e+02,-3.60000e+01,1.14692e-12,-4.52712e-01,1.91928e-12,-4.52712e-01,1.30135e-12,-4.52712e-01
8.40281e+02,6.90000e+02,7.65000e+02,-7.50000e+01,8.05016e-13,-4.45167e-01,2.42617e-12,-4.45167e-01,1.82757e-12,-4.45167e-01
8.40530e+02,6.22000e+02,7.13000e+02,-9.10000e+01,3.51816e-13,-4.37621e-01,2.32326e-12,-4.37621e-01,1.98465e-12,-4.37621e-01
8.40778e+02,6.35000e+02,7.57000e+02,-1.22000e+02,1.00331e-12,-4.30076e-01,1.77103e-12,-4.30076e-01,1.04147e-12,-4.30076e-01
8.41026e+02,6.27000e+02,7.33000e+02,-1.06000e+02,1.59610e-12,-4.22531e-01,9.36001e-13,-4.22531e-01,1.10049e-12,-4.22531e-01
8.41274e+02,6.28000e+02,7.21000e+02,-9.30000e+01,1.67704e-12,-4.14986e-01,1.70223e-12,-4.14986e-01,3.12544e-12,-4.14986e-01
8.41522e+02,6.35000e+02,6.98000e+02,-6.30000e+01,3.01688e-12,-4.07441e-01,2.88379e-12,-4.07441e-01,5.88903e-12,-4.07441e-01
8.41770e+02,6.35000e+02,7.01000e+02,-6.60000e+01,4.60020e-12,-3.99895e-01,2.76384e-12,-3.99895e-01,7.28175e-12,-3.99895e-01
8.42018e+02,6.40000e+02,6.69000e+02,-2.90000e+01,4.75122e-12,-3.92350e-01,2.64886e-12,-3.92350e-01,6.13146e-12,-3.92350e-01
8.42266e+02,6.54000e+02,6.63000e+02,-9.00000e+00,2.72664e-12,-3.84805e-01,2.93369e-12,-3.84805e-01,4.00917e-12,-3.84805e-01
8.42514e+02,6.54000e+02,6.41000e+02,1.30000e+01,1.67538e-12,-3.77260e-01,8.49267e-13,-3.77260e-01,2.45666e-12,-3.77260e-01
8.42762e+02,6.65000e+02,6.63000e+02,2.00000e+00,3.60735e-12,-3.69715e-01,1.40722e-12,-3.69715e-01,2.25178e-12,-3.69715e-01
8.43010e+02,6.26000e+02,6.35000e+02,-9.00000e+00,2.97120e-12,-3.62169e-01,3.24332e-12,-3.62169e-01,2.30063e-12,-3.62169e-01
8.43258e+02,6.52000e+02,6.33000e+02,1.90000e+01,1.27161e-12,-3.54624e-01,3.79040e-12,-3.54624e-01,4.42035e-12,-3.54624e-01
8.43506e+02,6.40000e+02,6.30000e+02,1.00000e+01,1.33632e-13,-3.47079e-01,2.62259e-12,-3.47079e-01,2.60628e-12,-3.47079e-01
8.43754e+02,6.65000e+02,6.37000e+02,2.80000e+01,3.88559e-13,-3.39534e-01,1.56481e-12,-3.39534e-01,1.59008e-12,-3.39534e-01
8.44002e+02,6.59000e+02,6.34000e+02,2.50000e+01,7.59304e-13,-3.31989e-01,1.36760e-12,-3.31989e-01,6.47026e-13,-3.31989e-01
8.44250e+02,6.45000e+02,6.34000e+02,1.10000e+01,1.94526e-12,-3.24444e-01,2.56882e-12,-3.24444e-01,1.08181e-12,-3.24444e-01
8.44498e+02,6.37000e+02,6.26000e+02,1.10000e+01,1.71835e-12,-3.16898e-01,4.49548e-12,-3.16898e-01,2.85959e-12,-3.16898e-01
8.44746e+02,6.41000e+02,6.33000e+02,8.00000e+00,8.75842e-13,-3.09353e-01,5.55575e-12,-3.09353e-01,5.44499e-12,-3.09353e-01
8.44994e+02,6.43000e+02,6.24000e+02,1.90000e+01,2.03174e-12,-3.01808e-01,3.61426e-12,-3.01808e-01,5.62444e-12,-3.01808e-01
8.45242e+02,6.63000e+02,6.72000e+02,-9.00000e+00,1.75713e-12,-2.94263e-01,1.74752e-13,-2.94263e-01,1.91587e-12,-2.94263e-01
8.45490e+02,6.13000e+02,6.18000e+02,-5.00000e+00,1.15441e-12,-2.86718e-01,4.30747e-12,-2.86718e-01,5.31818e-12,-2.86718e-01
8.45738e+02,6.41000e+02,6.21000e+02,2.00000e+01,1.87477e-12,-2.79172e-01,7.11967e-12,-2.79172e-01,8.65655e-12,-2.79172e-01
8.45985e+02,6.23000e+02,6.52000e+02,-2.90000e+01,4.08215e-12,-2.71627e-01,7.09455e-12,-2.71627e-01,4.30880e-12,-2.71627e-01
8.46233e+02,6.36000e+02,6.30000e+02,6.00000e+00,8.40639e-12,-2.64082e-01,5.97212e-12,-2.64082e-01,5.93261e-12,-2.64082e-01
8.46481e+02,6.21000e+02,6.32000e+02,-1.10000e+01,7.24590e-12,-2.56537e-01,4.57948e-12,-2.56537e-01,7.03664e-12,-2.56537e-01
8.46729e+02,6.36000e+02,6.30000e+02,6.00000e+00,3.23217e-12,-2.48992e-01,2.43494e-12,-2.48992e-01,4.19364e-12,-2.48992e-01
8.46977e+02,6.27000e+02,6.35000e+02,-8.00000e+00,1.37376e-12,-2.41446e-01,8.86341e-13,-2.41446e-01,2.25379e-12,-2.41446e-01
8.47225e+02,6.38000e+02,6.27000e+02,1.10000e+01,2.30827e-12,-2.33901e-01,5.80021e-13,-2.33901e-01,1.72825e-12,-2.33901e-01
8.47473e+02,6.24000e+02,6.14000e+02,1.00000e+01,3.93383e-12,-2.26356e-01,2.85224e-12,-2.26356e-01,2.31871e-12,-2.26356e-01
8.47720e+02,6.57000e+02,6.65000e+02,-8.00000e+00,4.42908e-12,-2.18811e-01,3.09413e-12,-2.18811e-01,2.18365e-12,-2.18811e-01
8.47968e+02,6.18000e+02,6.24000e+02,-6.00000e+00,5.10844e-12,-2.11266e-01,2.86241e-12,-2.11266e-01,3.58941e-12,-2.11266e-01
8.48216e+02,6.24000e+02,6.25000e+02,-1.00000e+00,3.34899e-12,-2.03720e-01,2.32455e-12,-2.03720e-01,3.59339e-12,-2.03720e-01
8.48464e+02,6.34000e+02,6.24000e+02,1.00000e+01,1.37967e-12,-1.96175e-01,3.08978e-12,-1.96175e-01,1.95833e-12,-1.96175e-01
8.48712e+02,6.32000e+02,6.19000e+02,1.30000e+01,1.79088e-12,-1.88630e-01,6.85081e-12,-1.88630e-01,6.37040e-12,-1.88630e-01
8.48960e+02,6.24000e+02,6.36000e+02,-1.20000e+01,3.67492e-12,-1.81085e-01,9.51056e-12,-1.81085e-01,9.74885e-12,-1.81085e-01
8.49207e+02,6.36000e+02,6.47000e+02,-1.10000e+01,6.98201e-12,-1.73540e-01,6.33632e-12,-1.73540e-01,8.26269e-12,-1.73540e-01
8.49455e+02,6.28000e+02,6.23000e+02,5.00000e+00,7.32983e-12,-1.65994e-01,3.40624e-12,-1.65994e-01,1.06118e-11,-1.65994e-01
8.49703e+02,6.24000e+02,6.29000e+02,-5.00000e+00,3.77668e-12,-1.58449e-01,1.14609e-11,-1.58449e-01,1.46853e-11,-1.58449e-01
8.49951e+02,6.30000e+02,6.31000e+02,-1.00000e+00,4.28824e-12,-1.50904e-01,1.01532e-11,-1.50904e-01,6.35348e-12,-1.50904e-01
8.50198e+02,6.46000e+02,6.52000e+02,-6.00000e+00,2.77630e-11,-1.43359e-01,1.67844e-11,-1.43359e-01,4.38811e-11,-1.43359e-01
8.50446e+02,6.20000e+02,6.18000e+02,2.00000e+00,8.62962e-11,-1.35814e-01,8.14343e-11,-1.35814e-01,1.66251e-10,-1.35814e-01
8.50694e+02,6.18000e+02,6.32000e+02,-1.40000e+01,1.31001e-10,-1.28268e-01,1.34439e-10,-1.28268e-01,2.62759e-10,-1.28268e-01
8.50941e+02,6.27000e+02,6.37000e+02,-1.00000e+01,9.68244e-11,-1.20723e-01,1.07141e-10,-1.20723e-01,2.01690e-10,-1.20723e-01
8.51189e+02,6.30000e+02,6.32000e+02,-2.00000e+00,3.27513e-11,-1.13178e-01,4.06585e-11,-1.13178e-01,7.28871e-11,-1.13178e-01
8.51437e+02,6.30000e+02,6.28000e+02,2.00000e+00,1.10976e-11,-1.05633e-01,9.52135e-12,-1.05633e-01,2.05986e-11,-1.05633e-01
8.51685e+02,6.32000e+02,6.30000e+02,2.00000e+00,4.10318e-12,-9.80876e-02,3.61984e-12,-9.80876e-02,7.31778e-12,-9.80876e-02
8.51932e+02,6.36000e+02,6.29000e+02,7.00000e+00,3.76428e-12,-9.05424e-02,4.67068e-12,-9.05424e-02,8.34061e-12,-9.05424e-02
8.52180e+02,6.30000e+02,6.23000e+02,7.00000e+00,2.42506e-12,-8.29972e-02,9.81688e-13,-8.29972e-02,2.29185e-12,-8.29972e-02
8.52428e+02,6.26000e+02,6.40000e+02,-1.40000e+01,8.06151e-13,-7.54520e-02,4.71741e-12,-7.54520e-02,4.01382e-12,-7.54520e-02
8.52675e+02,6.57000e+02,6.60000e+02,-3.00000e+00,5.19274e-12,-6.79068e-02,4.86456e-12,-6.79068e-02,4.08243e-12,-6.79068e-02
8.52923e+02,6.13000e+02,6.22000e+02,-9.00000e+00,6.99563e-12,-6.03616e-02,8.79373e-12,-6.03616e-02,1.85280e-12,-6.03616e-02
8.53170e+02,6.26000e+02,6.53000e+02,-2.70000e+01,7.56550e-12,-5.28164e-02,1.17134e-11,-5.28164e-02,4.37744e-12,-5.28164e-02
8.53418e+02,6.26000e+02,6.24000e+02,2.00000e+00,5.10430e-12,-4.52712e-02,5.98462e-12,-4.52712e-02,2.95630e-12,-4.52712e-02
8.53666e+02,6.37000e+02,6.24000e+02,1.30000e+01,1.04588e-12,-3.77260e-02,1.10587e-12,-3.77260e-02,1.87632e-12,-3.77260e-02
8.53913e+02,6.24000e+02,6.27000e+02,-3.00000e+00,1.15851e-12,-3.01808e-02,4.01090e-12,-3.01808e-02,4.40543e-12,-3.01808e-02
8.54161e+02,6.33000e+02,6.42000e+02,-9.00000e+00,1.42771e-11,-2.26356e-02,1.04717e-11,-2.26356e-02,5.21267e-12,-2.26356e-02
8.54409e+02,6.36000e+02,6.21000e+02,1.50000e+01,7.81770e-11,-1.50904e-02,7.62935e-11,-1.50904e-02,3.57774e-12,-1.50904e-02
8.54656e+02,6.34000e+02,6.31000e+02,3.00000e+00,2.27609e-10,-7.54520e-03,2.28703e-10,-7.54520e-03,4.45422e-12,-7.54520e-03
