7.67698e+02,6.43000e+02,6.31000e+02,1.20000e+01,4.05369e-10,0.00000e+00,3.99444e-10,0.00000e+00,5.92462e-12,0.00000e+00
7.67949e+02,6.56000e+02,6.67000e+02,-1.10000e+01,2.45575e-10,7.54520e-03,2.40312e-10,7.54520e-03,5.41703e-12,7.54520e-03
7.68199e+02,6.03000e+02,6.13000e+02,-1.00000e+01,9.04603e-11,1.50904e-02,8.72603e-11,1.50904e-02,3.34195e-12,1.50904e-02
7.68450e+02,6.30000e+02,6.30000e+02,0.00000e+00,2.40829e-11,2.26356e-02,2.02672e-11,2.26356e-02,4.91036e-12,2.26356e-02
7.68701e+02,6.36000e+02,6.35000e+02,1.00000e+00,5.84495e-12,3.01808e-02,3.77426e-12,3.01808e-02,4.05776e-12,3.01808e-02
7.68951e+02,6.32000e+02,6.36000e+02,-4.00000e+00,2.76888e-12,3.77260e-02,2.92666e-12,3.77260e-02,3.44510e-12,3.77260e-02
7.69202e+02,6.26000e+02,6.24000e+02,2.00000e+00,2.43550e-12,4.52712e-02,4.99843e-12,4.52712e-02,3.29782e-12,4.52712e-02
7.69453e+02,6.36000e+02,6.29000e+02,7.00000e+00,4.00790e-12,5.28164e-02,5.80946e-12,5.28164e-02,1.88718e-12,5.28164e-02
7.69703e+02,6.14000e+02,6.42000e+02,-2.80000e+01,4.85773e-12,6.03616e-02,5.35671e-12,6.03616e-02,9.33788e-13,6.03616e-02
7.69954e+02,6.26000e+02,6.41000e+02,-1.50000e+01,5.37654e-12,6.79068e-02,4.89942e-12,6.79068e-02,1.01779e-12,6.79068e-02
7.70205e+02,6.45000e+02,6.26000e+02,1.90000e+01,2.91126e-12,7.54520e-02,2.92245e-12,7.54520e-02,1.18278e-12,7.54520e-02
7.70455e+02,6.69000e+02,6.69000e+02,0.00000e+00,2.44151e-12,8.29972e-02,2.88752e-12,8.29972e-02,8.03222e-13,8.29972e-02
7.70706e+02,6.07000e+02,6.31000e+02,-2.40000e+01,4.69498e-12,9.05424e-02,4.10134e-12,9.05424e-02,6.54270e-13,9.05424e-02
7.70957e+02,6.47000e+02,6.34000e+02,1.30000e+01,6.80561e-12,9.80876e-02,4.42899e-12,9.80876e-02,2.84376e-12,9.80876e-02
7.71207e+02,6.46000e+02,6.44000e+02,2.00000e+00,5.84007e-12,1.05633e-01,1.09950e-12,1.05633e-01,5.06141e-12,1.05633e-01
7.71458e+02,6.53000e+02,6.61000e+02,-8.00000e+00,3.47580e-12,1.13178e-01,3.06764e-12,1.13178e-01,5.53467e-12,1.13178e-01
7.71708e+02,6.39000e+02,6.44000e+02,-5.00000e+00,2.69111e-12,1.20723e-01,1.60894e-12,1.20723e-01,4.16348e-12,1.20723e-01
7.71959e+02,6.73000e+02,6.61000e+02,1.20000e+01,4.24720e-12,1.28268e-01,3.48133e-12,1.28268e-01,8.20544e-13,1.28268e-01
7.72210e+02,6.60000e+02,6.64000e+02,-4.00000e+00,4.42627e-12,1.35814e-01,5.93960e-12,1.35814e-01,1.76955e-12,1.35814e-01
7.72460e+02,6.50000e+02,6.78000e+02,-2.80000e+01,3.11827e-12,1.43359e-01,4.11377e-12,1.43359e-01,1.96146e-12,1.43359e-01
7.72711e+02,6.61000e+02,6.32000e+02,2.90000e+01,2.92717e-12,1.50904e-01,3.16960e-12,1.50904e-01,1.72215e-12,1.50904e-01
7.72961e+02,7.05000e+02,7.12000e+02,-7.00000e+00,1.73149e-12,1.58449e-01,7.84849e-13,1.58449e-01,1.68082e-12,1.58449e-01
7.73212e+02,6.41000e+02,6.66000e+02,-2.50000e+01,2.65609e-12,1.65994e-01,6.12406e-12,1.65994e-01,3.55341e-12,1.65994e-01
7.73462e+02,6.41000e+02,6.57000e+02,-1.60000e+01,1.94630e-12,1.73540e-01,7.53556e-12,1.73540e-01,5.66300e-12,1.73540e-01
7.73713e+02,6.73000e+02,6.48000e+02,2.50000e+01,1.27879e-12,1.81085e-01,4.49927e-12,1.81085e-01,4.73692e-12,1.81085e-01
7.73963e+02,6.77000e+02,6.84000e+02,-7.00000e+00,1.31914e-12,1.88630e-01,1.96359e-12,1.88630e-01,2.14472e-12,1.88630e-01
7.74214e+02,6.46000e+02,6.67000e+02,-2.10000e+01,2.36547e-12,1.96175e-01,1.21343e-12,1.96175e-01,1.28028e-12,1.96175e-01
7.74465e+02,6.91000e+02,6.46000e+02,4.50000e+01,4.18257e-12,2.03720e-01,2.22166e-12,2.03720e-01,2.19388e-12,2.03720e-01
7.74715e+02,6.82000e+02,6.71000e+02,1.10000e+01,5.44402e-12,2.11266e-01,4.03817e-12,2.11266e-01,1.97438e-12,2.11266e-01
7.74965e+02,6.72000e+02,7.19000e+02,-4.70000e+01,3.54369e-12,2.18811e-01,1.80910e-12,2.18811e-01,1.73838e-12,2.18811e-01
7.75216e+02,6.54000e+02,6.60000e+02,-6.00000e+00,1.55720e-12,2.26356e-01,2.47132e-12,2.26356e-01,3.12287e-12,2.26356e-01
7.75466e+02,7.48000e+02,7.13000e+02,3.50000e+01,9.99888e-13,2.33901e-01,3.55902e-12,2.33901e-01,3.38977e-12,2.33901e-01
7.75717e+02,6.88000e+02,6.88000e+02,0.00000e+00,1.30673e-12,2.41446e-01,1.50600e-12,2.41446e-01,2.55660e-12,2.41446e-01
7.75967e+02,6.70000e+02,7.41000e+02,-7.10000e+01,1.98191e-12,2.48992e-01,2.38158e-13,2.48992e-01,1.78522e-12,2.48992e-01
7.76218e+02,7.09000e+02,6.86000e+02,2.30000e+01,1.76287e-12,2.56537e-01,2.32288e-12,2.56537e-01,2.53641e-12,2.56537e-01
7.76468e+02,7.90000e+02,7.40000e+02,5.00000e+01,1.38152e-12,2.64082e-01,3.64410e-12,2.64082e-01,3.50428e-12,2.64082e-01
7.76719e+02,7.11000e+02,7.77000e+02,-6.60000e+01,1.08726e-12,2.71627e-01,3.30757e-12,2.71627e-01,2.25781e-12,2.71627e-01
7.76969e+02,7.10000e+02,7.45000e+02,-3.50000e+01,2.59463e-12,2.79172e-01,4.09004e-12,2.79172e-01,2.40021e-12,2.79172e-01
7.77219e+02,7.75000e+02,7.02000e+02,7.30000e+01,3.08032e-12,2.86718e-01,4.44776e-12,2.86718e-01,2.99462e-12,2.86718e-01
7.77470e+02,8.42000e+02,8.58000e+02,-1.60000e+01,1.64594e-12,2.94263e-01,2.58670e-12,2.94263e-01,1.69208e-12,2.94263e-01
7.77720e+02,7.17000e+02,8.08000e+02,-9.10000e+01,1.01138e-12,3.01808e-01,1.59418e-12,3.01808e-01,7.70084e-13,3.01808e-01
7.77971e+02,8.36000e+02,7.79000e+02,5.70000e+01,2.91211e-12,3.09353e-01,4.68761e-12,3.09353e-01,1.84486e-12,3.09353e-01
7.78221e+02,9.30000e+02,7.60000e+02,1.70000e+02,2.43077e-12,3.16898e-01,5.90659e-12,3.16898e-01,3.65601e-12,3.16898e-01
7.78471e+02,8.34000e+02,9.76000e+02,-1.42000e+02,1.31242e-12,3.24444e-01,4.99487e-12,3.24444e-01,4.49913e-12,3.24444e-01
7.78722e+02,7.51000e+02,8.55000e+02,-1.04000e+02,1.38024e-12,3.31989e-01,2.73595e-12,3.31989e-01,3.63791e-12,3.31989e-01
7.78972e+02,9.61000e+02,8.28000e+02,1.33000e+02,1.82006e-12,3.39534e-01,4.99693e-13,3.39534e-01,2.26508e-12,3.39534e-01
7.79222e+02,1.04900e+03,1.03300e+03,1.60000e+01,1.52747e-12,3.47079e-01,1.30558e-12,3.47079e-01,4.78542e-13,3.47079e-01
7.79473e+02,8.85000e+02,1.16600e+03,-2.81000e+02,2.95220e-12,3.54624e-01,1.94734e-12,3.54624e-01,2.00869e-12,3.54624e-01
7.79723e+02,8.92000e+02,8.76000e+02,1.60000e+01,4.48360e-12,3.62169e-01,2.14117e-12,3.62169e-01,3.52166e-12,3.62169e-01
7.79973e+02,1.19800e+03,9.58000e+02,2.40000e+02,3.03759e-12,3.69715e-01,1.59101e-12,3.69715e-01,3.49638e-12,3.69715e-01
7.80224e+02,9.78000e+02,1.17700e+03,-1.99000e+02,1.54124e-12,3.77260e-01,2.43312e-12,3.77260e-01,3.52402e-12,3.77260e-01
7.80474e+02,9.13000e+02,1.22900e+03,-3.16000e+02,2.65929e-12,3.84805e-01,4.18161e-12,3.84805e-01,3.13921e-12,3.84805e-01
7.80724e+02,1.01200e+03,8.94000e+02,1.18000e+02,2.01978e-12,3.92350e-01,3.84707e-12,3.92350e-01,2.22656e-12,3.92350e-01
7.80974e+02,1.18000e+03,1.17500e+03,5.00000e+00,1.70688e-12,3.99895e-01,2.89830e-12,3.99895e-01,1.33716e-12,3.99895e-01
7.81225e+02,9.49000e+02,1.27700e+03,-3.28000e+02,2.62733e-12,4.07441e-01,2.79147e-12,4.07441e-01,4.15282e-13,4.07441e-01
7.81475e+02,1.04900e+03,1.14700e+03,-9.80000e+01,3.03991e-12,4.14986e-01,3.19646e-12,4.14986e-01,2.17049e-12,4.14986e-01
7.81725e+02,1.34600e+03,1.04600e+03,3.00000e+02,2.35117e-12,4.22531e-01,2.47811e-12,4.22531e-01,2.52226e-12,4.22531e-01
7.81975e+02,1.33400e+03,1.52600e+03,-1.92000e+02,1.31060e-12,4.30076e-01,1.71784e-12,4.30076e-01,1.74907e-12,4.30076e-01
7.82226e+02,1.03400e+03,1.39100e+03,-3.57000e+02,6.43835e-13,4.37621e-01,1.73623e-12,4.37621e-01,2.37601e-12,4.37621e-01
7.82476e+02,1.38100e+03,1.08900e+03,2.92000e+02,1.21341e-12,4.45167e-01,2.72577e-12,4.45167e-01,1.86183e-12,4.45167e-01
7.82726e+02,1.56700e+03,1.30000e+03,2.67000e+02,2.78698e-12,4.52712e-01,3.34216e-12,4.52712e-01,7.75893e-13,4.52712e-01
7.82976e+02,1.26700e+03,1.61400e+03,-3.47000e+02,4.10607e-12,4.60257e-01,3.86777e-12,4.60257e-01,1.14405e-12,4.60257e-01
7.83226e+02,1.18500e+03,1.19600e+03,-1.10000e+01,4.55959e-12,4.67802e-01,4.35046e-12,4.67802e-01,2.78623e-13,4.67802e-01
7.83477e+02,1.75500e+03,1.24400e+03,5.11000e+02,4.16686e-12,4.75347e-01,4.09305e-12,4.75347e-01,6.75045e-13,4.75347e-01
7.83727e+02,1.66100e+03,1.72000e+03,-5.90000e+01,2.29621e-12,4.82893e-01,2.10576e-12,4.82893e-01,4.31521e-13,4.82893e-01
7.83977e+02,1.34500e+03,1.68700e+03,-3.42000e+02,1.13720e-12,4.90438e-01,9.92091e-13,4.90438e-01,2.12809e-12,4.90438e-01
7.84227e+02,1.69900e+03,1.28400e+03,4.15000e+02,4.55294e-13,4.97983e-01,2.73327e-12,4.97983e-01,2.84167e-12,4.97983e-01
7.84477e+02,2.33400e+03,1.73200e+03,6.02000e+02,4.75804e-13,5.05528e-01,2.12571e-12,5.05528e-01,1.89069e-12,5.05528e-01
7.84727e+02,1.80100e+03,2.15300e+03,-3.52000e+02,1.42551e-12,5.13073e-01,1.10922e-12,5.13073e-01,8.47046e-13,5.13073e-01
7.84978e+02,1.69500e+03,1.95700e+03,-2.62000e+02,2.56942e-12,5.20619e-01,1.97859e-12,5.20619e-01,6.04648e-13,5.20619e-01
7.85228e+02,2.43200e+03,1.58900e+03,8.43000e+02,3.26425e-12,5.28164e-01,3.08115e-12,5.28164e-01,2.92541e-13,5.28164e-01
7.85478e+02,2.65600e+03,2.42800e+03,2.28000e+02,2.78739e-12,5.35709e-01,2.65661e-12,5.35709e-01,1.31801e-12,5.35709e-01
7.85728e+02,1.90800e+03,2.77400e+03,-8.66000e+02,1.70836e-12,5.43254e-01,1.12975e-12,5.43254e-01,2.13356e-12,5.43254e-01
7.85978e+02,1.97700e+03,1.89200e+03,8.50000e+01,1.00299e-12,5.50799e-01,1.48786e-12,5.50799e-01,2.48452e-12,5.50799e-01
7.86228e+02,2.48900e+03,1.77900e+03,7.10000e+02,1.47234e-12,5.58345e-01,1.58804e-12,5.58345e-01,3.04361e-12,5.58345e-01
7.86478e+02,2.19300e+03,2.52400e+03,-3.31000e+02,1.70595e-12,5.65890e-01,1.26042e-12,5.65890e-01,2.36858e-12,5.65890e-01
7.86728e+02,1.65000e+03,2.28000e+03,-6.30000e+02,1.84149e-12,5.73435e-01,1.50054e-12,5.73435e-01,1.46038e-12,5.73435e-01
7.86978e+02,2.16600e+03,1.61000e+03,5.56000e+02,2.76648e-12,5.80980e-01,2.35073e-12,5.80980e-01,1.53292e-12,5.80980e-01
7.87228e+02,2.61500e+03,1.87000e+03,7.45000e+02,3.46000e-12,5.88525e-01,3.21318e-12,5.88525e-01,1.51589e-12,5.88525e-01
7.87478e+02,2.00500e+03,2.47700e+03,-4.72000e+02,3.15762e-12,5.96071e-01,3.05740e-12,5.96071e-01,1.20402e-12,5.96071e-01
7.87728e+02,1.70900e+03,1.94800e+03,-2.39000e+02,3.35935e-12,6.03616e-01,1.95191e-12,6.03616e-01,1.69838e-12,6.03616e-01
7.87978e+02,2.79600e+03,1.83600e+03,9.60000e+02,3.90349e-12,6.11161e-01,8.85816e-13,6.11161e-01,3.13111e-12,6.11161e-01
7.88228e+02,2.77300e+03,2.64500e+03,1.28000e+02,2.55101e-12,6.18706e-01,7.49203e-13,6.18706e-01,1.86082e-12,6.18706e-01
7.88478e+02,2.15800e+03,3.04900e+03,-8.91000e+02,6.08339e-13,6.26251e-01,9.30622e-13,6.26251e-01,1.52937e-12,6.26251e-01
7.88728e+02,2.54600e+03,2.26700e+03,2.79000e+02,1.16684e-12,6.33797e-01,1.94952e-12,6.33797e-01,2.39512e-12,6.33797e-01
7.88978e+02,3.34800e+03,2.46500e+03,8.83000e+02,1.48630e-12,6.41342e-01,3.20023e-12,6.41342e-01,2.49226e-12,6.41342e-01
7.89228e+02,2.89400e+03,3.45600e+03,-5.62000e+02,4.42077e-12,6.48887e-01,5.62784e-12,6.48887e-01,6.89590e-12,6.48887e-01
7.89478e+02,2.21600e+03,3.26900e+03,-1.05300e+03,7.43351e-12,6.56432e-01,6.02949e-12,6.56432e-01,1.09112e-11,6.56432e-01
7.89728e+02,3.06400e+03,2.24500e+03,8.19000e+02,1.33072e-11,6.63977e-01,1.16387e-11,6.63977e-01,2.21842e-11,6.63977e-01
7.89978e+02,3.90300e+03,2.83500e+03,1.06800e+03,2.08640e-11,6.71523e-01,2.06239e-11,6.71523e-01,3.72825e-11,6.71523e-01
7.90228e+02,2.94400e+03,3.90100e+03,-9.57000e+02,2.87168e-11,6.79068e-01,2.93492e-11,6.79068e-01,5.15310e-11,6.79068e-01
7.90478e+02,2.84200e+03,3.33200e+03,-4.90000e+02,3.37044e-11,6.86613e-01,3.32806e-11,6.86613e-01,5.85628e-11,6.86613e-01
7.90728e+02,4.24000e+03,2.75800e+03,1.48200e+03,3.51045e-11,6.94158e-01,3.30371e-11,6.94158e-01,5.87133e-11,6.94158e-01
7.90978e+02,4.49800e+03,4.13300e+03,3.65000e+02,3.19283e-11,7.01703e-01,3.01838e-11,7.01703e-01,5.25125e-11,7.01703e-01
7.91228e+02,3.12000e+03,4.44000e+03,-1.32000e+03,2.33383e-11,7.09249e-01,2.35647e-11,7.09249e-01,3.95388e-11,7.09249e-01
7.91478e+02,3.36500e+03,3.19800e+03,1.67000e+02,1.45255e-11,7.16794e-01,1.49175e-11,7.16794e-01,2.55153e-11,7.16794e-01
7.91728e+02,4.16300e+03,2.85400e+03,1.30900e+03,1.10926e-11,7.24339e-01,9.78556e-12,7.24339e-01,1.80753e-11,7.24339e-01
7.91977e+02,3.60500e+03,3.78000e+03,-1.75000e+02,7.70377e-12,7.31884e-01,6.53108e-12,7.31884e-01,1.19087e-11,7.31884e-01
7.92227e+02,2.78400e+03,3.37300e+03,-5.89000e+02,3.12634e-12,7.39429e-01,3.23079e-12,7.39429e-01,5.58362e-12,7.39429e-01
7.92477e+02,4.45700e+03,2.73300e+03,1.72400e+03,9.72691e-13,7.46975e-01,1.11057e-12,7.46975e-01,1.31317e-12,7.46975e-01
7.92727e+02,5.14900e+03,3.75100e+03,1.39800e+03,5.83938e-13,7.54520e-01,1.66425e-12,7.54520e-01,1.28310e-12,7.54520e-01
7.92977e+02,3.67400e+03,4.72100e+03,-1.04700e+03,1.83380e-12,7.62065e-01,2.63404e-13,7.62065e-01,2.00738e-12,7.62065e-01
7.93227e+02,3.01200e+03,3.54900e+03,-5.37000e+02,2.74427e-12,7.69610e-01,7.06568e-13,7.69610e-01,3.31411e-12,7.69610e-01
7.93476e+02,4.54500e+03,2.89700e+03,1.64800e+03,2.05545e-12,7.77155e-01,3.28980e-13,7.77155e-01,2.33056e-12,7.77155e-01
7.93726e+02,4.45900e+03,4.56500e+03,-1.06000e+02,1.70791e-12,7.84701e-01,5.50900e-13,7.84701e-01,2.06142e-12,7.84701e-01
7.93976e+02,3.25100e+03,4.99200e+03,-1.74100e+03,1.52234e-12,7.92246e-01,1.57481e-12,7.92246e-01,2.19807e-12,7.92246e-01
7.94226e+02,4.02700e+03,3.28000e+03,7.47000e+02,1.26160e-12,7.99791e-01,1.22931e-12,7.99791e-01,2.18754e-12,7.99791e-01
7.94476e+02,5.63600e+03,3.62400e+03,2.01200e+03,1.69539e-12,8.07336e-01,1.42574e-12,8.07336e-01,2.92164e-12,8.07336e-01
7.94725e+02,4.57800e+03,5.27600e+03,-6.98000e+02,1.74644e-12,8.14881e-01,1.50017e-12,8.14881e-01,3.16496e-12,8.14881e-01
7.94975e+02,3.43900e+03,5.41000e+03,-1.97100e+03,5.59784e-13,8.22427e-01,1.73411e-12,8.22427e-01,2.20546e-12,8.22427e-01
7.95225e+02,4.46000e+03,3.68600e+03,7.74000e+02,1.04046e-12,8.29972e-01,2.07691e-12,8.29972e-01,1.06955e-12,8.29972e-01
7.95475e+02,5.94100e+03,4.63700e+03,1.30400e+03,1.46504e-12,8.37517e-01,2.06350e-12,8.37517e-01,1.05996e-12,8.37517e-01
7.95724e+02,4.27500e+03,5.88400e+03,-1.60900e+03,1.12453e-12,8.45062e-01,1.39873e-12,8.45062e-01,3.33959e-13,8.45062e-01
7.95974e+02,3.94800e+03,4.67700e+03,-7.29000e+02,9.86502e-13,8.52607e-01,8.32701e-13,8.52607e-01,1.82384e-13,8.52607e-01
7.96224e+02,6.23000e+03,3.84100e+03,2.38900e+03,8.74800e-13,8.60153e-01,7.47553e-13,8.60153e-01,7.67201e-13,8.60153e-01
7.96474e+02,6.51300e+03,5.87300e+03,6.40000e+02,1.32840e-12,8.67698e-01,1.07084e-12,8.67698e-01,1.91820e-12,8.67698e-01
7.96723e+02,4.27400e+03,6.55500e+03,-2.28100e+03,1.55234e-12,8.75243e-01,1.15796e-12,8.75243e-01,2.67337e-12,8.75243e-01
7.96973e+02,5.05500e+03,4.58900e+03,4.66000e+02,7.71692e-13,8.82788e-01,1.61919e-12,8.82788e-01,2.38778e-12,8.82788e-01
7.97223e+02,8.06400e+03,5.14900e+03,2.91500e+03,4.54424e-13,8.90333e-01,1.71677e-12,8.90333e-01,1.49906e-12,8.90333e-01
7.97472e+02,6.24900e+03,7.74100e+03,-1.49200e+03,1.02672e-12,8.97879e-01,1.22647e-12,8.97879e-01,1.31004e-12,8.97879e-01
7.97722e+02,4.72000e+03,7.82300e+03,-3.10300e+03,1.42823e-12,9.05424e-01,1.21370e-12,9.05424e-01,1.65389e-12,9.05424e-01
7.97972e+02,6.37100e+03,5.09100e+03,1.28000e+03,1.48732e-12,9.12969e-01,1.29870e-12,9.12969e-01,1.39489e-12,9.12969e-01
7.98221e+02,7.56200e+03,5.43200e+03,2.13000e+03,8.15362e-13,9.20514e-01,1.18641e-12,9.20514e-01,9.13576e-13,9.20514e-01
7.98471e+02,5.06300e+03,6.38300e+03,-1.32000e+03,4.07184e-13,9.28059e-01,8.45583e-13,9.28059e-01,4.38946e-13,9.28059e-01
7.98721e+02,4.52600e+03,5.28500e+03,-7.59000e+02,7.25339e-13,9.35605e-01,7.07573e-13,9.35605e-01,5.96887e-13,9.35605e-01
7.98970e+02,7.42900e+03,4.47300e+03,2.95600e+03,3.41874e-13,9.43150e-01,8.15201e-13,9.43150e-01,1.15443e-12,9.43150e-01
7.99220e+02,8.21400e+03,6.82500e+03,1.38900e+03,6.38344e-13,9.50695e-01,7.55095e-13,9.50695e-01,9.09645e-13,9.50695e-01
7.99469e+02,5.32000e+03,7.87700e+03,-2.55700e+03,4.84710e-13,9.58240e-01,9.03720e-13,9.58240e-01,6.97622e-13,9.58240e-01
7.99719e+02,5.50100e+03,5.36800e+03,1.33000e+02,5.93906e-13,9.65785e-01,9.54941e-13,9.65785e-01,1.35643e-12,9.65785e-01
7.99969e+02,8.55200e+03,5.26900e+03,3.28300e+03,4.83039e-13,9.73331e-01,5.88844e-13,9.73331e-01,9.74397e-13,9.73331e-01
8.00218e+02,7.49000e+03,8.19700e+03,-7.07000e+02,2.10848e-13,9.80876e-01,9.44929e-13,9.80876e-01,1.11410e-12,9.80876e-01
8.00468e+02,5.41700e+03,8.03500e+03,-2.61800e+03,4.10208e-13,9.88421e-01,1.17150e-12,9.88421e-01,8.06388e-13,9.88421e-01
8.00717e+02,7.08300e+03,5.34100e+03,1.74200e+03,1.37150e-12,9.95966e-01,9.57831e-13,9.95966e-01,8.37114e-13,9.95966e-01
8.00967e+02,8.59700e+03,6.68100e+03,1.91600e+03,1.48898e-12,1.00351e+00,8.78091e-13,1.00351e+00,1.57307e-12,1.00351e+00
8.01216e+02,6.59300e+03,1.02610e+04,-3.66800e+03,1.03365e-12,1.01106e+00,8.18239e-13,1.01106e+00,1.38876e-12,1.01106e+00
8.01466e+02,5.71900e+03,8.89000e+03,-3.17100e+03,7.73858e-13,1.01860e+00,3.82468e-13,1.01860e+00,8.39339e-13,1.01860e+00
8.01715e+02,8.91400e+03,6.14400e+03,2.77000e+03,7.45504e-13,1.02615e+00,4.99055e-13,1.02615e+00,4.73904e-13,1.02615e+00
8.01965e+02,9.67300e+03,7.93800e+03,1.73500e+03,6.76293e-13,1.03369e+00,6.57098e-13,1.03369e+00,3.42787e-13,1.03369e+00
8.02215e+02,6.75200e+03,9.98100e+03,-3.22900e+03,7.29133e-13,1.04124e+00,2.52566e-13,1.04124e+00,4.84266e-13,1.04124e+00
8.02464e+02,6.67000e+03,6.93800e+03,-2.68000e+02,6.10763e-13,1.04878e+00,7.07920e-13,1.04878e+00,1.26273e-12,1.04878e+00
8.02713e+02,9.66400e+03,5.84400e+03,3.82000e+03,7.33049e-13,1.05633e+00,7.62432e-13,1.05633e+00,1.32135e-12,1.05633e+00
8.02963e+02,9.24500e+03,9.28500e+03,-4.00000e+01,3.47102e-13,1.06387e+00,1.22618e-12,1.06387e+00,8.89216e-13,1.06387e+00
8.03212e+02,6.64700e+03,1.03980e+04,-3.75100e+03,9.45938e-13,1.07142e+00,1.22957e-12,1.07142e+00,2.87489e-13,1.07142e+00
8.03462e+02,8.68100e+03,7.20700e+03,1.47400e+03,8.69451e-13,1.07896e+00,1.05591e-12,1.07896e+00,2.07173e-13,1.07896e+00
8.03711e+02,1.21840e+04,7.33400e+03,4.85000e+03,7.86292e-13,1.08651e+00,4.64592e-13,1.08651e+00,3.22488e-13,1.08651e+00
8.03961e+02,9.30500e+03,1.01550e+04,-8.50000e+02,9.14193e-13,1.09405e+00,2.16118e-13,1.09405e+00,6.98268e-13,1.09405e+00
8.04210e+02,6.19300e+03,8.98000e+03,-2.78700e+03,1.04859e-12,1.10160e+00,4.44272e-15,1.10160e+00,1.05277e-12,1.10160e+00
8.04460e+02,9.42600e+03,6.12700e+03,3.29900e+03,8.85785e-13,1.10914e+00,4.76871e-13,1.10914e+00,1.05700e-12,1.10914e+00
8.04709e+02,1.19700e+04,8.81100e+03,3.15900e+03,4.65865e-13,1.11669e+00,8.94763e-13,1.11669e+00,1.00657e-12,1.11669e+00
8.04958e+02,8.74400e+03,1.18560e+04,-3.11200e+03,3.17290e-13,1.12423e+00,7.58806e-13,1.12423e+00,9.67681e-13,1.12423e+00
8.05208e+02,7.03100e+03,9.87800e+03,-2.84700e+03,2.63578e-13,1.13178e+00,1.00868e-12,1.13178e+00,1.04139e-12,1.13178e+00
8.05457e+02,9.87500e+03,6.59500e+03,3.28000e+03,8.99483e-13,1.13932e+00,1.44848e-12,1.13932e+00,1.06141e-12,1.13932e+00
8.05707e+02,1.11880e+04,9.74800e+03,1.44000e+03,1.35098e-12,1.14687e+00,1.34698e-12,1.14687e+00,9.88677e-13,1.14687e+00
8.05956e+02,8.07500e+03,1.29480e+04,-4.87300e+03,9.06274e-13,1.15442e+00,7.05700e-13,1.15442e+00,5.22650e-13,1.15442e+00
8.06205e+02,7.28900e+03,8.46600e+03,-1.17700e+03,2.96034e-13,1.16196e+00,1.65186e-13,1.16196e+00,1.42634e-13,1.16196e+00
8.06455e+02,1.08670e+04,6.60400e+03,4.26300e+03,7.50386e-13,1.16951e+00,2.65894e-13,1.16951e+00,7.23206e-13,1.16951e+00
8.06704e+02,1.11330e+04,9.82000e+03,1.31300e+03,9.15533e-13,1.17705e+00,1.21767e-13,1.17705e+00,8.17276e-13,1.17705e+00
8.06953e+02,7.32800e+03,1.16030e+04,-4.27500e+03,7.39308e-13,1.18460e+00,1.64510e-13,1.18460e+00,8.35127e-13,1.18460e+00
8.07203e+02,7.35000e+03,7.27500e+03,7.50000e+01,5.26216e-13,1.19214e+00,4.74369e-13,1.19214e+00,9.62585e-13,1.19214e+00
8.07452e+02,1.11810e+04,6.67700e+03,4.50400e+03,6.81616e-13,1.19969e+00,1.29123e-12,1.19969e+00,1.27524e-12,1.19969e+00
8.07701e+02,1.04500e+04,1.04270e+04,2.30000e+01,1.05646e-12,1.20723e+00,1.68301e-12,1.20723e+00,1.27410e-12,1.20723e+00
8.07951e+02,6.47500e+03,1.06570e+04,-4.18200e+03,1.16432e-12,1.21478e+00,1.30561e-12,1.21478e+00,9.08579e-13,1.21478e+00
8.08200e+02,7.60300e+03,7.04900e+03,5.54000e+02,7.97957e-13,1.22232e+00,6.94205e-13,1.22232e+00,6.34378e-13,1.22232e+00
8.08449e+02,1.16330e+04,7.59800e+03,4.03500e+03,3.85807e-13,1.22987e+00,4.35361e-13,1.22987e+00,8.06341e-13,1.22987e+00
8.08698e+02,9.48200e+03,1.21460e+04,-2.66400e+03,4.05964e-13,1.23741e+00,6.44161e-13,1.23741e+00,8.19894e-13,1.23741e+00
8.08948e+02,7.62300e+03,1.16830e+04,-4.06000e+03,1.25557e-13,1.24496e+00,6.69356e-13,1.24496e+00,7.08287e-13,1.24496e+00
8.09197e+02,1.11530e+04,7.63600e+03,3.51700e+03,6.71528e-13,1.25250e+00,5.28104e-13,1.25250e+00,1.18120e-12,1.25250e+00
8.09446e+02,1.24140e+04,9.03100e+03,3.38300e+03,9.59252e-13,1.26005e+00,5.26655e-13,1.26005e+00,1.43052e-12,1.26005e+00
8.09695e+02,9.21800e+03,1.30500e+04,-3.83200e+03,5.26823e-13,1.26759e+00,1.02189e-12,1.26759e+00,1.39306e-12,1.26759e+00
8.09945e+02,8.55300e+03,1.11460e+04,-2.59300e+03,7.15508e-14,1.27514e+00,1.13275e-12,1.27514e+00,1.19329e-12,1.27514e+00
8.10194e+02,1.38130e+04,8.07600e+03,5.73700e+03,5.29144e-13,1.28268e+00,5.41581e-13,1.28268e+00,9.28195e-13,1.28268e+00
8.10443e+02,1.39860e+04,1.08780e+04,3.10800e+03,1.03123e-12,1.29023e+00,4.28771e-13,1.29023e+00,8.31224e-13,1.29023e+00
8.10692e+02,8.56900e+03,1.26220e+04,-4.05300e+03,9.02603e-13,1.29777e+00,4.93153e-13,1.29777e+00,4.69242e-13,1.29777e+00
8.10941e+02,8.72900e+03,9.47500e+03,-7.46000e+02,4.80075e-13,1.30532e+00,6.05183e-13,1.30532e+00,1.37980e-13,1.30532e+00
8.11191e+02,1.31400e+04,7.49800e+03,5.64200e+03,1.79484e-14,1.31286e+00,1.06389e-13,1.31286e+00,1.04976e-13,1.31286e+00
8.11440e+02,1.30460e+04,1.22860e+04,7.60000e+02,1.50469e-12,-1.32041e+00,1.47786e-12,-1.32041e+00,2.68335e-14,-1.32041e+00
8.11689e+02,8.83400e+03,1.47040e+04,-5.87000e+03,1.79484e-14,-1.31286e+00,1.06389e-13,-1.31286e+00,1.04976e-13,-1.31286e+00
8.11938e+02,8.94900e+03,1.02140e+04,-1.26500e+03,4.80075e-13,-1.30532e+00,6.05183e-13,-1.30532e+00,1.37980e-13,-1.30532e+00
8.12187e+02,1.33410e+04,8.17600e+03,5.16500e+03,9.02603e-13,-1.29777e+00,4.93153e-13,-1.29777e+00,4.69242e-13,-1.29777e+00
8.12436e+02,1.23850e+04,1.20070e+04,3.78000e+02,1.03123e-12,-1.29023e+00,4.28771e-13,-1.29023e+00,8.31224e-13,-1.29023e+00
8.12685e+02,8.23400e+03,1.23730e+04,-4.13900e+03,5.29144e-13,-1.28268e+00,5.41581e-13,-1.28268e+00,9.28195e-13,-1.28268e+00
8.12935e+02,1.01350e+04,8.62600e+03,1.50900e+03,7.15508e-14,-1.27514e+00,1.13275e-12,-1.27514e+00,1.19329e-12,-1.27514e+00
8.13184e+02,1.36140e+04,9.44800e+03,4.16600e+03,5.26823e-13,-1.26759e+00,1.02189e-12,-1.26759e+00,1.39306e-12,-1.26759e+00
8.13433e+02,1.16040e+04,1.38540e+04,-2.25000e+03,9.59252e-13,-1.26005e+00,5.26655e-13,-1.26005e+00,1.43052e-12,-1.26005e+00
8.13682e+02,7.65300e+03,1.34300e+04,-5.77700e+03,6.71528e-13,-1.25250e+00,5.28104e-13,-1.25250e+00,1.18120e-12,-1.25250e+00
8.13931e+02,9.90000e+03,8.63000e+03,1.27000e+03,1.25557e-13,-1.24496e+00,6.69356e-13,-1.24496e+00,7.08287e-13,-1.24496e+00
8.14180e+02,1.21480e+04,7.83600e+03,4.31200e+03,4.05964e-13,-1.23741e+00,6.44161e-13,-1.23741e+00,8.19894e-13,-1.23741e+00
8.14429e+02,1.06580e+04,1.19560e+04,-1.29800e+03,3.85807e-13,-1.22987e+00,4.35361e-13,-1.22987e+00,8.06341e-13,-1.22987e+00
8.14678e+02,7.50600e+03,1.16530e+04,-4.14700e+03,7.97957e-13,-1.22232e+00,6.94205e-13,-1.22232e+00,6.34378e-13,-1.22232e+00
8.14927e+02,1.08070e+04,7.07000e+03,3.73700e+03,1.16432e-12,-1.21478e+00,1.30561e-12,-1.21478e+00,9.08579e-13,-1.21478e+00
8.15176e+02,1.26880e+04,8.56800e+03,4.12000e+03,1.05646e-12,-1.20723e+00,1.68301e-12,-1.20723e+00,1.27410e-12,-1.20723e+00
8.15425e+02,8.78800e+03,1.18360e+04,-3.04800e+03,6.81616e-13,-1.19969e+00,1.29123e-12,-1.19969e+00,1.27524e-12,-1.19969e+00
8.15674e+02,7.43200e+03,1.06040e+04,-3.17200e+03,5.26216e-13,-1.19214e+00,4.74369e-13,-1.19214e+00,9.62585e-13,-1.19214e+00
8.15923e+02,1.25290e+04,7.26800e+03,5.26100e+03,7.39308e-13,-1.18460e+00,1.64510e-13,-1.18460e+00,8.35127e-13,-1.18460e+00
8.16172e+02,1.44800e+04,1.13860e+04,3.09400e+03,9.15533e-13,-1.17705e+00,1.21767e-13,-1.17705e+00,8.17276e-13,-1.17705e+00
8.16421e+02,8.74100e+03,1.33160e+04,-4.57500e+03,7.50386e-13,-1.16951e+00,2.65894e-13,-1.16951e+00,7.23206e-13,-1.16951e+00
8.16670e+02,7.48600e+03,8.28500e+03,-7.99000e+02,2.96034e-13,-1.16196e+00,1.65186e-13,-1.16196e+00,1.42634e-13,-1.16196e+00
8.16919e+02,1.12850e+04,6.39400e+03,4.89100e+03,9.06274e-13,-1.15442e+00,7.05700e-13,-1.15442e+00,5.22650e-13,-1.15442e+00
8.17168e+02,1.04880e+04,8.95000e+03,1.53800e+03,1.35098e-12,-1.14687e+00,1.34698e-12,-1.14687e+00,9.88677e-13,-1.14687e+00
8.17417e+02,6.78400e+03,1.05950e+04,-3.81100e+03,8.99483e-13,-1.13932e+00,1.44848e-12,-1.13932e+00,1.06141e-12,-1.13932e+00
8.17666e+02,7.36700e+03,7.84300e+03,-4.76000e+02,2.63578e-13,-1.13178e+00,1.00868e-12,-1.13178e+00,1.04139e-12,-1.13178e+00
8.17915e+02,1.15640e+04,6.55900e+03,5.00500e+03,3.17290e-13,-1.12423e+00,7.58806e-13,-1.12423e+00,9.67681e-13,-1.12423e+00
8.18164e+02,1.03610e+04,9.08700e+03,1.27400e+03,4.65865e-13,-1.11669e+00,8.94763e-13,-1.11669e+00,1.00657e-12,-1.11669e+00
8.18413e+02,6.13800e+03,1.03900e+04,-4.25200e+03,8.85785e-13,-1.10914e+00,4.76871e-13,-1.10914e+00,1.05700e-12,-1.10914e+00
8.18662e+02,7.16600e+03,6.76000e+03,4.06000e+02,1.04859e-12,-1.10160e+00,4.44272e-15,-1.10160e+00,1.05277e-12,-1.10160e+00
8.18911e+02,1.08730e+04,6.21800e+03,4.65500e+03,9.14193e-13,-1.09405e+00,2.16118e-13,-1.09405e+00,6.98268e-13,-1.09405e+00
8.19160e+02,8.84600e+03,9.09500e+03,-2.49000e+02,7.86292e-13,-1.08651e+00,4.64592e-13,-1.08651e+00,3.22488e-13,-1.08651e+00
8.19408e+02,5.48000e+03,9.22400e+03,-3.74400e+03,8.69451e-13,-1.07896e+00,1.05591e-12,-1.07896e+00,2.07173e-13,-1.07896e+00
8.19657e+02,7.62300e+03,6.27900e+03,1.34400e+03,9.45938e-13,-1.07142e+00,1.22957e-12,-1.07142e+00,2.87489e-13,-1.07142e+00
8.19906e+02,1.14860e+04,7.30200e+03,4.18400e+03,3.47102e-13,-1.06387e+00,1.22618e-12,-1.06387e+00,8.89216e-13,-1.06387e+00
8.20155e+02,9.57400e+03,1.05380e+04,-9.64000e+02,7.33049e-13,-1.05633e+00,7.62432e-13,-1.05633e+00,1.32135e-12,-1.05633e+00
8.20404e+02,5.92300e+03,9.70200e+03,-3.77900e+03,6.10763e-13,-1.04878e+00,7.07920e-13,-1.04878e+00,1.26273e-12,-1.04878e+00
8.20653e+02,7.35200e+03,5.65800e+03,1.69400e+03,7.29133e-13,-1.04124e+00,2.52566e-13,-1.04124e+00,4.84266e-13,-1.04124e+00
8.20901e+02,9.26400e+03,5.67300e+03,3.59100e+03,6.76293e-13,-1.03369e+00,6.57098e-13,-1.03369e+00,3.42787e-13,-1.03369e+00
8.21150e+02,7.46100e+03,8.64900e+03,-1.18800e+03,7.45504e-13,-1.02615e+00,4.99055e-13,-1.02615e+00,4.73904e-13,-1.02615e+00
8.21399e+02,5.06900e+03,7.51400e+03,-2.44500e+03,7.73858e-13,-1.01860e+00,3.82468e-13,-1.01860e+00,8.39339e-13,-1.01860e+00
8.21648e+02,7.55600e+03,4.76300e+03,2.79300e+03,1.03365e-12,-1.01106e+00,8.18239e-13,-1.01106e+00,1.38876e-12,-1.01106e+00
8.21897e+02,9.07000e+03,5.38600e+03,3.68400e+03,1.48898e-12,-1.00351e+00,8.78091e-13,-1.00351e+00,1.57307e-12,-1.00351e+00
8.22145e+02,6.21000e+03,7.12400e+03,-9.14000e+02,1.37150e-12,-9.95966e-01,9.57831e-13,-9.95966e-01,8.37114e-13,-9.95966e-01
8.22394e+02,4.66200e+03,6.50600e+03,-1.84400e+03,4.10208e-13,-9.88421e-01,1.17150e-12,-9.88421e-01,8.06388e-13,-9.88421e-01
8.22643e+02,6.93800e+03,4.51800e+03,2.42000e+03,2.10848e-13,-9.80876e-01,9.44929e-13,-9.80876e-01,1.11410e-12,-9.80876e-01
8.22892e+02,8.23600e+03,5.64800e+03,2.58800e+03,4.83039e-13,-9.73331e-01,5.88844e-13,-9.73331e-01,9.74397e-13,-9.73331e-01
8.23140e+02,5.81400e+03,7.98700e+03,-2.17300e+03,5.93906e-13,-9.65785e-01,9.54941e-13,-9.65785e-01,1.35643e-12,-9.65785e-01
8.23389e+02,4.41300e+03,6.49800e+03,-2.08500e+03,4.84710e-13,-9.58240e-01,9.03720e-13,-9.58240e-01,6.97622e-13,-9.58240e-01
8.23638e+02,6.18000e+03,4.48100e+03,1.69900e+03,6.38344e-13,-9.50695e-01,7.55095e-13,-9.50695e-01,9.09645e-13,-9.50695e-01
8.23887e+02,6.84800e+03,5.49700e+03,1.35100e+03,3.41874e-13,-9.43150e-01,8.15201e-13,-9.43150e-01,1.15443e-12,-9.43150e-01
8.24135e+02,4.88900e+03,6.92200e+03,-2.03300e+03,7.25339e-13,-9.35605e-01,7.07573e-13,-9.35605e-01,5.96887e-13,-9.35605e-01
8.24384e+02,3.95400e+03,5.89200e+03,-1.93800e+03,4.07184e-13,-9.28059e-01,8.45583e-13,-9.28059e-01,4.38946e-13,-9.28059e-01
8.24633e+02,6.16400e+03,4.06500e+03,2.09900e+03,8.15362e-13,-9.20514e-01,1.18641e-12,-9.20514e-01,9.13576e-13,-9.20514e-01
8.24881e+02,7.11600e+03,5.60100e+03,1.51500e+03,1.48732e-12,-9.12969e-01,1.29870e-12,-9.12969e-01,1.39489e-12,-9.12969e-01
8.25130e+02,4.89900e+03,7.14600e+03,-2.24700e+03,1.42823e-12,-9.05424e-01,1.21370e-12,-9.05424e-01,1.65389e-12,-9.05424e-01
8.25379e+02,4.44400e+03,5.58700e+03,-1.14300e+03,1.02672e-12,-8.97879e-01,1.22647e-12,-8.97879e-01,1.31004e-12,-8.97879e-01
8.25627e+02,5.49900e+03,3.70400e+03,1.79500e+03,4.54424e-13,-8.90333e-01,1.71677e-12,-8.90333e-01,1.49906e-12,-8.90333e-01
8.25876e+02,5.38300e+03,4.77400e+03,6.09000e+02,7.71692e-13,-8.82788e-01,1.61919e-12,-8.82788e-01,2.38778e-12,-8.82788e-01
8.26125e+02,3.81100e+03,5.74800e+03,-1.93700e+03,1.55234e-12,-8.75243e-01,1.15796e-12,-8.75243e-01,2.67337e-12,-8.75243e-01
8.26373e+02,3.24300e+03,4.02100e+03,-7.78000e+02,1.32840e-12,-8.67698e-01,1.07084e-12,-8.67698e-01,1.91820e-12,-8.67698e-01
8.26622e+02,4.00700e+03,2.63300e+03,1.37400e+03,8.74800e-13,-8.60153e-01,7.47553e-13,-8.60153e-01,7.67201e-13,-8.60153e-01
8.26870e+02,4.00600e+03,3.54700e+03,4.59000e+02,9.86502e-13,-8.52607e-01,8.32701e-13,-8.52607e-01,1.82384e-13,-8.52607e-01
8.27119e+02,2.83900e+03,4.20600e+03,-1.36700e+03,1.12453e-12,-8.45062e-01,1.39873e-12,-8.45062e-01,3.33959e-13,-8.45062e-01
8.27368e+02,2.92800e+03,3.37200e+03,-4.44000e+02,1.46504e-12,-8.37517e-01,2.06350e-12,-8.37517e-01,1.05996e-12,-8.37517e-01
8.27616e+02,3.73400e+03,2.52900e+03,1.20500e+03,1.04046e-12,-8.29972e-01,2.07691e-12,-8.29972e-01,1.06955e-12,-8.29972e-01
8.27865e+02,3.51000e+03,3.42000e+03,9.00000e+01,5.59784e-13,-8.22427e-01,1.73411e-12,-8.22427e-01,2.20546e-12,-8.22427e-01
8.28113e+02,2.76900e+03,4.64700e+03,-1.87800e+03,1.74644e-12,-8.14881e-01,1.50017e-12,-8.14881e-01,3.16496e-12,-8.14881e-01
8.28362e+02,2.56600e+03,3.65900e+03,-1.09300e+03,1.69539e-12,-8.07336e-01,1.42574e-12,-8.07336e-01,2.92164e-12,-8.07336e-01
8.28610e+02,3.82000e+03,2.53000e+03,1.29000e+03,1.26160e-12,-7.99791e-01,1.22931e-12,-7.99791e-01,2.18754e-12,-7.99791e-01
8.28859e+02,3.70000e+03,3.17700e+03,5.23000e+02,1.52234e-12,-7.92246e-01,1.57481e-12,-7.92246e-01,2.19807e-12,-7.92246e-01
8.29108e+02,2.24800e+03,3.63200e+03,-1.38400e+03,1.70791e-12,-7.84701e-01,5.50900e-13,-7.84701e-01,2.06142e-12,-7.84701e-01
8.29356e+02,2.09800e+03,2.83000e+03,-7.32000e+02,2.05545e-12,-7.77155e-01,3.28980e-13,-7.77155e-01,2.33056e-12,-7.77155e-01
8.29605e+02,2.84600e+03,1.92500e+03,9.21000e+02,2.74427e-12,-7.69610e-01,7.06568e-13,-7.69610e-01,3.31411e-12,-7.69610e-01
8.29853e+02,2.72800e+03,2.45500e+03,2.73000e+02,1.83380e-12,-7.62065e-01,2.63404e-13,-7.62065e-01,2.00738e-12,-7.62065e-01
8.30101e+02,1.91100e+03,3.06100e+03,-1.15000e+03,5.83938e-13,-7.54520e-01,1.66425e-12,-7.54520e-01,1.28310e-12,-7.54520e-01
8.30350e+02,1.96300e+03,2.54100e+03,-5.78000e+02,9.72691e-13,-7.46975e-01,1.11057e-12,-7.46975e-01,1.31317e-12,-7.46975e-01
8.30598e+02,2.44800e+03,1.76900e+03,6.79000e+02,3.12634e-12,-7.39429e-01,3.23079e-12,-7.39429e-01,5.58362e-12,-7.39429e-01
8.30847e+02,2.47300e+03,2.41000e+03,6.30000e+01,7.70377e-12,-7.31884e-01,6.53108e-12,-7.31884e-01,1.19087e-11,-7.31884e-01
8.31095e+02,1.83300e+03,3.09100e+03,-1.25800e+03,1.10926e-11,-7.24339e-01,9.78556e-12,-7.24339e-01,1.80753e-11,-7.24339e-01
8.31344e+02,1.83200e+03,2.25200e+03,-4.20000e+02,1.45255e-11,-7.16794e-01,1.49175e-11,-7.16794e-01,2.55153e-11,-7.16794e-01
8.31592e+02,2.40600e+03,1.53000e+03,8.76000e+02,2.33383e-11,-7.09249e-01,2.35647e-11,-7.09249e-01,3.95388e-11,-7.09249e-01
8.31841e+02,2.26400e+03,1.93400e+03,3.30000e+02,3.19283e-11,-7.01703e-01,3.01838e-11,-7.01703e-01,5.25125e-11,-7.01703e-01
8.32089e+02,1.51100e+03,2.46600e+03,-9.55000e+02,3.51045e-11,-6.94158e-01,3.30371e-11,-6.94158e-01,5.87133e-11,-6.94158e-01
8.32337e+02,1.51200e+03,1.95600e+03,-4.44000e+02,3.37044e-11,-6.86613e-01,3.32806e-11,-6.86613e-01,5.85628e-11,-6.86613e-01
8.32586e+02,1.91700e+03,1.32700e+03,5.90000e+02,2.87168e-11,-6.79068e-01,2.93492e-11,-6.79068e-01,5.15310e-11,-6.79068e-01
8.32834e+02,2.01500e+03,1.74200e+03,2.73000e+02,2.08640e-11,-6.71523e-01,2.06239e-11,-6.71523e-01,3.72825e-11,-6.71523e-01
8.33083e+02,1.33400e+03,1.91500e+03,-5.81000e+02,1.33072e-11,-6.63977e-01,1.16387e-11,-6.63977e-01,2.21842e-11,-6.63977e-01
8.33331e+02,1.22600e+03,1.50000e+03,-2.74000e+02,7.43351e-12,-6.56432e-01,6.02949e-12,-6.56432e-01,1.09112e-11,-6.56432e-01
8.33579e+02,1.60600e+03,1.10000e+03,5.06000e+02,4.42077e-12,-6.48887e-01,5.62784e-12,-6.48887e-01,6.89590e-12,-6.48887e-01
8.33828e+02,1.64600e+03,1.44600e+03,2.00000e+02,1.48630e-12,-6.41342e-01,3.20023e-12,-6.41342e-01,2.49226e-12,-6.41342e-01
8.34076e+02,1.11400e+03,1.51600e+03,-4.02000e+02,1.16684e-12,-6.33797e-01,1.94952e-12,-6.33797e-01,2.39512e-12,-6.33797e-01
8.34324e+02,1.01900e+03,1.31000e+03,-2.91000e+02,6.08339e-13,-6.26251e-01,9.30622e-13,-6.26251e-01,1.52937e-12,-6.26251e-01
8.34573e+02,1.32500e+03,1.00100e+03,3.24000e+02,2.55101e-12,-6.18706e-01,7.49203e-13,-6.18706e-01,1.86082e-12,-6.18706e-01
8.34821e+02,1.48200e+03,1.19600e+03,2.86000e+02,3.90349e-12,-6.11161e-01,8.85816e-13,-6.11161e-01,3.13111e-12,-6.11161e-01
8.35069e+02,9.54000e+02,1.35800e+03,-4.04000e+02,3.35935e-12,-6.03616e-01,1.95191e-12,-6.03616e-01,1.69838e-12,-6.03616e-01
8.35318e+02,9.30000e+02,1.35200e+03,-4.22000e+02,3.15762e-12,-5.96071e-01,3.05740e-12,-5.96071e-01,1.20402e-12,-5.96071e-01
8.35566e+02,1.09300e+03,8.53000e+02,2.40000e+02,3.46000e-12,-5.88525e-01,3.21318e-12,-5.88525e-01,1.51589e-12,-5.88525e-01
8.35814e+02,1.21900e+03,1.03800e+03,1.81000e+02,2.76648e-12,-5.80980e-01,2.35073e-12,-5.80980e-01,1.53292e-12,-5.80980e-01
8.36062e+02,8.92000e+02,1.11400e+03,-2.22000e+02,1.84149e-12,-5.73435e-01,1.50054e-12,-5.73435e-01,1.46038e-12,-5.73435e-01
8.36311e+02,7.95000e+02,1.00200e+03,-2.07000e+02,1.70595e-12,-5.65890e-01,1.26042e-12,-5.65890e-01,2.36858e-12,-5.65890e-01
8.36559e+02,9.81000e+02,7.80000e+02,2.01000e+02,1.47234e-12,-5.58345e-01,1.58804e-12,-5.58345e-01,3.04361e-12,-5.58345e-01
8.36807e+02,1.14900e+03,8.73000e+02,2.76000e+02,1.00299e-12,-5.50799e-01,1.48786e-12,-5.50799e-01,2.48452e-12,-5.50799e-01
8.37055e+02,8.82000e+02,1.00200e+03,-1.20000e+02,1.70836e-12,-5.43254e-01,1.12975e-12,-5.43254e-01,2.13356e-12,-5.43254e-01
8.37304e+02,7.47000e+02,9.06000e+02,-1.59000e+02,2.78739e-12,-5.35709e-01,2.65661e-12,-5.35709e-01,1.31801e-12,-5.35709e-01
8.37552e+02,8.20000e+02,7.22000e+02,9.80000e+01,3.26425e-12,-5.28164e-01,3.08115e-12,-5.28164e-01,2.92541e-13,-5.28164e-01
8.37800e+02,9.11000e+02,7.75000e+02,1.36000e+02,2.56942e-12,-5.20619e-01,1.97859e-12,-5.20619e-01,6.04648e-13,-5.20619e-01
8.38048e+02,7.10000e+02,8.05000e+02,-9.50000e+01,1.42551e-12,-5.13073e-01,1.10922e-12,-5.13073e-01,8.47046e-13,-5.13073e-01
8.38296e+02,6.95000e+02,7.83000e+02,-8.80000e+01,4.75804e-13,-5.05528e-01,2.12571e-12,-5.05528e-01,1.89069e-12,-5.05528e-01
8.38545e+02,7.44000e+02,6.83000e+02,6.10000e+01,4.55294e-13,-4.97983e-01,2.73327e-12,-4.97983e-01,2.84167e-12,-4.97983e-01
8.38793e+02,8.07000e+02,7.09000e+02,9.80000e+01,1.13720e-12,-4.90438e-01,9.92091e-13,-4.90438e-01,2.12809e-12,-4.90438e-01
8.39041e+02,7.01000e+02,7.39000e+02,-3.80000e+01,2.29621e-12,-4.82893e-01,2.10576e-12,-4.82893e-01,4.31521e-13,-4.82893e-01
8.39289e+02,6.64000e+02,7.38000e+02,-7.40000e+01,4.16686e-12,-4.75347e-01,4.09305e-12,-4.75347e-01,6.75045e-13,-4.75347e-01
8.39537e+02,6.88000e+02,6.73000e+02,1.50000e+01,4.55959e-12,-4.67802e-01,4.35046e-12,-4.67802e-01,2.78623e-13,-4.67802e-01
8.39785e+02,7.51000e+02,6.74000e+02,7.70000e+01,4.10607e-12,-4.60257e-01,3.86777e-12,-4.60257e-01,1.14405e-12,-4.60257e-01
8.40033e+02,6.93000e+02,7.13000e+02,-2.00000e+01,2.78698e-12,-4.52712e-01,3.34216e-12,-4.52712e-01,7.75893e-13,-4.52712e-01
8.40281e+02,6.83000e+02,7.65000e+02,-8.20000e+01,1.21341e-12,-4.45167e-01,2.72577e-12,-4.45167e-01,1.86183e-12,-4.45167e-01
8.40530e+02,6.56000e+02,6.44000e+02,1.20000e+01,6.43835e-13,-4.37621e-01,1.73623e-12,-4.37621e-01,2.37601e-12,-4.37621e-01
8.40778e+02,7.17000e+02,6.53000e+02,6.40000e+01,1.31060e-12,-4.30076e-01,1.71784e-12,-4.30076e-01,1.74907e-12,-4.30076e-01
8.41026e+02,6.58000e+02,6.80000e+02,-2.20000e+01,2.35117e-12,-4.22531e-01,2.47811e-12,-4.22531e-01,2.52226e-12,-4.22531e-01
8.41274e+02,6.41000e+02,6.90000e+02,-4.90000e+01,3.03991e-12,-4.14986e-01,3.19646e-12,-4.14986e-01,2.17049e-12,-4.14986e-01
8.41522e+02,6.61000e+02,6.45000e+02,1.60000e+01,2.62733e-12,-4.07441e-01,2.79147e-12,-4.07441e-01,4.15282e-13,-4.07441e-01
8.41770e+02,6.92000e+02,6.38000e+02,5.40000e+01,1.70688e-12,-3.99895e-01,2.89830e-12,-3.99895e-01,1.33716e-12,-3.99895e-01
8.42018e+02,6.57000e+02,6.48000e+02,9.00000e+00,2.01978e-12,-3.92350e-01,3.84707e-12,-3.92350e-01,2.22656e-12,-3.92350e-01
8.42266e+02,6.52000e+02,6.69000e+02,-1.70000e+01,2.65929e-12,-3.84805e-01,4.18161e-12,-3.84805e-01,3.13921e-12,-3.84805e-01
8.42514e+02,6.54000e+02,6.40000e+02,1.40000e+01,1.54124e-12,-3.77260e-01,2.43312e-12,-3.77260e-01,3.52402e-12,-3.77260e-01
8.42762e+02,6.75000e+02,6.78000e+02,-3.00000e+00,3.03759e-12,-3.69715e-01,1.59101e-12,-3.69715e-01,3.49638e-12,-3.69715e-01
8.43010e+02,6.18000e+02,6.17000e+02,1.00000e+00,4.48360e-12,-3.62169e-01,2.14117e-12,-3.62169e-01,3.52166e-12,-3.62169e-01
8.43258e+02,6.28000e+02,6.58000e+02,-3.00000e+01,2.95220e-12,-3.54624e-01,1.94734e-12,-3.54624e-01,2.00869e-12,-3.54624e-01
8.43506e+02,6.23000e+02,6.47000e+02,-2.40000e+01,1.52747e-12,-3.47079e-01,1.30558e-12,-3.47079e-01,4.78542e-13,-3.47079e-01
8.43754e+02,6.39000e+02,6.53000e+02,-1.40000e+01,1.82006e-12,-3.39534e-01,4.99693e-13,-3.39534e-01,2.26508e-12,-3.39534e-01
8.44002e+02,6.30000e+02,6.42000e+02,-1.20000e+01,1.38024e-12,-3.31989e-01,2.73595e-12,-3.31989e-01,3.63791e-12,-3.31989e-01
8.44250e+02,6.34000e+02,6.39000e+02,-5.00000e+00,1.31242e-12,-3.24444e-01,4.99487e-12,-3.24444e-01,4.49913e-12,-3.24444e-01
8.44498e+02,6.28000e+02,6.43000e+02,-1.50000e+01,2.43077e-12,-3.16898e-01,5.90659e-12,-3.16898e-01,3.65601e-12,-3.16898e-01
8.44746e+02,6.39000e+02,6.37000e+02,2.00000e+00,2.91211e-12,-3.09353e-01,4.68761e-12,-3.09353e-01,1.84486e-12,-3.09353e-01
8.44994e+02,6.37000e+02,6.49000e+02,-1.20000e+01,1.01138e-12,-3.01808e-01,1.59418e-12,-3.01808e-01,7.70084e-13,-3.01808e-01
8.45242e+02,6.64000e+02,6.68000e+02,-4.00000e+00,1.64594e-12,-2.94263e-01,2.58670e-12,-2.94263e-01,1.69208e-12,-2.94263e-01
8.45490e+02,6.21000e+02,6.16000e+02,5.00000e+00,3.08032e-12,-2.86718e-01,4.44776e-12,-2.86718e-01,2.99462e-12,-2.86718e-01
8.45738e+02,6.39000e+02,6.37000e+02,2.00000e+00,2.59463e-12,-2.79172e-01,4.09004e-12,-2.79172e-01,2.40021e-12,-2.79172e-01
8.45985e+02,6.20000e+02,6.24000e+02,-4.00000e+00,1.08726e-12,-2.71627e-01,3.30757e-12,-2.71627e-01,2.25781e-12,-2.71627e-01
8.46233e+02,6.41000e+02,6.46000e+02,-5.00000e+00,1.38152e-12,-2.64082e-01,3.64410e-12,-2.64082e-01,3.50428e-12,-2.64082e-01
8.46481e+02,6.19000e+02,6.35000e+02,-1.60000e+01,1.76287e-12,-2.56537e-01,2.32288e-12,-2.56537e-01,2.53641e-12,-2.56537e-01
8.46729e+02,6.22000e+02,6.30000e+02,-8.00000e+00,1.98191e-12,-2.48992e-01,2.38158e-13,-2.48992e-01,1.78522e-12,-2.48992e-01
8.46977e+02,6.30000e+02,6.22000e+02,8.00000e+00,1.30673e-12,-2.41446e-01,1.50600e-12,-2.41446e-01,2.55660e-12,-2.41446e-01
8.47225e+02,6.32000e+02,6.31000e+02,1.00000e+00,9.99888e-13,-2.33901e-01,3.55902e-12,-2.33901e-01,3.38977e-12,-2.33901e-01
8.47473e+02,6.28000e+02,6.22000e+02,6.00000e+00,1.55720e-12,-2.26356e-01,2.47132e-12,-2.26356e-01,3.12287e-12,-2.26356e-01
8.47720e+02,6.49000e+02,6.54000e+02,-5.00000e+00,3.54369e-12,-2.18811e-01,1.80910e-12,-2.18811e-01,1.73838e-12,-2.18811e-01
8.47968e+02,6.15000e+02,6.19000e+02,-4.00000e+00,5.44402e-12,-2.11266e-01,4.03817e-12,-2.11266e-01,1.97438e-12,-2.11266e-01
8.48216e+02,6.34000e+02,6.24000e+02,1.00000e+01,4.18257e-12,-2.03720e-01,2.22166e-12,-2.03720e-01,2.19388e-12,-2.03720e-01
8.48464e+02,6.22000e+02,6.17000e+02,5.00000e+00,2.36547e-12,-1.96175e-01,1.21343e-12,-1.96175e-01,1.28028e-12,-1.96175e-01
8.48712e+02,6.45000e+02,6.19000e+02,2.60000e+01,1.31914e-12,-1.88630e-01,1.96359e-12,-1.88630e-01,2.14472e-12,-1.88630e-01
8.48960e+02,6.36000e+02,6.25000e+02,1.10000e+01,1.27879e-12,-1.81085e-01,4.49927e-12,-1.81085e-01,4.73692e-12,-1.81085e-01
8.49207e+02,6.35000e+02,6.35000e+02,0.00000e+00,1.94630e-12,-1.73540e-01,7.53556e-12,-1.73540e-01,5.66300e-12,-1.73540e-01
8.49455e+02,6.26000e+02,6.35000e+02,-9.00000e+00,2.65609e-12,-1.65994e-01,6.12406e-12,-1.65994e-01,3.55341e-12,-1.65994e-01
8.49703e+02,6.36000e+02,6.22000e+02,1.40000e+01,1.73149e-12,-1.58449e-01,7.84849e-13,-1.58449e-01,1.68082e-12,-1.58449e-01
8.49951e+02,6.26000e+02,6.33000e+02,-7.00000e+00,2.92717e-12,-1.50904e-01,3.16960e-12,-1.50904e-01,1.72215e-12,-1.50904e-01
8.50198e+02,6.57000e+02,6.57000e+02,0.00000e+00,3.11827e-12,-1.43359e-01,4.11377e-12,-1.43359e-01,1.96146e-12,-1.43359e-01
8.50446e+02,6.15000e+02,6.13000e+02,2.00000e+00,4.42627e-12,-1.35814e-01,5.93960e-12,-1.35814e-01,1.76955e-12,-1.35814e-01
8.50694e+02,6.33000e+02,6.36000e+02,-3.00000e+00,4.24720e-12,-1.28268e-01,3.48133e-12,-1.28268e-01,8.20544e-13,-1.28268e-01
8.50941e+02,6.18000e+02,6.31000e+02,-1.30000e+01,2.69111e-12,-1.20723e-01,1.60894e-12,-1.20723e-01,4.16348e-12,-1.20723e-01
8.51189e+02,6.34000e+02,6.20000e+02,1.40000e+01,3.47580e-12,-1.13178e-01,3.06764e-12,-1.13178e-01,5.53467e-12,-1.13178e-01
8.51437e+02,6.34000e+02,6.12000e+02,2.20000e+01,5.84007e-12,-1.05633e-01,1.09950e-12,-1.05633e-01,5.06141e-12,-1.05633e-01
8.51685e+02,6.35000e+02,6.32000e+02,3.00000e+00,6.80561e-12,-9.80876e-02,4.42899e-12,-9.80876e-02,2.84376e-12,-9.80876e-02
8.51932e+02,6.26000e+02,6.19000e+02,7.00000e+00,4.69498e-12,-9.05424e-02,4.10134e-12,-9.05424e-02,6.54270e-13,-9.05424e-02
8.52180e+02,6.27000e+02,6.38000e+02,-1.10000e+01,2.44151e-12,-8.29972e-02,2.88752e-12,-8.29972e-02,8.03222e-13,-8.29972e-02
8.52428e+02,6.34000e+02,6.38000e+02,-4.00000e+00,2.91126e-12,-7.54520e-02,2.92245e-12,-7.54520e-02,1.18278e-12,-7.54520e-02
8.52675e+02,6.67000e+02,6.51000e+02,1.60000e+01,5.37654e-12,-6.79068e-02,4.89942e-12,-6.79068e-02,1.01779e-12,-6.79068e-02
8.52923e+02,6.26000e+02,6.17000e+02,9.00000e+00,4.85773e-12,-6.03616e-02,5.35671e-12,-6.03616e-02,9.33788e-13,-6.03616e-02
8.53170e+02,6.40000e+02,6.17000e+02,2.30000e+01,4.00790e-12,-5.28164e-02,5.80946e-12,-5.28164e-02,1.88718e-12,-5.28164e-02
8.53418e+02,6.25000e+02,6.22000e+02,3.00000e+00,2.43550e-12,-4.52712e-02,4.99843e-12,-4.52712e-02,3.29782e-12,-4.52712e-02
8.53666e+02,6.26000e+02,6.26000e+02,0.00000e+00,2.76888e-12,-3.77260e-02,2.92666e-12,-3.77260e-02,3.44510e-12,-3.77260e-02
8.53913e+02,6.26000e+02,6.25000e+02,1.00000e+00,5.84495e-12,-3.01808e-02,3.77426e-12,-3.01808e-02,4.05776e-12,-3.01808e-02
8.54161e+02,6.28000e+02,6.30000e+02,-2.00000e+00,2.40829e-11,-2.26356e-02,2.02672e-11,-2.26356e-02,4.91036e-12,-2.26356e-02
8.54409e+02,6.30000e+02,6.25000e+02,5.00000e+00,9.04603e-11,-1.50904e-02,8.72603e-11,-1.50904e-02,3.34195e-12,-1.50904e-02
8.54656e+02,6.27000e+02,6.25000e+02,2.00000e+00,2.45575e-10,-7.54520e-03,2.40312e-10,-7.54520e-03,5.41703e-12,-7.54520e-03
