7.67698e+02,6.24000e+02,6.40000e+02,-1.60000e+01,3.89150e-10,0.00000e+00,3.88342e-10,0.00000e+00,8.07849e-13,0.00000e+00
7.67949e+02,6.53000e+02,6.59000e+02,-6.00000e+00,2.30014e-10,7.54520e-03,2.30756e-10,7.54520e-03,4.98282e-12,7.54520e-03
7.68199e+02,6.01000e+02,6.24000e+02,-2.30000e+01,7.77865e-11,1.50904e-02,8.14135e-11,1.50904e-02,6.59698e-12,1.50904e-02
7.68450e+02,6.26000e+02,6.36000e+02,-1.00000e+01,1.24822e-11,2.26356e-02,1.71923e-11,2.26356e-02,5.01350e-12,2.26356e-02
7.68701e+02,6.37000e+02,6.37000e+02,0.00000e+00,2.20722e-12,3.01808e-02,2.04931e-12,3.01808e-02,4.25555e-12,3.01808e-02
7.68951e+02,6.14000e+02,6.39000e+02,-2.50000e+01,2.41078e-12,3.77260e-02,1.82554e-12,3.77260e-02,3.89931e-12,3.77260e-02
7.69202e+02,6.37000e+02,6.31000e+02,6.00000e+00,9.33294e-12,4.52712e-02,2.39152e-12,4.52712e-02,7.42085e-12,4.52712e-02
7.69453e+02,6.45000e+02,6.22000e+02,2.30000e+01,1.34110e-11,5.28164e-02,5.53638e-12,5.28164e-02,8.05151e-12,5.28164e-02
7.69703e+02,6.44000e+02,6.17000e+02,2.70000e+01,9.32852e-12,6.03616e-02,6.28775e-12,6.03616e-02,3.54006e-12,6.03616e-02
7.69954e+02,6.65000e+02,6.28000e+02,3.70000e+01,3.20420e-12,6.79068e-02,4.62537e-12,6.79068e-02,1.48171e-12,6.79068e-02
7.70205e+02,6.52000e+02,6.12000e+02,4.00000e+01,2.35521e-12,7.54520e-02,2.29159e-12,7.54520e-02,1.54294e-12,7.54520e-02
7.70455e+02,6.90000e+02,6.70000e+02,2.00000e+01,1.85659e-12,8.29972e-02,7.67729e-13,8.29972e-02,1.21663e-12,8.29972e-02
7.70706e+02,6.24000e+02,6.41000e+02,-1.70000e+01,9.51460e-13,9.05424e-02,2.38451e-12,9.05424e-02,2.69182e-12,9.05424e-02
7.70957e+02,6.34000e+02,6.76000e+02,-4.20000e+01,1.60414e-12,9.80876e-02,3.34578e-12,9.80876e-02,2.92431e-12,9.80876e-02
7.71207e+02,6.30000e+02,6.77000e+02,-4.70000e+01,2.98488e-12,1.05633e-01,3.34363e-12,1.05633e-01,3.61996e-12,1.05633e-01
7.71458e+02,6.38000e+02,6.99000e+02,-6.10000e+01,2.71667e-12,1.13178e-01,3.94469e-12,1.13178e-01,4.86590e-12,1.13178e-01
7.71708e+02,6.24000e+02,6.73000e+02,-4.90000e+01,3.80454e-12,1.20723e-01,3.84950e-12,1.20723e-01,5.85680e-12,1.20723e-01
7.71959e+02,6.44000e+02,6.67000e+02,-2.30000e+01,4.15614e-12,1.28268e-01,2.77213e-12,1.28268e-01,5.20524e-12,1.28268e-01
7.72210e+02,6.54000e+02,6.44000e+02,1.00000e+01,2.24082e-12,1.35814e-01,2.17993e-12,1.35814e-01,3.56168e-12,1.35814e-01
7.72460e+02,6.86000e+02,6.43000e+02,4.30000e+01,5.57859e-12,1.43359e-01,2.21534e-12,1.43359e-01,3.78443e-12,1.43359e-01
7.72711e+02,7.05000e+02,6.26000e+02,7.90000e+01,6.79140e-12,1.50904e-01,6.02642e-12,1.50904e-01,2.04560e-12,1.50904e-01
7.72961e+02,7.73000e+02,6.70000e+02,1.03000e+02,2.93091e-12,1.58449e-01,4.79789e-12,1.58449e-01,4.60140e-12,1.58449e-01
7.73212e+02,7.10000e+02,6.18000e+02,9.20000e+01,7.67454e-12,1.65994e-01,3.76202e-12,1.65994e-01,1.10496e-11,1.65994e-01
7.73462e+02,7.13000e+02,6.51000e+02,6.20000e+01,3.51030e-12,1.73540e-01,7.68515e-12,1.73540e-01,7.87054e-12,1.73540e-01
7.73713e+02,6.88000e+02,6.76000e+02,1.20000e+01,1.80795e-11,1.81085e-01,2.59835e-11,1.81085e-01,4.31793e-11,1.81085e-01
7.73963e+02,6.63000e+02,7.13000e+02,-5.00000e+01,5.28047e-11,1.88630e-01,5.94121e-11,1.88630e-01,1.09721e-10,1.88630e-01
7.74214e+02,6.47000e+02,7.35000e+02,-8.80000e+01,1.05391e-10,1.96175e-01,1.06968e-10,1.96175e-01,2.08060e-10,1.96175e-01
7.74465e+02,6.49000e+02,7.80000e+02,-1.31000e+02,1.09824e-10,2.03720e-01,1.06312e-10,2.03720e-01,2.11925e-10,2.03720e-01
7.74715e+02,6.26000e+02,7.70000e+02,-1.44000e+02,5.49331e-11,2.11266e-01,5.25708e-11,2.11266e-01,1.05711e-10,2.11266e-01
7.74965e+02,6.36000e+02,7.72000e+02,-1.36000e+02,1.07402e-11,2.18811e-01,8.10304e-12,2.18811e-01,1.88425e-11,2.18811e-01
7.75216e+02,6.35000e+02,6.99000e+02,-6.40000e+01,6.94588e-12,2.26356e-01,6.47723e-12,2.26356e-01,1.20111e-11,2.26356e-01
7.75466e+02,7.14000e+02,6.95000e+02,1.90000e+01,4.11533e-12,2.33901e-01,8.75341e-12,2.33901e-01,1.28111e-11,2.33901e-01
7.75717e+02,7.09000e+02,6.27000e+02,8.20000e+01,6.08108e-12,2.41446e-01,5.12432e-12,2.41446e-01,9.80507e-12,2.41446e-01
7.75967e+02,7.94000e+02,6.36000e+02,1.58000e+02,7.96102e-12,2.48992e-01,2.20221e-12,2.48992e-01,1.01481e-11,2.48992e-01
7.76218e+02,8.25000e+02,6.37000e+02,1.88000e+02,4.29093e-12,2.56537e-01,3.77630e-12,2.56537e-01,7.74250e-12,2.56537e-01
7.76468e+02,8.74000e+02,6.56000e+02,2.18000e+02,5.28631e-13,2.64082e-01,3.75120e-12,2.64082e-01,4.14422e-12,2.64082e-01
7.76719e+02,8.06000e+02,6.57000e+02,1.49000e+02,2.77536e-12,2.71627e-01,2.39864e-12,2.71627e-01,1.34185e-12,2.71627e-01
7.76969e+02,8.02000e+02,7.49000e+02,5.30000e+01,3.73902e-12,2.79172e-01,5.65490e-13,2.79172e-01,3.72007e-12,2.79172e-01
7.77219e+02,7.30000e+02,8.29000e+02,-9.90000e+01,2.97552e-12,2.86718e-01,1.28028e-12,2.86718e-01,4.11916e-12,2.86718e-01
7.77470e+02,7.06000e+02,1.07900e+03,-3.73000e+02,1.40080e-12,2.94263e-01,8.99311e-13,2.94263e-01,2.28285e-12,2.94263e-01
7.77720e+02,6.57000e+02,1.07200e+03,-4.15000e+02,2.58439e-12,3.01808e-01,1.01311e-12,3.01808e-01,2.70278e-12,3.01808e-01
7.77971e+02,6.71000e+02,1.12800e+03,-4.57000e+02,3.17834e-12,3.09353e-01,3.24459e-12,3.09353e-01,2.09620e-12,3.09353e-01
7.78221e+02,6.51000e+02,9.55000e+02,-3.04000e+02,2.31156e-12,3.16898e-01,4.19656e-12,3.16898e-01,4.67052e-12,3.16898e-01
7.78471e+02,7.29000e+02,8.75000e+02,-1.46000e+02,2.50235e-12,3.24444e-01,3.90744e-12,3.24444e-01,5.92207e-12,3.24444e-01
7.78722e+02,7.81000e+02,7.29000e+02,5.20000e+01,1.95013e-12,3.31989e-01,3.68462e-12,3.31989e-01,5.63234e-12,3.31989e-01
7.78972e+02,1.03500e+03,6.88000e+02,3.47000e+02,1.13348e-12,3.39534e-01,3.12322e-12,3.39534e-01,2.31295e-12,3.39534e-01
7.79222e+02,1.24300e+03,6.61000e+02,5.82000e+02,2.86480e-12,3.47079e-01,4.47778e-12,3.47079e-01,4.40066e-12,3.47079e-01
7.79473e+02,1.41600e+03,6.81000e+02,7.35000e+02,1.83316e-12,3.54624e-01,6.47694e-12,3.54624e-01,6.54880e-12,3.54624e-01
7.79723e+02,1.38700e+03,7.17000e+02,6.70000e+02,3.04779e-12,3.62169e-01,5.70543e-12,3.62169e-01,2.76104e-12,3.62169e-01
7.79973e+02,1.35000e+03,9.46000e+02,4.04000e+02,5.13495e-12,3.69715e-01,3.41606e-12,3.69715e-01,3.10409e-12,3.69715e-01
7.80224e+02,1.11800e+03,1.14800e+03,-3.00000e+01,4.89207e-12,3.77260e-01,2.00045e-12,3.77260e-01,3.61290e-12,3.77260e-01
7.80474e+02,1.00500e+03,1.46900e+03,-4.64000e+02,4.77128e-12,3.84805e-01,1.77199e-12,3.84805e-01,3.20229e-12,3.84805e-01
7.80724e+02,7.58000e+02,1.44200e+03,-6.84000e+02,5.52154e-12,3.92350e-01,3.28838e-12,3.92350e-01,2.38244e-12,3.92350e-01
7.80974e+02,6.85000e+02,1.58600e+03,-9.01000e+02,5.35221e-12,3.99895e-01,3.19865e-12,3.99895e-01,2.18904e-12,3.99895e-01
7.81225e+02,6.53000e+02,1.59700e+03,-9.44000e+02,4.31511e-12,4.07441e-01,1.22801e-12,4.07441e-01,3.09214e-12,4.07441e-01
7.81475e+02,7.62000e+02,1.57700e+03,-8.15000e+02,3.18116e-12,4.14986e-01,6.85237e-13,4.14986e-01,2.61048e-12,4.14986e-01
7.81725e+02,9.53000e+02,1.18700e+03,-2.34000e+02,2.82669e-12,4.22531e-01,1.99764e-12,4.22531e-01,2.13785e-12,4.22531e-01
7.81975e+02,1.34500e+03,9.38000e+02,4.07000e+02,2.47005e-12,4.30076e-01,3.95430e-12,4.30076e-01,4.03589e-12,4.30076e-01
7.82226e+02,1.65100e+03,7.29000e+02,9.22000e+02,8.77546e-13,4.37621e-01,4.19055e-12,4.37621e-01,4.56825e-12,4.37621e-01
7.82476e+02,1.86400e+03,7.02000e+02,1.16200e+03,3.71233e-12,4.45167e-01,2.49240e-12,4.45167e-01,5.85996e-12,4.45167e-01
7.82726e+02,1.92000e+03,7.36000e+02,1.18400e+03,2.65400e-12,4.52712e-01,1.49263e-12,4.52712e-01,3.98936e-12,4.52712e-01
7.82976e+02,1.87300e+03,1.00400e+03,8.69000e+02,1.45438e-12,4.60257e-01,1.61959e-12,4.60257e-01,3.70474e-13,4.60257e-01
7.83226e+02,1.57600e+03,1.22100e+03,3.55000e+02,2.14894e-12,4.67802e-01,2.00899e-12,4.67802e-01,1.31913e-12,4.67802e-01
7.83477e+02,1.49400e+03,1.73600e+03,-2.42000e+02,3.10960e-12,4.75347e-01,2.23269e-12,4.75347e-01,1.65277e-12,4.75347e-01
7.83727e+02,1.08500e+03,2.03100e+03,-9.46000e+02,2.84604e-12,4.82893e-01,1.58900e-12,4.82893e-01,1.27992e-12,4.82893e-01
7.83977e+02,9.01000e+02,2.33500e+03,-1.43400e+03,1.43567e-12,4.90438e-01,5.39931e-13,4.90438e-01,9.01261e-13,4.90438e-01
7.84227e+02,7.48000e+02,2.48000e+03,-1.73200e+03,8.79652e-13,4.97983e-01,1.25852e-12,4.97983e-01,1.43170e-12,4.97983e-01
7.84477e+02,8.26000e+02,2.51800e+03,-1.69200e+03,1.50974e-12,5.05528e-01,2.00525e-12,5.05528e-01,1.10280e-12,5.05528e-01
7.84727e+02,1.02400e+03,1.96900e+03,-9.45000e+02,8.23231e-13,5.13073e-01,2.13788e-12,5.13073e-01,1.32059e-12,5.13073e-01
7.84978e+02,1.58700e+03,1.66800e+03,-8.10000e+01,4.52008e-13,5.20619e-01,1.43930e-12,5.20619e-01,1.43525e-12,5.20619e-01
7.85228e+02,2.23100e+03,1.17900e+03,1.05200e+03,1.61081e-12,5.28164e-01,2.13040e-12,5.28164e-01,7.98711e-13,5.28164e-01
7.85478e+02,2.93400e+03,9.17000e+02,2.01700e+03,2.30046e-12,5.35709e-01,2.43173e-12,5.35709e-01,7.67258e-13,5.35709e-01
7.85728e+02,3.45700e+03,7.83000e+02,2.67400e+03,2.21757e-12,5.43254e-01,1.74467e-12,5.43254e-01,2.16123e-12,5.43254e-01
7.85978e+02,3.58100e+03,1.06400e+03,2.51700e+03,1.18749e-12,5.50799e-01,1.06642e-12,5.50799e-01,1.95868e-12,5.50799e-01
7.86228e+02,3.19400e+03,1.48800e+03,1.70600e+03,1.24672e-12,5.58345e-01,1.60962e-12,5.58345e-01,2.39616e-12,5.58345e-01
7.86478e+02,2.76900e+03,2.16100e+03,6.08000e+02,2.51742e-12,5.65890e-01,2.11712e-12,5.65890e-01,3.38545e-12,5.65890e-01
7.86728e+02,2.22900e+03,2.73700e+03,-5.08000e+02,2.99748e-12,5.73435e-01,1.65774e-12,5.73435e-01,3.02652e-12,5.73435e-01
7.86978e+02,1.68100e+03,3.17000e+03,-1.48900e+03,3.06334e-12,5.80980e-01,1.04513e-12,5.80980e-01,2.25715e-12,5.80980e-01
7.87228e+02,1.16700e+03,3.44700e+03,-2.28000e+03,3.28450e-12,5.88525e-01,9.59015e-13,5.88525e-01,2.32947e-12,5.88525e-01
7.87478e+02,9.57000e+02,3.34800e+03,-2.39100e+03,3.22187e-12,5.96071e-01,9.70476e-13,5.96071e-01,2.25208e-12,5.96071e-01
7.87728e+02,9.88000e+02,3.00700e+03,-2.01900e+03,2.62159e-12,6.03616e-01,4.81744e-13,6.03616e-01,2.26918e-12,6.03616e-01
7.87978e+02,1.52600e+03,2.76300e+03,-1.23700e+03,1.98527e-12,6.11161e-01,1.70498e-13,6.11161e-01,2.12077e-12,6.11161e-01
7.88228e+02,2.08800e+03,2.07000e+03,1.80000e+01,1.10792e-12,6.18706e-01,1.31971e-12,6.18706e-01,2.31235e-12,6.18706e-01
7.88478e+02,3.03100e+03,1.59700e+03,1.43400e+03,1.02053e-12,6.26251e-01,2.79840e-12,6.26251e-01,3.22855e-12,6.26251e-01
7.88728e+02,3.74600e+03,1.12400e+03,2.62200e+03,1.10460e-12,6.33797e-01,3.48005e-12,6.33797e-01,3.14250e-12,6.33797e-01
7.88978e+02,4.23200e+03,1.00100e+03,3.23100e+03,9.88379e-13,6.41342e-01,2.95568e-12,6.41342e-01,1.97520e-12,6.41342e-01
7.89228e+02,4.74000e+03,1.17600e+03,3.56400e+03,1.60739e-12,6.48887e-01,2.23352e-12,6.48887e-01,7.26606e-13,6.48887e-01
7.89478e+02,4.96900e+03,1.90800e+03,3.06100e+03,1.05894e-12,6.56432e-01,1.44740e-12,6.56432e-01,6.52002e-13,6.56432e-01
7.89728e+02,4.51700e+03,2.75500e+03,1.76200e+03,7.55479e-13,6.63977e-01,1.08149e-12,6.63977e-01,7.89070e-13,6.63977e-01
7.89978e+02,3.76600e+03,3.75300e+03,1.30000e+01,1.01506e-12,6.71523e-01,8.78376e-13,6.71523e-01,2.28442e-13,6.71523e-01
7.90228e+02,2.71400e+03,4.52200e+03,-1.80800e+03,1.17724e-12,6.79068e-01,1.86022e-13,6.79068e-01,9.95875e-13,6.79068e-01
7.90478e+02,1.87500e+03,5.22000e+03,-3.34500e+03,5.54688e-13,6.86613e-01,8.40316e-13,6.86613e-01,1.39173e-12,6.86613e-01
7.90728e+02,1.22600e+03,5.44700e+03,-4.22100e+03,1.41918e-12,6.94158e-01,1.05837e-12,6.94158e-01,9.05853e-13,6.94158e-01
7.90978e+02,1.27200e+03,5.45300e+03,-4.18100e+03,2.30453e-12,7.01703e-01,1.75672e-12,7.01703e-01,5.84982e-13,7.01703e-01
7.91228e+02,1.75700e+03,4.57100e+03,-2.81400e+03,1.81575e-12,7.09249e-01,1.56808e-12,7.09249e-01,6.64122e-13,7.09249e-01
7.91478e+02,2.60000e+03,3.34400e+03,-7.44000e+02,1.08477e-12,7.16794e-01,1.00161e-12,7.16794e-01,5.24714e-13,7.16794e-01
7.91728e+02,3.40400e+03,2.18000e+03,1.22400e+03,6.50385e-13,7.24339e-01,5.29712e-13,7.24339e-01,2.93885e-13,7.24339e-01
7.91977e+02,4.25300e+03,1.52800e+03,2.72500e+03,6.23558e-13,7.31884e-01,3.44432e-13,7.31884e-01,5.12788e-13,7.31884e-01
7.92227e+02,4.79400e+03,1.17500e+03,3.61900e+03,3.00913e-13,7.39429e-01,2.23053e-13,7.39429e-01,5.16429e-13,7.39429e-01
7.92477e+02,6.15700e+03,1.51700e+03,4.64000e+03,1.00067e-12,7.46975e-01,2.40480e-13,7.46975e-01,1.23658e-12,7.46975e-01
7.92727e+02,6.69500e+03,2.19500e+03,4.50000e+03,7.45300e-13,7.54520e-01,2.72630e-13,7.54520e-01,8.64486e-13,7.54520e-01
7.92977e+02,6.09500e+03,3.29300e+03,2.80200e+03,4.53460e-13,7.62065e-01,3.65535e-13,7.62065e-01,1.04544e-13,7.62065e-01
7.93227e+02,4.52100e+03,4.16800e+03,3.53000e+02,1.38857e-12,7.69610e-01,8.91790e-13,7.69610e-01,5.25656e-13,7.69610e-01
7.93476e+02,3.18700e+03,5.03800e+03,-1.85100e+03,1.36442e-12,7.77155e-01,9.85316e-13,7.77155e-01,5.92335e-13,7.77155e-01
7.93726e+02,2.18100e+03,5.97700e+03,-3.79600e+03,1.26686e-12,7.84701e-01,6.10524e-13,7.84701e-01,8.24225e-13,7.84701e-01
7.93976e+02,1.62300e+03,6.88500e+03,-5.26200e+03,8.37442e-13,7.92246e-01,1.30779e-12,7.92246e-01,1.89585e-12,7.92246e-01
7.94226e+02,1.49300e+03,6.62600e+03,-5.13300e+03,9.94388e-13,7.99791e-01,1.21799e-12,7.99791e-01,2.20218e-12,7.99791e-01
7.94476e+02,2.27600e+03,5.72600e+03,-3.45000e+03,6.80772e-13,8.07336e-01,9.61998e-13,8.07336e-01,1.21130e-12,8.07336e-01
7.94725e+02,3.13400e+03,4.31000e+03,-1.17600e+03,8.81657e-13,8.14881e-01,9.10743e-13,8.14881e-01,5.91714e-13,8.14881e-01
7.94975e+02,4.61900e+03,3.09900e+03,1.52000e+03,1.29518e-12,8.22427e-01,1.51837e-12,8.22427e-01,7.14029e-13,8.22427e-01
7.95225e+02,5.97200e+03,2.05300e+03,3.91900e+03,1.79087e-12,8.29972e-01,1.89862e-12,8.29972e-01,1.41131e-12,8.29972e-01
7.95475e+02,6.96100e+03,1.67000e+03,5.29100e+03,1.67631e-12,8.37517e-01,1.52853e-12,8.37517e-01,1.27518e-12,8.37517e-01
7.95724e+02,7.46700e+03,1.95700e+03,5.51000e+03,1.10659e-12,8.45062e-01,7.79003e-13,8.45062e-01,5.80450e-13,8.45062e-01
7.95974e+02,7.44400e+03,2.87300e+03,4.57100e+03,7.59269e-13,8.52607e-01,5.16757e-13,8.52607e-01,2.92005e-13,8.52607e-01
7.96224e+02,6.73100e+03,4.21000e+03,2.52100e+03,4.16846e-13,8.60153e-01,5.24802e-13,8.60153e-01,4.56778e-13,8.60153e-01
7.96474e+02,5.81600e+03,6.11600e+03,-3.00000e+02,5.28579e-13,8.67698e-01,1.14791e-12,8.67698e-01,1.12786e-12,8.67698e-01
7.96723e+02,4.06800e+03,7.08600e+03,-3.01800e+03,3.73694e-13,8.75243e-01,1.11812e-12,8.75243e-01,9.38871e-13,8.75243e-01
7.96973e+02,2.65100e+03,7.95200e+03,-5.30100e+03,7.41008e-13,8.82788e-01,5.98046e-13,8.82788e-01,1.09025e-12,8.82788e-01
7.97223e+02,1.83400e+03,9.09200e+03,-7.25800e+03,1.47390e-12,8.90333e-01,8.29079e-13,8.90333e-01,2.29184e-12,8.90333e-01
7.97472e+02,1.91100e+03,8.20100e+03,-6.29000e+03,1.64294e-12,8.97879e-01,7.34928e-13,8.97879e-01,2.22924e-12,8.97879e-01
7.97722e+02,2.88500e+03,7.70800e+03,-4.82300e+03,1.18773e-12,9.05424e-01,9.18803e-13,9.05424e-01,1.38200e-12,9.05424e-01
7.97972e+02,4.69400e+03,6.21400e+03,-1.52000e+03,1.15600e-12,9.12969e-01,1.09739e-12,9.12969e-01,3.83229e-13,9.12969e-01
7.98221e+02,7.11500e+03,3.95600e+03,3.15900e+03,9.54290e-13,9.20514e-01,8.03112e-13,9.20514e-01,1.94463e-13,9.20514e-01
7.98471e+02,9.23700e+03,2.48800e+03,6.74900e+03,1.00903e-12,9.28059e-01,8.39681e-13,9.28059e-01,3.57703e-13,9.28059e-01
7.98721e+02,1.08560e+04,2.00400e+03,8.85200e+03,8.55118e-13,9.35605e-01,1.16435e-12,9.35605e-01,4.37008e-13,9.35605e-01
7.98970e+02,1.24580e+04,2.83200e+03,9.62600e+03,1.24464e-12,9.43150e-01,6.02311e-13,9.43150e-01,1.19069e-12,9.43150e-01
7.99220e+02,1.18770e+04,4.50100e+03,7.37600e+03,1.44729e-12,9.50695e-01,4.00305e-14,9.50695e-01,1.40834e-12,9.50695e-01
7.99469e+02,9.43000e+03,6.30800e+03,3.12200e+03,1.17052e-12,9.58240e-01,2.70853e-13,9.58240e-01,9.33715e-13,9.58240e-01
7.99719e+02,6.80100e+03,8.04200e+03,-1.24100e+03,3.03865e-13,9.65785e-01,3.83329e-13,9.65785e-01,8.07434e-14,9.65785e-01
7.99969e+02,4.58900e+03,9.89700e+03,-5.30800e+03,6.03806e-13,9.73331e-01,7.19602e-13,9.73331e-01,6.09879e-13,9.73331e-01
8.00218e+02,3.06500e+03,1.10740e+04,-8.00900e+03,8.68218e-13,9.80876e-01,4.95021e-13,9.80876e-01,4.59377e-13,9.80876e-01
8.00468e+02,2.37100e+03,1.10650e+04,-8.69400e+03,9.71369e-13,9.88421e-01,7.18644e-13,9.88421e-01,4.72112e-13,9.88421e-01
8.00717e+02,2.70800e+03,9.73300e+03,-7.02500e+03,1.01739e-12,9.95966e-01,9.89014e-13,9.95966e-01,5.73226e-13,9.95966e-01
8.00967e+02,4.19900e+03,7.82000e+03,-3.62100e+03,5.78752e-13,1.00351e+00,7.57042e-13,1.00351e+00,7.34071e-13,1.00351e+00
8.01216e+02,6.90300e+03,5.97200e+03,9.31000e+02,2.46973e-13,1.01106e+00,2.96049e-13,1.01106e+00,5.40707e-13,1.01106e+00
8.01466e+02,9.46900e+03,4.36300e+03,5.10600e+03,1.44534e-13,1.01860e+00,4.39235e-13,1.01860e+00,4.07662e-13,1.01860e+00
8.01715e+02,1.19380e+04,2.83600e+03,9.10200e+03,5.86808e-13,1.02615e+00,5.67322e-13,1.02615e+00,1.15387e-12,1.02615e+00
8.01965e+02,1.31550e+04,2.52900e+03,1.06260e+04,8.44066e-13,1.03369e+00,3.75517e-13,1.03369e+00,1.10881e-12,1.03369e+00
8.02215e+02,1.32750e+04,3.26000e+03,1.00150e+04,9.23125e-13,1.04124e+00,3.11701e-13,1.04124e+00,7.19024e-13,1.04124e+00
8.02464e+02,1.23750e+04,5.54900e+03,6.82600e+03,7.00700e-13,1.04878e+00,4.87466e-13,1.04878e+00,2.63925e-13,1.04878e+00
8.02713e+02,1.05870e+04,7.96100e+03,2.62600e+03,4.68894e-13,1.05633e+00,4.82405e-13,1.05633e+00,1.15451e-13,1.05633e+00
8.02963e+02,7.80500e+03,1.10690e+04,-3.26400e+03,3.08286e-13,1.06387e+00,5.65137e-13,1.06387e+00,3.94265e-13,1.06387e+00
8.03212e+02,5.48600e+03,1.38490e+04,-8.36300e+03,4.23117e-13,1.07142e+00,4.94275e-13,1.07142e+00,1.27527e-13,1.07142e+00
8.03462e+02,3.51500e+03,1.49820e+04,-1.14670e+04,5.04513e-13,1.07896e+00,5.02603e-13,1.07896e+00,4.63973e-13,1.07896e+00
8.03711e+02,2.36800e+03,1.49950e+04,-1.26270e+04,3.25739e-13,1.08651e+00,1.00313e-12,1.08651e+00,7.50477e-13,1.08651e+00
8.03961e+02,2.93700e+03,1.23850e+04,-9.44800e+03,2.88295e-13,1.09405e+00,1.06478e-12,1.09405e+00,7.78363e-13,1.09405e+00
8.04210e+02,4.59700e+03,9.30800e+03,-4.71100e+03,2.19256e-13,1.10160e+00,7.09681e-13,1.10160e+00,5.60940e-13,1.10160e+00
8.04460e+02,7.62200e+03,6.65400e+03,9.68000e+02,1.17121e-13,1.10914e+00,2.15635e-13,1.10914e+00,2.56383e-13,1.10914e+00
8.04709e+02,1.09160e+04,4.72200e+03,6.19400e+03,2.79186e-13,1.11669e+00,2.04931e-13,1.11669e+00,4.16505e-13,1.11669e+00
8.04958e+02,1.30080e+04,2.95000e+03,1.00580e+04,3.39272e-13,1.12423e+00,1.12722e-13,1.12423e+00,2.78175e-13,1.12423e+00
8.05208e+02,1.40190e+04,2.56700e+03,1.14520e+04,6.65508e-13,1.13178e+00,4.55880e-13,1.13178e+00,1.10336e-12,1.13178e+00
8.05457e+02,1.33190e+04,3.43600e+03,9.88300e+03,7.99033e-13,1.13932e+00,9.00624e-13,1.13932e+00,1.29981e-12,1.13932e+00
8.05707e+02,1.33320e+04,5.63200e+03,7.70000e+03,1.05983e-12,1.14687e+00,7.66853e-13,1.14687e+00,1.10536e-12,1.14687e+00
8.05956e+02,1.22680e+04,8.64500e+03,3.62300e+03,9.99683e-13,1.15442e+00,3.28858e-13,1.15442e+00,9.20780e-13,1.15442e+00
8.06205e+02,8.79400e+03,1.06720e+04,-1.87800e+03,3.52186e-13,1.16196e+00,3.31984e-13,1.16196e+00,1.56420e-13,1.16196e+00
8.06455e+02,5.81400e+03,1.31790e+04,-7.36500e+03,1.78878e-13,1.16951e+00,6.86375e-13,1.16951e+00,7.42922e-13,1.16951e+00
8.06704e+02,3.94500e+03,1.46170e+04,-1.06720e+04,1.81726e-13,1.17705e+00,6.48139e-13,1.17705e+00,7.86208e-13,1.17705e+00
8.06953e+02,2.76800e+03,1.48170e+04,-1.20490e+04,4.83008e-13,1.18460e+00,6.51670e-13,1.18460e+00,1.01949e-12,1.18460e+00
8.07203e+02,2.78000e+03,1.27850e+04,-1.00050e+04,7.36926e-13,1.19214e+00,7.57874e-13,1.19214e+00,1.28949e-12,1.19214e+00
8.07452e+02,4.40200e+03,1.12060e+04,-6.80400e+03,7.03943e-13,1.19969e+00,7.46269e-13,1.19969e+00,8.28169e-13,1.19969e+00
8.07701e+02,7.38900e+03,8.75600e+03,-1.36700e+03,7.89640e-13,1.20723e+00,7.55625e-13,1.20723e+00,1.56435e-13,1.20723e+00
8.07951e+02,1.01440e+04,6.11800e+03,4.02600e+03,9.49946e-13,1.21478e+00,7.98144e-13,1.21478e+00,1.05728e-12,1.21478e+00
8.08200e+02,1.16490e+04,3.88800e+03,7.76100e+03,1.04712e-12,1.22232e+00,7.41210e-13,1.22232e+00,1.46272e-12,1.22232e+00
8.08449e+02,1.37370e+04,2.93000e+03,1.08070e+04,8.51982e-13,1.22987e+00,5.60253e-13,1.22987e+00,1.38899e-12,1.22987e+00
8.08698e+02,1.50740e+04,3.51400e+03,1.15600e+04,5.60776e-13,1.23741e+00,4.88410e-13,1.23741e+00,9.54057e-13,1.23741e+00
8.08948e+02,1.53830e+04,5.63500e+03,9.74800e+03,4.19674e-13,1.24496e+00,3.66191e-13,1.24496e+00,5.27632e-13,1.24496e+00
8.09197e+02,1.46170e+04,8.55400e+03,6.06300e+03,2.06937e-13,1.25250e+00,1.95885e-13,1.25250e+00,3.68543e-13,1.25250e+00
8.09446e+02,1.10750e+04,1.09700e+04,1.05000e+02,1.76284e-13,1.26005e+00,3.16816e-13,1.26005e+00,4.93032e-13,1.26005e+00
8.09695e+02,7.42800e+03,1.41250e+04,-6.69700e+03,3.99651e-13,1.26759e+00,4.34326e-13,1.26759e+00,7.60443e-13,1.26759e+00
8.09945e+02,5.05600e+03,1.54330e+04,-1.03770e+04,6.73072e-13,1.27514e+00,3.37647e-13,1.27514e+00,9.08512e-13,1.27514e+00
8.10194e+02,3.51600e+03,1.55130e+04,-1.19970e+04,6.15152e-13,1.28268e+00,1.15003e-13,1.28268e+00,7.11553e-13,1.28268e+00
8.10443e+02,3.25400e+03,1.50850e+04,-1.18310e+04,6.55194e-13,1.29023e+00,3.51111e-13,1.29023e+00,3.44670e-13,1.29023e+00
8.10692e+02,4.65300e+03,1.35150e+04,-8.86200e+03,1.93044e-13,1.29777e+00,4.36474e-13,1.29777e+00,3.44536e-13,1.29777e+00
8.10941e+02,7.62200e+03,1.07700e+04,-3.14800e+03,5.58301e-13,1.30532e+00,2.99081e-13,1.30532e+00,2.84838e-13,1.30532e+00
8.11191e+02,1.04970e+04,7.32000e+03,3.17700e+03,1.33566e-13,1.31286e+00,4.38124e-13,1.31286e+00,3.27946e-13,1.31286e+00
8.11440e+02,1.43610e+04,4.79100e+03,9.57000e+03,1.49341e-12,-1.32041e+00,1.35144e-12,-1.32041e+00,1.41979e-13,-1.32041e+00
8.11689e+02,1.56690e+04,3.31200e+03,1.23570e+04,1.33566e-13,-1.31286e+00,4.38124e-13,-1.31286e+00,3.27946e-13,-1.31286e+00
8.11938e+02,1.58030e+04,3.42900e+03,1.23740e+04,5.58301e-13,-1.30532e+00,2.99081e-13,-1.30532e+00,2.84838e-13,-1.30532e+00
8.12187e+02,1.58210e+04,5.15400e+03,1.06670e+04,1.93044e-13,-1.29777e+00,4.36474e-13,-1.29777e+00,3.44536e-13,-1.29777e+00
8.12436e+02,1.55660e+04,7.75300e+03,7.81300e+03,6.55194e-13,-1.29023e+00,3.51111e-13,-1.29023e+00,3.44670e-13,-1.29023e+00
8.12685e+02,1.27790e+04,1.12450e+04,1.53400e+03,6.15152e-13,-1.28268e+00,1.15003e-13,-1.28268e+00,7.11553e-13,-1.28268e+00
8.12935e+02,9.29300e+03,1.38300e+04,-4.53700e+03,6.73072e-13,-1.27514e+00,3.37647e-13,-1.27514e+00,9.08512e-13,-1.27514e+00
8.13184e+02,6.10800e+03,1.50080e+04,-8.90000e+03,3.99651e-13,-1.26759e+00,4.34326e-13,-1.26759e+00,7.60443e-13,-1.26759e+00
8.13433e+02,3.89200e+03,1.54450e+04,-1.15530e+04,1.76284e-13,-1.26005e+00,3.16816e-13,-1.26005e+00,4.93032e-13,-1.26005e+00
8.13682e+02,3.20700e+03,1.55170e+04,-1.23100e+04,2.06937e-13,-1.25250e+00,1.95885e-13,-1.25250e+00,3.68543e-13,-1.25250e+00
8.13931e+02,4.03300e+03,1.50420e+04,-1.10090e+04,4.19674e-13,-1.24496e+00,3.66191e-13,-1.24496e+00,5.27632e-13,-1.24496e+00
8.14180e+02,5.90600e+03,1.22200e+04,-6.31400e+03,5.60776e-13,-1.23741e+00,4.88410e-13,-1.23741e+00,9.54057e-13,-1.23741e+00
8.14429e+02,9.10300e+03,8.96900e+03,1.34000e+02,8.51982e-13,-1.22987e+00,5.60253e-13,-1.22987e+00,1.38899e-12,-1.22987e+00
8.14678e+02,1.25400e+04,6.00100e+03,6.53900e+03,1.04712e-12,-1.22232e+00,7.41210e-13,-1.22232e+00,1.46272e-12,-1.22232e+00
8.14927e+02,1.41000e+04,3.43500e+03,1.06650e+04,9.49946e-13,-1.21478e+00,7.98144e-13,-1.21478e+00,1.05728e-12,-1.21478e+00
8.15176e+02,1.46750e+04,2.84100e+03,1.18340e+04,7.89640e-13,-1.20723e+00,7.55625e-13,-1.20723e+00,1.56435e-13,-1.20723e+00
8.15425e+02,1.45170e+04,3.64100e+03,1.08760e+04,7.03943e-13,-1.19969e+00,7.46269e-13,-1.19969e+00,8.28169e-13,-1.19969e+00
8.15674e+02,1.42620e+04,5.94700e+03,8.31500e+03,7.36926e-13,-1.19214e+00,7.57874e-13,-1.19214e+00,1.28949e-12,-1.19214e+00
8.15923e+02,1.31360e+04,1.01610e+04,2.97500e+03,4.83008e-13,-1.18460e+00,6.51670e-13,-1.18460e+00,1.01949e-12,-1.18460e+00
8.16172e+02,1.05530e+04,1.34070e+04,-2.85400e+03,1.81726e-13,-1.17705e+00,6.48139e-13,-1.17705e+00,7.86208e-13,-1.17705e+00
8.16421e+02,6.07100e+03,1.40920e+04,-8.02100e+03,1.78878e-13,-1.16951e+00,6.86375e-13,-1.16951e+00,7.42922e-13,-1.16951e+00
8.16670e+02,3.36200e+03,1.38370e+04,-1.04750e+04,3.52186e-13,-1.16196e+00,3.31984e-13,-1.16196e+00,1.56420e-13,-1.16196e+00
8.16919e+02,2.52300e+03,1.45130e+04,-1.19900e+04,9.99683e-13,-1.15442e+00,3.28858e-13,-1.15442e+00,9.20780e-13,-1.15442e+00
8.17168e+02,2.96500e+03,1.30340e+04,-1.00690e+04,1.05983e-12,-1.14687e+00,7.66853e-13,-1.14687e+00,1.10536e-12,-1.14687e+00
8.17417e+02,4.42300e+03,1.04520e+04,-6.02900e+03,7.99033e-13,-1.13932e+00,9.00624e-13,-1.13932e+00,1.29981e-12,-1.13932e+00
8.17666e+02,6.94600e+03,8.09800e+03,-1.15200e+03,6.65508e-13,-1.13178e+00,4.55880e-13,-1.13178e+00,1.10336e-12,-1.13178e+00
8.17915e+02,9.44500e+03,5.48200e+03,3.96300e+03,3.39272e-13,-1.12423e+00,1.12722e-13,-1.12423e+00,2.78175e-13,-1.12423e+00
8.18164e+02,1.06490e+04,3.45900e+03,7.19000e+03,2.79186e-13,-1.11669e+00,2.04931e-13,-1.11669e+00,4.16505e-13,-1.11669e+00
8.18413e+02,1.15460e+04,2.53300e+03,9.01300e+03,1.17121e-13,-1.10914e+00,2.15635e-13,-1.10914e+00,2.56383e-13,-1.10914e+00
8.18662e+02,1.10120e+04,2.81000e+03,8.20200e+03,2.19256e-13,-1.10160e+00,7.09681e-13,-1.10160e+00,5.60940e-13,-1.10160e+00
8.18911e+02,1.07620e+04,4.10800e+03,6.65400e+03,2.88295e-13,-1.09405e+00,1.06478e-12,-1.09405e+00,7.78363e-13,-1.09405e+00
8.19160e+02,8.93300e+03,5.75200e+03,3.18100e+03,3.25739e-13,-1.08651e+00,1.00313e-12,-1.08651e+00,7.50477e-13,-1.08651e+00
8.19408e+02,7.23800e+03,8.07000e+03,-8.32000e+02,5.04513e-13,-1.07896e+00,5.02603e-13,-1.07896e+00,4.63973e-13,-1.07896e+00
8.19657e+02,5.55900e+03,1.11170e+04,-5.55800e+03,4.23117e-13,-1.07142e+00,4.94275e-13,-1.07142e+00,1.27527e-13,-1.07142e+00
8.19906e+02,3.68500e+03,1.33450e+04,-9.66000e+03,3.08286e-13,-1.06387e+00,5.65137e-13,-1.06387e+00,3.94265e-13,-1.06387e+00
8.20155e+02,2.52500e+03,1.38000e+04,-1.12750e+04,4.68894e-13,-1.05633e+00,4.82405e-13,-1.05633e+00,1.15451e-13,-1.05633e+00
8.20404e+02,2.47200e+03,1.19520e+04,-9.48000e+03,7.00700e-13,-1.04878e+00,4.87466e-13,-1.04878e+00,2.63925e-13,-1.04878e+00
8.20653e+02,3.40100e+03,9.10400e+03,-5.70300e+03,9.23125e-13,-1.04124e+00,3.11701e-13,-1.04124e+00,7.19024e-13,-1.04124e+00
8.20901e+02,5.14800e+03,7.19100e+03,-2.04300e+03,8.44066e-13,-1.03369e+00,3.75517e-13,-1.03369e+00,1.10881e-12,-1.03369e+00
8.21150e+02,7.64800e+03,5.30600e+03,2.34200e+03,5.86808e-13,-1.02615e+00,5.67322e-13,-1.02615e+00,1.15387e-12,-1.02615e+00
8.21399e+02,8.25700e+03,3.18700e+03,5.07000e+03,1.44534e-13,-1.01860e+00,4.39235e-13,-1.01860e+00,4.07662e-13,-1.01860e+00
8.21648e+02,9.86500e+03,2.15300e+03,7.71200e+03,2.46973e-13,-1.01106e+00,2.96049e-13,-1.01106e+00,5.40707e-13,-1.01106e+00
8.21897e+02,1.05080e+04,2.21500e+03,8.29300e+03,5.78752e-13,-1.00351e+00,7.57042e-13,-1.00351e+00,7.34071e-13,-1.00351e+00
8.22145e+02,9.39000e+03,2.81000e+03,6.58000e+03,1.01739e-12,-9.95966e-01,9.89014e-13,-9.95966e-01,5.73226e-13,-9.95966e-01
8.22394e+02,8.80800e+03,4.49600e+03,4.31200e+03,9.71369e-13,-9.88421e-01,7.18644e-13,-9.88421e-01,4.72112e-13,-9.88421e-01
8.22643e+02,7.43200e+03,6.55700e+03,8.75000e+02,8.68218e-13,-9.80876e-01,4.95021e-13,-9.80876e-01,4.59377e-13,-9.80876e-01
8.22892e+02,5.23500e+03,8.02400e+03,-2.78900e+03,6.03806e-13,-9.73331e-01,7.19602e-13,-9.73331e-01,6.09879e-13,-9.73331e-01
8.23140e+02,3.45600e+03,9.49600e+03,-6.04000e+03,3.03865e-13,-9.65785e-01,3.83329e-13,-9.65785e-01,8.07434e-14,-9.65785e-01
8.23389e+02,2.42300e+03,1.03000e+04,-7.87700e+03,1.17052e-12,-9.58240e-01,2.70853e-13,-9.58240e-01,9.33715e-13,-9.58240e-01
8.23638e+02,1.94000e+03,1.01030e+04,-8.16300e+03,1.44729e-12,-9.50695e-01,4.00305e-14,-9.50695e-01,1.40834e-12,-9.50695e-01
8.23887e+02,2.46900e+03,8.35100e+03,-5.88200e+03,1.24464e-12,-9.43150e-01,6.02311e-13,-9.43150e-01,1.19069e-12,-9.43150e-01
8.24135e+02,3.52400e+03,6.77200e+03,-3.24800e+03,8.55118e-13,-9.35605e-01,1.16435e-12,-9.35605e-01,4.37008e-13,-9.35605e-01
8.24384e+02,5.01400e+03,5.09800e+03,-8.40000e+01,1.00903e-12,-9.28059e-01,8.39681e-13,-9.28059e-01,3.57703e-13,-9.28059e-01
8.24633e+02,6.74600e+03,3.32600e+03,3.42000e+03,9.54290e-13,-9.20514e-01,8.03112e-13,-9.20514e-01,1.94463e-13,-9.20514e-01
8.24881e+02,8.29600e+03,2.17000e+03,6.12600e+03,1.15600e-12,-9.12969e-01,1.09739e-12,-9.12969e-01,3.83229e-13,-9.12969e-01
8.25130e+02,9.32400e+03,1.72700e+03,7.59700e+03,1.18773e-12,-9.05424e-01,9.18803e-13,-9.05424e-01,1.38200e-12,-9.05424e-01
8.25379e+02,9.64100e+03,2.44000e+03,7.20100e+03,1.64294e-12,-8.97879e-01,7.34928e-13,-8.97879e-01,2.22924e-12,-8.97879e-01
8.25627e+02,7.74000e+03,3.36000e+03,4.38000e+03,1.47390e-12,-8.90333e-01,8.29079e-13,-8.90333e-01,2.29184e-12,-8.90333e-01
8.25876e+02,5.84300e+03,4.78000e+03,1.06300e+03,7.41008e-13,-8.82788e-01,5.98046e-13,-8.82788e-01,1.09025e-12,-8.82788e-01
8.26125e+02,4.32600e+03,6.08000e+03,-1.75400e+03,3.73694e-13,-8.75243e-01,1.11812e-12,-8.75243e-01,9.38871e-13,-8.75243e-01
8.26373e+02,2.81400e+03,6.25800e+03,-3.44400e+03,5.28579e-13,-8.67698e-01,1.14791e-12,-8.67698e-01,1.12786e-12,-8.67698e-01
8.26622e+02,1.75800e+03,6.01900e+03,-4.26100e+03,4.16846e-13,-8.60153e-01,5.24802e-13,-8.60153e-01,4.56778e-13,-8.60153e-01
8.26870e+02,1.41400e+03,5.39100e+03,-3.97700e+03,7.59269e-13,-8.52607e-01,5.16757e-13,-8.52607e-01,2.92005e-13,-8.52607e-01
8.27119e+02,1.50600e+03,5.02600e+03,-3.52000e+03,1.10659e-12,-8.45062e-01,7.79003e-13,-8.45062e-01,5.80450e-13,-8.45062e-01
8.27368e+02,2.05200e+03,4.67300e+03,-2.62100e+03,1.67631e-12,-8.37517e-01,1.52853e-12,-8.37517e-01,1.27518e-12,-8.37517e-01
8.27616e+02,2.56500e+03,3.51800e+03,-9.53000e+02,1.79087e-12,-8.29972e-01,1.89862e-12,-8.29972e-01,1.41131e-12,-8.29972e-01
8.27865e+02,3.55100e+03,2.40300e+03,1.14800e+03,1.29518e-12,-8.22427e-01,1.51837e-12,-8.22427e-01,7.14029e-13,-8.22427e-01
8.28113e+02,4.95600e+03,1.73500e+03,3.22100e+03,8.81657e-13,-8.14881e-01,9.10743e-13,-8.14881e-01,5.91714e-13,-8.14881e-01
8.28362e+02,5.60200e+03,1.32000e+03,4.28200e+03,6.80772e-13,-8.07336e-01,9.61998e-13,-8.07336e-01,1.21130e-12,-8.07336e-01
8.28610e+02,5.36200e+03,1.22300e+03,4.13900e+03,9.94388e-13,-7.99791e-01,1.21799e-12,-7.99791e-01,2.20218e-12,-7.99791e-01
8.28859e+02,4.88800e+03,1.62700e+03,3.26100e+03,8.37442e-13,-7.92246e-01,1.30779e-12,-7.92246e-01,1.89585e-12,-7.92246e-01
8.29108e+02,4.06000e+03,2.20600e+03,1.85400e+03,1.26686e-12,-7.84701e-01,6.10524e-13,-7.84701e-01,8.24225e-13,-7.84701e-01
8.29356e+02,3.12300e+03,2.76900e+03,3.54000e+02,1.36442e-12,-7.77155e-01,9.85316e-13,-7.77155e-01,5.92335e-13,-7.77155e-01
8.29605e+02,2.23600e+03,3.28300e+03,-1.04700e+03,1.38857e-12,-7.69610e-01,8.91790e-13,-7.69610e-01,5.25656e-13,-7.69610e-01
8.29853e+02,1.51700e+03,3.53300e+03,-2.01600e+03,4.53460e-13,-7.62065e-01,3.65535e-13,-7.62065e-01,1.04544e-13,-7.62065e-01
8.30101e+02,9.97000e+02,3.84000e+03,-2.84300e+03,7.45300e-13,-7.54520e-01,2.72630e-13,-7.54520e-01,8.64486e-13,-7.54520e-01
8.30350e+02,9.36000e+02,3.85700e+03,-2.92100e+03,1.00067e-12,-7.46975e-01,2.40480e-13,-7.46975e-01,1.23658e-12,-7.46975e-01
8.30598e+02,1.01300e+03,3.16200e+03,-2.14900e+03,3.00913e-13,-7.39429e-01,2.23053e-13,-7.39429e-01,5.16429e-13,-7.39429e-01
8.30847e+02,1.44200e+03,2.64000e+03,-1.19800e+03,6.23558e-13,-7.31884e-01,3.44432e-13,-7.31884e-01,5.12788e-13,-7.31884e-01
8.31095e+02,1.93900e+03,2.22600e+03,-2.87000e+02,6.50385e-13,-7.24339e-01,5.29712e-13,-7.24339e-01,2.93885e-13,-7.24339e-01
8.31344e+02,2.58300e+03,1.57300e+03,1.01000e+03,1.08477e-12,-7.16794e-01,1.00161e-12,-7.16794e-01,5.24714e-13,-7.16794e-01
8.31592e+02,2.79500e+03,1.02000e+03,1.77500e+03,1.81575e-12,-7.09249e-01,1.56808e-12,-7.09249e-01,6.64122e-13,-7.09249e-01
8.31841e+02,2.71400e+03,8.42000e+02,1.87200e+03,2.30453e-12,-7.01703e-01,1.75672e-12,-7.01703e-01,5.84982e-13,-7.01703e-01
8.32089e+02,2.80800e+03,8.46000e+02,1.96200e+03,1.41918e-12,-6.94158e-01,1.05837e-12,-6.94158e-01,9.05853e-13,-6.94158e-01
8.32337e+02,2.66800e+03,1.08400e+03,1.58400e+03,5.54688e-13,-6.86613e-01,8.40316e-13,-6.86613e-01,1.39173e-12,-6.86613e-01
8.32586e+02,2.07500e+03,1.35000e+03,7.25000e+02,1.17724e-12,-6.79068e-01,1.86022e-13,-6.79068e-01,9.95875e-13,-6.79068e-01
8.32834e+02,1.87300e+03,1.85700e+03,1.60000e+01,1.01506e-12,-6.71523e-01,8.78376e-13,-6.71523e-01,2.28442e-13,-6.71523e-01
8.33083e+02,1.34800e+03,2.09900e+03,-7.51000e+02,7.55479e-13,-6.63977e-01,1.08149e-12,-6.63977e-01,7.89070e-13,-6.63977e-01
8.33331e+02,9.97000e+02,2.33000e+03,-1.33300e+03,1.05894e-12,-6.56432e-01,1.44740e-12,-6.56432e-01,6.52002e-13,-6.56432e-01
8.33579e+02,7.65000e+02,2.32600e+03,-1.56100e+03,1.60739e-12,-6.48887e-01,2.23352e-12,-6.48887e-01,7.26606e-13,-6.48887e-01
8.33828e+02,7.34000e+02,2.20000e+03,-1.46600e+03,9.88379e-13,-6.41342e-01,2.95568e-12,-6.41342e-01,1.97520e-12,-6.41342e-01
8.34076e+02,7.64000e+02,1.82900e+03,-1.06500e+03,1.10460e-12,-6.33797e-01,3.48005e-12,-6.33797e-01,3.14250e-12,-6.33797e-01
8.34324e+02,9.47000e+02,1.60700e+03,-6.60000e+02,1.02053e-12,-6.26251e-01,2.79840e-12,-6.26251e-01,3.22855e-12,-6.26251e-01
8.34573e+02,1.10400e+03,1.30300e+03,-1.99000e+02,1.10792e-12,-6.18706e-01,1.31971e-12,-6.18706e-01,2.31235e-12,-6.18706e-01
8.34821e+02,1.32800e+03,9.99000e+02,3.29000e+02,1.98527e-12,-6.11161e-01,1.70498e-13,-6.11161e-01,2.12077e-12,-6.11161e-01
8.35069e+02,1.42500e+03,7.58000e+02,6.67000e+02,2.62159e-12,-6.03616e-01,4.81744e-13,-6.03616e-01,2.26918e-12,-6.03616e-01
8.35318e+02,1.68000e+03,7.40000e+02,9.40000e+02,3.22187e-12,-5.96071e-01,9.70476e-13,-5.96071e-01,2.25208e-12,-5.96071e-01
8.35566e+02,1.57400e+03,6.63000e+02,9.11000e+02,3.28450e-12,-5.88525e-01,9.59015e-13,-5.88525e-01,2.32947e-12,-5.88525e-01
8.35814e+02,1.46400e+03,7.18000e+02,7.46000e+02,3.06334e-12,-5.80980e-01,1.04513e-12,-5.80980e-01,2.25715e-12,-5.80980e-01
8.36062e+02,1.17700e+03,7.56000e+02,4.21000e+02,2.99748e-12,-5.73435e-01,1.65774e-12,-5.73435e-01,3.02652e-12,-5.73435e-01
8.36311e+02,9.88000e+02,9.16000e+02,7.20000e+01,2.51742e-12,-5.65890e-01,2.11712e-12,-5.65890e-01,3.38545e-12,-5.65890e-01
8.36559e+02,8.22000e+02,1.03300e+03,-2.11000e+02,1.24672e-12,-5.58345e-01,1.60962e-12,-5.58345e-01,2.39616e-12,-5.58345e-01
8.36807e+02,7.49000e+02,1.20800e+03,-4.59000e+02,1.18749e-12,-5.50799e-01,1.06642e-12,-5.50799e-01,1.95868e-12,-5.50799e-01
8.37055e+02,6.74000e+02,1.23200e+03,-5.58000e+02,2.21757e-12,-5.43254e-01,1.74467e-12,-5.43254e-01,2.16123e-12,-5.43254e-01
8.37304e+02,6.45000e+02,1.19500e+03,-5.50000e+02,2.30046e-12,-5.35709e-01,2.43173e-12,-5.35709e-01,7.67258e-13,-5.35709e-01
8.37552e+02,6.53000e+02,1.02800e+03,-3.75000e+02,1.61081e-12,-5.28164e-01,2.13040e-12,-5.28164e-01,7.98711e-13,-5.28164e-01
8.37800e+02,7.28000e+02,9.61000e+02,-2.33000e+02,4.52008e-13,-5.20619e-01,1.43930e-12,-5.20619e-01,1.43525e-12,-5.20619e-01
8.38048e+02,6.94000e+02,7.45000e+02,-5.10000e+01,8.23231e-13,-5.13073e-01,2.13788e-12,-5.13073e-01,1.32059e-12,-5.13073e-01
8.38296e+02,8.07000e+02,7.01000e+02,1.06000e+02,1.50974e-12,-5.05528e-01,2.00525e-12,-5.05528e-01,1.10280e-12,-5.05528e-01
8.38545e+02,8.28000e+02,6.57000e+02,1.71000e+02,8.79652e-13,-4.97983e-01,1.25852e-12,-4.97983e-01,1.43170e-12,-4.97983e-01
8.38793e+02,8.78000e+02,6.43000e+02,2.35000e+02,1.43567e-12,-4.90438e-01,5.39931e-13,-4.90438e-01,9.01261e-13,-4.90438e-01
8.39041e+02,7.91000e+02,6.40000e+02,1.51000e+02,2.84604e-12,-4.82893e-01,1.58900e-12,-4.82893e-01,1.27992e-12,-4.82893e-01
8.39289e+02,8.03000e+02,6.49000e+02,1.54000e+02,3.10960e-12,-4.75347e-01,2.23269e-12,-4.75347e-01,1.65277e-12,-4.75347e-01
8.39537e+02,7.43000e+02,6.64000e+02,7.90000e+01,2.14894e-12,-4.67802e-01,2.00899e-12,-4.67802e-01,1.31913e-12,-4.67802e-01
8.39785e+02,7.20000e+02,6.79000e+02,4.10000e+01,1.45438e-12,-4.60257e-01,1.61959e-12,-4.60257e-01,3.70474e-13,-4.60257e-01
8.40033e+02,6.76000e+02,6.97000e+02,-2.10000e+01,2.65400e-12,-4.52712e-01,1.49263e-12,-4.52712e-01,3.98936e-12,-4.52712e-01
8.40281e+02,6.75000e+02,7.72000e+02,-9.70000e+01,3.71233e-12,-4.45167e-01,2.49240e-12,-4.45167e-01,5.85996e-12,-4.45167e-01
8.40530e+02,6.21000e+02,7.13000e+02,-9.20000e+01,8.77546e-13,-4.37621e-01,4.19055e-12,-4.37621e-01,4.56825e-12,-4.37621e-01
8.40778e+02,6.23000e+02,7.44000e+02,-1.21000e+02,2.47005e-12,-4.30076e-01,3.95430e-12,-4.30076e-01,4.03589e-12,-4.30076e-01
8.41026e+02,6.32000e+02,7.07000e+02,-7.50000e+01,2.82669e-12,-4.22531e-01,1.99764e-12,-4.22531e-01,2.13785e-12,-4.22531e-01
8.41274e+02,6.42000e+02,6.75000e+02,-3.30000e+01,3.18116e-12,-4.14986e-01,6.85237e-13,-4.14986e-01,2.61048e-12,-4.14986e-01
8.41522e+02,6.46000e+02,6.63000e+02,-1.70000e+01,4.31511e-12,-4.07441e-01,1.22801e-12,-4.07441e-01,3.09214e-12,-4.07441e-01
8.41770e+02,6.57000e+02,6.58000e+02,-1.00000e+00,5.35221e-12,-3.99895e-01,3.19865e-12,-3.99895e-01,2.18904e-12,-3.99895e-01
8.42018e+02,6.54000e+02,6.33000e+02,2.10000e+01,5.52154e-12,-3.92350e-01,3.28838e-12,-3.92350e-01,2.38244e-12,-3.92350e-01
8.42266e+02,6.71000e+02,6.40000e+02,3.10000e+01,4.77128e-12,-3.84805e-01,1.77199e-12,-3.84805e-01,3.20229e-12,-3.84805e-01
8.42514e+02,6.73000e+02,6.28000e+02,4.50000e+01,4.89207e-12,-3.77260e-01,2.00045e-12,-3.77260e-01,3.61290e-12,-3.77260e-01
8.42762e+02,6.93000e+02,6.57000e+02,3.60000e+01,5.13495e-12,-3.69715e-01,3.41606e-12,-3.69715e-01,3.10409e-12,-3.69715e-01
8.43010e+02,6.56000e+02,6.25000e+02,3.10000e+01,3.04779e-12,-3.62169e-01,5.70543e-12,-3.62169e-01,2.76104e-12,-3.62169e-01
8.43258e+02,6.51000e+02,6.36000e+02,1.50000e+01,1.83316e-12,-3.54624e-01,6.47694e-12,-3.54624e-01,6.54880e-12,-3.54624e-01
8.43506e+02,6.41000e+02,6.37000e+02,4.00000e+00,2.86480e-12,-3.47079e-01,4.47778e-12,-3.47079e-01,4.40066e-12,-3.47079e-01
8.43754e+02,6.41000e+02,6.46000e+02,-5.00000e+00,1.13348e-12,-3.39534e-01,3.12322e-12,-3.39534e-01,2.31295e-12,-3.39534e-01
8.44002e+02,6.35000e+02,6.44000e+02,-9.00000e+00,1.95013e-12,-3.31989e-01,3.68462e-12,-3.31989e-01,5.63234e-12,-3.31989e-01
8.44250e+02,6.18000e+02,6.52000e+02,-3.40000e+01,2.50235e-12,-3.24444e-01,3.90744e-12,-3.24444e-01,5.92207e-12,-3.24444e-01
8.44498e+02,6.44000e+02,6.36000e+02,8.00000e+00,2.31156e-12,-3.16898e-01,4.19656e-12,-3.16898e-01,4.67052e-12,-3.16898e-01
8.44746e+02,6.33000e+02,6.37000e+02,-4.00000e+00,3.17834e-12,-3.09353e-01,3.24459e-12,-3.09353e-01,2.09620e-12,-3.09353e-01
8.44994e+02,6.36000e+02,6.29000e+02,7.00000e+00,2.58439e-12,-3.01808e-01,1.01311e-12,-3.01808e-01,2.70278e-12,-3.01808e-01
8.45242e+02,6.60000e+02,6.66000e+02,-6.00000e+00,1.40080e-12,-2.94263e-01,8.99311e-13,-2.94263e-01,2.28285e-12,-2.94263e-01
8.45490e+02,6.21000e+02,6.13000e+02,8.00000e+00,2.97552e-12,-2.86718e-01,1.28028e-12,-2.86718e-01,4.11916e-12,-2.86718e-01
8.45738e+02,6.48000e+02,6.26000e+02,2.20000e+01,3.73902e-12,-2.79172e-01,5.65490e-13,-2.79172e-01,3.72007e-12,-2.79172e-01
8.45985e+02,6.26000e+02,6.35000e+02,-9.00000e+00,2.77536e-12,-2.71627e-01,2.39864e-12,-2.71627e-01,1.34185e-12,-2.71627e-01
8.46233e+02,6.35000e+02,6.35000e+02,0.00000e+00,5.28631e-13,-2.64082e-01,3.75120e-12,-2.64082e-01,4.14422e-12,-2.64082e-01
8.46481e+02,6.40000e+02,6.29000e+02,1.10000e+01,4.29093e-12,-2.56537e-01,3.77630e-12,-2.56537e-01,7.74250e-12,-2.56537e-01
8.46729e+02,6.17000e+02,6.37000e+02,-2.00000e+01,7.96102e-12,-2.48992e-01,2.20221e-12,-2.48992e-01,1.01481e-11,-2.48992e-01
8.46977e+02,6.36000e+02,6.29000e+02,7.00000e+00,6.08108e-12,-2.41446e-01,5.12432e-12,-2.41446e-01,9.80507e-12,-2.41446e-01
8.47225e+02,6.22000e+02,6.35000e+02,-1.30000e+01,4.11533e-12,-2.33901e-01,8.75341e-12,-2.33901e-01,1.28111e-11,-2.33901e-01
8.47473e+02,6.30000e+02,6.27000e+02,3.00000e+00,6.94588e-12,-2.26356e-01,6.47723e-12,-2.26356e-01,1.20111e-11,-2.26356e-01
8.47720e+02,6.58000e+02,6.69000e+02,-1.10000e+01,1.07402e-11,-2.18811e-01,8.10304e-12,-2.18811e-01,1.88425e-11,-2.18811e-01
8.47968e+02,6.18000e+02,6.20000e+02,-2.00000e+00,5.49331e-11,-2.11266e-01,5.25708e-11,-2.11266e-01,1.05711e-10,-2.11266e-01
8.48216e+02,6.31000e+02,6.35000e+02,-4.00000e+00,1.09824e-10,-2.03720e-01,1.06312e-10,-2.03720e-01,2.11925e-10,-2.03720e-01
8.48464e+02,6.39000e+02,6.37000e+02,2.00000e+00,1.05391e-10,-1.96175e-01,1.06968e-10,-1.96175e-01,2.08060e-10,-1.96175e-01
8.48712e+02,6.35000e+02,6.32000e+02,3.00000e+00,5.28047e-11,-1.88630e-01,5.94121e-11,-1.88630e-01,1.09721e-10,-1.88630e-01
8.48960e+02,6.33000e+02,6.30000e+02,3.00000e+00,1.80795e-11,-1.81085e-01,2.59835e-11,-1.81085e-01,4.31793e-11,-1.81085e-01
8.49207e+02,6.42000e+02,6.24000e+02,1.80000e+01,3.51030e-12,-1.73540e-01,7.68515e-12,-1.73540e-01,7.87054e-12,-1.73540e-01
8.49455e+02,6.36000e+02,6.31000e+02,5.00000e+00,7.67454e-12,-1.65994e-01,3.76202e-12,-1.65994e-01,1.10496e-11,-1.65994e-01
8.49703e+02,6.29000e+02,6.36000e+02,-7.00000e+00,2.93091e-12,-1.58449e-01,4.79789e-12,-1.58449e-01,4.60140e-12,-1.58449e-01
8.49951e+02,6.27000e+02,6.28000e+02,-1.00000e+00,6.79140e-12,-1.50904e-01,6.02642e-12,-1.50904e-01,2.04560e-12,-1.50904e-01
8.50198e+02,6.57000e+02,6.57000e+02,0.00000e+00,5.57859e-12,-1.43359e-01,2.21534e-12,-1.43359e-01,3.78443e-12,-1.43359e-01
8.50446e+02,6.16000e+02,6.21000e+02,-5.00000e+00,2.24082e-12,-1.35814e-01,2.17993e-12,-1.35814e-01,3.56168e-12,-1.35814e-01
8.50694e+02,6.32000e+02,6.31000e+02,1.00000e+00,4.15614e-12,-1.28268e-01,2.77213e-12,-1.28268e-01,5.20524e-12,-1.28268e-01
8.50941e+02,6.29000e+02,6.24000e+02,5.00000e+00,3.80454e-12,-1.20723e-01,3.84950e-12,-1.20723e-01,5.85680e-12,-1.20723e-01
8.51189e+02,6.26000e+02,6.28000e+02,-2.00000e+00,2.71667e-12,-1.13178e-01,3.94469e-12,-1.13178e-01,4.86590e-12,-1.13178e-01
8.51437e+02,6.11000e+02,6.23000e+02,-1.20000e+01,2.98488e-12,-1.05633e-01,3.34363e-12,-1.05633e-01,3.61996e-12,-1.05633e-01
8.51685e+02,6.28000e+02,6.31000e+02,-3.00000e+00,1.60414e-12,-9.80876e-02,3.34578e-12,-9.80876e-02,2.92431e-12,-9.80876e-02
8.51932e+02,6.41000e+02,6.26000e+02,1.50000e+01,9.51460e-13,-9.05424e-02,2.38451e-12,-9.05424e-02,2.69182e-12,-9.05424e-02
8.52180e+02,6.33000e+02,6.32000e+02,1.00000e+00,1.85659e-12,-8.29972e-02,7.67729e-13,-8.29972e-02,1.21663e-12,-8.29972e-02
8.52428e+02,6.34000e+02,6.31000e+02,3.00000e+00,2.35521e-12,-7.54520e-02,2.29159e-12,-7.54520e-02,1.54294e-12,-7.54520e-02
8.52675e+02,6.72000e+02,6.51000e+02,2.10000e+01,3.20420e-12,-6.79068e-02,4.62537e-12,-6.79068e-02,1.48171e-12,-6.79068e-02
8.52923e+02,6.16000e+02,6.11000e+02,5.00000e+00,9.32852e-12,-6.03616e-02,6.28775e-12,-6.03616e-02,3.54006e-12,-6.03616e-02
8.53170e+02,6.26000e+02,6.44000e+02,-1.80000e+01,1.34110e-11,-5.28164e-02,5.53638e-12,-5.28164e-02,8.05151e-12,-5.28164e-02
8.53418e+02,6.29000e+02,6.15000e+02,1.40000e+01,9.33294e-12,-4.52712e-02,2.39152e-12,-4.52712e-02,7.42085e-12,-4.52712e-02
8.53666e+02,6.48000e+02,6.34000e+02,1.40000e+01,2.41078e-12,-3.77260e-02,1.82554e-12,-3.77260e-02,3.89931e-12,-3.77260e-02
8.53913e+02,6.31000e+02,6.37000e+02,-6.00000e+00,2.20722e-12,-3.01808e-02,2.04931e-12,-3.01808e-02,4.25555e-12,-3.01808e-02
8.54161e+02,6.31000e+02,6.31000e+02,0.00000e+00,1.24822e-11,-2.26356e-02,1.71923e-11,-2.26356e-02,5.01350e-12,-2.26356e-02
8.54409e+02,6.35000e+02,6.32000e+02,3.00000e+00,7.77865e-11,-1.50904e-02,8.14135e-11,-1.50904e-02,6.59698e-12,-1.50904e-02
8.54656e+02,6.28000e+02,6.29000e+02,-1.00000e+00,2.30014e-10,-7.54520e-03,2.30756e-10,-7.54520e-03,4.98282e-12,-7.54520e-03
