7.67698e+02,6.30000e+02,6.29000e+02,1.00000e+00,3.90896e-10,0.00000e+00,3.88693e-10,0.00000e+00,2.20342e-12,0.00000e+00
7.67949e+02,6.46000e+02,6.69000e+02,-2.30000e+01,2.33359e-10,7.54520e-03,2.31386e-10,7.54520e-03,5.95580e-12,7.54520e-03
7.68199e+02,6.00000e+02,6.14000e+02,-1.40000e+01,8.22233e-11,1.50904e-02,8.21563e-11,1.50904e-02,6.17414e-12,1.50904e-02
7.68450e+02,6.33000e+02,6.30000e+02,3.00000e+00,1.69728e-11,2.26356e-02,1.82065e-11,2.26356e-02,2.35397e-12,2.26356e-02
7.68701e+02,6.27000e+02,6.29000e+02,-2.00000e+00,4.72178e-12,3.01808e-02,2.69645e-12,3.01808e-02,2.04692e-12,3.01808e-02
7.68951e+02,6.29000e+02,6.41000e+02,-1.20000e+01,5.19622e-12,3.77260e-02,2.07144e-12,3.77260e-02,3.12598e-12,3.77260e-02
7.69202e+02,6.34000e+02,6.50000e+02,-1.60000e+01,6.70271e-12,4.52712e-02,6.09962e-12,4.52712e-02,2.45698e-12,4.52712e-02
7.69453e+02,6.24000e+02,6.47000e+02,-2.30000e+01,9.36525e-12,5.28164e-02,1.04122e-11,5.28164e-02,1.84522e-12,5.28164e-02
7.69703e+02,6.37000e+02,6.33000e+02,4.00000e+00,8.25167e-12,6.03616e-02,8.75241e-12,6.03616e-02,2.04170e-12,6.03616e-02
7.69954e+02,6.45000e+02,6.34000e+02,1.10000e+01,5.09518e-12,6.79068e-02,3.47521e-12,6.79068e-02,3.01749e-12,6.79068e-02
7.70205e+02,6.25000e+02,6.30000e+02,-5.00000e+00,3.60375e-12,7.54520e-02,8.53143e-13,7.54520e-02,2.95011e-12,7.54520e-02
7.70455e+02,6.64000e+02,6.91000e+02,-2.70000e+01,2.52964e-12,8.29972e-02,1.71956e-12,8.29972e-02,1.90168e-12,8.29972e-02
7.70706e+02,6.17000e+02,6.42000e+02,-2.50000e+01,1.90112e-12,9.05424e-02,3.71700e-12,9.05424e-02,3.34425e-12,9.05424e-02
7.70957e+02,6.51000e+02,6.44000e+02,7.00000e+00,1.43920e-12,9.80876e-02,3.99814e-12,9.80876e-02,2.81206e-12,9.80876e-02
7.71207e+02,6.56000e+02,6.39000e+02,1.70000e+01,2.80815e-12,1.05633e-01,4.27088e-12,1.05633e-01,1.53335e-12,1.05633e-01
7.71458e+02,6.43000e+02,6.34000e+02,9.00000e+00,4.00728e-12,1.13178e-01,4.55651e-12,1.13178e-01,7.72542e-13,1.13178e-01
7.71708e+02,6.33000e+02,6.52000e+02,-1.90000e+01,5.21497e-12,1.20723e-01,4.74012e-12,1.20723e-01,1.44014e-12,1.20723e-01
7.71959e+02,6.34000e+02,6.88000e+02,-5.40000e+01,3.46408e-12,1.28268e-01,4.29575e-12,1.28268e-01,1.88809e-12,1.28268e-01
7.72210e+02,6.48000e+02,6.75000e+02,-2.70000e+01,1.20331e-12,1.35814e-01,3.36140e-12,1.35814e-01,2.79533e-12,1.35814e-01
7.72460e+02,6.76000e+02,6.36000e+02,4.00000e+01,5.60514e-12,1.43359e-01,4.48735e-12,1.43359e-01,2.08018e-12,1.43359e-01
7.72711e+02,6.62000e+02,6.44000e+02,1.80000e+01,6.35655e-12,1.50904e-01,7.34507e-12,1.50904e-01,1.00820e-12,1.50904e-01
7.72961e+02,6.78000e+02,6.91000e+02,-1.30000e+01,1.30827e-12,1.58449e-01,4.23267e-12,1.58449e-01,3.44515e-12,1.58449e-01
7.73212e+02,6.07000e+02,6.76000e+02,-6.90000e+01,6.15395e-12,1.65994e-01,2.12767e-12,1.65994e-01,4.03179e-12,1.65994e-01
7.73462e+02,6.57000e+02,6.74000e+02,-1.70000e+01,7.32961e-12,1.73540e-01,5.07235e-12,1.73540e-01,2.31651e-12,1.73540e-01
7.73713e+02,6.63000e+02,6.37000e+02,2.60000e+01,4.57152e-12,1.81085e-01,6.19855e-12,1.81085e-01,3.00051e-12,1.81085e-01
7.73963e+02,6.69000e+02,6.28000e+02,4.10000e+01,2.27505e-12,1.88630e-01,6.46815e-12,1.88630e-01,6.13315e-12,1.88630e-01
7.74214e+02,6.37000e+02,6.52000e+02,-1.50000e+01,3.12599e-12,1.96175e-01,5.27837e-12,1.96175e-01,7.61202e-12,1.96175e-01
7.74465e+02,6.27000e+02,7.09000e+02,-8.20000e+01,2.58631e-12,2.03720e-01,4.70423e-12,2.03720e-01,6.92549e-12,2.03720e-01
7.74715e+02,6.56000e+02,7.06000e+02,-5.00000e+01,5.48528e-13,2.11266e-01,4.69796e-12,2.11266e-01,4.89473e-12,2.11266e-01
7.74965e+02,7.25000e+02,6.84000e+02,4.10000e+01,7.30033e-13,2.18811e-01,3.06209e-12,2.18811e-01,3.60342e-12,2.18811e-01
7.75216e+02,7.05000e+02,6.38000e+02,6.70000e+01,2.98702e-12,2.26356e-01,3.24717e-12,2.26356e-01,3.54034e-12,2.26356e-01
7.75466e+02,7.00000e+02,6.87000e+02,1.30000e+01,4.80403e-12,2.33901e-01,4.14860e-12,2.33901e-01,2.66482e-12,2.33901e-01
7.75717e+02,6.40000e+02,6.88000e+02,-4.80000e+01,4.70894e-12,2.41446e-01,5.83255e-12,2.41446e-01,1.66026e-12,2.41446e-01
7.75967e+02,6.53000e+02,7.77000e+02,-1.24000e+02,2.40034e-12,2.48992e-01,6.07657e-12,2.48992e-01,3.69837e-12,2.48992e-01
7.76218e+02,7.30000e+02,7.05000e+02,2.50000e+01,3.10082e-12,2.56537e-01,2.64779e-12,2.56537e-01,4.87938e-12,2.56537e-01
7.76468e+02,7.83000e+02,6.62000e+02,1.21000e+02,5.82461e-12,2.64082e-01,1.36313e-12,2.64082e-01,4.75464e-12,2.64082e-01
7.76719e+02,7.14000e+02,6.68000e+02,4.60000e+01,4.88327e-12,2.71627e-01,1.92641e-12,2.71627e-01,3.47366e-12,2.71627e-01
7.76969e+02,6.64000e+02,7.60000e+02,-9.60000e+01,1.36298e-12,2.79172e-01,1.77681e-12,2.79172e-01,9.18818e-13,2.79172e-01
7.77219e+02,6.57000e+02,8.40000e+02,-1.83000e+02,1.61338e-12,2.86718e-01,9.68043e-13,2.86718e-01,2.32708e-12,2.86718e-01
7.77470e+02,8.48000e+02,8.92000e+02,-4.40000e+01,2.80899e-12,2.94263e-01,1.05885e-12,2.94263e-01,3.66600e-12,2.94263e-01
7.77720e+02,9.46000e+02,6.89000e+02,2.57000e+02,2.55787e-12,3.01808e-01,2.50874e-12,3.01808e-01,3.67032e-12,3.01808e-01
7.77971e+02,9.23000e+02,7.25000e+02,1.98000e+02,2.81016e-12,3.09353e-01,3.20306e-12,3.09353e-01,8.92492e-13,3.09353e-01
7.78221e+02,7.08000e+02,7.86000e+02,-7.80000e+01,2.90778e-12,3.16898e-01,4.05138e-12,3.16898e-01,5.66742e-12,3.16898e-01
7.78471e+02,6.76000e+02,1.05900e+03,-3.83000e+02,1.06596e-12,3.24444e-01,3.93010e-12,3.24444e-01,4.87876e-12,3.24444e-01
7.78722e+02,7.71000e+02,1.03500e+03,-2.64000e+02,1.41156e-12,3.31989e-01,1.62818e-12,3.31989e-01,4.88880e-13,3.31989e-01
7.78972e+02,1.13900e+03,8.97000e+02,2.42000e+02,3.09463e-12,3.39534e-01,9.42655e-13,3.39534e-01,2.91779e-12,3.39534e-01
7.79222e+02,1.11800e+03,7.21000e+02,3.97000e+02,3.16359e-12,3.47079e-01,9.90100e-13,3.47079e-01,2.57686e-12,3.47079e-01
7.79473e+02,9.34000e+02,7.88000e+02,1.46000e+02,1.97762e-12,3.54624e-01,1.18959e-12,3.54624e-01,1.27044e-12,3.54624e-01
7.79723e+02,7.33000e+02,9.96000e+02,-2.63000e+02,2.04694e-12,3.62169e-01,3.23813e-12,3.62169e-01,1.47952e-12,3.62169e-01
7.79973e+02,8.39000e+02,1.33800e+03,-4.99000e+02,2.59908e-12,3.69715e-01,3.66638e-12,3.69715e-01,2.37592e-12,3.69715e-01
7.80224e+02,1.14500e+03,1.12200e+03,2.30000e+01,2.27478e-12,3.77260e-01,1.23954e-12,3.77260e-01,2.07458e-12,3.77260e-01
7.80474e+02,1.44200e+03,8.94000e+02,5.48000e+02,1.21459e-12,3.84805e-01,1.95782e-12,3.84805e-01,1.93671e-12,3.84805e-01
7.80724e+02,1.09800e+03,7.25000e+02,3.73000e+02,2.13075e-12,3.92350e-01,3.53801e-12,3.92350e-01,5.45258e-12,3.92350e-01
7.80974e+02,8.10000e+02,1.10400e+03,-2.94000e+02,8.68988e-12,3.99895e-01,8.18195e-12,3.99895e-01,1.64359e-11,3.99895e-01
7.81225e+02,7.73000e+02,1.49300e+03,-7.20000e+02,1.56384e-11,4.07441e-01,1.74634e-11,4.07441e-01,3.21204e-11,4.07441e-01
7.81475e+02,1.19400e+03,1.58500e+03,-3.91000e+02,2.25514e-11,4.14986e-01,2.17810e-11,4.14986e-01,4.34703e-11,4.14986e-01
7.81725e+02,1.51500e+03,1.14000e+03,3.75000e+02,3.64409e-11,4.22531e-01,3.38994e-11,4.22531e-01,6.75762e-11,4.22531e-01
7.81975e+02,1.72300e+03,8.53000e+02,8.70000e+02,5.24557e-11,4.30076e-01,5.21065e-11,4.30076e-01,9.97965e-11,4.30076e-01
7.82226e+02,1.27700e+03,9.66000e+02,3.11000e+02,6.23431e-11,4.37621e-01,6.21581e-11,4.37621e-01,1.18752e-10,4.37621e-01
7.82476e+02,8.63000e+02,1.53800e+03,-6.75000e+02,5.98964e-11,4.45167e-01,5.84245e-11,4.45167e-01,1.12238e-10,4.45167e-01
7.82726e+02,9.82000e+02,1.84300e+03,-8.61000e+02,4.99842e-11,4.52712e-01,4.83250e-11,4.52712e-01,9.26686e-11,4.52712e-01
7.82976e+02,1.56300e+03,1.50400e+03,5.90000e+01,3.79113e-11,4.60257e-01,3.68310e-11,4.60257e-01,7.00660e-11,4.60257e-01
7.83226e+02,1.67000e+03,9.16000e+02,7.54000e+02,2.25651e-11,4.67802e-01,2.28478e-11,4.67802e-01,4.26537e-11,4.67802e-01
7.83477e+02,1.59800e+03,9.24000e+02,6.74000e+02,7.92701e-12,4.75347e-01,1.01258e-11,4.75347e-01,1.69079e-11,4.75347e-01
7.83727e+02,1.01000e+03,1.31300e+03,-3.03000e+02,8.05229e-12,4.82893e-01,8.69335e-12,4.82893e-01,1.43017e-11,4.82893e-01
7.83977e+02,1.02900e+03,1.92500e+03,-8.96000e+02,8.14686e-12,4.90438e-01,6.34431e-12,4.90438e-01,1.26085e-11,4.90438e-01
7.84227e+02,1.52000e+03,1.87600e+03,-3.56000e+02,1.45156e-12,4.97983e-01,1.68938e-12,4.97983e-01,3.12872e-12,4.97983e-01
7.84477e+02,2.15600e+03,1.44800e+03,7.08000e+02,3.17650e-12,5.05528e-01,2.06276e-12,5.05528e-01,4.07510e-12,5.05528e-01
7.84727e+02,1.97600e+03,9.89000e+02,9.87000e+02,9.68330e-13,5.13073e-01,7.60562e-13,5.13073e-01,1.35892e-12,5.13073e-01
7.84978e+02,1.55200e+03,1.44800e+03,1.04000e+02,1.90790e-12,5.20619e-01,1.96398e-12,5.20619e-01,2.85023e-12,5.20619e-01
7.85228e+02,1.09200e+03,2.39400e+03,-1.30200e+03,2.19168e-12,5.28164e-01,1.95017e-12,5.28164e-01,2.17156e-12,5.28164e-01
7.85478e+02,1.60800e+03,2.89200e+03,-1.28400e+03,1.26981e-12,5.35709e-01,2.27722e-12,5.35709e-01,1.70310e-12,5.35709e-01
7.85728e+02,2.61800e+03,2.28600e+03,3.32000e+02,8.67050e-13,5.43254e-01,1.50254e-12,5.43254e-01,1.94076e-12,5.43254e-01
7.85978e+02,3.08500e+03,1.46300e+03,1.62200e+03,1.61069e-12,5.50799e-01,1.48060e-12,5.50799e-01,3.08660e-12,5.50799e-01
7.86228e+02,2.25100e+03,1.29000e+03,9.61000e+02,2.17882e-12,5.58345e-01,2.77463e-12,5.58345e-01,4.95313e-12,5.58345e-01
7.86478e+02,1.38000e+03,2.08500e+03,-7.05000e+02,2.73980e-12,5.65890e-01,2.61909e-12,5.65890e-01,5.35179e-12,5.65890e-01
7.86728e+02,1.21800e+03,2.73700e+03,-1.51900e+03,2.09539e-12,5.73435e-01,1.34153e-12,5.73435e-01,3.43181e-12,5.73435e-01
7.86978e+02,2.04300e+03,2.50500e+03,-4.62000e+02,1.54232e-12,5.80980e-01,1.40143e-12,5.80980e-01,2.74387e-12,5.80980e-01
7.87228e+02,2.93700e+03,1.73300e+03,1.20400e+03,1.28584e-12,5.88525e-01,2.29598e-12,5.88525e-01,3.41419e-12,5.88525e-01
7.87478e+02,2.90700e+03,1.34700e+03,1.56000e+03,7.35249e-13,5.96071e-01,1.99739e-12,5.96071e-01,1.52384e-12,5.96071e-01
7.87728e+02,1.87600e+03,2.00000e+03,-1.24000e+02,1.87668e-12,6.03616e-01,1.30863e-12,6.03616e-01,8.80653e-13,6.03616e-01
7.87978e+02,1.44800e+03,3.20600e+03,-1.75800e+03,2.03702e-12,6.11161e-01,7.78489e-13,6.11161e-01,1.64171e-12,6.11161e-01
7.88228e+02,2.10300e+03,3.34800e+03,-1.24500e+03,1.02441e-12,6.18706e-01,1.36053e-12,6.18706e-01,2.04681e-12,6.18706e-01
7.88478e+02,3.57000e+03,2.71400e+03,8.56000e+02,1.35432e-12,6.26251e-01,3.54125e-12,6.26251e-01,2.49907e-12,6.26251e-01
7.88728e+02,3.89300e+03,1.65700e+03,2.23600e+03,2.25501e-12,6.33797e-01,4.58799e-12,6.33797e-01,2.50726e-12,6.33797e-01
7.88978e+02,3.06000e+03,1.78600e+03,1.27400e+03,1.86876e-12,6.41342e-01,4.32326e-12,6.41342e-01,2.46997e-12,6.41342e-01
7.89228e+02,1.88100e+03,3.11700e+03,-1.23600e+03,1.30805e-12,6.48887e-01,4.03665e-12,6.48887e-01,2.84555e-12,6.48887e-01
7.89478e+02,1.83300e+03,4.39500e+03,-2.56200e+03,1.06912e-12,6.56432e-01,2.64751e-12,6.56432e-01,1.68769e-12,6.56432e-01
7.89728e+02,3.23100e+03,4.14400e+03,-9.13000e+02,1.15717e-12,6.63977e-01,1.35133e-12,6.63977e-01,5.34430e-13,6.63977e-01
7.89978e+02,4.73400e+03,2.88000e+03,1.85400e+03,1.75454e-12,6.71523e-01,9.62294e-13,6.71523e-01,9.36793e-13,6.71523e-01
7.90228e+02,4.21600e+03,1.81000e+03,2.40600e+03,1.96536e-12,6.79068e-01,1.15051e-12,6.79068e-01,9.09594e-13,6.79068e-01
7.90478e+02,2.85500e+03,2.52900e+03,3.26000e+02,1.38040e-12,6.86613e-01,1.24188e-12,6.86613e-01,7.31690e-13,6.86613e-01
7.90728e+02,1.93100e+03,4.19400e+03,-2.26300e+03,5.11996e-13,6.94158e-01,1.06050e-12,6.94158e-01,1.56804e-12,6.94158e-01
7.90978e+02,2.66000e+03,5.13700e+03,-2.47700e+03,1.73131e-12,7.01703e-01,6.08756e-13,7.01703e-01,1.85612e-12,7.01703e-01
7.91228e+02,4.29600e+03,3.89700e+03,3.99000e+02,1.33645e-12,7.09249e-01,1.24779e-13,7.09249e-01,1.23445e-12,7.09249e-01
7.91478e+02,4.90000e+03,2.28300e+03,2.61700e+03,4.48170e-13,7.16794e-01,1.08687e-12,7.16794e-01,1.19558e-12,7.16794e-01
7.91728e+02,3.84100e+03,1.93900e+03,1.90200e+03,3.94634e-13,7.24339e-01,1.32713e-12,7.24339e-01,1.15349e-12,7.24339e-01
7.91977e+02,2.38400e+03,3.14200e+03,-7.58000e+02,2.75504e-13,7.31884e-01,6.06022e-13,7.31884e-01,7.54887e-13,7.31884e-01
7.92227e+02,1.99300e+03,4.30500e+03,-2.31200e+03,5.12874e-13,7.39429e-01,1.25885e-12,7.39429e-01,7.78473e-13,7.39429e-01
7.92477e+02,3.73200e+03,4.77100e+03,-1.03900e+03,7.26836e-13,7.46975e-01,1.17386e-12,7.46975e-01,6.27430e-13,7.46975e-01
7.92727e+02,5.91800e+03,3.54900e+03,2.36900e+03,8.42663e-13,7.54520e-01,6.31682e-13,7.54520e-01,1.38585e-12,7.54520e-01
7.92977e+02,6.25900e+03,2.23700e+03,4.02200e+03,1.48923e-12,7.62065e-01,7.48379e-13,7.62065e-01,1.80138e-12,7.62065e-01
7.93227e+02,3.80000e+03,2.72800e+03,1.07200e+03,1.32472e-12,7.69610e-01,1.47160e-12,7.69610e-01,1.71861e-12,7.69610e-01
7.93476e+02,2.31800e+03,4.49100e+03,-2.17300e+03,8.31503e-13,7.77155e-01,1.45147e-12,7.77155e-01,1.92861e-12,7.77155e-01
7.93726e+02,2.92600e+03,5.60700e+03,-2.68100e+03,1.04840e-12,7.84701e-01,1.22048e-12,7.84701e-01,1.89533e-12,7.84701e-01
7.93976e+02,5.04600e+03,4.83600e+03,2.10000e+02,1.14099e-12,7.92246e-01,1.03356e-12,7.92246e-01,1.65504e-12,7.92246e-01
7.94226e+02,6.30100e+03,2.86700e+03,3.43400e+03,5.58400e-13,7.99791e-01,7.17837e-13,7.99791e-01,9.89115e-13,7.99791e-01
7.94476e+02,6.14900e+03,2.35300e+03,3.79600e+03,5.10988e-13,8.07336e-01,2.60970e-13,8.07336e-01,7.18772e-13,8.07336e-01
7.94725e+02,3.56600e+03,3.53500e+03,3.10000e+01,1.07378e-12,8.14881e-01,2.40756e-13,8.14881e-01,8.37612e-13,8.14881e-01
7.94975e+02,2.33500e+03,5.43700e+03,-3.10200e+03,1.34394e-12,8.22427e-01,1.07364e-12,8.22427e-01,8.36194e-13,8.22427e-01
7.95225e+02,3.29800e+03,5.88700e+03,-2.58900e+03,1.07792e-12,8.29972e-01,1.66475e-12,8.29972e-01,1.50973e-12,8.29972e-01
7.95475e+02,5.28200e+03,4.29300e+03,9.89000e+02,4.60265e-13,8.37517e-01,1.58049e-12,8.37517e-01,1.47078e-12,8.37517e-01
7.95724e+02,6.13100e+03,2.42600e+03,3.70500e+03,9.41687e-13,8.45062e-01,1.25600e-12,8.45062e-01,3.14700e-13,8.45062e-01
7.95974e+02,5.27200e+03,2.57600e+03,2.69600e+03,2.12260e-12,8.52607e-01,1.85278e-12,8.52607e-01,5.67572e-13,8.52607e-01
7.96224e+02,3.28500e+03,4.80400e+03,-1.51900e+03,1.91029e-12,8.60153e-01,2.48733e-12,8.60153e-01,1.49758e-12,8.60153e-01
7.96474e+02,2.58100e+03,6.91100e+03,-4.33000e+03,1.64696e-12,8.67698e-01,2.84585e-12,8.67698e-01,1.58411e-12,8.67698e-01
7.96723e+02,4.21900e+03,6.46400e+03,-2.24500e+03,2.10261e-12,8.75243e-01,2.38784e-12,8.75243e-01,1.69056e-12,8.75243e-01
7.96973e+02,6.63100e+03,4.23700e+03,2.39400e+03,2.61644e-12,8.82788e-01,2.03862e-12,8.82788e-01,2.43726e-12,8.82788e-01
7.97223e+02,7.77600e+03,2.66700e+03,5.10900e+03,2.60538e-12,8.90333e-01,2.13590e-12,8.90333e-01,2.53036e-12,8.90333e-01
7.97472e+02,5.46200e+03,3.47600e+03,1.98600e+03,1.96374e-12,8.97879e-01,2.31704e-12,8.97879e-01,2.14731e-12,8.97879e-01
7.97722e+02,3.40100e+03,6.73100e+03,-3.33000e+03,6.57010e-13,9.05424e-01,2.19085e-12,9.05424e-01,1.60025e-12,9.05424e-01
7.97972e+02,3.97800e+03,9.24300e+03,-5.26500e+03,1.27869e-12,9.12969e-01,2.15834e-12,9.12969e-01,1.40811e-12,9.12969e-01
7.98221e+02,7.42200e+03,8.09400e+03,-6.72000e+02,1.05656e-12,9.20514e-01,1.64219e-12,9.20514e-01,1.29809e-12,9.20514e-01
7.98471e+02,1.01410e+04,4.72900e+03,5.41200e+03,8.82881e-13,9.28059e-01,5.71309e-13,9.28059e-01,1.20289e-12,9.28059e-01
7.98721e+02,9.51400e+03,3.29800e+03,6.21600e+03,9.82117e-13,9.35605e-01,4.11334e-13,9.35605e-01,8.34453e-13,9.35605e-01
7.98970e+02,6.13500e+03,5.16600e+03,9.69000e+02,9.16027e-13,9.43150e-01,7.88850e-13,9.43150e-01,5.90970e-13,9.43150e-01
7.99220e+02,3.53600e+03,8.48800e+03,-4.95200e+03,7.05696e-13,9.50695e-01,5.16164e-13,9.50695e-01,4.70063e-13,9.50695e-01
7.99469e+02,4.11800e+03,9.58100e+03,-5.46300e+03,4.26724e-13,9.58240e-01,7.35307e-13,9.58240e-01,5.59810e-13,9.58240e-01
7.99719e+02,7.15000e+03,7.67000e+03,-5.20000e+02,4.76585e-13,9.65785e-01,8.76103e-13,9.65785e-01,4.52088e-13,9.65785e-01
7.99969e+02,9.14600e+03,4.29300e+03,4.85300e+03,4.43290e-13,9.73331e-01,6.26831e-13,9.73331e-01,6.41412e-13,9.73331e-01
8.00218e+02,8.84100e+03,3.19600e+03,5.64500e+03,1.03514e-12,9.80876e-01,2.43204e-13,9.80876e-01,9.17245e-13,9.80876e-01
8.00468e+02,5.58300e+03,5.44500e+03,1.38000e+02,1.35199e-12,9.88421e-01,7.27137e-13,9.88421e-01,6.51661e-13,9.88421e-01
8.00717e+02,3.54500e+03,9.13000e+03,-5.58500e+03,1.12400e-12,9.95966e-01,6.78705e-13,9.95966e-01,4.78747e-13,9.95966e-01
8.00967e+02,5.50100e+03,1.01670e+04,-4.66600e+03,8.66039e-13,1.00351e+00,2.96270e-13,1.00351e+00,7.60732e-13,1.00351e+00
8.01216e+02,9.47800e+03,8.01700e+03,1.46100e+03,1.00584e-12,1.01106e+00,3.81162e-13,1.01106e+00,6.53035e-13,1.01106e+00
8.01466e+02,1.17100e+04,4.94100e+03,6.76900e+03,1.05567e-12,1.01860e+00,5.35485e-13,1.01860e+00,6.57743e-13,1.01860e+00
8.01715e+02,9.81700e+03,3.88500e+03,5.93200e+03,7.00657e-13,1.02615e+00,7.39287e-13,1.02615e+00,5.42538e-14,1.02615e+00
8.01965e+02,5.71400e+03,6.66100e+03,-9.47000e+02,2.75152e-13,1.03369e+00,8.23094e-13,1.03369e+00,5.49616e-13,1.03369e+00
8.02215e+02,3.95800e+03,1.07360e+04,-6.77800e+03,3.11974e-13,1.04124e+00,8.75905e-13,1.04124e+00,7.89637e-13,1.04124e+00
8.02464e+02,6.58400e+03,1.16090e+04,-5.02500e+03,6.32468e-13,1.04878e+00,1.10791e-12,1.04878e+00,1.19175e-12,1.04878e+00
8.02713e+02,1.09780e+04,8.60000e+03,2.37800e+03,8.89574e-13,1.05633e+00,6.88432e-13,1.05633e+00,1.22072e-12,1.05633e+00
8.02963e+02,1.29440e+04,4.55400e+03,8.39000e+03,1.97522e-13,1.06387e+00,6.35557e-13,1.06387e+00,8.32847e-13,1.06387e+00
8.03212e+02,1.08870e+04,4.82200e+03,6.06500e+03,4.47632e-13,1.07142e+00,1.79335e-13,1.07142e+00,6.14533e-13,1.07142e+00
8.03462e+02,6.32400e+03,9.41000e+03,-3.08600e+03,4.42275e-13,1.07896e+00,4.51693e-13,1.07896e+00,8.89611e-13,1.07896e+00
8.03711e+02,4.13300e+03,1.32380e+04,-9.10500e+03,1.16049e-13,1.08651e+00,6.57359e-13,1.08651e+00,5.42574e-13,1.08651e+00
8.03961e+02,6.53300e+03,1.22040e+04,-5.67100e+03,8.80645e-13,1.09405e+00,9.29116e-13,1.09405e+00,5.85496e-13,1.09405e+00
8.04210e+02,1.01830e+04,8.02000e+03,2.16300e+03,1.17536e-12,1.10160e+00,1.21413e-12,1.10160e+00,6.41602e-13,1.10160e+00
8.04460e+02,1.14770e+04,4.23300e+03,7.24400e+03,8.61937e-13,1.10914e+00,1.19985e-12,1.10914e+00,4.35005e-13,1.10914e+00
8.04709e+02,9.21600e+03,4.59800e+03,4.61800e+03,5.39243e-13,1.11669e+00,9.12914e-13,1.11669e+00,3.78188e-13,1.11669e+00
8.04958e+02,5.27400e+03,8.26600e+03,-2.99200e+03,2.72286e-13,1.12423e+00,4.91952e-13,1.12423e+00,3.23231e-13,1.12423e+00
8.05208e+02,3.96500e+03,1.19000e+04,-7.93500e+03,2.85250e-13,1.13178e+00,4.23140e-13,1.13178e+00,3.98515e-13,1.13178e+00
8.05457e+02,7.33700e+03,1.12250e+04,-3.88800e+03,4.00606e-13,1.13932e+00,7.35399e-13,1.13932e+00,7.27490e-13,1.13932e+00
8.05707e+02,1.20420e+04,7.97000e+03,4.07200e+03,2.81258e-13,1.14687e+00,9.56674e-13,1.14687e+00,9.74354e-13,1.14687e+00
8.05956e+02,1.38220e+04,4.58100e+03,9.24100e+03,1.79101e-13,1.15442e+00,1.00592e-12,1.15442e+00,8.32512e-13,1.15442e+00
8.06205e+02,9.96400e+03,5.22700e+03,4.73700e+03,5.43179e-13,1.16196e+00,9.54159e-13,1.16196e+00,7.40148e-13,1.16196e+00
8.06455e+02,5.29600e+03,9.79300e+03,-4.49700e+03,7.91760e-13,1.16951e+00,9.17639e-13,1.16951e+00,8.85612e-13,1.16951e+00
8.06704e+02,4.45600e+03,1.30800e+04,-8.62400e+03,7.64741e-13,1.17705e+00,5.00886e-13,1.17705e+00,7.84495e-13,1.17705e+00
8.06953e+02,8.26700e+03,1.26730e+04,-4.40600e+03,5.12672e-13,1.18460e+00,8.92706e-15,1.18460e+00,5.18021e-13,1.18460e+00
8.07203e+02,1.14940e+04,7.46100e+03,4.03300e+03,4.57473e-13,1.19214e+00,3.48145e-13,1.19214e+00,5.90475e-13,1.19214e+00
8.07452e+02,1.23410e+04,4.24700e+03,8.09400e+03,8.54733e-13,1.19969e+00,3.94998e-13,1.19969e+00,5.28456e-13,1.19969e+00
8.07701e+02,9.24200e+03,5.11700e+03,4.12500e+03,1.24885e-12,1.20723e+00,1.83760e-13,1.20723e+00,1.42368e-12,1.20723e+00
8.07951e+02,5.24900e+03,9.57900e+03,-4.33000e+03,9.37643e-13,1.21478e+00,6.36548e-13,1.21478e+00,1.57396e-12,1.21478e+00
8.08200e+02,4.75800e+03,1.23560e+04,-7.59800e+03,4.61864e-13,1.22232e+00,7.21930e-13,1.22232e+00,1.10662e-12,1.22232e+00
8.08449e+02,9.37700e+03,1.15610e+04,-2.18400e+03,7.05420e-13,1.22987e+00,5.49864e-13,1.22987e+00,9.35871e-13,1.22987e+00
8.08698e+02,1.44430e+04,7.99500e+03,6.44800e+03,4.86597e-13,1.23741e+00,3.51997e-13,1.23741e+00,5.78492e-13,1.23741e+00
8.08948e+02,1.49070e+04,4.80200e+03,1.01050e+04,1.23311e-13,1.24496e+00,8.95623e-14,1.24496e+00,2.08955e-13,1.24496e+00
8.09197e+02,1.12860e+04,6.86900e+03,4.41700e+03,6.74332e-13,1.25250e+00,4.40627e-13,1.25250e+00,1.11432e-12,1.25250e+00
8.09446e+02,5.98000e+03,1.17780e+04,-5.79800e+03,7.72064e-13,1.26005e+00,5.16107e-13,1.26005e+00,1.24821e-12,1.26005e+00
8.09695e+02,5.90400e+03,1.48680e+04,-8.96400e+03,1.17884e-13,1.26759e+00,7.14866e-13,1.26759e+00,7.81833e-13,1.26759e+00
8.09945e+02,1.14720e+04,1.43740e+04,-2.90200e+03,8.38760e-13,1.27514e+00,3.58587e-13,1.27514e+00,1.03723e-12,1.27514e+00
8.10194e+02,1.50280e+04,8.55300e+03,6.47500e+03,1.09101e-12,1.28268e+00,6.76363e-13,1.28268e+00,1.33380e-12,1.28268e+00
8.10443e+02,1.50210e+04,5.16800e+03,9.85300e+03,1.09535e-12,1.29023e+00,1.30837e-12,1.29023e+00,1.35813e-12,1.29023e+00
8.10692e+02,1.03270e+04,8.46800e+03,1.85900e+03,4.97546e-13,1.29777e+00,1.39326e-12,1.29777e+00,9.17755e-13,1.29777e+00
8.10941e+02,5.87300e+03,1.39630e+04,-8.09000e+03,6.22001e-13,1.30532e+00,6.20033e-13,1.30532e+00,5.80766e-13,1.30532e+00
8.11191e+02,6.02600e+03,1.49100e+04,-8.88400e+03,6.19192e-13,1.31286e+00,4.23423e-13,1.31286e+00,2.09303e-13,1.31286e+00
8.11440e+02,1.15090e+04,1.30270e+04,-1.51800e+03,2.35663e-12,-1.32041e+00,1.75486e-12,-1.32041e+00,6.01772e-13,-1.32041e+00
8.11689e+02,1.52290e+04,8.46000e+03,6.76900e+03,6.19192e-13,-1.31286e+00,4.23423e-13,-1.31286e+00,2.09303e-13,-1.31286e+00
8.11938e+02,1.48800e+04,5.29900e+03,9.58100e+03,6.22001e-13,-1.30532e+00,6.20033e-13,-1.30532e+00,5.80766e-13,-1.30532e+00
8.12187e+02,1.00220e+04,8.03000e+03,1.99200e+03,4.97546e-13,-1.29777e+00,1.39326e-12,-1.29777e+00,9.17755e-13,-1.29777e+00
8.12436e+02,5.65000e+03,1.21240e+04,-6.47400e+03,1.09535e-12,-1.29023e+00,1.30837e-12,-1.29023e+00,1.35813e-12,-1.29023e+00
8.12685e+02,6.18100e+03,1.38720e+04,-7.69100e+03,1.09101e-12,-1.28268e+00,6.76363e-13,-1.28268e+00,1.33380e-12,-1.28268e+00
8.12935e+02,1.11340e+04,1.22730e+04,-1.13900e+03,8.38760e-13,-1.27514e+00,3.58587e-13,-1.27514e+00,1.03723e-12,-1.27514e+00
8.13184e+02,1.43490e+04,7.67200e+03,6.67700e+03,1.17884e-13,-1.26759e+00,7.14866e-13,-1.26759e+00,7.81833e-13,-1.26759e+00
8.13433e+02,1.36260e+04,4.93100e+03,8.69500e+03,7.72064e-13,-1.26005e+00,5.16107e-13,-1.26005e+00,1.24821e-12,-1.26005e+00
8.13682e+02,1.01170e+04,8.32000e+03,1.79700e+03,6.74332e-13,-1.25250e+00,4.40627e-13,-1.25250e+00,1.11432e-12,-1.25250e+00
8.13931e+02,6.08300e+03,1.40090e+04,-7.92600e+03,1.23311e-13,-1.24496e+00,8.95623e-14,-1.24496e+00,2.08955e-13,-1.24496e+00
8.14180e+02,5.60300e+03,1.48570e+04,-9.25400e+03,4.86597e-13,-1.23741e+00,3.51997e-13,-1.23741e+00,5.78492e-13,-1.23741e+00
8.14429e+02,1.04180e+04,1.28800e+04,-2.46200e+03,7.05420e-13,-1.22987e+00,5.49864e-13,-1.22987e+00,9.35871e-13,-1.22987e+00
8.14678e+02,1.41840e+04,7.62400e+03,6.56000e+03,4.61864e-13,-1.22232e+00,7.21930e-13,-1.22232e+00,1.10662e-12,-1.22232e+00
8.14927e+02,1.29860e+04,4.62800e+03,8.35800e+03,9.37643e-13,-1.21478e+00,6.36548e-13,-1.21478e+00,1.57396e-12,-1.21478e+00
8.15176e+02,9.41300e+03,6.67000e+03,2.74300e+03,1.24885e-12,-1.20723e+00,1.83760e-13,-1.20723e+00,1.42368e-12,-1.20723e+00
8.15425e+02,5.07200e+03,1.08390e+04,-5.76700e+03,8.54733e-13,-1.19969e+00,3.94998e-13,-1.19969e+00,5.28456e-13,-1.19969e+00
8.15674e+02,5.18000e+03,1.37290e+04,-8.54900e+03,4.57473e-13,-1.19214e+00,3.48145e-13,-1.19214e+00,5.90475e-13,-1.19214e+00
8.15923e+02,1.05620e+04,1.31630e+04,-2.60100e+03,5.12672e-13,-1.18460e+00,8.92706e-15,-1.18460e+00,5.18021e-13,-1.18460e+00
8.16172e+02,1.36690e+04,7.70800e+03,5.96100e+03,7.64741e-13,-1.17705e+00,5.00886e-13,-1.17705e+00,7.84495e-13,-1.17705e+00
8.16421e+02,1.26970e+04,4.68500e+03,8.01200e+03,7.91760e-13,-1.16951e+00,9.17639e-13,-1.16951e+00,8.85612e-13,-1.16951e+00
8.16670e+02,8.34000e+03,6.98200e+03,1.35800e+03,5.43179e-13,-1.16196e+00,9.54159e-13,-1.16196e+00,7.40148e-13,-1.16196e+00
8.16919e+02,4.88800e+03,1.17970e+04,-6.90900e+03,1.79101e-13,-1.15442e+00,1.00592e-12,-1.15442e+00,8.32512e-13,-1.15442e+00
8.17168e+02,4.62000e+03,1.30900e+04,-8.47000e+03,2.81258e-13,-1.14687e+00,9.56674e-13,-1.14687e+00,9.74354e-13,-1.14687e+00
8.17417e+02,8.09500e+03,1.07230e+04,-2.62800e+03,4.00606e-13,-1.13932e+00,7.35399e-13,-1.13932e+00,7.27490e-13,-1.13932e+00
8.17666e+02,1.17100e+04,7.06700e+03,4.64300e+03,2.85250e-13,-1.13178e+00,4.23140e-13,-1.13178e+00,3.98515e-13,-1.13178e+00
8.17915e+02,1.18160e+04,4.12700e+03,7.68900e+03,2.72286e-13,-1.12423e+00,4.91952e-13,-1.12423e+00,3.23231e-13,-1.12423e+00
8.18164e+02,8.45800e+03,5.00400e+03,3.45400e+03,5.39243e-13,-1.11669e+00,9.12914e-13,-1.11669e+00,3.78188e-13,-1.11669e+00
8.18413e+02,4.44400e+03,8.21400e+03,-3.77000e+03,8.61937e-13,-1.10914e+00,1.19985e-12,-1.10914e+00,4.35005e-13,-1.10914e+00
8.18662e+02,3.39400e+03,9.78000e+03,-6.38600e+03,1.17536e-12,-1.10160e+00,1.21413e-12,-1.10160e+00,6.41602e-13,-1.10160e+00
8.18911e+02,5.78000e+03,9.78600e+03,-4.00600e+03,8.80645e-13,-1.09405e+00,9.29116e-13,-1.09405e+00,5.85496e-13,-1.09405e+00
8.19160e+02,9.22500e+03,6.44600e+03,2.77900e+03,1.16049e-13,-1.08651e+00,6.57359e-13,-1.08651e+00,5.42574e-13,-1.08651e+00
8.19408e+02,1.04890e+04,3.76200e+03,6.72700e+03,4.42275e-13,-1.07896e+00,4.51693e-13,-1.07896e+00,8.89611e-13,-1.07896e+00
8.19657e+02,9.32900e+03,4.71400e+03,4.61500e+03,4.47632e-13,-1.07142e+00,1.79335e-13,-1.07142e+00,6.14533e-13,-1.07142e+00
8.19906e+02,5.61100e+03,9.19000e+03,-3.57900e+03,1.97522e-13,-1.06387e+00,6.35557e-13,-1.06387e+00,8.32847e-13,-1.06387e+00
8.20155e+02,3.66800e+03,1.23760e+04,-8.70800e+03,8.89574e-13,-1.05633e+00,6.88432e-13,-1.05633e+00,1.22072e-12,-1.05633e+00
8.20404e+02,5.71200e+03,1.11900e+04,-5.47800e+03,6.32468e-13,-1.04878e+00,1.10791e-12,-1.04878e+00,1.19175e-12,-1.04878e+00
8.20653e+02,8.92700e+03,7.28600e+03,1.64100e+03,3.11974e-13,-1.04124e+00,8.75905e-13,-1.04124e+00,7.89637e-13,-1.04124e+00
8.20901e+02,1.10440e+04,4.08500e+03,6.95900e+03,2.75152e-13,-1.03369e+00,8.23094e-13,-1.03369e+00,5.49616e-13,-1.03369e+00
8.21150e+02,9.87300e+03,3.65800e+03,6.21500e+03,7.00657e-13,-1.02615e+00,7.39287e-13,-1.02615e+00,5.42538e-14,-1.02615e+00
8.21399e+02,5.16500e+03,5.62200e+03,-4.57000e+02,1.05567e-12,-1.01860e+00,5.35485e-13,-1.01860e+00,6.57743e-13,-1.01860e+00
8.21648e+02,2.96900e+03,8.43400e+03,-5.46500e+03,1.00584e-12,-1.01106e+00,3.81162e-13,-1.01106e+00,6.53035e-13,-1.01106e+00
8.21897e+02,3.90200e+03,9.57600e+03,-5.67400e+03,8.66039e-13,-1.00351e+00,2.96270e-13,-1.00351e+00,7.60732e-13,-1.00351e+00
8.22145e+02,6.51300e+03,7.14000e+03,-6.27000e+02,1.12400e-12,-9.95966e-01,6.78705e-13,-9.95966e-01,4.78747e-13,-9.95966e-01
8.22394e+02,8.83500e+03,4.15500e+03,4.68000e+03,1.35199e-12,-9.88421e-01,7.27137e-13,-9.88421e-01,6.51661e-13,-9.88421e-01
8.22643e+02,7.95800e+03,2.86800e+03,5.09000e+03,1.03514e-12,-9.80876e-01,2.43204e-13,-9.80876e-01,9.17245e-13,-9.80876e-01
8.22892e+02,5.34200e+03,4.47900e+03,8.63000e+02,4.43290e-13,-9.73331e-01,6.26831e-13,-9.73331e-01,6.41412e-13,-9.73331e-01
8.23140e+02,3.10700e+03,7.74200e+03,-4.63500e+03,4.76585e-13,-9.65785e-01,8.76103e-13,-9.65785e-01,4.52088e-13,-9.65785e-01
8.23389e+02,3.60400e+03,9.24800e+03,-5.64400e+03,4.26724e-13,-9.58240e-01,7.35307e-13,-9.58240e-01,5.59810e-13,-9.58240e-01
8.23638e+02,5.75200e+03,7.62400e+03,-1.87200e+03,7.05696e-13,-9.50695e-01,5.16164e-13,-9.50695e-01,4.70063e-13,-9.50695e-01
8.23887e+02,8.14400e+03,4.29500e+03,3.84900e+03,9.16027e-13,-9.43150e-01,7.88850e-13,-9.43150e-01,5.90970e-13,-9.43150e-01
8.24135e+02,7.48600e+03,2.74200e+03,4.74400e+03,9.82117e-13,-9.35605e-01,4.11334e-13,-9.35605e-01,8.34453e-13,-9.35605e-01
8.24384e+02,5.46300e+03,4.21100e+03,1.25200e+03,8.82881e-13,-9.28059e-01,5.71309e-13,-9.28059e-01,1.20289e-12,-9.28059e-01
8.24633e+02,3.09800e+03,7.29200e+03,-4.19400e+03,1.05656e-12,-9.20514e-01,1.64219e-12,-9.20514e-01,1.29809e-12,-9.20514e-01
8.24881e+02,2.80900e+03,8.36100e+03,-5.55200e+03,1.27869e-12,-9.12969e-01,2.15834e-12,-9.12969e-01,1.40811e-12,-9.12969e-01
8.25130e+02,5.12100e+03,7.96100e+03,-2.84000e+03,6.57010e-13,-9.05424e-01,2.19085e-12,-9.05424e-01,1.60025e-12,-9.05424e-01
8.25379e+02,8.18500e+03,4.88500e+03,3.30000e+03,1.96374e-12,-8.97879e-01,2.31704e-12,-8.97879e-01,2.14731e-12,-8.97879e-01
8.25627e+02,7.63200e+03,2.53400e+03,5.09800e+03,2.60538e-12,-8.90333e-01,2.13590e-12,-8.90333e-01,2.53036e-12,-8.90333e-01
8.25876e+02,5.76900e+03,3.11100e+03,2.65800e+03,2.61644e-12,-8.82788e-01,2.03862e-12,-8.82788e-01,2.43726e-12,-8.82788e-01
8.26125e+02,3.27300e+03,5.26000e+03,-1.98700e+03,2.10261e-12,-8.75243e-01,2.38784e-12,-8.75243e-01,1.69056e-12,-8.75243e-01
8.26373e+02,2.20400e+03,6.32800e+03,-4.12400e+03,1.64696e-12,-8.67698e-01,2.84585e-12,-8.67698e-01,1.58411e-12,-8.67698e-01
8.26622e+02,2.90000e+03,5.88000e+03,-2.98000e+03,1.91029e-12,-8.60153e-01,2.48733e-12,-8.60153e-01,1.49758e-12,-8.60153e-01
8.26870e+02,3.97200e+03,3.60100e+03,3.71000e+02,2.12260e-12,-8.52607e-01,1.85278e-12,-8.52607e-01,5.67572e-13,-8.52607e-01
8.27119e+02,5.06200e+03,2.06000e+03,3.00200e+03,9.41687e-13,-8.45062e-01,1.25600e-12,-8.45062e-01,3.14700e-13,-8.45062e-01
8.27368e+02,4.80100e+03,2.05600e+03,2.74500e+03,4.60265e-13,-8.37517e-01,1.58049e-12,-8.37517e-01,1.47078e-12,-8.37517e-01
8.27616e+02,3.11400e+03,3.05400e+03,6.00000e+01,1.07792e-12,-8.29972e-01,1.66475e-12,-8.29972e-01,1.50973e-12,-8.29972e-01
8.27865e+02,1.89300e+03,4.78700e+03,-2.89400e+03,1.34394e-12,-8.22427e-01,1.07364e-12,-8.22427e-01,8.36194e-13,-8.22427e-01
8.28113e+02,2.33900e+03,5.72800e+03,-3.38900e+03,1.07378e-12,-8.14881e-01,2.40756e-13,-8.14881e-01,8.37612e-13,-8.14881e-01
8.28362e+02,4.08700e+03,4.74400e+03,-6.57000e+02,5.10988e-13,-8.07336e-01,2.60970e-13,-8.07336e-01,7.18772e-13,-8.07336e-01
8.28610e+02,4.81200e+03,2.45700e+03,2.35500e+03,5.58400e-13,-7.99791e-01,7.17837e-13,-7.99791e-01,9.89115e-13,-7.99791e-01
8.28859e+02,4.57900e+03,1.60900e+03,2.97000e+03,1.14099e-12,-7.92246e-01,1.03356e-12,-7.92246e-01,1.65504e-12,-7.92246e-01
8.29108e+02,3.02800e+03,2.24000e+03,7.88000e+02,1.04840e-12,-7.84701e-01,1.22048e-12,-7.84701e-01,1.89533e-12,-7.84701e-01
8.29356e+02,1.68400e+03,3.32200e+03,-1.63800e+03,8.31503e-13,-7.77155e-01,1.45147e-12,-7.77155e-01,1.92861e-12,-7.77155e-01
8.29605e+02,1.46700e+03,3.76000e+03,-2.29300e+03,1.32472e-12,-7.69610e-01,1.47160e-12,-7.69610e-01,1.71861e-12,-7.69610e-01
8.29853e+02,2.48200e+03,3.04400e+03,-5.62000e+02,1.48923e-12,-7.62065e-01,7.48379e-13,-7.62065e-01,1.80138e-12,-7.62065e-01
8.30101e+02,3.41800e+03,1.91400e+03,1.50400e+03,8.42663e-13,-7.54520e-01,6.31682e-13,-7.54520e-01,1.38585e-12,-7.54520e-01
8.30350e+02,3.47600e+03,1.39800e+03,2.07800e+03,7.26836e-13,-7.46975e-01,1.17386e-12,-7.46975e-01,6.27430e-13,-7.46975e-01
8.30598e+02,2.34600e+03,1.62900e+03,7.17000e+02,5.12874e-13,-7.39429e-01,1.25885e-12,-7.39429e-01,7.78473e-13,-7.39429e-01
8.30847e+02,1.48100e+03,2.49800e+03,-1.01700e+03,2.75504e-13,-7.31884e-01,6.06022e-13,-7.31884e-01,7.54887e-13,-7.31884e-01
8.31095e+02,1.13100e+03,3.08400e+03,-1.95300e+03,3.94634e-13,-7.24339e-01,1.32713e-12,-7.24339e-01,1.15349e-12,-7.24339e-01
8.31344e+02,1.83200e+03,2.79500e+03,-9.63000e+02,4.48170e-13,-7.16794e-01,1.08687e-12,-7.16794e-01,1.19558e-12,-7.16794e-01
8.31592e+02,2.44100e+03,1.80900e+03,6.32000e+02,1.33645e-12,-7.09249e-01,1.24779e-13,-7.09249e-01,1.23445e-12,-7.09249e-01
8.31841e+02,2.57200e+03,1.09300e+03,1.47900e+03,1.73131e-12,-7.01703e-01,6.08756e-13,-7.01703e-01,1.85612e-12,-7.01703e-01
8.32089e+02,2.19600e+03,1.12600e+03,1.07000e+03,5.11996e-13,-6.94158e-01,1.06050e-12,-6.94158e-01,1.56804e-12,-6.94158e-01
8.32337e+02,1.50400e+03,1.89400e+03,-3.90000e+02,1.38040e-12,-6.86613e-01,1.24188e-12,-6.86613e-01,7.31690e-13,-6.86613e-01
8.32586e+02,9.83000e+02,2.34500e+03,-1.36200e+03,1.96536e-12,-6.79068e-01,1.15051e-12,-6.79068e-01,9.09594e-13,-6.79068e-01
8.32834e+02,1.27400e+03,2.57600e+03,-1.30200e+03,1.75454e-12,-6.71523e-01,9.62294e-13,-6.71523e-01,9.36793e-13,-6.71523e-01
8.33083e+02,1.88500e+03,1.84200e+03,4.30000e+01,1.15717e-12,-6.63977e-01,1.35133e-12,-6.63977e-01,5.34430e-13,-6.63977e-01
8.33331e+02,2.10300e+03,1.09700e+03,1.00600e+03,1.06912e-12,-6.56432e-01,2.64751e-12,-6.56432e-01,1.68769e-12,-6.56432e-01
8.33579e+02,1.79800e+03,8.96000e+02,9.02000e+02,1.30805e-12,-6.48887e-01,4.03665e-12,-6.48887e-01,2.84555e-12,-6.48887e-01
8.33828e+02,1.20800e+03,1.27300e+03,-6.50000e+01,1.86876e-12,-6.41342e-01,4.32326e-12,-6.41342e-01,2.46997e-12,-6.41342e-01
8.34076e+02,7.96000e+02,1.58000e+03,-7.84000e+02,2.25501e-12,-6.33797e-01,4.58799e-12,-6.33797e-01,2.50726e-12,-6.33797e-01
8.34324e+02,8.94000e+02,1.89600e+03,-1.00200e+03,1.35432e-12,-6.26251e-01,3.54125e-12,-6.26251e-01,2.49907e-12,-6.26251e-01
8.34573e+02,1.20600e+03,1.56400e+03,-3.58000e+02,1.02441e-12,-6.18706e-01,1.36053e-12,-6.18706e-01,2.04681e-12,-6.18706e-01
8.34821e+02,1.54600e+03,1.04900e+03,4.97000e+02,2.03702e-12,-6.11161e-01,7.78489e-13,-6.11161e-01,1.64171e-12,-6.11161e-01
8.35069e+02,1.54400e+03,7.68000e+02,7.76000e+02,1.87668e-12,-6.03616e-01,1.30863e-12,-6.03616e-01,8.80653e-13,-6.03616e-01
8.35318e+02,1.31100e+03,9.60000e+02,3.51000e+02,7.35249e-13,-5.96071e-01,1.99739e-12,-5.96071e-01,1.52384e-12,-5.96071e-01
8.35566e+02,8.21000e+02,1.20000e+03,-3.79000e+02,1.28584e-12,-5.88525e-01,2.29598e-12,-5.88525e-01,3.41419e-12,-5.88525e-01
8.35814e+02,7.25000e+02,1.38900e+03,-6.64000e+02,1.54232e-12,-5.80980e-01,1.40143e-12,-5.80980e-01,2.74387e-12,-5.80980e-01
8.36062e+02,8.11000e+02,1.20700e+03,-3.96000e+02,2.09539e-12,-5.73435e-01,1.34153e-12,-5.73435e-01,3.43181e-12,-5.73435e-01
8.36311e+02,1.07100e+03,9.28000e+02,1.43000e+02,2.73980e-12,-5.65890e-01,2.61909e-12,-5.65890e-01,5.35179e-12,-5.65890e-01
8.36559e+02,1.24200e+03,7.11000e+02,5.31000e+02,2.17882e-12,-5.58345e-01,2.77463e-12,-5.58345e-01,4.95313e-12,-5.58345e-01
8.36807e+02,1.15400e+03,7.00000e+02,4.54000e+02,1.61069e-12,-5.50799e-01,1.48060e-12,-5.50799e-01,3.08660e-12,-5.50799e-01
8.37055e+02,8.22000e+02,8.39000e+02,-1.70000e+01,8.67050e-13,-5.43254e-01,1.50254e-12,-5.43254e-01,1.94076e-12,-5.43254e-01
8.37304e+02,6.74000e+02,1.04900e+03,-3.75000e+02,1.26981e-12,-5.35709e-01,2.27722e-12,-5.35709e-01,1.70310e-12,-5.35709e-01
8.37552e+02,6.85000e+02,1.00600e+03,-3.21000e+02,2.19168e-12,-5.28164e-01,1.95017e-12,-5.28164e-01,2.17156e-12,-5.28164e-01
8.37800e+02,8.54000e+02,9.04000e+02,-5.00000e+01,1.90790e-12,-5.20619e-01,1.96398e-12,-5.20619e-01,2.85023e-12,-5.20619e-01
8.38048e+02,8.91000e+02,6.84000e+02,2.07000e+02,9.68330e-13,-5.13073e-01,7.60562e-13,-5.13073e-01,1.35892e-12,-5.13073e-01
8.38296e+02,8.71000e+02,6.68000e+02,2.03000e+02,3.17650e-12,-5.05528e-01,2.06276e-12,-5.05528e-01,4.07510e-12,-5.05528e-01
8.38545e+02,7.31000e+02,6.88000e+02,4.30000e+01,1.45156e-12,-4.97983e-01,1.68938e-12,-4.97983e-01,3.12872e-12,-4.97983e-01
8.38793e+02,6.77000e+02,8.16000e+02,-1.39000e+02,8.14686e-12,-4.90438e-01,6.34431e-12,-4.90438e-01,1.26085e-11,-4.90438e-01
8.39041e+02,6.60000e+02,8.07000e+02,-1.47000e+02,8.05229e-12,-4.82893e-01,8.69335e-12,-4.82893e-01,1.43017e-11,-4.82893e-01
8.39289e+02,6.92000e+02,7.81000e+02,-8.90000e+01,7.92701e-12,-4.75347e-01,1.01258e-11,-4.75347e-01,1.69079e-11,-4.75347e-01
8.39537e+02,7.18000e+02,6.86000e+02,3.20000e+01,2.25651e-11,-4.67802e-01,2.28478e-11,-4.67802e-01,4.26537e-11,-4.67802e-01
8.39785e+02,7.76000e+02,6.48000e+02,1.28000e+02,3.79113e-11,-4.60257e-01,3.68310e-11,-4.60257e-01,7.00660e-11,-4.60257e-01
8.40033e+02,6.93000e+02,6.46000e+02,4.70000e+01,4.99842e-11,-4.52712e-01,4.83250e-11,-4.52712e-01,9.26686e-11,-4.52712e-01
8.40281e+02,6.88000e+02,6.94000e+02,-6.00000e+00,5.98964e-11,-4.45167e-01,5.84245e-11,-4.45167e-01,1.12238e-10,-4.45167e-01
8.40530e+02,6.16000e+02,6.83000e+02,-6.70000e+01,6.23431e-11,-4.37621e-01,6.21581e-11,-4.37621e-01,1.18752e-10,-4.37621e-01
8.40778e+02,6.47000e+02,7.13000e+02,-6.60000e+01,5.24557e-11,-4.30076e-01,5.21065e-11,-4.30076e-01,9.97965e-11,-4.30076e-01
8.41026e+02,6.53000e+02,6.60000e+02,-7.00000e+00,3.64409e-11,-4.22531e-01,3.38994e-11,-4.22531e-01,6.75762e-11,-4.22531e-01
8.41274e+02,6.94000e+02,6.57000e+02,3.70000e+01,2.25514e-11,-4.14986e-01,2.17810e-11,-4.14986e-01,4.34703e-11,-4.14986e-01
8.41522e+02,6.89000e+02,6.41000e+02,4.80000e+01,1.56384e-11,-4.07441e-01,1.74634e-11,-4.07441e-01,3.21204e-11,-4.07441e-01
8.41770e+02,6.55000e+02,6.34000e+02,2.10000e+01,8.68988e-12,-3.99895e-01,8.18195e-12,-3.99895e-01,1.64359e-11,-3.99895e-01
8.42018e+02,6.47000e+02,6.52000e+02,-5.00000e+00,2.13075e-12,-3.92350e-01,3.53801e-12,-3.92350e-01,5.45258e-12,-3.92350e-01
8.42266e+02,6.38000e+02,6.77000e+02,-3.90000e+01,1.21459e-12,-3.84805e-01,1.95782e-12,-3.84805e-01,1.93671e-12,-3.84805e-01
8.42514e+02,6.49000e+02,6.58000e+02,-9.00000e+00,2.27478e-12,-3.77260e-01,1.23954e-12,-3.77260e-01,2.07458e-12,-3.77260e-01
8.42762e+02,6.82000e+02,6.86000e+02,-4.00000e+00,2.59908e-12,-3.69715e-01,3.66638e-12,-3.69715e-01,2.37592e-12,-3.69715e-01
8.43010e+02,6.55000e+02,6.24000e+02,3.10000e+01,2.04694e-12,-3.62169e-01,3.23813e-12,-3.62169e-01,1.47952e-12,-3.62169e-01
8.43258e+02,6.56000e+02,6.36000e+02,2.00000e+01,1.97762e-12,-3.54624e-01,1.18959e-12,-3.54624e-01,1.27044e-12,-3.54624e-01
8.43506e+02,6.30000e+02,6.46000e+02,-1.60000e+01,3.16359e-12,-3.47079e-01,9.90100e-13,-3.47079e-01,2.57686e-12,-3.47079e-01
8.43754e+02,6.18000e+02,6.56000e+02,-3.80000e+01,3.09463e-12,-3.39534e-01,9.42655e-13,-3.39534e-01,2.91779e-12,-3.39534e-01
8.44002e+02,6.23000e+02,6.36000e+02,-1.30000e+01,1.41156e-12,-3.31989e-01,1.62818e-12,-3.31989e-01,4.88880e-13,-3.31989e-01
8.44250e+02,6.34000e+02,6.42000e+02,-8.00000e+00,1.06596e-12,-3.24444e-01,3.93010e-12,-3.24444e-01,4.87876e-12,-3.24444e-01
8.44498e+02,6.37000e+02,6.32000e+02,5.00000e+00,2.90778e-12,-3.16898e-01,4.05138e-12,-3.16898e-01,5.66742e-12,-3.16898e-01
8.44746e+02,6.43000e+02,6.32000e+02,1.10000e+01,2.81016e-12,-3.09353e-01,3.20306e-12,-3.09353e-01,8.92492e-13,-3.09353e-01
8.44994e+02,6.44000e+02,6.32000e+02,1.20000e+01,2.55787e-12,-3.01808e-01,2.50874e-12,-3.01808e-01,3.67032e-12,-3.01808e-01
8.45242e+02,6.56000e+02,6.59000e+02,-3.00000e+00,2.80899e-12,-2.94263e-01,1.05885e-12,-2.94263e-01,3.66600e-12,-2.94263e-01
8.45490e+02,6.14000e+02,6.09000e+02,5.00000e+00,1.61338e-12,-2.86718e-01,9.68043e-13,-2.86718e-01,2.32708e-12,-2.86718e-01
8.45738e+02,6.34000e+02,6.33000e+02,1.00000e+00,1.36298e-12,-2.79172e-01,1.77681e-12,-2.79172e-01,9.18818e-13,-2.79172e-01
8.45985e+02,6.30000e+02,6.29000e+02,1.00000e+00,4.88327e-12,-2.71627e-01,1.92641e-12,-2.71627e-01,3.47366e-12,-2.71627e-01
8.46233e+02,6.43000e+02,6.31000e+02,1.20000e+01,5.82461e-12,-2.64082e-01,1.36313e-12,-2.64082e-01,4.75464e-12,-2.64082e-01
8.46481e+02,6.36000e+02,6.24000e+02,1.20000e+01,3.10082e-12,-2.56537e-01,2.64779e-12,-2.56537e-01,4.87938e-12,-2.56537e-01
8.46729e+02,6.33000e+02,6.45000e+02,-1.20000e+01,2.40034e-12,-2.48992e-01,6.07657e-12,-2.48992e-01,3.69837e-12,-2.48992e-01
8.46977e+02,6.31000e+02,6.30000e+02,1.00000e+00,4.70894e-12,-2.41446e-01,5.83255e-12,-2.41446e-01,1.66026e-12,-2.41446e-01
8.47225e+02,6.27000e+02,6.29000e+02,-2.00000e+00,4.80403e-12,-2.33901e-01,4.14860e-12,-2.33901e-01,2.66482e-12,-2.33901e-01
8.47473e+02,6.18000e+02,6.19000e+02,-1.00000e+00,2.98702e-12,-2.26356e-01,3.24717e-12,-2.26356e-01,3.54034e-12,-2.26356e-01
8.47720e+02,6.54000e+02,6.58000e+02,-4.00000e+00,7.30033e-13,-2.18811e-01,3.06209e-12,-2.18811e-01,3.60342e-12,-2.18811e-01
8.47968e+02,6.28000e+02,6.12000e+02,1.60000e+01,5.48528e-13,-2.11266e-01,4.69796e-12,-2.11266e-01,4.89473e-12,-2.11266e-01
8.48216e+02,6.32000e+02,6.42000e+02,-1.00000e+01,2.58631e-12,-2.03720e-01,4.70423e-12,-2.03720e-01,6.92549e-12,-2.03720e-01
8.48464e+02,6.29000e+02,6.30000e+02,-1.00000e+00,3.12599e-12,-1.96175e-01,5.27837e-12,-1.96175e-01,7.61202e-12,-1.96175e-01
8.48712e+02,6.30000e+02,6.31000e+02,-1.00000e+00,2.27505e-12,-1.88630e-01,6.46815e-12,-1.88630e-01,6.13315e-12,-1.88630e-01
8.48960e+02,6.29000e+02,6.31000e+02,-2.00000e+00,4.57152e-12,-1.81085e-01,6.19855e-12,-1.81085e-01,3.00051e-12,-1.81085e-01
8.49207e+02,6.27000e+02,6.33000e+02,-6.00000e+00,7.32961e-12,-1.73540e-01,5.07235e-12,-1.73540e-01,2.31651e-12,-1.73540e-01
8.49455e+02,6.29000e+02,6.29000e+02,0.00000e+00,6.15395e-12,-1.65994e-01,2.12767e-12,-1.65994e-01,4.03179e-12,-1.65994e-01
8.49703e+02,6.33000e+02,6.36000e+02,-3.00000e+00,1.30827e-12,-1.58449e-01,4.23267e-12,-1.58449e-01,3.44515e-12,-1.58449e-01
8.49951e+02,6.18000e+02,6.40000e+02,-2.20000e+01,6.35655e-12,-1.50904e-01,7.34507e-12,-1.50904e-01,1.00820e-12,-1.50904e-01
8.50198e+02,6.63000e+02,6.50000e+02,1.30000e+01,5.60514e-12,-1.43359e-01,4.48735e-12,-1.43359e-01,2.08018e-12,-1.43359e-01
8.50446e+02,6.14000e+02,6.05000e+02,9.00000e+00,1.20331e-12,-1.35814e-01,3.36140e-12,-1.35814e-01,2.79533e-12,-1.35814e-01
8.50694e+02,6.32000e+02,6.31000e+02,1.00000e+00,3.46408e-12,-1.28268e-01,4.29575e-12,-1.28268e-01,1.88809e-12,-1.28268e-01
8.50941e+02,6.43000e+02,6.34000e+02,9.00000e+00,5.21497e-12,-1.20723e-01,4.74012e-12,-1.20723e-01,1.44014e-12,-1.20723e-01
8.51189e+02,6.38000e+02,6.41000e+02,-3.00000e+00,4.00728e-12,-1.13178e-01,4.55651e-12,-1.13178e-01,7.72542e-13,-1.13178e-01
8.51437e+02,6.24000e+02,6.28000e+02,-4.00000e+00,2.80815e-12,-1.05633e-01,4.27088e-12,-1.05633e-01,1.53335e-12,-1.05633e-01
8.51685e+02,6.41000e+02,6.29000e+02,1.20000e+01,1.43920e-12,-9.80876e-02,3.99814e-12,-9.80876e-02,2.81206e-12,-9.80876e-02
8.51932e+02,6.40000e+02,6.36000e+02,4.00000e+00,1.90112e-12,-9.05424e-02,3.71700e-12,-9.05424e-02,3.34425e-12,-9.05424e-02
8.52180e+02,6.39000e+02,6.27000e+02,1.20000e+01,2.52964e-12,-8.29972e-02,1.71956e-12,-8.29972e-02,1.90168e-12,-8.29972e-02
8.52428e+02,6.21000e+02,6.28000e+02,-7.00000e+00,3.60375e-12,-7.54520e-02,8.53143e-13,-7.54520e-02,2.95011e-12,-7.54520e-02
8.52675e+02,6.63000e+02,6.52000e+02,1.10000e+01,5.09518e-12,-6.79068e-02,3.47521e-12,-6.79068e-02,3.01749e-12,-6.79068e-02
8.52923e+02,6.21000e+02,6.15000e+02,6.00000e+00,8.25167e-12,-6.03616e-02,8.75241e-12,-6.03616e-02,2.04170e-12,-6.03616e-02
8.53170e+02,6.36000e+02,6.38000e+02,-2.00000e+00,9.36525e-12,-5.28164e-02,1.04122e-11,-5.28164e-02,1.84522e-12,-5.28164e-02
8.53418e+02,6.21000e+02,6.31000e+02,-1.00000e+01,6.70271e-12,-4.52712e-02,6.09962e-12,-4.52712e-02,2.45698e-12,-4.52712e-02
8.53666e+02,6.28000e+02,6.26000e+02,2.00000e+00,5.19622e-12,-3.77260e-02,2.07144e-12,-3.77260e-02,3.12598e-12,-3.77260e-02
8.53913e+02,6.33000e+02,6.30000e+02,3.00000e+00,4.72178e-12,-3.01808e-02,2.69645e-12,-3.01808e-02,2.04692e-12,-3.01808e-02
8.54161e+02,6.26000e+02,6.23000e+02,3.00000e+00,1.69728e-11,-2.26356e-02,1.82065e-11,-2.26356e-02,2.35397e-12,-2.26356e-02
8.54409e+02,6.28000e+02,6.25000e+02,3.00000e+00,8.22233e-11,-1.50904e-02,8.21563e-11,-1.50904e-02,6.17414e-12,-1.50904e-02
8.54656e+02,6.24000e+02,6.28000e+02,-4.00000e+00,2.33359e-10,-7.54520e-03,2.31386e-10,-7.54520e-03,5.95580e-12,-7.54520e-03
