7.67698e+02,6.18000e+02,6.25000e+02,-7.00000e+00,3.96827e-10,0.00000e+00,3.95322e-10,0.00000e+00,1.50472e-12,0.00000e+00
7.67949e+02,6.63000e+02,6.57000e+02,6.00000e+00,2.38701e-10,7.54520e-03,2.36381e-10,7.54520e-03,4.90005e-12,7.54520e-03
7.68199e+02,6.16000e+02,6.25000e+02,-9.00000e+00,8.59336e-11,1.50904e-02,8.43437e-11,1.50904e-02,5.02845e-12,1.50904e-02
7.68450e+02,6.37000e+02,6.36000e+02,1.00000e+00,1.95566e-11,2.26356e-02,1.98073e-11,2.26356e-02,1.14756e-12,2.26356e-02
7.68701e+02,6.26000e+02,6.32000e+02,-6.00000e+00,4.23753e-12,3.01808e-02,2.92035e-12,3.01808e-02,1.37841e-12,3.01808e-02
7.68951e+02,6.30000e+02,6.49000e+02,-1.90000e+01,3.60626e-12,3.77260e-02,2.21568e-12,3.77260e-02,1.59537e-12,3.77260e-02
7.69202e+02,6.25000e+02,6.34000e+02,-9.00000e+00,5.86837e-12,4.52712e-02,4.82267e-12,4.52712e-02,1.93965e-12,4.52712e-02
7.69453e+02,6.38000e+02,6.36000e+02,2.00000e+00,8.02050e-12,5.28164e-02,7.02172e-12,5.28164e-02,1.28526e-12,5.28164e-02
7.69703e+02,6.40000e+02,6.29000e+02,1.10000e+01,7.39348e-12,6.03616e-02,7.43519e-12,6.03616e-02,1.18257e-12,6.03616e-02
7.69954e+02,6.47000e+02,6.44000e+02,3.00000e+00,5.55570e-12,6.79068e-02,6.67225e-12,6.79068e-02,1.61377e-12,6.79068e-02
7.70205e+02,6.30000e+02,6.49000e+02,-1.90000e+01,3.27784e-12,7.54520e-02,2.42104e-12,7.54520e-02,1.15802e-12,7.54520e-02
7.70455e+02,6.67000e+02,6.61000e+02,6.00000e+00,3.88054e-12,8.29972e-02,7.58136e-13,8.29972e-02,4.60423e-12,8.29972e-02
7.70706e+02,6.32000e+02,6.19000e+02,1.30000e+01,5.37852e-12,9.05424e-02,2.95866e-12,9.05424e-02,6.08168e-12,9.05424e-02
7.70957e+02,6.51000e+02,6.53000e+02,-2.00000e+00,5.30490e-12,9.80876e-02,4.67557e-12,9.80876e-02,4.46095e-12,9.80876e-02
7.71207e+02,6.43000e+02,6.56000e+02,-1.30000e+01,2.03286e-12,1.05633e-01,4.35135e-12,1.05633e-01,2.35015e-12,1.05633e-01
7.71458e+02,6.42000e+02,6.54000e+02,-1.20000e+01,3.49169e-12,1.13178e-01,1.18878e-12,1.13178e-01,3.18401e-12,1.13178e-01
7.71708e+02,6.54000e+02,6.38000e+02,1.60000e+01,2.92152e-12,1.20723e-01,1.94655e-13,1.20723e-01,2.93275e-12,1.20723e-01
7.71959e+02,6.70000e+02,6.57000e+02,1.30000e+01,3.76009e-12,1.28268e-01,2.29305e-12,1.28268e-01,2.68343e-12,1.28268e-01
7.72210e+02,6.36000e+02,6.80000e+02,-4.40000e+01,5.33673e-12,1.35814e-01,3.00476e-12,1.35814e-01,2.48585e-12,1.35814e-01
7.72460e+02,6.41000e+02,6.71000e+02,-3.00000e+01,5.18298e-12,1.43359e-01,1.56232e-12,1.43359e-01,3.89781e-12,1.43359e-01
7.72711e+02,6.60000e+02,6.29000e+02,3.10000e+01,5.64522e-12,1.50904e-01,2.41330e-12,1.50904e-01,4.88570e-12,1.50904e-01
7.72961e+02,7.16000e+02,6.86000e+02,3.00000e+01,2.59044e-12,1.58449e-01,2.95424e-12,1.58449e-01,3.39851e-12,1.58449e-01
7.73212e+02,6.34000e+02,6.66000e+02,-3.20000e+01,4.99585e-12,1.65994e-01,4.96823e-12,1.65994e-01,2.35868e-12,1.65994e-01
7.73462e+02,6.48000e+02,6.83000e+02,-3.50000e+01,6.77076e-12,1.73540e-01,5.17751e-12,1.73540e-01,4.41051e-12,1.73540e-01
7.73713e+02,6.37000e+02,6.66000e+02,-2.90000e+01,3.74696e-12,1.81085e-01,3.78215e-12,1.81085e-01,3.41905e-12,1.81085e-01
7.73963e+02,6.82000e+02,6.41000e+02,4.10000e+01,8.43941e-13,1.88630e-01,2.44088e-12,1.88630e-01,1.66011e-12,1.88630e-01
7.74214e+02,6.78000e+02,6.73000e+02,5.00000e+00,9.61320e-13,1.96175e-01,1.77438e-12,1.96175e-01,1.93247e-12,1.96175e-01
7.74465e+02,6.78000e+02,7.40000e+02,-6.20000e+01,2.42874e-12,2.03720e-01,2.07416e-12,2.03720e-01,1.09675e-12,2.03720e-01
7.74715e+02,6.41000e+02,6.96000e+02,-5.50000e+01,3.61733e-12,2.11266e-01,3.66433e-12,2.11266e-01,8.26736e-13,2.11266e-01
7.74965e+02,7.09000e+02,6.65000e+02,4.40000e+01,1.59246e-12,2.18811e-01,3.29306e-12,2.18811e-01,3.22189e-12,2.18811e-01
7.75216e+02,7.13000e+02,6.66000e+02,4.70000e+01,2.69817e-12,2.26356e-01,2.15885e-12,2.26356e-01,4.81514e-12,2.26356e-01
7.75466e+02,7.42000e+02,7.79000e+02,-3.70000e+01,3.62042e-12,2.33901e-01,9.34355e-13,2.33901e-01,4.37323e-12,2.33901e-01
7.75717e+02,6.35000e+02,7.20000e+02,-8.50000e+01,4.39921e-12,2.41446e-01,1.97068e-12,2.41446e-01,3.68282e-12,2.41446e-01
7.75967e+02,6.95000e+02,7.04000e+02,-9.00000e+00,4.06518e-12,2.48992e-01,2.44936e-12,2.48992e-01,3.21886e-12,2.48992e-01
7.76218e+02,7.74000e+02,6.54000e+02,1.20000e+02,1.01410e-12,2.56537e-01,2.14720e-12,2.56537e-01,1.93523e-12,2.56537e-01
7.76468e+02,7.76000e+02,7.66000e+02,1.00000e+01,1.48421e-12,2.64082e-01,1.29392e-12,2.64082e-01,1.10818e-12,2.64082e-01
7.76719e+02,6.61000e+02,8.05000e+02,-1.44000e+02,1.75174e-12,2.71627e-01,1.36398e-12,2.71627e-01,3.94380e-13,2.71627e-01
7.76969e+02,7.00000e+02,7.41000e+02,-4.10000e+01,2.89196e-12,2.79172e-01,2.05819e-12,2.79172e-01,1.47430e-12,2.79172e-01
7.77219e+02,7.73000e+02,6.88000e+02,8.50000e+01,4.11475e-12,2.86718e-01,2.12579e-12,2.86718e-01,2.82544e-12,2.86718e-01
7.77470e+02,8.64000e+02,7.79000e+02,8.50000e+01,3.51065e-12,2.94263e-01,9.57012e-13,2.94263e-01,3.02277e-12,2.94263e-01
7.77720e+02,7.25000e+02,8.52000e+02,-1.27000e+02,1.42771e-12,3.01808e-01,1.73379e-12,3.01808e-01,2.32289e-12,3.01808e-01
7.77971e+02,7.36000e+02,9.26000e+02,-1.90000e+02,3.39450e-12,3.09353e-01,4.41698e-12,3.09353e-01,1.05206e-12,3.09353e-01
7.78221e+02,7.98000e+02,7.30000e+02,6.80000e+01,4.58425e-12,3.16898e-01,4.95536e-12,3.16898e-01,2.08573e-12,3.16898e-01
7.78471e+02,1.02800e+03,7.51000e+02,2.77000e+02,3.59048e-12,3.24444e-01,4.16376e-12,3.24444e-01,2.05055e-12,3.24444e-01
7.78722e+02,8.57000e+02,8.58000e+02,-1.00000e+00,1.48872e-12,3.31989e-01,2.71672e-12,3.31989e-01,1.34405e-12,3.31989e-01
7.78972e+02,7.69000e+02,1.05400e+03,-2.85000e+02,4.11232e-13,3.39534e-01,1.46111e-12,3.39534e-01,1.39163e-12,3.39534e-01
7.79222e+02,8.07000e+02,9.08000e+02,-1.01000e+02,1.79649e-12,3.47079e-01,1.51707e-12,3.47079e-01,2.80211e-13,3.47079e-01
7.79473e+02,1.14100e+03,8.00000e+02,3.41000e+02,3.04549e-12,3.54624e-01,3.13948e-12,3.54624e-01,1.85723e-12,3.54624e-01
7.79723e+02,1.10400e+03,9.10000e+02,1.94000e+02,3.92547e-12,3.62169e-01,3.66478e-12,3.62169e-01,2.32799e-12,3.62169e-01
7.79973e+02,8.87000e+02,1.23800e+03,-3.51000e+02,2.51026e-12,3.69715e-01,2.14072e-12,3.69715e-01,1.05239e-12,3.69715e-01
7.80224e+02,7.83000e+02,1.11400e+03,-3.31000e+02,1.33045e-12,3.77260e-01,2.14836e-13,3.77260e-01,1.14327e-12,3.77260e-01
7.80474e+02,1.14000e+03,9.21000e+02,2.19000e+02,3.27768e-12,3.84805e-01,1.82461e-12,3.84805e-01,2.69674e-12,3.84805e-01
7.80724e+02,1.20400e+03,8.41000e+02,3.63000e+02,3.55436e-12,3.92350e-01,1.43117e-12,3.92350e-01,3.28304e-12,3.92350e-01
7.80974e+02,1.05600e+03,1.24500e+03,-1.89000e+02,2.18828e-12,3.99895e-01,5.70107e-13,3.99895e-01,2.52380e-12,3.99895e-01
7.81225e+02,8.34000e+02,1.42400e+03,-5.90000e+02,6.50018e-13,4.07441e-01,2.87264e-13,4.07441e-01,4.06365e-13,4.07441e-01
7.81475e+02,1.07600e+03,1.20900e+03,-1.33000e+02,2.65452e-12,4.14986e-01,1.53898e-12,4.14986e-01,2.84422e-12,4.14986e-01
7.81725e+02,1.44400e+03,9.32000e+02,5.12000e+02,2.19098e-12,4.22531e-01,1.98859e-12,4.22531e-01,2.26815e-12,4.22531e-01
7.81975e+02,1.50200e+03,1.29800e+03,2.04000e+02,1.20061e-12,4.30076e-01,1.26204e-12,4.30076e-01,8.28523e-14,4.30076e-01
7.82226e+02,1.04100e+03,1.65200e+03,-6.11000e+02,5.13835e-13,4.37621e-01,7.44455e-13,4.37621e-01,9.73459e-13,4.37621e-01
7.82476e+02,1.01800e+03,1.47300e+03,-4.55000e+02,1.21160e-12,4.45167e-01,2.27031e-12,4.45167e-01,1.94306e-12,4.45167e-01
7.82726e+02,1.45200e+03,9.94000e+02,4.58000e+02,2.67176e-12,4.52712e-01,2.03581e-12,4.52712e-01,2.30935e-12,4.52712e-01
7.82976e+02,1.69800e+03,1.20900e+03,4.89000e+02,3.53497e-12,4.60257e-01,1.36429e-12,4.60257e-01,2.31346e-12,4.60257e-01
7.83226e+02,1.23800e+03,1.56100e+03,-3.23000e+02,4.35324e-12,4.67802e-01,2.22402e-12,4.67802e-01,2.71978e-12,4.67802e-01
7.83477e+02,1.04800e+03,1.80900e+03,-7.61000e+02,5.04791e-12,4.75347e-01,3.71139e-12,4.75347e-01,4.39567e-12,4.75347e-01
7.83727e+02,1.39700e+03,1.29700e+03,1.00000e+02,3.71995e-12,4.82893e-01,2.87994e-12,4.82893e-01,4.07492e-12,4.82893e-01
7.83977e+02,1.94000e+03,1.22300e+03,7.17000e+02,9.43855e-13,4.90438e-01,1.20673e-12,4.90438e-01,1.98313e-12,4.90438e-01
7.84227e+02,1.78800e+03,1.69500e+03,9.30000e+01,1.36478e-12,4.97983e-01,1.50327e-12,4.97983e-01,1.70504e-12,4.97983e-01
7.84477e+02,1.39800e+03,2.41200e+03,-1.01400e+03,9.66021e-13,5.05528e-01,2.61527e-12,5.05528e-01,2.66761e-12,5.05528e-01
7.84727e+02,1.36400e+03,1.95100e+03,-5.87000e+02,2.65676e-12,5.13073e-01,3.78860e-12,5.13073e-01,5.68198e-12,5.13073e-01
7.84978e+02,2.16700e+03,1.46600e+03,7.01000e+02,5.98058e-12,5.20619e-01,4.48905e-12,5.20619e-01,9.18048e-12,5.20619e-01
7.85228e+02,2.66300e+03,1.63000e+03,1.03300e+03,1.29937e-11,5.28164e-01,9.07460e-12,5.28164e-01,2.18401e-11,5.28164e-01
7.85478e+02,2.09800e+03,2.56500e+03,-4.67000e+02,2.32539e-11,5.35709e-01,2.34665e-11,5.35709e-01,4.63257e-11,5.35709e-01
7.85728e+02,1.46600e+03,2.67600e+03,-1.21000e+03,3.58602e-11,5.43254e-01,3.84101e-11,5.43254e-01,7.26532e-11,5.43254e-01
7.85978e+02,2.01800e+03,1.85200e+03,1.66000e+02,4.54952e-11,5.50799e-01,4.66173e-11,5.50799e-01,8.92523e-11,5.50799e-01
7.86228e+02,2.64100e+03,1.44600e+03,1.19500e+03,4.89320e-11,5.58345e-01,4.82765e-11,5.58345e-01,9.40356e-11,5.58345e-01
7.86478e+02,2.43800e+03,2.20600e+03,2.32000e+02,4.42478e-11,5.65890e-01,4.17847e-11,5.65890e-01,8.35602e-11,5.65890e-01
7.86728e+02,1.63700e+03,2.75800e+03,-1.12100e+03,3.20513e-11,5.73435e-01,2.70381e-11,5.73435e-01,5.75106e-11,5.73435e-01
7.86978e+02,1.57200e+03,2.34500e+03,-7.73000e+02,1.96719e-11,5.80980e-01,1.38691e-11,5.80980e-01,3.15708e-11,5.80980e-01
7.87228e+02,2.33900e+03,1.57900e+03,7.60000e+02,1.11273e-11,5.88525e-01,1.02489e-11,5.88525e-01,1.84006e-11,5.88525e-01
7.87478e+02,2.70800e+03,1.73700e+03,9.71000e+02,3.53539e-12,5.96071e-01,6.51190e-12,5.96071e-01,8.75154e-12,5.96071e-01
7.87728e+02,2.05700e+03,2.52500e+03,-4.68000e+02,1.01891e-12,6.03616e-01,3.90360e-12,6.03616e-01,4.76906e-12,6.03616e-01
7.87978e+02,1.69700e+03,3.02200e+03,-1.32500e+03,1.84794e-12,6.11161e-01,3.89490e-12,6.11161e-01,4.93807e-12,6.11161e-01
7.88228e+02,2.30100e+03,2.17900e+03,1.22000e+02,1.59837e-12,6.18706e-01,2.75459e-12,6.18706e-01,3.90547e-12,6.18706e-01
7.88478e+02,3.48100e+03,1.82100e+03,1.66000e+03,5.80620e-13,6.26251e-01,1.70989e-12,6.26251e-01,1.58222e-12,6.26251e-01
7.88728e+02,3.38400e+03,2.57600e+03,8.08000e+02,5.13978e-13,6.33797e-01,3.39073e-12,6.33797e-01,2.94025e-12,6.33797e-01
7.88978e+02,2.19600e+03,3.34900e+03,-1.15300e+03,7.49523e-13,6.41342e-01,3.93304e-12,6.41342e-01,3.23140e-12,6.41342e-01
7.89228e+02,1.96700e+03,3.07300e+03,-1.10600e+03,1.19766e-12,6.48887e-01,3.42047e-12,6.48887e-01,2.33954e-12,6.48887e-01
7.89478e+02,3.21700e+03,2.08600e+03,1.13100e+03,1.20812e-12,6.56432e-01,2.06892e-12,6.56432e-01,1.43562e-12,6.56432e-01
7.89728e+02,4.06300e+03,2.12800e+03,1.93500e+03,6.01725e-13,6.63977e-01,2.18043e-12,6.63977e-01,2.39168e-12,6.63977e-01
7.89978e+02,3.48400e+03,3.44200e+03,4.20000e+01,1.05725e-12,6.71523e-01,3.06949e-12,6.71523e-01,4.12648e-12,6.71523e-01
7.90228e+02,2.31800e+03,4.11600e+03,-1.79800e+03,1.55147e-12,6.79068e-01,2.93244e-12,6.79068e-01,4.46536e-12,6.79068e-01
7.90478e+02,2.94000e+03,3.31300e+03,-3.73000e+02,1.37766e-12,6.86613e-01,1.24671e-12,6.86613e-01,2.50213e-12,6.86613e-01
7.90728e+02,4.48200e+03,2.30500e+03,2.17700e+03,2.05214e-12,6.94158e-01,8.08408e-13,6.94158e-01,2.30543e-12,6.94158e-01
7.90978e+02,4.92200e+03,3.23800e+03,1.68400e+03,2.61176e-12,7.01703e-01,1.58881e-12,7.01703e-01,2.99017e-12,7.01703e-01
7.91228e+02,3.37300e+03,4.65100e+03,-1.27800e+03,1.70096e-12,7.09249e-01,1.38431e-12,7.09249e-01,1.95596e-12,7.09249e-01
7.91478e+02,2.56600e+03,4.26800e+03,-1.70200e+03,1.61227e-12,7.16794e-01,1.10084e-12,7.16794e-01,1.98955e-12,7.16794e-01
7.91728e+02,3.50700e+03,2.60300e+03,9.04000e+02,1.93524e-12,7.24339e-01,8.81483e-13,7.24339e-01,1.67040e-12,7.24339e-01
7.91977e+02,4.39700e+03,2.42400e+03,1.97300e+03,1.68439e-12,7.31884e-01,7.10442e-13,7.31884e-01,1.79113e-12,7.31884e-01
7.92227e+02,3.43300e+03,3.65300e+03,-2.20000e+02,2.01850e-12,7.39429e-01,8.00419e-13,7.39429e-01,2.81526e-12,7.39429e-01
7.92477e+02,2.47000e+03,5.09300e+03,-2.62300e+03,2.35111e-12,7.46975e-01,9.12874e-13,7.46975e-01,3.18599e-12,7.46975e-01
7.92727e+02,3.03000e+03,4.26900e+03,-1.23900e+03,2.15111e-12,7.54520e-01,2.64890e-13,7.54520e-01,2.35242e-12,7.54520e-01
7.92977e+02,4.72200e+03,2.76100e+03,1.96100e+03,1.40621e-12,7.62065e-01,1.01422e-12,7.62065e-01,1.43023e-12,7.62065e-01
7.93227e+02,5.08100e+03,3.06800e+03,2.01300e+03,1.07805e-12,7.69610e-01,1.42670e-12,7.69610e-01,5.68553e-13,7.69610e-01
7.93476e+02,3.59400e+03,4.54700e+03,-9.53000e+02,1.17036e-12,7.77155e-01,1.23196e-12,7.77155e-01,5.07497e-13,7.77155e-01
7.93726e+02,2.66900e+03,4.66200e+03,-1.99300e+03,1.25882e-12,7.84701e-01,8.72250e-13,7.84701e-01,8.03705e-13,7.84701e-01
7.93976e+02,4.04800e+03,3.34900e+03,6.99000e+02,1.56773e-12,7.92246e-01,1.05047e-12,7.92246e-01,1.53757e-12,7.92246e-01
7.94226e+02,5.47000e+03,2.81400e+03,2.65600e+03,9.61300e-13,7.99791e-01,5.42198e-13,7.99791e-01,1.37039e-12,7.99791e-01
7.94476e+02,5.04800e+03,4.69700e+03,3.51000e+02,9.64580e-13,8.07336e-01,1.06075e-12,8.07336e-01,1.69950e-12,8.07336e-01
7.94725e+02,3.11600e+03,5.85200e+03,-2.73600e+03,4.67564e-13,8.14881e-01,1.24985e-12,8.14881e-01,1.02124e-12,8.14881e-01
7.94975e+02,3.17800e+03,5.20400e+03,-2.02600e+03,1.36861e-12,8.22427e-01,1.66569e-12,8.22427e-01,9.24607e-13,8.22427e-01
7.95225e+02,4.93000e+03,3.28900e+03,1.64100e+03,1.83721e-12,8.29972e-01,2.09367e-12,8.29972e-01,7.92856e-13,8.29972e-01
7.95475e+02,6.18100e+03,3.69100e+03,2.49000e+03,1.61866e-12,8.37517e-01,1.90932e-12,8.37517e-01,6.99267e-13,8.37517e-01
7.95724e+02,4.52900e+03,5.73500e+03,-1.20600e+03,1.03930e-12,8.45062e-01,9.21487e-13,8.45062e-01,5.58474e-13,8.45062e-01
7.95974e+02,3.12200e+03,6.30300e+03,-3.18100e+03,5.76794e-13,8.52607e-01,2.00882e-13,8.52607e-01,4.64140e-13,8.52607e-01
7.96224e+02,4.56000e+03,4.52400e+03,3.60000e+01,5.84071e-13,8.60153e-01,5.76222e-13,8.60153e-01,1.15803e-12,8.60153e-01
7.96474e+02,7.01000e+03,3.44500e+03,3.56500e+03,8.85468e-13,8.67698e-01,5.00835e-13,8.67698e-01,1.36574e-12,8.67698e-01
7.96723e+02,6.51400e+03,4.83800e+03,1.67600e+03,9.55167e-13,8.75243e-01,6.87303e-13,8.75243e-01,9.54844e-13,8.75243e-01
7.96973e+02,4.20400e+03,6.91400e+03,-2.71000e+03,8.72448e-13,8.82788e-01,1.02313e-12,8.82788e-01,1.28126e-12,8.82788e-01
7.97223e+02,4.18300e+03,6.99200e+03,-2.80900e+03,7.22966e-13,8.90333e-01,3.72021e-13,8.90333e-01,1.01361e-12,8.90333e-01
7.97472e+02,7.26300e+03,4.14100e+03,3.12200e+03,5.22953e-13,8.97879e-01,2.37345e-13,8.97879e-01,2.86101e-13,8.97879e-01
7.97722e+02,9.52000e+03,4.31000e+03,5.21000e+03,2.70797e-13,9.05424e-01,1.05901e-12,9.05424e-01,7.89839e-13,9.05424e-01
7.97972e+02,7.35000e+03,6.83200e+03,5.18000e+02,2.89793e-13,9.12969e-01,2.00522e-12,9.12969e-01,2.11059e-12,9.12969e-01
7.98221e+02,3.98900e+03,7.86100e+03,-3.87200e+03,6.85497e-13,9.20514e-01,2.19449e-12,9.20514e-01,2.63087e-12,9.20514e-01
7.98471e+02,4.61000e+03,5.36700e+03,-7.57000e+02,8.86106e-13,9.28059e-01,1.46639e-12,9.28059e-01,2.05948e-12,9.28059e-01
7.98721e+02,7.19700e+03,3.81200e+03,3.38500e+03,8.78093e-13,9.35605e-01,7.54935e-13,9.35605e-01,1.40075e-12,9.35605e-01
7.98970e+02,8.46900e+03,5.72600e+03,2.74300e+03,8.15022e-13,9.43150e-01,4.84108e-13,9.43150e-01,3.39926e-13,9.43150e-01
7.99220e+02,5.79100e+03,8.58900e+03,-2.79800e+03,1.02969e-12,9.50695e-01,8.89551e-13,9.50695e-01,2.81082e-13,9.50695e-01
7.99469e+02,4.25300e+03,8.13400e+03,-3.88100e+03,7.99769e-13,9.58240e-01,6.05812e-13,9.58240e-01,2.19443e-13,9.58240e-01
7.99719e+02,6.52000e+03,5.02100e+03,1.49900e+03,1.87478e-13,9.65785e-01,1.59030e-13,9.65785e-01,2.03444e-13,9.65785e-01
7.99969e+02,9.09800e+03,4.43400e+03,4.66400e+03,1.90953e-13,9.73331e-01,8.20086e-13,9.73331e-01,6.93007e-13,9.73331e-01
8.00218e+02,7.76800e+03,7.08600e+03,6.82000e+02,2.46716e-13,9.80876e-01,1.14604e-12,9.80876e-01,9.13631e-13,9.80876e-01
8.00468e+02,4.96000e+03,9.17400e+03,-4.21400e+03,5.74719e-13,9.88421e-01,8.79795e-13,9.88421e-01,5.57976e-13,9.88421e-01
8.00717e+02,5.46400e+03,7.00700e+03,-1.54300e+03,9.89115e-13,9.95966e-01,8.77454e-13,9.95966e-01,1.93190e-13,9.95966e-01
8.00967e+02,8.69100e+03,4.74200e+03,3.94900e+03,8.09429e-13,1.00351e+00,7.48406e-13,1.00351e+00,5.70436e-13,1.00351e+00
8.01216e+02,1.05300e+04,6.37300e+03,4.15700e+03,6.52537e-13,1.01106e+00,1.61318e-13,1.01106e+00,8.05550e-13,1.01106e+00
8.01466e+02,7.97900e+03,9.77300e+03,-1.79400e+03,6.78898e-13,1.01860e+00,6.16072e-13,1.01860e+00,1.19599e-12,1.01860e+00
8.01715e+02,5.30500e+03,1.08890e+04,-5.58400e+03,8.79842e-13,1.02615e+00,6.19521e-13,1.02615e+00,1.49511e-12,1.02615e+00
8.01965e+02,7.31300e+03,7.34200e+03,-2.90000e+01,6.59606e-13,1.03369e+00,5.86017e-13,1.03369e+00,1.14503e-12,1.03369e+00
8.02215e+02,1.07360e+04,4.95000e+03,5.78600e+03,2.29480e-13,1.04124e+00,6.25060e-13,1.04124e+00,7.30232e-13,1.04124e+00
8.02464e+02,9.56300e+03,7.78800e+03,1.77500e+03,2.62061e-13,1.04878e+00,2.67411e-13,1.04878e+00,4.59408e-13,1.04878e+00
8.02713e+02,6.08200e+03,1.03810e+04,-4.29900e+03,4.47332e-13,1.05633e+00,8.21943e-13,1.05633e+00,1.17120e-12,1.05633e+00
8.02963e+02,5.49500e+03,9.08600e+03,-3.59100e+03,1.54147e-12,1.06387e+00,4.55858e-13,1.06387e+00,1.76501e-12,1.06387e+00
8.03212e+02,9.53600e+03,6.17800e+03,3.35800e+03,1.64728e-12,1.07142e+00,8.39420e-14,1.07142e+00,1.72921e-12,1.07142e+00
8.03462e+02,1.21880e+04,6.38200e+03,5.80600e+03,1.33736e-12,1.07896e+00,1.70513e-13,1.07896e+00,1.26756e-12,1.07896e+00
8.03711e+02,9.92200e+03,1.06110e+04,-6.89000e+02,9.76652e-13,1.08651e+00,1.32032e-13,1.08651e+00,9.32963e-13,1.08651e+00
8.03961e+02,5.84300e+03,1.15210e+04,-5.67800e+03,1.01114e-12,1.09405e+00,3.62857e-13,1.09405e+00,1.01522e-12,1.09405e+00
8.04210e+02,6.52900e+03,8.02500e+03,-1.49600e+03,1.09382e-12,1.10160e+00,6.01634e-13,1.10160e+00,1.22309e-12,1.10160e+00
8.04460e+02,1.11860e+04,5.11000e+03,6.07600e+03,1.05826e-12,1.10914e+00,4.82624e-13,1.10914e+00,1.18682e-12,1.10914e+00
8.04709e+02,1.24290e+04,7.46500e+03,4.96400e+03,8.39321e-13,1.11669e+00,2.64951e-13,1.11669e+00,9.68461e-13,1.11669e+00
8.04958e+02,8.30700e+03,1.12200e+04,-2.91300e+03,8.98083e-13,1.12423e+00,2.99208e-13,1.12423e+00,9.89588e-13,1.12423e+00
8.05208e+02,5.43500e+03,1.18260e+04,-6.39100e+03,7.44523e-13,1.13178e+00,3.66524e-13,1.13178e+00,1.11016e-12,1.13178e+00
8.05457e+02,7.65000e+03,7.39900e+03,2.51000e+02,7.52138e-13,1.13932e+00,7.74308e-13,1.13932e+00,1.16403e-12,1.13932e+00
8.05707e+02,1.17360e+04,5.61500e+03,6.12100e+03,1.00186e-12,1.14687e+00,8.54670e-13,1.14687e+00,8.64067e-13,1.14687e+00
8.05956e+02,1.21160e+04,8.73600e+03,3.38000e+03,1.06618e-12,1.15442e+00,1.13211e-13,1.15442e+00,1.13293e-12,1.15442e+00
8.06205e+02,6.88800e+03,1.12260e+04,-4.33800e+03,6.86029e-13,1.16196e+00,9.73262e-13,1.16196e+00,1.55040e-12,1.16196e+00
8.06455e+02,5.86000e+03,1.01390e+04,-4.27900e+03,2.86753e-13,1.16951e+00,1.09370e-12,1.16951e+00,1.15001e-12,1.16951e+00
8.06704e+02,9.39200e+03,6.96200e+03,2.43000e+03,1.62150e-13,1.17705e+00,8.25768e-13,1.17705e+00,7.04390e-13,1.17705e+00
8.06953e+02,1.23860e+04,5.88100e+03,6.50500e+03,4.10525e-13,1.18460e+00,4.68975e-13,1.18460e+00,3.72065e-13,1.18460e+00
8.07203e+02,9.45700e+03,8.80800e+03,6.49000e+02,4.69444e-13,1.19214e+00,3.51572e-13,1.19214e+00,1.87156e-13,1.19214e+00
8.07452e+02,6.02800e+03,1.22000e+04,-6.17200e+03,7.30817e-13,1.19969e+00,9.49400e-13,1.19969e+00,2.84172e-13,1.19969e+00
8.07701e+02,5.93600e+03,1.03000e+04,-4.36400e+03,7.77983e-13,1.20723e+00,1.54965e-12,1.20723e+00,7.78715e-13,1.20723e+00
8.07951e+02,1.00740e+04,6.14200e+03,3.93200e+03,7.95399e-13,1.21478e+00,1.47827e-12,1.21478e+00,6.96905e-13,1.21478e+00
8.08200e+02,1.11770e+04,5.79700e+03,5.38000e+03,9.67869e-13,1.22232e+00,7.60990e-13,1.22232e+00,6.44568e-13,1.22232e+00
8.08449e+02,8.97900e+03,1.01420e+04,-1.16300e+03,1.03261e-12,1.22987e+00,3.87931e-13,1.22987e+00,1.41837e-12,1.22987e+00
8.08698e+02,5.68300e+03,1.25290e+04,-6.84600e+03,7.11214e-13,1.23741e+00,1.04836e-12,1.23741e+00,1.64032e-12,1.23741e+00
8.08948e+02,8.49300e+03,9.93800e+03,-1.44500e+03,5.92141e-13,1.24496e+00,8.14200e-13,1.24496e+00,1.11669e-12,1.24496e+00
8.09197e+02,1.33740e+04,6.32500e+03,7.04900e+03,7.94957e-13,1.25250e+00,2.87647e-13,1.25250e+00,1.02407e-12,1.25250e+00
8.09446e+02,1.27740e+04,8.25600e+03,4.51800e+03,7.06127e-13,1.26005e+00,3.83408e-13,1.26005e+00,9.76260e-13,1.26005e+00
8.09695e+02,8.42700e+03,1.34700e+04,-5.04300e+03,8.10080e-13,1.26759e+00,7.42266e-13,1.26759e+00,5.77129e-13,1.26759e+00
8.09945e+02,6.59400e+03,1.40400e+04,-7.44600e+03,7.67206e-13,1.27514e+00,9.14049e-13,1.27514e+00,1.49296e-13,1.27514e+00
8.10194e+02,1.04920e+04,9.28100e+03,1.21100e+03,6.54705e-13,1.28268e+00,4.52708e-13,1.28268e+00,6.59222e-13,1.28268e+00
8.10443e+02,1.37410e+04,6.37100e+03,7.37000e+03,9.40977e-13,1.29023e+00,2.57772e-13,1.29023e+00,7.43510e-13,1.29023e+00
8.10692e+02,1.18530e+04,1.00320e+04,1.82100e+03,1.04068e-12,1.29777e+00,2.12764e-13,1.29777e+00,1.14411e-12,1.29777e+00
8.10941e+02,7.54900e+03,1.37930e+04,-6.24400e+03,7.11858e-13,1.30532e+00,1.02109e-12,1.30532e+00,1.62537e-12,1.30532e+00
8.11191e+02,6.94800e+03,1.19850e+04,-5.03700e+03,9.06217e-13,1.31286e+00,5.19302e-13,1.31286e+00,1.27495e-12,1.31286e+00
8.11440e+02,1.22100e+04,7.55400e+03,4.65600e+03,1.75477e-12,-1.32041e+00,1.05162e-12,-1.32041e+00,7.03151e-13,-1.32041e+00
8.11689e+02,1.52140e+04,7.10800e+03,8.10600e+03,9.06217e-13,-1.31286e+00,5.19302e-13,-1.31286e+00,1.27495e-12,-1.31286e+00
8.11938e+02,1.25770e+04,1.13480e+04,1.22900e+03,7.11858e-13,-1.30532e+00,1.02109e-12,-1.30532e+00,1.62537e-12,-1.30532e+00
8.12187e+02,7.30100e+03,1.42530e+04,-6.95200e+03,1.04068e-12,-1.29777e+00,2.12764e-13,-1.29777e+00,1.14411e-12,-1.29777e+00
8.12436e+02,7.88500e+03,1.20910e+04,-4.20600e+03,9.40977e-13,-1.29023e+00,2.57772e-13,-1.29023e+00,7.43510e-13,-1.29023e+00
8.12685e+02,1.31270e+04,7.24000e+03,5.88700e+03,6.54705e-13,-1.28268e+00,4.52708e-13,-1.28268e+00,6.59222e-13,-1.28268e+00
8.12935e+02,1.43790e+04,7.99000e+03,6.38900e+03,7.67206e-13,-1.27514e+00,9.14049e-13,-1.27514e+00,1.49296e-13,-1.27514e+00
8.13184e+02,1.03520e+04,1.27420e+04,-2.39000e+03,8.10080e-13,-1.26759e+00,7.42266e-13,-1.26759e+00,5.77129e-13,-1.26759e+00
8.13433e+02,6.77400e+03,1.46230e+04,-7.84900e+03,7.06127e-13,-1.26005e+00,3.83408e-13,-1.26005e+00,9.76260e-13,-1.26005e+00
8.13682e+02,8.94500e+03,1.10370e+04,-2.09200e+03,7.94957e-13,-1.25250e+00,2.87647e-13,-1.25250e+00,1.02407e-12,-1.25250e+00
8.13931e+02,1.31330e+04,6.78900e+03,6.34400e+03,5.92141e-13,-1.24496e+00,8.14200e-13,-1.24496e+00,1.11669e-12,-1.24496e+00
8.14180e+02,1.28960e+04,7.52700e+03,5.36900e+03,7.11214e-13,-1.23741e+00,1.04836e-12,-1.23741e+00,1.64032e-12,-1.23741e+00
8.14429e+02,9.60000e+03,1.19630e+04,-2.36300e+03,1.03261e-12,-1.22987e+00,3.87931e-13,-1.22987e+00,1.41837e-12,-1.22987e+00
8.14678e+02,6.51500e+03,1.36440e+04,-7.12900e+03,9.67869e-13,-1.22232e+00,7.60990e-13,-1.22232e+00,6.44568e-13,-1.22232e+00
8.14927e+02,9.36400e+03,8.49100e+03,8.73000e+02,7.95399e-13,-1.21478e+00,1.47827e-12,-1.21478e+00,6.96905e-13,-1.21478e+00
8.15176e+02,1.29030e+04,5.73900e+03,7.16400e+03,7.77983e-13,-1.20723e+00,1.54965e-12,-1.20723e+00,7.78715e-13,-1.20723e+00
8.15425e+02,1.18100e+04,8.38900e+03,3.42100e+03,7.30817e-13,-1.19969e+00,9.49400e-13,-1.19969e+00,2.84172e-13,-1.19969e+00
8.15674e+02,7.95200e+03,1.33280e+04,-5.37600e+03,4.69444e-13,-1.19214e+00,3.51572e-13,-1.19214e+00,1.87156e-13,-1.19214e+00
8.15923e+02,6.70200e+03,1.33140e+04,-6.61200e+03,4.10525e-13,-1.18460e+00,4.68975e-13,-1.18460e+00,3.72065e-13,-1.18460e+00
8.16172e+02,1.18460e+04,9.20700e+03,2.63900e+03,1.62150e-13,-1.17705e+00,8.25768e-13,-1.17705e+00,7.04390e-13,-1.17705e+00
8.16421e+02,1.36440e+04,6.46500e+03,7.17900e+03,2.86753e-13,-1.16951e+00,1.09370e-12,-1.16951e+00,1.15001e-12,-1.16951e+00
8.16670e+02,9.57100e+03,9.63800e+03,-6.70000e+01,6.86029e-13,-1.16196e+00,9.73262e-13,-1.16196e+00,1.55040e-12,-1.16196e+00
8.16919e+02,5.68200e+03,1.26660e+04,-6.98400e+03,1.06618e-12,-1.15442e+00,1.13211e-13,-1.15442e+00,1.13293e-12,-1.15442e+00
8.17168e+02,6.01700e+03,1.02790e+04,-4.26200e+03,1.00186e-12,-1.14687e+00,8.54670e-13,-1.14687e+00,8.64067e-13,-1.14687e+00
8.17417e+02,9.61700e+03,6.12800e+03,3.48900e+03,7.52138e-13,-1.13932e+00,7.74308e-13,-1.13932e+00,1.16403e-12,-1.13932e+00
8.17666e+02,1.16300e+04,6.09900e+03,5.53100e+03,7.44523e-13,-1.13178e+00,3.66524e-13,-1.13178e+00,1.11016e-12,-1.13178e+00
8.17915e+02,9.11900e+03,1.04680e+04,-1.34900e+03,8.98083e-13,-1.12423e+00,2.99208e-13,-1.12423e+00,9.89588e-13,-1.12423e+00
8.18164e+02,5.60100e+03,1.13850e+04,-5.78400e+03,8.39321e-13,-1.11669e+00,2.64951e-13,-1.11669e+00,9.68461e-13,-1.11669e+00
8.18413e+02,5.88800e+03,8.26900e+03,-2.38100e+03,1.05826e-12,-1.10914e+00,4.82624e-13,-1.10914e+00,1.18682e-12,-1.10914e+00
8.18662e+02,9.19600e+03,4.86700e+03,4.32900e+03,1.09382e-12,-1.10160e+00,6.01634e-13,-1.10160e+00,1.22309e-12,-1.10160e+00
8.18911e+02,1.03750e+04,5.41200e+03,4.96300e+03,1.01114e-12,-1.09405e+00,3.62857e-13,-1.09405e+00,1.01522e-12,-1.09405e+00
8.19160e+02,7.08900e+03,8.46900e+03,-1.38000e+03,9.76652e-13,-1.08651e+00,1.32032e-13,-1.08651e+00,9.32963e-13,-1.08651e+00
8.19408e+02,4.58200e+03,9.92200e+03,-5.34000e+03,1.33736e-12,-1.07896e+00,1.70513e-13,-1.07896e+00,1.26756e-12,-1.07896e+00
8.19657e+02,7.06700e+03,7.82200e+03,-7.55000e+02,1.64728e-12,-1.07142e+00,8.39420e-14,-1.07142e+00,1.72921e-12,-1.07142e+00
8.19906e+02,1.17480e+04,5.09100e+03,6.65700e+03,1.54147e-12,-1.06387e+00,4.55858e-13,-1.06387e+00,1.76501e-12,-1.06387e+00
8.20155e+02,1.19430e+04,6.82500e+03,5.11800e+03,4.47332e-13,-1.05633e+00,8.21943e-13,-1.05633e+00,1.17120e-12,-1.05633e+00
8.20404e+02,7.39400e+03,1.02130e+04,-2.81900e+03,2.62061e-13,-1.04878e+00,2.67411e-13,-1.04878e+00,4.59408e-13,-1.04878e+00
8.20653e+02,4.73900e+03,9.46200e+03,-4.72300e+03,2.29480e-13,-1.04124e+00,6.25060e-13,-1.04124e+00,7.30232e-13,-1.04124e+00
8.20901e+02,6.65400e+03,6.35900e+03,2.95000e+02,6.59606e-13,-1.03369e+00,5.86017e-13,-1.03369e+00,1.14503e-12,-1.03369e+00
8.21150e+02,9.76500e+03,4.50700e+03,5.25800e+03,8.79842e-13,-1.02615e+00,6.19521e-13,-1.02615e+00,1.49511e-12,-1.02615e+00
8.21399e+02,8.13200e+03,6.11100e+03,2.02100e+03,6.78898e-13,-1.01860e+00,6.16072e-13,-1.01860e+00,1.19599e-12,-1.01860e+00
8.21648e+02,4.94900e+03,9.37800e+03,-4.42900e+03,6.52537e-13,-1.01106e+00,1.61318e-13,-1.01106e+00,8.05550e-13,-1.01106e+00
8.21897e+02,3.85100e+03,9.09900e+03,-5.24800e+03,8.09429e-13,-1.00351e+00,7.48406e-13,-1.00351e+00,5.70436e-13,-1.00351e+00
8.22145e+02,5.31900e+03,5.59000e+03,-2.71000e+02,9.89115e-13,-9.95966e-01,8.77454e-13,-9.95966e-01,1.93190e-13,-9.95966e-01
8.22394e+02,7.83400e+03,4.24200e+03,3.59200e+03,5.74719e-13,-9.88421e-01,8.79795e-13,-9.88421e-01,5.57976e-13,-9.88421e-01
8.22643e+02,7.62000e+03,6.37700e+03,1.24300e+03,2.46716e-13,-9.80876e-01,1.14604e-12,-9.80876e-01,9.13631e-13,-9.80876e-01
8.22892e+02,4.73600e+03,8.47500e+03,-3.73900e+03,1.90953e-13,-9.73331e-01,8.20086e-13,-9.73331e-01,6.93007e-13,-9.73331e-01
8.23140e+02,3.87200e+03,7.64300e+03,-3.77100e+03,1.87478e-13,-9.65785e-01,1.59030e-13,-9.65785e-01,2.03444e-13,-9.65785e-01
8.23389e+02,6.21300e+03,4.84700e+03,1.36600e+03,7.99769e-13,-9.58240e-01,6.05812e-13,-9.58240e-01,2.19443e-13,-9.58240e-01
8.23638e+02,8.05400e+03,4.00000e+03,4.05400e+03,1.02969e-12,-9.50695e-01,8.89551e-13,-9.50695e-01,2.81082e-13,-9.50695e-01
8.23887e+02,6.26800e+03,6.39500e+03,-1.27000e+02,8.15022e-13,-9.43150e-01,4.84108e-13,-9.43150e-01,3.39926e-13,-9.43150e-01
8.24135e+02,4.00500e+03,8.02200e+03,-4.01700e+03,8.78093e-13,-9.35605e-01,7.54935e-13,-9.35605e-01,1.40075e-12,-9.35605e-01
8.24384e+02,3.86600e+03,6.77000e+03,-2.90400e+03,8.86106e-13,-9.28059e-01,1.46639e-12,-9.28059e-01,2.05948e-12,-9.28059e-01
8.24633e+02,6.38800e+03,3.98200e+03,2.40600e+03,6.85497e-13,-9.20514e-01,2.19449e-12,-9.20514e-01,2.63087e-12,-9.20514e-01
8.24881e+02,7.74700e+03,3.80000e+03,3.94700e+03,2.89793e-13,-9.12969e-01,2.00522e-12,-9.12969e-01,2.11059e-12,-9.12969e-01
8.25130e+02,6.01200e+03,5.94300e+03,6.90000e+01,2.70797e-13,-9.05424e-01,1.05901e-12,-9.05424e-01,7.89839e-13,-9.05424e-01
8.25379e+02,3.58000e+03,8.10000e+03,-4.52000e+03,5.22953e-13,-8.97879e-01,2.37345e-13,-8.97879e-01,2.86101e-13,-8.97879e-01
8.25627e+02,3.64100e+03,5.64600e+03,-2.00500e+03,7.22966e-13,-8.90333e-01,3.72021e-13,-8.90333e-01,1.01361e-12,-8.90333e-01
8.25876e+02,5.39200e+03,3.14900e+03,2.24300e+03,8.72448e-13,-8.82788e-01,1.02313e-12,-8.82788e-01,1.28126e-12,-8.82788e-01
8.26125e+02,5.97300e+03,3.20700e+03,2.76600e+03,9.55167e-13,-8.75243e-01,6.87303e-13,-8.75243e-01,9.54844e-13,-8.75243e-01
8.26373e+02,3.95300e+03,4.56900e+03,-6.16000e+02,8.85468e-13,-8.67698e-01,5.00835e-13,-8.67698e-01,1.36574e-12,-8.67698e-01
8.26622e+02,2.36900e+03,4.90700e+03,-2.53800e+03,5.84071e-13,-8.60153e-01,5.76222e-13,-8.60153e-01,1.15803e-12,-8.60153e-01
8.26870e+02,2.68100e+03,3.59900e+03,-9.18000e+02,5.76794e-13,-8.52607e-01,2.00882e-13,-8.52607e-01,4.64140e-13,-8.52607e-01
8.27119e+02,3.90400e+03,2.47400e+03,1.43000e+03,1.03930e-12,-8.45062e-01,9.21487e-13,-8.45062e-01,5.58474e-13,-8.45062e-01
8.27368e+02,4.40100e+03,2.75600e+03,1.64500e+03,1.61866e-12,-8.37517e-01,1.90932e-12,-8.37517e-01,6.99267e-13,-8.37517e-01
8.27616e+02,3.29300e+03,3.59800e+03,-3.05000e+02,1.83721e-12,-8.29972e-01,2.09367e-12,-8.29972e-01,7.92856e-13,-8.29972e-01
8.27865e+02,2.12900e+03,4.08500e+03,-1.95600e+03,1.36861e-12,-8.22427e-01,1.66569e-12,-8.22427e-01,9.24607e-13,-8.22427e-01
8.28113e+02,2.78500e+03,3.90900e+03,-1.12400e+03,4.67564e-13,-8.14881e-01,1.24985e-12,-8.14881e-01,1.02124e-12,-8.14881e-01
8.28362e+02,4.21900e+03,2.53400e+03,1.68500e+03,9.64580e-13,-8.07336e-01,1.06075e-12,-8.07336e-01,1.69950e-12,-8.07336e-01
8.28610e+02,4.26000e+03,2.63400e+03,1.62600e+03,9.61300e-13,-7.99791e-01,5.42198e-13,-7.99791e-01,1.37039e-12,-7.99791e-01
8.28859e+02,2.93400e+03,3.62600e+03,-6.92000e+02,1.56773e-12,-7.92246e-01,1.05047e-12,-7.92246e-01,1.53757e-12,-7.92246e-01
8.29108e+02,1.81100e+03,3.94400e+03,-2.13300e+03,1.25882e-12,-7.84701e-01,8.72250e-13,-7.84701e-01,8.03705e-13,-7.84701e-01
8.29356e+02,2.22000e+03,3.05300e+03,-8.33000e+02,1.17036e-12,-7.77155e-01,1.23196e-12,-7.77155e-01,5.07497e-13,-7.77155e-01
8.29605e+02,3.02000e+03,1.91600e+03,1.10400e+03,1.07805e-12,-7.69610e-01,1.42670e-12,-7.69610e-01,5.68553e-13,-7.69610e-01
8.29853e+02,3.03700e+03,2.01000e+03,1.02700e+03,1.40621e-12,-7.62065e-01,1.01422e-12,-7.62065e-01,1.43023e-12,-7.62065e-01
8.30101e+02,2.19400e+03,2.97400e+03,-7.80000e+02,2.15111e-12,-7.54520e-01,2.64890e-13,-7.54520e-01,2.35242e-12,-7.54520e-01
8.30350e+02,1.59900e+03,3.33200e+03,-1.73300e+03,2.35111e-12,-7.46975e-01,9.12874e-13,-7.46975e-01,3.18599e-12,-7.46975e-01
8.30598e+02,1.87000e+03,2.34600e+03,-4.76000e+02,2.01850e-12,-7.39429e-01,8.00419e-13,-7.39429e-01,2.81526e-12,-7.39429e-01
8.30847e+02,2.74500e+03,1.58500e+03,1.16000e+03,1.68439e-12,-7.31884e-01,7.10442e-13,-7.31884e-01,1.79113e-12,-7.31884e-01
8.31095e+02,2.96200e+03,1.79600e+03,1.16600e+03,1.93524e-12,-7.24339e-01,8.81483e-13,-7.24339e-01,1.67040e-12,-7.24339e-01
8.31344e+02,1.95400e+03,2.59500e+03,-6.41000e+02,1.61227e-12,-7.16794e-01,1.10084e-12,-7.16794e-01,1.98955e-12,-7.16794e-01
8.31592e+02,1.29000e+03,2.77600e+03,-1.48600e+03,1.70096e-12,-7.09249e-01,1.38431e-12,-7.09249e-01,1.95596e-12,-7.09249e-01
8.31841e+02,1.59700e+03,2.01900e+03,-4.22000e+02,2.61176e-12,-7.01703e-01,1.58881e-12,-7.01703e-01,2.99017e-12,-7.01703e-01
8.32089e+02,2.38900e+03,1.30200e+03,1.08700e+03,2.05214e-12,-6.94158e-01,8.08408e-13,-6.94158e-01,2.30543e-12,-6.94158e-01
8.32337e+02,2.47200e+03,1.53700e+03,9.35000e+02,1.37766e-12,-6.86613e-01,1.24671e-12,-6.86613e-01,2.50213e-12,-6.86613e-01
8.32586e+02,1.58200e+03,1.98100e+03,-3.99000e+02,1.55147e-12,-6.79068e-01,2.93244e-12,-6.79068e-01,4.46536e-12,-6.79068e-01
8.32834e+02,1.16400e+03,2.29800e+03,-1.13400e+03,1.05725e-12,-6.71523e-01,3.06949e-12,-6.71523e-01,4.12648e-12,-6.71523e-01
8.33083e+02,1.27700e+03,1.61900e+03,-3.42000e+02,6.01725e-13,-6.63977e-01,2.18043e-12,-6.63977e-01,2.39168e-12,-6.63977e-01
8.33331e+02,1.87200e+03,1.15200e+03,7.20000e+02,1.20812e-12,-6.56432e-01,2.06892e-12,-6.56432e-01,1.43562e-12,-6.56432e-01
8.33579e+02,1.83700e+03,1.27300e+03,5.64000e+02,1.19766e-12,-6.48887e-01,3.42047e-12,-6.48887e-01,2.33954e-12,-6.48887e-01
8.33828e+02,1.32000e+03,1.72300e+03,-4.03000e+02,7.49523e-13,-6.41342e-01,3.93304e-12,-6.41342e-01,3.23140e-12,-6.41342e-01
8.34076e+02,9.06000e+02,1.63300e+03,-7.27000e+02,5.13978e-13,-6.33797e-01,3.39073e-12,-6.33797e-01,2.94025e-12,-6.33797e-01
8.34324e+02,1.07900e+03,1.31300e+03,-2.34000e+02,5.80620e-13,-6.26251e-01,1.70989e-12,-6.26251e-01,1.58222e-12,-6.26251e-01
8.34573e+02,1.42200e+03,9.10000e+02,5.12000e+02,1.59837e-12,-6.18706e-01,2.75459e-12,-6.18706e-01,3.90547e-12,-6.18706e-01
8.34821e+02,1.53000e+03,9.46000e+02,5.84000e+02,1.84794e-12,-6.11161e-01,3.89490e-12,-6.11161e-01,4.93807e-12,-6.11161e-01
8.35069e+02,1.02900e+03,1.24400e+03,-2.15000e+02,1.01891e-12,-6.03616e-01,3.90360e-12,-6.03616e-01,4.76906e-12,-6.03616e-01
8.35318e+02,8.70000e+02,1.54600e+03,-6.76000e+02,3.53539e-12,-5.96071e-01,6.51190e-12,-5.96071e-01,8.75154e-12,-5.96071e-01
8.35566e+02,9.04000e+02,1.13400e+03,-2.30000e+02,1.11273e-11,-5.88525e-01,1.02489e-11,-5.88525e-01,1.84006e-11,-5.88525e-01
8.35814e+02,1.22400e+03,8.60000e+02,3.64000e+02,1.96719e-11,-5.80980e-01,1.38691e-11,-5.80980e-01,3.15708e-11,-5.80980e-01
8.36062e+02,1.12800e+03,7.84000e+02,3.44000e+02,3.20513e-11,-5.73435e-01,2.70381e-11,-5.73435e-01,5.75106e-11,-5.73435e-01
8.36311e+02,8.94000e+02,1.01000e+03,-1.16000e+02,4.42478e-11,-5.65890e-01,4.17847e-11,-5.65890e-01,8.35602e-11,-5.65890e-01
8.36559e+02,7.30000e+02,1.14800e+03,-4.18000e+02,4.89320e-11,-5.58345e-01,4.82765e-11,-5.58345e-01,9.40356e-11,-5.58345e-01
8.36807e+02,8.07000e+02,1.07800e+03,-2.71000e+02,4.54952e-11,-5.50799e-01,4.66173e-11,-5.50799e-01,8.92523e-11,-5.50799e-01
8.37055e+02,9.86000e+02,7.72000e+02,2.14000e+02,3.58602e-11,-5.43254e-01,3.84101e-11,-5.43254e-01,7.26532e-11,-5.43254e-01
8.37304e+02,1.06000e+03,7.50000e+02,3.10000e+02,2.32539e-11,-5.35709e-01,2.34665e-11,-5.35709e-01,4.63257e-11,-5.35709e-01
8.37552e+02,8.03000e+02,8.46000e+02,-4.30000e+01,1.29937e-11,-5.28164e-01,9.07460e-12,-5.28164e-01,2.18401e-11,-5.28164e-01
8.37800e+02,7.48000e+02,9.68000e+02,-2.20000e+02,5.98058e-12,-5.20619e-01,4.48905e-12,-5.20619e-01,9.18048e-12,-5.20619e-01
8.38048e+02,7.00000e+02,7.66000e+02,-6.60000e+01,2.65676e-12,-5.13073e-01,3.78860e-12,-5.13073e-01,5.68198e-12,-5.13073e-01
8.38296e+02,8.22000e+02,6.88000e+02,1.34000e+02,9.66021e-13,-5.05528e-01,2.61527e-12,-5.05528e-01,2.66761e-12,-5.05528e-01
8.38545e+02,8.34000e+02,6.71000e+02,1.63000e+02,1.36478e-12,-4.97983e-01,1.50327e-12,-4.97983e-01,1.70504e-12,-4.97983e-01
8.38793e+02,7.61000e+02,7.53000e+02,8.00000e+00,9.43855e-13,-4.90438e-01,1.20673e-12,-4.90438e-01,1.98313e-12,-4.90438e-01
8.39041e+02,6.83000e+02,7.63000e+02,-8.00000e+01,3.71995e-12,-4.82893e-01,2.87994e-12,-4.82893e-01,4.07492e-12,-4.82893e-01
8.39289e+02,6.64000e+02,7.34000e+02,-7.00000e+01,5.04791e-12,-4.75347e-01,3.71139e-12,-4.75347e-01,4.39567e-12,-4.75347e-01
8.39537e+02,6.99000e+02,6.66000e+02,3.30000e+01,4.35324e-12,-4.67802e-01,2.22402e-12,-4.67802e-01,2.71978e-12,-4.67802e-01
8.39785e+02,7.48000e+02,6.76000e+02,7.20000e+01,3.53497e-12,-4.60257e-01,1.36429e-12,-4.60257e-01,2.31346e-12,-4.60257e-01
8.40033e+02,6.90000e+02,6.75000e+02,1.50000e+01,2.67176e-12,-4.52712e-01,2.03581e-12,-4.52712e-01,2.30935e-12,-4.52712e-01
8.40281e+02,6.88000e+02,7.64000e+02,-7.60000e+01,1.21160e-12,-4.45167e-01,2.27031e-12,-4.45167e-01,1.94306e-12,-4.45167e-01
8.40530e+02,6.45000e+02,7.05000e+02,-6.00000e+01,5.13835e-13,-4.37621e-01,7.44455e-13,-4.37621e-01,9.73459e-13,-4.37621e-01
8.40778e+02,6.71000e+02,6.64000e+02,7.00000e+00,1.20061e-12,-4.30076e-01,1.26204e-12,-4.30076e-01,8.28523e-14,-4.30076e-01
8.41026e+02,6.92000e+02,6.53000e+02,3.90000e+01,2.19098e-12,-4.22531e-01,1.98859e-12,-4.22531e-01,2.26815e-12,-4.22531e-01
8.41274e+02,6.57000e+02,6.60000e+02,-3.00000e+00,2.65452e-12,-4.14986e-01,1.53898e-12,-4.14986e-01,2.84422e-12,-4.14986e-01
8.41522e+02,6.56000e+02,6.68000e+02,-1.20000e+01,6.50018e-13,-4.07441e-01,2.87264e-13,-4.07441e-01,4.06365e-13,-4.07441e-01
8.41770e+02,6.42000e+02,6.96000e+02,-5.40000e+01,2.18828e-12,-3.99895e-01,5.70107e-13,-3.99895e-01,2.52380e-12,-3.99895e-01
8.42018e+02,6.48000e+02,6.48000e+02,0.00000e+00,3.55436e-12,-3.92350e-01,1.43117e-12,-3.92350e-01,3.28304e-12,-3.92350e-01
8.42266e+02,6.62000e+02,6.24000e+02,3.80000e+01,3.27768e-12,-3.84805e-01,1.82461e-12,-3.84805e-01,2.69674e-12,-3.84805e-01
8.42514e+02,6.35000e+02,6.41000e+02,-6.00000e+00,1.33045e-12,-3.77260e-01,2.14836e-13,-3.77260e-01,1.14327e-12,-3.77260e-01
8.42762e+02,6.83000e+02,6.91000e+02,-8.00000e+00,2.51026e-12,-3.69715e-01,2.14072e-12,-3.69715e-01,1.05239e-12,-3.69715e-01
8.43010e+02,6.18000e+02,6.25000e+02,-7.00000e+00,3.92547e-12,-3.62169e-01,3.66478e-12,-3.62169e-01,2.32799e-12,-3.62169e-01
8.43258e+02,6.41000e+02,6.33000e+02,8.00000e+00,3.04549e-12,-3.54624e-01,3.13948e-12,-3.54624e-01,1.85723e-12,-3.54624e-01
8.43506e+02,6.43000e+02,6.24000e+02,1.90000e+01,1.79649e-12,-3.47079e-01,1.51707e-12,-3.47079e-01,2.80211e-13,-3.47079e-01
8.43754e+02,6.41000e+02,6.24000e+02,1.70000e+01,4.11232e-13,-3.39534e-01,1.46111e-12,-3.39534e-01,1.39163e-12,-3.39534e-01
8.44002e+02,6.28000e+02,6.47000e+02,-1.90000e+01,1.48872e-12,-3.31989e-01,2.71672e-12,-3.31989e-01,1.34405e-12,-3.31989e-01
8.44250e+02,6.24000e+02,6.42000e+02,-1.80000e+01,3.59048e-12,-3.24444e-01,4.16376e-12,-3.24444e-01,2.05055e-12,-3.24444e-01
8.44498e+02,6.34000e+02,6.33000e+02,1.00000e+00,4.58425e-12,-3.16898e-01,4.95536e-12,-3.16898e-01,2.08573e-12,-3.16898e-01
8.44746e+02,6.47000e+02,6.36000e+02,1.10000e+01,3.39450e-12,-3.09353e-01,4.41698e-12,-3.09353e-01,1.05206e-12,-3.09353e-01
8.44994e+02,6.41000e+02,6.23000e+02,1.80000e+01,1.42771e-12,-3.01808e-01,1.73379e-12,-3.01808e-01,2.32289e-12,-3.01808e-01
8.45242e+02,6.63000e+02,6.65000e+02,-2.00000e+00,3.51065e-12,-2.94263e-01,9.57012e-13,-2.94263e-01,3.02277e-12,-2.94263e-01
8.45490e+02,6.18000e+02,6.13000e+02,5.00000e+00,4.11475e-12,-2.86718e-01,2.12579e-12,-2.86718e-01,2.82544e-12,-2.86718e-01
8.45738e+02,6.30000e+02,6.42000e+02,-1.20000e+01,2.89196e-12,-2.79172e-01,2.05819e-12,-2.79172e-01,1.47430e-12,-2.79172e-01
8.45985e+02,6.38000e+02,6.19000e+02,1.90000e+01,1.75174e-12,-2.71627e-01,1.36398e-12,-2.71627e-01,3.94380e-13,-2.71627e-01
8.46233e+02,6.37000e+02,6.31000e+02,6.00000e+00,1.48421e-12,-2.64082e-01,1.29392e-12,-2.64082e-01,1.10818e-12,-2.64082e-01
8.46481e+02,6.44000e+02,6.41000e+02,3.00000e+00,1.01410e-12,-2.56537e-01,2.14720e-12,-2.56537e-01,1.93523e-12,-2.56537e-01
8.46729e+02,6.28000e+02,6.46000e+02,-1.80000e+01,4.06518e-12,-2.48992e-01,2.44936e-12,-2.48992e-01,3.21886e-12,-2.48992e-01
8.46977e+02,6.32000e+02,6.42000e+02,-1.00000e+01,4.39921e-12,-2.41446e-01,1.97068e-12,-2.41446e-01,3.68282e-12,-2.41446e-01
8.47225e+02,6.24000e+02,6.34000e+02,-1.00000e+01,3.62042e-12,-2.33901e-01,9.34355e-13,-2.33901e-01,4.37323e-12,-2.33901e-01
8.47473e+02,6.19000e+02,6.29000e+02,-1.00000e+01,2.69817e-12,-2.26356e-01,2.15885e-12,-2.26356e-01,4.81514e-12,-2.26356e-01
8.47720e+02,6.53000e+02,6.58000e+02,-5.00000e+00,1.59246e-12,-2.18811e-01,3.29306e-12,-2.18811e-01,3.22189e-12,-2.18811e-01
8.47968e+02,6.08000e+02,6.21000e+02,-1.30000e+01,3.61733e-12,-2.11266e-01,3.66433e-12,-2.11266e-01,8.26736e-13,-2.11266e-01
8.48216e+02,6.30000e+02,6.32000e+02,-2.00000e+00,2.42874e-12,-2.03720e-01,2.07416e-12,-2.03720e-01,1.09675e-12,-2.03720e-01
8.48464e+02,6.22000e+02,6.30000e+02,-8.00000e+00,9.61320e-13,-1.96175e-01,1.77438e-12,-1.96175e-01,1.93247e-12,-1.96175e-01
8.48712e+02,6.17000e+02,6.24000e+02,-7.00000e+00,8.43941e-13,-1.88630e-01,2.44088e-12,-1.88630e-01,1.66011e-12,-1.88630e-01
8.48960e+02,6.18000e+02,6.33000e+02,-1.50000e+01,3.74696e-12,-1.81085e-01,3.78215e-12,-1.81085e-01,3.41905e-12,-1.81085e-01
8.49207e+02,6.36000e+02,6.44000e+02,-8.00000e+00,6.77076e-12,-1.73540e-01,5.17751e-12,-1.73540e-01,4.41051e-12,-1.73540e-01
8.49455e+02,6.24000e+02,6.33000e+02,-9.00000e+00,4.99585e-12,-1.65994e-01,4.96823e-12,-1.65994e-01,2.35868e-12,-1.65994e-01
8.49703e+02,6.26000e+02,6.29000e+02,-3.00000e+00,2.59044e-12,-1.58449e-01,2.95424e-12,-1.58449e-01,3.39851e-12,-1.58449e-01
8.49951e+02,6.31000e+02,6.24000e+02,7.00000e+00,5.64522e-12,-1.50904e-01,2.41330e-12,-1.50904e-01,4.88570e-12,-1.50904e-01
8.50198e+02,6.51000e+02,6.46000e+02,5.00000e+00,5.18298e-12,-1.43359e-01,1.56232e-12,-1.43359e-01,3.89781e-12,-1.43359e-01
8.50446e+02,6.06000e+02,6.18000e+02,-1.20000e+01,5.33673e-12,-1.35814e-01,3.00476e-12,-1.35814e-01,2.48585e-12,-1.35814e-01
8.50694e+02,6.31000e+02,6.24000e+02,7.00000e+00,3.76009e-12,-1.28268e-01,2.29305e-12,-1.28268e-01,2.68343e-12,-1.28268e-01
8.50941e+02,6.27000e+02,6.28000e+02,-1.00000e+00,2.92152e-12,-1.20723e-01,1.94655e-13,-1.20723e-01,2.93275e-12,-1.20723e-01
8.51189e+02,6.32000e+02,6.27000e+02,5.00000e+00,3.49169e-12,-1.13178e-01,1.18878e-12,-1.13178e-01,3.18401e-12,-1.13178e-01
8.51437e+02,6.29000e+02,6.27000e+02,2.00000e+00,2.03286e-12,-1.05633e-01,4.35135e-12,-1.05633e-01,2.35015e-12,-1.05633e-01
8.51685e+02,6.28000e+02,6.40000e+02,-1.20000e+01,5.30490e-12,-9.80876e-02,4.67557e-12,-9.80876e-02,4.46095e-12,-9.80876e-02
8.51932e+02,6.32000e+02,6.28000e+02,4.00000e+00,5.37852e-12,-9.05424e-02,2.95866e-12,-9.05424e-02,6.08168e-12,-9.05424e-02
8.52180e+02,6.32000e+02,6.24000e+02,8.00000e+00,3.88054e-12,-8.29972e-02,7.58136e-13,-8.29972e-02,4.60423e-12,-8.29972e-02
8.52428e+02,6.32000e+02,6.24000e+02,8.00000e+00,3.27784e-12,-7.54520e-02,2.42104e-12,-7.54520e-02,1.15802e-12,-7.54520e-02
8.52675e+02,6.60000e+02,6.46000e+02,1.40000e+01,5.55570e-12,-6.79068e-02,6.67225e-12,-6.79068e-02,1.61377e-12,-6.79068e-02
8.52923e+02,6.29000e+02,6.05000e+02,2.40000e+01,7.39348e-12,-6.03616e-02,7.43519e-12,-6.03616e-02,1.18257e-12,-6.03616e-02
8.53170e+02,6.36000e+02,6.26000e+02,1.00000e+01,8.02050e-12,-5.28164e-02,7.02172e-12,-5.28164e-02,1.28526e-12,-5.28164e-02
8.53418e+02,6.25000e+02,6.28000e+02,-3.00000e+00,5.86837e-12,-4.52712e-02,4.82267e-12,-4.52712e-02,1.93965e-12,-4.52712e-02
8.53666e+02,6.41000e+02,6.32000e+02,9.00000e+00,3.60626e-12,-3.77260e-02,2.21568e-12,-3.77260e-02,1.59537e-12,-3.77260e-02
8.53913e+02,6.49000e+02,6.32000e+02,1.70000e+01,4.23753e-12,-3.01808e-02,2.92035e-12,-3.01808e-02,1.37841e-12,-3.01808e-02
8.54161e+02,6.29000e+02,6.37000e+02,-8.00000e+00,1.95566e-11,-2.26356e-02,1.98073e-11,-2.26356e-02,1.14756e-12,-2.26356e-02
8.54409e+02,6.27000e+02,6.41000e+02,-1.40000e+01,8.59336e-11,-1.50904e-02,8.43437e-11,-1.50904e-02,5.02845e-12,-1.50904e-02
8.54656e+02,6.36000e+02,6.30000e+02,6.00000e+00,2.38701e-10,-7.54520e-03,2.36381e-10,-7.54520e-03,4.90005e-12,-7.54520e-03
