7.67698e+02,6.24000e+02,6.17000e+02,7.00000e+00,3.88989e-10,0.00000e+00,3.88692e-10,0.00000e+00,2.96147e-13,0.00000e+00
7.67949e+02,6.68000e+02,6.64000e+02,4.00000e+00,2.30388e-10,7.54520e-03,2.30802e-10,7.54520e-03,4.91153e-12,7.54520e-03
7.68199e+02,6.27000e+02,6.22000e+02,5.00000e+00,7.82791e-11,1.50904e-02,8.11369e-11,1.50904e-02,6.57950e-12,1.50904e-02
7.68450e+02,6.31000e+02,6.36000e+02,-5.00000e+00,1.29039e-11,2.26356e-02,1.65538e-11,2.26356e-02,3.96085e-12,2.26356e-02
7.68701e+02,6.29000e+02,6.52000e+02,-2.30000e+01,1.80162e-12,3.01808e-02,1.58407e-12,3.01808e-02,3.38404e-12,3.01808e-02
7.68951e+02,6.44000e+02,6.52000e+02,-8.00000e+00,2.74807e-12,3.77260e-02,1.69025e-12,3.77260e-02,4.18488e-12,3.77260e-02
7.69202e+02,6.24000e+02,6.44000e+02,-2.00000e+01,8.60335e-12,4.52712e-02,3.18244e-12,4.52712e-02,5.50343e-12,4.52712e-02
7.69453e+02,6.14000e+02,6.45000e+02,-3.10000e+01,1.29820e-11,5.28164e-02,6.28876e-12,5.28164e-02,6.72613e-12,5.28164e-02
7.69703e+02,6.35000e+02,6.19000e+02,1.60000e+01,9.68005e-12,6.03616e-02,6.10526e-12,6.03616e-02,4.34328e-12,6.03616e-02
7.69954e+02,6.43000e+02,6.31000e+02,1.20000e+01,3.53144e-12,6.79068e-02,4.74792e-12,6.79068e-02,1.86147e-12,6.79068e-02
7.70205e+02,6.42000e+02,6.34000e+02,8.00000e+00,2.41494e-12,7.54520e-02,2.04906e-12,7.54520e-02,1.40775e-12,7.54520e-02
7.70455e+02,6.91000e+02,6.52000e+02,3.90000e+01,1.87406e-12,8.29972e-02,3.65756e-13,8.29972e-02,1.51153e-12,8.29972e-02
7.70706e+02,6.50000e+02,6.03000e+02,4.70000e+01,4.27357e-13,9.05424e-02,2.34186e-12,9.05424e-02,2.23873e-12,9.05424e-02
7.70957e+02,6.74000e+02,6.24000e+02,5.00000e+01,2.02617e-12,9.80876e-02,3.02948e-12,9.80876e-02,2.10779e-12,9.80876e-02
7.71207e+02,6.67000e+02,6.40000e+02,2.70000e+01,3.37108e-12,1.05633e-01,2.97394e-12,1.05633e-01,4.12932e-12,1.05633e-01
7.71458e+02,6.46000e+02,6.52000e+02,-6.00000e+00,2.25394e-12,1.13178e-01,4.29672e-12,1.13178e-01,5.53147e-12,1.13178e-01
7.71708e+02,6.33000e+02,6.71000e+02,-3.80000e+01,2.42812e-12,1.20723e-01,3.69810e-12,1.20723e-01,4.46137e-12,1.20723e-01
7.71959e+02,6.22000e+02,7.22000e+02,-1.00000e+02,3.47017e-12,1.28268e-01,2.11255e-12,1.28268e-01,3.78805e-12,1.28268e-01
7.72210e+02,6.16000e+02,6.99000e+02,-8.30000e+01,2.16413e-12,1.35814e-01,1.08785e-12,1.35814e-01,2.28127e-12,1.35814e-01
7.72460e+02,6.35000e+02,6.94000e+02,-5.90000e+01,4.72617e-12,1.43359e-01,2.48137e-12,1.43359e-01,2.37225e-12,1.43359e-01
7.72711e+02,6.36000e+02,6.62000e+02,-2.60000e+01,6.39121e-12,1.50904e-01,5.84025e-12,1.50904e-01,1.77839e-12,1.50904e-01
7.72961e+02,7.08000e+02,6.79000e+02,2.90000e+01,2.98216e-12,1.58449e-01,3.99536e-12,1.58449e-01,1.10119e-12,1.58449e-01
7.73212e+02,6.68000e+02,6.28000e+02,4.00000e+01,6.24672e-12,1.65994e-01,2.60416e-12,1.65994e-01,8.39936e-12,1.65994e-01
7.73462e+02,7.18000e+02,6.35000e+02,8.30000e+01,6.21420e-12,1.73540e-01,3.86275e-12,1.73540e-01,6.67834e-12,1.73540e-01
7.73713e+02,7.14000e+02,6.33000e+02,8.10000e+01,8.11917e-12,1.81085e-01,1.51533e-11,1.81085e-01,2.32013e-11,1.81085e-01
7.73963e+02,7.38000e+02,6.47000e+02,9.10000e+01,3.06283e-11,1.88630e-01,3.76540e-11,1.88630e-01,6.75578e-11,1.88630e-01
7.74214e+02,6.98000e+02,6.49000e+02,4.90000e+01,7.87237e-11,1.96175e-01,8.27814e-11,1.96175e-01,1.59799e-10,1.96175e-01
7.74465e+02,7.09000e+02,7.06000e+02,3.00000e+00,1.16108e-10,2.03720e-01,1.16168e-10,2.03720e-01,2.30065e-10,2.03720e-01
7.74715e+02,6.68000e+02,7.37000e+02,-6.90000e+01,8.66681e-11,2.11266e-01,8.50822e-11,2.11266e-01,1.70301e-10,2.11266e-01
7.74965e+02,6.51000e+02,8.15000e+02,-1.64000e+02,2.96254e-11,2.18811e-01,2.66844e-11,2.18811e-01,5.61371e-11,2.18811e-01
7.75216e+02,6.30000e+02,7.75000e+02,-1.45000e+02,6.05520e-12,2.26356e-01,4.64716e-12,2.26356e-01,9.22857e-12,2.26356e-01
7.75466e+02,6.75000e+02,8.63000e+02,-1.88000e+02,3.79979e-12,2.33901e-01,9.17848e-12,2.33901e-01,1.29681e-11,2.33901e-01
7.75717e+02,6.26000e+02,7.41000e+02,-1.15000e+02,4.77613e-12,2.41446e-01,6.52438e-12,2.41446e-01,9.48748e-12,2.41446e-01
7.75967e+02,6.66000e+02,7.31000e+02,-6.50000e+01,6.93866e-12,2.48992e-01,1.58297e-12,2.48992e-01,8.37299e-12,2.48992e-01
7.76218e+02,7.02000e+02,6.61000e+02,4.10000e+01,5.07031e-12,2.56537e-01,4.39254e-12,2.56537e-01,9.21102e-12,2.56537e-01
7.76468e+02,7.99000e+02,6.56000e+02,1.43000e+02,2.16569e-12,2.64082e-01,5.09475e-12,2.64082e-01,7.23101e-12,2.64082e-01
7.76719e+02,8.16000e+02,6.30000e+02,1.86000e+02,1.53305e-12,2.71627e-01,3.33294e-12,2.71627e-01,3.18199e-12,2.71627e-01
7.76969e+02,9.02000e+02,6.44000e+02,2.58000e+02,2.73376e-12,2.79172e-01,8.74044e-13,2.79172e-01,2.77346e-12,2.79172e-01
7.77219e+02,8.42000e+02,6.51000e+02,1.91000e+02,2.28681e-12,2.86718e-01,1.77491e-12,2.86718e-01,3.83832e-12,2.86718e-01
7.77470e+02,9.52000e+02,7.68000e+02,1.84000e+02,8.35780e-13,2.94263e-01,9.96367e-13,2.94263e-01,1.79581e-12,2.94263e-01
7.77720e+02,8.13000e+02,8.86000e+02,-7.30000e+01,2.06307e-12,3.01808e-01,1.33494e-12,3.01808e-01,2.32563e-12,3.01808e-01
7.77971e+02,7.58000e+02,1.09600e+03,-3.38000e+02,3.16705e-12,3.09353e-01,3.00537e-12,3.09353e-01,2.01590e-12,3.09353e-01
7.78221e+02,6.45000e+02,1.09900e+03,-4.54000e+02,1.99380e-12,3.16898e-01,4.51193e-12,3.16898e-01,4.80235e-12,3.16898e-01
7.78471e+02,6.53000e+02,1.15500e+03,-5.02000e+02,2.44259e-12,3.24444e-01,4.56676e-12,3.24444e-01,6.88863e-12,3.24444e-01
7.78722e+02,6.44000e+02,1.04100e+03,-3.97000e+02,2.51750e-12,3.31989e-01,3.98793e-12,3.31989e-01,6.40245e-12,3.31989e-01
7.78972e+02,7.07000e+02,1.03500e+03,-3.28000e+02,1.40858e-12,3.39534e-01,3.68717e-12,3.39534e-01,4.04481e-12,3.39534e-01
7.79222e+02,8.21000e+02,8.83000e+02,-6.20000e+01,1.95001e-12,3.47079e-01,3.95537e-12,3.47079e-01,2.69022e-12,3.47079e-01
7.79473e+02,1.10000e+03,7.66000e+02,3.34000e+02,1.97168e-12,3.54624e-01,6.62231e-12,3.54624e-01,6.47677e-12,3.54624e-01
7.79723e+02,1.26200e+03,6.81000e+02,5.81000e+02,2.38487e-12,3.62169e-01,6.87920e-12,3.62169e-01,4.58585e-12,3.62169e-01
7.79973e+02,1.45500e+03,6.72000e+02,7.83000e+02,4.21350e-12,3.69715e-01,3.87382e-12,3.69715e-01,1.67887e-12,3.69715e-01
7.80224e+02,1.45800e+03,6.97000e+02,7.61000e+02,4.54697e-12,3.77260e-01,1.49315e-12,3.77260e-01,3.62154e-12,3.77260e-01
7.80474e+02,1.49200e+03,9.12000e+02,5.80000e+02,4.72575e-12,3.84805e-01,1.15065e-12,3.84805e-01,3.58909e-12,3.84805e-01
7.80724e+02,1.16200e+03,1.00900e+03,1.53000e+02,5.22236e-12,3.92350e-01,1.90294e-12,3.92350e-01,3.31946e-12,3.92350e-01
7.80974e+02,9.55000e+02,1.40100e+03,-4.46000e+02,5.30235e-12,3.99895e-01,2.52634e-12,3.99895e-01,2.91919e-12,3.99895e-01
7.81225e+02,7.99000e+02,1.66100e+03,-8.62000e+02,5.03354e-12,4.07441e-01,2.14649e-12,4.07441e-01,3.09107e-12,4.07441e-01
7.81475e+02,7.22000e+02,1.88200e+03,-1.16000e+03,3.77640e-12,4.14986e-01,1.47658e-12,4.14986e-01,2.37874e-12,4.14986e-01
7.81725e+02,6.94000e+02,1.75000e+03,-1.05600e+03,3.31265e-12,4.22531e-01,2.59909e-12,4.22531e-01,2.11049e-12,4.22531e-01
7.81975e+02,7.77000e+02,1.66500e+03,-8.88000e+02,1.82472e-12,4.30076e-01,4.20642e-12,4.30076e-01,3.59463e-12,4.30076e-01
7.82226e+02,9.93000e+02,1.27400e+03,-2.81000e+02,1.31615e-12,4.37621e-01,4.76726e-12,4.37621e-01,5.28193e-12,4.37621e-01
7.82476e+02,1.36300e+03,9.84000e+02,3.79000e+02,3.87342e-12,4.45167e-01,2.89026e-12,4.45167e-01,5.95853e-12,4.45167e-01
7.82726e+02,1.66600e+03,7.66000e+02,9.00000e+02,3.30600e-12,4.52712e-01,1.50984e-12,4.52712e-01,4.80962e-12,4.52712e-01
7.82976e+02,1.88300e+03,7.55000e+02,1.12800e+03,9.22943e-13,4.60257e-01,1.52482e-12,4.60257e-01,1.76638e-12,4.60257e-01
7.83226e+02,1.86900e+03,7.20000e+02,1.14900e+03,1.09158e-12,4.67802e-01,1.60127e-12,4.67802e-01,9.13350e-13,4.67802e-01
7.83477e+02,1.99500e+03,1.00200e+03,9.93000e+02,2.55925e-12,4.75347e-01,2.13649e-12,4.75347e-01,1.39049e-12,4.75347e-01
7.83727e+02,1.74300e+03,1.34900e+03,3.94000e+02,2.57721e-12,4.82893e-01,1.43688e-12,4.82893e-01,1.39911e-12,4.82893e-01
7.83977e+02,1.52200e+03,1.88900e+03,-3.67000e+02,1.32484e-12,4.90438e-01,5.15494e-13,4.90438e-01,1.22582e-12,4.90438e-01
7.84227e+02,1.17200e+03,2.26400e+03,-1.09200e+03,1.14100e-12,4.97983e-01,1.25777e-12,4.97983e-01,1.74559e-12,4.97983e-01
7.84477e+02,9.65000e+02,2.76200e+03,-1.79700e+03,1.19325e-12,5.05528e-01,2.04906e-12,5.05528e-01,1.24389e-12,5.05528e-01
7.84727e+02,8.03000e+02,2.59600e+03,-1.79300e+03,7.57171e-13,5.13073e-01,2.15176e-12,5.13073e-01,1.52157e-12,5.13073e-01
7.84978e+02,8.84000e+02,2.58400e+03,-1.70000e+03,2.22547e-13,5.20619e-01,1.81503e-12,5.20619e-01,1.87293e-12,5.20619e-01
7.85228e+02,1.19800e+03,2.33700e+03,-1.13900e+03,1.45229e-12,5.28164e-01,2.08087e-12,5.28164e-01,7.98123e-13,5.28164e-01
7.85478e+02,1.91200e+03,1.90700e+03,5.00000e+00,2.04734e-12,5.35709e-01,2.42561e-12,5.35709e-01,1.23064e-12,5.35709e-01
7.85728e+02,2.53300e+03,1.32400e+03,1.20900e+03,2.06476e-12,5.43254e-01,1.64403e-12,5.43254e-01,2.26403e-12,5.43254e-01
7.85978e+02,3.14200e+03,9.51000e+02,2.19100e+03,1.29066e-12,5.50799e-01,1.16197e-12,5.50799e-01,2.20694e-12,5.50799e-01
7.86228e+02,3.34500e+03,8.42000e+02,2.50300e+03,6.30680e-13,5.58345e-01,8.99126e-13,5.58345e-01,1.27957e-12,5.58345e-01
7.86478e+02,3.35000e+03,1.10000e+03,2.25000e+03,1.96070e-12,5.65890e-01,1.40095e-12,5.65890e-01,2.44847e-12,5.65890e-01
7.86728e+02,3.10800e+03,1.55400e+03,1.55400e+03,2.87429e-12,5.73435e-01,1.67370e-12,5.73435e-01,3.24774e-12,5.73435e-01
7.86978e+02,2.74100e+03,2.14500e+03,5.96000e+02,2.78968e-12,5.80980e-01,1.65478e-12,5.80980e-01,2.27672e-12,5.80980e-01
7.87228e+02,2.14300e+03,2.76000e+03,-6.17000e+02,2.99945e-12,5.88525e-01,1.36398e-12,5.88525e-01,1.70312e-12,5.88525e-01
7.87478e+02,1.51100e+03,3.19200e+03,-1.68100e+03,3.31547e-12,5.96071e-01,9.28910e-13,5.96071e-01,2.42096e-12,5.96071e-01
7.87728e+02,9.96000e+02,3.41100e+03,-2.41500e+03,3.00959e-12,6.03616e-01,5.30208e-13,6.03616e-01,2.92499e-12,6.03616e-01
7.87978e+02,1.02300e+03,3.70400e+03,-2.68100e+03,2.48320e-12,6.11161e-01,3.83104e-13,6.11161e-01,2.85682e-12,6.11161e-01
7.88228e+02,1.15200e+03,3.36800e+03,-2.21600e+03,1.93035e-12,6.18706e-01,1.51577e-12,6.18706e-01,3.42632e-12,6.18706e-01
7.88478e+02,1.81000e+03,3.00800e+03,-1.19800e+03,1.52664e-12,6.26251e-01,2.90658e-12,6.26251e-01,4.12839e-12,6.26251e-01
7.88728e+02,2.53000e+03,2.32200e+03,2.08000e+02,1.44702e-12,6.33797e-01,3.48286e-12,6.33797e-01,3.60118e-12,6.33797e-01
7.88978e+02,3.34900e+03,1.63900e+03,1.71000e+03,7.50539e-13,6.41342e-01,2.99568e-12,6.41342e-01,2.24584e-12,6.41342e-01
7.89228e+02,4.33700e+03,1.04400e+03,3.29300e+03,1.82925e-12,6.48887e-01,1.78671e-12,6.48887e-01,1.45971e-12,6.48887e-01
7.89478e+02,5.16800e+03,9.76000e+02,4.19200e+03,1.27151e-12,6.56432e-01,9.22186e-13,6.56432e-01,3.61527e-13,6.56432e-01
7.89728e+02,5.24600e+03,1.29100e+03,3.95500e+03,7.33509e-13,6.63977e-01,8.74834e-13,6.63977e-01,2.56129e-13,6.63977e-01
7.89978e+02,5.04600e+03,2.10200e+03,2.94400e+03,9.09760e-13,6.71523e-01,8.19867e-13,6.71523e-01,9.00576e-14,6.71523e-01
7.90228e+02,4.07100e+03,3.10500e+03,9.66000e+02,9.22753e-13,6.79068e-01,5.41654e-13,6.79068e-01,5.84802e-13,6.79068e-01
7.90478e+02,3.12700e+03,4.25500e+03,-1.12800e+03,4.72243e-13,6.86613e-01,7.75314e-13,6.86613e-01,1.23710e-12,6.86613e-01
7.90728e+02,2.11000e+03,5.04500e+03,-2.93500e+03,1.32962e-12,6.94158e-01,1.18271e-12,6.94158e-01,1.42734e-12,6.94158e-01
7.90978e+02,1.52200e+03,5.88300e+03,-4.36100e+03,2.46314e-12,7.01703e-01,1.47081e-12,7.01703e-01,1.06421e-12,7.01703e-01
7.91228e+02,1.24900e+03,5.65500e+03,-4.40600e+03,1.97025e-12,7.09249e-01,1.38361e-12,7.09249e-01,7.95878e-13,7.09249e-01
7.91478e+02,1.55900e+03,4.80600e+03,-3.24700e+03,8.03621e-13,7.16794e-01,1.08472e-12,7.16794e-01,6.38324e-13,7.16794e-01
7.91728e+02,2.18800e+03,3.56000e+03,-1.37200e+03,2.61355e-13,7.24339e-01,8.10832e-13,7.24339e-01,5.55793e-13,7.24339e-01
7.91977e+02,3.12200e+03,2.64800e+03,4.74000e+02,3.01263e-13,7.31884e-01,6.92824e-13,7.31884e-01,7.01683e-13,7.31884e-01
7.92227e+02,4.02600e+03,1.72400e+03,2.30200e+03,1.02799e-12,7.39429e-01,5.30201e-13,7.39429e-01,1.54844e-12,7.39429e-01
7.92477e+02,5.79000e+03,1.38000e+03,4.41000e+03,1.22449e-12,7.46975e-01,7.00995e-13,7.46975e-01,1.74109e-12,7.46975e-01
7.92727e+02,6.78200e+03,1.28500e+03,5.49700e+03,6.28332e-13,7.54520e-01,4.51827e-13,7.54520e-01,9.19540e-13,7.54520e-01
7.92977e+02,6.84000e+03,1.85800e+03,4.98200e+03,3.40642e-13,7.62065e-01,5.07668e-13,7.62065e-01,2.31193e-13,7.62065e-01
7.93227e+02,5.53500e+03,2.58700e+03,2.94800e+03,1.22495e-12,7.69610e-01,1.26020e-12,7.69610e-01,8.14193e-13,7.69610e-01
7.93476e+02,4.42500e+03,3.67400e+03,7.51000e+02,1.30076e-12,7.77155e-01,1.08274e-12,7.77155e-01,6.75803e-13,7.77155e-01
7.93726e+02,3.31400e+03,5.02100e+03,-1.70700e+03,1.13357e-12,7.84701e-01,4.04035e-13,7.84701e-01,1.04408e-12,7.84701e-01
7.93976e+02,2.52400e+03,6.46800e+03,-3.94400e+03,5.77554e-13,7.92246e-01,1.61606e-12,7.92246e-01,2.02608e-12,7.92246e-01
7.94226e+02,1.63900e+03,7.00200e+03,-5.36300e+03,7.91530e-13,7.99791e-01,1.29397e-12,7.99791e-01,2.07728e-12,7.99791e-01
7.94476e+02,1.61600e+03,7.05400e+03,-5.43800e+03,8.40552e-13,8.07336e-01,1.08100e-12,8.07336e-01,1.28378e-12,8.07336e-01
7.94725e+02,2.05900e+03,5.84900e+03,-3.79000e+03,1.10345e-12,8.14881e-01,1.11440e-12,8.14881e-01,6.52236e-13,8.14881e-01
7.94975e+02,3.25600e+03,4.76800e+03,-1.51200e+03,1.85731e-12,8.22427e-01,1.48120e-12,8.22427e-01,9.37722e-13,8.22427e-01
7.95225e+02,4.67500e+03,3.30900e+03,1.36600e+03,2.26364e-12,8.29972e-01,1.74613e-12,8.29972e-01,1.50792e-12,8.29972e-01
7.95475e+02,6.04400e+03,2.39300e+03,3.65100e+03,1.81759e-12,8.37517e-01,1.33362e-12,8.37517e-01,1.44702e-12,8.37517e-01
7.95724e+02,7.16600e+03,1.74000e+03,5.42600e+03,8.63175e-13,8.45062e-01,7.55853e-13,8.45062e-01,5.78218e-13,8.45062e-01
7.95974e+02,7.76200e+03,1.85900e+03,5.90300e+03,4.83391e-13,8.52607e-01,5.55029e-13,8.52607e-01,1.11705e-13,8.52607e-01
7.96224e+02,7.69800e+03,2.74700e+03,4.95100e+03,3.79774e-13,8.60153e-01,6.50194e-13,8.60153e-01,2.79166e-13,8.60153e-01
7.96474e+02,7.27000e+03,4.32100e+03,2.94900e+03,5.97842e-13,8.67698e-01,8.49004e-13,8.67698e-01,4.16800e-13,8.67698e-01
7.96723e+02,5.47300e+03,5.60400e+03,-1.31000e+02,6.83361e-13,8.75243e-01,1.08708e-12,8.75243e-01,1.07521e-12,8.75243e-01
7.96973e+02,3.75600e+03,7.12500e+03,-3.36900e+03,1.05406e-12,8.82788e-01,9.32517e-13,8.82788e-01,1.58664e-12,8.82788e-01
7.97223e+02,2.52100e+03,9.09000e+03,-6.56900e+03,1.41332e-12,8.90333e-01,5.14055e-13,8.90333e-01,1.92727e-12,8.90333e-01
7.97472e+02,1.84100e+03,8.88000e+03,-7.03900e+03,1.30833e-12,8.97879e-01,6.44613e-13,8.97879e-01,1.78282e-12,8.97879e-01
7.97722e+02,2.15400e+03,9.15300e+03,-6.99900e+03,1.04213e-12,9.05424e-01,1.04415e-12,9.05424e-01,1.33147e-12,9.05424e-01
7.97972e+02,3.37600e+03,8.10400e+03,-4.72800e+03,1.04186e-12,9.12969e-01,1.25474e-12,9.12969e-01,7.31231e-13,9.12969e-01
7.98221e+02,5.52800e+03,5.82600e+03,-2.98000e+02,1.01042e-12,9.20514e-01,1.15146e-12,9.20514e-01,1.42604e-13,9.20514e-01
7.98471e+02,7.82400e+03,3.80400e+03,4.02000e+03,9.12591e-13,9.28059e-01,1.06636e-12,9.28059e-01,1.68916e-13,9.28059e-01
7.98721e+02,9.95900e+03,2.43800e+03,7.52100e+03,7.22960e-13,9.35605e-01,1.37582e-12,9.35605e-01,8.14319e-13,9.35605e-01
7.98970e+02,1.22780e+04,2.10400e+03,1.01740e+04,9.04139e-13,9.43150e-01,8.35614e-13,9.43150e-01,1.32269e-12,9.43150e-01
7.99220e+02,1.23390e+04,2.88900e+03,9.45000e+03,1.25882e-12,9.50695e-01,1.74953e-13,9.50695e-01,1.31765e-12,9.50695e-01
7.99469e+02,1.05280e+04,4.42400e+03,6.10400e+03,1.00011e-12,9.58240e-01,3.29116e-13,9.58240e-01,8.31362e-13,9.58240e-01
7.99719e+02,8.16900e+03,6.35300e+03,1.81600e+03,2.96239e-13,9.65785e-01,1.41445e-13,9.65785e-01,1.61300e-13,9.65785e-01
7.99969e+02,5.86800e+03,8.49600e+03,-2.62800e+03,5.87134e-13,9.73331e-01,6.20623e-13,9.73331e-01,6.98976e-13,9.73331e-01
8.00218e+02,3.97800e+03,1.05560e+04,-6.57800e+03,1.15461e-12,9.80876e-01,4.86338e-13,9.80876e-01,9.28620e-13,9.80876e-01
8.00468e+02,2.66100e+03,1.13580e+04,-8.69700e+03,1.23583e-12,9.88421e-01,6.14513e-13,9.88421e-01,9.02987e-13,9.88421e-01
8.00717e+02,2.36900e+03,1.07900e+04,-8.42100e+03,1.15772e-12,9.95966e-01,9.79924e-13,9.95966e-01,1.00704e-12,9.95966e-01
8.00967e+02,3.37200e+03,9.43600e+03,-6.06400e+03,7.03506e-13,1.00351e+00,6.48880e-13,1.00351e+00,6.96776e-13,1.00351e+00
8.01216e+02,5.72700e+03,7.84500e+03,-2.11800e+03,2.91263e-13,1.01106e+00,1.08371e-13,1.01106e+00,3.10592e-13,1.01106e+00
8.01466e+02,8.08700e+03,6.03600e+03,2.05100e+03,2.91417e-13,1.01860e+00,3.55981e-13,1.01860e+00,7.24911e-14,1.01860e+00
8.01715e+02,1.07730e+04,3.95800e+03,6.81500e+03,4.57103e-13,1.02615e+00,6.11916e-13,1.02615e+00,1.05802e-12,1.02615e+00
8.01965e+02,1.26740e+04,2.64400e+03,1.00300e+04,9.75103e-13,1.03369e+00,5.01435e-13,1.03369e+00,1.42102e-12,1.03369e+00
8.02215e+02,1.31520e+04,2.57900e+03,1.05730e+04,9.76063e-13,1.04124e+00,3.36556e-13,1.04124e+00,9.20761e-13,1.04124e+00
8.02464e+02,1.28620e+04,4.11400e+03,8.74800e+03,6.36397e-13,1.04878e+00,6.60768e-13,1.04878e+00,2.34421e-13,1.04878e+00
8.02713e+02,1.14640e+04,6.25800e+03,5.20600e+03,3.44684e-13,1.05633e+00,6.04271e-13,1.05633e+00,3.84896e-13,1.05633e+00
8.02963e+02,8.89300e+03,9.46100e+03,-5.68000e+02,5.04387e-13,1.06387e+00,4.90231e-13,1.06387e+00,3.53102e-13,1.06387e+00
8.03212e+02,6.49900e+03,1.28220e+04,-6.32300e+03,5.87267e-13,1.07142e+00,4.38921e-13,1.07142e+00,3.79984e-13,1.07142e+00
8.03462e+02,4.17400e+03,1.47560e+04,-1.05820e+04,3.01281e-13,1.07896e+00,4.42308e-13,1.07896e+00,2.56220e-13,1.07896e+00
8.03711e+02,2.53400e+03,1.51800e+04,-1.26460e+04,4.83861e-13,1.08651e+00,7.08747e-13,1.08651e+00,2.67768e-13,1.08651e+00
8.03961e+02,2.73300e+03,1.33340e+04,-1.06010e+04,4.50460e-13,1.09405e+00,1.12298e-12,1.09405e+00,6.99095e-13,1.09405e+00
8.04210e+02,4.08200e+03,1.05740e+04,-6.49200e+03,4.89151e-13,1.10160e+00,6.45426e-13,1.10160e+00,2.49060e-13,1.10160e+00
8.04460e+02,6.95300e+03,7.99300e+03,-1.04000e+03,1.01883e-13,1.10914e+00,1.30500e-13,1.10914e+00,3.82214e-14,1.10914e+00
8.04709e+02,1.02510e+04,5.87800e+03,4.37300e+03,5.36601e-13,1.11669e+00,5.03100e-13,1.11669e+00,1.00798e-12,1.11669e+00
8.04958e+02,1.26210e+04,3.60000e+03,9.02100e+03,3.18843e-13,1.12423e+00,6.73329e-13,1.12423e+00,8.85682e-13,1.12423e+00
8.05208e+02,1.38620e+04,2.57900e+03,1.12830e+04,4.74730e-13,1.13178e+00,4.78225e-13,1.13178e+00,8.75990e-13,1.13178e+00
8.05457e+02,1.33060e+04,3.01200e+03,1.02940e+04,7.83914e-13,1.13932e+00,1.19526e-12,1.13932e+00,1.63606e-12,1.13932e+00
8.05707e+02,1.35240e+04,4.73700e+03,8.78700e+03,1.03921e-12,1.14687e+00,1.11691e-12,1.14687e+00,1.48191e-12,1.14687e+00
8.05956e+02,1.26130e+04,7.41900e+03,5.19400e+03,7.93700e-13,1.15442e+00,3.98363e-13,1.15442e+00,5.49132e-13,1.15442e+00
8.06205e+02,9.15000e+03,9.78400e+03,-6.34000e+02,3.40552e-13,1.16196e+00,5.02433e-13,1.16196e+00,5.81664e-13,1.16196e+00
8.06455e+02,6.06400e+03,1.26480e+04,-6.58400e+03,9.02323e-14,1.16951e+00,7.54589e-13,1.16951e+00,6.64522e-13,1.16951e+00
8.06704e+02,4.05700e+03,1.44340e+04,-1.03770e+04,3.56728e-13,1.17705e+00,6.05902e-13,1.17705e+00,7.09799e-13,1.17705e+00
8.06953e+02,2.79500e+03,1.49230e+04,-1.21280e+04,7.33492e-13,1.18460e+00,4.79577e-13,1.18460e+00,1.11618e-12,1.18460e+00
8.07203e+02,2.79500e+03,1.31810e+04,-1.03860e+04,8.98190e-13,1.19214e+00,4.95133e-13,1.19214e+00,1.30864e-12,1.19214e+00
8.07452e+02,4.41800e+03,1.18790e+04,-7.46100e+03,8.74266e-13,1.19969e+00,5.73718e-13,1.19969e+00,7.83508e-13,1.19969e+00
8.07701e+02,7.45600e+03,9.43400e+03,-1.97800e+03,9.54845e-13,1.20723e+00,6.90830e-13,1.20723e+00,3.77082e-13,1.20723e+00
8.07951e+02,1.01970e+04,6.63700e+03,3.56000e+03,1.05516e-12,1.21478e+00,8.69907e-13,1.21478e+00,1.23281e-12,1.21478e+00
8.08200e+02,1.17330e+04,4.24900e+03,7.48400e+03,1.00028e-12,1.22232e+00,7.61139e-13,1.22232e+00,1.48080e-12,1.22232e+00
8.08449e+02,1.37330e+04,2.99800e+03,1.07350e+04,8.26712e-13,1.22987e+00,5.03023e-13,1.22987e+00,1.25840e-12,1.22987e+00
8.08698e+02,1.50240e+04,3.31200e+03,1.17120e+04,6.64159e-13,1.23741e+00,4.37448e-13,1.23741e+00,1.06054e-12,1.23741e+00
8.08948e+02,1.52740e+04,5.26200e+03,1.00120e+04,6.04649e-13,1.24496e+00,1.78143e-13,1.24496e+00,7.39835e-13,1.24496e+00
8.09197e+02,1.42810e+04,8.18300e+03,6.09800e+03,2.71259e-13,1.25250e+00,4.13367e-13,1.25250e+00,5.55677e-13,1.25250e+00
8.09446e+02,1.04910e+04,1.06890e+04,-1.98000e+02,3.66761e-13,1.26005e+00,5.39489e-13,1.26005e+00,7.13909e-13,1.26005e+00
8.09695e+02,6.88300e+03,1.40750e+04,-7.19200e+03,3.60541e-13,1.26759e+00,6.01708e-13,1.26759e+00,9.56835e-13,1.26759e+00
8.09945e+02,4.55000e+03,1.54030e+04,-1.08530e+04,6.14566e-13,1.27514e+00,5.27576e-13,1.27514e+00,9.61688e-13,1.27514e+00
8.10194e+02,3.27300e+03,1.54930e+04,-1.22200e+04,7.46452e-13,1.28268e+00,3.86800e-14,1.28268e+00,7.08273e-13,1.28268e+00
8.10443e+02,3.49300e+03,1.50960e+04,-1.16030e+04,6.28246e-13,1.29023e+00,5.01955e-13,1.29023e+00,1.26295e-13,1.29023e+00
8.10692e+02,5.38800e+03,1.34020e+04,-8.01400e+03,2.15401e-13,1.29777e+00,5.00271e-13,1.29777e+00,3.34148e-13,1.29777e+00
8.10941e+02,8.59200e+03,1.05850e+04,-1.99300e+03,5.16480e-13,1.30532e+00,3.48597e-13,1.30532e+00,1.74220e-13,1.30532e+00
8.11191e+02,1.14300e+04,7.15100e+03,4.27900e+03,3.29532e-13,1.31286e+00,4.34793e-13,1.31286e+00,2.27066e-13,1.31286e+00
8.11440e+02,1.49070e+04,4.59800e+03,1.03090e+04,1.65664e-12,-1.32041e+00,1.37331e-12,-1.32041e+00,2.83324e-13,-1.32041e+00
8.11689e+02,1.57360e+04,3.26000e+03,1.24760e+04,3.29532e-13,-1.31286e+00,4.34793e-13,-1.31286e+00,2.27066e-13,-1.31286e+00
8.11938e+02,1.58160e+04,3.57600e+03,1.22400e+04,5.16480e-13,-1.30532e+00,3.48597e-13,-1.30532e+00,1.74220e-13,-1.30532e+00
8.12187e+02,1.58300e+04,5.51000e+03,1.03200e+04,2.15401e-13,-1.29777e+00,5.00271e-13,-1.29777e+00,3.34148e-13,-1.29777e+00
8.12436e+02,1.53270e+04,8.41500e+03,6.91200e+03,6.28246e-13,-1.29023e+00,5.01955e-13,-1.29023e+00,1.26295e-13,-1.29023e+00
8.12685e+02,1.15120e+04,1.19100e+04,-3.98000e+02,7.46452e-13,-1.28268e+00,3.86800e-14,-1.28268e+00,7.08273e-13,-1.28268e+00
8.12935e+02,7.85200e+03,1.41490e+04,-6.29700e+03,6.14566e-13,-1.27514e+00,5.27576e-13,-1.27514e+00,9.61688e-13,-1.27514e+00
8.13184e+02,5.02700e+03,1.50950e+04,-1.00680e+04,3.60541e-13,-1.26759e+00,6.01708e-13,-1.26759e+00,9.56835e-13,-1.26759e+00
8.13433e+02,3.46600e+03,1.54210e+04,-1.19550e+04,3.66761e-13,-1.26005e+00,5.39489e-13,-1.26005e+00,7.13909e-13,-1.26005e+00
8.13682e+02,3.48300e+03,1.53910e+04,-1.19080e+04,2.71259e-13,-1.25250e+00,4.13367e-13,-1.25250e+00,5.55677e-13,-1.25250e+00
8.13931e+02,5.13800e+03,1.46380e+04,-9.50000e+03,6.04649e-13,-1.24496e+00,1.78143e-13,-1.24496e+00,7.39835e-13,-1.24496e+00
8.14180e+02,7.50000e+03,1.12130e+04,-3.71300e+03,6.64159e-13,-1.23741e+00,4.37448e-13,-1.23741e+00,1.06054e-12,-1.23741e+00
8.14429e+02,1.09240e+04,7.98100e+03,2.94300e+03,8.26712e-13,-1.22987e+00,5.03023e-13,-1.22987e+00,1.25840e-12,-1.22987e+00
8.14678e+02,1.41190e+04,5.15200e+03,8.96700e+03,1.00028e-12,-1.22232e+00,7.61139e-13,-1.22232e+00,1.48080e-12,-1.22232e+00
8.14927e+02,1.48820e+04,3.04300e+03,1.18390e+04,1.05516e-12,-1.21478e+00,8.69907e-13,-1.21478e+00,1.23281e-12,-1.21478e+00
8.15176e+02,1.49400e+04,2.91700e+03,1.20230e+04,9.54845e-13,-1.20723e+00,6.90830e-13,-1.20723e+00,3.77082e-13,-1.20723e+00
8.15425e+02,1.40580e+04,4.33900e+03,9.71900e+03,8.74266e-13,-1.19969e+00,5.73718e-13,-1.19969e+00,7.83508e-13,-1.19969e+00
8.15674e+02,1.30200e+04,7.15300e+03,5.86700e+03,8.98190e-13,-1.19214e+00,4.95133e-13,-1.19214e+00,1.30864e-12,-1.19214e+00
8.15923e+02,1.10100e+04,1.15180e+04,-5.08000e+02,7.33492e-13,-1.18460e+00,4.79577e-13,-1.18460e+00,1.11618e-12,-1.18460e+00
8.16172e+02,8.10800e+03,1.45160e+04,-6.40800e+03,3.56728e-13,-1.17705e+00,6.05902e-13,-1.17705e+00,7.09799e-13,-1.17705e+00
8.16421e+02,4.36300e+03,1.46160e+04,-1.02530e+04,9.02323e-14,-1.16951e+00,7.54589e-13,-1.16951e+00,6.64522e-13,-1.16951e+00
8.16670e+02,2.77000e+03,1.38780e+04,-1.11080e+04,3.40552e-13,-1.16196e+00,5.02433e-13,-1.16196e+00,5.81664e-13,-1.16196e+00
8.16919e+02,3.03500e+03,1.39760e+04,-1.09410e+04,7.93700e-13,-1.15442e+00,3.98363e-13,-1.15442e+00,5.49132e-13,-1.15442e+00
8.17168e+02,4.28700e+03,1.19810e+04,-7.69400e+03,1.03921e-12,-1.14687e+00,1.11691e-12,-1.14687e+00,1.48191e-12,-1.14687e+00
8.17417e+02,6.27900e+03,9.04200e+03,-2.76300e+03,7.83914e-13,-1.13932e+00,1.19526e-12,-1.13932e+00,1.63606e-12,-1.13932e+00
8.17666e+02,9.18900e+03,6.60500e+03,2.58400e+03,4.74730e-13,-1.13178e+00,4.78225e-13,-1.13178e+00,8.75990e-13,-1.13178e+00
8.17915e+02,1.15020e+04,4.24200e+03,7.26000e+03,3.18843e-13,-1.12423e+00,6.73329e-13,-1.12423e+00,8.85682e-13,-1.12423e+00
8.18164e+02,1.19180e+04,2.87200e+03,9.04600e+03,5.36601e-13,-1.11669e+00,5.03100e-13,-1.11669e+00,1.00798e-12,-1.11669e+00
8.18413e+02,1.18250e+04,2.69900e+03,9.12600e+03,1.01883e-13,-1.10914e+00,1.30500e-13,-1.10914e+00,3.82214e-14,-1.10914e+00
8.18662e+02,1.04980e+04,3.55900e+03,6.93900e+03,4.89151e-13,-1.10160e+00,6.45426e-13,-1.10160e+00,2.49060e-13,-1.10160e+00
8.18911e+02,9.43600e+03,5.35400e+03,4.08200e+03,4.50460e-13,-1.09405e+00,1.12298e-12,-1.09405e+00,6.99095e-13,-1.09405e+00
8.19160e+02,7.21500e+03,7.16500e+03,5.00000e+01,4.83861e-13,-1.08651e+00,7.08747e-13,-1.08651e+00,2.67768e-13,-1.08651e+00
8.19408e+02,5.20800e+03,9.47400e+03,-4.26600e+03,3.01281e-13,-1.07896e+00,4.42308e-13,-1.07896e+00,2.56220e-13,-1.07896e+00
8.19657e+02,3.56100e+03,1.22360e+04,-8.67500e+03,5.87267e-13,-1.07142e+00,4.38921e-13,-1.07142e+00,3.79984e-13,-1.07142e+00
8.19906e+02,2.46000e+03,1.36420e+04,-1.11820e+04,5.04387e-13,-1.06387e+00,4.90231e-13,-1.06387e+00,3.53102e-13,-1.06387e+00
8.20155e+02,2.41500e+03,1.34010e+04,-1.09860e+04,3.44684e-13,-1.05633e+00,6.04271e-13,-1.05633e+00,3.84896e-13,-1.05633e+00
8.20404e+02,3.52600e+03,1.08800e+04,-7.35400e+03,6.36397e-13,-1.04878e+00,6.60768e-13,-1.04878e+00,2.34421e-13,-1.04878e+00
8.20653e+02,5.33400e+03,7.48300e+03,-2.14900e+03,9.76063e-13,-1.04124e+00,3.36556e-13,-1.04124e+00,9.20761e-13,-1.04124e+00
8.20901e+02,7.41600e+03,5.47100e+03,1.94500e+03,9.75103e-13,-1.03369e+00,5.01435e-13,-1.03369e+00,1.42102e-12,-1.03369e+00
8.21150e+02,9.88700e+03,3.67500e+03,6.21200e+03,4.57103e-13,-1.02615e+00,6.11916e-13,-1.02615e+00,1.05802e-12,-1.02615e+00
8.21399e+02,9.67400e+03,2.39900e+03,7.27500e+03,2.91417e-13,-1.01860e+00,3.55981e-13,-1.01860e+00,7.24911e-14,-1.01860e+00
8.21648e+02,1.02390e+04,2.24800e+03,7.99100e+03,2.91263e-13,-1.01106e+00,1.08371e-13,-1.01106e+00,3.10592e-13,-1.01106e+00
8.21897e+02,1.01290e+04,3.06100e+03,7.06800e+03,7.03506e-13,-1.00351e+00,6.48880e-13,-1.00351e+00,6.96776e-13,-1.00351e+00
8.22145e+02,8.22100e+03,4.17600e+03,4.04500e+03,1.15772e-12,-9.95966e-01,9.79924e-13,-9.95966e-01,1.00704e-12,-9.95966e-01
8.22394e+02,6.83800e+03,6.25400e+03,5.84000e+02,1.23583e-12,-9.88421e-01,6.14513e-13,-9.88421e-01,9.02987e-13,-9.88421e-01
8.22643e+02,5.08400e+03,8.44300e+03,-3.35900e+03,1.15461e-12,-9.80876e-01,4.86338e-13,-9.80876e-01,9.28620e-13,-9.80876e-01
8.22892e+02,3.30000e+03,9.31900e+03,-6.01900e+03,5.87134e-13,-9.73331e-01,6.20623e-13,-9.73331e-01,6.98976e-13,-9.73331e-01
8.23140e+02,2.07300e+03,1.01160e+04,-8.04300e+03,2.96239e-13,-9.65785e-01,1.41445e-13,-9.65785e-01,1.61300e-13,-9.65785e-01
8.23389e+02,2.07100e+03,1.01310e+04,-8.06000e+03,1.00011e-12,-9.58240e-01,3.29116e-13,-9.58240e-01,8.31362e-13,-9.58240e-01
8.23638e+02,2.80800e+03,9.03700e+03,-6.22900e+03,1.25882e-12,-9.50695e-01,1.74953e-13,-9.50695e-01,1.31765e-12,-9.50695e-01
8.23887e+02,4.27600e+03,6.66800e+03,-2.39200e+03,9.04139e-13,-9.43150e-01,8.35614e-13,-9.43150e-01,1.32269e-12,-9.43150e-01
8.24135e+02,5.88200e+03,4.80300e+03,1.07900e+03,7.22960e-13,-9.35605e-01,1.37582e-12,-9.35605e-01,8.14319e-13,-9.35605e-01
8.24384e+02,7.27000e+03,3.30500e+03,3.96500e+03,9.12591e-13,-9.28059e-01,1.06636e-12,-9.28059e-01,1.68916e-13,-9.28059e-01
8.24633e+02,8.50400e+03,2.13100e+03,6.37300e+03,1.01042e-12,-9.20514e-01,1.15146e-12,-9.20514e-01,1.42604e-13,-9.20514e-01
8.24881e+02,9.20500e+03,1.90400e+03,7.30100e+03,1.04186e-12,-9.12969e-01,1.25474e-12,-9.12969e-01,7.31231e-13,-9.12969e-01
8.25130e+02,9.03600e+03,2.47500e+03,6.56100e+03,1.04213e-12,-9.05424e-01,1.04415e-12,-9.05424e-01,1.33147e-12,-9.05424e-01
8.25379e+02,8.10600e+03,4.23600e+03,3.87000e+03,1.30833e-12,-8.97879e-01,6.44613e-13,-8.97879e-01,1.78282e-12,-8.97879e-01
8.25627e+02,5.66800e+03,5.32400e+03,3.44000e+02,1.41332e-12,-8.90333e-01,5.14055e-13,-8.90333e-01,1.92727e-12,-8.90333e-01
8.25876e+02,3.68500e+03,6.63600e+03,-2.95100e+03,1.05406e-12,-8.82788e-01,9.32517e-13,-8.82788e-01,1.58664e-12,-8.82788e-01
8.26125e+02,2.36500e+03,7.62600e+03,-5.26100e+03,6.83361e-13,-8.75243e-01,1.08708e-12,-8.75243e-01,1.07521e-12,-8.75243e-01
8.26373e+02,1.60400e+03,6.97200e+03,-5.36800e+03,5.97842e-13,-8.67698e-01,8.49004e-13,-8.67698e-01,4.16800e-13,-8.67698e-01
8.26622e+02,1.44200e+03,6.06800e+03,-4.62600e+03,3.79774e-13,-8.60153e-01,6.50194e-13,-8.60153e-01,2.79166e-13,-8.60153e-01
8.26870e+02,1.87400e+03,4.79000e+03,-2.91600e+03,4.83391e-13,-8.52607e-01,5.55029e-13,-8.52607e-01,1.11705e-13,-8.52607e-01
8.27119e+02,2.57600e+03,4.00100e+03,-1.42500e+03,8.63175e-13,-8.45062e-01,7.55853e-13,-8.45062e-01,5.78218e-13,-8.45062e-01
8.27368e+02,3.54900e+03,3.21300e+03,3.36000e+02,1.81759e-12,-8.37517e-01,1.33362e-12,-8.37517e-01,1.44702e-12,-8.37517e-01
8.27616e+02,4.00400e+03,2.23700e+03,1.76700e+03,2.26364e-12,-8.29972e-01,1.74613e-12,-8.29972e-01,1.50792e-12,-8.29972e-01
8.27865e+02,4.79300e+03,1.46600e+03,3.32700e+03,1.85731e-12,-8.22427e-01,1.48120e-12,-8.22427e-01,9.37722e-13,-8.22427e-01
8.28113e+02,5.92600e+03,1.16200e+03,4.76400e+03,1.10345e-12,-8.14881e-01,1.11440e-12,-8.14881e-01,6.52236e-13,-8.14881e-01
8.28362e+02,5.87300e+03,1.48600e+03,4.38700e+03,8.40552e-13,-8.07336e-01,1.08100e-12,-8.07336e-01,1.28378e-12,-8.07336e-01
8.28610e+02,4.83400e+03,2.05700e+03,2.77700e+03,7.91530e-13,-7.99791e-01,1.29397e-12,-7.99791e-01,2.07728e-12,-7.99791e-01
8.28859e+02,3.79600e+03,2.83100e+03,9.65000e+02,5.77554e-13,-7.92246e-01,1.61606e-12,-7.92246e-01,2.02608e-12,-7.92246e-01
8.29108e+02,2.72200e+03,3.45900e+03,-7.37000e+02,1.13357e-12,-7.84701e-01,4.04035e-13,-7.84701e-01,1.04408e-12,-7.84701e-01
8.29356e+02,1.87600e+03,3.86500e+03,-1.98900e+03,1.30076e-12,-7.77155e-01,1.08274e-12,-7.77155e-01,6.75803e-13,-7.77155e-01
8.29605e+02,1.18400e+03,4.05400e+03,-2.87000e+03,1.22495e-12,-7.69610e-01,1.26020e-12,-7.69610e-01,8.14193e-13,-7.69610e-01
8.29853e+02,9.91000e+02,3.80900e+03,-2.81800e+03,3.40642e-13,-7.62065e-01,5.07668e-13,-7.62065e-01,2.31193e-13,-7.62065e-01
8.30101e+02,1.06000e+03,3.65200e+03,-2.59200e+03,6.28332e-13,-7.54520e-01,4.51827e-13,-7.54520e-01,9.19540e-13,-7.54520e-01
8.30350e+02,1.51400e+03,3.18100e+03,-1.66700e+03,1.22449e-12,-7.46975e-01,7.00995e-13,-7.46975e-01,1.74109e-12,-7.46975e-01
8.30598e+02,1.91400e+03,2.29900e+03,-3.85000e+02,1.02799e-12,-7.39429e-01,5.30201e-13,-7.39429e-01,1.54844e-12,-7.39429e-01
8.30847e+02,2.46300e+03,1.71900e+03,7.44000e+02,3.01263e-13,-7.31884e-01,6.92824e-13,-7.31884e-01,7.01683e-13,-7.31884e-01
8.31095e+02,3.03300e+03,1.25200e+03,1.78100e+03,2.61355e-13,-7.24339e-01,8.10832e-13,-7.24339e-01,5.55793e-13,-7.24339e-01
8.31344e+02,3.32200e+03,9.54000e+02,2.36800e+03,8.03621e-13,-7.16794e-01,1.08472e-12,-7.16794e-01,6.38324e-13,-7.16794e-01
8.31592e+02,3.16600e+03,8.46000e+02,2.32000e+03,1.97025e-12,-7.09249e-01,1.38361e-12,-7.09249e-01,7.95878e-13,-7.09249e-01
8.31841e+02,2.69100e+03,1.00600e+03,1.68500e+03,2.46314e-12,-7.01703e-01,1.47081e-12,-7.01703e-01,1.06421e-12,-7.01703e-01
8.32089e+02,2.34400e+03,1.38500e+03,9.59000e+02,1.32962e-12,-6.94158e-01,1.18271e-12,-6.94158e-01,1.42734e-12,-6.94158e-01
8.32337e+02,1.89400e+03,1.86900e+03,2.50000e+01,4.72243e-13,-6.86613e-01,7.75314e-13,-6.86613e-01,1.23710e-12,-6.86613e-01
8.32586e+02,1.33500e+03,2.05400e+03,-7.19000e+02,9.22753e-13,-6.79068e-01,5.41654e-13,-6.79068e-01,5.84802e-13,-6.79068e-01
8.32834e+02,1.04800e+03,2.45700e+03,-1.40900e+03,9.09760e-13,-6.71523e-01,8.19867e-13,-6.71523e-01,9.00576e-14,-6.71523e-01
8.33083e+02,7.69000e+02,2.50900e+03,-1.74000e+03,7.33509e-13,-6.63977e-01,8.74834e-13,-6.63977e-01,2.56129e-13,-6.63977e-01
8.33331e+02,7.85000e+02,2.36100e+03,-1.57600e+03,1.27151e-12,-6.56432e-01,9.22186e-13,-6.56432e-01,3.61527e-13,-6.56432e-01
8.33579e+02,8.57000e+02,2.06600e+03,-1.20900e+03,1.82925e-12,-6.48887e-01,1.78671e-12,-6.48887e-01,1.45971e-12,-6.48887e-01
8.33828e+02,1.11600e+03,1.78100e+03,-6.65000e+02,7.50539e-13,-6.41342e-01,2.99568e-12,-6.41342e-01,2.24584e-12,-6.41342e-01
8.34076e+02,1.24600e+03,1.30100e+03,-5.50000e+01,1.44702e-12,-6.33797e-01,3.48286e-12,-6.33797e-01,3.60118e-12,-6.33797e-01
8.34324e+02,1.53300e+03,1.04600e+03,4.87000e+02,1.52664e-12,-6.26251e-01,2.90658e-12,-6.26251e-01,4.12839e-12,-6.26251e-01
8.34573e+02,1.71200e+03,7.85000e+02,9.27000e+02,1.93035e-12,-6.18706e-01,1.51577e-12,-6.18706e-01,3.42632e-12,-6.18706e-01
8.34821e+02,1.73600e+03,7.34000e+02,1.00200e+03,2.48320e-12,-6.11161e-01,3.83104e-13,-6.11161e-01,2.85682e-12,-6.11161e-01
8.35069e+02,1.62400e+03,6.75000e+02,9.49000e+02,3.00959e-12,-6.03616e-01,5.30208e-13,-6.03616e-01,2.92499e-12,-6.03616e-01
8.35318e+02,1.66900e+03,7.87000e+02,8.82000e+02,3.31547e-12,-5.96071e-01,9.28910e-13,-5.96071e-01,2.42096e-12,-5.96071e-01
8.35566e+02,1.29600e+03,8.47000e+02,4.49000e+02,2.99945e-12,-5.88525e-01,1.36398e-12,-5.88525e-01,1.70312e-12,-5.88525e-01
8.35814e+02,1.06000e+03,1.03300e+03,2.70000e+01,2.78968e-12,-5.80980e-01,1.65478e-12,-5.80980e-01,2.27672e-12,-5.80980e-01
8.36062e+02,7.92000e+02,1.11700e+03,-3.25000e+02,2.87429e-12,-5.73435e-01,1.67370e-12,-5.73435e-01,3.24774e-12,-5.73435e-01
8.36311e+02,7.04000e+02,1.22600e+03,-5.22000e+02,1.96070e-12,-5.65890e-01,1.40095e-12,-5.65890e-01,2.44847e-12,-5.65890e-01
8.36559e+02,6.68000e+02,1.30000e+03,-6.32000e+02,6.30680e-13,-5.58345e-01,8.99126e-13,-5.58345e-01,1.27957e-12,-5.58345e-01
8.36807e+02,6.71000e+02,1.37400e+03,-7.03000e+02,1.29066e-12,-5.50799e-01,1.16197e-12,-5.50799e-01,2.20694e-12,-5.50799e-01
8.37055e+02,6.80000e+02,1.21200e+03,-5.32000e+02,2.06476e-12,-5.43254e-01,1.64403e-12,-5.43254e-01,2.26403e-12,-5.43254e-01
8.37304e+02,7.52000e+02,1.02300e+03,-2.71000e+02,2.04734e-12,-5.35709e-01,2.42561e-12,-5.35709e-01,1.23064e-12,-5.35709e-01
8.37552e+02,8.07000e+02,8.33000e+02,-2.60000e+01,1.45229e-12,-5.28164e-01,2.08087e-12,-5.28164e-01,7.98123e-13,-5.28164e-01
8.37800e+02,9.21000e+02,7.46000e+02,1.75000e+02,2.22547e-13,-5.20619e-01,1.81503e-12,-5.20619e-01,1.87293e-12,-5.20619e-01
8.38048e+02,8.57000e+02,6.42000e+02,2.15000e+02,7.57171e-13,-5.13073e-01,2.15176e-12,-5.13073e-01,1.52157e-12,-5.13073e-01
8.38296e+02,9.40000e+02,6.56000e+02,2.84000e+02,1.19325e-12,-5.05528e-01,2.04906e-12,-5.05528e-01,1.24389e-12,-5.05528e-01
8.38545e+02,9.21000e+02,6.40000e+02,2.81000e+02,1.14100e-12,-4.97983e-01,1.25777e-12,-4.97983e-01,1.74559e-12,-4.97983e-01
8.38793e+02,8.46000e+02,6.60000e+02,1.86000e+02,1.32484e-12,-4.90438e-01,5.15494e-13,-4.90438e-01,1.22582e-12,-4.90438e-01
8.39041e+02,7.44000e+02,6.94000e+02,5.00000e+01,2.57721e-12,-4.82893e-01,1.43688e-12,-4.82893e-01,1.39911e-12,-4.82893e-01
8.39289e+02,7.01000e+02,7.11000e+02,-1.00000e+01,2.55925e-12,-4.75347e-01,2.13649e-12,-4.75347e-01,1.39049e-12,-4.75347e-01
8.39537e+02,6.74000e+02,7.38000e+02,-6.40000e+01,1.09158e-12,-4.67802e-01,1.60127e-12,-4.67802e-01,9.13350e-13,-4.67802e-01
8.39785e+02,6.48000e+02,7.85000e+02,-1.37000e+02,9.22943e-13,-4.60257e-01,1.52482e-12,-4.60257e-01,1.76638e-12,-4.60257e-01
8.40033e+02,6.40000e+02,7.60000e+02,-1.20000e+02,3.30600e-12,-4.52712e-01,1.50984e-12,-4.52712e-01,4.80962e-12,-4.52712e-01
8.40281e+02,6.60000e+02,7.81000e+02,-1.21000e+02,3.87342e-12,-4.45167e-01,2.89026e-12,-4.45167e-01,5.95853e-12,-4.45167e-01
8.40530e+02,6.35000e+02,7.07000e+02,-7.20000e+01,1.31615e-12,-4.37621e-01,4.76726e-12,-4.37621e-01,5.28193e-12,-4.37621e-01
8.40778e+02,6.61000e+02,7.01000e+02,-4.00000e+01,1.82472e-12,-4.30076e-01,4.20642e-12,-4.30076e-01,3.59463e-12,-4.30076e-01
8.41026e+02,6.59000e+02,6.60000e+02,-1.00000e+00,3.31265e-12,-4.22531e-01,2.59909e-12,-4.22531e-01,2.11049e-12,-4.22531e-01
8.41274e+02,6.59000e+02,6.51000e+02,8.00000e+00,3.77640e-12,-4.14986e-01,1.47658e-12,-4.14986e-01,2.37874e-12,-4.14986e-01
8.41522e+02,6.70000e+02,6.34000e+02,3.60000e+01,5.03354e-12,-4.07441e-01,2.14649e-12,-4.07441e-01,3.09107e-12,-4.07441e-01
8.41770e+02,6.88000e+02,6.36000e+02,5.20000e+01,5.30235e-12,-3.99895e-01,2.52634e-12,-3.99895e-01,2.91919e-12,-3.99895e-01
8.42018e+02,6.53000e+02,6.40000e+02,1.30000e+01,5.22236e-12,-3.92350e-01,1.90294e-12,-3.92350e-01,3.31946e-12,-3.92350e-01
8.42266e+02,6.65000e+02,6.46000e+02,1.90000e+01,4.72575e-12,-3.84805e-01,1.15065e-12,-3.84805e-01,3.58909e-12,-3.84805e-01
8.42514e+02,6.56000e+02,6.28000e+02,2.80000e+01,4.54697e-12,-3.77260e-01,1.49315e-12,-3.77260e-01,3.62154e-12,-3.77260e-01
8.42762e+02,6.71000e+02,6.66000e+02,5.00000e+00,4.21350e-12,-3.69715e-01,3.87382e-12,-3.69715e-01,1.67887e-12,-3.69715e-01
8.43010e+02,6.09000e+02,6.34000e+02,-2.50000e+01,2.38487e-12,-3.62169e-01,6.87920e-12,-3.62169e-01,4.58585e-12,-3.62169e-01
8.43258e+02,6.29000e+02,6.54000e+02,-2.50000e+01,1.97168e-12,-3.54624e-01,6.62231e-12,-3.54624e-01,6.47677e-12,-3.54624e-01
8.43506e+02,6.24000e+02,6.48000e+02,-2.40000e+01,1.95001e-12,-3.47079e-01,3.95537e-12,-3.47079e-01,2.69022e-12,-3.47079e-01
8.43754e+02,6.20000e+02,6.46000e+02,-2.60000e+01,1.40858e-12,-3.39534e-01,3.68717e-12,-3.39534e-01,4.04481e-12,-3.39534e-01
8.44002e+02,6.25000e+02,6.38000e+02,-1.30000e+01,2.51750e-12,-3.31989e-01,3.98793e-12,-3.31989e-01,6.40245e-12,-3.31989e-01
8.44250e+02,6.36000e+02,6.44000e+02,-8.00000e+00,2.44259e-12,-3.24444e-01,4.56676e-12,-3.24444e-01,6.88863e-12,-3.24444e-01
8.44498e+02,6.36000e+02,6.32000e+02,4.00000e+00,1.99380e-12,-3.16898e-01,4.51193e-12,-3.16898e-01,4.80235e-12,-3.16898e-01
8.44746e+02,6.43000e+02,6.32000e+02,1.10000e+01,3.16705e-12,-3.09353e-01,3.00537e-12,-3.09353e-01,2.01590e-12,-3.09353e-01
8.44994e+02,6.32000e+02,6.19000e+02,1.30000e+01,2.06307e-12,-3.01808e-01,1.33494e-12,-3.01808e-01,2.32563e-12,-3.01808e-01
8.45242e+02,6.58000e+02,6.58000e+02,0.00000e+00,8.35780e-13,-2.94263e-01,9.96367e-13,-2.94263e-01,1.79581e-12,-2.94263e-01
8.45490e+02,6.16000e+02,6.09000e+02,7.00000e+00,2.28681e-12,-2.86718e-01,1.77491e-12,-2.86718e-01,3.83832e-12,-2.86718e-01
8.45738e+02,6.31000e+02,6.31000e+02,0.00000e+00,2.73376e-12,-2.79172e-01,8.74044e-13,-2.79172e-01,2.77346e-12,-2.79172e-01
8.45985e+02,6.42000e+02,6.10000e+02,3.20000e+01,1.53305e-12,-2.71627e-01,3.33294e-12,-2.71627e-01,3.18199e-12,-2.71627e-01
8.46233e+02,6.32000e+02,6.24000e+02,8.00000e+00,2.16569e-12,-2.64082e-01,5.09475e-12,-2.64082e-01,7.23101e-12,-2.64082e-01
8.46481e+02,6.11000e+02,6.34000e+02,-2.30000e+01,5.07031e-12,-2.56537e-01,4.39254e-12,-2.56537e-01,9.21102e-12,-2.56537e-01
8.46729e+02,6.29000e+02,6.25000e+02,4.00000e+00,6.93866e-12,-2.48992e-01,1.58297e-12,-2.48992e-01,8.37299e-12,-2.48992e-01
8.46977e+02,6.26000e+02,6.36000e+02,-1.00000e+01,4.77613e-12,-2.41446e-01,6.52438e-12,-2.41446e-01,9.48748e-12,-2.41446e-01
8.47225e+02,6.34000e+02,6.32000e+02,2.00000e+00,3.79979e-12,-2.33901e-01,9.17848e-12,-2.33901e-01,1.29681e-11,-2.33901e-01
8.47473e+02,6.32000e+02,6.36000e+02,-4.00000e+00,6.05520e-12,-2.26356e-01,4.64716e-12,-2.26356e-01,9.22857e-12,-2.26356e-01
8.47720e+02,6.66000e+02,6.61000e+02,5.00000e+00,2.96254e-11,-2.18811e-01,2.66844e-11,-2.18811e-01,5.61371e-11,-2.18811e-01
8.47968e+02,6.22000e+02,6.15000e+02,7.00000e+00,8.66681e-11,-2.11266e-01,8.50822e-11,-2.11266e-01,1.70301e-10,-2.11266e-01
8.48216e+02,6.29000e+02,6.44000e+02,-1.50000e+01,1.16108e-10,-2.03720e-01,1.16168e-10,-2.03720e-01,2.30065e-10,-2.03720e-01
8.48464e+02,6.34000e+02,6.31000e+02,3.00000e+00,7.87237e-11,-1.96175e-01,8.27814e-11,-1.96175e-01,1.59799e-10,-1.96175e-01
8.48712e+02,6.39000e+02,6.34000e+02,5.00000e+00,3.06283e-11,-1.88630e-01,3.76540e-11,-1.88630e-01,6.75578e-11,-1.88630e-01
8.48960e+02,6.32000e+02,6.20000e+02,1.20000e+01,8.11917e-12,-1.81085e-01,1.51533e-11,-1.81085e-01,2.32013e-11,-1.81085e-01
8.49207e+02,6.25000e+02,6.19000e+02,6.00000e+00,6.21420e-12,-1.73540e-01,3.86275e-12,-1.73540e-01,6.67834e-12,-1.73540e-01
8.49455e+02,6.37000e+02,6.28000e+02,9.00000e+00,6.24672e-12,-1.65994e-01,2.60416e-12,-1.65994e-01,8.39936e-12,-1.65994e-01
8.49703e+02,6.34000e+02,6.40000e+02,-6.00000e+00,2.98216e-12,-1.58449e-01,3.99536e-12,-1.58449e-01,1.10119e-12,-1.58449e-01
8.49951e+02,6.17000e+02,6.17000e+02,0.00000e+00,6.39121e-12,-1.50904e-01,5.84025e-12,-1.50904e-01,1.77839e-12,-1.50904e-01
8.50198e+02,6.57000e+02,6.66000e+02,-9.00000e+00,4.72617e-12,-1.43359e-01,2.48137e-12,-1.43359e-01,2.37225e-12,-1.43359e-01
8.50446e+02,6.13000e+02,6.18000e+02,-5.00000e+00,2.16413e-12,-1.35814e-01,1.08785e-12,-1.35814e-01,2.28127e-12,-1.35814e-01
8.50694e+02,6.21000e+02,6.25000e+02,-4.00000e+00,3.47017e-12,-1.28268e-01,2.11255e-12,-1.28268e-01,3.78805e-12,-1.28268e-01
8.50941e+02,6.16000e+02,6.34000e+02,-1.80000e+01,2.42812e-12,-1.20723e-01,3.69810e-12,-1.20723e-01,4.46137e-12,-1.20723e-01
8.51189e+02,6.25000e+02,6.29000e+02,-4.00000e+00,2.25394e-12,-1.13178e-01,4.29672e-12,-1.13178e-01,5.53147e-12,-1.13178e-01
8.51437e+02,6.40000e+02,6.18000e+02,2.20000e+01,3.37108e-12,-1.05633e-01,2.97394e-12,-1.05633e-01,4.12932e-12,-1.05633e-01
8.51685e+02,6.26000e+02,6.26000e+02,0.00000e+00,2.02617e-12,-9.80876e-02,3.02948e-12,-9.80876e-02,2.10779e-12,-9.80876e-02
8.51932e+02,6.37000e+02,6.30000e+02,7.00000e+00,4.27357e-13,-9.05424e-02,2.34186e-12,-9.05424e-02,2.23873e-12,-9.05424e-02
8.52180e+02,6.37000e+02,6.26000e+02,1.10000e+01,1.87406e-12,-8.29972e-02,3.65756e-13,-8.29972e-02,1.51153e-12,-8.29972e-02
8.52428e+02,6.32000e+02,6.27000e+02,5.00000e+00,2.41494e-12,-7.54520e-02,2.04906e-12,-7.54520e-02,1.40775e-12,-7.54520e-02
8.52675e+02,6.56000e+02,6.52000e+02,4.00000e+00,3.53144e-12,-6.79068e-02,4.74792e-12,-6.79068e-02,1.86147e-12,-6.79068e-02
8.52923e+02,6.14000e+02,6.12000e+02,2.00000e+00,9.68005e-12,-6.03616e-02,6.10526e-12,-6.03616e-02,4.34328e-12,-6.03616e-02
8.53170e+02,6.27000e+02,6.24000e+02,3.00000e+00,1.29820e-11,-5.28164e-02,6.28876e-12,-5.28164e-02,6.72613e-12,-5.28164e-02
8.53418e+02,6.32000e+02,6.32000e+02,0.00000e+00,8.60335e-12,-4.52712e-02,3.18244e-12,-4.52712e-02,5.50343e-12,-4.52712e-02
8.53666e+02,6.31000e+02,6.34000e+02,-3.00000e+00,2.74807e-12,-3.77260e-02,1.69025e-12,-3.77260e-02,4.18488e-12,-3.77260e-02
8.53913e+02,6.32000e+02,6.32000e+02,0.00000e+00,1.80162e-12,-3.01808e-02,1.58407e-12,-3.01808e-02,3.38404e-12,-3.01808e-02
8.54161e+02,6.27000e+02,6.35000e+02,-8.00000e+00,1.29039e-11,-2.26356e-02,1.65538e-11,-2.26356e-02,3.96085e-12,-2.26356e-02
8.54409e+02,6.34000e+02,6.37000e+02,-3.00000e+00,7.82791e-11,-1.50904e-02,8.11369e-11,-1.50904e-02,6.57950e-12,-1.50904e-02
8.54656e+02,6.36000e+02,6.25000e+02,1.10000e+01,2.30388e-10,-7.54520e-03,2.30802e-10,-7.54520e-03,4.91153e-12,-7.54520e-03
