7.67698e+02,6.15000e+02,6.31000e+02,-1.60000e+01,3.90152e-10,0.00000e+00,3.87059e-10,0.00000e+00,3.09301e-12,0.00000e+00
7.67949e+02,6.63000e+02,6.54000e+02,9.00000e+00,2.33763e-10,7.54520e-03,2.31452e-10,7.54520e-03,4.77924e-12,7.54520e-03
7.68199e+02,6.27000e+02,6.15000e+02,1.20000e+01,8.34687e-11,1.50904e-02,8.40893e-11,1.50904e-02,2.28892e-12,1.50904e-02
7.68450e+02,6.31000e+02,6.46000e+02,-1.50000e+01,1.74825e-11,2.26356e-02,1.78021e-11,2.26356e-02,3.64961e-12,2.26356e-02
7.68701e+02,6.26000e+02,6.23000e+02,3.00000e+00,3.04162e-12,3.01808e-02,5.81501e-12,3.01808e-02,3.33160e-12,3.01808e-02
7.68951e+02,6.36000e+02,6.36000e+02,0.00000e+00,4.09503e-12,3.77260e-02,4.39501e-12,3.77260e-02,5.64542e-13,3.77260e-02
7.69202e+02,6.31000e+02,6.36000e+02,-5.00000e+00,3.99482e-12,4.52712e-02,4.62621e-12,4.52712e-02,1.11815e-12,4.52712e-02
7.69453e+02,6.33000e+02,6.32000e+02,1.00000e+00,8.11271e-12,5.28164e-02,8.53258e-12,5.28164e-02,7.38598e-13,5.28164e-02
7.69703e+02,6.33000e+02,6.42000e+02,-9.00000e+00,7.92412e-12,6.03616e-02,8.62136e-12,6.03616e-02,7.17294e-13,6.03616e-02
7.69954e+02,6.36000e+02,6.42000e+02,-6.00000e+00,5.15683e-12,6.79068e-02,6.22706e-12,6.79068e-02,1.47497e-12,6.79068e-02
7.70205e+02,6.33000e+02,6.36000e+02,-3.00000e+00,2.68701e-12,7.54520e-02,3.78593e-12,7.54520e-02,2.31961e-12,7.54520e-02
7.70455e+02,6.80000e+02,6.77000e+02,3.00000e+00,3.29986e-12,8.29972e-02,3.72858e-12,8.29972e-02,3.37105e-12,8.29972e-02
7.70706e+02,6.16000e+02,6.34000e+02,-1.80000e+01,3.41203e-12,9.05424e-02,3.85240e-12,9.05424e-02,4.22866e-12,9.05424e-02
7.70957e+02,6.40000e+02,6.60000e+02,-2.00000e+01,2.23695e-12,9.80876e-02,4.18503e-12,9.80876e-02,3.33589e-12,9.80876e-02
7.71207e+02,6.52000e+02,6.43000e+02,9.00000e+00,3.42450e-12,1.05633e-01,5.13164e-12,1.05633e-01,2.99037e-12,1.05633e-01
7.71458e+02,6.84000e+02,6.32000e+02,5.20000e+01,5.67674e-12,1.13178e-01,4.89820e-12,1.13178e-01,3.15780e-12,1.13178e-01
7.71708e+02,6.35000e+02,6.46000e+02,-1.10000e+01,5.68877e-12,1.20723e-01,4.16456e-12,1.20723e-01,1.86314e-12,1.20723e-01
7.71959e+02,6.46000e+02,6.67000e+02,-2.10000e+01,3.74268e-12,1.28268e-01,1.22619e-12,1.28268e-01,2.52794e-12,1.28268e-01
7.72210e+02,6.56000e+02,6.56000e+02,0.00000e+00,1.54109e-12,1.35814e-01,1.78845e-12,1.35814e-01,2.99341e-12,1.35814e-01
7.72460e+02,6.82000e+02,6.43000e+02,3.90000e+01,4.37498e-12,1.43359e-01,5.14235e-12,1.43359e-01,3.46765e-12,1.43359e-01
7.72711e+02,6.58000e+02,6.51000e+02,7.00000e+00,7.88186e-12,1.50904e-01,6.60922e-12,1.50904e-01,4.65372e-12,1.50904e-01
7.72961e+02,6.74000e+02,7.00000e+02,-2.60000e+01,5.78564e-12,1.58449e-01,3.69064e-12,1.58449e-01,3.04098e-12,1.58449e-01
7.73212e+02,6.34000e+02,6.56000e+02,-2.20000e+01,2.29969e-12,1.65994e-01,2.79526e-12,1.65994e-01,5.17588e-13,1.65994e-01
7.73462e+02,6.86000e+02,6.51000e+02,3.50000e+01,6.29537e-12,1.73540e-01,5.02602e-12,1.73540e-01,2.36854e-12,1.73540e-01
7.73713e+02,6.62000e+02,6.50000e+02,1.20000e+01,6.90462e-12,1.81085e-01,4.44094e-12,1.81085e-01,2.76414e-12,1.81085e-01
7.73963e+02,6.44000e+02,6.71000e+02,-2.70000e+01,6.54126e-12,1.88630e-01,3.26127e-12,1.88630e-01,3.72805e-12,1.88630e-01
7.74214e+02,6.51000e+02,6.77000e+02,-2.60000e+01,4.27320e-12,1.96175e-01,3.09183e-12,1.96175e-01,4.25866e-12,1.96175e-01
7.74465e+02,6.87000e+02,6.59000e+02,2.80000e+01,2.19865e-12,2.03720e-01,2.10284e-12,2.03720e-01,2.48541e-12,2.03720e-01
7.74715e+02,6.73000e+02,6.47000e+02,2.60000e+01,1.65827e-12,2.11266e-01,9.86419e-13,2.11266e-01,6.74881e-13,2.11266e-01
7.74965e+02,6.55000e+02,6.91000e+02,-3.60000e+01,3.99473e-13,2.18811e-01,6.85301e-13,2.18811e-01,1.05840e-12,2.18811e-01
7.75216e+02,6.63000e+02,6.94000e+02,-3.10000e+01,3.07101e-12,2.26356e-01,9.57273e-13,2.26356e-01,2.57929e-12,2.26356e-01
7.75466e+02,7.47000e+02,7.24000e+02,2.30000e+01,5.13846e-12,2.33901e-01,1.48122e-12,2.33901e-01,4.08329e-12,2.33901e-01
7.75717e+02,6.86000e+02,6.45000e+02,4.10000e+01,6.41226e-12,2.41446e-01,1.75169e-12,2.41446e-01,4.80162e-12,2.41446e-01
7.75967e+02,6.72000e+02,6.88000e+02,-1.60000e+01,5.08087e-12,2.48992e-01,1.68901e-12,2.48992e-01,3.39250e-12,2.48992e-01
7.76218e+02,6.53000e+02,7.67000e+02,-1.14000e+02,2.43019e-12,2.56537e-01,5.35279e-13,2.56537e-01,2.22683e-12,2.56537e-01
7.76468e+02,7.14000e+02,7.33000e+02,-1.90000e+01,4.62196e-12,2.64082e-01,2.17568e-12,2.64082e-01,3.24917e-12,2.64082e-01
7.76719e+02,7.62000e+02,6.80000e+02,8.20000e+01,4.78064e-12,2.71627e-01,2.05019e-12,2.71627e-01,3.15688e-12,2.71627e-01
7.76969e+02,7.31000e+02,7.06000e+02,2.50000e+01,9.44931e-13,2.79172e-01,9.60039e-13,2.79172e-01,1.45313e-12,2.79172e-01
7.77219e+02,6.73000e+02,7.94000e+02,-1.21000e+02,3.45908e-12,2.86718e-01,1.54701e-12,2.86718e-01,4.14628e-12,2.86718e-01
7.77470e+02,7.92000e+02,8.56000e+02,-6.40000e+01,4.40737e-12,2.94263e-01,1.41523e-12,2.94263e-01,5.32170e-12,2.94263e-01
7.77720e+02,8.88000e+02,6.90000e+02,1.98000e+02,4.94850e-12,3.01808e-01,4.12289e-13,3.01808e-01,5.18150e-12,3.01808e-01
7.77971e+02,8.38000e+02,7.55000e+02,8.30000e+01,6.06643e-12,3.09353e-01,1.23517e-12,3.09353e-01,4.83475e-12,3.09353e-01
7.78221e+02,6.79000e+02,9.16000e+02,-2.37000e+02,4.75615e-12,3.16898e-01,1.34182e-12,3.16898e-01,3.58023e-12,3.16898e-01
7.78471e+02,7.93000e+02,1.00100e+03,-2.08000e+02,2.52090e-12,3.24444e-01,1.15009e-12,3.24444e-01,1.85124e-12,3.24444e-01
7.78722e+02,9.58000e+02,8.10000e+02,1.48000e+02,1.23790e-12,3.31989e-01,9.69675e-13,3.31989e-01,9.29126e-13,3.31989e-01
7.78972e+02,1.06700e+03,7.78000e+02,2.89000e+02,2.66244e-12,3.39534e-01,2.16908e-12,3.39534e-01,1.88634e-12,3.39534e-01
7.79222e+02,8.00000e+02,9.09000e+02,-1.09000e+02,4.15378e-12,3.47079e-01,2.84139e-12,3.47079e-01,2.95022e-12,3.47079e-01
7.79473e+02,7.84000e+02,1.13000e+03,-3.46000e+02,4.14394e-12,3.54624e-01,1.51899e-12,3.54624e-01,3.09219e-12,3.54624e-01
7.79723e+02,9.89000e+02,9.15000e+02,7.40000e+01,4.42259e-12,3.62169e-01,1.59147e-12,3.62169e-01,3.69236e-12,3.62169e-01
7.79973e+02,1.20100e+03,8.03000e+02,3.98000e+02,5.13732e-12,3.69715e-01,1.69549e-12,3.69715e-01,3.68800e-12,3.69715e-01
7.80224e+02,8.75000e+02,9.25000e+02,-5.00000e+01,3.92509e-12,3.77260e-01,2.14194e-13,3.77260e-01,3.86418e-12,3.77260e-01
7.80474e+02,8.34000e+02,1.33500e+03,-5.01000e+02,1.96856e-12,3.84805e-01,2.42539e-12,3.84805e-01,3.83979e-12,3.84805e-01
7.80724e+02,9.26000e+02,1.09700e+03,-1.71000e+02,1.58657e-12,3.92350e-01,1.68409e-12,3.92350e-01,2.42213e-12,3.92350e-01
7.80974e+02,1.23900e+03,8.43000e+02,3.96000e+02,1.84895e-12,3.99895e-01,2.19690e-12,3.99895e-01,4.01340e-12,3.99895e-01
7.81225e+02,1.09000e+03,9.03000e+02,1.87000e+02,1.33180e-12,4.07441e-01,3.47577e-12,4.07441e-01,3.91496e-12,4.07441e-01
7.81475e+02,8.60000e+02,1.42500e+03,-5.65000e+02,2.52925e-12,4.14986e-01,1.83154e-12,4.14986e-01,2.21258e-12,4.14986e-01
7.81725e+02,1.01700e+03,1.49200e+03,-4.75000e+02,2.39412e-12,4.22531e-01,4.92572e-13,4.22531e-01,1.92625e-12,4.22531e-01
7.81975e+02,1.56000e+03,1.22600e+03,3.34000e+02,1.79024e-12,4.30076e-01,2.00829e-12,4.30076e-01,2.95799e-12,4.30076e-01
7.82226e+02,1.49100e+03,9.63000e+02,5.28000e+02,2.75266e-12,4.37621e-01,2.81240e-12,4.37621e-01,4.85218e-12,4.37621e-01
7.82476e+02,1.04500e+03,1.43000e+03,-3.85000e+02,1.46061e-12,4.45167e-01,1.76226e-12,4.45167e-01,1.90993e-12,4.45167e-01
7.82726e+02,9.99000e+02,1.74400e+03,-7.45000e+02,2.21129e-12,4.52712e-01,7.58194e-13,4.52712e-01,2.39287e-12,4.52712e-01
7.82976e+02,1.43600e+03,1.38900e+03,4.70000e+01,2.73498e-12,4.60257e-01,4.19118e-13,4.60257e-01,3.11168e-12,4.60257e-01
7.83226e+02,1.48800e+03,9.15000e+02,5.73000e+02,1.32755e-12,4.67802e-01,7.86200e-13,4.67802e-01,2.11325e-12,4.67802e-01
7.83477e+02,1.33300e+03,1.25500e+03,7.80000e+01,1.32292e-12,4.75347e-01,1.62266e-12,4.75347e-01,2.89856e-12,4.75347e-01
7.83727e+02,9.88000e+02,1.56700e+03,-5.79000e+02,2.70994e-12,4.82893e-01,1.11238e-12,4.82893e-01,3.66215e-12,4.82893e-01
7.83977e+02,1.45800e+03,1.54700e+03,-8.90000e+01,3.22027e-12,4.90438e-01,2.96945e-13,4.90438e-01,3.47754e-12,4.90438e-01
7.84227e+02,1.84400e+03,1.08600e+03,7.58000e+02,1.93077e-12,4.97983e-01,1.53955e-12,4.97983e-01,3.46992e-12,4.97983e-01
7.84477e+02,1.70600e+03,1.24100e+03,4.65000e+02,4.66179e-12,5.05528e-01,2.38421e-12,5.05528e-01,6.73841e-12,5.05528e-01
7.84727e+02,1.14800e+03,1.79600e+03,-6.48000e+02,9.06507e-12,5.13073e-01,4.40617e-12,5.13073e-01,1.32280e-11,5.13073e-01
7.84978e+02,1.56400e+03,2.09900e+03,-5.35000e+02,1.21272e-11,5.20619e-01,1.07414e-11,5.20619e-01,2.21105e-11,5.20619e-01
7.85228e+02,2.45300e+03,1.59100e+03,8.62000e+02,1.82526e-11,5.28164e-01,1.70812e-11,5.28164e-01,3.46389e-11,5.28164e-01
7.85478e+02,2.48800e+03,1.43300e+03,1.05500e+03,2.61132e-11,5.35709e-01,2.58010e-11,5.35709e-01,5.05868e-11,5.35709e-01
7.85728e+02,1.64900e+03,2.27000e+03,-6.21000e+02,3.63687e-11,5.43254e-01,3.72589e-11,5.43254e-01,7.19254e-11,5.43254e-01
7.85978e+02,1.68400e+03,2.98800e+03,-1.30400e+03,4.35420e-11,5.50799e-01,4.40572e-11,5.50799e-01,8.56631e-11,5.50799e-01
7.86228e+02,2.47900e+03,2.20200e+03,2.77000e+02,4.42109e-11,5.58345e-01,4.41898e-11,5.58345e-01,8.64479e-11,5.58345e-01
7.86478e+02,2.68500e+03,1.46700e+03,1.21800e+03,3.96604e-11,5.65890e-01,3.89729e-11,5.65890e-01,7.66860e-11,5.65890e-01
7.86728e+02,1.95200e+03,1.85600e+03,9.60000e+01,3.23988e-11,5.73435e-01,3.19243e-11,5.73435e-01,6.24433e-11,5.73435e-01
7.86978e+02,1.52900e+03,2.52700e+03,-9.98000e+02,2.39845e-11,5.80980e-01,2.39534e-11,5.80980e-01,4.62925e-11,5.80980e-01
7.87228e+02,2.20500e+03,2.56200e+03,-3.57000e+02,1.44893e-11,5.88525e-01,1.43420e-11,5.88525e-01,2.76785e-11,5.88525e-01
7.87478e+02,2.99600e+03,1.83500e+03,1.16100e+03,6.46189e-12,5.96071e-01,7.04139e-12,5.96071e-01,1.30335e-11,5.96071e-01
7.87728e+02,2.33200e+03,1.83700e+03,4.95000e+02,7.06858e-12,6.03616e-01,7.03300e-12,6.03616e-01,1.32453e-11,6.03616e-01
7.87978e+02,1.64400e+03,2.83600e+03,-1.19200e+03,5.22049e-12,6.11161e-01,4.73188e-12,6.11161e-01,9.44189e-12,6.11161e-01
7.88228e+02,1.95700e+03,2.83800e+03,-8.81000e+02,2.35221e-12,6.18706e-01,1.96565e-12,6.18706e-01,3.76399e-12,6.18706e-01
7.88478e+02,3.34700e+03,2.14800e+03,1.19900e+03,3.60707e-12,6.26251e-01,3.70212e-13,6.26251e-01,3.97215e-12,6.26251e-01
7.88728e+02,3.33700e+03,1.66500e+03,1.67200e+03,1.52907e-12,6.33797e-01,3.10746e-12,6.33797e-01,2.36497e-12,6.33797e-01
7.88978e+02,2.22200e+03,2.64200e+03,-4.20000e+02,2.25441e-12,6.41342e-01,3.16921e-12,6.41342e-01,2.11658e-12,6.41342e-01
7.89228e+02,2.02900e+03,3.83100e+03,-1.80200e+03,2.62753e-12,6.48887e-01,2.02567e-12,6.48887e-01,1.28465e-12,6.48887e-01
7.89478e+02,3.43600e+03,3.23500e+03,2.01000e+02,1.82359e-12,6.56432e-01,1.65081e-12,6.56432e-01,8.47380e-13,6.56432e-01
7.89728e+02,4.30000e+03,2.04000e+03,2.26000e+03,1.46283e-12,6.63977e-01,2.21190e-12,6.63977e-01,1.72220e-12,6.63977e-01
7.89978e+02,3.54600e+03,2.52700e+03,1.01900e+03,1.88531e-12,6.71523e-01,3.46956e-12,6.71523e-01,4.02099e-12,6.71523e-01
7.90228e+02,2.21800e+03,3.65900e+03,-1.44100e+03,2.81786e-12,6.79068e-01,3.58601e-12,6.79068e-01,5.28626e-12,6.79068e-01
7.90478e+02,2.96400e+03,3.72700e+03,-7.63000e+02,2.29812e-12,6.86613e-01,2.13877e-12,6.86613e-01,3.83000e-12,6.86613e-01
7.90728e+02,4.18700e+03,2.57900e+03,1.60800e+03,1.07315e-12,6.94158e-01,2.75726e-13,6.94158e-01,1.10914e-12,6.94158e-01
7.90978e+02,4.36900e+03,2.43800e+03,1.93100e+03,1.98157e-12,7.01703e-01,1.17168e-12,7.01703e-01,2.04343e-12,7.01703e-01
7.91228e+02,2.91500e+03,3.81800e+03,-9.03000e+02,1.71356e-12,7.09249e-01,2.07433e-13,7.09249e-01,1.91169e-12,7.09249e-01
7.91478e+02,2.89100e+03,4.46800e+03,-1.57700e+03,7.70703e-13,7.16794e-01,1.72974e-12,7.16794e-01,2.49800e-12,7.16794e-01
7.91728e+02,4.21600e+03,3.24100e+03,9.75000e+02,1.17756e-12,7.24339e-01,2.02875e-12,7.24339e-01,2.98687e-12,7.24339e-01
7.91977e+02,4.37800e+03,2.20600e+03,2.17200e+03,1.45288e-12,7.31884e-01,1.72566e-12,7.31884e-01,3.12680e-12,7.31884e-01
7.92227e+02,2.82400e+03,2.86400e+03,-4.00000e+01,1.34104e-12,7.39429e-01,2.14669e-12,7.39429e-01,2.92347e-12,7.39429e-01
7.92477e+02,2.34900e+03,4.54300e+03,-2.19400e+03,8.62785e-13,7.46975e-01,2.14128e-12,7.46975e-01,2.76356e-12,7.46975e-01
7.92727e+02,3.95900e+03,4.75300e+03,-7.94000e+02,6.79027e-13,7.54520e-01,6.43731e-13,7.54520e-01,1.31447e-12,7.54520e-01
7.92977e+02,5.81800e+03,3.08400e+03,2.73400e+03,3.64915e-13,7.62065e-01,8.94627e-13,7.62065e-01,5.52593e-13,7.62065e-01
7.93227e+02,4.38700e+03,2.70500e+03,1.68200e+03,9.91986e-13,7.69610e-01,9.05837e-13,7.69610e-01,9.72000e-13,7.69610e-01
7.93476e+02,2.88400e+03,4.34300e+03,-1.45900e+03,1.11364e-12,7.77155e-01,3.77409e-13,7.77155e-01,1.47666e-12,7.77155e-01
7.93726e+02,3.36700e+03,5.02800e+03,-1.66100e+03,2.91916e-13,7.84701e-01,9.74466e-13,7.84701e-01,1.13880e-12,7.84701e-01
7.93976e+02,5.36600e+03,3.68200e+03,1.68400e+03,1.13712e-12,7.92246e-01,7.07402e-13,7.92246e-01,6.29997e-13,7.92246e-01
7.94226e+02,5.65300e+03,2.76200e+03,2.89100e+03,1.14616e-12,7.99791e-01,2.31846e-13,7.99791e-01,1.23695e-12,7.99791e-01
7.94476e+02,4.01600e+03,4.15100e+03,-1.35000e+02,4.87119e-13,8.07336e-01,9.89391e-14,8.07336e-01,5.31356e-13,8.07336e-01
7.94725e+02,2.64000e+03,5.24200e+03,-2.60200e+03,3.76146e-13,8.14881e-01,1.00543e-13,8.14881e-01,4.33289e-13,8.14881e-01
7.94975e+02,4.03700e+03,4.83400e+03,-7.97000e+02,8.56526e-13,8.22427e-01,8.62439e-13,8.22427e-01,1.53501e-13,8.22427e-01
7.95225e+02,5.63100e+03,3.26400e+03,2.36700e+03,8.14667e-13,8.29972e-01,1.60784e-12,8.29972e-01,7.97702e-13,8.29972e-01
7.95475e+02,4.87700e+03,3.04800e+03,1.82900e+03,2.93237e-13,8.37517e-01,1.82961e-12,8.37517e-01,1.54275e-12,8.37517e-01
7.95724e+02,3.01400e+03,4.63500e+03,-1.62100e+03,3.04839e-13,8.45062e-01,1.76716e-12,8.45062e-01,1.58553e-12,8.45062e-01
7.95974e+02,3.24800e+03,5.84900e+03,-2.60100e+03,1.13253e-12,8.52607e-01,1.76036e-12,8.52607e-01,1.06210e-12,8.52607e-01
7.96224e+02,5.83100e+03,4.52000e+03,1.31100e+03,1.55702e-12,8.60153e-01,1.15365e-12,8.60153e-01,6.67918e-13,8.60153e-01
7.96474e+02,7.12400e+03,3.11000e+03,4.01400e+03,1.83682e-12,8.67698e-01,1.36137e-12,8.67698e-01,5.19512e-13,8.67698e-01
7.96723e+02,4.75600e+03,3.95000e+03,8.06000e+02,1.63253e-12,8.75243e-01,1.56405e-12,8.75243e-01,1.19184e-13,8.75243e-01
7.96973e+02,3.22700e+03,5.93000e+03,-2.70300e+03,1.18685e-12,8.82788e-01,1.62632e-12,8.82788e-01,7.44843e-13,8.82788e-01
7.97223e+02,4.80100e+03,6.32500e+03,-1.52400e+03,1.23753e-12,8.90333e-01,1.90217e-12,8.90333e-01,1.65518e-12,8.90333e-01
7.97472e+02,6.80700e+03,3.87800e+03,2.92900e+03,1.61326e-12,8.97879e-01,1.68736e-12,8.97879e-01,1.81480e-12,8.97879e-01
7.97722e+02,7.13200e+03,3.61000e+03,3.52200e+03,2.06081e-12,9.05424e-01,1.26176e-12,9.05424e-01,1.44885e-12,9.05424e-01
7.97972e+02,4.89100e+03,6.72900e+03,-1.83800e+03,2.15986e-12,9.12969e-01,1.91734e-12,9.12969e-01,6.15837e-13,9.12969e-01
7.98221e+02,4.92800e+03,8.80000e+03,-3.87200e+03,1.19316e-12,9.20514e-01,1.82148e-12,9.20514e-01,8.08040e-13,9.20514e-01
7.98471e+02,8.34500e+03,6.23400e+03,2.11100e+03,8.34974e-13,9.28059e-01,1.25908e-12,9.28059e-01,1.22684e-12,9.28059e-01
7.98721e+02,9.59400e+03,3.98600e+03,5.60800e+03,1.03623e-12,9.35605e-01,8.20536e-13,9.35605e-01,1.02466e-12,9.35605e-01
7.98970e+02,6.87000e+03,5.72100e+03,1.14900e+03,3.70566e-13,9.43150e-01,2.21775e-13,9.43150e-01,3.82316e-13,9.43150e-01
7.99220e+02,4.14700e+03,8.62500e+03,-4.47800e+03,8.05672e-13,9.50695e-01,3.55359e-13,9.50695e-01,6.22890e-13,9.50695e-01
7.99469e+02,5.15600e+03,8.31000e+03,-3.15400e+03,1.34133e-12,9.58240e-01,2.80970e-13,9.58240e-01,1.06063e-12,9.58240e-01
7.99719e+02,7.93200e+03,5.23800e+03,2.69400e+03,1.09806e-12,9.65785e-01,5.95439e-13,9.65785e-01,9.20363e-13,9.65785e-01
7.99969e+02,7.51800e+03,3.64600e+03,3.87200e+03,1.16591e-12,9.73331e-01,5.25083e-13,9.73331e-01,6.48366e-13,9.73331e-01
8.00218e+02,5.17600e+03,5.92900e+03,-7.53000e+02,1.73614e-12,9.80876e-01,2.28485e-13,9.80876e-01,1.76343e-12,9.80876e-01
8.00468e+02,4.29100e+03,8.33400e+03,-4.04300e+03,1.76511e-12,9.88421e-01,1.02327e-12,9.88421e-01,2.21340e-12,9.88421e-01
8.00717e+02,7.07700e+03,7.18800e+03,-1.11000e+02,1.08625e-12,9.95966e-01,9.85911e-13,9.95966e-01,1.42170e-12,9.95966e-01
8.00967e+02,9.47900e+03,4.74100e+03,4.73800e+03,1.51933e-13,1.00351e+00,4.97651e-13,1.00351e+00,4.21291e-13,1.00351e+00
8.01216e+02,8.01800e+03,5.19300e+03,2.82500e+03,7.61943e-13,1.01106e+00,9.21508e-13,1.01106e+00,3.97861e-13,1.01106e+00
8.01466e+02,5.19600e+03,8.56500e+03,-3.36900e+03,1.06707e-12,1.01860e+00,1.08037e-12,1.01860e+00,2.82130e-13,1.01860e+00
8.01715e+02,5.33100e+03,9.88300e+03,-4.55200e+03,9.11145e-13,1.02615e+00,9.93380e-13,1.02615e+00,3.34597e-13,1.02615e+00
8.01965e+02,8.74000e+03,7.13700e+03,1.60300e+03,3.22553e-13,1.03369e+00,9.13215e-13,1.03369e+00,6.28459e-13,1.03369e+00
8.02215e+02,1.02920e+04,4.89100e+03,5.40100e+03,2.78938e-13,1.04124e+00,6.62917e-13,1.04124e+00,6.27391e-13,1.04124e+00
8.02464e+02,7.28500e+03,7.72900e+03,-4.44000e+02,7.26788e-13,1.04878e+00,4.67184e-13,1.04878e+00,8.00309e-13,1.04878e+00
8.02713e+02,5.39700e+03,1.20280e+04,-6.63100e+03,1.08312e-12,1.05633e+00,2.13621e-13,1.05633e+00,8.87374e-13,1.05633e+00
8.02963e+02,8.93200e+03,1.13900e+04,-2.45800e+03,6.48829e-13,1.06387e+00,3.03172e-13,1.06387e+00,8.41571e-13,1.06387e+00
8.03212e+02,1.27220e+04,7.15400e+03,5.56800e+03,9.88654e-14,1.07142e+00,4.25376e-13,1.07142e+00,4.74581e-13,1.07142e+00
8.03462e+02,1.18310e+04,6.13700e+03,5.69400e+03,7.51559e-13,1.07896e+00,3.56965e-13,1.07896e+00,6.30353e-13,1.07896e+00
8.03711e+02,6.92900e+03,9.58100e+03,-2.65200e+03,1.19338e-12,1.08651e+00,1.25729e-13,1.08651e+00,1.10019e-12,1.08651e+00
8.03961e+02,5.31500e+03,1.18780e+04,-6.56300e+03,1.23511e-12,1.09405e+00,2.62999e-13,1.09405e+00,1.06918e-12,1.09405e+00
8.04210e+02,8.55300e+03,9.43000e+03,-8.77000e+02,1.38430e-12,1.10160e+00,5.62659e-13,1.10160e+00,1.12744e-12,1.10160e+00
8.04460e+02,1.11110e+04,5.49000e+03,5.62100e+03,1.58762e-12,1.10914e+00,6.15782e-13,1.10914e+00,1.32065e-12,1.10914e+00
8.04709e+02,9.12400e+03,6.06400e+03,3.06000e+03,1.78089e-12,1.11669e+00,4.40648e-13,1.11669e+00,1.72462e-12,1.11669e+00
8.04958e+02,5.28300e+03,9.82800e+03,-4.54500e+03,1.24043e-12,1.12423e+00,3.95169e-13,1.12423e+00,1.36828e-12,1.12423e+00
8.05208e+02,6.13600e+03,1.14430e+04,-5.30700e+03,7.20019e-13,1.13178e+00,4.27864e-13,1.13178e+00,5.46571e-13,1.13178e+00
8.05457e+02,1.05200e+04,7.96200e+03,2.55800e+03,4.91135e-13,1.13932e+00,3.60931e-13,1.13932e+00,3.68095e-13,1.13932e+00
8.05707e+02,1.23450e+04,5.34100e+03,7.00400e+03,4.35632e-13,1.14687e+00,1.88441e-13,1.14687e+00,5.90344e-13,1.14687e+00
8.05956e+02,8.72500e+03,8.15100e+03,5.74000e+02,5.56405e-13,1.15442e+00,4.88730e-13,1.15442e+00,9.05729e-13,1.15442e+00
8.06205e+02,5.53300e+03,1.22110e+04,-6.67800e+03,5.66165e-13,1.16196e+00,7.03808e-13,1.16196e+00,1.12804e-12,1.16196e+00
8.06455e+02,8.24300e+03,1.07120e+04,-2.46900e+03,6.41774e-13,1.16951e+00,6.71511e-13,1.16951e+00,1.10404e-12,1.16951e+00
8.06704e+02,1.25640e+04,6.73700e+03,5.82700e+03,1.09068e-13,1.17705e+00,3.51916e-13,1.17705e+00,2.60788e-13,1.17705e+00
8.06953e+02,1.24670e+04,5.77200e+03,6.69500e+03,5.66729e-13,1.18460e+00,1.20610e-13,1.18460e+00,6.78726e-13,1.18460e+00
8.07203e+02,7.12000e+03,9.06400e+03,-1.94400e+03,5.32728e-13,1.19214e+00,2.85363e-13,1.19214e+00,7.31963e-13,1.19214e+00
8.07452e+02,5.44800e+03,1.20610e+04,-6.61300e+03,6.61826e-13,1.19969e+00,2.61238e-13,1.19969e+00,4.00697e-13,1.19969e+00
8.07701e+02,8.90200e+03,1.00430e+04,-1.14100e+03,5.23398e-13,1.20723e+00,2.52222e-13,1.20723e+00,6.80003e-13,1.20723e+00
8.07951e+02,1.15840e+04,5.93400e+03,5.65000e+03,6.46451e-13,1.21478e+00,1.61233e-13,1.21478e+00,6.38037e-13,1.21478e+00
8.08200e+02,9.44800e+03,6.23700e+03,3.21100e+03,6.30314e-13,1.22232e+00,7.38350e-13,1.22232e+00,1.08772e-13,1.22232e+00
8.08449e+02,5.83700e+03,1.10240e+04,-5.18700e+03,4.93644e-13,1.22987e+00,1.07187e-12,1.22987e+00,5.79414e-13,1.22987e+00
8.08698e+02,7.33200e+03,1.35510e+04,-6.21900e+03,4.45469e-13,1.23741e+00,8.36828e-13,1.23741e+00,5.61813e-13,1.23741e+00
8.08948e+02,1.21110e+04,9.89000e+03,2.22100e+03,5.54256e-13,1.24496e+00,4.92194e-13,1.24496e+00,6.29709e-13,1.24496e+00
8.09197e+02,1.41430e+04,6.18800e+03,7.95500e+03,5.28489e-13,1.25250e+00,3.43347e-13,1.25250e+00,7.29688e-13,1.25250e+00
8.09446e+02,1.01160e+04,8.37000e+03,1.74600e+03,8.64026e-13,1.26005e+00,4.55179e-13,1.26005e+00,8.28890e-13,1.26005e+00
8.09695e+02,6.22000e+03,1.34110e+04,-7.19100e+03,1.27306e-12,1.26759e+00,4.26360e-13,1.26759e+00,8.70388e-13,1.26759e+00
8.09945e+02,9.26900e+03,1.41680e+04,-4.89900e+03,6.99338e-13,1.27514e+00,3.09744e-13,1.27514e+00,4.18598e-13,1.27514e+00
8.10194e+02,1.40900e+04,8.90400e+03,5.18600e+03,1.60075e-13,1.28268e+00,6.10082e-13,1.28268e+00,5.01449e-13,1.28268e+00
8.10443e+02,1.37980e+04,6.43700e+03,7.36100e+03,6.85108e-13,1.29023e+00,4.11508e-13,1.29023e+00,7.81008e-13,1.29023e+00
8.10692e+02,8.44400e+03,1.18830e+04,-3.43900e+03,2.92622e-13,1.29777e+00,5.94437e-13,1.29777e+00,5.99784e-13,1.29777e+00
8.10941e+02,6.53500e+03,1.51510e+04,-8.61600e+03,7.15145e-13,1.30532e+00,9.63406e-13,1.30532e+00,9.83497e-13,1.30532e+00
8.11191e+02,1.00820e+04,1.20400e+04,-1.95800e+03,7.55066e-13,1.31286e+00,4.71067e-13,1.31286e+00,1.00231e-12,1.31286e+00
8.11440e+02,1.39170e+04,7.19000e+03,6.72700e+03,1.07852e-12,-1.32041e+00,1.06663e-12,-1.32041e+00,1.18915e-14,-1.32041e+00
8.11689e+02,1.33960e+04,7.69500e+03,5.70100e+03,7.55066e-13,-1.31286e+00,4.71067e-13,-1.31286e+00,1.00231e-12,-1.31286e+00
8.11938e+02,8.01900e+03,1.23700e+04,-4.35100e+03,7.15145e-13,-1.30532e+00,9.63406e-13,-1.30532e+00,9.83497e-13,-1.30532e+00
8.12187e+02,7.75500e+03,1.46840e+04,-6.92900e+03,2.92622e-13,-1.29777e+00,5.94437e-13,-1.29777e+00,5.99784e-13,-1.29777e+00
8.12436e+02,1.12930e+04,1.11490e+04,1.44000e+02,6.85108e-13,-1.29023e+00,4.11508e-13,-1.29023e+00,7.81008e-13,-1.29023e+00
8.12685e+02,1.27440e+04,6.61700e+03,6.12700e+03,1.60075e-13,-1.28268e+00,6.10082e-13,-1.28268e+00,5.01449e-13,-1.28268e+00
8.12935e+02,1.04560e+04,8.32300e+03,2.13300e+03,6.99338e-13,-1.27514e+00,3.09744e-13,-1.27514e+00,4.18598e-13,-1.27514e+00
8.13184e+02,6.84700e+03,1.29620e+04,-6.11500e+03,1.27306e-12,-1.26759e+00,4.26360e-13,-1.26759e+00,8.70388e-13,-1.26759e+00
8.13433e+02,7.64500e+03,1.29520e+04,-5.30700e+03,8.64026e-13,-1.26005e+00,4.55179e-13,-1.26005e+00,8.28890e-13,-1.26005e+00
8.13682e+02,1.33050e+04,9.55200e+03,3.75300e+03,5.28489e-13,-1.25250e+00,3.43347e-13,-1.25250e+00,7.29688e-13,-1.25250e+00
8.13931e+02,1.50220e+04,6.36100e+03,8.66100e+03,5.54256e-13,-1.24496e+00,4.92194e-13,-1.24496e+00,6.29709e-13,-1.24496e+00
8.14180e+02,1.03130e+04,7.90600e+03,2.40700e+03,4.45469e-13,-1.23741e+00,8.36828e-13,-1.23741e+00,5.61813e-13,-1.23741e+00
8.14429e+02,6.30400e+03,1.26680e+04,-6.36400e+03,4.93644e-13,-1.22987e+00,1.07187e-12,-1.22987e+00,5.79414e-13,-1.22987e+00
8.14678e+02,8.25000e+03,1.23770e+04,-4.12700e+03,6.30314e-13,-1.22232e+00,7.38350e-13,-1.22232e+00,1.08772e-13,-1.22232e+00
8.14927e+02,1.16830e+04,7.35200e+03,4.33100e+03,6.46451e-13,-1.21478e+00,1.61233e-13,-1.21478e+00,6.38037e-13,-1.21478e+00
8.15176e+02,1.20160e+04,5.69600e+03,6.32000e+03,5.23398e-13,-1.20723e+00,2.52222e-13,-1.20723e+00,6.80003e-13,-1.20723e+00
8.15425e+02,7.51100e+03,8.87000e+03,-1.35900e+03,6.61826e-13,-1.19969e+00,2.61238e-13,-1.19969e+00,4.00697e-13,-1.19969e+00
8.15674e+02,5.77300e+03,1.20490e+04,-6.27600e+03,5.32728e-13,-1.19214e+00,2.85363e-13,-1.19214e+00,7.31963e-13,-1.19214e+00
8.15923e+02,1.01350e+04,1.18940e+04,-1.75900e+03,5.66729e-13,-1.18460e+00,1.20610e-13,-1.18460e+00,6.78726e-13,-1.18460e+00
8.16172e+02,1.24610e+04,6.89000e+03,5.57100e+03,1.09068e-13,-1.17705e+00,3.51916e-13,-1.17705e+00,2.60788e-13,-1.17705e+00
8.16421e+02,1.04390e+04,6.03300e+03,4.40600e+03,6.41774e-13,-1.16951e+00,6.71511e-13,-1.16951e+00,1.10404e-12,-1.16951e+00
8.16670e+02,5.84800e+03,9.62400e+03,-3.77600e+03,5.66165e-13,-1.16196e+00,7.03808e-13,-1.16196e+00,1.12804e-12,-1.16196e+00
8.16919e+02,5.80800e+03,1.22150e+04,-6.40700e+03,5.56405e-13,-1.15442e+00,4.88730e-13,-1.15442e+00,9.05729e-13,-1.15442e+00
8.17168e+02,8.63500e+03,9.17500e+03,-5.40000e+02,4.35632e-13,-1.14687e+00,1.88441e-13,-1.14687e+00,5.90344e-13,-1.14687e+00
8.17417e+02,1.07750e+04,5.48600e+03,5.28900e+03,4.91135e-13,-1.13932e+00,3.60931e-13,-1.13932e+00,3.68095e-13,-1.13932e+00
8.17666e+02,9.43600e+03,6.00900e+03,3.42700e+03,7.20019e-13,-1.13178e+00,4.27864e-13,-1.13178e+00,5.46571e-13,-1.13178e+00
8.17915e+02,5.57600e+03,9.50300e+03,-3.92700e+03,1.24043e-12,-1.12423e+00,3.95169e-13,-1.12423e+00,1.36828e-12,-1.12423e+00
8.18164e+02,5.32700e+03,1.04910e+04,-5.16400e+03,1.78089e-12,-1.11669e+00,4.40648e-13,-1.11669e+00,1.72462e-12,-1.11669e+00
8.18413e+02,8.33200e+03,7.43000e+03,9.02000e+02,1.58762e-12,-1.10914e+00,6.15782e-13,-1.10914e+00,1.32065e-12,-1.10914e+00
8.18662e+02,9.00700e+03,4.30600e+03,4.70100e+03,1.38430e-12,-1.10160e+00,5.62659e-13,-1.10160e+00,1.12744e-12,-1.10160e+00
8.18911e+02,7.50400e+03,5.21800e+03,2.28600e+03,1.23511e-12,-1.09405e+00,2.62999e-13,-1.09405e+00,1.06918e-12,-1.09405e+00
8.19160e+02,4.47400e+03,8.45600e+03,-3.98200e+03,1.19338e-12,-1.08651e+00,1.25729e-13,-1.08651e+00,1.10019e-12,-1.08651e+00
8.19408e+02,4.96600e+03,9.85300e+03,-4.88700e+03,7.51559e-13,-1.07896e+00,3.56965e-13,-1.07896e+00,6.30353e-13,-1.07896e+00
8.19657e+02,9.79600e+03,7.58700e+03,2.20900e+03,9.88654e-14,-1.07142e+00,4.25376e-13,-1.07142e+00,4.74581e-13,-1.07142e+00
8.19906e+02,1.18740e+04,4.78700e+03,7.08700e+03,6.48829e-13,-1.06387e+00,3.03172e-13,-1.06387e+00,8.41571e-13,-1.06387e+00
8.20155e+02,9.04600e+03,6.20300e+03,2.84300e+03,1.08312e-12,-1.05633e+00,2.13621e-13,-1.05633e+00,8.87374e-13,-1.05633e+00
8.20404e+02,5.21500e+03,9.52700e+03,-4.31200e+03,7.26788e-13,-1.04878e+00,4.67184e-13,-1.04878e+00,8.00309e-13,-1.04878e+00
8.20653e+02,5.45200e+03,9.54000e+03,-4.08800e+03,2.78938e-13,-1.04124e+00,6.62917e-13,-1.04124e+00,6.27391e-13,-1.04124e+00
8.20901e+02,9.10600e+03,6.63600e+03,2.47000e+03,3.22553e-13,-1.03369e+00,9.13215e-13,-1.03369e+00,6.28459e-13,-1.03369e+00
8.21150e+02,1.06730e+04,4.27200e+03,6.40100e+03,9.11145e-13,-1.02615e+00,9.93380e-13,-1.02615e+00,3.34597e-13,-1.02615e+00
8.21399e+02,6.57600e+03,5.51200e+03,1.06400e+03,1.06707e-12,-1.01860e+00,1.08037e-12,-1.01860e+00,2.82130e-13,-1.01860e+00
8.21648e+02,3.80400e+03,8.77800e+03,-4.97400e+03,7.61943e-13,-1.01106e+00,9.21508e-13,-1.01106e+00,3.97861e-13,-1.01106e+00
8.21897e+02,4.63200e+03,9.13800e+03,-4.50600e+03,1.51933e-13,-1.00351e+00,4.97651e-13,-1.00351e+00,4.21291e-13,-1.00351e+00
8.22145e+02,7.04600e+03,5.92800e+03,1.11800e+03,1.08625e-12,-9.95966e-01,9.85911e-13,-9.95966e-01,1.42170e-12,-9.95966e-01
8.22394e+02,8.00300e+03,3.93700e+03,4.06600e+03,1.76511e-12,-9.88421e-01,1.02327e-12,-9.88421e-01,2.21340e-12,-9.88421e-01
8.22643e+02,5.77800e+03,5.05700e+03,7.21000e+02,1.73614e-12,-9.80876e-01,2.28485e-13,-9.80876e-01,1.76343e-12,-9.80876e-01
8.22892e+02,3.75400e+03,7.47000e+03,-3.71600e+03,1.16591e-12,-9.73331e-01,5.25083e-13,-9.73331e-01,6.48366e-13,-9.73331e-01
8.23140e+02,5.08900e+03,7.62700e+03,-2.53800e+03,1.09806e-12,-9.65785e-01,5.95439e-13,-9.65785e-01,9.20363e-13,-9.65785e-01
8.23389e+02,7.94200e+03,5.10100e+03,2.84100e+03,1.34133e-12,-9.58240e-01,2.80970e-13,-9.58240e-01,1.06063e-12,-9.58240e-01
8.23638e+02,8.20600e+03,3.59600e+03,4.61000e+03,8.05672e-13,-9.50695e-01,3.55359e-13,-9.50695e-01,6.22890e-13,-9.50695e-01
8.23887e+02,5.22900e+03,5.45400e+03,-2.25000e+02,3.70566e-13,-9.43150e-01,2.21775e-13,-9.43150e-01,3.82316e-13,-9.43150e-01
8.24135e+02,3.25600e+03,7.17700e+03,-3.92100e+03,1.03623e-12,-9.35605e-01,8.20536e-13,-9.35605e-01,1.02466e-12,-9.35605e-01
8.24384e+02,4.51200e+03,6.95300e+03,-2.44100e+03,8.34974e-13,-9.28059e-01,1.25908e-12,-9.28059e-01,1.22684e-12,-9.28059e-01
8.24633e+02,7.46800e+03,4.53000e+03,2.93800e+03,1.19316e-12,-9.20514e-01,1.82148e-12,-9.20514e-01,8.08040e-13,-9.20514e-01
8.24881e+02,7.04900e+03,3.33900e+03,3.71000e+03,2.15986e-12,-9.12969e-01,1.91734e-12,-9.12969e-01,6.15837e-13,-9.12969e-01
8.25130e+02,4.99900e+03,5.29300e+03,-2.94000e+02,2.06081e-12,-9.05424e-01,1.26176e-12,-9.05424e-01,1.44885e-12,-9.05424e-01
8.25379e+02,3.25100e+03,7.65300e+03,-4.40200e+03,1.61326e-12,-8.97879e-01,1.68736e-12,-8.97879e-01,1.81480e-12,-8.97879e-01
8.25627e+02,4.31300e+03,6.28400e+03,-1.97100e+03,1.23753e-12,-8.90333e-01,1.90217e-12,-8.90333e-01,1.65518e-12,-8.90333e-01
8.25876e+02,6.23700e+03,3.74700e+03,2.49000e+03,1.18685e-12,-8.82788e-01,1.62632e-12,-8.82788e-01,7.44843e-13,-8.82788e-01
8.26125e+02,5.91400e+03,2.85400e+03,3.06000e+03,1.63253e-12,-8.75243e-01,1.56405e-12,-8.75243e-01,1.19184e-13,-8.75243e-01
8.26373e+02,3.56500e+03,4.29400e+03,-7.29000e+02,1.83682e-12,-8.67698e-01,1.36137e-12,-8.67698e-01,5.19512e-13,-8.67698e-01
8.26622e+02,2.25800e+03,5.73700e+03,-3.47900e+03,1.55702e-12,-8.60153e-01,1.15365e-12,-8.60153e-01,6.67918e-13,-8.60153e-01
8.26870e+02,2.86800e+03,4.42600e+03,-1.55800e+03,1.13253e-12,-8.52607e-01,1.76036e-12,-8.52607e-01,1.06210e-12,-8.52607e-01
8.27119e+02,4.42500e+03,2.81200e+03,1.61300e+03,3.04839e-13,-8.45062e-01,1.76716e-12,-8.45062e-01,1.58553e-12,-8.45062e-01
8.27368e+02,4.98000e+03,2.33500e+03,2.64500e+03,2.93237e-13,-8.37517e-01,1.82961e-12,-8.37517e-01,1.54275e-12,-8.37517e-01
8.27616e+02,3.48900e+03,3.30200e+03,1.87000e+02,8.14667e-13,-8.29972e-01,1.60784e-12,-8.29972e-01,7.97702e-13,-8.29972e-01
8.27865e+02,2.33100e+03,4.64100e+03,-2.31000e+03,8.56526e-13,-8.22427e-01,8.62439e-13,-8.22427e-01,1.53501e-13,-8.22427e-01
8.28113e+02,3.16800e+03,4.60800e+03,-1.44000e+03,3.76146e-13,-8.14881e-01,1.00543e-13,-8.14881e-01,4.33289e-13,-8.14881e-01
8.28362e+02,4.93900e+03,3.10400e+03,1.83500e+03,4.87119e-13,-8.07336e-01,9.89391e-14,-8.07336e-01,5.31356e-13,-8.07336e-01
8.28610e+02,4.28600e+03,2.15800e+03,2.12800e+03,1.14616e-12,-7.99791e-01,2.31846e-13,-7.99791e-01,1.23695e-12,-7.99791e-01
8.28859e+02,2.75900e+03,3.14400e+03,-3.85000e+02,1.13712e-12,-7.92246e-01,7.07402e-13,-7.92246e-01,6.29997e-13,-7.92246e-01
8.29108e+02,1.66800e+03,4.04500e+03,-2.37700e+03,2.91916e-13,-7.84701e-01,9.74466e-13,-7.84701e-01,1.13880e-12,-7.84701e-01
8.29356e+02,2.06500e+03,3.28700e+03,-1.22200e+03,1.11364e-12,-7.77155e-01,3.77409e-13,-7.77155e-01,1.47666e-12,-7.77155e-01
8.29605e+02,2.85500e+03,2.03700e+03,8.18000e+02,9.91986e-13,-7.69610e-01,9.05837e-13,-7.69610e-01,9.72000e-13,-7.69610e-01
8.29853e+02,2.75400e+03,1.75900e+03,9.95000e+02,3.64915e-13,-7.62065e-01,8.94627e-13,-7.62065e-01,5.52593e-13,-7.62065e-01
8.30101e+02,1.95100e+03,2.64000e+03,-6.89000e+02,6.79027e-13,-7.54520e-01,6.43731e-13,-7.54520e-01,1.31447e-12,-7.54520e-01
8.30350e+02,1.62400e+03,3.43400e+03,-1.81000e+03,8.62785e-13,-7.46975e-01,2.14128e-12,-7.46975e-01,2.76356e-12,-7.46975e-01
8.30598e+02,2.03800e+03,2.64200e+03,-6.04000e+02,1.34104e-12,-7.39429e-01,2.14669e-12,-7.39429e-01,2.92347e-12,-7.39429e-01
8.30847e+02,2.67700e+03,1.64200e+03,1.03500e+03,1.45288e-12,-7.31884e-01,1.72566e-12,-7.31884e-01,3.12680e-12,-7.31884e-01
8.31095e+02,2.63800e+03,1.41100e+03,1.22700e+03,1.17756e-12,-7.24339e-01,2.02875e-12,-7.24339e-01,2.98687e-12,-7.24339e-01
8.31344e+02,1.71600e+03,2.18000e+03,-4.64000e+02,7.70703e-13,-7.16794e-01,1.72974e-12,-7.16794e-01,2.49800e-12,-7.16794e-01
8.31592e+02,1.19500e+03,2.61700e+03,-1.42200e+03,1.71356e-12,-7.09249e-01,2.07433e-13,-7.09249e-01,1.91169e-12,-7.09249e-01
8.31841e+02,1.68400e+03,2.27700e+03,-5.93000e+02,1.98157e-12,-7.01703e-01,1.17168e-12,-7.01703e-01,2.04343e-12,-7.01703e-01
8.32089e+02,2.21700e+03,1.43000e+03,7.87000e+02,1.07315e-12,-6.94158e-01,2.75726e-13,-6.94158e-01,1.10914e-12,-6.94158e-01
8.32337e+02,2.28500e+03,1.23500e+03,1.05000e+03,2.29812e-12,-6.86613e-01,2.13877e-12,-6.86613e-01,3.83000e-12,-6.86613e-01
8.32586e+02,1.46900e+03,1.74600e+03,-2.77000e+02,2.81786e-12,-6.79068e-01,3.58601e-12,-6.79068e-01,5.28626e-12,-6.79068e-01
8.32834e+02,1.16600e+03,2.38200e+03,-1.21600e+03,1.88531e-12,-6.71523e-01,3.46956e-12,-6.71523e-01,4.02099e-12,-6.71523e-01
8.33083e+02,1.43200e+03,1.98100e+03,-5.49000e+02,1.46283e-12,-6.63977e-01,2.21190e-12,-6.63977e-01,1.72220e-12,-6.63977e-01
8.33331e+02,1.76500e+03,1.25200e+03,5.13000e+02,1.82359e-12,-6.56432e-01,1.65081e-12,-6.56432e-01,8.47380e-13,-6.56432e-01
8.33579e+02,1.59400e+03,1.01400e+03,5.80000e+02,2.62753e-12,-6.48887e-01,2.02567e-12,-6.48887e-01,1.28465e-12,-6.48887e-01
8.33828e+02,1.11100e+03,1.38700e+03,-2.76000e+02,2.25441e-12,-6.41342e-01,3.16921e-12,-6.41342e-01,2.11658e-12,-6.41342e-01
8.34076e+02,8.54000e+02,1.56000e+03,-7.06000e+02,1.52907e-12,-6.33797e-01,3.10746e-12,-6.33797e-01,2.36497e-12,-6.33797e-01
8.34324e+02,1.22100e+03,1.51900e+03,-2.98000e+02,3.60707e-12,-6.26251e-01,3.70212e-13,-6.26251e-01,3.97215e-12,-6.26251e-01
8.34573e+02,1.55300e+03,1.02400e+03,5.29000e+02,2.35221e-12,-6.18706e-01,1.96565e-12,-6.18706e-01,3.76399e-12,-6.18706e-01
8.34821e+02,1.50500e+03,8.82000e+02,6.23000e+02,5.22049e-12,-6.11161e-01,4.73188e-12,-6.11161e-01,9.44189e-12,-6.11161e-01
8.35069e+02,1.02700e+03,1.19500e+03,-1.68000e+02,7.06858e-12,-6.03616e-01,7.03300e-12,-6.03616e-01,1.32453e-11,-6.03616e-01
8.35318e+02,8.74000e+02,1.55800e+03,-6.84000e+02,6.46189e-12,-5.96071e-01,7.04139e-12,-5.96071e-01,1.30335e-11,-5.96071e-01
8.35566e+02,9.18000e+02,1.33200e+03,-4.14000e+02,1.44893e-11,-5.88525e-01,1.43420e-11,-5.88525e-01,2.76785e-11,-5.88525e-01
8.35814e+02,1.15900e+03,9.40000e+02,2.19000e+02,2.39845e-11,-5.80980e-01,2.39534e-11,-5.80980e-01,4.62925e-11,-5.80980e-01
8.36062e+02,1.11700e+03,7.40000e+02,3.77000e+02,3.23988e-11,-5.73435e-01,3.19243e-11,-5.73435e-01,6.24433e-11,-5.73435e-01
8.36311e+02,9.10000e+02,9.18000e+02,-8.00000e+00,3.96604e-11,-5.65890e-01,3.89729e-11,-5.65890e-01,7.66860e-11,-5.65890e-01
8.36559e+02,7.27000e+02,1.14900e+03,-4.22000e+02,4.42109e-11,-5.58345e-01,4.41898e-11,-5.58345e-01,8.64479e-11,-5.58345e-01
8.36807e+02,7.93000e+02,1.13800e+03,-3.45000e+02,4.35420e-11,-5.50799e-01,4.40572e-11,-5.50799e-01,8.56631e-11,-5.50799e-01
8.37055e+02,9.48000e+02,8.09000e+02,1.39000e+02,3.63687e-11,-5.43254e-01,3.72589e-11,-5.43254e-01,7.19254e-11,-5.43254e-01
8.37304e+02,1.00000e+03,7.13000e+02,2.87000e+02,2.61132e-11,-5.35709e-01,2.58010e-11,-5.35709e-01,5.05868e-11,-5.35709e-01
8.37552e+02,7.88000e+02,7.62000e+02,2.60000e+01,1.82526e-11,-5.28164e-01,1.70812e-11,-5.28164e-01,3.46389e-11,-5.28164e-01
8.37800e+02,7.28000e+02,9.49000e+02,-2.21000e+02,1.21272e-11,-5.20619e-01,1.07414e-11,-5.20619e-01,2.21105e-11,-5.20619e-01
8.38048e+02,6.88000e+02,8.09000e+02,-1.21000e+02,9.06507e-12,-5.13073e-01,4.40617e-12,-5.13073e-01,1.32280e-11,-5.13073e-01
8.38296e+02,7.90000e+02,7.24000e+02,6.60000e+01,4.66179e-12,-5.05528e-01,2.38421e-12,-5.05528e-01,6.73841e-12,-5.05528e-01
8.38545e+02,7.80000e+02,6.75000e+02,1.05000e+02,1.93077e-12,-4.97983e-01,1.53955e-12,-4.97983e-01,3.46992e-12,-4.97983e-01
8.38793e+02,7.38000e+02,7.23000e+02,1.50000e+01,3.22027e-12,-4.90438e-01,2.96945e-13,-4.90438e-01,3.47754e-12,-4.90438e-01
8.39041e+02,6.66000e+02,7.67000e+02,-1.01000e+02,2.70994e-12,-4.82893e-01,1.11238e-12,-4.82893e-01,3.66215e-12,-4.82893e-01
8.39289e+02,6.62000e+02,7.69000e+02,-1.07000e+02,1.32292e-12,-4.75347e-01,1.62266e-12,-4.75347e-01,2.89856e-12,-4.75347e-01
8.39537e+02,7.16000e+02,6.94000e+02,2.20000e+01,1.32755e-12,-4.67802e-01,7.86200e-13,-4.67802e-01,2.11325e-12,-4.67802e-01
8.39785e+02,7.64000e+02,6.45000e+02,1.19000e+02,2.73498e-12,-4.60257e-01,4.19118e-13,-4.60257e-01,3.11168e-12,-4.60257e-01
8.40033e+02,6.73000e+02,6.62000e+02,1.10000e+01,2.21129e-12,-4.52712e-01,7.58194e-13,-4.52712e-01,2.39287e-12,-4.52712e-01
8.40281e+02,6.79000e+02,7.53000e+02,-7.40000e+01,1.46061e-12,-4.45167e-01,1.76226e-12,-4.45167e-01,1.90993e-12,-4.45167e-01
8.40530e+02,6.18000e+02,6.84000e+02,-6.60000e+01,2.75266e-12,-4.37621e-01,2.81240e-12,-4.37621e-01,4.85218e-12,-4.37621e-01
8.40778e+02,6.86000e+02,6.61000e+02,2.50000e+01,1.79024e-12,-4.30076e-01,2.00829e-12,-4.30076e-01,2.95799e-12,-4.30076e-01
8.41026e+02,6.70000e+02,6.49000e+02,2.10000e+01,2.39412e-12,-4.22531e-01,4.92572e-13,-4.22531e-01,1.92625e-12,-4.22531e-01
8.41274e+02,6.74000e+02,6.52000e+02,2.20000e+01,2.52925e-12,-4.14986e-01,1.83154e-12,-4.14986e-01,2.21258e-12,-4.14986e-01
8.41522e+02,6.53000e+02,6.60000e+02,-7.00000e+00,1.33180e-12,-4.07441e-01,3.47577e-12,-4.07441e-01,3.91496e-12,-4.07441e-01
8.41770e+02,6.46000e+02,6.77000e+02,-3.10000e+01,1.84895e-12,-3.99895e-01,2.19690e-12,-3.99895e-01,4.01340e-12,-3.99895e-01
8.42018e+02,6.58000e+02,6.37000e+02,2.10000e+01,1.58657e-12,-3.92350e-01,1.68409e-12,-3.92350e-01,2.42213e-12,-3.92350e-01
8.42266e+02,6.75000e+02,6.46000e+02,2.90000e+01,1.96856e-12,-3.84805e-01,2.42539e-12,-3.84805e-01,3.83979e-12,-3.84805e-01
8.42514e+02,6.47000e+02,6.40000e+02,7.00000e+00,3.92509e-12,-3.77260e-01,2.14194e-13,-3.77260e-01,3.86418e-12,-3.77260e-01
8.42762e+02,6.61000e+02,6.76000e+02,-1.50000e+01,5.13732e-12,-3.69715e-01,1.69549e-12,-3.69715e-01,3.68800e-12,-3.69715e-01
8.43010e+02,6.27000e+02,6.46000e+02,-1.90000e+01,4.42259e-12,-3.62169e-01,1.59147e-12,-3.62169e-01,3.69236e-12,-3.62169e-01
8.43258e+02,6.44000e+02,6.49000e+02,-5.00000e+00,4.14394e-12,-3.54624e-01,1.51899e-12,-3.54624e-01,3.09219e-12,-3.54624e-01
8.43506e+02,6.57000e+02,6.33000e+02,2.40000e+01,4.15378e-12,-3.47079e-01,2.84139e-12,-3.47079e-01,2.95022e-12,-3.47079e-01
8.43754e+02,6.42000e+02,6.41000e+02,1.00000e+00,2.66244e-12,-3.39534e-01,2.16908e-12,-3.39534e-01,1.88634e-12,-3.39534e-01
8.44002e+02,6.35000e+02,6.40000e+02,-5.00000e+00,1.23790e-12,-3.31989e-01,9.69675e-13,-3.31989e-01,9.29126e-13,-3.31989e-01
8.44250e+02,6.43000e+02,6.46000e+02,-3.00000e+00,2.52090e-12,-3.24444e-01,1.15009e-12,-3.24444e-01,1.85124e-12,-3.24444e-01
8.44498e+02,6.49000e+02,6.35000e+02,1.40000e+01,4.75615e-12,-3.16898e-01,1.34182e-12,-3.16898e-01,3.58023e-12,-3.16898e-01
8.44746e+02,6.44000e+02,6.32000e+02,1.20000e+01,6.06643e-12,-3.09353e-01,1.23517e-12,-3.09353e-01,4.83475e-12,-3.09353e-01
8.44994e+02,6.32000e+02,6.31000e+02,1.00000e+00,4.94850e-12,-3.01808e-01,4.12289e-13,-3.01808e-01,5.18150e-12,-3.01808e-01
8.45242e+02,6.63000e+02,6.62000e+02,1.00000e+00,4.40737e-12,-2.94263e-01,1.41523e-12,-2.94263e-01,5.32170e-12,-2.94263e-01
8.45490e+02,6.19000e+02,6.20000e+02,-1.00000e+00,3.45908e-12,-2.86718e-01,1.54701e-12,-2.86718e-01,4.14628e-12,-2.86718e-01
8.45738e+02,6.14000e+02,6.40000e+02,-2.60000e+01,9.44931e-13,-2.79172e-01,9.60039e-13,-2.79172e-01,1.45313e-12,-2.79172e-01
8.45985e+02,6.32000e+02,6.33000e+02,-1.00000e+00,4.78064e-12,-2.71627e-01,2.05019e-12,-2.71627e-01,3.15688e-12,-2.71627e-01
8.46233e+02,6.36000e+02,6.22000e+02,1.40000e+01,4.62196e-12,-2.64082e-01,2.17568e-12,-2.64082e-01,3.24917e-12,-2.64082e-01
8.46481e+02,6.21000e+02,6.25000e+02,-4.00000e+00,2.43019e-12,-2.56537e-01,5.35279e-13,-2.56537e-01,2.22683e-12,-2.56537e-01
8.46729e+02,6.24000e+02,6.37000e+02,-1.30000e+01,5.08087e-12,-2.48992e-01,1.68901e-12,-2.48992e-01,3.39250e-12,-2.48992e-01
8.46977e+02,6.33000e+02,6.36000e+02,-3.00000e+00,6.41226e-12,-2.41446e-01,1.75169e-12,-2.41446e-01,4.80162e-12,-2.41446e-01
8.47225e+02,6.42000e+02,6.40000e+02,2.00000e+00,5.13846e-12,-2.33901e-01,1.48122e-12,-2.33901e-01,4.08329e-12,-2.33901e-01
8.47473e+02,6.44000e+02,6.28000e+02,1.60000e+01,3.07101e-12,-2.26356e-01,9.57273e-13,-2.26356e-01,2.57929e-12,-2.26356e-01
8.47720e+02,6.56000e+02,6.62000e+02,-6.00000e+00,3.99473e-13,-2.18811e-01,6.85301e-13,-2.18811e-01,1.05840e-12,-2.18811e-01
8.47968e+02,6.23000e+02,6.11000e+02,1.20000e+01,1.65827e-12,-2.11266e-01,9.86419e-13,-2.11266e-01,6.74881e-13,-2.11266e-01
8.48216e+02,6.21000e+02,6.35000e+02,-1.40000e+01,2.19865e-12,-2.03720e-01,2.10284e-12,-2.03720e-01,2.48541e-12,-2.03720e-01
8.48464e+02,6.34000e+02,6.33000e+02,1.00000e+00,4.27320e-12,-1.96175e-01,3.09183e-12,-1.96175e-01,4.25866e-12,-1.96175e-01
8.48712e+02,6.44000e+02,6.28000e+02,1.60000e+01,6.54126e-12,-1.88630e-01,3.26127e-12,-1.88630e-01,3.72805e-12,-1.88630e-01
8.48960e+02,6.33000e+02,6.38000e+02,-5.00000e+00,6.90462e-12,-1.81085e-01,4.44094e-12,-1.81085e-01,2.76414e-12,-1.81085e-01
8.49207e+02,6.42000e+02,6.38000e+02,4.00000e+00,6.29537e-12,-1.73540e-01,5.02602e-12,-1.73540e-01,2.36854e-12,-1.73540e-01
8.49455e+02,6.38000e+02,6.27000e+02,1.10000e+01,2.29969e-12,-1.65994e-01,2.79526e-12,-1.65994e-01,5.17588e-13,-1.65994e-01
8.49703e+02,6.40000e+02,6.35000e+02,5.00000e+00,5.78564e-12,-1.58449e-01,3.69064e-12,-1.58449e-01,3.04098e-12,-1.58449e-01
8.49951e+02,6.19000e+02,6.21000e+02,-2.00000e+00,7.88186e-12,-1.50904e-01,6.60922e-12,-1.50904e-01,4.65372e-12,-1.50904e-01
8.50198e+02,6.55000e+02,6.57000e+02,-2.00000e+00,4.37498e-12,-1.43359e-01,5.14235e-12,-1.43359e-01,3.46765e-12,-1.43359e-01
8.50446e+02,6.13000e+02,6.12000e+02,1.00000e+00,1.54109e-12,-1.35814e-01,1.78845e-12,-1.35814e-01,2.99341e-12,-1.35814e-01
8.50694e+02,6.33000e+02,6.33000e+02,0.00000e+00,3.74268e-12,-1.28268e-01,1.22619e-12,-1.28268e-01,2.52794e-12,-1.28268e-01
8.50941e+02,6.37000e+02,6.33000e+02,4.00000e+00,5.68877e-12,-1.20723e-01,4.16456e-12,-1.20723e-01,1.86314e-12,-1.20723e-01
8.51189e+02,6.22000e+02,6.40000e+02,-1.80000e+01,5.67674e-12,-1.13178e-01,4.89820e-12,-1.13178e-01,3.15780e-12,-1.13178e-01
8.51437e+02,6.21000e+02,6.21000e+02,0.00000e+00,3.42450e-12,-1.05633e-01,5.13164e-12,-1.05633e-01,2.99037e-12,-1.05633e-01
8.51685e+02,6.30000e+02,6.21000e+02,9.00000e+00,2.23695e-12,-9.80876e-02,4.18503e-12,-9.80876e-02,3.33589e-12,-9.80876e-02
8.51932e+02,6.22000e+02,6.26000e+02,-4.00000e+00,3.41203e-12,-9.05424e-02,3.85240e-12,-9.05424e-02,4.22866e-12,-9.05424e-02
8.52180e+02,6.21000e+02,6.40000e+02,-1.90000e+01,3.29986e-12,-8.29972e-02,3.72858e-12,-8.29972e-02,3.37105e-12,-8.29972e-02
8.52428e+02,6.24000e+02,6.17000e+02,7.00000e+00,2.68701e-12,-7.54520e-02,3.78593e-12,-7.54520e-02,2.31961e-12,-7.54520e-02
8.52675e+02,6.64000e+02,6.58000e+02,6.00000e+00,5.15683e-12,-6.79068e-02,6.22706e-12,-6.79068e-02,1.47497e-12,-6.79068e-02
8.52923e+02,6.16000e+02,6.10000e+02,6.00000e+00,7.92412e-12,-6.03616e-02,8.62136e-12,-6.03616e-02,7.17294e-13,-6.03616e-02
8.53170e+02,6.33000e+02,6.32000e+02,1.00000e+00,8.11271e-12,-5.28164e-02,8.53258e-12,-5.28164e-02,7.38598e-13,-5.28164e-02
8.53418e+02,6.33000e+02,6.24000e+02,9.00000e+00,3.99482e-12,-4.52712e-02,4.62621e-12,-4.52712e-02,1.11815e-12,-4.52712e-02
8.53666e+02,6.29000e+02,6.20000e+02,9.00000e+00,4.09503e-12,-3.77260e-02,4.39501e-12,-3.77260e-02,5.64542e-13,-3.77260e-02
8.53913e+02,6.27000e+02,6.28000e+02,-1.00000e+00,3.04162e-12,-3.01808e-02,5.81501e-12,-3.01808e-02,3.33160e-12,-3.01808e-02
8.54161e+02,6.42000e+02,6.29000e+02,1.30000e+01,1.74825e-11,-2.26356e-02,1.78021e-11,-2.26356e-02,3.64961e-12,-2.26356e-02
8.54409e+02,6.23000e+02,6.29000e+02,-6.00000e+00,8.34687e-11,-1.50904e-02,8.40893e-11,-1.50904e-02,2.28892e-12,-1.50904e-02
8.54656e+02,6.34000e+02,6.25000e+02,9.00000e+00,2.33763e-10,-7.54520e-03,2.31452e-10,-7.54520e-03,4.77924e-12,-7.54520e-03
