7.67698e+02,6.20000e+02,6.26000e+02,-6.00000e+00,3.97412e-10,0.00000e+00,3.94385e-10,0.00000e+00,3.02628e-12,0.00000e+00
7.67949e+02,6.51000e+02,6.53000e+02,-2.00000e+00,2.39446e-10,7.54520e-03,2.35188e-10,7.54520e-03,4.95022e-12,7.54520e-03
7.68199e+02,6.14000e+02,6.02000e+02,1.20000e+01,8.80556e-11,1.50904e-02,8.26660e-11,1.50904e-02,5.91452e-12,1.50904e-02
7.68450e+02,6.38000e+02,6.33000e+02,5.00000e+00,2.39547e-11,2.26356e-02,1.83090e-11,2.26356e-02,6.72269e-12,2.26356e-02
7.68701e+02,6.42000e+02,6.41000e+02,1.00000e+00,7.96692e-12,3.01808e-02,2.81385e-12,3.01808e-02,7.55672e-12,3.01808e-02
7.68951e+02,6.29000e+02,6.61000e+02,-3.20000e+01,4.99251e-12,3.77260e-02,2.75573e-12,3.77260e-02,5.79879e-12,3.77260e-02
7.69202e+02,6.38000e+02,6.38000e+02,0.00000e+00,5.70011e-12,4.52712e-02,4.63161e-12,4.52712e-02,3.57577e-12,4.52712e-02
7.69453e+02,6.42000e+02,6.27000e+02,1.50000e+01,6.66077e-12,5.28164e-02,7.52813e-12,5.28164e-02,2.85023e-12,5.28164e-02
7.69703e+02,6.46000e+02,6.24000e+02,2.20000e+01,5.96209e-12,6.03616e-02,8.25627e-12,6.03616e-02,3.14246e-12,6.03616e-02
7.69954e+02,6.38000e+02,6.51000e+02,-1.30000e+01,4.75318e-12,6.79068e-02,7.09216e-12,6.79068e-02,2.97798e-12,6.79068e-02
7.70205e+02,6.22000e+02,6.45000e+02,-2.30000e+01,1.58520e-12,7.54520e-02,4.53378e-12,7.54520e-02,4.27301e-12,7.54520e-02
7.70455e+02,6.75000e+02,6.76000e+02,-1.00000e+00,1.36093e-12,8.29972e-02,3.52341e-12,8.29972e-02,4.37134e-12,8.29972e-02
7.70706e+02,6.47000e+02,6.06000e+02,4.10000e+01,2.19299e-12,9.05424e-02,4.01337e-12,9.05424e-02,2.93346e-12,9.05424e-02
7.70957e+02,6.45000e+02,6.56000e+02,-1.10000e+01,2.12724e-12,9.80876e-02,6.11512e-12,9.80876e-02,4.50152e-12,9.80876e-02
7.71207e+02,6.32000e+02,6.52000e+02,-2.00000e+01,3.62620e-12,1.05633e-01,5.12747e-12,1.05633e-01,6.60459e-12,1.05633e-01
7.71458e+02,6.40000e+02,6.50000e+02,-1.00000e+01,5.58625e-12,1.13178e-01,9.03941e-13,1.13178e-01,5.80377e-12,1.13178e-01
7.71708e+02,6.61000e+02,6.49000e+02,1.20000e+01,4.13816e-12,1.20723e-01,9.63120e-13,1.20723e-01,4.34133e-12,1.20723e-01
7.71959e+02,6.60000e+02,6.58000e+02,2.00000e+00,4.77313e-12,1.28268e-01,1.80058e-12,1.28268e-01,5.58393e-12,1.28268e-01
7.72210e+02,6.48000e+02,6.67000e+02,-1.90000e+01,6.38862e-12,1.35814e-01,3.33688e-12,1.35814e-01,5.45374e-12,1.35814e-01
7.72460e+02,6.57000e+02,6.77000e+02,-2.00000e+01,4.89986e-12,1.43359e-01,3.85905e-12,1.43359e-01,2.93033e-12,1.43359e-01
7.72711e+02,6.45000e+02,6.44000e+02,1.00000e+00,5.07189e-12,1.50904e-01,2.67652e-12,1.50904e-01,2.44765e-12,1.50904e-01
7.72961e+02,7.24000e+02,6.84000e+02,4.00000e+01,3.58813e-12,1.58449e-01,2.57530e-12,1.58449e-01,4.41597e-12,1.58449e-01
7.73212e+02,6.48000e+02,6.58000e+02,-1.00000e+01,3.45480e-12,1.65994e-01,6.14879e-12,1.65994e-01,3.57119e-12,1.65994e-01
7.73462e+02,6.29000e+02,7.00000e+02,-7.10000e+01,5.04310e-12,1.73540e-01,4.99602e-12,1.73540e-01,5.14650e-13,1.73540e-01
7.73713e+02,6.52000e+02,6.60000e+02,-8.00000e+00,4.77010e-12,1.81085e-01,1.18815e-12,1.81085e-01,3.87678e-12,1.81085e-01
7.73963e+02,7.02000e+02,6.53000e+02,4.90000e+01,3.93708e-12,1.88630e-01,4.23306e-13,1.88630e-01,4.24876e-12,1.88630e-01
7.74214e+02,6.73000e+02,6.64000e+02,9.00000e+00,2.47977e-12,1.96175e-01,8.18801e-13,1.96175e-01,1.73167e-12,1.96175e-01
7.74465e+02,6.60000e+02,7.10000e+02,-5.00000e+01,1.82158e-12,2.03720e-01,2.46210e-12,2.03720e-01,1.16134e-12,2.03720e-01
7.74715e+02,6.51000e+02,6.96000e+02,-4.50000e+01,2.34987e-12,2.11266e-01,3.22026e-12,2.11266e-01,2.84820e-12,2.11266e-01
7.74965e+02,7.00000e+02,6.56000e+02,4.40000e+01,1.32586e-12,2.18811e-01,2.13717e-12,2.18811e-01,3.37027e-12,2.18811e-01
7.75216e+02,7.20000e+02,6.52000e+02,6.80000e+01,2.89132e-12,2.26356e-01,2.20265e-12,2.26356e-01,3.86295e-12,2.26356e-01
7.75466e+02,7.33000e+02,7.80000e+02,-4.70000e+01,2.47957e-12,2.33901e-01,3.82967e-12,2.33901e-01,3.96092e-12,2.33901e-01
7.75717e+02,6.30000e+02,7.20000e+02,-9.00000e+01,1.34337e-12,2.41446e-01,4.56262e-12,2.41446e-01,3.33851e-12,2.41446e-01
7.75967e+02,6.73000e+02,6.97000e+02,-2.40000e+01,1.53213e-12,2.48992e-01,3.38821e-12,2.48992e-01,2.03331e-12,2.48992e-01
7.76218e+02,7.49000e+02,6.53000e+02,9.60000e+01,1.21677e-12,2.56537e-01,1.84250e-12,2.56537e-01,7.66406e-13,2.56537e-01
7.76468e+02,8.00000e+02,7.07000e+02,9.30000e+01,4.55705e-13,2.64082e-01,1.93371e-12,2.64082e-01,1.90890e-12,2.64082e-01
7.76719e+02,6.89000e+02,7.84000e+02,-9.50000e+01,2.39064e-12,2.71627e-01,4.70362e-13,2.71627e-01,2.59148e-12,2.71627e-01
7.76969e+02,6.76000e+02,7.93000e+02,-1.17000e+02,3.56518e-12,2.79172e-01,2.01356e-12,2.79172e-01,1.80427e-12,2.79172e-01
7.77219e+02,7.39000e+02,6.89000e+02,5.00000e+01,3.21569e-12,2.86718e-01,3.51899e-12,2.86718e-01,1.37972e-12,2.86718e-01
7.77470e+02,9.05000e+02,7.12000e+02,1.93000e+02,1.86953e-12,2.94263e-01,3.15640e-12,2.94263e-01,1.50531e-12,2.94263e-01
7.77720e+02,7.82000e+02,8.23000e+02,-4.10000e+01,1.64035e-12,3.01808e-01,1.19993e-12,3.01808e-01,1.49161e-12,3.01808e-01
7.77971e+02,7.47000e+02,9.92000e+02,-2.45000e+02,4.34380e-12,3.09353e-01,2.87787e-12,3.09353e-01,1.61122e-12,3.09353e-01
7.78221e+02,7.24000e+02,7.91000e+02,-6.70000e+01,4.40126e-12,3.16898e-01,4.27008e-12,3.16898e-01,1.61333e-12,3.16898e-01
7.78471e+02,9.62000e+02,7.08000e+02,2.54000e+02,2.79227e-12,3.24444e-01,3.98985e-12,3.24444e-01,1.77451e-12,3.24444e-01
7.78722e+02,9.24000e+02,7.61000e+02,1.63000e+02,1.50452e-12,3.31989e-01,2.18987e-12,3.31989e-01,1.11573e-12,3.31989e-01
7.78972e+02,8.43000e+02,1.06600e+03,-2.23000e+02,1.40748e-12,3.39534e-01,1.75412e-12,3.39534e-01,1.85917e-12,3.39534e-01
7.79222e+02,7.32000e+02,1.11600e+03,-3.84000e+02,1.19324e-12,3.47079e-01,2.59068e-12,3.47079e-01,2.90706e-12,3.47079e-01
7.79473e+02,9.44000e+02,8.96000e+02,4.80000e+01,1.62862e-12,3.54624e-01,3.69372e-12,3.54624e-01,3.25376e-12,3.54624e-01
7.79723e+02,1.14900e+03,7.98000e+02,3.51000e+02,3.31293e-12,3.62169e-01,3.11606e-12,3.62169e-01,2.32115e-12,3.62169e-01
7.79973e+02,1.08300e+03,1.10300e+03,-2.00000e+01,3.18298e-12,3.69715e-01,9.62167e-13,3.69715e-01,3.22606e-12,3.69715e-01
7.80224e+02,8.08000e+02,1.26500e+03,-4.57000e+02,1.26747e-12,3.77260e-01,2.41349e-12,3.77260e-01,3.37829e-12,3.77260e-01
7.80474e+02,8.83000e+02,1.21900e+03,-3.36000e+02,1.20170e-12,3.84805e-01,3.53145e-12,3.84805e-01,2.45061e-12,3.84805e-01
7.80724e+02,1.06400e+03,8.33000e+02,2.31000e+02,1.76483e-12,3.92350e-01,2.04798e-12,3.92350e-01,7.79830e-13,3.92350e-01
7.80974e+02,1.27200e+03,1.02000e+03,2.52000e+02,2.19845e-12,3.99895e-01,6.29448e-13,3.99895e-01,2.81704e-12,3.99895e-01
7.81225e+02,1.01900e+03,1.41000e+03,-3.91000e+02,2.61398e-12,4.07441e-01,1.03897e-12,4.07441e-01,3.22099e-12,4.07441e-01
7.81475e+02,9.15000e+02,1.59800e+03,-6.83000e+02,3.04284e-12,4.14986e-01,1.11748e-12,4.14986e-01,1.96079e-12,4.14986e-01
7.81725e+02,1.12200e+03,1.09400e+03,2.80000e+01,2.12397e-12,4.22531e-01,1.64860e-12,4.22531e-01,4.84094e-13,4.22531e-01
7.81975e+02,1.64100e+03,9.82000e+02,6.59000e+02,2.05337e-12,4.30076e-01,1.42072e-12,4.30076e-01,2.48197e-12,4.30076e-01
7.82226e+02,1.48200e+03,1.34700e+03,1.35000e+02,2.25374e-12,4.37621e-01,1.09047e-12,4.37621e-01,3.32111e-12,4.37621e-01
7.82476e+02,1.01300e+03,1.70700e+03,-6.94000e+02,1.54111e-12,4.45167e-01,1.71754e-12,4.45167e-01,1.68219e-12,4.45167e-01
7.82726e+02,9.97000e+02,1.40400e+03,-4.07000e+02,1.75627e-12,4.52712e-01,1.96904e-12,4.52712e-01,5.26642e-13,4.52712e-01
7.82976e+02,1.58700e+03,1.09700e+03,4.90000e+02,1.23834e-12,4.60257e-01,3.61806e-12,4.60257e-01,2.64861e-12,4.60257e-01
7.83226e+02,1.62500e+03,1.14800e+03,4.77000e+02,1.22898e-12,4.67802e-01,5.33065e-12,4.67802e-01,4.47310e-12,4.67802e-01
7.83477e+02,1.37900e+03,1.76200e+03,-3.83000e+02,2.62170e-12,4.75347e-01,4.92472e-12,4.75347e-01,2.99335e-12,4.75347e-01
7.83727e+02,1.08000e+03,1.75200e+03,-6.72000e+02,2.57251e-12,4.82893e-01,3.31013e-12,4.82893e-01,2.77956e-12,4.82893e-01
7.83977e+02,1.49700e+03,1.31500e+03,1.82000e+02,3.88703e-13,4.90438e-01,1.25211e-12,4.90438e-01,9.53506e-13,4.90438e-01
7.84227e+02,2.05100e+03,1.11100e+03,9.40000e+02,1.09350e-12,4.97983e-01,2.75473e-12,4.97983e-01,3.84728e-12,4.97983e-01
7.84477e+02,2.19300e+03,1.81900e+03,3.74000e+02,2.86788e-12,5.05528e-01,4.62699e-12,5.05528e-01,7.00856e-12,5.05528e-01
7.84727e+02,1.48400e+03,2.28200e+03,-7.98000e+02,7.22094e-12,5.13073e-01,7.73085e-12,5.13073e-01,1.40402e-11,5.13073e-01
7.84978e+02,1.42400e+03,2.15700e+03,-7.33000e+02,1.74845e-11,5.20619e-01,1.66214e-11,5.20619e-01,3.28752e-11,5.20619e-01
7.85228e+02,2.19800e+03,1.44000e+03,7.58000e+02,3.25506e-11,5.28164e-01,3.05988e-11,5.28164e-01,6.11439e-11,5.28164e-01
7.85478e+02,2.79800e+03,1.61200e+03,1.18600e+03,4.45539e-11,5.35709e-01,4.19422e-11,5.35709e-01,8.40538e-11,5.35709e-01
7.85728e+02,2.27100e+03,2.38500e+03,-1.14000e+02,5.02748e-11,5.43254e-01,4.84756e-11,5.43254e-01,9.57957e-11,5.43254e-01
7.85978e+02,1.49700e+03,2.71200e+03,-1.21500e+03,4.85417e-11,5.50799e-01,4.74221e-11,5.50799e-01,9.26407e-11,5.50799e-01
7.86228e+02,1.76400e+03,1.90600e+03,-1.42000e+02,3.78790e-11,5.58345e-01,3.63372e-11,5.58345e-01,7.14532e-11,5.58345e-01
7.86478e+02,2.65400e+03,1.40900e+03,1.24500e+03,2.30962e-11,5.65890e-01,2.14556e-11,5.65890e-01,4.22994e-11,5.65890e-01
7.86728e+02,2.71800e+03,1.90900e+03,8.09000e+02,1.17882e-11,5.73435e-01,1.35683e-11,5.73435e-01,2.38776e-11,5.73435e-01
7.86978e+02,1.89300e+03,2.77100e+03,-8.78000e+02,5.84979e-12,5.80980e-01,7.15491e-12,5.80980e-01,1.30047e-11,5.80980e-01
7.87228e+02,1.40900e+03,2.66100e+03,-1.25200e+03,4.19799e-12,5.88525e-01,1.68170e-12,5.88525e-01,4.32381e-12,5.88525e-01
7.87478e+02,2.08700e+03,1.77500e+03,3.12000e+02,2.76926e-12,5.96071e-01,2.12550e-12,5.96071e-01,2.77937e-12,5.96071e-01
7.87728e+02,2.76600e+03,1.52400e+03,1.24200e+03,2.29194e-12,6.03616e-01,2.03595e-12,6.03616e-01,4.04209e-12,6.03616e-01
7.87978e+02,2.72400e+03,2.59400e+03,1.30000e+02,1.38950e-12,6.11161e-01,2.87154e-13,6.11161e-01,1.29738e-12,6.11161e-01
7.88228e+02,1.83500e+03,3.18600e+03,-1.35100e+03,1.97432e-12,6.18706e-01,1.35718e-12,6.18706e-01,3.25195e-12,6.18706e-01
7.88478e+02,2.07800e+03,2.76700e+03,-6.89000e+02,1.20562e-12,6.26251e-01,2.80115e-12,6.26251e-01,3.86356e-12,6.26251e-01
7.88728e+02,3.09200e+03,1.87000e+03,1.22200e+03,1.02046e-12,6.33797e-01,3.28235e-12,6.33797e-01,3.68741e-12,6.33797e-01
7.88978e+02,3.49600e+03,2.19200e+03,1.30400e+03,1.60272e-12,6.41342e-01,2.18773e-12,6.41342e-01,1.83831e-12,6.41342e-01
7.89228e+02,2.74600e+03,3.27300e+03,-5.27000e+02,1.96780e-12,6.48887e-01,1.74159e-12,6.48887e-01,1.43767e-12,6.48887e-01
7.89478e+02,1.92600e+03,3.88100e+03,-1.95500e+03,2.38927e-12,6.56432e-01,1.27007e-12,6.56432e-01,3.22756e-12,6.56432e-01
7.89728e+02,2.50400e+03,2.82200e+03,-3.18000e+02,3.14040e-12,6.63977e-01,1.83910e-12,6.63977e-01,4.90180e-12,6.63977e-01
7.89978e+02,3.94300e+03,2.03000e+03,1.91300e+03,2.89479e-12,6.71523e-01,2.16118e-12,6.71523e-01,4.83584e-12,6.71523e-01
7.90228e+02,4.16000e+03,2.79800e+03,1.36200e+03,1.44877e-12,6.79068e-01,1.86955e-12,6.79068e-01,2.96102e-12,6.79068e-01
7.90478e+02,3.03600e+03,4.41700e+03,-1.38100e+03,9.54198e-13,6.86613e-01,1.70473e-12,6.86613e-01,2.52725e-12,6.86613e-01
7.90728e+02,2.38800e+03,4.30400e+03,-1.91600e+03,1.83719e-12,6.94158e-01,1.12893e-12,6.94158e-01,1.91312e-12,6.94158e-01
7.90978e+02,3.69000e+03,2.99400e+03,6.96000e+02,1.92279e-12,7.01703e-01,1.47583e-12,7.01703e-01,4.56275e-13,7.01703e-01
7.91228e+02,5.02000e+03,2.48000e+03,2.54000e+03,1.81073e-12,7.09249e-01,1.18213e-12,7.09249e-01,6.40599e-13,7.09249e-01
7.91478e+02,4.21600e+03,3.54200e+03,6.74000e+02,1.56320e-12,7.16794e-01,1.28552e-12,7.16794e-01,7.46261e-13,7.16794e-01
7.91728e+02,2.51300e+03,4.34100e+03,-1.82800e+03,1.56805e-12,7.24339e-01,1.70397e-12,7.24339e-01,1.30994e-12,7.24339e-01
7.91977e+02,2.52400e+03,3.68100e+03,-1.15700e+03,1.79723e-12,7.31884e-01,1.74026e-12,7.31884e-01,2.49330e-12,7.31884e-01
7.92227e+02,3.92100e+03,2.31400e+03,1.60700e+03,9.36574e-13,7.39429e-01,1.34257e-12,7.39429e-01,1.95402e-12,7.39429e-01
7.92477e+02,5.21800e+03,3.07100e+03,2.14700e+03,9.23480e-13,7.46975e-01,7.18964e-13,7.46975e-01,7.65809e-13,7.46975e-01
7.92727e+02,4.23700e+03,4.86200e+03,-6.25000e+02,1.53393e-12,7.54520e-01,7.82240e-13,7.54520e-01,8.10038e-13,7.54520e-01
7.92977e+02,2.75300e+03,5.29100e+03,-2.53800e+03,1.22304e-12,7.62065e-01,1.51982e-12,7.62065e-01,3.00362e-13,7.62065e-01
7.93227e+02,3.17900e+03,3.69900e+03,-5.20000e+02,1.54491e-12,7.69610e-01,2.03435e-12,7.69610e-01,1.13123e-12,7.69610e-01
7.93476e+02,4.71900e+03,2.57900e+03,2.14000e+03,1.88379e-12,7.77155e-01,1.67953e-12,7.77155e-01,1.80020e-12,7.77155e-01
7.93726e+02,4.91600e+03,3.55800e+03,1.35800e+03,1.46771e-12,7.84701e-01,8.01823e-13,7.84701e-01,1.54590e-12,7.84701e-01
7.93976e+02,3.47700e+03,5.22800e+03,-1.75100e+03,7.54895e-13,7.92246e-01,8.50995e-13,7.92246e-01,1.08813e-12,7.92246e-01
7.94226e+02,2.82400e+03,4.75200e+03,-1.92800e+03,5.03966e-13,7.99791e-01,2.57214e-13,7.99791e-01,6.39724e-13,7.99791e-01
7.94476e+02,4.78100e+03,3.26900e+03,1.51200e+03,3.49097e-13,8.07336e-01,4.25355e-13,8.07336e-01,5.40605e-13,8.07336e-01
7.94725e+02,6.07300e+03,2.69600e+03,3.37700e+03,8.79721e-13,8.14881e-01,9.28170e-13,8.14881e-01,9.40737e-13,8.14881e-01
7.94975e+02,5.52700e+03,4.33900e+03,1.18800e+03,1.44345e-12,8.22427e-01,1.91846e-12,8.22427e-01,7.43515e-13,8.22427e-01
7.95225e+02,3.48200e+03,5.59600e+03,-2.11400e+03,1.86789e-12,8.29972e-01,2.67575e-12,8.29972e-01,1.38992e-12,8.29972e-01
7.95475e+02,3.46000e+03,5.01500e+03,-1.55500e+03,1.54761e-12,8.37517e-01,2.56679e-12,8.37517e-01,1.86126e-12,8.37517e-01
7.95724e+02,5.61000e+03,3.28700e+03,2.32300e+03,8.10125e-13,8.45062e-01,1.66195e-12,8.45062e-01,1.57841e-12,8.45062e-01
7.95974e+02,6.72200e+03,3.57800e+03,3.14400e+03,4.26771e-13,8.52607e-01,6.75419e-13,8.52607e-01,8.77299e-13,8.52607e-01
7.96224e+02,5.16900e+03,5.82400e+03,-6.55000e+02,2.61714e-13,8.60153e-01,4.73442e-13,8.60153e-01,7.33233e-13,8.60153e-01
7.96474e+02,3.60900e+03,7.08400e+03,-3.47500e+03,9.06225e-13,8.67698e-01,9.79669e-13,8.67698e-01,1.88562e-12,8.67698e-01
7.96723e+02,4.26200e+03,5.05400e+03,-7.92000e+02,1.13467e-12,8.75243e-01,1.39435e-12,8.75243e-01,2.35097e-12,8.75243e-01
7.96973e+02,6.86600e+03,3.50500e+03,3.36100e+03,6.28204e-13,8.82788e-01,1.47782e-12,8.82788e-01,1.81194e-12,8.82788e-01
7.97223e+02,8.09900e+03,5.61400e+03,2.48500e+03,1.85453e-13,8.90333e-01,5.91055e-13,8.90333e-01,6.87163e-13,8.90333e-01
7.97472e+02,4.89400e+03,8.08400e+03,-3.19000e+03,7.93823e-13,8.97879e-01,5.80642e-13,8.97879e-01,1.13922e-12,8.97879e-01
7.97722e+02,3.79600e+03,8.61200e+03,-4.81600e+03,1.36316e-12,9.05424e-01,1.03363e-12,9.05424e-01,2.00127e-12,9.05424e-01
7.97972e+02,5.77800e+03,5.62200e+03,1.56000e+02,1.43393e-12,9.12969e-01,1.06800e-12,9.12969e-01,1.78120e-12,9.12969e-01
7.98221e+02,8.00200e+03,3.83700e+03,4.16500e+03,1.04750e-12,9.20514e-01,3.54139e-13,9.20514e-01,9.50414e-13,9.20514e-01
7.98471e+02,6.52000e+03,5.57300e+03,9.47000e+02,6.00619e-13,9.28059e-01,6.23315e-13,9.28059e-01,1.92359e-13,9.28059e-01
7.98721e+02,4.22400e+03,7.34400e+03,-3.12000e+03,6.15024e-13,9.35605e-01,7.49805e-13,9.35605e-01,2.36080e-13,9.35605e-01
7.98970e+02,4.56900e+03,7.19000e+03,-2.62100e+03,5.44653e-13,9.43150e-01,4.68635e-13,9.43150e-01,1.03412e-13,9.43150e-01
7.99220e+02,7.60600e+03,4.64100e+03,2.96500e+03,5.53118e-13,9.50695e-01,9.09435e-13,9.50695e-01,3.56804e-13,9.50695e-01
7.99469e+02,8.87100e+03,4.51300e+03,4.35800e+03,4.60646e-13,9.58240e-01,1.08044e-12,9.58240e-01,6.19839e-13,9.58240e-01
7.99719e+02,6.60600e+03,7.23800e+03,-6.32000e+02,1.36799e-13,9.65785e-01,5.85705e-13,9.65785e-01,4.49531e-13,9.65785e-01
7.99969e+02,4.15000e+03,8.84400e+03,-4.69400e+03,3.63409e-13,9.73331e-01,3.33031e-13,9.73331e-01,1.07150e-13,9.73331e-01
8.00218e+02,5.34700e+03,6.58900e+03,-1.24200e+03,9.19952e-13,9.80876e-01,8.76422e-13,9.80876e-01,4.90788e-13,9.80876e-01
8.00468e+02,8.84600e+03,4.51600e+03,4.33000e+03,1.54923e-12,9.88421e-01,7.55245e-13,9.88421e-01,1.07682e-12,9.88421e-01
8.00717e+02,8.86800e+03,6.08500e+03,2.78300e+03,1.81917e-12,9.95966e-01,9.07940e-13,9.95966e-01,9.18056e-13,9.95966e-01
8.00967e+02,5.98800e+03,9.01400e+03,-3.02600e+03,1.10080e-12,1.00351e+00,9.10235e-13,1.00351e+00,3.22695e-13,1.00351e+00
8.01216e+02,4.52000e+03,9.83300e+03,-5.31300e+03,2.29504e-13,1.01106e+00,5.94788e-13,1.01106e+00,6.47780e-13,1.01106e+00
8.01466e+02,7.16900e+03,7.01300e+03,1.56000e+02,1.67820e-13,1.01860e+00,5.11857e-13,1.01860e+00,3.98823e-13,1.01860e+00
8.01715e+02,1.07710e+04,5.01300e+03,5.75800e+03,4.43017e-13,1.02615e+00,3.01026e-13,1.02615e+00,2.04051e-13,1.02615e+00
8.01965e+02,9.81400e+03,7.73100e+03,2.08300e+03,4.22524e-13,1.03369e+00,5.92894e-13,1.03369e+00,3.89063e-13,1.03369e+00
8.02215e+02,6.34900e+03,1.08100e+04,-4.46100e+03,4.17662e-13,1.04124e+00,9.94361e-13,1.04124e+00,6.54310e-13,1.04124e+00
8.02464e+02,5.49100e+03,9.17200e+03,-3.68100e+03,2.67211e-13,1.04878e+00,9.57386e-13,1.04878e+00,8.93655e-13,1.04878e+00
8.02713e+02,8.41400e+03,5.74200e+03,2.67200e+03,5.77196e-13,1.05633e+00,8.90511e-13,1.05633e+00,1.30892e-12,1.05633e+00
8.02963e+02,1.07790e+04,5.46200e+03,5.31700e+03,2.52991e-13,1.06387e+00,1.05804e-12,1.06387e+00,1.17446e-12,1.06387e+00
8.03212e+02,9.45800e+03,9.48400e+03,-2.60000e+01,2.96936e-13,1.07142e+00,8.67554e-13,1.07142e+00,7.40921e-13,1.07142e+00
8.03462e+02,5.98800e+03,1.21410e+04,-6.15300e+03,7.95238e-13,1.07896e+00,1.01478e-12,1.07896e+00,7.30745e-13,1.07896e+00
8.03711e+02,6.55300e+03,9.84500e+03,-3.29200e+03,1.19817e-12,1.08651e+00,1.21306e-12,1.08651e+00,1.10805e-12,1.08651e+00
8.03961e+02,9.83200e+03,5.66900e+03,4.16300e+03,1.40972e-12,1.09405e+00,1.52465e-12,1.09405e+00,1.40470e-12,1.09405e+00
8.04210e+02,1.06060e+04,6.22800e+03,4.37800e+03,1.22057e-12,1.10160e+00,1.45722e-12,1.10160e+00,1.55864e-12,1.10160e+00
8.04460e+02,7.66500e+03,1.08730e+04,-3.20800e+03,1.13590e-12,1.10914e+00,1.25874e-12,1.10914e+00,1.57918e-12,1.10914e+00
8.04709e+02,5.30200e+03,1.25160e+04,-7.21400e+03,9.42631e-13,1.11669e+00,8.80193e-13,1.11669e+00,1.07647e-12,1.11669e+00
8.04958e+02,7.42600e+03,8.61200e+03,-1.18600e+03,4.65595e-13,1.12423e+00,5.91231e-13,1.12423e+00,2.57831e-13,1.12423e+00
8.05208e+02,1.17090e+04,5.28000e+03,6.42900e+03,3.81211e-13,1.13178e+00,9.09166e-13,1.13178e+00,5.82018e-13,1.13178e+00
8.05457e+02,1.08530e+04,6.80800e+03,4.04500e+03,9.03228e-13,1.13932e+00,1.22971e-12,1.13932e+00,6.17886e-13,1.13932e+00
8.05707e+02,7.53600e+03,1.13020e+04,-3.76600e+03,9.66934e-13,1.14687e+00,1.00800e-12,1.14687e+00,4.88940e-13,1.14687e+00
8.05956e+02,5.44300e+03,1.27080e+04,-7.26500e+03,5.46395e-13,1.15442e+00,5.53142e-13,1.15442e+00,3.86283e-13,1.15442e+00
8.06205e+02,7.85800e+03,7.68000e+03,1.78000e+02,1.96653e-13,1.16196e+00,1.50602e-13,1.16196e+00,1.58740e-13,1.16196e+00
8.06455e+02,1.15940e+04,5.37800e+03,6.21600e+03,6.58751e-13,1.16951e+00,7.26315e-13,1.16951e+00,9.72405e-13,1.16951e+00
8.06704e+02,1.16240e+04,8.04100e+03,3.58300e+03,7.24510e-13,1.17705e+00,5.34360e-13,1.17705e+00,8.97638e-13,1.17705e+00
8.06953e+02,7.45000e+03,1.18770e+04,-4.42700e+03,3.75740e-13,1.18460e+00,6.70028e-14,1.18460e+00,3.20558e-13,1.18460e+00
8.07203e+02,5.20600e+03,1.04430e+04,-5.23700e+03,2.88730e-13,1.19214e+00,2.00372e-13,1.19214e+00,4.87970e-13,1.19214e+00
8.07452e+02,8.83900e+03,7.12600e+03,1.71300e+03,8.46478e-13,1.19969e+00,5.11660e-13,1.19969e+00,9.04170e-13,1.19969e+00
8.07701e+02,1.24940e+04,5.13600e+03,7.35800e+03,8.43157e-13,1.20723e+00,1.21894e-12,1.20723e+00,9.36086e-13,1.20723e+00
8.07951e+02,1.11940e+04,8.19700e+03,2.99700e+03,3.10214e-13,1.21478e+00,1.38009e-12,1.21478e+00,1.07310e-12,1.21478e+00
8.08200e+02,6.83500e+03,1.07210e+04,-3.88600e+03,6.33825e-13,1.22232e+00,8.79973e-13,1.22232e+00,1.11638e-12,1.22232e+00
8.08449e+02,6.02000e+03,1.04870e+04,-4.46700e+03,6.52468e-13,1.22987e+00,4.23319e-13,1.22987e+00,6.24225e-13,1.22987e+00
8.08698e+02,1.05410e+04,6.51100e+03,4.03000e+03,6.81296e-13,1.23741e+00,9.39186e-13,1.23741e+00,9.29044e-13,1.23741e+00
8.08948e+02,1.43390e+04,6.22100e+03,8.11800e+03,5.69288e-13,1.24496e+00,1.08963e-12,1.24496e+00,1.26472e-12,1.24496e+00
8.09197e+02,1.25850e+04,1.08800e+04,1.70500e+03,7.71351e-14,1.25250e+00,8.32734e-13,1.25250e+00,8.90671e-13,1.25250e+00
8.09446e+02,7.14900e+03,1.31540e+04,-6.00500e+03,3.75586e-13,1.26005e+00,4.84352e-13,1.26005e+00,6.96916e-13,1.26005e+00
8.09695e+02,7.79200e+03,1.10020e+04,-3.21000e+03,1.90960e-13,1.26759e+00,7.28611e-13,1.26759e+00,8.30603e-13,1.26759e+00
8.09945e+02,1.32620e+04,6.94200e+03,6.32000e+03,9.03829e-14,1.27514e+00,8.76043e-13,1.27514e+00,8.72001e-13,1.27514e+00
8.10194e+02,1.48220e+04,7.26600e+03,7.55600e+03,4.95230e-13,1.28268e+00,6.07643e-13,1.28268e+00,1.04125e-12,1.28268e+00
8.10443e+02,1.10920e+04,1.14390e+04,-3.47000e+02,8.09150e-13,1.29023e+00,4.85648e-13,1.29023e+00,8.57135e-13,1.29023e+00
8.10692e+02,6.66500e+03,1.33210e+04,-6.65600e+03,6.45005e-13,1.29777e+00,3.05710e-13,1.29777e+00,4.30406e-13,1.29777e+00
8.10941e+02,8.47200e+03,1.03520e+04,-1.88000e+03,7.32993e-13,1.30532e+00,2.62954e-13,1.30532e+00,4.88889e-13,1.30532e+00
8.11191e+02,1.32110e+04,6.09900e+03,7.11200e+03,8.89661e-13,1.31286e+00,6.45504e-13,1.31286e+00,1.51178e-12,1.31286e+00
8.11440e+02,1.45210e+04,8.34500e+03,6.17600e+03,3.23352e-13,-1.32041e+00,2.36291e-12,-1.32041e+00,2.03955e-12,-1.32041e+00
8.11689e+02,1.13220e+04,1.40430e+04,-2.72100e+03,8.89661e-13,-1.31286e+00,6.45504e-13,-1.31286e+00,1.51178e-12,-1.31286e+00
8.11938e+02,6.95100e+03,1.46020e+04,-7.65100e+03,7.32993e-13,-1.30532e+00,2.62954e-13,-1.30532e+00,4.88889e-13,-1.30532e+00
8.12187e+02,8.81700e+03,1.04490e+04,-1.63200e+03,6.45005e-13,-1.29777e+00,3.05710e-13,-1.29777e+00,4.30406e-13,-1.29777e+00
8.12436e+02,1.35120e+04,7.00000e+03,6.51200e+03,8.09150e-13,-1.29023e+00,4.85648e-13,-1.29023e+00,8.57135e-13,-1.29023e+00
8.12685e+02,1.35820e+04,9.53700e+03,4.04500e+03,4.95230e-13,-1.28268e+00,6.07643e-13,-1.28268e+00,1.04125e-12,-1.28268e+00
8.12935e+02,9.49900e+03,1.34920e+04,-3.99300e+03,9.03829e-14,-1.27514e+00,8.76043e-13,-1.27514e+00,8.72001e-13,-1.27514e+00
8.13184e+02,6.84000e+03,1.36130e+04,-6.77300e+03,1.90960e-13,-1.26759e+00,7.28611e-13,-1.26759e+00,8.30603e-13,-1.26759e+00
8.13433e+02,9.95700e+03,9.94300e+03,1.40000e+01,3.75586e-13,-1.26005e+00,4.84352e-13,-1.26005e+00,6.96916e-13,-1.26005e+00
8.13682e+02,1.43600e+04,6.42100e+03,7.93900e+03,7.71351e-14,-1.25250e+00,8.32734e-13,-1.25250e+00,8.90671e-13,-1.25250e+00
8.13931e+02,1.40820e+04,8.52300e+03,5.55900e+03,5.69288e-13,-1.24496e+00,1.08963e-12,-1.24496e+00,1.26472e-12,-1.24496e+00
8.14180e+02,8.98500e+03,1.19640e+04,-2.97900e+03,6.81296e-13,-1.23741e+00,9.39186e-13,-1.23741e+00,9.29044e-13,-1.23741e+00
8.14429e+02,6.56500e+03,1.30310e+04,-6.46600e+03,6.52468e-13,-1.22987e+00,4.23319e-13,-1.22987e+00,6.24225e-13,-1.22987e+00
8.14678e+02,9.77200e+03,9.23800e+03,5.34000e+02,6.33825e-13,-1.22232e+00,8.79973e-13,-1.22232e+00,1.11638e-12,-1.22232e+00
8.14927e+02,1.34160e+04,5.88600e+03,7.53000e+03,3.10214e-13,-1.21478e+00,1.38009e-12,-1.21478e+00,1.07310e-12,-1.21478e+00
8.15176e+02,1.26580e+04,8.38100e+03,4.27700e+03,8.43157e-13,-1.20723e+00,1.21894e-12,-1.20723e+00,9.36086e-13,-1.20723e+00
8.15425e+02,7.71300e+03,1.23420e+04,-4.62900e+03,8.46478e-13,-1.19969e+00,5.11660e-13,-1.19969e+00,9.04170e-13,-1.19969e+00
8.15674e+02,6.28300e+03,1.28440e+04,-6.56100e+03,2.88730e-13,-1.19214e+00,2.00372e-13,-1.19214e+00,4.87970e-13,-1.19214e+00
8.15923e+02,1.10960e+04,8.33800e+03,2.75800e+03,3.75740e-13,-1.18460e+00,6.70028e-14,-1.18460e+00,3.20558e-13,-1.18460e+00
8.16172e+02,1.50010e+04,6.62700e+03,8.37400e+03,7.24510e-13,-1.17705e+00,5.34360e-13,-1.17705e+00,8.97638e-13,-1.17705e+00
8.16421e+02,1.19840e+04,9.84400e+03,2.14000e+03,6.58751e-13,-1.16951e+00,7.26315e-13,-1.16951e+00,9.72405e-13,-1.16951e+00
8.16670e+02,6.19300e+03,1.19690e+04,-5.77600e+03,1.96653e-13,-1.16196e+00,1.50602e-13,-1.16196e+00,1.58740e-13,-1.16196e+00
8.16919e+02,5.87500e+03,1.09280e+04,-5.05300e+03,5.46395e-13,-1.15442e+00,5.53142e-13,-1.15442e+00,3.86283e-13,-1.15442e+00
8.17168e+02,9.26600e+03,6.95000e+03,2.31600e+03,9.66934e-13,-1.14687e+00,1.00800e-12,-1.14687e+00,4.88940e-13,-1.14687e+00
8.17417e+02,1.15440e+04,5.54700e+03,5.99700e+03,9.03228e-13,-1.13932e+00,1.22971e-12,-1.13932e+00,6.17886e-13,-1.13932e+00
8.17666e+02,9.76800e+03,9.06400e+03,7.04000e+02,3.81211e-13,-1.13178e+00,9.09166e-13,-1.13178e+00,5.82018e-13,-1.13178e+00
8.17915e+02,5.91700e+03,1.27290e+04,-6.81200e+03,4.65595e-13,-1.12423e+00,5.91231e-13,-1.12423e+00,2.57831e-13,-1.12423e+00
8.18164e+02,5.19400e+03,1.04410e+04,-5.24700e+03,9.42631e-13,-1.11669e+00,8.80193e-13,-1.11669e+00,1.07647e-12,-1.11669e+00
8.18413e+02,8.30000e+03,5.68700e+03,2.61300e+03,1.13590e-12,-1.10914e+00,1.25874e-12,-1.10914e+00,1.57918e-12,-1.10914e+00
8.18662e+02,1.01890e+04,4.76800e+03,5.42100e+03,1.22057e-12,-1.10160e+00,1.45722e-12,-1.10160e+00,1.55864e-12,-1.10160e+00
8.18911e+02,8.57800e+03,7.80900e+03,7.69000e+02,1.40972e-12,-1.09405e+00,1.52465e-12,-1.09405e+00,1.40470e-12,-1.09405e+00
8.19160e+02,5.11800e+03,9.78800e+03,-4.67000e+03,1.19817e-12,-1.08651e+00,1.21306e-12,-1.08651e+00,1.10805e-12,-1.08651e+00
8.19408e+02,5.19200e+03,8.35000e+03,-3.15800e+03,7.95238e-13,-1.07896e+00,1.01478e-12,-1.07896e+00,7.30745e-13,-1.07896e+00
8.19657e+02,9.84800e+03,5.35200e+03,4.49600e+03,2.96936e-13,-1.07142e+00,8.67554e-13,-1.07142e+00,7.40921e-13,-1.07142e+00
8.19906e+02,1.22200e+04,5.78500e+03,6.43500e+03,2.52991e-13,-1.06387e+00,1.05804e-12,-1.06387e+00,1.17446e-12,-1.06387e+00
8.20155e+02,9.68500e+03,9.71700e+03,-3.20000e+01,5.77196e-13,-1.05633e+00,8.90511e-13,-1.05633e+00,1.30892e-12,-1.05633e+00
8.20404e+02,5.49200e+03,1.14240e+04,-5.93200e+03,2.67211e-13,-1.04878e+00,9.57386e-13,-1.04878e+00,8.93655e-13,-1.04878e+00
8.20653e+02,5.64000e+03,7.99300e+03,-2.35300e+03,4.17662e-13,-1.04124e+00,9.94361e-13,-1.04124e+00,6.54310e-13,-1.04124e+00
8.20901e+02,8.59100e+03,4.73900e+03,3.85200e+03,4.22524e-13,-1.03369e+00,5.92894e-13,-1.03369e+00,3.89063e-13,-1.03369e+00
8.21150e+02,1.01480e+04,4.99300e+03,5.15500e+03,4.43017e-13,-1.02615e+00,3.01026e-13,-1.02615e+00,2.04051e-13,-1.02615e+00
8.21399e+02,6.91300e+03,7.57400e+03,-6.61000e+02,1.67820e-13,-1.01860e+00,5.11857e-13,-1.01860e+00,3.98823e-13,-1.01860e+00
8.21648e+02,3.98000e+03,9.66600e+03,-5.68600e+03,2.29504e-13,-1.01106e+00,5.94788e-13,-1.01106e+00,6.47780e-13,-1.01106e+00
8.21897e+02,4.46000e+03,7.93900e+03,-3.47900e+03,1.10080e-12,-1.00351e+00,9.10235e-13,-1.00351e+00,3.22695e-13,-1.00351e+00
8.22145e+02,6.34700e+03,4.52000e+03,1.82700e+03,1.81917e-12,-9.95966e-01,9.07940e-13,-9.95966e-01,9.18056e-13,-9.95966e-01
8.22394e+02,7.89900e+03,4.72800e+03,3.17100e+03,1.54923e-12,-9.88421e-01,7.55245e-13,-9.88421e-01,1.07682e-12,-9.88421e-01
8.22643e+02,6.40700e+03,7.64500e+03,-1.23800e+03,9.19952e-13,-9.80876e-01,8.76422e-13,-9.80876e-01,4.90788e-13,-9.80876e-01
8.22892e+02,3.99200e+03,8.67300e+03,-4.68100e+03,3.63409e-13,-9.73331e-01,3.33031e-13,-9.73331e-01,1.07150e-13,-9.73331e-01
8.23140e+02,4.41700e+03,6.70900e+03,-2.29200e+03,1.36799e-13,-9.65785e-01,5.85705e-13,-9.65785e-01,4.49531e-13,-9.65785e-01
8.23389e+02,7.13300e+03,4.18900e+03,2.94400e+03,4.60646e-13,-9.58240e-01,1.08044e-12,-9.58240e-01,6.19839e-13,-9.58240e-01
8.23638e+02,8.14300e+03,4.42000e+03,3.72300e+03,5.53118e-13,-9.50695e-01,9.09435e-13,-9.50695e-01,3.56804e-13,-9.50695e-01
8.23887e+02,5.65400e+03,7.20200e+03,-1.54800e+03,5.44653e-13,-9.43150e-01,4.68635e-13,-9.43150e-01,1.03412e-13,-9.43150e-01
8.24135e+02,3.62500e+03,8.11600e+03,-4.49100e+03,6.15024e-13,-9.35605e-01,7.49805e-13,-9.35605e-01,2.36080e-13,-9.35605e-01
8.24384e+02,4.26800e+03,6.23900e+03,-1.97100e+03,6.00619e-13,-9.28059e-01,6.23315e-13,-9.28059e-01,1.92359e-13,-9.28059e-01
8.24633e+02,6.81900e+03,3.64500e+03,3.17400e+03,1.04750e-12,-9.20514e-01,3.54139e-13,-9.20514e-01,9.50414e-13,-9.20514e-01
8.24881e+02,7.63200e+03,4.08100e+03,3.55100e+03,1.43393e-12,-9.12969e-01,1.06800e-12,-9.12969e-01,1.78120e-12,-9.12969e-01
8.25130e+02,5.52500e+03,6.37600e+03,-8.51000e+02,1.36316e-12,-9.05424e-01,1.03363e-12,-9.05424e-01,2.00127e-12,-9.05424e-01
8.25379e+02,3.39700e+03,8.00400e+03,-4.60700e+03,7.93823e-13,-8.97879e-01,5.80642e-13,-8.97879e-01,1.13922e-12,-8.97879e-01
8.25627e+02,3.88100e+03,5.32600e+03,-1.44500e+03,1.85453e-13,-8.90333e-01,5.91055e-13,-8.90333e-01,6.87163e-13,-8.90333e-01
8.25876e+02,5.70100e+03,3.04000e+03,2.66100e+03,6.28204e-13,-8.82788e-01,1.47782e-12,-8.82788e-01,1.81194e-12,-8.82788e-01
8.26125e+02,5.98900e+03,3.34500e+03,2.64400e+03,1.13467e-12,-8.75243e-01,1.39435e-12,-8.75243e-01,2.35097e-12,-8.75243e-01
8.26373e+02,3.83500e+03,4.73600e+03,-9.01000e+02,9.06225e-13,-8.67698e-01,9.79669e-13,-8.67698e-01,1.88562e-12,-8.67698e-01
8.26622e+02,2.33300e+03,4.97200e+03,-2.63900e+03,2.61714e-13,-8.60153e-01,4.73442e-13,-8.60153e-01,7.33233e-13,-8.60153e-01
8.26870e+02,2.76500e+03,3.62400e+03,-8.59000e+02,4.26771e-13,-8.52607e-01,6.75419e-13,-8.52607e-01,8.77299e-13,-8.52607e-01
8.27119e+02,3.96500e+03,2.44000e+03,1.52500e+03,8.10125e-13,-8.45062e-01,1.66195e-12,-8.45062e-01,1.57841e-12,-8.45062e-01
8.27368e+02,4.50800e+03,2.72600e+03,1.78200e+03,1.54761e-12,-8.37517e-01,2.56679e-12,-8.37517e-01,1.86126e-12,-8.37517e-01
8.27616e+02,3.29400e+03,3.55200e+03,-2.58000e+02,1.86789e-12,-8.29972e-01,2.67575e-12,-8.29972e-01,1.38992e-12,-8.29972e-01
8.27865e+02,2.09700e+03,4.13500e+03,-2.03800e+03,1.44345e-12,-8.22427e-01,1.91846e-12,-8.22427e-01,7.43515e-13,-8.22427e-01
8.28113e+02,2.66900e+03,4.06300e+03,-1.39400e+03,8.79721e-13,-8.14881e-01,9.28170e-13,-8.14881e-01,9.40737e-13,-8.14881e-01
8.28362e+02,4.11600e+03,2.62600e+03,1.49000e+03,3.49097e-13,-8.07336e-01,4.25355e-13,-8.07336e-01,5.40605e-13,-8.07336e-01
8.28610e+02,4.32800e+03,2.48100e+03,1.84700e+03,5.03966e-13,-7.99791e-01,2.57214e-13,-7.99791e-01,6.39724e-13,-7.99791e-01
8.28859e+02,3.07000e+03,3.49400e+03,-4.24000e+02,7.54895e-13,-7.92246e-01,8.50995e-13,-7.92246e-01,1.08813e-12,-7.92246e-01
8.29108e+02,1.85300e+03,4.04600e+03,-2.19300e+03,1.46771e-12,-7.84701e-01,8.01823e-13,-7.84701e-01,1.54590e-12,-7.84701e-01
8.29356e+02,2.01400e+03,3.30300e+03,-1.28900e+03,1.88379e-12,-7.77155e-01,1.67953e-12,-7.77155e-01,1.80020e-12,-7.77155e-01
8.29605e+02,2.93400e+03,2.02400e+03,9.10000e+02,1.54491e-12,-7.69610e-01,2.03435e-12,-7.69610e-01,1.13123e-12,-7.69610e-01
8.29853e+02,3.15900e+03,1.88200e+03,1.27700e+03,1.22304e-12,-7.62065e-01,1.51982e-12,-7.62065e-01,3.00362e-13,-7.62065e-01
8.30101e+02,2.43300e+03,2.74400e+03,-3.11000e+02,1.53393e-12,-7.54520e-01,7.82240e-13,-7.54520e-01,8.10038e-13,-7.54520e-01
8.30350e+02,1.70200e+03,3.32700e+03,-1.62500e+03,9.23480e-13,-7.46975e-01,7.18964e-13,-7.46975e-01,7.65809e-13,-7.46975e-01
8.30598e+02,1.69200e+03,2.58800e+03,-8.96000e+02,9.36574e-13,-7.39429e-01,1.34257e-12,-7.39429e-01,1.95402e-12,-7.39429e-01
8.30847e+02,2.60600e+03,1.68800e+03,9.18000e+02,1.79723e-12,-7.31884e-01,1.74026e-12,-7.31884e-01,2.49330e-12,-7.31884e-01
8.31095e+02,3.05800e+03,1.51300e+03,1.54500e+03,1.56805e-12,-7.24339e-01,1.70397e-12,-7.24339e-01,1.30994e-12,-7.24339e-01
8.31344e+02,2.19900e+03,2.41700e+03,-2.18000e+02,1.56320e-12,-7.16794e-01,1.28552e-12,-7.16794e-01,7.46261e-13,-7.16794e-01
8.31592e+02,1.35400e+03,2.82200e+03,-1.46800e+03,1.81073e-12,-7.09249e-01,1.18213e-12,-7.09249e-01,6.40599e-13,-7.09249e-01
8.31841e+02,1.36500e+03,2.29100e+03,-9.26000e+02,1.92279e-12,-7.01703e-01,1.47583e-12,-7.01703e-01,4.56275e-13,-7.01703e-01
8.32089e+02,2.17100e+03,1.47300e+03,6.98000e+02,1.83719e-12,-6.94158e-01,1.12893e-12,-6.94158e-01,1.91312e-12,-6.94158e-01
8.32337e+02,2.58500e+03,1.28800e+03,1.29700e+03,9.54198e-13,-6.86613e-01,1.70473e-12,-6.86613e-01,2.52725e-12,-6.86613e-01
8.32586e+02,1.86800e+03,1.72800e+03,1.40000e+02,1.44877e-12,-6.79068e-01,1.86955e-12,-6.79068e-01,2.96102e-12,-6.79068e-01
8.32834e+02,1.27000e+03,2.26600e+03,-9.96000e+02,2.89479e-12,-6.71523e-01,2.16118e-12,-6.71523e-01,4.83584e-12,-6.71523e-01
8.33083e+02,1.06600e+03,1.90300e+03,-8.37000e+02,3.14040e-12,-6.63977e-01,1.83910e-12,-6.63977e-01,4.90180e-12,-6.63977e-01
8.33331e+02,1.62800e+03,1.31300e+03,3.15000e+02,2.38927e-12,-6.56432e-01,1.27007e-12,-6.56432e-01,3.22756e-12,-6.56432e-01
8.33579e+02,1.94000e+03,1.05100e+03,8.89000e+02,1.96780e-12,-6.48887e-01,1.74159e-12,-6.48887e-01,1.43767e-12,-6.48887e-01
8.33828e+02,1.60900e+03,1.43300e+03,1.76000e+02,1.60272e-12,-6.41342e-01,2.18773e-12,-6.41342e-01,1.83831e-12,-6.41342e-01
8.34076e+02,1.00600e+03,1.61800e+03,-6.12000e+02,1.02046e-12,-6.33797e-01,3.28235e-12,-6.33797e-01,3.68741e-12,-6.33797e-01
8.34324e+02,9.40000e+02,1.55600e+03,-6.16000e+02,1.20562e-12,-6.26251e-01,2.80115e-12,-6.26251e-01,3.86356e-12,-6.26251e-01
8.34573e+02,1.21700e+03,1.11900e+03,9.80000e+01,1.97432e-12,-6.18706e-01,1.35718e-12,-6.18706e-01,3.25195e-12,-6.18706e-01
8.34821e+02,1.55400e+03,8.88000e+02,6.66000e+02,1.38950e-12,-6.11161e-01,2.87154e-13,-6.11161e-01,1.29738e-12,-6.11161e-01
8.35069e+02,1.29200e+03,9.95000e+02,2.97000e+02,2.29194e-12,-6.03616e-01,2.03595e-12,-6.03616e-01,4.04209e-12,-6.03616e-01
8.35318e+02,1.06600e+03,1.44600e+03,-3.80000e+02,2.76926e-12,-5.96071e-01,2.12550e-12,-5.96071e-01,2.77937e-12,-5.96071e-01
8.35566e+02,7.77000e+02,1.33000e+03,-5.53000e+02,4.19799e-12,-5.88525e-01,1.68170e-12,-5.88525e-01,4.32381e-12,-5.88525e-01
8.35814e+02,9.94000e+02,1.03000e+03,-3.60000e+01,5.84979e-12,-5.80980e-01,7.15491e-12,-5.80980e-01,1.30047e-11,-5.80980e-01
8.36062e+02,1.07300e+03,7.69000e+02,3.04000e+02,1.17882e-11,-5.73435e-01,1.35683e-11,-5.73435e-01,2.38776e-11,-5.73435e-01
8.36311e+02,1.06800e+03,8.40000e+02,2.28000e+02,2.30962e-11,-5.65890e-01,2.14556e-11,-5.65890e-01,4.22994e-11,-5.65890e-01
8.36559e+02,8.27000e+02,1.07000e+03,-2.43000e+02,3.78790e-11,-5.58345e-01,3.63372e-11,-5.58345e-01,7.14532e-11,-5.58345e-01
8.36807e+02,7.45000e+02,1.21900e+03,-4.74000e+02,4.85417e-11,-5.50799e-01,4.74221e-11,-5.50799e-01,9.26407e-11,-5.50799e-01
8.37055e+02,8.00000e+02,9.55000e+02,-1.55000e+02,5.02748e-11,-5.43254e-01,4.84756e-11,-5.43254e-01,9.57957e-11,-5.43254e-01
8.37304e+02,1.03400e+03,7.46000e+02,2.88000e+02,4.45539e-11,-5.35709e-01,4.19422e-11,-5.35709e-01,8.40538e-11,-5.35709e-01
8.37552e+02,9.50000e+02,7.24000e+02,2.26000e+02,3.25506e-11,-5.28164e-01,3.05988e-11,-5.28164e-01,6.11439e-11,-5.28164e-01
8.37800e+02,8.18000e+02,9.01000e+02,-8.30000e+01,1.74845e-11,-5.20619e-01,1.66214e-11,-5.20619e-01,3.28752e-11,-5.20619e-01
8.38048e+02,6.61000e+02,8.62000e+02,-2.01000e+02,7.22094e-12,-5.13073e-01,7.73085e-12,-5.13073e-01,1.40402e-11,-5.13073e-01
8.38296e+02,7.08000e+02,7.93000e+02,-8.50000e+01,2.86788e-12,-5.05528e-01,4.62699e-12,-5.05528e-01,7.00856e-12,-5.05528e-01
8.38545e+02,8.20000e+02,6.84000e+02,1.36000e+02,1.09350e-12,-4.97983e-01,2.75473e-12,-4.97983e-01,3.84728e-12,-4.97983e-01
8.38793e+02,8.42000e+02,6.90000e+02,1.52000e+02,3.88703e-13,-4.90438e-01,1.25211e-12,-4.90438e-01,9.53506e-13,-4.90438e-01
8.39041e+02,7.13000e+02,7.08000e+02,5.00000e+00,2.57251e-12,-4.82893e-01,3.31013e-12,-4.82893e-01,2.77956e-12,-4.82893e-01
8.39289e+02,6.71000e+02,7.72000e+02,-1.01000e+02,2.62170e-12,-4.75347e-01,4.92472e-12,-4.75347e-01,2.99335e-12,-4.75347e-01
8.39537e+02,6.70000e+02,7.11000e+02,-4.10000e+01,1.22898e-12,-4.67802e-01,5.33065e-12,-4.67802e-01,4.47310e-12,-4.67802e-01
8.39785e+02,7.19000e+02,6.72000e+02,4.70000e+01,1.23834e-12,-4.60257e-01,3.61806e-12,-4.60257e-01,2.64861e-12,-4.60257e-01
8.40033e+02,7.31000e+02,6.50000e+02,8.10000e+01,1.75627e-12,-4.52712e-01,1.96904e-12,-4.52712e-01,5.26642e-13,-4.52712e-01
8.40281e+02,7.52000e+02,7.12000e+02,4.00000e+01,1.54111e-12,-4.45167e-01,1.71754e-12,-4.45167e-01,1.68219e-12,-4.45167e-01
8.40530e+02,6.40000e+02,6.97000e+02,-5.70000e+01,2.25374e-12,-4.37621e-01,1.09047e-12,-4.37621e-01,3.32111e-12,-4.37621e-01
8.40778e+02,6.46000e+02,7.05000e+02,-5.90000e+01,2.05337e-12,-4.30076e-01,1.42072e-12,-4.30076e-01,2.48197e-12,-4.30076e-01
8.41026e+02,6.69000e+02,6.69000e+02,0.00000e+00,2.12397e-12,-4.22531e-01,1.64860e-12,-4.22531e-01,4.84094e-13,-4.22531e-01
8.41274e+02,6.81000e+02,6.48000e+02,3.30000e+01,3.04284e-12,-4.14986e-01,1.11748e-12,-4.14986e-01,1.96079e-12,-4.14986e-01
8.41522e+02,6.63000e+02,6.45000e+02,1.80000e+01,2.61398e-12,-4.07441e-01,1.03897e-12,-4.07441e-01,3.22099e-12,-4.07441e-01
8.41770e+02,6.68000e+02,6.67000e+02,1.00000e+00,2.19845e-12,-3.99895e-01,6.29448e-13,-3.99895e-01,2.81704e-12,-3.99895e-01
8.42018e+02,6.46000e+02,6.53000e+02,-7.00000e+00,1.76483e-12,-3.92350e-01,2.04798e-12,-3.92350e-01,7.79830e-13,-3.92350e-01
8.42266e+02,6.64000e+02,6.68000e+02,-4.00000e+00,1.20170e-12,-3.84805e-01,3.53145e-12,-3.84805e-01,2.45061e-12,-3.84805e-01
8.42514e+02,6.61000e+02,6.38000e+02,2.30000e+01,1.26747e-12,-3.77260e-01,2.41349e-12,-3.77260e-01,3.37829e-12,-3.77260e-01
8.42762e+02,7.09000e+02,6.66000e+02,4.30000e+01,3.18298e-12,-3.69715e-01,9.62167e-13,-3.69715e-01,3.22606e-12,-3.69715e-01
8.43010e+02,6.36000e+02,6.32000e+02,4.00000e+00,3.31293e-12,-3.62169e-01,3.11606e-12,-3.62169e-01,2.32115e-12,-3.62169e-01
8.43258e+02,6.33000e+02,6.53000e+02,-2.00000e+01,1.62862e-12,-3.54624e-01,3.69372e-12,-3.54624e-01,3.25376e-12,-3.54624e-01
8.43506e+02,6.37000e+02,6.33000e+02,4.00000e+00,1.19324e-12,-3.47079e-01,2.59068e-12,-3.47079e-01,2.90706e-12,-3.47079e-01
8.43754e+02,6.45000e+02,6.25000e+02,2.00000e+01,1.40748e-12,-3.39534e-01,1.75412e-12,-3.39534e-01,1.85917e-12,-3.39534e-01
8.44002e+02,6.30000e+02,6.42000e+02,-1.20000e+01,1.50452e-12,-3.31989e-01,2.18987e-12,-3.31989e-01,1.11573e-12,-3.31989e-01
8.44250e+02,6.41000e+02,6.24000e+02,1.70000e+01,2.79227e-12,-3.24444e-01,3.98985e-12,-3.24444e-01,1.77451e-12,-3.24444e-01
8.44498e+02,6.33000e+02,6.36000e+02,-3.00000e+00,4.40126e-12,-3.16898e-01,4.27008e-12,-3.16898e-01,1.61333e-12,-3.16898e-01
8.44746e+02,6.37000e+02,6.29000e+02,8.00000e+00,4.34380e-12,-3.09353e-01,2.87787e-12,-3.09353e-01,1.61122e-12,-3.09353e-01
8.44994e+02,6.37000e+02,6.34000e+02,3.00000e+00,1.64035e-12,-3.01808e-01,1.19993e-12,-3.01808e-01,1.49161e-12,-3.01808e-01
8.45242e+02,6.64000e+02,6.59000e+02,5.00000e+00,1.86953e-12,-2.94263e-01,3.15640e-12,-2.94263e-01,1.50531e-12,-2.94263e-01
8.45490e+02,6.16000e+02,6.14000e+02,2.00000e+00,3.21569e-12,-2.86718e-01,3.51899e-12,-2.86718e-01,1.37972e-12,-2.86718e-01
8.45738e+02,6.29000e+02,6.51000e+02,-2.20000e+01,3.56518e-12,-2.79172e-01,2.01356e-12,-2.79172e-01,1.80427e-12,-2.79172e-01
8.45985e+02,6.45000e+02,6.22000e+02,2.30000e+01,2.39064e-12,-2.71627e-01,4.70362e-13,-2.71627e-01,2.59148e-12,-2.71627e-01
8.46233e+02,6.37000e+02,6.19000e+02,1.80000e+01,4.55705e-13,-2.64082e-01,1.93371e-12,-2.64082e-01,1.90890e-12,-2.64082e-01
8.46481e+02,6.26000e+02,6.27000e+02,-1.00000e+00,1.21677e-12,-2.56537e-01,1.84250e-12,-2.56537e-01,7.66406e-13,-2.56537e-01
8.46729e+02,6.31000e+02,6.42000e+02,-1.10000e+01,1.53213e-12,-2.48992e-01,3.38821e-12,-2.48992e-01,2.03331e-12,-2.48992e-01
8.46977e+02,6.36000e+02,6.29000e+02,7.00000e+00,1.34337e-12,-2.41446e-01,4.56262e-12,-2.41446e-01,3.33851e-12,-2.41446e-01
8.47225e+02,6.33000e+02,6.24000e+02,9.00000e+00,2.47957e-12,-2.33901e-01,3.82967e-12,-2.33901e-01,3.96092e-12,-2.33901e-01
8.47473e+02,6.30000e+02,6.16000e+02,1.40000e+01,2.89132e-12,-2.26356e-01,2.20265e-12,-2.26356e-01,3.86295e-12,-2.26356e-01
8.47720e+02,6.67000e+02,6.60000e+02,7.00000e+00,1.32586e-12,-2.18811e-01,2.13717e-12,-2.18811e-01,3.37027e-12,-2.18811e-01
8.47968e+02,6.09000e+02,6.19000e+02,-1.00000e+01,2.34987e-12,-2.11266e-01,3.22026e-12,-2.11266e-01,2.84820e-12,-2.11266e-01
8.48216e+02,6.20000e+02,6.29000e+02,-9.00000e+00,1.82158e-12,-2.03720e-01,2.46210e-12,-2.03720e-01,1.16134e-12,-2.03720e-01
8.48464e+02,6.44000e+02,6.43000e+02,1.00000e+00,2.47977e-12,-1.96175e-01,8.18801e-13,-1.96175e-01,1.73167e-12,-1.96175e-01
8.48712e+02,6.28000e+02,6.32000e+02,-4.00000e+00,3.93708e-12,-1.88630e-01,4.23306e-13,-1.88630e-01,4.24876e-12,-1.88630e-01
8.48960e+02,6.23000e+02,6.44000e+02,-2.10000e+01,4.77010e-12,-1.81085e-01,1.18815e-12,-1.81085e-01,3.87678e-12,-1.81085e-01
8.49207e+02,6.30000e+02,6.21000e+02,9.00000e+00,5.04310e-12,-1.73540e-01,4.99602e-12,-1.73540e-01,5.14650e-13,-1.73540e-01
8.49455e+02,6.27000e+02,6.25000e+02,2.00000e+00,3.45480e-12,-1.65994e-01,6.14879e-12,-1.65994e-01,3.57119e-12,-1.65994e-01
8.49703e+02,6.23000e+02,6.44000e+02,-2.10000e+01,3.58813e-12,-1.58449e-01,2.57530e-12,-1.58449e-01,4.41597e-12,-1.58449e-01
8.49951e+02,6.30000e+02,6.33000e+02,-3.00000e+00,5.07189e-12,-1.50904e-01,2.67652e-12,-1.50904e-01,2.44765e-12,-1.50904e-01
8.50198e+02,6.65000e+02,6.52000e+02,1.30000e+01,4.89986e-12,-1.43359e-01,3.85905e-12,-1.43359e-01,2.93033e-12,-1.43359e-01
8.50446e+02,6.18000e+02,6.18000e+02,0.00000e+00,6.38862e-12,-1.35814e-01,3.33688e-12,-1.35814e-01,5.45374e-12,-1.35814e-01
8.50694e+02,6.23000e+02,6.40000e+02,-1.70000e+01,4.77313e-12,-1.28268e-01,1.80058e-12,-1.28268e-01,5.58393e-12,-1.28268e-01
8.50941e+02,6.34000e+02,6.22000e+02,1.20000e+01,4.13816e-12,-1.20723e-01,9.63120e-13,-1.20723e-01,4.34133e-12,-1.20723e-01
8.51189e+02,6.45000e+02,6.33000e+02,1.20000e+01,5.58625e-12,-1.13178e-01,9.03941e-13,-1.13178e-01,5.80377e-12,-1.13178e-01
8.51437e+02,6.20000e+02,6.26000e+02,-6.00000e+00,3.62620e-12,-1.05633e-01,5.12747e-12,-1.05633e-01,6.60459e-12,-1.05633e-01
8.51685e+02,6.23000e+02,6.30000e+02,-7.00000e+00,2.12724e-12,-9.80876e-02,6.11512e-12,-9.80876e-02,4.50152e-12,-9.80876e-02
8.51932e+02,6.36000e+02,6.25000e+02,1.10000e+01,2.19299e-12,-9.05424e-02,4.01337e-12,-9.05424e-02,2.93346e-12,-9.05424e-02
8.52180e+02,6.26000e+02,6.30000e+02,-4.00000e+00,1.36093e-12,-8.29972e-02,3.52341e-12,-8.29972e-02,4.37134e-12,-8.29972e-02
8.52428e+02,6.34000e+02,6.33000e+02,1.00000e+00,1.58520e-12,-7.54520e-02,4.53378e-12,-7.54520e-02,4.27301e-12,-7.54520e-02
8.52675e+02,6.51000e+02,6.52000e+02,-1.00000e+00,4.75318e-12,-6.79068e-02,7.09216e-12,-6.79068e-02,2.97798e-12,-6.79068e-02
8.52923e+02,6.02000e+02,6.22000e+02,-2.00000e+01,5.96209e-12,-6.03616e-02,8.25627e-12,-6.03616e-02,3.14246e-12,-6.03616e-02
8.53170e+02,6.25000e+02,6.25000e+02,0.00000e+00,6.66077e-12,-5.28164e-02,7.52813e-12,-5.28164e-02,2.85023e-12,-5.28164e-02
8.53418e+02,6.34000e+02,6.37000e+02,-3.00000e+00,5.70011e-12,-4.52712e-02,4.63161e-12,-4.52712e-02,3.57577e-12,-4.52712e-02
8.53666e+02,6.36000e+02,6.35000e+02,1.00000e+00,4.99251e-12,-3.77260e-02,2.75573e-12,-3.77260e-02,5.79879e-12,-3.77260e-02
8.53913e+02,6.27000e+02,6.26000e+02,1.00000e+00,7.96692e-12,-3.01808e-02,2.81385e-12,-3.01808e-02,7.55672e-12,-3.01808e-02
8.54161e+02,6.36000e+02,6.23000e+02,1.30000e+01,2.39547e-11,-2.26356e-02,1.83090e-11,-2.26356e-02,6.72269e-12,-2.26356e-02
8.54409e+02,6.25000e+02,6.25000e+02,0.00000e+00,8.80556e-11,-1.50904e-02,8.26660e-11,-1.50904e-02,5.91452e-12,-1.50904e-02
8.54656e+02,6.34000e+02,6.34000e+02,0.00000e+00,2.39446e-10,-7.54520e-03,2.35188e-10,-7.54520e-03,4.95022e-12,-7.54520e-03
