7.67698e+02,6.32000e+02,6.24000e+02,8.00000e+00,4.04591e-10,0.00000e+00,3.97385e-10,0.00000e+00,7.20560e-12,0.00000e+00
7.67949e+02,6.54000e+02,6.37000e+02,1.70000e+01,2.44868e-10,7.54520e-03,2.38588e-10,7.54520e-03,6.28456e-12,7.54520e-03
7.68199e+02,6.22000e+02,6.14000e+02,8.00000e+00,8.99076e-11,1.50904e-02,8.64354e-11,1.50904e-02,4.02505e-12,1.50904e-02
7.68450e+02,6.46000e+02,6.31000e+02,1.50000e+01,2.35696e-11,2.26356e-02,2.00501e-11,2.26356e-02,5.55495e-12,2.26356e-02
7.68701e+02,6.30000e+02,6.38000e+02,-8.00000e+00,5.66760e-12,3.01808e-02,4.77834e-12,3.01808e-02,4.92754e-12,3.01808e-02
7.68951e+02,6.24000e+02,6.30000e+02,-6.00000e+00,2.19708e-12,3.77260e-02,4.01645e-12,3.77260e-02,4.34301e-12,3.77260e-02
7.69202e+02,6.37000e+02,6.27000e+02,1.00000e+01,2.31499e-12,4.52712e-02,6.14992e-12,4.52712e-02,4.72868e-12,4.52712e-02
7.69453e+02,6.30000e+02,6.26000e+02,4.00000e+00,3.83500e-12,5.28164e-02,6.58266e-12,5.28164e-02,2.76984e-12,5.28164e-02
7.69703e+02,6.33000e+02,6.33000e+02,0.00000e+00,4.87928e-12,6.03616e-02,5.36322e-12,6.03616e-02,1.27368e-12,6.03616e-02
7.69954e+02,6.34000e+02,6.21000e+02,1.30000e+01,5.07056e-12,6.79068e-02,4.82626e-12,6.79068e-02,1.00235e-12,6.79068e-02
7.70205e+02,6.44000e+02,6.39000e+02,5.00000e+00,2.40470e-12,7.54520e-02,2.83383e-12,7.54520e-02,1.00824e-12,7.54520e-02
7.70455e+02,6.63000e+02,6.61000e+02,2.00000e+00,2.49750e-12,8.29972e-02,2.26499e-12,8.29972e-02,7.19762e-13,8.29972e-02
7.70706e+02,6.32000e+02,6.31000e+02,1.00000e+00,5.23128e-12,9.05424e-02,3.09532e-12,9.05424e-02,2.13674e-12,9.05424e-02
7.70957e+02,6.40000e+02,6.37000e+02,3.00000e+00,6.96858e-12,9.80876e-02,3.75462e-12,9.80876e-02,3.28597e-12,9.80876e-02
7.71207e+02,6.32000e+02,6.56000e+02,-2.40000e+01,5.16438e-12,1.05633e-01,1.07654e-12,1.05633e-01,4.09412e-12,1.05633e-01
7.71458e+02,6.43000e+02,6.47000e+02,-4.00000e+00,3.16073e-12,1.13178e-01,3.27424e-12,1.13178e-01,5.06324e-12,1.13178e-01
7.71708e+02,6.74000e+02,6.37000e+02,3.70000e+01,2.60304e-12,1.20723e-01,1.85693e-12,1.20723e-01,4.09476e-12,1.20723e-01
7.71959e+02,6.78000e+02,6.88000e+02,-1.00000e+01,3.71519e-12,1.28268e-01,2.91125e-12,1.28268e-01,8.97791e-13,1.28268e-01
7.72210e+02,6.38000e+02,6.58000e+02,-2.00000e+01,4.38652e-12,1.35814e-01,5.36748e-12,1.35814e-01,2.02903e-12,1.35814e-01
7.72460e+02,6.75000e+02,6.53000e+02,2.20000e+01,3.81511e-12,1.43359e-01,3.76292e-12,1.43359e-01,3.18155e-12,1.43359e-01
7.72711e+02,6.70000e+02,6.50000e+02,2.00000e+01,3.86631e-12,1.50904e-01,2.31769e-12,1.50904e-01,3.47192e-12,1.50904e-01
7.72961e+02,6.92000e+02,7.16000e+02,-2.40000e+01,2.40141e-12,1.58449e-01,1.65742e-12,1.58449e-01,3.38344e-12,1.58449e-01
7.73212e+02,6.36000e+02,6.48000e+02,-1.20000e+01,3.70015e-12,1.65994e-01,5.89616e-12,1.65994e-01,3.23792e-12,1.65994e-01
7.73462e+02,6.77000e+02,6.45000e+02,3.20000e+01,2.78222e-12,1.73540e-01,7.31635e-12,1.73540e-01,4.54556e-12,1.73540e-01
7.73713e+02,6.64000e+02,6.66000e+02,-2.00000e+00,1.95647e-12,1.81085e-01,4.80428e-12,1.81085e-01,4.86057e-12,1.81085e-01
7.73963e+02,6.48000e+02,6.72000e+02,-2.40000e+01,1.95813e-12,1.88630e-01,2.55860e-12,1.88630e-01,2.91691e-12,1.88630e-01
7.74214e+02,6.50000e+02,6.48000e+02,2.00000e+00,2.30433e-12,1.96175e-01,1.78441e-12,1.96175e-01,1.19467e-12,1.96175e-01
7.74465e+02,7.15000e+02,6.58000e+02,5.70000e+01,3.83520e-12,2.03720e-01,2.56064e-12,2.03720e-01,1.28976e-12,2.03720e-01
7.74715e+02,6.74000e+02,7.09000e+02,-3.50000e+01,5.05319e-12,2.11266e-01,3.76818e-12,2.11266e-01,1.37372e-12,2.11266e-01
7.74965e+02,6.75000e+02,7.03000e+02,-2.80000e+01,3.15741e-12,2.18811e-01,1.45381e-12,2.18811e-01,1.89002e-12,2.18811e-01
7.75216e+02,6.81000e+02,6.53000e+02,2.80000e+01,1.85667e-12,2.26356e-01,2.37258e-12,2.26356e-01,2.94448e-12,2.26356e-01
7.75466e+02,7.56000e+02,7.26000e+02,3.00000e+01,7.10289e-13,2.33901e-01,3.44378e-12,2.33901e-01,3.11399e-12,2.33901e-01
7.75717e+02,6.58000e+02,6.86000e+02,-2.80000e+01,1.95338e-12,2.41446e-01,1.77529e-12,2.41446e-01,3.46887e-12,2.41446e-01
7.75967e+02,6.80000e+02,6.91000e+02,-1.10000e+01,2.48624e-12,2.48992e-01,6.55677e-13,2.48992e-01,3.10255e-12,2.48992e-01
7.76218e+02,7.58000e+02,6.84000e+02,7.40000e+01,2.29886e-12,2.56537e-01,1.61380e-12,2.56537e-01,2.44981e-12,2.56537e-01
7.76468e+02,7.58000e+02,7.81000e+02,-2.30000e+01,1.72504e-12,2.64082e-01,2.65546e-12,2.64082e-01,2.13955e-12,2.64082e-01
7.76719e+02,6.93000e+02,7.61000e+02,-6.80000e+01,1.60397e-12,2.71627e-01,2.77403e-12,2.71627e-01,1.22992e-12,2.71627e-01
7.76969e+02,7.65000e+02,7.02000e+02,6.30000e+01,2.64776e-12,2.79172e-01,4.12014e-12,2.79172e-01,2.57539e-12,2.79172e-01
7.77219e+02,7.88000e+02,7.25000e+02,6.30000e+01,3.01296e-12,2.86718e-01,4.30009e-12,2.86718e-01,3.25629e-12,2.86718e-01
7.77470e+02,7.61000e+02,8.53000e+02,-9.20000e+01,2.06065e-12,2.94263e-01,1.99984e-12,2.94263e-01,1.85841e-12,2.94263e-01
7.77720e+02,7.53000e+02,7.55000e+02,-2.00000e+00,1.13257e-12,3.01808e-01,1.75777e-12,3.01808e-01,1.19217e-12,3.01808e-01
7.77971e+02,9.44000e+02,7.86000e+02,1.58000e+02,3.31019e-12,3.09353e-01,4.23097e-12,3.09353e-01,9.36508e-13,3.09353e-01
7.78221e+02,8.42000e+02,8.78000e+02,-3.60000e+01,2.86278e-12,3.16898e-01,5.58388e-12,3.16898e-01,3.35825e-12,3.16898e-01
7.78471e+02,7.55000e+02,9.52000e+02,-1.97000e+02,1.87463e-12,3.24444e-01,5.47696e-12,3.24444e-01,5.45508e-12,3.24444e-01
7.78722e+02,7.90000e+02,7.81000e+02,9.00000e+00,1.75212e-12,3.31989e-01,3.37290e-12,3.31989e-01,4.38492e-12,3.31989e-01
7.78972e+02,9.55000e+02,8.80000e+02,7.50000e+01,1.45361e-12,3.39534e-01,9.16410e-13,3.39534e-01,1.88571e-12,3.39534e-01
7.79222e+02,8.88000e+02,1.14100e+03,-2.53000e+02,1.19987e-12,3.47079e-01,1.46463e-12,3.47079e-01,8.11946e-13,3.47079e-01
7.79473e+02,8.40000e+02,1.08800e+03,-2.48000e+02,2.90764e-12,3.54624e-01,2.36710e-12,3.54624e-01,2.52850e-12,3.54624e-01
7.79723e+02,1.04900e+03,8.38000e+02,2.11000e+02,3.93569e-12,3.62169e-01,2.70690e-12,3.62169e-01,2.77571e-12,3.62169e-01
7.79973e+02,1.14200e+03,1.09600e+03,4.60000e+01,2.46519e-12,3.69715e-01,1.99328e-12,3.69715e-01,2.59890e-12,3.69715e-01
7.80224e+02,8.50000e+02,1.16500e+03,-3.15000e+02,1.04777e-12,3.77260e-01,2.46758e-12,3.77260e-01,3.17043e-12,3.77260e-01
7.80474e+02,1.01500e+03,1.05800e+03,-4.30000e+01,2.27733e-12,3.84805e-01,4.00897e-12,3.84805e-01,3.24863e-12,3.84805e-01
7.80724e+02,1.11700e+03,8.94000e+02,2.23000e+02,2.11661e-12,3.92350e-01,3.26392e-12,3.92350e-01,1.60555e-12,3.92350e-01
7.80974e+02,1.01500e+03,1.25200e+03,-2.37000e+02,2.31844e-12,3.99895e-01,1.92510e-12,3.99895e-01,3.97451e-13,3.99895e-01
7.81225e+02,8.96000e+02,1.19000e+03,-2.94000e+02,3.18924e-12,4.07441e-01,2.28562e-12,4.07441e-01,1.31407e-12,4.07441e-01
7.81475e+02,1.30800e+03,1.02200e+03,2.86000e+02,3.42127e-12,4.14986e-01,2.82590e-12,4.14986e-01,1.60928e-12,4.14986e-01
7.81725e+02,1.38700e+03,1.13400e+03,2.53000e+02,2.18788e-12,4.22531e-01,2.21322e-12,4.22531e-01,1.62536e-12,4.22531e-01
7.81975e+02,1.14400e+03,1.53300e+03,-3.89000e+02,1.49394e-12,4.30076e-01,1.78683e-12,4.30076e-01,2.03139e-12,4.30076e-01
7.82226e+02,1.12300e+03,1.21700e+03,-9.40000e+01,6.30844e-13,4.37621e-01,1.72787e-12,4.37621e-01,2.35161e-12,4.37621e-01
7.82476e+02,1.56800e+03,1.11300e+03,4.55000e+02,1.58115e-12,4.45167e-01,2.70677e-12,4.45167e-01,1.17857e-12,4.45167e-01
7.82726e+02,1.42900e+03,1.46800e+03,-3.90000e+01,3.63854e-12,4.52712e-01,2.73601e-12,4.52712e-01,1.49136e-12,4.52712e-01
7.82976e+02,1.13100e+03,1.57800e+03,-4.47000e+02,4.74378e-12,4.60257e-01,2.83378e-12,4.60257e-01,2.11640e-12,4.60257e-01
7.83226e+02,1.33900e+03,1.11200e+03,2.27000e+02,5.05168e-12,4.67802e-01,3.68112e-12,4.67802e-01,1.87100e-12,4.67802e-01
7.83477e+02,1.73200e+03,1.41400e+03,3.18000e+02,4.55072e-12,4.75347e-01,4.20064e-12,4.75347e-01,2.07109e-12,4.75347e-01
7.83727e+02,1.39400e+03,1.85000e+03,-4.56000e+02,2.49052e-12,4.82893e-01,2.45613e-12,4.82893e-01,1.43258e-13,4.82893e-01
7.83977e+02,1.42500e+03,1.58800e+03,-1.63000e+02,9.69775e-13,4.90438e-01,9.01628e-13,4.90438e-01,1.84657e-12,4.90438e-01
7.84227e+02,1.93800e+03,1.28400e+03,6.54000e+02,4.40868e-13,4.97983e-01,2.54633e-12,4.97983e-01,2.39121e-12,4.97983e-01
7.84477e+02,2.11700e+03,2.01900e+03,9.80000e+01,6.73668e-13,5.05528e-01,1.80266e-12,5.05528e-01,1.31331e-12,5.05528e-01
7.84727e+02,1.54900e+03,2.16800e+03,-6.19000e+02,1.23262e-12,5.13073e-01,8.38468e-13,5.13073e-01,3.94369e-13,5.13073e-01
7.84978e+02,1.94000e+03,1.75500e+03,1.85000e+02,2.28393e-12,5.20619e-01,1.73840e-12,5.20619e-01,9.77812e-13,5.20619e-01
7.85228e+02,2.65800e+03,1.72400e+03,9.34000e+02,3.24488e-12,5.28164e-01,2.48319e-12,5.28164e-01,7.70745e-13,5.28164e-01
7.85478e+02,2.25800e+03,2.58800e+03,-3.30000e+02,2.91734e-12,5.35709e-01,2.18387e-12,5.35709e-01,1.91488e-12,5.35709e-01
7.85728e+02,1.67300e+03,2.56400e+03,-8.91000e+02,2.07469e-12,5.43254e-01,1.37934e-12,5.43254e-01,3.12529e-12,5.43254e-01
7.85978e+02,2.28500e+03,1.76400e+03,5.21000e+02,1.20774e-12,5.50799e-01,1.59277e-12,5.50799e-01,2.79330e-12,5.50799e-01
7.86228e+02,2.40600e+03,1.99400e+03,4.12000e+02,1.26854e-12,5.58345e-01,1.32600e-12,5.58345e-01,2.56707e-12,5.58345e-01
7.86478e+02,1.79700e+03,2.61000e+03,-8.13000e+02,1.21931e-12,5.65890e-01,1.37489e-12,5.65890e-01,2.31130e-12,5.65890e-01
7.86728e+02,1.68800e+03,2.12500e+03,-4.37000e+02,2.02852e-12,5.73435e-01,1.98771e-12,5.73435e-01,2.43590e-12,5.73435e-01
7.86978e+02,2.45700e+03,1.59500e+03,8.62000e+02,3.29745e-12,5.80980e-01,2.83887e-12,5.80980e-01,3.37462e-12,5.80980e-01
7.87228e+02,2.44600e+03,2.10200e+03,3.44000e+02,3.69304e-12,5.88525e-01,2.94644e-12,5.88525e-01,2.85982e-12,5.88525e-01
7.87478e+02,1.72400e+03,2.45400e+03,-7.30000e+02,3.64477e-12,5.96071e-01,2.09209e-12,5.96071e-01,2.12459e-12,5.96071e-01
7.87728e+02,1.98300e+03,1.82300e+03,1.60000e+02,3.96197e-12,6.03616e-01,7.28173e-13,6.03616e-01,3.38363e-12,6.03616e-01
7.87978e+02,3.01700e+03,1.98800e+03,1.02900e+03,3.87433e-12,6.11161e-01,2.07043e-13,6.11161e-01,3.87113e-12,6.11161e-01
7.88228e+02,2.43300e+03,2.81600e+03,-3.83000e+02,2.09543e-12,6.18706e-01,9.15511e-13,6.18706e-01,1.23369e-12,6.18706e-01
7.88478e+02,2.16300e+03,2.79400e+03,-6.31000e+02,5.09868e-13,6.26251e-01,8.10383e-13,6.26251e-01,1.31330e-12,6.26251e-01
7.88728e+02,3.12300e+03,2.09000e+03,1.03300e+03,1.17019e-12,6.33797e-01,1.98835e-12,6.33797e-01,1.04547e-12,6.33797e-01
7.88978e+02,3.25500e+03,2.61000e+03,6.45000e+02,3.97353e-12,6.41342e-01,3.48246e-12,6.41342e-01,5.57377e-12,6.41342e-01
7.89228e+02,2.39000e+03,3.51600e+03,-1.12600e+03,6.57574e-12,6.48887e-01,4.51552e-12,6.48887e-01,9.47788e-12,6.48887e-01
7.89478e+02,2.38600e+03,2.92200e+03,-5.36000e+02,1.00400e-11,6.56432e-01,7.99564e-12,6.56432e-01,1.74206e-11,6.56432e-01
7.89728e+02,3.57000e+03,2.19200e+03,1.37800e+03,1.69085e-11,6.63977e-01,1.69357e-11,6.63977e-01,3.24498e-11,6.63977e-01
7.89978e+02,3.70300e+03,3.15300e+03,5.50000e+02,2.53850e-11,6.71523e-01,2.67007e-11,6.71523e-01,4.93072e-11,6.71523e-01
7.90228e+02,2.58100e+03,3.82000e+03,-1.23900e+03,3.17198e-11,6.79068e-01,3.27713e-11,6.79068e-01,6.04992e-11,6.79068e-01
7.90478e+02,3.24400e+03,3.05400e+03,1.90000e+02,3.42891e-11,6.86613e-01,3.38387e-11,6.86613e-01,6.33193e-11,6.86613e-01
7.90728e+02,4.48000e+03,2.96600e+03,1.51400e+03,3.36991e-11,6.94158e-01,3.14940e-11,6.94158e-01,5.98595e-11,6.94158e-01
7.90978e+02,3.99500e+03,4.42600e+03,-4.31000e+02,2.86578e-11,7.01703e-01,2.69808e-11,7.01703e-01,5.01661e-11,7.01703e-01
7.91228e+02,2.96500e+03,4.29400e+03,-1.32900e+03,1.90151e-11,7.09249e-01,1.98656e-11,7.09249e-01,3.52431e-11,7.09249e-01
7.91478e+02,3.78700e+03,2.96000e+03,8.27000e+02,1.20095e-11,7.16794e-01,1.15812e-11,7.16794e-01,2.20939e-11,7.16794e-01
7.91728e+02,4.21600e+03,3.03700e+03,1.17900e+03,9.24262e-12,7.24339e-01,7.87390e-12,7.24339e-01,1.53583e-11,7.24339e-01
7.91977e+02,3.24600e+03,3.95900e+03,-7.13000e+02,5.61024e-12,7.31884e-01,5.44487e-12,7.31884e-01,9.91417e-12,7.31884e-01
7.92227e+02,2.95500e+03,3.13000e+03,-1.75000e+02,1.54301e-12,7.39429e-01,1.85875e-12,7.39429e-01,3.39345e-12,7.39429e-01
7.92477e+02,4.93600e+03,2.81000e+03,2.12600e+03,3.33042e-13,7.46975e-01,2.00082e-12,7.46975e-01,1.70667e-12,7.46975e-01
7.92727e+02,4.93700e+03,4.03600e+03,9.01000e+02,1.04119e-12,7.54520e-01,1.14487e-12,7.54520e-01,8.08141e-13,7.54520e-01
7.92977e+02,3.34400e+03,4.71100e+03,-1.36700e+03,2.57009e-12,7.62065e-01,7.32896e-13,7.62065e-01,3.12743e-12,7.62065e-01
7.93227e+02,3.46200e+03,3.28000e+03,1.82000e+02,2.53571e-12,7.69610e-01,6.06894e-13,7.69610e-01,3.13797e-12,7.69610e-01
7.93476e+02,4.80400e+03,2.96400e+03,1.84000e+03,1.93071e-12,7.77155e-01,8.34724e-13,7.77155e-01,2.45125e-12,7.77155e-01
7.93726e+02,3.99200e+03,4.67400e+03,-6.82000e+02,1.77276e-12,7.84701e-01,4.30324e-13,7.84701e-01,2.19092e-12,7.84701e-01
7.93976e+02,3.14700e+03,4.83200e+03,-1.68500e+03,1.43630e-12,7.92246e-01,1.12020e-12,7.92246e-01,1.91028e-12,7.92246e-01
7.94226e+02,4.54000e+03,3.18200e+03,1.35800e+03,1.14053e-12,7.99791e-01,1.37216e-12,7.99791e-01,2.37273e-12,7.99791e-01
7.94476e+02,5.56300e+03,3.82100e+03,1.74200e+03,1.63348e-12,8.07336e-01,1.91019e-12,8.07336e-01,3.43640e-12,8.07336e-01
7.94725e+02,3.96500e+03,5.38800e+03,-1.42300e+03,1.43847e-12,8.14881e-01,1.72988e-12,8.14881e-01,3.14775e-12,8.14881e-01
7.94975e+02,3.43900e+03,5.21400e+03,-1.77500e+03,1.79905e-13,8.22427e-01,2.02589e-12,8.22427e-01,2.06353e-12,8.22427e-01
7.95225e+02,4.87700e+03,3.56900e+03,1.30800e+03,1.46255e-12,8.29972e-01,2.27737e-12,8.29972e-01,1.18388e-12,8.29972e-01
7.95475e+02,5.62600e+03,4.80700e+03,8.19000e+02,1.72743e-12,8.37517e-01,1.79877e-12,8.37517e-01,7.12278e-13,8.37517e-01
7.95724e+02,3.91400e+03,5.88800e+03,-1.97400e+03,1.15091e-12,8.45062e-01,8.67036e-13,8.45062e-01,2.89332e-13,8.45062e-01
7.95974e+02,4.35000e+03,4.49000e+03,-1.40000e+02,1.02141e-12,8.52607e-01,3.12646e-13,8.52607e-01,7.57925e-13,8.52607e-01
7.96224e+02,6.53700e+03,3.90100e+03,2.63600e+03,1.12940e-12,8.60153e-01,3.92675e-13,8.60153e-01,1.18141e-12,8.60153e-01
7.96474e+02,6.09100e+03,6.07700e+03,1.40000e+01,1.49913e-12,8.67698e-01,8.11445e-13,8.67698e-01,2.07638e-12,8.67698e-01
7.96723e+02,3.98800e+03,6.51000e+03,-2.52200e+03,1.37023e-12,8.75243e-01,9.46205e-13,8.75243e-01,2.31640e-12,8.75243e-01
7.96973e+02,5.52000e+03,4.41400e+03,1.10600e+03,3.61834e-13,8.82788e-01,1.17842e-12,8.82788e-01,1.52884e-12,8.82788e-01
7.97223e+02,8.06800e+03,5.27800e+03,2.79000e+03,9.00265e-13,8.90333e-01,1.13175e-12,8.90333e-01,5.69729e-13,8.90333e-01
7.97472e+02,5.63800e+03,7.75600e+03,-2.11800e+03,1.00315e-12,8.97879e-01,8.89461e-13,8.97879e-01,6.39131e-13,8.97879e-01
7.97722e+02,4.84800e+03,7.66000e+03,-2.81200e+03,1.03821e-12,9.05424e-01,9.95693e-13,9.05424e-01,1.05492e-12,9.05424e-01
7.97972e+02,7.00600e+03,4.92800e+03,2.07800e+03,1.15658e-12,9.12969e-01,1.28038e-12,9.12969e-01,1.20448e-12,9.12969e-01
7.98221e+02,7.36300e+03,5.41300e+03,1.95000e+03,5.72860e-13,9.20514e-01,1.23398e-12,9.20514e-01,1.15236e-12,9.20514e-01
7.98471e+02,4.73600e+03,6.36100e+03,-1.62500e+03,6.51307e-13,9.28059e-01,1.16820e-12,9.28059e-01,5.17001e-13,9.28059e-01
7.98721e+02,4.78000e+03,5.21100e+03,-4.31000e+02,9.13988e-13,9.35605e-01,1.18135e-12,9.35605e-01,8.04403e-13,9.35605e-01
7.98970e+02,7.81800e+03,4.45600e+03,3.36200e+03,2.99132e-13,9.43150e-01,1.15364e-12,9.43150e-01,1.45228e-12,9.43150e-01
7.99220e+02,7.82900e+03,6.89100e+03,9.38000e+02,8.90665e-13,9.50695e-01,1.05443e-12,9.50695e-01,1.27981e-12,9.50695e-01
7.99469e+02,5.03700e+03,7.83800e+03,-2.80100e+03,5.97725e-13,9.58240e-01,1.02808e-12,9.58240e-01,9.34261e-13,9.58240e-01
7.99719e+02,5.89300e+03,5.40500e+03,4.88000e+02,5.37034e-13,9.65785e-01,9.62116e-13,9.65785e-01,1.38497e-12,9.65785e-01
7.99969e+02,8.60000e+03,5.29400e+03,3.30600e+03,3.99356e-13,9.73331e-01,6.18946e-13,9.73331e-01,9.39874e-13,9.73331e-01
8.00218e+02,6.92100e+03,8.16900e+03,-1.24800e+03,2.37694e-13,9.80876e-01,5.13864e-13,9.80876e-01,6.16101e-13,9.80876e-01
8.00468e+02,5.34600e+03,8.06400e+03,-2.71800e+03,8.28245e-13,9.88421e-01,9.23608e-13,9.88421e-01,2.35921e-13,9.88421e-01
8.00717e+02,7.45300e+03,5.33800e+03,2.11500e+03,1.58793e-12,9.95966e-01,1.10094e-12,9.95966e-01,7.70164e-13,9.95966e-01
8.00967e+02,8.38300e+03,6.56800e+03,1.81500e+03,1.37120e-12,1.00351e+00,1.01641e-12,1.00351e+00,1.65922e-12,1.00351e+00
8.01216e+02,6.13500e+03,1.02510e+04,-4.11600e+03,1.00027e-12,1.01106e+00,1.26706e-12,1.01106e+00,2.16659e-12,1.01106e+00
8.01466e+02,5.82900e+03,8.97700e+03,-3.14800e+03,8.06796e-13,1.01860e+00,8.42889e-13,1.01860e+00,1.64024e-12,1.01860e+00
8.01715e+02,9.38100e+03,6.13700e+03,3.24400e+03,8.85878e-13,1.02615e+00,4.28072e-13,1.02615e+00,1.31380e-12,1.02615e+00
8.01965e+02,9.47400e+03,7.78500e+03,1.68900e+03,9.18965e-13,1.03369e+00,5.23409e-13,1.03369e+00,1.17730e-12,1.03369e+00
8.02215e+02,6.43900e+03,1.00490e+04,-3.61000e+03,8.08631e-13,1.04124e+00,9.90764e-13,1.04124e+00,1.61734e-12,1.04124e+00
8.02464e+02,6.93600e+03,7.07000e+03,-1.34000e+02,6.62686e-13,1.04878e+00,1.06008e-12,1.04878e+00,1.72178e-12,1.04878e+00
8.02713e+02,9.81000e+03,5.74400e+03,4.06600e+03,5.16686e-13,1.05633e+00,3.49137e-13,1.05633e+00,8.60990e-13,1.05633e+00
8.02963e+02,8.90700e+03,9.05000e+03,-1.43000e+02,7.11592e-13,1.06387e+00,8.87671e-13,1.06387e+00,1.91855e-13,1.06387e+00
8.03212e+02,6.51500e+03,1.05210e+04,-4.00600e+03,1.06309e-12,1.07142e+00,1.29389e-12,1.07142e+00,2.41608e-13,1.07142e+00
8.03462e+02,9.06200e+03,7.41700e+03,1.64500e+03,9.10253e-13,1.07896e+00,1.20910e-12,1.07896e+00,3.11345e-13,1.07896e+00
8.03711e+02,1.21190e+04,6.96000e+03,5.15900e+03,6.04221e-13,1.08651e+00,5.92182e-13,1.08651e+00,9.47755e-14,1.08651e+00
8.03961e+02,8.99700e+03,9.85000e+03,-8.53000e+02,5.96990e-13,1.09405e+00,4.37763e-13,1.09405e+00,5.31666e-13,1.09405e+00
8.04210e+02,6.14100e+03,9.18400e+03,-3.04300e+03,9.15486e-13,1.10160e+00,4.74376e-13,1.10160e+00,1.21422e-12,1.10160e+00
8.04460e+02,9.58300e+03,6.12600e+03,3.45700e+03,8.19824e-13,1.10914e+00,5.69443e-13,1.10914e+00,1.22967e-12,1.10914e+00
8.04709e+02,1.19260e+04,8.32400e+03,3.60200e+03,4.46572e-13,1.11669e+00,6.23448e-13,1.11669e+00,6.52773e-13,1.11669e+00
8.04958e+02,8.58000e+03,1.17440e+04,-3.16400e+03,2.13344e-13,1.12423e+00,5.30028e-13,1.12423e+00,3.42259e-13,1.12423e+00
8.05208e+02,7.08100e+03,1.04350e+04,-3.35400e+03,2.09890e-13,1.13178e+00,9.25141e-13,1.13178e+00,7.15391e-13,1.13178e+00
8.05457e+02,9.96300e+03,6.60400e+03,3.35900e+03,8.79852e-13,1.13932e+00,1.51302e-12,1.13932e+00,9.47772e-13,1.13932e+00
8.05707e+02,1.11800e+04,9.25000e+03,1.93000e+03,1.32867e-12,1.14687e+00,1.47747e-12,1.14687e+00,8.64063e-13,1.14687e+00
8.05956e+02,7.90800e+03,1.29110e+04,-5.00300e+03,9.66504e-13,1.15442e+00,4.45804e-13,1.15442e+00,6.95857e-13,1.15442e+00
8.06205e+02,7.24500e+03,8.96400e+03,-1.71900e+03,5.10233e-14,1.16196e+00,4.64203e-13,1.16196e+00,4.79678e-13,1.16196e+00
8.06455e+02,1.09560e+04,6.35100e+03,4.60500e+03,6.54843e-13,1.16951e+00,7.04991e-13,1.16951e+00,9.18688e-13,1.16951e+00
8.06704e+02,1.11540e+04,9.12400e+03,2.03000e+03,9.30826e-13,1.17705e+00,4.69972e-13,1.17705e+00,1.13284e-12,1.17705e+00
8.06953e+02,7.39300e+03,1.16990e+04,-4.30600e+03,8.69807e-13,1.18460e+00,3.85172e-13,1.18460e+00,1.24238e-12,1.18460e+00
8.07203e+02,7.29200e+03,7.81800e+03,-5.26000e+02,8.68693e-13,1.19214e+00,6.94547e-13,1.19214e+00,1.39401e-12,1.19214e+00
8.07452e+02,1.12350e+04,6.40700e+03,4.82800e+03,8.60601e-13,1.19969e+00,1.26200e-12,1.19969e+00,1.27894e-12,1.19969e+00
8.07701e+02,1.06280e+04,9.65700e+03,9.71000e+02,9.16688e-13,1.20723e+00,1.61521e-12,1.20723e+00,1.06874e-12,1.20723e+00
8.07951e+02,6.53200e+03,1.11230e+04,-4.59100e+03,7.81708e-13,1.21478e+00,1.42105e-12,1.21478e+00,8.39005e-13,1.21478e+00
8.08200e+02,7.48300e+03,7.63300e+03,-1.50000e+02,7.23223e-13,1.22232e+00,8.77997e-13,1.22232e+00,7.50121e-13,1.22232e+00
8.08449e+02,1.16970e+04,7.07000e+03,4.62700e+03,4.18678e-13,1.22987e+00,3.23960e-13,1.22987e+00,7.12874e-13,1.22987e+00
8.08698e+02,9.72800e+03,1.17550e+04,-2.02700e+03,3.81771e-13,1.23741e+00,4.63362e-13,1.23741e+00,5.92811e-13,1.23741e+00
8.08948e+02,7.57900e+03,1.26070e+04,-5.02800e+03,3.37464e-13,1.24496e+00,6.31531e-13,1.24496e+00,5.98291e-13,1.24496e+00
8.09197e+02,1.08670e+04,8.39000e+03,2.47700e+03,6.45907e-13,1.25250e+00,2.86569e-13,1.25250e+00,8.72282e-13,1.25250e+00
8.09446e+02,1.24120e+04,8.26900e+03,4.14300e+03,8.57893e-13,1.26005e+00,3.85242e-13,1.26005e+00,9.09914e-13,1.26005e+00
8.09695e+02,9.39800e+03,1.28850e+04,-3.48700e+03,5.41317e-13,1.26759e+00,7.93591e-13,1.26759e+00,9.47847e-13,1.26759e+00
8.09945e+02,8.32100e+03,1.22670e+04,-3.94600e+03,2.99737e-13,1.27514e+00,8.80875e-13,1.27514e+00,9.67906e-13,1.27514e+00
8.10194e+02,1.34440e+04,8.22900e+03,5.21500e+03,4.33183e-13,1.28268e+00,5.83867e-13,1.28268e+00,8.89463e-13,1.28268e+00
8.10443e+02,1.41250e+04,9.54400e+03,4.58100e+03,8.85671e-13,1.29023e+00,8.14749e-13,1.29023e+00,7.42532e-13,1.29023e+00
8.10692e+02,8.90700e+03,1.26330e+04,-3.72600e+03,8.08225e-13,1.29777e+00,7.48756e-13,1.29777e+00,4.51247e-13,1.29777e+00
8.10941e+02,8.28200e+03,1.05590e+04,-2.27700e+03,5.28169e-13,1.30532e+00,5.46652e-13,1.30532e+00,2.12628e-14,1.30532e+00
8.11191e+02,1.26840e+04,7.02900e+03,5.65500e+03,9.51509e-14,1.31286e+00,1.33720e-13,1.31286e+00,1.67401e-13,1.31286e+00
8.11440e+02,1.33340e+04,1.08850e+04,2.44900e+03,1.43891e-12,-1.32041e+00,1.36062e-12,-1.32041e+00,7.82914e-14,-1.32041e+00
8.11689e+02,9.38600e+03,1.47230e+04,-5.33700e+03,9.51509e-14,-1.31286e+00,1.33720e-13,-1.31286e+00,1.67401e-13,-1.31286e+00
8.11938e+02,8.56600e+03,1.16810e+04,-3.11500e+03,5.28169e-13,-1.30532e+00,5.46652e-13,-1.30532e+00,2.12628e-14,-1.30532e+00
8.12187e+02,1.30360e+04,7.72500e+03,5.31100e+03,8.08225e-13,-1.29777e+00,7.48756e-13,-1.29777e+00,4.51247e-13,-1.29777e+00
8.12436e+02,1.28690e+04,1.05720e+04,2.29700e+03,8.85671e-13,-1.29023e+00,8.14749e-13,-1.29023e+00,7.42532e-13,-1.29023e+00
8.12685e+02,8.40200e+03,1.30920e+04,-4.69000e+03,4.33183e-13,-1.28268e+00,5.83867e-13,-1.28268e+00,8.89463e-13,-1.28268e+00
8.12935e+02,9.39700e+03,9.97800e+03,-5.81000e+02,2.99737e-13,-1.27514e+00,8.80875e-13,-1.27514e+00,9.67906e-13,-1.27514e+00
8.13184e+02,1.35260e+04,8.43300e+03,5.09300e+03,5.41317e-13,-1.26759e+00,7.93591e-13,-1.26759e+00,9.47847e-13,-1.26759e+00
8.13433e+02,1.24760e+04,1.26590e+04,-1.83000e+02,8.57893e-13,-1.26005e+00,3.85242e-13,-1.26005e+00,9.09914e-13,-1.26005e+00
8.13682e+02,7.91700e+03,1.42920e+04,-6.37500e+03,6.45907e-13,-1.25250e+00,2.86569e-13,-1.25250e+00,8.72282e-13,-1.25250e+00
8.13931e+02,9.02000e+03,1.01320e+04,-1.11200e+03,3.37464e-13,-1.24496e+00,6.31531e-13,-1.24496e+00,5.98291e-13,-1.24496e+00
8.14180e+02,1.18350e+04,7.09300e+03,4.74200e+03,3.81771e-13,-1.23741e+00,4.63362e-13,-1.23741e+00,5.92811e-13,-1.23741e+00
8.14429e+02,1.12400e+04,1.08730e+04,3.67000e+02,4.18678e-13,-1.22987e+00,3.23960e-13,-1.22987e+00,7.12874e-13,-1.22987e+00
8.14678e+02,7.57300e+03,1.28020e+04,-5.22900e+03,7.23223e-13,-1.22232e+00,8.77997e-13,-1.22232e+00,7.50121e-13,-1.22232e+00
8.14927e+02,9.86800e+03,7.90600e+03,1.96200e+03,7.81708e-13,-1.21478e+00,1.42105e-12,-1.21478e+00,8.39005e-13,-1.21478e+00
8.15176e+02,1.25820e+04,7.10400e+03,5.47800e+03,9.16688e-13,-1.20723e+00,1.61521e-12,-1.20723e+00,1.06874e-12,-1.20723e+00
8.15425e+02,9.60600e+03,1.10510e+04,-1.44500e+03,8.60601e-13,-1.19969e+00,1.26200e-12,-1.19969e+00,1.27894e-12,-1.19969e+00
8.15674e+02,7.24000e+03,1.20800e+04,-4.84000e+03,8.68693e-13,-1.19214e+00,6.94547e-13,-1.19214e+00,1.39401e-12,-1.19214e+00
8.15923e+02,1.15240e+04,7.82600e+03,3.69800e+03,8.69807e-13,-1.18460e+00,3.85172e-13,-1.18460e+00,1.24238e-12,-1.18460e+00
8.16172e+02,1.47280e+04,9.25000e+03,5.47800e+03,9.30826e-13,-1.17705e+00,4.69972e-13,-1.17705e+00,1.13284e-12,-1.17705e+00
8.16421e+02,9.72100e+03,1.28310e+04,-3.11000e+03,6.54843e-13,-1.16951e+00,7.04991e-13,-1.16951e+00,9.18688e-13,-1.16951e+00
8.16670e+02,6.89900e+03,9.82000e+03,-2.92100e+03,5.10233e-14,-1.16196e+00,4.64203e-13,-1.16196e+00,4.79678e-13,-1.16196e+00
8.16919e+02,1.04890e+04,6.39800e+03,4.09100e+03,9.66504e-13,-1.15442e+00,4.45804e-13,-1.15442e+00,6.95857e-13,-1.15442e+00
8.17168e+02,1.09560e+04,7.37400e+03,3.58200e+03,1.32867e-12,-1.14687e+00,1.47747e-12,-1.14687e+00,8.64063e-13,-1.14687e+00
8.17417e+02,7.44900e+03,1.04770e+04,-3.02800e+03,8.79852e-13,-1.13932e+00,1.51302e-12,-1.13932e+00,9.47772e-13,-1.13932e+00
8.17666e+02,6.76300e+03,9.27900e+03,-2.51600e+03,2.09890e-13,-1.13178e+00,9.25141e-13,-1.13178e+00,7.15391e-13,-1.13178e+00
8.17915e+02,1.08850e+04,6.08600e+03,4.79900e+03,2.13344e-13,-1.12423e+00,5.30028e-13,-1.12423e+00,3.42259e-13,-1.12423e+00
8.18164e+02,1.08850e+04,7.29000e+03,3.59500e+03,4.46572e-13,-1.11669e+00,6.23448e-13,-1.11669e+00,6.52773e-13,-1.11669e+00
8.18413e+02,6.77300e+03,1.05630e+04,-3.79000e+03,8.19824e-13,-1.10914e+00,5.69443e-13,-1.10914e+00,1.22967e-12,-1.10914e+00
8.18662e+02,6.27500e+03,8.07400e+03,-1.79900e+03,9.15486e-13,-1.10160e+00,4.74376e-13,-1.10160e+00,1.21422e-12,-1.10160e+00
8.18911e+02,1.01860e+04,5.67200e+03,4.51400e+03,5.96990e-13,-1.09405e+00,4.37763e-13,-1.09405e+00,5.31666e-13,-1.09405e+00
8.19160e+02,9.73000e+03,7.39600e+03,2.33400e+03,6.04221e-13,-1.08651e+00,5.92182e-13,-1.08651e+00,9.47755e-14,-1.08651e+00
8.19408e+02,5.96800e+03,9.67300e+03,-3.70500e+03,9.10253e-13,-1.07896e+00,1.20910e-12,-1.07896e+00,3.11345e-13,-1.07896e+00
8.19657e+02,6.39800e+03,8.12300e+03,-1.72500e+03,1.06309e-12,-1.07142e+00,1.29389e-12,-1.07142e+00,2.41608e-13,-1.07142e+00
8.19906e+02,1.11240e+04,6.05000e+03,5.07400e+03,7.11592e-13,-1.06387e+00,8.87671e-13,-1.06387e+00,1.91855e-13,-1.06387e+00
8.20155e+02,1.08760e+04,8.38700e+03,2.48900e+03,5.16686e-13,-1.05633e+00,3.49137e-13,-1.05633e+00,8.60990e-13,-1.05633e+00
8.20404e+02,6.58800e+03,1.00530e+04,-3.46500e+03,6.62686e-13,-1.04878e+00,1.06008e-12,-1.04878e+00,1.72178e-12,-1.04878e+00
8.20653e+02,6.47500e+03,6.65800e+03,-1.83000e+02,8.08631e-13,-1.04124e+00,9.90764e-13,-1.04124e+00,1.61734e-12,-1.04124e+00
8.20901e+02,8.85000e+03,4.71000e+03,4.14000e+03,9.18965e-13,-1.03369e+00,5.23409e-13,-1.03369e+00,1.17730e-12,-1.03369e+00
8.21150e+02,8.48000e+03,7.07900e+03,1.40100e+03,8.85878e-13,-1.02615e+00,4.28072e-13,-1.02615e+00,1.31380e-12,-1.02615e+00
8.21399e+02,5.23900e+03,8.13600e+03,-2.89700e+03,8.06796e-13,-1.01860e+00,8.42889e-13,-1.01860e+00,1.64024e-12,-1.01860e+00
8.21648e+02,6.12500e+03,6.17300e+03,-4.80000e+01,1.00027e-12,-1.01106e+00,1.26706e-12,-1.01106e+00,2.16659e-12,-1.01106e+00
8.21897e+02,8.57800e+03,4.54200e+03,4.03600e+03,1.37120e-12,-1.00351e+00,1.01641e-12,-1.00351e+00,1.65922e-12,-1.00351e+00
8.22145e+02,7.04500e+03,5.76100e+03,1.28400e+03,1.58793e-12,-9.95966e-01,1.10094e-12,-9.95966e-01,7.70164e-13,-9.95966e-01
8.22394e+02,4.70800e+03,7.32600e+03,-2.61800e+03,8.28245e-13,-9.88421e-01,9.23608e-13,-9.88421e-01,2.35921e-13,-9.88421e-01
8.22643e+02,5.76800e+03,5.76100e+03,7.00000e+00,2.37694e-13,-9.80876e-01,5.13864e-13,-9.80876e-01,6.16101e-13,-9.80876e-01
8.22892e+02,7.97900e+03,4.56900e+03,3.41000e+03,3.99356e-13,-9.73331e-01,6.18946e-13,-9.73331e-01,9.39874e-13,-9.73331e-01
8.23140e+02,6.86700e+03,6.64900e+03,2.18000e+02,5.37034e-13,-9.65785e-01,9.62116e-13,-9.65785e-01,1.38497e-12,-9.65785e-01
8.23389e+02,4.41600e+03,7.36900e+03,-2.95300e+03,5.97725e-13,-9.58240e-01,1.02808e-12,-9.58240e-01,9.34261e-13,-9.58240e-01
8.23638e+02,5.16200e+03,5.57800e+03,-4.16000e+02,8.90665e-13,-9.50695e-01,1.05443e-12,-9.50695e-01,1.27981e-12,-9.50695e-01
8.23887e+02,7.01800e+03,4.35400e+03,2.66400e+03,2.99132e-13,-9.43150e-01,1.15364e-12,-9.43150e-01,1.45228e-12,-9.43150e-01
8.24135e+02,5.82800e+03,6.11400e+03,-2.86000e+02,9.13988e-13,-9.35605e-01,1.18135e-12,-9.35605e-01,8.04403e-13,-9.35605e-01
8.24384e+02,4.06800e+03,6.70000e+03,-2.63200e+03,6.51307e-13,-9.28059e-01,1.16820e-12,-9.28059e-01,5.17001e-13,-9.28059e-01
8.24633e+02,5.40200e+03,4.52600e+03,8.76000e+02,5.72860e-13,-9.20514e-01,1.23398e-12,-9.20514e-01,1.15236e-12,-9.20514e-01
8.24881e+02,7.35200e+03,4.27600e+03,3.07600e+03,1.15658e-12,-9.12969e-01,1.28038e-12,-9.12969e-01,1.20448e-12,-9.12969e-01
8.25130e+02,5.86900e+03,6.19400e+03,-3.25000e+02,1.03821e-12,-9.05424e-01,9.95693e-13,-9.05424e-01,1.05492e-12,-9.05424e-01
8.25379e+02,3.94100e+03,6.98400e+03,-3.04300e+03,1.00315e-12,-8.97879e-01,8.89461e-13,-8.97879e-01,6.39131e-13,-8.97879e-01
8.25627e+02,4.65300e+03,4.34400e+03,3.09000e+02,9.00265e-13,-8.90333e-01,1.13175e-12,-8.90333e-01,5.69729e-13,-8.90333e-01
8.25876e+02,5.77000e+03,3.61700e+03,2.15300e+03,3.61834e-13,-8.82788e-01,1.17842e-12,-8.82788e-01,1.52884e-12,-8.82788e-01
8.26125e+02,4.74100e+03,5.05100e+03,-3.10000e+02,1.37023e-12,-8.75243e-01,9.46205e-13,-8.75243e-01,2.31640e-12,-8.75243e-01
8.26373e+02,3.06400e+03,4.75600e+03,-1.69200e+03,1.49913e-12,-8.67698e-01,8.11445e-13,-8.67698e-01,2.07638e-12,-8.67698e-01
8.26622e+02,3.25800e+03,3.23700e+03,2.10000e+01,1.12940e-12,-8.60153e-01,3.92675e-13,-8.60153e-01,1.18141e-12,-8.60153e-01
8.26870e+02,4.15600e+03,2.80800e+03,1.34800e+03,1.02141e-12,-8.52607e-01,3.12646e-13,-8.52607e-01,7.57925e-13,-8.52607e-01
8.27119e+02,3.36400e+03,3.93800e+03,-5.74000e+02,1.15091e-12,-8.45062e-01,8.67036e-13,-8.45062e-01,2.89332e-13,-8.45062e-01
8.27368e+02,2.58700e+03,4.34200e+03,-1.75500e+03,1.72743e-12,-8.37517e-01,1.79877e-12,-8.37517e-01,7.12278e-13,-8.37517e-01
8.27616e+02,3.07400e+03,3.02500e+03,4.90000e+01,1.46255e-12,-8.29972e-01,2.27737e-12,-8.29972e-01,1.18388e-12,-8.29972e-01
8.27865e+02,3.79900e+03,2.70300e+03,1.09600e+03,1.79905e-13,-8.22427e-01,2.02589e-12,-8.22427e-01,2.06353e-12,-8.22427e-01
8.28113e+02,3.59100e+03,4.18900e+03,-5.98000e+02,1.43847e-12,-8.14881e-01,1.72988e-12,-8.14881e-01,3.14775e-12,-8.14881e-01
8.28362e+02,2.51700e+03,4.46200e+03,-1.94500e+03,1.63348e-12,-8.07336e-01,1.91019e-12,-8.07336e-01,3.43640e-12,-8.07336e-01
8.28610e+02,3.24000e+03,2.86700e+03,3.73000e+02,1.14053e-12,-7.99791e-01,1.37216e-12,-7.99791e-01,2.37273e-12,-7.99791e-01
8.28859e+02,3.94800e+03,2.33000e+03,1.61800e+03,1.43630e-12,-7.92246e-01,1.12020e-12,-7.92246e-01,1.91028e-12,-7.92246e-01
8.29108e+02,2.81200e+03,3.31300e+03,-5.01000e+02,1.77276e-12,-7.84701e-01,4.30324e-13,-7.84701e-01,2.19092e-12,-7.84701e-01
8.29356e+02,1.91200e+03,3.60300e+03,-1.69100e+03,1.93071e-12,-7.77155e-01,8.34724e-13,-7.77155e-01,2.45125e-12,-7.77155e-01
8.29605e+02,2.30100e+03,2.40900e+03,-1.08000e+02,2.53571e-12,-7.69610e-01,6.06894e-13,-7.69610e-01,3.13797e-12,-7.69610e-01
8.29853e+02,2.81700e+03,2.02000e+03,7.97000e+02,2.57009e-12,-7.62065e-01,7.32896e-13,-7.62065e-01,3.12743e-12,-7.62065e-01
8.30101e+02,2.31400e+03,2.80900e+03,-4.95000e+02,1.04119e-12,-7.54520e-01,1.14487e-12,-7.54520e-01,8.08141e-13,-7.54520e-01
8.30350e+02,1.82000e+03,3.12500e+03,-1.30500e+03,3.33042e-13,-7.46975e-01,2.00082e-12,-7.46975e-01,1.70667e-12,-7.46975e-01
8.30598e+02,2.03100e+03,2.06100e+03,-3.00000e+01,1.54301e-12,-7.39429e-01,1.85875e-12,-7.39429e-01,3.39345e-12,-7.39429e-01
8.30847e+02,2.66700e+03,1.88000e+03,7.87000e+02,5.61024e-12,-7.31884e-01,5.44487e-12,-7.31884e-01,9.91417e-12,-7.31884e-01
8.31095e+02,2.44900e+03,2.69500e+03,-2.46000e+02,9.24262e-12,-7.24339e-01,7.87390e-12,-7.24339e-01,1.53583e-11,-7.24339e-01
8.31344e+02,1.69500e+03,2.63200e+03,-9.37000e+02,1.20095e-11,-7.16794e-01,1.15812e-11,-7.16794e-01,2.20939e-11,-7.16794e-01
8.31592e+02,2.04000e+03,1.78400e+03,2.56000e+02,1.90151e-11,-7.09249e-01,1.98656e-11,-7.09249e-01,3.52431e-11,-7.09249e-01
8.31841e+02,2.36400e+03,1.49600e+03,8.68000e+02,2.86578e-11,-7.01703e-01,2.69808e-11,-7.01703e-01,5.01661e-11,-7.01703e-01
8.32089e+02,1.95000e+03,2.21200e+03,-2.62000e+02,3.36991e-11,-6.94158e-01,3.14940e-11,-6.94158e-01,5.98595e-11,-6.94158e-01
8.32337e+02,1.39600e+03,2.43300e+03,-1.03700e+03,3.42891e-11,-6.86613e-01,3.38387e-11,-6.86613e-01,6.33193e-11,-6.86613e-01
8.32586e+02,1.56700e+03,1.55000e+03,1.70000e+01,3.17198e-11,-6.79068e-01,3.27713e-11,-6.79068e-01,6.04992e-11,-6.79068e-01
8.32834e+02,2.12900e+03,1.34500e+03,7.84000e+02,2.53850e-11,-6.71523e-01,2.67007e-11,-6.71523e-01,4.93072e-11,-6.71523e-01
8.33083e+02,1.68900e+03,1.62500e+03,6.40000e+01,1.69085e-11,-6.63977e-01,1.69357e-11,-6.63977e-01,3.24498e-11,-6.63977e-01
8.33331e+02,1.20800e+03,1.79900e+03,-5.91000e+02,1.00400e-11,-6.56432e-01,7.99564e-12,-6.56432e-01,1.74206e-11,-6.56432e-01
8.33579e+02,1.34600e+03,1.30300e+03,4.30000e+01,6.57574e-12,-6.48887e-01,4.51552e-12,-6.48887e-01,9.47788e-12,-6.48887e-01
8.33828e+02,1.73200e+03,1.14200e+03,5.90000e+02,3.97353e-12,-6.41342e-01,3.48246e-12,-6.41342e-01,5.57377e-12,-6.41342e-01
8.34076e+02,1.31000e+03,1.32300e+03,-1.30000e+01,1.17019e-12,-6.33797e-01,1.98835e-12,-6.33797e-01,1.04547e-12,-6.33797e-01
8.34324e+02,1.02000e+03,1.51200e+03,-4.92000e+02,5.09868e-13,-6.26251e-01,8.10383e-13,-6.26251e-01,1.31330e-12,-6.26251e-01
8.34573e+02,1.08800e+03,1.20600e+03,-1.18000e+02,2.09543e-12,-6.18706e-01,9.15511e-13,-6.18706e-01,1.23369e-12,-6.18706e-01
8.34821e+02,1.43900e+03,9.62000e+02,4.77000e+02,3.87433e-12,-6.11161e-01,2.07043e-13,-6.11161e-01,3.87113e-12,-6.11161e-01
8.35069e+02,1.18100e+03,1.16200e+03,1.90000e+01,3.96197e-12,-6.03616e-01,7.28173e-13,-6.03616e-01,3.38363e-12,-6.03616e-01
8.35318e+02,9.86000e+02,1.49500e+03,-5.09000e+02,3.64477e-12,-5.96071e-01,2.09209e-12,-5.96071e-01,2.12459e-12,-5.96071e-01
8.35566e+02,9.06000e+02,1.07200e+03,-1.66000e+02,3.69304e-12,-5.88525e-01,2.94644e-12,-5.88525e-01,2.85982e-12,-5.88525e-01
8.35814e+02,1.22800e+03,8.69000e+02,3.59000e+02,3.29745e-12,-5.80980e-01,2.83887e-12,-5.80980e-01,3.37462e-12,-5.80980e-01
8.36062e+02,1.08800e+03,9.29000e+02,1.59000e+02,2.02852e-12,-5.73435e-01,1.98771e-12,-5.73435e-01,2.43590e-12,-5.73435e-01
8.36311e+02,8.33000e+02,1.09300e+03,-2.60000e+02,1.21931e-12,-5.65890e-01,1.37489e-12,-5.65890e-01,2.31130e-12,-5.65890e-01
8.36559e+02,7.88000e+02,9.62000e+02,-1.74000e+02,1.26854e-12,-5.58345e-01,1.32600e-12,-5.58345e-01,2.56707e-12,-5.58345e-01
8.36807e+02,1.09300e+03,8.05000e+02,2.88000e+02,1.20774e-12,-5.50799e-01,1.59277e-12,-5.50799e-01,2.79330e-12,-5.50799e-01
8.37055e+02,1.00800e+03,8.25000e+02,1.83000e+02,2.07469e-12,-5.43254e-01,1.37934e-12,-5.43254e-01,3.12529e-12,-5.43254e-01
8.37304e+02,7.75000e+02,1.00900e+03,-2.34000e+02,2.91734e-12,-5.35709e-01,2.18387e-12,-5.35709e-01,1.91488e-12,-5.35709e-01
8.37552e+02,7.26000e+02,8.37000e+02,-1.11000e+02,3.24488e-12,-5.28164e-01,2.48319e-12,-5.28164e-01,7.70745e-13,-5.28164e-01
8.37800e+02,8.57000e+02,7.56000e+02,1.01000e+02,2.28393e-12,-5.20619e-01,1.73840e-12,-5.20619e-01,9.77812e-13,-5.20619e-01
8.38048e+02,7.53000e+02,7.16000e+02,3.70000e+01,1.23262e-12,-5.13073e-01,8.38468e-13,-5.13073e-01,3.94369e-13,-5.13073e-01
8.38296e+02,6.94000e+02,8.34000e+02,-1.40000e+02,6.73668e-13,-5.05528e-01,1.80266e-12,-5.05528e-01,1.31331e-12,-5.05528e-01
8.38545e+02,6.90000e+02,7.72000e+02,-8.20000e+01,4.40868e-13,-4.97983e-01,2.54633e-12,-4.97983e-01,2.39121e-12,-4.97983e-01
8.38793e+02,7.73000e+02,7.02000e+02,7.10000e+01,9.69775e-13,-4.90438e-01,9.01628e-13,-4.90438e-01,1.84657e-12,-4.90438e-01
8.39041e+02,7.37000e+02,6.89000e+02,4.80000e+01,2.49052e-12,-4.82893e-01,2.45613e-12,-4.82893e-01,1.43258e-13,-4.82893e-01
8.39289e+02,6.85000e+02,7.45000e+02,-6.00000e+01,4.55072e-12,-4.75347e-01,4.20064e-12,-4.75347e-01,2.07109e-12,-4.75347e-01
8.39537e+02,6.79000e+02,7.32000e+02,-5.30000e+01,5.05168e-12,-4.67802e-01,3.68112e-12,-4.67802e-01,1.87100e-12,-4.67802e-01
8.39785e+02,7.10000e+02,6.88000e+02,2.20000e+01,4.74378e-12,-4.60257e-01,2.83378e-12,-4.60257e-01,2.11640e-12,-4.60257e-01
8.40033e+02,7.13000e+02,6.62000e+02,5.10000e+01,3.63854e-12,-4.52712e-01,2.73601e-12,-4.52712e-01,1.49136e-12,-4.52712e-01
8.40281e+02,7.09000e+02,7.55000e+02,-4.60000e+01,1.58115e-12,-4.45167e-01,2.70677e-12,-4.45167e-01,1.17857e-12,-4.45167e-01
8.40530e+02,6.47000e+02,6.98000e+02,-5.10000e+01,6.30844e-13,-4.37621e-01,1.72787e-12,-4.37621e-01,2.35161e-12,-4.37621e-01
8.40778e+02,6.84000e+02,6.74000e+02,1.00000e+01,1.49394e-12,-4.30076e-01,1.78683e-12,-4.30076e-01,2.03139e-12,-4.30076e-01
8.41026e+02,6.78000e+02,6.45000e+02,3.30000e+01,2.18788e-12,-4.22531e-01,2.21322e-12,-4.22531e-01,1.62536e-12,-4.22531e-01
8.41274e+02,6.63000e+02,6.60000e+02,3.00000e+00,3.42127e-12,-4.14986e-01,2.82590e-12,-4.14986e-01,1.60928e-12,-4.14986e-01
8.41522e+02,6.44000e+02,6.51000e+02,-7.00000e+00,3.18924e-12,-4.07441e-01,2.28562e-12,-4.07441e-01,1.31407e-12,-4.07441e-01
8.41770e+02,6.38000e+02,6.61000e+02,-2.30000e+01,2.31844e-12,-3.99895e-01,1.92510e-12,-3.99895e-01,3.97451e-13,-3.99895e-01
8.42018e+02,6.61000e+02,6.49000e+02,1.20000e+01,2.11661e-12,-3.92350e-01,3.26392e-12,-3.92350e-01,1.60555e-12,-3.92350e-01
8.42266e+02,6.52000e+02,6.58000e+02,-6.00000e+00,2.27733e-12,-3.84805e-01,4.00897e-12,-3.84805e-01,3.24863e-12,-3.84805e-01
8.42514e+02,6.28000e+02,6.52000e+02,-2.40000e+01,1.04777e-12,-3.77260e-01,2.46758e-12,-3.77260e-01,3.17043e-12,-3.77260e-01
8.42762e+02,6.71000e+02,6.77000e+02,-6.00000e+00,2.46519e-12,-3.69715e-01,1.99328e-12,-3.69715e-01,2.59890e-12,-3.69715e-01
8.43010e+02,6.32000e+02,6.36000e+02,-4.00000e+00,3.93569e-12,-3.62169e-01,2.70690e-12,-3.62169e-01,2.77571e-12,-3.62169e-01
8.43258e+02,6.41000e+02,6.33000e+02,8.00000e+00,2.90764e-12,-3.54624e-01,2.36710e-12,-3.54624e-01,2.52850e-12,-3.54624e-01
8.43506e+02,6.41000e+02,6.39000e+02,2.00000e+00,1.19987e-12,-3.47079e-01,1.46463e-12,-3.47079e-01,8.11946e-13,-3.47079e-01
8.43754e+02,6.35000e+02,6.37000e+02,-2.00000e+00,1.45361e-12,-3.39534e-01,9.16410e-13,-3.39534e-01,1.88571e-12,-3.39534e-01
8.44002e+02,6.41000e+02,6.37000e+02,4.00000e+00,1.75212e-12,-3.31989e-01,3.37290e-12,-3.31989e-01,4.38492e-12,-3.31989e-01
8.44250e+02,6.41000e+02,6.31000e+02,1.00000e+01,1.87463e-12,-3.24444e-01,5.47696e-12,-3.24444e-01,5.45508e-12,-3.24444e-01
8.44498e+02,6.31000e+02,6.41000e+02,-1.00000e+01,2.86278e-12,-3.16898e-01,5.58388e-12,-3.16898e-01,3.35825e-12,-3.16898e-01
8.44746e+02,6.56000e+02,6.42000e+02,1.40000e+01,3.31019e-12,-3.09353e-01,4.23097e-12,-3.09353e-01,9.36508e-13,-3.09353e-01
8.44994e+02,6.45000e+02,6.39000e+02,6.00000e+00,1.13257e-12,-3.01808e-01,1.75777e-12,-3.01808e-01,1.19217e-12,-3.01808e-01
8.45242e+02,6.66000e+02,6.68000e+02,-2.00000e+00,2.06065e-12,-2.94263e-01,1.99984e-12,-2.94263e-01,1.85841e-12,-2.94263e-01
8.45490e+02,6.19000e+02,6.22000e+02,-3.00000e+00,3.01296e-12,-2.86718e-01,4.30009e-12,-2.86718e-01,3.25629e-12,-2.86718e-01
8.45738e+02,6.28000e+02,6.46000e+02,-1.80000e+01,2.64776e-12,-2.79172e-01,4.12014e-12,-2.79172e-01,2.57539e-12,-2.79172e-01
8.45985e+02,6.30000e+02,6.32000e+02,-2.00000e+00,1.60397e-12,-2.71627e-01,2.77403e-12,-2.71627e-01,1.22992e-12,-2.71627e-01
8.46233e+02,6.26000e+02,6.38000e+02,-1.20000e+01,1.72504e-12,-2.64082e-01,2.65546e-12,-2.64082e-01,2.13955e-12,-2.64082e-01
8.46481e+02,6.32000e+02,6.22000e+02,1.00000e+01,2.29886e-12,-2.56537e-01,1.61380e-12,-2.56537e-01,2.44981e-12,-2.56537e-01
8.46729e+02,6.29000e+02,6.30000e+02,-1.00000e+00,2.48624e-12,-2.48992e-01,6.55677e-13,-2.48992e-01,3.10255e-12,-2.48992e-01
8.46977e+02,6.22000e+02,6.33000e+02,-1.10000e+01,1.95338e-12,-2.41446e-01,1.77529e-12,-2.41446e-01,3.46887e-12,-2.41446e-01
8.47225e+02,6.24000e+02,6.31000e+02,-7.00000e+00,7.10289e-13,-2.33901e-01,3.44378e-12,-2.33901e-01,3.11399e-12,-2.33901e-01
8.47473e+02,6.33000e+02,6.48000e+02,-1.50000e+01,1.85667e-12,-2.26356e-01,2.37258e-12,-2.26356e-01,2.94448e-12,-2.26356e-01
8.47720e+02,6.73000e+02,6.59000e+02,1.40000e+01,3.15741e-12,-2.18811e-01,1.45381e-12,-2.18811e-01,1.89002e-12,-2.18811e-01
8.47968e+02,6.26000e+02,6.29000e+02,-3.00000e+00,5.05319e-12,-2.11266e-01,3.76818e-12,-2.11266e-01,1.37372e-12,-2.11266e-01
8.48216e+02,6.27000e+02,6.40000e+02,-1.30000e+01,3.83520e-12,-2.03720e-01,2.56064e-12,-2.03720e-01,1.28976e-12,-2.03720e-01
8.48464e+02,6.31000e+02,6.27000e+02,4.00000e+00,2.30433e-12,-1.96175e-01,1.78441e-12,-1.96175e-01,1.19467e-12,-1.96175e-01
8.48712e+02,6.22000e+02,6.25000e+02,-3.00000e+00,1.95813e-12,-1.88630e-01,2.55860e-12,-1.88630e-01,2.91691e-12,-1.88630e-01
8.48960e+02,6.24000e+02,6.33000e+02,-9.00000e+00,1.95647e-12,-1.81085e-01,4.80428e-12,-1.81085e-01,4.86057e-12,-1.81085e-01
8.49207e+02,6.26000e+02,6.22000e+02,4.00000e+00,2.78222e-12,-1.73540e-01,7.31635e-12,-1.73540e-01,4.54556e-12,-1.73540e-01
8.49455e+02,6.43000e+02,6.30000e+02,1.30000e+01,3.70015e-12,-1.65994e-01,5.89616e-12,-1.65994e-01,3.23792e-12,-1.65994e-01
8.49703e+02,6.27000e+02,6.41000e+02,-1.40000e+01,2.40141e-12,-1.58449e-01,1.65742e-12,-1.58449e-01,3.38344e-12,-1.58449e-01
8.49951e+02,6.30000e+02,6.27000e+02,3.00000e+00,3.86631e-12,-1.50904e-01,2.31769e-12,-1.50904e-01,3.47192e-12,-1.50904e-01
8.50198e+02,6.60000e+02,6.57000e+02,3.00000e+00,3.81511e-12,-1.43359e-01,3.76292e-12,-1.43359e-01,3.18155e-12,-1.43359e-01
8.50446e+02,5.99000e+02,6.31000e+02,-3.20000e+01,4.38652e-12,-1.35814e-01,5.36748e-12,-1.35814e-01,2.02903e-12,-1.35814e-01
8.50694e+02,6.31000e+02,6.26000e+02,5.00000e+00,3.71519e-12,-1.28268e-01,2.91125e-12,-1.28268e-01,8.97791e-13,-1.28268e-01
8.50941e+02,6.41000e+02,6.33000e+02,8.00000e+00,2.60304e-12,-1.20723e-01,1.85693e-12,-1.20723e-01,4.09476e-12,-1.20723e-01
8.51189e+02,6.31000e+02,6.18000e+02,1.30000e+01,3.16073e-12,-1.13178e-01,3.27424e-12,-1.13178e-01,5.06324e-12,-1.13178e-01
8.51437e+02,6.41000e+02,6.33000e+02,8.00000e+00,5.16438e-12,-1.05633e-01,1.07654e-12,-1.05633e-01,4.09412e-12,-1.05633e-01
8.51685e+02,6.41000e+02,6.33000e+02,8.00000e+00,6.96858e-12,-9.80876e-02,3.75462e-12,-9.80876e-02,3.28597e-12,-9.80876e-02
8.51932e+02,6.32000e+02,6.31000e+02,1.00000e+00,5.23128e-12,-9.05424e-02,3.09532e-12,-9.05424e-02,2.13674e-12,-9.05424e-02
8.52180e+02,6.28000e+02,6.21000e+02,7.00000e+00,2.49750e-12,-8.29972e-02,2.26499e-12,-8.29972e-02,7.19762e-13,-8.29972e-02
8.52428e+02,6.34000e+02,6.14000e+02,2.00000e+01,2.40470e-12,-7.54520e-02,2.83383e-12,-7.54520e-02,1.00824e-12,-7.54520e-02
8.52675e+02,6.53000e+02,6.58000e+02,-5.00000e+00,5.07056e-12,-6.79068e-02,4.82626e-12,-6.79068e-02,1.00235e-12,-6.79068e-02
8.52923e+02,6.09000e+02,6.08000e+02,1.00000e+00,4.87928e-12,-6.03616e-02,5.36322e-12,-6.03616e-02,1.27368e-12,-6.03616e-02
8.53170e+02,6.34000e+02,6.12000e+02,2.20000e+01,3.83500e-12,-5.28164e-02,6.58266e-12,-5.28164e-02,2.76984e-12,-5.28164e-02
8.53418e+02,6.23000e+02,6.28000e+02,-5.00000e+00,2.31499e-12,-4.52712e-02,6.14992e-12,-4.52712e-02,4.72868e-12,-4.52712e-02
8.53666e+02,6.26000e+02,6.30000e+02,-4.00000e+00,2.19708e-12,-3.77260e-02,4.01645e-12,-3.77260e-02,4.34301e-12,-3.77260e-02
8.53913e+02,6.14000e+02,6.29000e+02,-1.50000e+01,5.66760e-12,-3.01808e-02,4.77834e-12,-3.01808e-02,4.92754e-12,-3.01808e-02
8.54161e+02,6.40000e+02,6.31000e+02,9.00000e+00,2.35696e-11,-2.26356e-02,2.00501e-11,-2.26356e-02,5.55495e-12,-2.26356e-02
8.54409e+02,6.23000e+02,6.21000e+02,2.00000e+00,8.99076e-11,-1.50904e-02,8.64354e-11,-1.50904e-02,4.02505e-12,-1.50904e-02
8.54656e+02,6.33000e+02,6.36000e+02,-3.00000e+00,2.44868e-10,-7.54520e-03,2.38588e-10,-7.54520e-03,6.28456e-12,-7.54520e-03
