7.67698e+02,6.48000e+02,6.22000e+02,2.60000e+01,3.95244e-10,0.00000e+00,3.90730e-10,0.00000e+00,4.51391e-12,0.00000e+00
7.67949e+02,6.60000e+02,6.55000e+02,5.00000e+00,2.36501e-10,7.54520e-03,2.33146e-10,7.54520e-03,8.03647e-12,7.54520e-03
7.68199e+02,6.15000e+02,6.10000e+02,5.00000e+00,8.35442e-11,1.50904e-02,8.41963e-11,1.50904e-02,6.81770e-12,1.50904e-02
7.68450e+02,6.30000e+02,6.45000e+02,-1.50000e+01,1.82698e-11,2.26356e-02,1.94024e-11,2.26356e-02,1.44120e-12,2.26356e-02
7.68701e+02,6.32000e+02,6.31000e+02,1.00000e+00,4.18609e-12,3.01808e-02,9.96936e-13,3.01808e-02,3.77345e-12,3.01808e-02
7.68951e+02,6.47000e+02,6.25000e+02,2.20000e+01,3.25335e-12,3.77260e-02,4.54791e-13,3.77260e-02,3.23537e-12,3.77260e-02
7.69202e+02,6.45000e+02,6.28000e+02,1.70000e+01,5.65621e-12,4.52712e-02,4.78817e-12,4.52712e-02,2.06923e-12,4.52712e-02
7.69453e+02,6.52000e+02,6.34000e+02,1.80000e+01,8.90084e-12,5.28164e-02,8.52581e-12,5.28164e-02,4.95842e-12,5.28164e-02
7.69703e+02,6.28000e+02,6.54000e+02,-2.60000e+01,9.67566e-12,6.03616e-02,7.06430e-12,6.03616e-02,5.21962e-12,6.03616e-02
7.69954e+02,6.35000e+02,6.48000e+02,-1.30000e+01,7.54433e-12,6.79068e-02,3.44260e-12,6.79068e-02,4.10995e-12,6.79068e-02
7.70205e+02,6.37000e+02,6.29000e+02,8.00000e+00,2.36823e-12,7.54520e-02,2.03130e-12,7.54520e-02,3.03022e-12,7.54520e-02
7.70455e+02,6.83000e+02,6.56000e+02,2.70000e+01,7.44463e-13,8.29972e-02,1.92804e-12,8.29972e-02,2.56442e-12,8.29972e-02
7.70706e+02,6.40000e+02,6.12000e+02,2.80000e+01,2.50122e-12,9.05424e-02,1.76573e-12,9.05424e-02,1.55383e-12,9.05424e-02
7.70957e+02,6.45000e+02,6.43000e+02,2.00000e+00,4.20048e-12,9.80876e-02,2.71655e-12,9.80876e-02,1.62768e-12,9.80876e-02
7.71207e+02,6.40000e+02,6.49000e+02,-9.00000e+00,3.88637e-12,1.05633e-01,1.54719e-12,1.05633e-01,2.57698e-12,1.05633e-01
7.71458e+02,6.44000e+02,6.64000e+02,-2.00000e+01,8.73750e-13,1.13178e-01,3.44028e-12,1.13178e-01,3.29142e-12,1.13178e-01
7.71708e+02,6.24000e+02,6.45000e+02,-2.10000e+01,3.37993e-13,1.20723e-01,4.27398e-12,1.20723e-01,4.43582e-12,1.20723e-01
7.71959e+02,6.71000e+02,6.42000e+02,2.90000e+01,1.25931e-12,1.28268e-01,3.73280e-12,1.28268e-01,3.33852e-12,1.28268e-01
7.72210e+02,6.84000e+02,6.37000e+02,4.70000e+01,2.37544e-12,1.35814e-01,3.19112e-12,1.35814e-01,8.65809e-13,1.35814e-01
7.72460e+02,6.99000e+02,6.40000e+02,5.90000e+01,3.22940e-12,1.43359e-01,4.90874e-12,1.43359e-01,1.99652e-12,1.43359e-01
7.72711e+02,6.54000e+02,6.73000e+02,-1.90000e+01,3.91183e-12,1.50904e-01,7.69151e-12,1.50904e-01,3.95923e-12,1.50904e-01
7.72961e+02,6.62000e+02,7.51000e+02,-8.90000e+01,1.91823e-12,1.58449e-01,5.75107e-12,1.58449e-01,4.91555e-12,1.58449e-01
7.73212e+02,6.25000e+02,6.70000e+02,-4.50000e+01,5.70893e-12,1.65994e-01,3.22453e-12,1.65994e-01,5.38667e-12,1.65994e-01
7.73462e+02,6.50000e+02,6.82000e+02,-3.20000e+01,6.26822e-12,1.73540e-01,3.36490e-12,1.73540e-01,4.64161e-12,1.73540e-01
7.73713e+02,6.69000e+02,6.47000e+02,2.20000e+01,3.01215e-12,1.81085e-01,2.32149e-12,1.81085e-01,2.27789e-12,1.81085e-01
7.73963e+02,7.09000e+02,6.30000e+02,7.90000e+01,1.42118e-12,1.88630e-01,2.34746e-12,1.88630e-01,2.91032e-12,1.88630e-01
7.74214e+02,7.13000e+02,6.65000e+02,4.80000e+01,1.03324e-12,1.96175e-01,2.41260e-12,1.96175e-01,2.96386e-12,1.96175e-01
7.74465e+02,7.06000e+02,7.22000e+02,-1.60000e+01,1.02129e-12,2.03720e-01,2.79436e-12,2.03720e-01,2.06249e-12,2.03720e-01
7.74715e+02,6.52000e+02,7.49000e+02,-9.70000e+01,3.22027e-12,2.11266e-01,1.46789e-12,2.11266e-01,1.75879e-12,2.11266e-01
7.74965e+02,6.60000e+02,7.78000e+02,-1.18000e+02,3.42377e-12,2.18811e-01,2.48761e-12,2.18811e-01,5.81603e-12,2.18811e-01
7.75216e+02,6.81000e+02,6.79000e+02,2.00000e+00,2.19464e-12,2.26356e-01,4.00255e-12,2.26356e-01,6.05657e-12,2.26356e-01
7.75466e+02,7.89000e+02,6.79000e+02,1.10000e+02,3.79766e-12,2.33901e-01,2.82052e-12,2.33901e-01,3.28691e-12,2.33901e-01
7.75717e+02,7.52000e+02,6.17000e+02,1.35000e+02,5.29228e-12,2.41446e-01,3.09654e-12,2.41446e-01,2.19723e-12,2.41446e-01
7.75967e+02,7.71000e+02,7.00000e+02,7.10000e+01,4.76062e-12,2.48992e-01,2.35864e-12,2.48992e-01,2.58266e-12,2.48992e-01
7.76218e+02,6.84000e+02,7.61000e+02,-7.70000e+01,2.37799e-12,2.56537e-01,9.88991e-13,2.56537e-01,2.42147e-12,2.56537e-01
7.76468e+02,6.53000e+02,8.56000e+02,-2.03000e+02,1.55464e-12,2.64082e-01,1.07085e-12,2.64082e-01,2.61969e-12,2.64082e-01
7.76719e+02,6.62000e+02,7.69000e+02,-1.07000e+02,3.11723e-12,2.71627e-01,1.06511e-12,2.71627e-01,3.29724e-12,2.71627e-01
7.76969e+02,7.16000e+02,6.88000e+02,2.80000e+01,4.26975e-12,2.79172e-01,2.01979e-12,2.79172e-01,4.92567e-12,2.79172e-01
7.77219e+02,8.10000e+02,6.57000e+02,1.53000e+02,4.11126e-12,2.86718e-01,3.14345e-12,2.86718e-01,6.27780e-12,2.86718e-01
7.77470e+02,9.39000e+02,7.01000e+02,2.38000e+02,2.72453e-12,2.94263e-01,3.09992e-12,2.94263e-01,5.50303e-12,2.94263e-01
7.77720e+02,8.38000e+02,7.97000e+02,4.10000e+01,2.66695e-12,3.01808e-01,8.20809e-13,3.01808e-01,3.37140e-12,3.01808e-01
7.77971e+02,7.60000e+02,1.03100e+03,-2.71000e+02,4.15560e-12,3.09353e-01,1.96275e-12,3.09353e-01,2.23739e-12,3.09353e-01
7.78221e+02,6.55000e+02,1.01100e+03,-3.56000e+02,4.87253e-12,3.16898e-01,1.99897e-12,3.16898e-01,3.04972e-12,3.16898e-01
7.78471e+02,7.17000e+02,9.24000e+02,-2.07000e+02,2.80369e-12,3.24444e-01,3.71461e-12,3.24444e-01,2.86079e-12,3.24444e-01
7.78722e+02,8.07000e+02,7.37000e+02,7.00000e+01,1.98889e-12,3.31989e-01,6.40594e-12,3.31989e-01,8.06843e-12,3.31989e-01
7.78972e+02,1.11700e+03,6.96000e+02,4.21000e+02,2.83263e-12,3.39534e-01,5.27310e-12,3.39534e-01,6.17839e-12,3.39534e-01
7.79222e+02,1.21100e+03,7.63000e+02,4.48000e+02,1.86604e-11,3.47079e-01,2.04847e-11,3.47079e-01,3.81602e-11,3.47079e-01
7.79473e+02,1.09400e+03,1.05100e+03,4.30000e+01,3.99663e-11,3.54624e-01,4.45207e-11,3.54624e-01,8.28089e-11,3.54624e-01
7.79723e+02,7.90000e+02,1.25200e+03,-4.62000e+02,6.50691e-11,3.62169e-01,6.67126e-11,3.62169e-01,1.28918e-10,3.62169e-01
7.79973e+02,7.27000e+02,1.31100e+03,-5.84000e+02,8.18910e-11,3.69715e-01,7.88557e-11,3.69715e-01,1.57598e-10,3.69715e-01
7.80224e+02,8.11000e+02,1.00500e+03,-1.94000e+02,6.68878e-11,3.77260e-01,6.34693e-11,3.77260e-01,1.27808e-10,3.77260e-01
7.80474e+02,1.21300e+03,8.73000e+02,3.40000e+02,3.22104e-11,3.84805e-01,3.03913e-11,3.84805e-01,6.16978e-11,3.84805e-01
7.80724e+02,1.30600e+03,7.10000e+02,5.96000e+02,1.28702e-11,3.92350e-01,9.83736e-12,3.92350e-01,2.25766e-11,3.92350e-01
7.80974e+02,1.40100e+03,9.90000e+02,4.11000e+02,8.01286e-12,3.99895e-01,4.65001e-12,3.99895e-01,1.25946e-11,3.99895e-01
7.81225e+02,1.12900e+03,1.35600e+03,-2.27000e+02,3.56322e-12,4.07441e-01,1.75906e-12,4.07441e-01,5.32130e-12,4.07441e-01
7.81475e+02,9.04000e+02,1.79300e+03,-8.89000e+02,2.25472e-12,4.14986e-01,3.38742e-12,4.14986e-01,4.80114e-12,4.14986e-01
7.81725e+02,8.01000e+02,1.60700e+03,-8.06000e+02,1.57630e-12,4.22531e-01,5.11667e-12,4.22531e-01,6.01345e-12,4.22531e-01
7.81975e+02,1.11300e+03,1.28500e+03,-1.72000e+02,8.23401e-13,4.30076e-01,3.62380e-12,4.30076e-01,3.97021e-12,4.30076e-01
7.82226e+02,1.51200e+03,8.49000e+02,6.63000e+02,1.33995e-12,4.37621e-01,9.36070e-13,4.37621e-01,1.59161e-12,4.37621e-01
7.82476e+02,1.77900e+03,8.52000e+02,9.27000e+02,2.85213e-12,4.45167e-01,2.61177e-12,4.45167e-01,2.15347e-12,4.45167e-01
7.82726e+02,1.65400e+03,1.20100e+03,4.53000e+02,2.91148e-12,4.52712e-01,3.09524e-12,4.52712e-01,2.99658e-12,4.52712e-01
7.82976e+02,1.25600e+03,1.73100e+03,-4.75000e+02,2.03253e-12,4.60257e-01,1.86952e-12,4.60257e-01,1.60064e-12,4.60257e-01
7.83226e+02,8.18000e+02,1.82500e+03,-1.00700e+03,1.98571e-12,4.67802e-01,2.13857e-12,4.67802e-01,1.09287e-12,4.67802e-01
7.83477e+02,9.72000e+02,1.73300e+03,-7.61000e+02,3.26378e-12,4.75347e-01,3.29317e-12,4.75347e-01,2.68868e-12,4.75347e-01
7.83727e+02,1.40700e+03,1.18300e+03,2.24000e+02,4.14592e-12,4.82893e-01,3.49335e-12,4.82893e-01,4.67023e-12,4.82893e-01
7.83977e+02,1.95800e+03,9.57000e+02,1.00100e+03,3.48770e-12,4.90438e-01,2.53720e-12,4.90438e-01,4.94070e-12,4.90438e-01
7.84227e+02,2.26200e+03,1.03200e+03,1.23000e+03,1.76095e-12,4.97983e-01,1.81022e-12,4.97983e-01,3.40451e-12,4.97983e-01
7.84477e+02,2.20700e+03,1.80500e+03,4.02000e+02,1.98043e-12,5.05528e-01,2.75671e-12,5.05528e-01,4.50419e-12,5.05528e-01
7.84727e+02,1.51000e+03,2.28200e+03,-7.72000e+02,1.88305e-12,5.13073e-01,3.32782e-12,5.13073e-01,4.44124e-12,5.13073e-01
7.84978e+02,1.11600e+03,2.67400e+03,-1.55800e+03,2.77456e-12,5.20619e-01,2.96031e-12,5.20619e-01,4.16300e-12,5.20619e-01
7.85228e+02,1.23700e+03,2.41000e+03,-1.17300e+03,2.23532e-12,5.28164e-01,2.62844e-12,5.28164e-01,3.19385e-12,5.28164e-01
7.85478e+02,2.10300e+03,1.67700e+03,4.26000e+02,2.11499e-12,5.35709e-01,1.28869e-12,5.35709e-01,1.22779e-12,5.35709e-01
7.85728e+02,2.80800e+03,1.11800e+03,1.69000e+03,2.12984e-12,5.43254e-01,5.60441e-13,5.43254e-01,2.41175e-12,5.43254e-01
7.85978e+02,3.03500e+03,1.39700e+03,1.63800e+03,1.27436e-12,5.50799e-01,1.31117e-12,5.50799e-01,2.42508e-12,5.50799e-01
7.86228e+02,2.35300e+03,2.08100e+03,2.72000e+02,6.98697e-13,5.58345e-01,9.72510e-13,5.58345e-01,1.33324e-12,5.58345e-01
7.86478e+02,1.50000e+03,2.86500e+03,-1.36500e+03,1.87084e-12,5.65890e-01,9.37663e-13,5.65890e-01,1.51024e-12,5.65890e-01
7.86728e+02,1.10600e+03,2.98200e+03,-1.87600e+03,2.89548e-12,5.73435e-01,1.21409e-12,5.73435e-01,2.26666e-12,5.73435e-01
7.86978e+02,1.43400e+03,2.44600e+03,-1.01200e+03,2.92293e-12,5.80980e-01,1.90659e-12,5.80980e-01,1.99321e-12,5.80980e-01
7.87228e+02,2.22700e+03,1.62700e+03,6.00000e+02,2.61917e-12,5.88525e-01,2.47381e-12,5.88525e-01,1.78612e-12,5.88525e-01
7.87478e+02,2.89100e+03,1.22800e+03,1.66300e+03,1.88205e-12,5.96071e-01,3.09411e-12,5.96071e-01,2.73129e-12,5.96071e-01
7.87728e+02,3.01100e+03,1.61500e+03,1.39600e+03,1.88892e-12,6.03616e-01,2.79126e-12,6.03616e-01,3.58460e-12,6.03616e-01
7.87978e+02,2.65900e+03,2.69000e+03,-3.10000e+01,1.90835e-12,6.11161e-01,1.58360e-12,6.11161e-01,2.29777e-12,6.11161e-01
7.88228e+02,1.76800e+03,3.48700e+03,-1.71900e+03,1.10109e-12,6.18706e-01,5.90986e-13,6.18706e-01,5.32534e-13,6.18706e-01
7.88478e+02,1.38500e+03,3.68200e+03,-2.29700e+03,1.31951e-12,6.26251e-01,1.65506e-12,6.26251e-01,3.89030e-13,6.26251e-01
7.88728e+02,1.73600e+03,2.92200e+03,-1.18600e+03,3.00908e-12,6.33797e-01,2.27368e-12,6.33797e-01,9.79728e-13,6.33797e-01
7.88978e+02,2.87800e+03,1.97300e+03,9.05000e+02,3.20592e-12,6.41342e-01,1.87587e-12,6.41342e-01,1.67309e-12,6.41342e-01
7.89228e+02,3.99900e+03,1.34700e+03,2.65200e+03,2.65133e-12,6.48887e-01,1.70499e-12,6.48887e-01,2.03522e-12,6.48887e-01
7.89478e+02,4.49000e+03,1.92000e+03,2.57000e+03,1.53087e-12,6.56432e-01,1.54971e-12,6.56432e-01,1.91895e-12,6.56432e-01
7.89728e+02,3.62400e+03,3.21600e+03,4.08000e+02,9.29422e-13,6.63977e-01,9.36330e-13,6.63977e-01,1.38925e-12,6.63977e-01
7.89978e+02,2.53500e+03,4.52300e+03,-1.98800e+03,1.47674e-12,6.71523e-01,8.87699e-13,6.71523e-01,8.59815e-13,6.71523e-01
7.90228e+02,1.71900e+03,4.60400e+03,-2.88500e+03,1.28577e-12,6.79068e-01,1.32598e-12,6.79068e-01,5.68107e-13,6.79068e-01
7.90478e+02,2.35300e+03,3.84900e+03,-1.49600e+03,9.10792e-13,6.86613e-01,1.66212e-12,6.86613e-01,1.51412e-12,6.86613e-01
7.90728e+02,3.84100e+03,2.47100e+03,1.37000e+03,8.70907e-13,6.94158e-01,2.52489e-12,6.94158e-01,1.71617e-12,6.94158e-01
7.90978e+02,5.40100e+03,1.78500e+03,3.61600e+03,1.81596e-12,7.01703e-01,3.06583e-12,7.01703e-01,1.28675e-12,7.01703e-01
7.91228e+02,5.38500e+03,2.32500e+03,3.06000e+03,1.93184e-12,7.09249e-01,2.39573e-12,7.09249e-01,8.11521e-13,7.09249e-01
7.91478e+02,4.07000e+03,3.55300e+03,5.17000e+02,1.93885e-12,7.16794e-01,2.42266e-12,7.16794e-01,1.33505e-12,7.16794e-01
7.91728e+02,2.40700e+03,4.44500e+03,-2.03800e+03,2.65631e-12,7.24339e-01,2.93098e-12,7.24339e-01,1.44329e-12,7.24339e-01
7.91977e+02,1.79500e+03,4.50800e+03,-2.71300e+03,3.38362e-12,7.31884e-01,2.55524e-12,7.31884e-01,1.81405e-12,7.31884e-01
7.92227e+02,2.50500e+03,3.31500e+03,-8.10000e+02,3.04241e-12,7.39429e-01,1.71691e-12,7.39429e-01,2.03940e-12,7.39429e-01
7.92477e+02,4.52000e+03,2.37400e+03,2.14600e+03,2.32345e-12,7.46975e-01,1.12874e-12,7.46975e-01,1.24208e-12,7.46975e-01
7.92727e+02,6.12400e+03,1.85400e+03,4.27000e+03,1.77337e-12,7.54520e-01,6.87848e-13,7.54520e-01,1.11665e-12,7.54520e-01
7.92977e+02,6.31400e+03,2.58300e+03,3.73100e+03,1.48200e-12,7.62065e-01,1.20381e-12,7.62065e-01,8.57154e-13,7.62065e-01
7.93227e+02,4.53000e+03,3.94300e+03,5.87000e+02,1.58899e-12,7.69610e-01,2.08886e-12,7.69610e-01,9.81697e-13,7.69610e-01
7.93476e+02,2.75000e+03,4.94100e+03,-2.19100e+03,1.17901e-12,7.77155e-01,2.30499e-12,7.77155e-01,1.39765e-12,7.77155e-01
7.93726e+02,1.97800e+03,5.21900e+03,-3.24100e+03,7.02351e-13,7.84701e-01,1.72900e-12,7.84701e-01,1.03843e-12,7.84701e-01
7.93976e+02,2.98000e+03,4.36100e+03,-1.38100e+03,5.06845e-13,7.92246e-01,1.00214e-12,7.92246e-01,5.97885e-13,7.92246e-01
7.94226e+02,4.98100e+03,2.63700e+03,2.34400e+03,2.15430e-13,7.99791e-01,3.96496e-13,7.99791e-01,6.11776e-13,7.99791e-01
7.94476e+02,7.09500e+03,2.10700e+03,4.98800e+03,8.76902e-13,8.07336e-01,3.43595e-13,8.07336e-01,9.69052e-13,8.07336e-01
7.94725e+02,6.48700e+03,2.92400e+03,3.56300e+03,1.41104e-12,8.14881e-01,1.05556e-12,8.14881e-01,1.62077e-12,8.14881e-01
7.94975e+02,4.93700e+03,4.65100e+03,2.86000e+02,1.46510e-12,8.22427e-01,2.11932e-12,8.22427e-01,1.48198e-12,8.22427e-01
7.95225e+02,3.02400e+03,5.88800e+03,-2.86400e+03,1.38778e-12,8.29972e-01,2.56673e-12,8.29972e-01,1.18558e-12,8.29972e-01
7.95475e+02,2.38200e+03,5.93200e+03,-3.55000e+03,1.22958e-12,8.37517e-01,2.03371e-12,8.37517e-01,1.27181e-12,8.37517e-01
7.95724e+02,3.47700e+03,4.59800e+03,-1.12100e+03,8.73874e-13,8.45062e-01,1.46321e-12,8.45062e-01,1.35350e-12,8.45062e-01
7.95974e+02,5.54600e+03,3.05600e+03,2.49000e+03,4.81091e-13,8.52607e-01,1.13483e-12,8.52607e-01,9.63729e-13,8.52607e-01
7.96224e+02,7.12000e+03,2.44000e+03,4.68000e+03,2.36654e-13,8.60153e-01,3.22304e-13,8.60153e-01,4.30058e-13,8.60153e-01
7.96474e+02,7.47600e+03,3.61300e+03,3.86300e+03,5.44833e-13,8.67698e-01,5.35220e-13,8.67698e-01,1.07672e-12,8.67698e-01
7.96723e+02,5.36200e+03,5.56700e+03,-2.05000e+02,9.11550e-13,8.75243e-01,9.79131e-13,8.75243e-01,1.88821e-12,8.75243e-01
7.96973e+02,3.28500e+03,7.56800e+03,-4.28300e+03,1.02272e-12,8.82788e-01,1.11805e-12,8.82788e-01,2.12441e-12,8.82788e-01
7.97223e+02,2.77100e+03,8.28100e+03,-5.51000e+03,1.10591e-12,8.90333e-01,8.85694e-13,8.90333e-01,1.63181e-12,8.90333e-01
7.97472e+02,4.46900e+03,5.79000e+03,-1.32100e+03,1.05867e-12,8.97879e-01,6.42236e-13,8.97879e-01,4.24242e-13,8.97879e-01
7.97722e+02,7.45400e+03,3.64200e+03,3.81200e+03,1.37805e-12,9.05424e-01,9.28850e-13,9.05424e-01,1.27387e-12,9.05424e-01
7.97972e+02,9.33700e+03,3.05800e+03,6.27900e+03,1.36730e-12,9.12969e-01,9.60861e-13,9.12969e-01,8.28315e-13,9.12969e-01
7.98221e+02,8.78100e+03,4.73900e+03,4.04200e+03,9.85396e-13,9.20514e-01,5.43804e-13,9.20514e-01,4.53779e-13,9.20514e-01
7.98471e+02,6.10000e+03,7.21500e+03,-1.11500e+03,3.34530e-13,9.28059e-01,6.37313e-13,9.28059e-01,7.60357e-13,9.28059e-01
7.98721e+02,3.58700e+03,8.72600e+03,-5.13900e+03,5.74481e-13,9.35605e-01,1.00907e-12,9.35605e-01,6.92957e-13,9.35605e-01
7.98970e+02,3.14600e+03,9.24600e+03,-6.10000e+03,3.19544e-13,9.43150e-01,1.20425e-12,9.43150e-01,8.86357e-13,9.43150e-01
7.99220e+02,5.10600e+03,6.92500e+03,-1.81900e+03,8.15541e-13,9.50695e-01,8.21641e-13,9.50695e-01,8.91332e-13,9.50695e-01
7.99469e+02,7.80800e+03,4.04500e+03,3.76300e+03,8.70353e-13,9.58240e-01,4.49168e-13,9.58240e-01,7.16664e-13,9.58240e-01
7.99719e+02,9.42900e+03,3.23800e+03,6.19100e+03,3.25636e-13,9.65785e-01,7.10025e-14,9.65785e-01,3.01090e-13,9.65785e-01
7.99969e+02,9.20800e+03,5.24300e+03,3.96500e+03,2.14204e-13,9.73331e-01,4.92213e-13,9.73331e-01,3.22928e-13,9.73331e-01
8.00218e+02,6.58400e+03,8.35200e+03,-1.76800e+03,7.44448e-13,9.80876e-01,8.15125e-13,9.80876e-01,8.99424e-13,9.80876e-01
8.00468e+02,3.98100e+03,1.01540e+04,-6.17300e+03,1.19695e-12,9.88421e-01,2.72835e-13,9.88421e-01,9.74520e-13,9.88421e-01
8.00717e+02,3.72400e+03,9.27500e+03,-5.55100e+03,1.19925e-12,9.95966e-01,9.89421e-13,9.95966e-01,1.01286e-12,9.95966e-01
8.00967e+02,6.40700e+03,6.41900e+03,-1.20000e+01,6.60241e-13,1.00351e+00,7.94564e-13,1.00351e+00,8.21629e-13,1.00351e+00
8.01216e+02,1.02790e+04,3.86000e+03,6.41900e+03,4.08338e-13,1.01106e+00,2.78766e-13,1.01106e+00,6.74725e-13,1.01106e+00
8.01466e+02,1.22450e+04,3.55600e+03,8.68900e+03,4.44994e-13,1.01860e+00,5.83509e-13,1.01860e+00,9.23969e-13,1.01860e+00
8.01715e+02,1.15330e+04,5.81800e+03,5.71500e+03,1.00279e-12,1.02615e+00,4.35361e-13,1.02615e+00,1.42559e-12,1.02615e+00
8.01965e+02,7.89300e+03,9.83800e+03,-1.94500e+03,1.29106e-12,1.03369e+00,5.22846e-13,1.03369e+00,1.61501e-12,1.03369e+00
8.02215e+02,4.68500e+03,1.20310e+04,-7.34600e+03,1.12053e-12,1.04124e+00,9.87285e-13,1.04124e+00,1.62638e-12,1.04124e+00
8.02464e+02,4.07700e+03,1.08740e+04,-6.79700e+03,1.02265e-12,1.04878e+00,9.55619e-13,1.04878e+00,1.78897e-12,1.04878e+00
8.02713e+02,6.28300e+03,7.61000e+03,-1.32700e+03,1.39894e-12,1.05633e+00,4.44232e-13,1.05633e+00,1.50804e-12,1.05633e+00
8.02963e+02,1.01560e+04,4.35500e+03,5.80100e+03,1.21546e-12,1.06387e+00,6.26617e-13,1.06387e+00,1.21089e-12,1.06387e+00
8.03212e+02,1.31130e+04,4.06900e+03,9.04400e+03,8.19863e-13,1.07142e+00,5.24699e-13,1.07142e+00,1.12470e-12,1.07142e+00
8.03462e+02,1.25950e+04,7.21200e+03,5.38300e+03,2.57657e-13,1.07896e+00,6.01511e-13,1.07896e+00,8.59069e-13,1.07896e+00
8.03711e+02,8.89700e+03,1.18740e+04,-2.97700e+03,1.31349e-13,1.08651e+00,6.08435e-13,1.08651e+00,7.06198e-13,1.08651e+00
8.03961e+02,4.77800e+03,1.25620e+04,-7.78400e+03,3.50077e-13,1.09405e+00,9.88791e-13,1.09405e+00,1.32622e-12,1.09405e+00
8.04210e+02,4.14600e+03,1.12410e+04,-7.09500e+03,5.63620e-13,1.10160e+00,1.12398e-12,1.10160e+00,1.68760e-12,1.10160e+00
8.04460e+02,7.46900e+03,8.08800e+03,-6.19000e+02,6.85812e-13,1.10914e+00,8.29031e-13,1.10914e+00,1.51220e-12,1.10914e+00
8.04709e+02,1.19780e+04,4.86500e+03,7.11300e+03,4.90755e-13,1.11669e+00,5.21069e-13,1.11669e+00,9.62293e-13,1.11669e+00
8.04958e+02,1.31700e+04,4.10400e+03,9.06600e+03,9.88273e-14,1.12423e+00,5.48188e-13,1.12423e+00,5.86859e-13,1.12423e+00
8.05208e+02,1.18340e+04,6.27900e+03,5.55500e+03,3.88555e-13,1.13178e+00,3.35393e-13,1.13178e+00,1.05861e-13,1.13178e+00
8.05457e+02,7.98000e+03,9.39600e+03,-1.41600e+03,8.60606e-13,1.13932e+00,1.03488e-12,1.13932e+00,8.18752e-13,1.13932e+00
8.05707e+02,5.01400e+03,1.28120e+04,-7.79800e+03,9.13743e-13,1.14687e+00,1.34095e-12,1.14687e+00,1.06126e-12,1.14687e+00
8.05956e+02,4.15700e+03,1.33800e+04,-9.22300e+03,6.03469e-13,1.15442e+00,1.01719e-12,1.15442e+00,7.87855e-13,1.15442e+00
8.06205e+02,6.38200e+03,8.98000e+03,-2.59800e+03,2.38623e-13,1.16196e+00,6.55984e-13,1.16196e+00,6.49725e-13,1.16196e+00
8.06455e+02,1.09040e+04,5.35200e+03,5.55200e+03,2.85514e-13,1.16951e+00,1.09695e-13,1.16951e+00,3.94719e-13,1.16951e+00
8.06704e+02,1.38970e+04,4.19600e+03,9.70100e+03,6.06951e-13,1.17705e+00,3.14293e-13,1.17705e+00,4.50168e-13,1.17705e+00
8.06953e+02,1.30690e+04,6.17000e+03,6.89900e+03,7.55722e-13,1.18460e+00,3.45623e-13,1.18460e+00,9.32689e-13,1.18460e+00
8.07203e+02,8.98300e+03,9.39700e+03,-4.14000e+02,7.37289e-13,1.19214e+00,4.74441e-13,1.19214e+00,8.89166e-13,1.19214e+00
8.07452e+02,5.57100e+03,1.31880e+04,-7.61700e+03,1.05525e-12,1.19969e+00,7.93979e-13,1.19969e+00,7.67000e-13,1.19969e+00
8.07701e+02,3.90600e+03,1.36450e+04,-9.73900e+03,1.11298e-12,1.20723e+00,1.05147e-12,1.20723e+00,4.52822e-13,1.20723e+00
8.07951e+02,5.94900e+03,1.09480e+04,-4.99900e+03,8.32762e-13,1.21478e+00,1.04030e-12,1.21478e+00,2.94169e-13,1.21478e+00
8.08200e+02,8.71100e+03,6.52200e+03,2.18900e+03,4.87448e-13,1.22232e+00,7.06275e-13,1.22232e+00,2.21469e-13,1.22232e+00
8.08449e+02,1.21460e+04,4.29400e+03,7.85200e+03,1.56032e-13,1.22987e+00,5.61722e-13,1.22987e+00,4.40365e-13,1.22987e+00
8.08698e+02,1.37480e+04,5.80000e+03,7.94800e+03,7.62057e-14,1.23741e+00,7.56078e-13,1.23741e+00,8.27385e-13,1.23741e+00
8.08948e+02,1.18160e+04,1.04710e+04,1.34500e+03,1.58117e-13,1.24496e+00,6.59251e-13,1.24496e+00,8.08975e-13,1.24496e+00
8.09197e+02,7.57600e+03,1.45650e+04,-6.98900e+03,3.46012e-13,1.25250e+00,1.76417e-13,1.25250e+00,5.22006e-13,1.25250e+00
8.09446e+02,4.73000e+03,1.43080e+04,-9.57800e+03,4.84462e-13,1.26005e+00,1.89977e-13,1.26005e+00,4.04009e-13,1.26005e+00
8.09695e+02,6.91400e+03,1.17640e+04,-4.85000e+03,7.62199e-13,1.26759e+00,4.61536e-13,1.26759e+00,3.04033e-13,1.26759e+00
8.09945e+02,1.16150e+04,7.73100e+03,3.88400e+03,1.08831e-12,1.27514e+00,6.87448e-13,1.27514e+00,5.45238e-13,1.27514e+00
8.10194e+02,1.42110e+04,4.89200e+03,9.31900e+03,1.18440e-12,1.28268e+00,4.26247e-13,1.28268e+00,1.10177e-12,1.28268e+00
8.10443e+02,1.46490e+04,5.66900e+03,8.98000e+03,1.19156e-12,1.29023e+00,3.38536e-13,1.29023e+00,1.07705e-12,1.29023e+00
8.10692e+02,1.21390e+04,1.00660e+04,2.07300e+03,6.22851e-13,1.29777e+00,1.58844e-13,1.29777e+00,7.56832e-13,1.29777e+00
8.10941e+02,7.76900e+03,1.43850e+04,-6.61600e+03,1.01724e-12,1.30532e+00,9.28790e-13,1.30532e+00,1.39093e-12,1.30532e+00
8.11191e+02,4.73800e+03,1.49610e+04,-1.02230e+04,9.93710e-13,1.31286e+00,3.37798e-13,1.31286e+00,1.33104e-12,1.31286e+00
8.11440e+02,6.51000e+03,1.35920e+04,-7.08200e+03,8.85199e-13,-1.32041e+00,2.00535e-12,-1.32041e+00,1.12015e-12,-1.32041e+00
8.11689e+02,1.15910e+04,9.65200e+03,1.93900e+03,9.93710e-13,-1.31286e+00,3.37798e-13,-1.31286e+00,1.33104e-12,-1.31286e+00
8.11938e+02,1.48450e+04,5.72500e+03,9.12000e+03,1.01724e-12,-1.30532e+00,9.28790e-13,-1.30532e+00,1.39093e-12,-1.30532e+00
8.12187e+02,1.54660e+04,5.80600e+03,9.66000e+03,6.22851e-13,-1.29777e+00,1.58844e-13,-1.29777e+00,7.56832e-13,-1.29777e+00
8.12436e+02,1.44480e+04,9.70400e+03,4.74400e+03,1.19156e-12,-1.29023e+00,3.38536e-13,-1.29023e+00,1.07705e-12,-1.29023e+00
8.12685e+02,8.87900e+03,1.41320e+04,-5.25300e+03,1.18440e-12,-1.28268e+00,4.26247e-13,-1.28268e+00,1.10177e-12,-1.28268e+00
8.12935e+02,5.44900e+03,1.50460e+04,-9.59700e+03,1.08831e-12,-1.27514e+00,6.87448e-13,-1.27514e+00,5.45238e-13,-1.27514e+00
8.13184e+02,5.73400e+03,1.33600e+04,-7.62600e+03,7.62199e-13,-1.26759e+00,4.61536e-13,-1.26759e+00,3.04033e-13,-1.26759e+00
8.13433e+02,9.33200e+03,1.01030e+04,-7.71000e+02,4.84462e-13,-1.26005e+00,1.89977e-13,-1.26005e+00,4.04009e-13,-1.26005e+00
8.13682e+02,1.38430e+04,5.99200e+03,7.85100e+03,3.46012e-13,-1.25250e+00,1.76417e-13,-1.25250e+00,5.22006e-13,-1.25250e+00
8.13931e+02,1.52970e+04,5.06900e+03,1.02280e+04,1.58117e-13,-1.24496e+00,6.59251e-13,-1.24496e+00,8.08975e-13,-1.24496e+00
8.14180e+02,1.38660e+04,7.47200e+03,6.39400e+03,7.62057e-14,-1.23741e+00,7.56078e-13,-1.23741e+00,8.27385e-13,-1.23741e+00
8.14429e+02,1.02420e+04,1.22130e+04,-1.97100e+03,1.56032e-13,-1.22987e+00,5.61722e-13,-1.22987e+00,4.40365e-13,-1.22987e+00
8.14678e+02,6.06000e+03,1.49440e+04,-8.88400e+03,4.87448e-13,-1.22232e+00,7.06275e-13,-1.22232e+00,2.21469e-13,-1.22232e+00
8.14927e+02,4.58200e+03,1.39780e+04,-9.39600e+03,8.32762e-13,-1.21478e+00,1.04030e-12,-1.21478e+00,2.94169e-13,-1.21478e+00
8.15176e+02,6.98100e+03,1.04460e+04,-3.46500e+03,1.11298e-12,-1.20723e+00,1.05147e-12,-1.20723e+00,4.52822e-13,-1.20723e+00
8.15425e+02,1.10780e+04,6.11200e+03,4.96600e+03,1.05525e-12,-1.19969e+00,7.93979e-13,-1.19969e+00,7.67000e-13,-1.19969e+00
8.15674e+02,1.44230e+04,4.51700e+03,9.90600e+03,7.37289e-13,-1.19214e+00,4.74441e-13,-1.19214e+00,8.89166e-13,-1.19214e+00
8.15923e+02,1.45530e+04,7.28800e+03,7.26500e+03,7.55722e-13,-1.18460e+00,3.45623e-13,-1.18460e+00,9.32689e-13,-1.18460e+00
8.16172e+02,1.17980e+04,1.24180e+04,-6.20000e+02,6.06951e-13,-1.17705e+00,3.14293e-13,-1.17705e+00,4.50168e-13,-1.17705e+00
8.16421e+02,5.78000e+03,1.39140e+04,-8.13400e+03,2.85514e-13,-1.16951e+00,1.09695e-13,-1.16951e+00,3.94719e-13,-1.16951e+00
8.16670e+02,4.31000e+03,1.23120e+04,-8.00200e+03,2.38623e-13,-1.16196e+00,6.55984e-13,-1.16196e+00,6.49725e-13,-1.16196e+00
8.16919e+02,6.79500e+03,9.73600e+03,-2.94100e+03,6.03469e-13,-1.15442e+00,1.01719e-12,-1.15442e+00,7.87855e-13,-1.15442e+00
8.17168e+02,1.05290e+04,6.23700e+03,4.29200e+03,9.13743e-13,-1.14687e+00,1.34095e-12,-1.14687e+00,1.06126e-12,-1.14687e+00
8.17417e+02,1.24260e+04,3.94500e+03,8.48100e+03,8.60606e-13,-1.13932e+00,1.03488e-12,-1.13932e+00,8.18752e-13,-1.13932e+00
8.17666e+02,1.25530e+04,5.29700e+03,7.25600e+03,3.88555e-13,-1.13178e+00,3.35393e-13,-1.13178e+00,1.05861e-13,-1.13178e+00
8.17915e+02,9.91200e+03,8.97800e+03,9.34000e+02,9.88273e-14,-1.12423e+00,5.48188e-13,-1.12423e+00,5.86859e-13,-1.12423e+00
8.18164e+02,5.87000e+03,1.08740e+04,-5.00400e+03,4.90755e-13,-1.11669e+00,5.21069e-13,-1.11669e+00,9.62293e-13,-1.11669e+00
8.18413e+02,3.65300e+03,1.08770e+04,-7.22400e+03,6.85812e-13,-1.10914e+00,8.29031e-13,-1.10914e+00,1.51220e-12,-1.10914e+00
8.18662e+02,4.51000e+03,8.79500e+03,-4.28500e+03,5.63620e-13,-1.10160e+00,1.12398e-12,-1.10160e+00,1.68760e-12,-1.10160e+00
8.18911e+02,7.24100e+03,5.97400e+03,1.26700e+03,3.50077e-13,-1.09405e+00,9.88791e-13,-1.09405e+00,1.32622e-12,-1.09405e+00
8.19160e+02,9.84600e+03,3.79000e+03,6.05600e+03,1.31349e-13,-1.08651e+00,6.08435e-13,-1.08651e+00,7.06198e-13,-1.08651e+00
8.19408e+02,1.08920e+04,4.11200e+03,6.78000e+03,2.57657e-13,-1.07896e+00,6.01511e-13,-1.07896e+00,8.59069e-13,-1.07896e+00
8.19657e+02,9.86700e+03,7.59700e+03,2.27000e+03,8.19863e-13,-1.07142e+00,5.24699e-13,-1.07142e+00,1.12470e-12,-1.07142e+00
8.19906e+02,6.34500e+03,1.17120e+04,-5.36700e+03,1.21546e-12,-1.06387e+00,6.26617e-13,-1.06387e+00,1.21089e-12,-1.06387e+00
8.20155e+02,3.79200e+03,1.35120e+04,-9.72000e+03,1.39894e-12,-1.05633e+00,4.44232e-13,-1.05633e+00,1.50804e-12,-1.05633e+00
8.20404e+02,4.19300e+03,1.10640e+04,-6.87100e+03,1.02265e-12,-1.04878e+00,9.55619e-13,-1.04878e+00,1.78897e-12,-1.04878e+00
8.20653e+02,6.96000e+03,6.59500e+03,3.65000e+02,1.12053e-12,-1.04124e+00,9.87285e-13,-1.04124e+00,1.62638e-12,-1.04124e+00
8.20901e+02,9.57700e+03,3.87000e+03,5.70700e+03,1.29106e-12,-1.03369e+00,5.22846e-13,-1.03369e+00,1.61501e-12,-1.03369e+00
8.21150e+02,1.11630e+04,3.57100e+03,7.59200e+03,1.00279e-12,-1.02615e+00,4.35361e-13,-1.02615e+00,1.42559e-12,-1.02615e+00
8.21399e+02,8.57400e+03,5.12100e+03,3.45300e+03,4.44994e-13,-1.01860e+00,5.83509e-13,-1.01860e+00,9.23969e-13,-1.01860e+00
8.21648e+02,5.56300e+03,7.99600e+03,-2.43300e+03,4.08338e-13,-1.01106e+00,2.78766e-13,-1.01106e+00,6.74725e-13,-1.01106e+00
8.21897e+02,3.57100e+03,9.94500e+03,-6.37400e+03,6.60241e-13,-1.00351e+00,7.94564e-13,-1.00351e+00,8.21629e-13,-1.00351e+00
8.22145e+02,3.03400e+03,8.67400e+03,-5.64000e+03,1.19925e-12,-9.95966e-01,9.89421e-13,-9.95966e-01,1.01286e-12,-9.95966e-01
8.22394e+02,5.11900e+03,6.77400e+03,-1.65500e+03,1.19695e-12,-9.88421e-01,2.72835e-13,-9.88421e-01,9.74520e-13,-9.88421e-01
8.22643e+02,7.64300e+03,4.14800e+03,3.49500e+03,7.44448e-13,-9.80876e-01,8.15125e-13,-9.80876e-01,8.99424e-13,-9.80876e-01
8.22892e+02,8.67600e+03,3.07900e+03,5.59700e+03,2.14204e-13,-9.73331e-01,4.92213e-13,-9.73331e-01,3.22928e-13,-9.73331e-01
8.23140e+02,8.27900e+03,3.89200e+03,4.38700e+03,3.25636e-13,-9.65785e-01,7.10025e-14,-9.65785e-01,3.01090e-13,-9.65785e-01
8.23389e+02,6.34100e+03,6.76100e+03,-4.20000e+02,8.70353e-13,-9.58240e-01,4.49168e-13,-9.58240e-01,7.16664e-13,-9.58240e-01
8.23638e+02,3.98700e+03,9.05600e+03,-5.06900e+03,8.15541e-13,-9.50695e-01,8.21641e-13,-9.50695e-01,8.91332e-13,-9.50695e-01
8.23887e+02,2.88800e+03,9.21100e+03,-6.32300e+03,3.19544e-13,-9.43150e-01,1.20425e-12,-9.43150e-01,8.86357e-13,-9.43150e-01
8.24135e+02,4.20200e+03,7.28500e+03,-3.08300e+03,5.74481e-13,-9.35605e-01,1.00907e-12,-9.35605e-01,6.92957e-13,-9.35605e-01
8.24384e+02,6.18900e+03,4.56900e+03,1.62000e+03,3.34530e-13,-9.28059e-01,6.37313e-13,-9.28059e-01,7.60357e-13,-9.28059e-01
8.24633e+02,7.78000e+03,2.79200e+03,4.98800e+03,9.85396e-13,-9.20514e-01,5.43804e-13,-9.20514e-01,4.53779e-13,-9.20514e-01
8.24881e+02,8.19700e+03,3.24900e+03,4.94800e+03,1.36730e-12,-9.12969e-01,9.60861e-13,-9.12969e-01,8.28315e-13,-9.12969e-01
8.25130e+02,6.67900e+03,5.22600e+03,1.45300e+03,1.37805e-12,-9.05424e-01,9.28850e-13,-9.05424e-01,1.27387e-12,-9.05424e-01
8.25379e+02,4.05300e+03,8.06200e+03,-4.00900e+03,1.05867e-12,-8.97879e-01,6.42236e-13,-8.97879e-01,4.24242e-13,-8.97879e-01
8.25627e+02,2.36800e+03,7.56700e+03,-5.19900e+03,1.10591e-12,-8.90333e-01,8.85694e-13,-8.90333e-01,1.63181e-12,-8.90333e-01
8.25876e+02,2.75600e+03,6.18100e+03,-3.42500e+03,1.02272e-12,-8.82788e-01,1.11805e-12,-8.82788e-01,2.12441e-12,-8.82788e-01
8.26125e+02,4.41300e+03,4.25300e+03,1.60000e+02,9.11550e-13,-8.75243e-01,9.79131e-13,-8.75243e-01,1.88821e-12,-8.75243e-01
8.26373e+02,5.41600e+03,2.42100e+03,2.99500e+03,5.44833e-13,-8.67698e-01,5.35220e-13,-8.67698e-01,1.07672e-12,-8.67698e-01
8.26622e+02,5.28900e+03,2.04900e+03,3.24000e+03,2.36654e-13,-8.60153e-01,3.22304e-13,-8.60153e-01,4.30058e-13,-8.60153e-01
8.26870e+02,4.19000e+03,3.00500e+03,1.18500e+03,4.81091e-13,-8.52607e-01,1.13483e-12,-8.52607e-01,9.63729e-13,-8.52607e-01
8.27119e+02,2.98400e+03,4.16800e+03,-1.18400e+03,8.73874e-13,-8.45062e-01,1.46321e-12,-8.45062e-01,1.35350e-12,-8.45062e-01
8.27368e+02,1.96200e+03,5.12700e+03,-3.16500e+03,1.22958e-12,-8.37517e-01,2.03371e-12,-8.37517e-01,1.27181e-12,-8.37517e-01
8.27616e+02,1.71700e+03,4.58900e+03,-2.87200e+03,1.38778e-12,-8.29972e-01,2.56673e-12,-8.29972e-01,1.18558e-12,-8.29972e-01
8.27865e+02,2.72500e+03,3.42700e+03,-7.02000e+02,1.46510e-12,-8.22427e-01,2.11932e-12,-8.22427e-01,1.48198e-12,-8.22427e-01
8.28113e+02,4.49900e+03,2.51600e+03,1.98300e+03,1.41104e-12,-8.14881e-01,1.05556e-12,-8.14881e-01,1.62077e-12,-8.14881e-01
8.28362e+02,5.26000e+03,1.82700e+03,3.43300e+03,8.76902e-13,-8.07336e-01,3.43595e-13,-8.07336e-01,9.69052e-13,-8.07336e-01
8.28610e+02,4.63700e+03,2.14500e+03,2.49200e+03,2.15430e-13,-7.99791e-01,3.96496e-13,-7.99791e-01,6.11776e-13,-7.99791e-01
8.28859e+02,3.33400e+03,3.21200e+03,1.22000e+02,5.06845e-13,-7.92246e-01,1.00214e-12,-7.92246e-01,5.97885e-13,-7.92246e-01
8.29108e+02,2.00000e+03,4.10000e+03,-2.10000e+03,7.02351e-13,-7.84701e-01,1.72900e-12,-7.84701e-01,1.03843e-12,-7.84701e-01
8.29356e+02,1.45800e+03,4.36100e+03,-2.90300e+03,1.17901e-12,-7.77155e-01,2.30499e-12,-7.77155e-01,1.39765e-12,-7.77155e-01
8.29605e+02,1.67500e+03,3.56000e+03,-1.88500e+03,1.58899e-12,-7.69610e-01,2.08886e-12,-7.69610e-01,9.81697e-13,-7.69610e-01
8.29853e+02,2.53300e+03,2.39400e+03,1.39000e+02,1.48200e-12,-7.62065e-01,1.20381e-12,-7.62065e-01,8.57154e-13,-7.62065e-01
8.30101e+02,3.36600e+03,1.47700e+03,1.88900e+03,1.77337e-12,-7.54520e-01,6.87848e-13,-7.54520e-01,1.11665e-12,-7.54520e-01
8.30350e+02,3.55000e+03,1.46000e+03,2.09000e+03,2.32345e-12,-7.46975e-01,1.12874e-12,-7.46975e-01,1.24208e-12,-7.46975e-01
8.30598e+02,2.72900e+03,1.83900e+03,8.90000e+02,3.04241e-12,-7.39429e-01,1.71691e-12,-7.39429e-01,2.03940e-12,-7.39429e-01
8.30847e+02,1.93600e+03,2.71600e+03,-7.80000e+02,3.38362e-12,-7.31884e-01,2.55524e-12,-7.31884e-01,1.81405e-12,-7.31884e-01
8.31095e+02,1.28700e+03,3.23900e+03,-1.95200e+03,2.65631e-12,-7.24339e-01,2.93098e-12,-7.24339e-01,1.44329e-12,-7.24339e-01
8.31344e+02,1.24500e+03,3.06200e+03,-1.81700e+03,1.93885e-12,-7.16794e-01,2.42266e-12,-7.16794e-01,1.33505e-12,-7.16794e-01
8.31592e+02,1.61100e+03,2.21500e+03,-6.04000e+02,1.93184e-12,-7.09249e-01,2.39573e-12,-7.09249e-01,8.11521e-13,-7.09249e-01
8.31841e+02,2.13000e+03,1.42800e+03,7.02000e+02,1.81596e-12,-7.01703e-01,3.06583e-12,-7.01703e-01,1.28675e-12,-7.01703e-01
8.32089e+02,2.65900e+03,1.00900e+03,1.65000e+03,8.70907e-13,-6.94158e-01,2.52489e-12,-6.94158e-01,1.71617e-12,-6.94158e-01
8.32337e+02,2.63300e+03,1.20700e+03,1.42600e+03,9.10792e-13,-6.86613e-01,1.66212e-12,-6.86613e-01,1.51412e-12,-6.86613e-01
8.32586e+02,1.80000e+03,1.61700e+03,1.83000e+02,1.28577e-12,-6.79068e-01,1.32598e-12,-6.79068e-01,5.68107e-13,-6.79068e-01
8.32834e+02,1.30900e+03,2.26700e+03,-9.58000e+02,1.47674e-12,-6.71523e-01,8.87699e-13,-6.71523e-01,8.59815e-13,-6.71523e-01
8.33083e+02,8.93000e+02,2.24400e+03,-1.35100e+03,9.29422e-13,-6.63977e-01,9.36330e-13,-6.63977e-01,1.38925e-12,-6.63977e-01
8.33331e+02,1.08000e+03,1.97600e+03,-8.96000e+02,1.53087e-12,-6.56432e-01,1.54971e-12,-6.56432e-01,1.91895e-12,-6.56432e-01
8.33579e+02,1.49000e+03,1.38300e+03,1.07000e+02,2.65133e-12,-6.48887e-01,1.70499e-12,-6.48887e-01,2.03522e-12,-6.48887e-01
8.33828e+02,1.85300e+03,9.51000e+02,9.02000e+02,3.20592e-12,-6.41342e-01,1.87587e-12,-6.41342e-01,1.67309e-12,-6.41342e-01
8.34076e+02,1.70900e+03,8.34000e+02,8.75000e+02,3.00908e-12,-6.33797e-01,2.27368e-12,-6.33797e-01,9.79728e-13,-6.33797e-01
8.34324e+02,1.55900e+03,1.05900e+03,5.00000e+02,1.31951e-12,-6.26251e-01,1.65506e-12,-6.26251e-01,3.89030e-13,-6.26251e-01
8.34573e+02,1.17600e+03,1.39300e+03,-2.17000e+02,1.10109e-12,-6.18706e-01,5.90986e-13,-6.18706e-01,5.32534e-13,-6.18706e-01
8.34821e+02,8.77000e+02,1.67700e+03,-8.00000e+02,1.90835e-12,-6.11161e-01,1.58360e-12,-6.11161e-01,2.29777e-12,-6.11161e-01
8.35069e+02,7.52000e+02,1.51800e+03,-7.66000e+02,1.88892e-12,-6.03616e-01,2.79126e-12,-6.03616e-01,3.58460e-12,-6.03616e-01
8.35318e+02,9.68000e+02,1.47300e+03,-5.05000e+02,1.88205e-12,-5.96071e-01,3.09411e-12,-5.96071e-01,2.73129e-12,-5.96071e-01
8.35566e+02,1.12300e+03,9.28000e+02,1.95000e+02,2.61917e-12,-5.88525e-01,2.47381e-12,-5.88525e-01,1.78612e-12,-5.88525e-01
8.35814e+02,1.34600e+03,7.43000e+02,6.03000e+02,2.92293e-12,-5.80980e-01,1.90659e-12,-5.80980e-01,1.99321e-12,-5.80980e-01
8.36062e+02,1.18200e+03,7.27000e+02,4.55000e+02,2.89548e-12,-5.73435e-01,1.21409e-12,-5.73435e-01,2.26666e-12,-5.73435e-01
8.36311e+02,1.02100e+03,8.77000e+02,1.44000e+02,1.87084e-12,-5.65890e-01,9.37663e-13,-5.65890e-01,1.51024e-12,-5.65890e-01
8.36559e+02,7.96000e+02,1.09900e+03,-3.03000e+02,6.98697e-13,-5.58345e-01,9.72510e-13,-5.58345e-01,1.33324e-12,-5.58345e-01
8.36807e+02,7.20000e+02,1.30000e+03,-5.80000e+02,1.27436e-12,-5.50799e-01,1.31117e-12,-5.50799e-01,2.42508e-12,-5.50799e-01
8.37055e+02,7.00000e+02,1.15400e+03,-4.54000e+02,2.12984e-12,-5.43254e-01,5.60441e-13,-5.43254e-01,2.41175e-12,-5.43254e-01
8.37304e+02,7.85000e+02,9.36000e+02,-1.51000e+02,2.11499e-12,-5.35709e-01,1.28869e-12,-5.35709e-01,1.22779e-12,-5.35709e-01
8.37552e+02,8.82000e+02,7.27000e+02,1.55000e+02,2.23532e-12,-5.28164e-01,2.62844e-12,-5.28164e-01,3.19385e-12,-5.28164e-01
8.37800e+02,1.02900e+03,7.09000e+02,3.20000e+02,2.77456e-12,-5.20619e-01,2.96031e-12,-5.20619e-01,4.16300e-12,-5.20619e-01
8.38048e+02,8.60000e+02,6.73000e+02,1.87000e+02,1.88305e-12,-5.13073e-01,3.32782e-12,-5.13073e-01,4.44124e-12,-5.13073e-01
8.38296e+02,7.87000e+02,7.86000e+02,1.00000e+00,1.98043e-12,-5.05528e-01,2.75671e-12,-5.05528e-01,4.50419e-12,-5.05528e-01
8.38545e+02,6.70000e+02,8.69000e+02,-1.99000e+02,1.76095e-12,-4.97983e-01,1.81022e-12,-4.97983e-01,3.40451e-12,-4.97983e-01
8.38793e+02,6.58000e+02,8.87000e+02,-2.29000e+02,3.48770e-12,-4.90438e-01,2.53720e-12,-4.90438e-01,4.94070e-12,-4.90438e-01
8.39041e+02,6.56000e+02,7.52000e+02,-9.60000e+01,4.14592e-12,-4.82893e-01,3.49335e-12,-4.82893e-01,4.67023e-12,-4.82893e-01
8.39289e+02,6.92000e+02,6.88000e+02,4.00000e+00,3.26378e-12,-4.75347e-01,3.29317e-12,-4.75347e-01,2.68868e-12,-4.75347e-01
8.39537e+02,7.31000e+02,6.40000e+02,9.10000e+01,1.98571e-12,-4.67802e-01,2.13857e-12,-4.67802e-01,1.09287e-12,-4.67802e-01
8.39785e+02,7.78000e+02,6.42000e+02,1.36000e+02,2.03253e-12,-4.60257e-01,1.86952e-12,-4.60257e-01,1.60064e-12,-4.60257e-01
8.40033e+02,7.24000e+02,6.53000e+02,7.10000e+01,2.91148e-12,-4.52712e-01,3.09524e-12,-4.52712e-01,2.99658e-12,-4.52712e-01
8.40281e+02,7.10000e+02,7.27000e+02,-1.70000e+01,2.85213e-12,-4.45167e-01,2.61177e-12,-4.45167e-01,2.15347e-12,-4.45167e-01
8.40530e+02,6.20000e+02,6.99000e+02,-7.90000e+01,1.33995e-12,-4.37621e-01,9.36070e-13,-4.37621e-01,1.59161e-12,-4.37621e-01
8.40778e+02,6.40000e+02,7.25000e+02,-8.50000e+01,8.23401e-13,-4.30076e-01,3.62380e-12,-4.30076e-01,3.97021e-12,-4.30076e-01
8.41026e+02,6.38000e+02,6.66000e+02,-2.80000e+01,1.57630e-12,-4.22531e-01,5.11667e-12,-4.22531e-01,6.01345e-12,-4.22531e-01
8.41274e+02,6.68000e+02,6.49000e+02,1.90000e+01,2.25472e-12,-4.14986e-01,3.38742e-12,-4.14986e-01,4.80114e-12,-4.14986e-01
8.41522e+02,6.65000e+02,6.42000e+02,2.30000e+01,3.56322e-12,-4.07441e-01,1.75906e-12,-4.07441e-01,5.32130e-12,-4.07441e-01
8.41770e+02,6.85000e+02,6.36000e+02,4.90000e+01,8.01286e-12,-3.99895e-01,4.65001e-12,-3.99895e-01,1.25946e-11,-3.99895e-01
8.42018e+02,6.53000e+02,6.45000e+02,8.00000e+00,1.28702e-11,-3.92350e-01,9.83736e-12,-3.92350e-01,2.25766e-11,-3.92350e-01
8.42266e+02,6.50000e+02,6.59000e+02,-9.00000e+00,3.22104e-11,-3.84805e-01,3.03913e-11,-3.84805e-01,6.16978e-11,-3.84805e-01
8.42514e+02,6.26000e+02,6.61000e+02,-3.50000e+01,6.68878e-11,-3.77260e-01,6.34693e-11,-3.77260e-01,1.27808e-10,-3.77260e-01
8.42762e+02,6.61000e+02,6.92000e+02,-3.10000e+01,8.18910e-11,-3.69715e-01,7.88557e-11,-3.69715e-01,1.57598e-10,-3.69715e-01
8.43010e+02,6.22000e+02,6.23000e+02,-1.00000e+00,6.50691e-11,-3.62169e-01,6.67126e-11,-3.62169e-01,1.28918e-10,-3.62169e-01
8.43258e+02,6.57000e+02,6.49000e+02,8.00000e+00,3.99663e-11,-3.54624e-01,4.45207e-11,-3.54624e-01,8.28089e-11,-3.54624e-01
8.43506e+02,6.52000e+02,6.17000e+02,3.50000e+01,1.86604e-11,-3.47079e-01,2.04847e-11,-3.47079e-01,3.81602e-11,-3.47079e-01
8.43754e+02,6.47000e+02,6.31000e+02,1.60000e+01,2.83263e-12,-3.39534e-01,5.27310e-12,-3.39534e-01,6.17839e-12,-3.39534e-01
8.44002e+02,6.42000e+02,6.40000e+02,2.00000e+00,1.98889e-12,-3.31989e-01,6.40594e-12,-3.31989e-01,8.06843e-12,-3.31989e-01
8.44250e+02,6.47000e+02,6.45000e+02,2.00000e+00,2.80369e-12,-3.24444e-01,3.71461e-12,-3.24444e-01,2.86079e-12,-3.24444e-01
8.44498e+02,6.32000e+02,6.44000e+02,-1.20000e+01,4.87253e-12,-3.16898e-01,1.99897e-12,-3.16898e-01,3.04972e-12,-3.16898e-01
8.44746e+02,6.36000e+02,6.37000e+02,-1.00000e+00,4.15560e-12,-3.09353e-01,1.96275e-12,-3.09353e-01,2.23739e-12,-3.09353e-01
8.44994e+02,6.45000e+02,6.29000e+02,1.60000e+01,2.66695e-12,-3.01808e-01,8.20809e-13,-3.01808e-01,3.37140e-12,-3.01808e-01
8.45242e+02,6.63000e+02,6.65000e+02,-2.00000e+00,2.72453e-12,-2.94263e-01,3.09992e-12,-2.94263e-01,5.50303e-12,-2.94263e-01
8.45490e+02,6.29000e+02,6.23000e+02,6.00000e+00,4.11126e-12,-2.86718e-01,3.14345e-12,-2.86718e-01,6.27780e-12,-2.86718e-01
8.45738e+02,6.44000e+02,6.23000e+02,2.10000e+01,4.26975e-12,-2.79172e-01,2.01979e-12,-2.79172e-01,4.92567e-12,-2.79172e-01
8.45985e+02,6.46000e+02,6.30000e+02,1.60000e+01,3.11723e-12,-2.71627e-01,1.06511e-12,-2.71627e-01,3.29724e-12,-2.71627e-01
8.46233e+02,6.39000e+02,6.35000e+02,4.00000e+00,1.55464e-12,-2.64082e-01,1.07085e-12,-2.64082e-01,2.61969e-12,-2.64082e-01
8.46481e+02,6.22000e+02,6.37000e+02,-1.50000e+01,2.37799e-12,-2.56537e-01,9.88991e-13,-2.56537e-01,2.42147e-12,-2.56537e-01
8.46729e+02,6.36000e+02,6.17000e+02,1.90000e+01,4.76062e-12,-2.48992e-01,2.35864e-12,-2.48992e-01,2.58266e-12,-2.48992e-01
8.46977e+02,6.33000e+02,6.31000e+02,2.00000e+00,5.29228e-12,-2.41446e-01,3.09654e-12,-2.41446e-01,2.19723e-12,-2.41446e-01
8.47225e+02,6.41000e+02,6.38000e+02,3.00000e+00,3.79766e-12,-2.33901e-01,2.82052e-12,-2.33901e-01,3.28691e-12,-2.33901e-01
8.47473e+02,6.29000e+02,6.28000e+02,1.00000e+00,2.19464e-12,-2.26356e-01,4.00255e-12,-2.26356e-01,6.05657e-12,-2.26356e-01
8.47720e+02,6.59000e+02,6.57000e+02,2.00000e+00,3.42377e-12,-2.18811e-01,2.48761e-12,-2.18811e-01,5.81603e-12,-2.18811e-01
8.47968e+02,6.16000e+02,6.02000e+02,1.40000e+01,3.22027e-12,-2.11266e-01,1.46789e-12,-2.11266e-01,1.75879e-12,-2.11266e-01
8.48216e+02,6.34000e+02,6.34000e+02,0.00000e+00,1.02129e-12,-2.03720e-01,2.79436e-12,-2.03720e-01,2.06249e-12,-2.03720e-01
8.48464e+02,6.27000e+02,6.28000e+02,-1.00000e+00,1.03324e-12,-1.96175e-01,2.41260e-12,-1.96175e-01,2.96386e-12,-1.96175e-01
8.48712e+02,6.42000e+02,6.23000e+02,1.90000e+01,1.42118e-12,-1.88630e-01,2.34746e-12,-1.88630e-01,2.91032e-12,-1.88630e-01
8.48960e+02,6.37000e+02,6.37000e+02,0.00000e+00,3.01215e-12,-1.81085e-01,2.32149e-12,-1.81085e-01,2.27789e-12,-1.81085e-01
8.49207e+02,6.29000e+02,6.44000e+02,-1.50000e+01,6.26822e-12,-1.73540e-01,3.36490e-12,-1.73540e-01,4.64161e-12,-1.73540e-01
8.49455e+02,6.14000e+02,6.30000e+02,-1.60000e+01,5.70893e-12,-1.65994e-01,3.22453e-12,-1.65994e-01,5.38667e-12,-1.65994e-01
8.49703e+02,6.41000e+02,6.30000e+02,1.10000e+01,1.91823e-12,-1.58449e-01,5.75107e-12,-1.58449e-01,4.91555e-12,-1.58449e-01
8.49951e+02,6.25000e+02,6.35000e+02,-1.00000e+01,3.91183e-12,-1.50904e-01,7.69151e-12,-1.50904e-01,3.95923e-12,-1.50904e-01
8.50198e+02,6.51000e+02,6.65000e+02,-1.40000e+01,3.22940e-12,-1.43359e-01,4.90874e-12,-1.43359e-01,1.99652e-12,-1.43359e-01
8.50446e+02,6.07000e+02,6.04000e+02,3.00000e+00,2.37544e-12,-1.35814e-01,3.19112e-12,-1.35814e-01,8.65809e-13,-1.35814e-01
8.50694e+02,6.41000e+02,6.32000e+02,9.00000e+00,1.25931e-12,-1.28268e-01,3.73280e-12,-1.28268e-01,3.33852e-12,-1.28268e-01
8.50941e+02,6.18000e+02,6.47000e+02,-2.90000e+01,3.37993e-13,-1.20723e-01,4.27398e-12,-1.20723e-01,4.43582e-12,-1.20723e-01
8.51189e+02,6.25000e+02,6.39000e+02,-1.40000e+01,8.73750e-13,-1.13178e-01,3.44028e-12,-1.13178e-01,3.29142e-12,-1.13178e-01
8.51437e+02,6.33000e+02,6.18000e+02,1.50000e+01,3.88637e-12,-1.05633e-01,1.54719e-12,-1.05633e-01,2.57698e-12,-1.05633e-01
8.51685e+02,6.38000e+02,6.30000e+02,8.00000e+00,4.20048e-12,-9.80876e-02,2.71655e-12,-9.80876e-02,1.62768e-12,-9.80876e-02
8.51932e+02,6.21000e+02,6.40000e+02,-1.90000e+01,2.50122e-12,-9.05424e-02,1.76573e-12,-9.05424e-02,1.55383e-12,-9.05424e-02
8.52180e+02,6.24000e+02,6.30000e+02,-6.00000e+00,7.44463e-13,-8.29972e-02,1.92804e-12,-8.29972e-02,2.56442e-12,-8.29972e-02
8.52428e+02,6.21000e+02,6.37000e+02,-1.60000e+01,2.36823e-12,-7.54520e-02,2.03130e-12,-7.54520e-02,3.03022e-12,-7.54520e-02
8.52675e+02,6.66000e+02,6.54000e+02,1.20000e+01,7.54433e-12,-6.79068e-02,3.44260e-12,-6.79068e-02,4.10995e-12,-6.79068e-02
8.52923e+02,6.27000e+02,6.14000e+02,1.30000e+01,9.67566e-12,-6.03616e-02,7.06430e-12,-6.03616e-02,5.21962e-12,-6.03616e-02
8.53170e+02,6.40000e+02,6.28000e+02,1.20000e+01,8.90084e-12,-5.28164e-02,8.52581e-12,-5.28164e-02,4.95842e-12,-5.28164e-02
8.53418e+02,6.20000e+02,6.22000e+02,-2.00000e+00,5.65621e-12,-4.52712e-02,4.78817e-12,-4.52712e-02,2.06923e-12,-4.52712e-02
8.53666e+02,6.25000e+02,6.28000e+02,-3.00000e+00,3.25335e-12,-3.77260e-02,4.54791e-13,-3.77260e-02,3.23537e-12,-3.77260e-02
8.53913e+02,6.31000e+02,6.34000e+02,-3.00000e+00,4.18609e-12,-3.01808e-02,9.96936e-13,-3.01808e-02,3.77345e-12,-3.01808e-02
8.54161e+02,6.26000e+02,6.26000e+02,0.00000e+00,1.82698e-11,-2.26356e-02,1.94024e-11,-2.26356e-02,1.44120e-12,-2.26356e-02
8.54409e+02,6.25000e+02,6.25000e+02,0.00000e+00,8.35442e-11,-1.50904e-02,8.41963e-11,-1.50904e-02,6.81770e-12,-1.50904e-02
8.54656e+02,6.27000e+02,6.29000e+02,-2.00000e+00,2.36501e-10,-7.54520e-03,2.33146e-10,-7.54520e-03,8.03647e-12,-7.54520e-03
