7.67698e+02,6.32000e+02,6.25000e+02,7.00000e+00,3.87033e-10,0.00000e+00,3.84501e-10,0.00000e+00,2.53113e-12,0.00000e+00
7.67949e+02,6.54000e+02,6.60000e+02,-6.00000e+00,2.32223e-10,7.54520e-03,2.30585e-10,7.54520e-03,3.64963e-12,7.54520e-03
7.68199e+02,6.06000e+02,6.21000e+02,-1.50000e+01,8.44001e-11,1.50904e-02,8.49441e-11,1.50904e-02,1.76143e-12,1.50904e-02
7.68450e+02,6.28000e+02,6.20000e+02,8.00000e+00,1.82889e-11,2.26356e-02,1.79889e-11,2.26356e-02,1.44138e-12,2.26356e-02
7.68701e+02,6.22000e+02,6.29000e+02,-7.00000e+00,5.40912e-12,3.01808e-02,5.17902e-12,3.01808e-02,1.76653e-12,3.01808e-02
7.68951e+02,6.25000e+02,6.37000e+02,-1.20000e+01,4.97548e-12,3.77260e-02,4.11848e-12,3.77260e-02,1.49890e-12,3.77260e-02
7.69202e+02,6.41000e+02,6.21000e+02,2.00000e+01,2.93718e-12,4.52712e-02,2.87162e-12,4.52712e-02,3.04922e-13,4.52712e-02
7.69453e+02,6.33000e+02,6.29000e+02,4.00000e+00,7.09472e-12,5.28164e-02,8.40651e-12,5.28164e-02,1.70516e-12,5.28164e-02
7.69703e+02,6.25000e+02,6.30000e+02,-5.00000e+00,8.32105e-12,6.03616e-02,1.02176e-11,6.03616e-02,2.11389e-12,6.03616e-02
7.69954e+02,6.49000e+02,6.36000e+02,1.30000e+01,7.30317e-12,6.79068e-02,8.94735e-12,6.79068e-02,1.64631e-12,6.79068e-02
7.70205e+02,6.42000e+02,6.33000e+02,9.00000e+00,4.59937e-12,7.54520e-02,6.12165e-12,7.54520e-02,1.52798e-12,7.54520e-02
7.70455e+02,6.43000e+02,6.69000e+02,-2.60000e+01,3.56468e-12,8.29972e-02,4.95945e-12,8.29972e-02,2.35008e-12,8.29972e-02
7.70706e+02,6.14000e+02,6.32000e+02,-1.80000e+01,2.97934e-12,9.05424e-02,3.85780e-12,9.05424e-02,2.22366e-12,9.05424e-02
7.70957e+02,6.57000e+02,6.52000e+02,5.00000e+00,3.17273e-12,9.80876e-02,3.41688e-12,9.80876e-02,1.32487e-12,9.80876e-02
7.71207e+02,6.26000e+02,6.27000e+02,-1.00000e+00,3.36915e-12,1.05633e-01,4.40580e-12,1.05633e-01,1.63889e-12,1.05633e-01
7.71458e+02,6.42000e+02,6.55000e+02,-1.30000e+01,2.32442e-12,1.13178e-01,5.64827e-12,1.13178e-01,3.33339e-12,1.13178e-01
7.71708e+02,6.58000e+02,6.48000e+02,1.00000e+01,2.02300e-12,1.20723e-01,5.61603e-12,1.20723e-01,4.24536e-12,1.20723e-01
7.71959e+02,6.35000e+02,6.35000e+02,0.00000e+00,2.05964e-12,1.28268e-01,2.88957e-12,1.28268e-01,3.67512e-12,1.28268e-01
7.72210e+02,6.48000e+02,6.57000e+02,-9.00000e+00,1.40278e-12,1.35814e-01,6.59551e-13,1.35814e-01,1.90899e-12,1.35814e-01
7.72460e+02,6.56000e+02,6.74000e+02,-1.80000e+01,3.44886e-12,1.43359e-01,3.92737e-12,1.43359e-01,7.69998e-13,1.43359e-01
7.72711e+02,6.71000e+02,6.38000e+02,3.30000e+01,6.76731e-12,1.50904e-01,6.46305e-12,1.50904e-01,9.58815e-13,1.50904e-01
7.72961e+02,6.77000e+02,6.90000e+02,-1.30000e+01,6.24067e-12,1.58449e-01,5.18844e-12,1.58449e-01,2.36156e-12,1.58449e-01
7.73212e+02,6.48000e+02,6.56000e+02,-8.00000e+00,1.73585e-12,1.65994e-01,3.78413e-12,1.65994e-01,2.30484e-12,1.65994e-01
7.73462e+02,6.80000e+02,6.42000e+02,3.80000e+01,4.06782e-12,1.73540e-01,5.23267e-12,1.73540e-01,2.60308e-12,1.73540e-01
7.73713e+02,6.44000e+02,6.37000e+02,7.00000e+00,4.05477e-12,1.81085e-01,5.29404e-12,1.81085e-01,3.49054e-12,1.81085e-01
7.73963e+02,6.58000e+02,6.72000e+02,-1.40000e+01,3.31373e-12,1.88630e-01,4.70498e-12,1.88630e-01,3.35439e-12,1.88630e-01
7.74214e+02,6.64000e+02,6.44000e+02,2.00000e+01,2.54534e-12,1.96175e-01,2.78065e-12,1.96175e-01,2.38423e-12,1.96175e-01
7.74465e+02,6.45000e+02,6.58000e+02,-1.30000e+01,2.03515e-12,2.03720e-01,1.96502e-12,2.03720e-01,1.67285e-12,2.03720e-01
7.74715e+02,6.66000e+02,6.70000e+02,-4.00000e+00,1.86734e-12,2.11266e-01,2.31532e-12,2.11266e-01,1.63807e-12,2.11266e-01
7.74965e+02,6.86000e+02,6.83000e+02,3.00000e+00,1.18445e-12,2.18811e-01,7.29906e-13,2.18811e-01,1.53428e-12,2.18811e-01
7.75216e+02,6.52000e+02,6.62000e+02,-1.00000e+01,1.69947e-12,2.26356e-01,1.21045e-12,2.26356e-01,7.71716e-13,2.26356e-01
7.75466e+02,6.92000e+02,7.42000e+02,-5.00000e+01,3.25705e-12,2.33901e-01,3.31648e-12,2.33901e-01,2.60615e-13,2.33901e-01
7.75717e+02,6.63000e+02,6.85000e+02,-2.20000e+01,4.61888e-12,2.41446e-01,4.32543e-12,2.41446e-01,9.14005e-13,2.41446e-01
7.75967e+02,6.81000e+02,6.69000e+02,1.20000e+01,4.56272e-12,2.48992e-01,3.27314e-12,2.48992e-01,3.38305e-12,2.48992e-01
7.76218e+02,6.70000e+02,6.98000e+02,-2.80000e+01,2.17254e-12,2.56537e-01,3.89144e-12,2.56537e-01,3.97527e-12,2.56537e-01
7.76468e+02,7.12000e+02,7.70000e+02,-5.80000e+01,3.20818e-12,2.64082e-01,4.38937e-12,2.64082e-01,1.28507e-12,2.64082e-01
7.76719e+02,7.28000e+02,6.94000e+02,3.40000e+01,4.49941e-12,2.71627e-01,3.33733e-12,2.71627e-01,1.29368e-12,2.71627e-01
7.76969e+02,7.06000e+02,6.93000e+02,1.30000e+01,2.26847e-12,2.79172e-01,6.65907e-13,2.79172e-01,1.65531e-12,2.79172e-01
7.77219e+02,7.06000e+02,7.88000e+02,-8.20000e+01,2.40441e-12,2.86718e-01,1.78069e-12,2.86718e-01,1.17309e-12,2.86718e-01
7.77470e+02,8.62000e+02,7.81000e+02,8.10000e+01,2.45364e-12,2.94263e-01,2.30816e-12,2.94263e-01,1.42342e-12,2.94263e-01
7.77720e+02,7.24000e+02,7.12000e+02,1.20000e+01,2.24056e-12,3.01808e-01,3.49217e-12,3.01808e-01,1.60263e-12,3.01808e-01
7.77971e+02,7.79000e+02,8.85000e+02,-1.06000e+02,4.27193e-12,3.09353e-01,4.47506e-12,3.09353e-01,3.64953e-13,3.09353e-01
7.78221e+02,8.62000e+02,8.19000e+02,4.30000e+01,4.32385e-12,3.16898e-01,3.43015e-12,3.16898e-01,1.11263e-12,3.16898e-01
7.78471e+02,8.56000e+02,7.79000e+02,7.70000e+01,2.50392e-12,3.24444e-01,2.50537e-12,3.24444e-01,7.31880e-13,3.24444e-01
7.78722e+02,7.54000e+02,8.78000e+02,-1.24000e+02,1.84594e-13,3.31989e-01,1.49117e-12,3.31989e-01,1.67526e-12,3.31989e-01
7.78972e+02,9.88000e+02,1.06700e+03,-7.90000e+01,2.79003e-12,3.39534e-01,5.92354e-13,3.39534e-01,2.86161e-12,3.39534e-01
7.79222e+02,9.78000e+02,8.21000e+02,1.57000e+02,4.13957e-12,3.47079e-01,2.05855e-12,3.47079e-01,2.20944e-12,3.47079e-01
7.79473e+02,8.22000e+02,8.84000e+02,-6.20000e+01,4.05230e-12,3.54624e-01,2.37400e-12,3.54624e-01,1.69114e-12,3.54624e-01
7.79723e+02,8.44000e+02,1.03900e+03,-1.95000e+02,4.37345e-12,3.62169e-01,2.35587e-12,3.62169e-01,2.04847e-12,3.62169e-01
7.79973e+02,1.09300e+03,9.70000e+02,1.23000e+02,4.27240e-12,3.69715e-01,1.94177e-12,3.69715e-01,2.33069e-12,3.69715e-01
7.80224e+02,8.80000e+02,8.56000e+02,2.40000e+01,1.95463e-12,3.77260e-01,6.58655e-13,3.77260e-01,1.33705e-12,3.77260e-01
7.80474e+02,9.05000e+02,1.14200e+03,-2.37000e+02,1.24434e-12,3.84805e-01,1.04025e-12,3.84805e-01,7.98957e-13,3.84805e-01
7.80724e+02,1.01200e+03,9.97000e+02,1.50000e+01,2.13125e-12,3.92350e-01,2.03930e-12,3.92350e-01,2.31911e-12,3.92350e-01
7.80974e+02,1.00000e+03,8.71000e+02,1.29000e+02,6.42988e-13,3.99895e-01,2.65780e-12,3.99895e-01,3.07858e-12,3.99895e-01
7.81225e+02,8.57000e+02,1.04900e+03,-1.92000e+02,1.19705e-12,4.07441e-01,3.42859e-12,4.07441e-01,2.89410e-12,4.07441e-01
7.81475e+02,1.30000e+03,1.41900e+03,-1.19000e+02,1.31683e-12,4.14986e-01,3.21385e-12,4.14986e-01,2.07633e-12,4.14986e-01
7.81725e+02,1.35900e+03,1.06900e+03,2.90000e+02,1.24161e-12,4.22531e-01,2.47290e-12,4.22531e-01,1.42759e-12,4.22531e-01
7.81975e+02,1.16200e+03,1.16700e+03,-5.00000e+00,1.88007e-12,4.30076e-01,1.72124e-12,4.30076e-01,1.16970e-12,4.30076e-01
7.82226e+02,1.13200e+03,1.41800e+03,-2.86000e+02,2.48804e-12,4.37621e-01,1.11848e-12,4.37621e-01,1.74276e-12,4.37621e-01
7.82476e+02,1.51800e+03,1.20600e+03,3.12000e+02,2.54645e-12,4.45167e-01,1.11459e-12,4.45167e-01,2.22916e-12,4.45167e-01
7.82726e+02,1.30400e+03,1.06700e+03,2.37000e+02,2.13054e-12,4.52712e-01,1.10889e-12,4.52712e-01,1.82554e-12,4.52712e-01
7.82976e+02,1.17700e+03,1.38400e+03,-2.07000e+02,2.14440e-12,4.60257e-01,6.38222e-13,4.60257e-01,2.19383e-12,4.60257e-01
7.83226e+02,1.37700e+03,1.25300e+03,1.24000e+02,2.07684e-12,4.67802e-01,1.80984e-12,4.67802e-01,2.89255e-12,4.67802e-01
7.83477e+02,1.53700e+03,1.15400e+03,3.83000e+02,1.41465e-12,4.75347e-01,1.29424e-12,4.75347e-01,1.56317e-12,4.75347e-01
7.83727e+02,1.14400e+03,1.27600e+03,-1.32000e+02,7.43232e-13,4.82893e-01,9.97637e-13,4.82893e-01,8.61428e-13,4.82893e-01
7.83977e+02,1.43000e+03,1.55200e+03,-1.22000e+02,4.98177e-13,4.90438e-01,1.90979e-12,4.90438e-01,1.59271e-12,4.90438e-01
7.84227e+02,1.64100e+03,1.24700e+03,3.94000e+02,2.84312e-13,4.97983e-01,7.93523e-13,4.97983e-01,6.15342e-13,4.97983e-01
7.84477e+02,1.41900e+03,1.37600e+03,4.30000e+01,9.67369e-13,5.05528e-01,1.61076e-12,5.05528e-01,1.09500e-12,5.05528e-01
7.84727e+02,1.53100e+03,1.81300e+03,-2.82000e+02,1.54164e-12,5.13073e-01,2.06481e-12,5.13073e-01,1.57465e-12,5.13073e-01
7.84978e+02,1.97400e+03,1.73600e+03,2.38000e+02,1.61430e-12,5.20619e-01,6.96360e-13,5.20619e-01,1.59756e-12,5.20619e-01
7.85228e+02,1.78400e+03,1.60800e+03,1.76000e+02,1.01823e-12,5.28164e-01,6.98973e-13,5.28164e-01,1.71206e-12,5.28164e-01
7.85478e+02,1.65300e+03,2.32200e+03,-6.69000e+02,8.07898e-13,5.35709e-01,4.86874e-13,5.35709e-01,1.09436e-12,5.35709e-01
7.85728e+02,2.36000e+03,2.32800e+03,3.20000e+01,5.81265e-13,5.43254e-01,1.79314e-13,5.43254e-01,7.49422e-13,5.43254e-01
7.85978e+02,2.41100e+03,1.74500e+03,6.66000e+02,7.89807e-13,5.50799e-01,6.25770e-13,5.50799e-01,2.13854e-13,5.50799e-01
7.86228e+02,1.71300e+03,1.98600e+03,-2.73000e+02,6.79730e-13,5.58345e-01,1.18013e-12,5.58345e-01,8.79252e-13,5.58345e-01
7.86478e+02,2.25800e+03,2.47100e+03,-2.13000e+02,4.68302e-13,5.65890e-01,1.68606e-12,5.65890e-01,2.10949e-12,5.65890e-01
7.86728e+02,2.60400e+03,1.95700e+03,6.47000e+02,1.05356e-12,5.73435e-01,1.52871e-12,5.73435e-01,2.41496e-12,5.73435e-01
7.86978e+02,1.90600e+03,1.78800e+03,1.18000e+02,8.13400e-13,5.80980e-01,6.52694e-13,5.80980e-01,1.28318e-12,5.80980e-01
7.87228e+02,1.91000e+03,2.50600e+03,-5.96000e+02,6.13896e-13,5.88525e-01,3.26456e-13,5.88525e-01,9.34072e-13,5.88525e-01
7.87478e+02,2.65500e+03,2.45400e+03,2.01000e+02,1.49492e-12,5.96071e-01,1.22094e-12,5.96071e-01,2.18417e-12,5.96071e-01
7.87728e+02,2.26100e+03,1.87200e+03,3.89000e+02,1.58194e-12,6.03616e-01,1.31500e-12,6.03616e-01,1.57521e-12,6.03616e-01
7.87978e+02,1.84300e+03,2.47600e+03,-6.33000e+02,1.14599e-12,6.11161e-01,3.63358e-13,6.11161e-01,1.31427e-12,6.11161e-01
7.88228e+02,2.32000e+03,2.48200e+03,-1.62000e+02,1.25060e-12,6.18706e-01,1.59352e-12,6.18706e-01,2.76666e-12,6.18706e-01
7.88478e+02,2.77300e+03,1.96500e+03,8.08000e+02,1.77928e-13,6.26251e-01,2.13757e-12,6.26251e-01,2.18963e-12,6.26251e-01
7.88728e+02,2.07100e+03,2.08100e+03,-1.00000e+01,8.96214e-13,6.33797e-01,3.29693e-12,6.33797e-01,2.77906e-12,6.33797e-01
7.88978e+02,2.42800e+03,2.84200e+03,-4.14000e+02,1.18170e-12,6.41342e-01,3.75748e-12,6.41342e-01,3.28736e-12,6.41342e-01
7.89228e+02,3.50700e+03,2.63400e+03,8.73000e+02,1.50463e-12,6.48887e-01,3.91023e-12,6.48887e-01,3.08865e-12,6.48887e-01
7.89478e+02,2.79600e+03,2.28900e+03,5.07000e+02,1.34901e-12,6.56432e-01,3.65154e-12,6.56432e-01,3.34862e-12,6.56432e-01
7.89728e+02,2.42900e+03,3.39000e+03,-9.61000e+02,9.35561e-13,6.63977e-01,3.48977e-12,6.63977e-01,4.02240e-12,6.63977e-01
7.89978e+02,3.71600e+03,3.67200e+03,4.40000e+01,3.85522e-12,6.71523e-01,3.02477e-12,6.71523e-01,6.67187e-12,6.71523e-01
7.90228e+02,3.49100e+03,2.55800e+03,9.33000e+02,8.96943e-12,6.79068e-01,7.01269e-12,6.79068e-01,1.36190e-11,6.79068e-01
7.90478e+02,2.64300e+03,3.03000e+03,-3.87000e+02,1.21903e-11,6.86613e-01,1.08751e-11,6.86613e-01,1.94354e-11,6.86613e-01
7.90728e+02,3.38500e+03,3.52900e+03,-1.44000e+02,1.58833e-11,6.94158e-01,1.40945e-11,6.94158e-01,2.52337e-11,6.94158e-01
7.90978e+02,4.54200e+03,3.07600e+03,1.46600e+03,2.04768e-11,7.01703e-01,1.77968e-11,7.01703e-01,3.18112e-11,7.01703e-01
7.91228e+02,3.47600e+03,2.89600e+03,5.80000e+02,2.45578e-11,7.09249e-01,2.22647e-11,7.09249e-01,3.79819e-11,7.09249e-01
7.91478e+02,3.26500e+03,3.88100e+03,-6.16000e+02,2.57675e-11,7.16794e-01,2.55446e-11,7.16794e-01,4.12024e-11,7.16794e-01
7.91728e+02,4.16300e+03,3.42000e+03,7.43000e+02,2.48193e-11,7.24339e-01,2.59828e-11,7.24339e-01,4.06804e-11,7.24339e-01
7.91977e+02,3.59600e+03,2.54600e+03,1.05000e+03,2.36078e-11,7.31884e-01,2.39377e-11,7.31884e-01,3.74495e-11,7.31884e-01
7.92227e+02,2.52700e+03,3.14700e+03,-6.20000e+02,2.07791e-11,7.39429e-01,1.99543e-11,7.39429e-01,3.15669e-11,7.39429e-01
7.92477e+02,3.67400e+03,3.99600e+03,-3.22000e+02,1.59566e-11,7.46975e-01,1.52356e-11,7.46975e-01,2.41032e-11,7.46975e-01
7.92727e+02,4.66500e+03,3.34100e+03,1.32400e+03,1.11311e-11,7.54520e-01,1.08416e-11,7.54520e-01,1.65012e-11,7.54520e-01
7.92977e+02,3.51400e+03,3.51800e+03,-4.00000e+00,7.07249e-12,7.62065e-01,6.82324e-12,7.62065e-01,9.88930e-12,7.62065e-01
7.93227e+02,3.50900e+03,4.56200e+03,-1.05300e+03,5.72637e-12,7.69610e-01,4.29807e-12,7.69610e-01,7.09900e-12,7.69610e-01
7.93476e+02,4.85200e+03,4.02100e+03,8.31000e+02,4.60456e-12,7.77155e-01,3.87196e-12,7.77155e-01,6.91104e-12,7.77155e-01
7.93726e+02,4.08900e+03,3.16100e+03,9.28000e+02,2.68854e-12,7.84701e-01,2.84466e-12,7.84701e-01,3.45152e-12,7.84701e-01
7.93976e+02,3.29900e+03,4.45300e+03,-1.15400e+03,2.16400e-12,7.92246e-01,7.67324e-13,7.92246e-01,2.79069e-12,7.92246e-01
7.94226e+02,4.93700e+03,4.84900e+03,8.80000e+01,8.35467e-13,7.99791e-01,1.44384e-12,7.99791e-01,1.69070e-12,7.99791e-01
7.94476e+02,5.54400e+03,3.67000e+03,1.87400e+03,1.70165e-12,8.07336e-01,1.35435e-12,8.07336e-01,2.16890e-12,8.07336e-01
7.94725e+02,3.52500e+03,3.42400e+03,1.01000e+02,7.79586e-13,8.14881e-01,4.09315e-13,8.14881e-01,9.48278e-13,8.14881e-01
7.94975e+02,3.55200e+03,4.77300e+03,-1.22100e+03,4.50996e-13,8.22427e-01,8.55492e-13,8.22427e-01,4.36730e-13,8.22427e-01
7.95225e+02,5.00600e+03,4.34100e+03,6.65000e+02,2.46377e-13,8.29972e-01,2.13130e-12,8.29972e-01,1.88522e-12,8.29972e-01
7.95475e+02,4.44100e+03,3.29300e+03,1.14800e+03,6.00903e-13,8.37517e-01,2.83519e-12,8.37517e-01,3.41516e-12,8.37517e-01
7.95724e+02,3.31700e+03,4.33500e+03,-1.01800e+03,1.10275e-12,8.45062e-01,2.80291e-12,8.45062e-01,3.89617e-12,8.45062e-01
7.95974e+02,4.72200e+03,5.22000e+03,-4.98000e+02,8.87000e-13,8.52607e-01,1.86688e-12,8.52607e-01,2.62202e-12,8.52607e-01
7.96224e+02,5.57300e+03,3.83200e+03,1.74100e+03,8.29885e-13,8.60153e-01,1.07149e-12,8.60153e-01,8.13181e-13,8.60153e-01
7.96474e+02,4.39600e+03,3.99700e+03,3.99000e+02,1.50118e-12,8.67698e-01,1.15146e-12,8.67698e-01,6.81099e-13,8.67698e-01
7.96723e+02,4.27900e+03,5.62500e+03,-1.34600e+03,1.49598e-12,8.75243e-01,1.33606e-12,8.75243e-01,1.55016e-12,8.75243e-01
7.96973e+02,5.72400e+03,4.62600e+03,1.09800e+03,1.06810e-12,8.82788e-01,1.75221e-12,8.82788e-01,2.22647e-12,8.82788e-01
7.97223e+02,5.45400e+03,3.63400e+03,1.82000e+03,8.59397e-13,8.90333e-01,1.96111e-12,8.90333e-01,1.90393e-12,8.90333e-01
7.97472e+02,3.82200e+03,5.16000e+03,-1.33800e+03,1.02430e-12,8.97879e-01,2.06624e-12,8.97879e-01,1.11542e-12,8.97879e-01
7.97722e+02,5.56700e+03,6.61800e+03,-1.05100e+03,1.99803e-12,9.05424e-01,2.36507e-12,9.05424e-01,1.03959e-12,9.05424e-01
7.97972e+02,6.89800e+03,5.30900e+03,1.58900e+03,2.68758e-12,9.12969e-01,2.51076e-12,9.12969e-01,1.26320e-12,9.12969e-01
7.98221e+02,4.93200e+03,5.70900e+03,-7.77000e+02,1.91671e-12,9.20514e-01,1.79472e-12,9.20514e-01,5.83666e-13,9.20514e-01
7.98471e+02,5.99400e+03,7.82000e+03,-1.82600e+03,9.51739e-13,9.28059e-01,1.05956e-12,9.28059e-01,2.50199e-13,9.28059e-01
7.98721e+02,8.46300e+03,6.20000e+03,2.26300e+03,9.03870e-13,9.35605e-01,8.24382e-13,9.35605e-01,2.88982e-13,9.35605e-01
7.98970e+02,7.04900e+03,4.65600e+03,2.39300e+03,7.57943e-13,9.43150e-01,5.89666e-13,9.43150e-01,1.33916e-12,9.43150e-01
7.99220e+02,4.84500e+03,6.54400e+03,-1.69900e+03,1.06190e-12,9.50695e-01,5.79810e-13,9.50695e-01,1.44331e-12,9.50695e-01
7.99469e+02,6.19400e+03,7.54500e+03,-1.35100e+03,7.82110e-13,9.58240e-01,7.52658e-13,9.58240e-01,3.64075e-13,9.58240e-01
7.99719e+02,7.49400e+03,5.15000e+03,2.34400e+03,4.80836e-13,9.65785e-01,1.30294e-12,9.65785e-01,8.89678e-13,9.65785e-01
7.99969e+02,4.93800e+03,4.46600e+03,4.72000e+02,1.29257e-13,9.73331e-01,1.13091e-12,9.73331e-01,1.03667e-12,9.73331e-01
8.00218e+02,4.63600e+03,6.65000e+03,-2.01400e+03,3.82864e-13,9.80876e-01,8.98930e-13,9.80876e-01,7.67187e-13,9.80876e-01
8.00468e+02,7.24500e+03,6.64200e+03,6.03000e+02,1.08034e-12,9.88421e-01,9.37563e-13,9.88421e-01,3.98239e-13,9.88421e-01
8.00717e+02,6.94400e+03,4.99700e+03,1.94700e+03,1.24905e-12,9.95966e-01,8.17907e-13,9.95966e-01,4.47553e-13,9.95966e-01
8.00967e+02,5.50900e+03,7.19300e+03,-1.68400e+03,3.81739e-13,1.00351e+00,3.88759e-13,1.00351e+00,3.77521e-13,1.00351e+00
8.01216e+02,7.48500e+03,9.20300e+03,-1.71800e+03,7.65627e-13,1.01106e+00,1.08813e-12,1.01106e+00,3.26317e-13,1.01106e+00
8.01466e+02,9.49800e+03,7.14700e+03,2.35100e+03,8.77614e-13,1.01860e+00,1.19602e-12,1.01860e+00,4.60584e-13,1.01860e+00
8.01715e+02,6.80200e+03,5.49900e+03,1.30300e+03,9.56842e-13,1.02615e+00,1.04642e-12,1.02615e+00,1.27473e-12,1.02615e+00
8.01965e+02,5.85600e+03,7.90900e+03,-2.05300e+03,1.02085e-12,1.03369e+00,7.32502e-13,1.03369e+00,1.28119e-12,1.03369e+00
8.02215e+02,8.36000e+03,8.55700e+03,-1.97000e+02,7.27513e-13,1.04124e+00,5.39313e-13,1.04124e+00,1.17752e-12,1.04124e+00
8.02464e+02,8.82600e+03,6.29000e+03,2.53600e+03,1.14020e-12,1.04878e+00,9.11780e-14,1.04878e+00,1.06732e-12,1.04878e+00
8.02713e+02,6.76200e+03,8.79700e+03,-2.03500e+03,1.57775e-12,1.05633e+00,6.16606e-13,1.05633e+00,1.03288e-12,1.05633e+00
8.02963e+02,9.42500e+03,1.23580e+04,-2.93300e+03,6.61048e-13,1.06387e+00,7.96631e-13,1.06387e+00,9.87283e-13,1.06387e+00
8.03212e+02,1.24580e+04,9.63800e+03,2.82000e+03,1.66208e-13,1.07142e+00,5.33137e-13,1.07142e+00,6.60398e-13,1.07142e+00
8.03462e+02,9.53900e+03,7.66200e+03,1.87700e+03,3.51841e-13,1.07896e+00,4.24028e-13,1.07896e+00,5.18506e-13,1.07896e+00
8.03711e+02,6.69700e+03,1.05160e+04,-3.81900e+03,7.10715e-13,1.08651e+00,8.27631e-13,1.08651e+00,2.35762e-13,1.08651e+00
8.03961e+02,9.39700e+03,1.08180e+04,-1.42100e+03,1.04579e-12,1.09405e+00,8.55088e-13,1.09405e+00,3.39265e-13,1.09405e+00
8.04210e+02,1.02140e+04,7.04700e+03,3.16700e+03,1.09704e-12,1.10160e+00,7.15455e-13,1.10160e+00,4.68374e-13,1.10160e+00
8.04460e+02,6.87500e+03,7.07400e+03,-1.99000e+02,6.87400e-13,1.10914e+00,8.08121e-13,1.10914e+00,3.77422e-13,1.10914e+00
8.04709e+02,7.02600e+03,1.01300e+04,-3.10400e+03,2.37568e-13,1.11669e+00,9.26797e-13,1.11669e+00,7.17906e-13,1.11669e+00
8.04958e+02,9.92900e+03,8.73400e+03,1.19500e+03,3.95237e-13,1.12423e+00,4.12952e-13,1.12423e+00,6.35992e-13,1.12423e+00
8.05208e+02,9.12100e+03,5.91200e+03,3.20900e+03,2.38647e-13,1.13178e+00,4.55252e-13,1.13178e+00,6.82337e-13,1.13178e+00
8.05457e+02,6.38000e+03,8.42000e+03,-2.04000e+03,4.66493e-13,1.13932e+00,3.19646e-13,1.13932e+00,6.28954e-13,1.13932e+00
8.05707e+02,8.97700e+03,1.10980e+04,-2.12100e+03,8.30192e-13,1.14687e+00,2.86537e-13,1.14687e+00,1.05424e-12,1.14687e+00
8.05956e+02,1.15560e+04,8.36500e+03,3.19100e+03,8.55633e-13,1.15442e+00,9.42370e-13,1.15442e+00,1.18294e-12,1.15442e+00
8.06205e+02,8.56000e+03,7.22900e+03,1.33100e+03,6.31421e-13,1.16196e+00,8.95824e-13,1.16196e+00,6.33431e-13,1.16196e+00
8.06455e+02,7.17700e+03,1.00190e+04,-2.84200e+03,4.45795e-13,1.16951e+00,5.74735e-13,1.16951e+00,1.49675e-13,1.16951e+00
8.06704e+02,1.07390e+04,1.01080e+04,6.31000e+02,3.04372e-13,1.17705e+00,3.90593e-13,1.17705e+00,3.43449e-13,1.17705e+00
8.06953e+02,1.12370e+04,7.26500e+03,3.97200e+03,2.73958e-13,1.18460e+00,3.61580e-13,1.18460e+00,6.10215e-13,1.18460e+00
8.07203e+02,7.40900e+03,8.26200e+03,-8.53000e+02,3.41264e-13,1.19214e+00,7.31749e-14,1.19214e+00,2.72956e-13,1.19214e+00
8.07452e+02,8.20600e+03,1.10670e+04,-2.86100e+03,2.25433e-13,1.19969e+00,7.22723e-13,1.19969e+00,5.24866e-13,1.19969e+00
8.07701e+02,1.07490e+04,8.73200e+03,2.01700e+03,1.75068e-13,1.20723e+00,9.15487e-13,1.20723e+00,1.01561e-12,1.20723e+00
8.07951e+02,8.70600e+03,6.40800e+03,2.29800e+03,6.23971e-13,1.21478e+00,9.24368e-13,1.21478e+00,1.24812e-12,1.21478e+00
8.08200e+02,6.52200e+03,8.86200e+03,-2.34000e+03,9.32351e-13,1.22232e+00,7.89082e-13,1.22232e+00,9.14570e-13,1.22232e+00
8.08449e+02,9.72900e+03,1.04860e+04,-7.57000e+02,7.17592e-13,1.22987e+00,9.34241e-13,1.22987e+00,4.78864e-13,1.22987e+00
8.08698e+02,1.19860e+04,8.13100e+03,3.85500e+03,5.12076e-13,1.23741e+00,9.81929e-13,1.23741e+00,4.87145e-13,1.23741e+00
8.08948e+02,8.55700e+03,7.91400e+03,6.43000e+02,5.11671e-13,1.24496e+00,6.72052e-13,1.24496e+00,1.60434e-13,1.24496e+00
8.09197e+02,8.22300e+03,1.21130e+04,-3.89000e+03,4.27772e-13,1.25250e+00,2.06062e-13,1.25250e+00,4.34122e-13,1.25250e+00
8.09446e+02,1.19330e+04,1.14940e+04,4.39000e+02,5.53640e-13,1.26005e+00,1.92009e-13,1.26005e+00,7.01501e-13,1.26005e+00
8.09695e+02,1.10710e+04,7.65500e+03,3.41600e+03,8.53994e-13,1.26759e+00,3.33136e-13,1.26759e+00,7.91526e-13,1.26759e+00
8.09945e+02,7.71000e+03,1.04980e+04,-2.78800e+03,6.24678e-13,1.27514e+00,4.15624e-13,1.27514e+00,5.66803e-13,1.27514e+00
8.10194e+02,9.97800e+03,1.32340e+04,-3.25600e+03,7.09675e-13,1.28268e+00,3.87338e-13,1.28268e+00,3.55623e-13,1.28268e+00
8.10443e+02,1.31950e+04,9.75200e+03,3.44300e+03,3.43570e-13,1.29023e+00,2.76409e-13,1.29023e+00,6.77593e-14,1.29023e+00
8.10692e+02,1.00400e+04,8.60600e+03,1.43400e+03,3.06335e-13,1.29777e+00,3.01625e-13,1.29777e+00,2.09908e-13,1.29777e+00
8.10941e+02,8.21300e+03,1.34630e+04,-5.25000e+03,3.67960e-13,1.30532e+00,3.97091e-13,1.30532e+00,7.53793e-14,1.30532e+00
8.11191e+02,1.13770e+04,1.26040e+04,-1.22700e+03,1.63851e-13,1.31286e+00,2.33290e-13,1.31286e+00,1.02151e-13,1.31286e+00
8.11440e+02,1.23650e+04,8.35900e+03,4.00600e+03,1.66342e-12,-1.32041e+00,1.68556e-12,-1.32041e+00,2.21467e-14,-1.32041e+00
8.11689e+02,9.50200e+03,9.68900e+03,-1.87000e+02,1.63851e-13,-1.31286e+00,2.33290e-13,-1.31286e+00,1.02151e-13,-1.31286e+00
8.11938e+02,9.54100e+03,1.28820e+04,-3.34100e+03,3.67960e-13,-1.30532e+00,3.97091e-13,-1.30532e+00,7.53793e-14,-1.30532e+00
8.12187e+02,1.38100e+04,1.10650e+04,2.74500e+03,3.06335e-13,-1.29777e+00,3.01625e-13,-1.29777e+00,2.09908e-13,-1.29777e+00
8.12436e+02,1.18990e+04,7.69700e+03,4.20200e+03,3.43570e-13,-1.29023e+00,2.76409e-13,-1.29023e+00,6.77593e-14,-1.29023e+00
8.12685e+02,7.83900e+03,9.52600e+03,-1.68700e+03,7.09675e-13,-1.28268e+00,3.87338e-13,-1.28268e+00,3.55623e-13,-1.28268e+00
8.12935e+02,1.00110e+04,1.22970e+04,-2.28600e+03,6.24678e-13,-1.27514e+00,4.15624e-13,-1.27514e+00,5.66803e-13,-1.27514e+00
8.13184e+02,1.29010e+04,9.97900e+03,2.92200e+03,8.53994e-13,-1.26759e+00,3.33136e-13,-1.26759e+00,7.91526e-13,-1.26759e+00
8.13433e+02,9.55200e+03,7.42400e+03,2.12800e+03,5.53640e-13,-1.26005e+00,1.92009e-13,-1.26005e+00,7.01501e-13,-1.26005e+00
8.13682e+02,7.74100e+03,1.16930e+04,-3.95200e+03,4.27772e-13,-1.25250e+00,2.06062e-13,-1.25250e+00,4.34122e-13,-1.25250e+00
8.13931e+02,1.15690e+04,1.32610e+04,-1.69200e+03,5.11671e-13,-1.24496e+00,6.72052e-13,-1.24496e+00,1.60434e-13,-1.24496e+00
8.14180e+02,1.20330e+04,8.75100e+03,3.28200e+03,5.12076e-13,-1.23741e+00,9.81929e-13,-1.23741e+00,4.87145e-13,-1.23741e+00
8.14429e+02,8.42400e+03,8.31600e+03,1.08000e+02,7.17592e-13,-1.22987e+00,9.34241e-13,-1.22987e+00,4.78864e-13,-1.22987e+00
8.14678e+02,7.69700e+03,1.15910e+04,-3.89400e+03,9.32351e-13,-1.22232e+00,7.89082e-13,-1.22232e+00,9.14570e-13,-1.22232e+00
8.14927e+02,1.06480e+04,9.64900e+03,9.99000e+02,6.23971e-13,-1.21478e+00,9.24368e-13,-1.21478e+00,1.24812e-12,-1.21478e+00
8.15176e+02,1.04340e+04,7.04600e+03,3.38800e+03,1.75068e-13,-1.20723e+00,9.15487e-13,-1.20723e+00,1.01561e-12,-1.20723e+00
8.15425e+02,7.03800e+03,8.88700e+03,-1.84900e+03,2.25433e-13,-1.19969e+00,7.22723e-13,-1.19969e+00,5.24866e-13,-1.19969e+00
8.15674e+02,8.04500e+03,1.09700e+04,-2.92500e+03,3.41264e-13,-1.19214e+00,7.31749e-14,-1.19214e+00,2.72956e-13,-1.19214e+00
8.15923e+02,1.24210e+04,9.20400e+03,3.21700e+03,2.73958e-13,-1.18460e+00,3.61580e-13,-1.18460e+00,6.10215e-13,-1.18460e+00
8.16172e+02,9.04700e+03,6.98000e+03,2.06700e+03,3.04372e-13,-1.17705e+00,3.90593e-13,-1.17705e+00,3.43449e-13,-1.17705e+00
8.16421e+02,6.30200e+03,9.62000e+03,-3.31800e+03,4.45795e-13,-1.16951e+00,5.74735e-13,-1.16951e+00,1.49675e-13,-1.16951e+00
8.16670e+02,9.01400e+03,9.56700e+03,-5.53000e+02,6.31421e-13,-1.16196e+00,8.95824e-13,-1.16196e+00,6.33431e-13,-1.16196e+00
8.16919e+02,1.03750e+04,7.09200e+03,3.28300e+03,8.55633e-13,-1.15442e+00,9.42370e-13,-1.15442e+00,1.18294e-12,-1.15442e+00
8.17168e+02,7.16100e+03,6.69100e+03,4.70000e+02,8.30192e-13,-1.14687e+00,2.86537e-13,-1.14687e+00,1.05424e-12,-1.14687e+00
8.17417e+02,6.31900e+03,9.35500e+03,-3.03600e+03,4.66493e-13,-1.13932e+00,3.19646e-13,-1.13932e+00,6.28954e-13,-1.13932e+00
8.17666e+02,9.37100e+03,9.00400e+03,3.67000e+02,2.38647e-13,-1.13178e+00,4.55252e-13,-1.13178e+00,6.82337e-13,-1.13178e+00
8.17915e+02,9.80100e+03,6.15100e+03,3.65000e+03,3.95237e-13,-1.12423e+00,4.12952e-13,-1.12423e+00,6.35992e-13,-1.12423e+00
8.18164e+02,6.39500e+03,7.11400e+03,-7.19000e+02,2.37568e-13,-1.11669e+00,9.26797e-13,-1.11669e+00,7.17906e-13,-1.11669e+00
8.18413e+02,6.46900e+03,9.33300e+03,-2.86400e+03,6.87400e-13,-1.10914e+00,8.08121e-13,-1.10914e+00,3.77422e-13,-1.10914e+00
8.18662e+02,8.20000e+03,6.89600e+03,1.30400e+03,1.09704e-12,-1.10160e+00,7.15455e-13,-1.10160e+00,4.68374e-13,-1.10160e+00
8.18911e+02,7.44800e+03,5.12500e+03,2.32300e+03,1.04579e-12,-1.09405e+00,8.55088e-13,-1.09405e+00,3.39265e-13,-1.09405e+00
8.19160e+02,5.12900e+03,7.19500e+03,-2.06600e+03,7.10715e-13,-1.08651e+00,8.27631e-13,-1.08651e+00,2.35762e-13,-1.08651e+00
8.19408e+02,6.82700e+03,9.10200e+03,-2.27500e+03,3.51841e-13,-1.07896e+00,4.24028e-13,-1.07896e+00,5.18506e-13,-1.07896e+00
8.19657e+02,1.02540e+04,6.96100e+03,3.29300e+03,1.66208e-13,-1.07142e+00,5.33137e-13,-1.07142e+00,6.60398e-13,-1.07142e+00
8.19906e+02,8.17600e+03,5.98000e+03,2.19600e+03,6.61048e-13,-1.06387e+00,7.96631e-13,-1.06387e+00,9.87283e-13,-1.06387e+00
8.20155e+02,5.83200e+03,8.91900e+03,-3.08700e+03,1.57775e-12,-1.05633e+00,6.16606e-13,-1.05633e+00,1.03288e-12,-1.05633e+00
8.20404e+02,7.75200e+03,9.30500e+03,-1.55300e+03,1.14020e-12,-1.04878e+00,9.11780e-14,-1.04878e+00,1.06732e-12,-1.04878e+00
8.20653e+02,8.58400e+03,5.86400e+03,2.72000e+03,7.27513e-13,-1.04124e+00,5.39313e-13,-1.04124e+00,1.17752e-12,-1.04124e+00
8.20901e+02,6.22400e+03,5.95800e+03,2.66000e+02,1.02085e-12,-1.03369e+00,7.32502e-13,-1.03369e+00,1.28119e-12,-1.03369e+00
8.21150e+02,5.37100e+03,9.23800e+03,-3.86700e+03,9.56842e-13,-1.02615e+00,1.04642e-12,-1.02615e+00,1.27473e-12,-1.02615e+00
8.21399e+02,7.34400e+03,7.71400e+03,-3.70000e+02,8.77614e-13,-1.01860e+00,1.19602e-12,-1.01860e+00,4.60584e-13,-1.01860e+00
8.21648e+02,8.03500e+03,5.08700e+03,2.94800e+03,7.65627e-13,-1.01106e+00,1.08813e-12,-1.01106e+00,3.26317e-13,-1.01106e+00
8.21897e+02,5.46400e+03,5.79500e+03,-3.31000e+02,3.81739e-13,-1.00351e+00,3.88759e-13,-1.00351e+00,3.77521e-13,-1.00351e+00
8.22145e+02,4.79500e+03,7.64900e+03,-2.85400e+03,1.24905e-12,-9.95966e-01,8.17907e-13,-9.95966e-01,4.47553e-13,-9.95966e-01
8.22394e+02,7.23300e+03,6.85400e+03,3.79000e+02,1.08034e-12,-9.88421e-01,9.37563e-13,-9.88421e-01,3.98239e-13,-9.88421e-01
8.22643e+02,6.88100e+03,4.41200e+03,2.46900e+03,3.82864e-13,-9.80876e-01,8.98930e-13,-9.80876e-01,7.67187e-13,-9.80876e-01
8.22892e+02,4.66900e+03,5.45200e+03,-7.83000e+02,1.29257e-13,-9.73331e-01,1.13091e-12,-9.73331e-01,1.03667e-12,-9.73331e-01
8.23140e+02,5.48100e+03,7.27000e+03,-1.78900e+03,4.80836e-13,-9.65785e-01,1.30294e-12,-9.65785e-01,8.89678e-13,-9.65785e-01
8.23389e+02,7.63000e+03,6.06000e+03,1.57000e+03,7.82110e-13,-9.58240e-01,7.52658e-13,-9.58240e-01,3.64075e-13,-9.58240e-01
8.23638e+02,6.62200e+03,4.44800e+03,2.17400e+03,1.06190e-12,-9.50695e-01,5.79810e-13,-9.50695e-01,1.44331e-12,-9.50695e-01
8.23887e+02,4.21600e+03,6.36100e+03,-2.14500e+03,7.57943e-13,-9.43150e-01,5.89666e-13,-9.43150e-01,1.33916e-12,-9.43150e-01
8.24135e+02,5.18800e+03,6.52500e+03,-1.33700e+03,9.03870e-13,-9.35605e-01,8.24382e-13,-9.35605e-01,2.88982e-13,-9.35605e-01
8.24384e+02,6.63100e+03,4.90300e+03,1.72800e+03,9.51739e-13,-9.28059e-01,1.05956e-12,-9.28059e-01,2.50199e-13,-9.28059e-01
8.24633e+02,5.34400e+03,4.31600e+03,1.02800e+03,1.91671e-12,-9.20514e-01,1.79472e-12,-9.20514e-01,5.83666e-13,-9.20514e-01
8.24881e+02,3.96900e+03,6.11100e+03,-2.14200e+03,2.68758e-12,-9.12969e-01,2.51076e-12,-9.12969e-01,1.26320e-12,-9.12969e-01
8.25130e+02,5.44100e+03,6.70400e+03,-1.26300e+03,1.99803e-12,-9.05424e-01,2.36507e-12,-9.05424e-01,1.03959e-12,-9.05424e-01
8.25379e+02,6.37500e+03,4.31400e+03,2.06100e+03,1.02430e-12,-8.97879e-01,2.06624e-12,-8.97879e-01,1.11542e-12,-8.97879e-01
8.25627e+02,4.16700e+03,3.94200e+03,2.25000e+02,8.59397e-13,-8.90333e-01,1.96111e-12,-8.90333e-01,1.90393e-12,-8.90333e-01
8.25876e+02,3.34500e+03,5.63300e+03,-2.28800e+03,1.06810e-12,-8.82788e-01,1.75221e-12,-8.82788e-01,2.22647e-12,-8.82788e-01
8.26125e+02,4.89000e+03,5.41300e+03,-5.23000e+02,1.49598e-12,-8.75243e-01,1.33606e-12,-8.75243e-01,1.55016e-12,-8.75243e-01
8.26373e+02,4.78000e+03,3.38800e+03,1.39200e+03,1.50118e-12,-8.67698e-01,1.15146e-12,-8.67698e-01,6.81099e-13,-8.67698e-01
8.26622e+02,3.29700e+03,3.49400e+03,-1.97000e+02,8.29885e-13,-8.60153e-01,1.07149e-12,-8.60153e-01,8.13181e-13,-8.60153e-01
8.26870e+02,2.82800e+03,4.21400e+03,-1.38600e+03,8.87000e-13,-8.52607e-01,1.86688e-12,-8.52607e-01,2.62202e-12,-8.52607e-01
8.27119e+02,4.00600e+03,3.72200e+03,2.84000e+02,1.10275e-12,-8.45062e-01,2.80291e-12,-8.45062e-01,3.89617e-12,-8.45062e-01
8.27368e+02,4.35500e+03,2.73700e+03,1.61800e+03,6.00903e-13,-8.37517e-01,2.83519e-12,-8.37517e-01,3.41516e-12,-8.37517e-01
8.27616e+02,3.01100e+03,3.02000e+03,-9.00000e+00,2.46377e-13,-8.29972e-01,2.13130e-12,-8.29972e-01,1.88522e-12,-8.29972e-01
8.27865e+02,3.02300e+03,4.19900e+03,-1.17600e+03,4.50996e-13,-8.22427e-01,8.55492e-13,-8.22427e-01,4.36730e-13,-8.22427e-01
8.28113e+02,4.36300e+03,3.80200e+03,5.61000e+02,7.79586e-13,-8.14881e-01,4.09315e-13,-8.14881e-01,9.48278e-13,-8.14881e-01
8.28362e+02,4.44400e+03,2.63100e+03,1.81300e+03,1.70165e-12,-8.07336e-01,1.35435e-12,-8.07336e-01,2.16890e-12,-8.07336e-01
8.28610e+02,2.61300e+03,3.14500e+03,-5.32000e+02,8.35467e-13,-7.99791e-01,1.44384e-12,-7.99791e-01,1.69070e-12,-7.99791e-01
8.28859e+02,2.66600e+03,3.94200e+03,-1.27600e+03,2.16400e-12,-7.92246e-01,7.67324e-13,-7.92246e-01,2.79069e-12,-7.92246e-01
8.29108e+02,3.40000e+03,2.99800e+03,4.02000e+02,2.68854e-12,-7.84701e-01,2.84466e-12,-7.84701e-01,3.45152e-12,-7.84701e-01
8.29356e+02,2.65300e+03,1.98600e+03,6.67000e+02,4.60456e-12,-7.77155e-01,3.87196e-12,-7.77155e-01,6.91104e-12,-7.77155e-01
8.29605e+02,1.81500e+03,2.36400e+03,-5.49000e+02,5.72637e-12,-7.69610e-01,4.29807e-12,-7.69610e-01,7.09900e-12,-7.69610e-01
8.29853e+02,2.33800e+03,2.61200e+03,-2.74000e+02,7.07249e-12,-7.62065e-01,6.82324e-12,-7.62065e-01,9.88930e-12,-7.62065e-01
8.30101e+02,2.93500e+03,2.05300e+03,8.82000e+02,1.11311e-11,-7.54520e-01,1.08416e-11,-7.54520e-01,1.65012e-11,-7.54520e-01
8.30350e+02,2.41000e+03,2.10300e+03,3.07000e+02,1.59566e-11,-7.46975e-01,1.52356e-11,-7.46975e-01,2.41032e-11,-7.46975e-01
8.30598e+02,1.68100e+03,2.55500e+03,-8.74000e+02,2.07791e-11,-7.39429e-01,1.99543e-11,-7.39429e-01,3.15669e-11,-7.39429e-01
8.30847e+02,2.20300e+03,2.50400e+03,-3.01000e+02,2.36078e-11,-7.31884e-01,2.39377e-11,-7.31884e-01,3.74495e-11,-7.31884e-01
8.31095e+02,2.47500e+03,1.85200e+03,6.23000e+02,2.48193e-11,-7.24339e-01,2.59828e-11,-7.24339e-01,4.06804e-11,-7.24339e-01
8.31344e+02,1.74300e+03,1.79400e+03,-5.10000e+01,2.57675e-11,-7.16794e-01,2.55446e-11,-7.16794e-01,4.12024e-11,-7.16794e-01
8.31592e+02,1.47000e+03,2.36800e+03,-8.98000e+02,2.45578e-11,-7.09249e-01,2.22647e-11,-7.09249e-01,3.79819e-11,-7.09249e-01
8.31841e+02,2.07700e+03,2.27800e+03,-2.01000e+02,2.04768e-11,-7.01703e-01,1.77968e-11,-7.01703e-01,3.18112e-11,-7.01703e-01
8.32089e+02,2.10900e+03,1.52300e+03,5.86000e+02,1.58833e-11,-6.94158e-01,1.40945e-11,-6.94158e-01,2.52337e-11,-6.94158e-01
8.32337e+02,1.55000e+03,1.59000e+03,-4.00000e+01,1.21903e-11,-6.86613e-01,1.08751e-11,-6.86613e-01,1.94354e-11,-6.86613e-01
8.32586e+02,1.37200e+03,1.96100e+03,-5.89000e+02,8.96943e-12,-6.79068e-01,7.01269e-12,-6.79068e-01,1.36190e-11,-6.79068e-01
8.32834e+02,1.94100e+03,2.00000e+03,-5.90000e+01,3.85522e-12,-6.71523e-01,3.02477e-12,-6.71523e-01,6.67187e-12,-6.71523e-01
8.33083e+02,1.81100e+03,1.27200e+03,5.39000e+02,9.35561e-13,-6.63977e-01,3.48977e-12,-6.63977e-01,4.02240e-12,-6.63977e-01
8.33331e+02,1.24600e+03,1.35300e+03,-1.07000e+02,1.34901e-12,-6.56432e-01,3.65154e-12,-6.56432e-01,3.34862e-12,-6.56432e-01
8.33579e+02,1.14500e+03,1.58600e+03,-4.41000e+02,1.50463e-12,-6.48887e-01,3.91023e-12,-6.48887e-01,3.08865e-12,-6.48887e-01
8.33828e+02,1.49200e+03,1.36100e+03,1.31000e+02,1.18170e-12,-6.41342e-01,3.75748e-12,-6.41342e-01,3.28736e-12,-6.41342e-01
8.34076e+02,1.32500e+03,9.82000e+02,3.43000e+02,8.96214e-13,-6.33797e-01,3.29693e-12,-6.33797e-01,2.77906e-12,-6.33797e-01
8.34324e+02,1.06100e+03,1.32700e+03,-2.66000e+02,1.77928e-13,-6.26251e-01,2.13757e-12,-6.26251e-01,2.18963e-12,-6.26251e-01
8.34573e+02,1.02500e+03,1.56200e+03,-5.37000e+02,1.25060e-12,-6.18706e-01,1.59352e-12,-6.18706e-01,2.76666e-12,-6.18706e-01
8.34821e+02,1.37100e+03,1.32200e+03,4.90000e+01,1.14599e-12,-6.11161e-01,3.63358e-13,-6.11161e-01,1.31427e-12,-6.11161e-01
8.35069e+02,1.26700e+03,9.63000e+02,3.04000e+02,1.58194e-12,-6.03616e-01,1.31500e-12,-6.03616e-01,1.57521e-12,-6.03616e-01
8.35318e+02,9.91000e+02,1.22000e+03,-2.29000e+02,1.49492e-12,-5.96071e-01,1.22094e-12,-5.96071e-01,2.18417e-12,-5.96071e-01
8.35566e+02,9.05000e+02,1.30500e+03,-4.00000e+02,6.13896e-13,-5.88525e-01,3.26456e-13,-5.88525e-01,9.34072e-13,-5.88525e-01
8.35814e+02,1.14200e+03,1.04000e+03,1.02000e+02,8.13400e-13,-5.80980e-01,6.52694e-13,-5.80980e-01,1.28318e-12,-5.80980e-01
8.36062e+02,9.61000e+02,7.87000e+02,1.74000e+02,1.05356e-12,-5.73435e-01,1.52871e-12,-5.73435e-01,2.41496e-12,-5.73435e-01
8.36311e+02,8.01000e+02,9.73000e+02,-1.72000e+02,4.68302e-13,-5.65890e-01,1.68606e-12,-5.65890e-01,2.10949e-12,-5.65890e-01
8.36559e+02,8.41000e+02,1.12800e+03,-2.87000e+02,6.79730e-13,-5.58345e-01,1.18013e-12,-5.58345e-01,8.79252e-13,-5.58345e-01
8.36807e+02,1.08000e+03,9.56000e+02,1.24000e+02,7.89807e-13,-5.50799e-01,6.25770e-13,-5.50799e-01,2.13854e-13,-5.50799e-01
8.37055e+02,9.15000e+02,7.53000e+02,1.62000e+02,5.81265e-13,-5.43254e-01,1.79314e-13,-5.43254e-01,7.49422e-13,-5.43254e-01
8.37304e+02,7.52000e+02,8.65000e+02,-1.13000e+02,8.07898e-13,-5.35709e-01,4.86874e-13,-5.35709e-01,1.09436e-12,-5.35709e-01
8.37552e+02,7.64000e+02,8.83000e+02,-1.19000e+02,1.01823e-12,-5.28164e-01,6.98973e-13,-5.28164e-01,1.71206e-12,-5.28164e-01
8.37800e+02,9.21000e+02,8.20000e+02,1.01000e+02,1.61430e-12,-5.20619e-01,6.96360e-13,-5.20619e-01,1.59756e-12,-5.20619e-01
8.38048e+02,7.46000e+02,6.84000e+02,6.20000e+01,1.54164e-12,-5.13073e-01,2.06481e-12,-5.13073e-01,1.57465e-12,-5.13073e-01
8.38296e+02,7.04000e+02,7.32000e+02,-2.80000e+01,9.67369e-13,-5.05528e-01,1.61076e-12,-5.05528e-01,1.09500e-12,-5.05528e-01
8.38545e+02,7.09000e+02,7.80000e+02,-7.10000e+01,2.84312e-13,-4.97983e-01,7.93523e-13,-4.97983e-01,6.15342e-13,-4.97983e-01
8.38793e+02,7.82000e+02,7.18000e+02,6.40000e+01,4.98177e-13,-4.90438e-01,1.90979e-12,-4.90438e-01,1.59271e-12,-4.90438e-01
8.39041e+02,6.98000e+02,6.68000e+02,3.00000e+01,7.43232e-13,-4.82893e-01,9.97637e-13,-4.82893e-01,8.61428e-13,-4.82893e-01
8.39289e+02,6.68000e+02,7.32000e+02,-6.40000e+01,1.41465e-12,-4.75347e-01,1.29424e-12,-4.75347e-01,1.56317e-12,-4.75347e-01
8.39537e+02,6.80000e+02,7.31000e+02,-5.10000e+01,2.07684e-12,-4.67802e-01,1.80984e-12,-4.67802e-01,2.89255e-12,-4.67802e-01
8.39785e+02,7.32000e+02,6.93000e+02,3.90000e+01,2.14440e-12,-4.60257e-01,6.38222e-13,-4.60257e-01,2.19383e-12,-4.60257e-01
8.40033e+02,6.73000e+02,6.62000e+02,1.10000e+01,2.13054e-12,-4.52712e-01,1.10889e-12,-4.52712e-01,1.82554e-12,-4.52712e-01
8.40281e+02,6.69000e+02,7.29000e+02,-6.00000e+01,2.54645e-12,-4.45167e-01,1.11459e-12,-4.45167e-01,2.22916e-12,-4.45167e-01
8.40530e+02,6.46000e+02,6.78000e+02,-3.20000e+01,2.48804e-12,-4.37621e-01,1.11848e-12,-4.37621e-01,1.74276e-12,-4.37621e-01
8.40778e+02,6.88000e+02,6.55000e+02,3.30000e+01,1.88007e-12,-4.30076e-01,1.72124e-12,-4.30076e-01,1.16970e-12,-4.30076e-01
8.41026e+02,6.54000e+02,6.47000e+02,7.00000e+00,1.24161e-12,-4.22531e-01,2.47290e-12,-4.22531e-01,1.42759e-12,-4.22531e-01
8.41274e+02,6.34000e+02,6.68000e+02,-3.40000e+01,1.31683e-12,-4.14986e-01,3.21385e-12,-4.14986e-01,2.07633e-12,-4.14986e-01
8.41522e+02,6.49000e+02,6.71000e+02,-2.20000e+01,1.19705e-12,-4.07441e-01,3.42859e-12,-4.07441e-01,2.89410e-12,-4.07441e-01
8.41770e+02,6.72000e+02,6.52000e+02,2.00000e+01,6.42988e-13,-3.99895e-01,2.65780e-12,-3.99895e-01,3.07858e-12,-3.99895e-01
8.42018e+02,6.35000e+02,6.46000e+02,-1.10000e+01,2.13125e-12,-3.92350e-01,2.03930e-12,-3.92350e-01,2.31911e-12,-3.92350e-01
8.42266e+02,6.40000e+02,6.67000e+02,-2.70000e+01,1.24434e-12,-3.84805e-01,1.04025e-12,-3.84805e-01,7.98957e-13,-3.84805e-01
8.42514e+02,6.52000e+02,6.48000e+02,4.00000e+00,1.95463e-12,-3.77260e-01,6.58655e-13,-3.77260e-01,1.33705e-12,-3.77260e-01
8.42762e+02,6.88000e+02,6.72000e+02,1.60000e+01,4.27240e-12,-3.69715e-01,1.94177e-12,-3.69715e-01,2.33069e-12,-3.69715e-01
8.43010e+02,6.24000e+02,6.18000e+02,6.00000e+00,4.37345e-12,-3.62169e-01,2.35587e-12,-3.62169e-01,2.04847e-12,-3.62169e-01
8.43258e+02,6.53000e+02,6.44000e+02,9.00000e+00,4.05230e-12,-3.54624e-01,2.37400e-12,-3.54624e-01,1.69114e-12,-3.54624e-01
8.43506e+02,6.33000e+02,6.29000e+02,4.00000e+00,4.13957e-12,-3.47079e-01,2.05855e-12,-3.47079e-01,2.20944e-12,-3.47079e-01
8.43754e+02,6.37000e+02,6.47000e+02,-1.00000e+01,2.79003e-12,-3.39534e-01,5.92354e-13,-3.39534e-01,2.86161e-12,-3.39534e-01
8.44002e+02,6.28000e+02,6.41000e+02,-1.30000e+01,1.84594e-13,-3.31989e-01,1.49117e-12,-3.31989e-01,1.67526e-12,-3.31989e-01
8.44250e+02,6.33000e+02,6.42000e+02,-9.00000e+00,2.50392e-12,-3.24444e-01,2.50537e-12,-3.24444e-01,7.31880e-13,-3.24444e-01
8.44498e+02,6.35000e+02,6.47000e+02,-1.20000e+01,4.32385e-12,-3.16898e-01,3.43015e-12,-3.16898e-01,1.11263e-12,-3.16898e-01
8.44746e+02,6.43000e+02,6.43000e+02,0.00000e+00,4.27193e-12,-3.09353e-01,4.47506e-12,-3.09353e-01,3.64953e-13,-3.09353e-01
8.44994e+02,6.30000e+02,6.40000e+02,-1.00000e+01,2.24056e-12,-3.01808e-01,3.49217e-12,-3.01808e-01,1.60263e-12,-3.01808e-01
8.45242e+02,6.58000e+02,6.58000e+02,0.00000e+00,2.45364e-12,-2.94263e-01,2.30816e-12,-2.94263e-01,1.42342e-12,-2.94263e-01
8.45490e+02,6.17000e+02,6.20000e+02,-3.00000e+00,2.40441e-12,-2.86718e-01,1.78069e-12,-2.86718e-01,1.17309e-12,-2.86718e-01
8.45738e+02,6.46000e+02,6.32000e+02,1.40000e+01,2.26847e-12,-2.79172e-01,6.65907e-13,-2.79172e-01,1.65531e-12,-2.79172e-01
8.45985e+02,6.30000e+02,6.26000e+02,4.00000e+00,4.49941e-12,-2.71627e-01,3.33733e-12,-2.71627e-01,1.29368e-12,-2.71627e-01
8.46233e+02,6.23000e+02,6.50000e+02,-2.70000e+01,3.20818e-12,-2.64082e-01,4.38937e-12,-2.64082e-01,1.28507e-12,-2.64082e-01
8.46481e+02,6.36000e+02,6.41000e+02,-5.00000e+00,2.17254e-12,-2.56537e-01,3.89144e-12,-2.56537e-01,3.97527e-12,-2.56537e-01
8.46729e+02,6.36000e+02,6.43000e+02,-7.00000e+00,4.56272e-12,-2.48992e-01,3.27314e-12,-2.48992e-01,3.38305e-12,-2.48992e-01
8.46977e+02,6.26000e+02,6.35000e+02,-9.00000e+00,4.61888e-12,-2.41446e-01,4.32543e-12,-2.41446e-01,9.14005e-13,-2.41446e-01
8.47225e+02,6.36000e+02,6.35000e+02,1.00000e+00,3.25705e-12,-2.33901e-01,3.31648e-12,-2.33901e-01,2.60615e-13,-2.33901e-01
8.47473e+02,6.29000e+02,6.23000e+02,6.00000e+00,1.69947e-12,-2.26356e-01,1.21045e-12,-2.26356e-01,7.71716e-13,-2.26356e-01
8.47720e+02,6.55000e+02,6.68000e+02,-1.30000e+01,1.18445e-12,-2.18811e-01,7.29906e-13,-2.18811e-01,1.53428e-12,-2.18811e-01
8.47968e+02,6.24000e+02,6.21000e+02,3.00000e+00,1.86734e-12,-2.11266e-01,2.31532e-12,-2.11266e-01,1.63807e-12,-2.11266e-01
8.48216e+02,6.32000e+02,6.21000e+02,1.10000e+01,2.03515e-12,-2.03720e-01,1.96502e-12,-2.03720e-01,1.67285e-12,-2.03720e-01
8.48464e+02,6.31000e+02,6.24000e+02,7.00000e+00,2.54534e-12,-1.96175e-01,2.78065e-12,-1.96175e-01,2.38423e-12,-1.96175e-01
8.48712e+02,6.31000e+02,6.44000e+02,-1.30000e+01,3.31373e-12,-1.88630e-01,4.70498e-12,-1.88630e-01,3.35439e-12,-1.88630e-01
8.48960e+02,6.21000e+02,6.32000e+02,-1.10000e+01,4.05477e-12,-1.81085e-01,5.29404e-12,-1.81085e-01,3.49054e-12,-1.81085e-01
8.49207e+02,6.27000e+02,6.32000e+02,-5.00000e+00,4.06782e-12,-1.73540e-01,5.23267e-12,-1.73540e-01,2.60308e-12,-1.73540e-01
8.49455e+02,6.26000e+02,6.25000e+02,1.00000e+00,1.73585e-12,-1.65994e-01,3.78413e-12,-1.65994e-01,2.30484e-12,-1.65994e-01
8.49703e+02,6.28000e+02,6.33000e+02,-5.00000e+00,6.24067e-12,-1.58449e-01,5.18844e-12,-1.58449e-01,2.36156e-12,-1.58449e-01
8.49951e+02,6.20000e+02,6.20000e+02,0.00000e+00,6.76731e-12,-1.50904e-01,6.46305e-12,-1.50904e-01,9.58815e-13,-1.50904e-01
8.50198e+02,6.53000e+02,6.69000e+02,-1.60000e+01,3.44886e-12,-1.43359e-01,3.92737e-12,-1.43359e-01,7.69998e-13,-1.43359e-01
8.50446e+02,6.21000e+02,6.28000e+02,-7.00000e+00,1.40278e-12,-1.35814e-01,6.59551e-13,-1.35814e-01,1.90899e-12,-1.35814e-01
8.50694e+02,6.32000e+02,6.35000e+02,-3.00000e+00,2.05964e-12,-1.28268e-01,2.88957e-12,-1.28268e-01,3.67512e-12,-1.28268e-01
8.50941e+02,6.31000e+02,6.31000e+02,0.00000e+00,2.02300e-12,-1.20723e-01,5.61603e-12,-1.20723e-01,4.24536e-12,-1.20723e-01
8.51189e+02,6.27000e+02,6.31000e+02,-4.00000e+00,2.32442e-12,-1.13178e-01,5.64827e-12,-1.13178e-01,3.33339e-12,-1.13178e-01
8.51437e+02,6.17000e+02,6.25000e+02,-8.00000e+00,3.36915e-12,-1.05633e-01,4.40580e-12,-1.05633e-01,1.63889e-12,-1.05633e-01
8.51685e+02,6.22000e+02,6.34000e+02,-1.20000e+01,3.17273e-12,-9.80876e-02,3.41688e-12,-9.80876e-02,1.32487e-12,-9.80876e-02
8.51932e+02,6.32000e+02,6.26000e+02,6.00000e+00,2.97934e-12,-9.05424e-02,3.85780e-12,-9.05424e-02,2.22366e-12,-9.05424e-02
8.52180e+02,6.26000e+02,6.30000e+02,-4.00000e+00,3.56468e-12,-8.29972e-02,4.95945e-12,-8.29972e-02,2.35008e-12,-8.29972e-02
8.52428e+02,6.30000e+02,6.41000e+02,-1.10000e+01,4.59937e-12,-7.54520e-02,6.12165e-12,-7.54520e-02,1.52798e-12,-7.54520e-02
8.52675e+02,6.54000e+02,6.56000e+02,-2.00000e+00,7.30317e-12,-6.79068e-02,8.94735e-12,-6.79068e-02,1.64631e-12,-6.79068e-02
8.52923e+02,6.33000e+02,6.06000e+02,2.70000e+01,8.32105e-12,-6.03616e-02,1.02176e-11,-6.03616e-02,2.11389e-12,-6.03616e-02
8.53170e+02,6.42000e+02,6.14000e+02,2.80000e+01,7.09472e-12,-5.28164e-02,8.40651e-12,-5.28164e-02,1.70516e-12,-5.28164e-02
8.53418e+02,6.23000e+02,6.33000e+02,-1.00000e+01,2.93718e-12,-4.52712e-02,2.87162e-12,-4.52712e-02,3.04922e-13,-4.52712e-02
8.53666e+02,6.37000e+02,6.28000e+02,9.00000e+00,4.97548e-12,-3.77260e-02,4.11848e-12,-3.77260e-02,1.49890e-12,-3.77260e-02
8.53913e+02,6.24000e+02,6.21000e+02,3.00000e+00,5.40912e-12,-3.01808e-02,5.17902e-12,-3.01808e-02,1.76653e-12,-3.01808e-02
8.54161e+02,6.38000e+02,6.33000e+02,5.00000e+00,1.82889e-11,-2.26356e-02,1.79889e-11,-2.26356e-02,1.44138e-12,-2.26356e-02
8.54409e+02,6.36000e+02,6.20000e+02,1.60000e+01,8.44001e-11,-1.50904e-02,8.49441e-11,-1.50904e-02,1.76143e-12,-1.50904e-02
8.54656e+02,6.33000e+02,6.45000e+02,-1.20000e+01,2.32223e-10,-7.54520e-03,2.30585e-10,-7.54520e-03,3.64963e-12,-7.54520e-03
