7.67698e+02,6.34000e+02,6.25000e+02,9.00000e+00,3.83175e-10,0.00000e+00,3.88114e-10,0.00000e+00,4.93901e-12,0.00000e+00
7.67949e+02,6.64000e+02,6.64000e+02,0.00000e+00,2.26830e-10,7.54520e-03,2.29618e-10,7.54520e-03,1.09606e-11,7.54520e-03
7.68199e+02,6.39000e+02,6.13000e+02,2.60000e+01,7.91471e-11,1.50904e-02,7.83716e-11,1.50904e-02,1.09431e-11,1.50904e-02
7.68450e+02,6.43000e+02,6.22000e+02,2.10000e+01,1.40455e-11,2.26356e-02,1.42748e-11,2.26356e-02,7.50918e-12,2.26356e-02
7.68701e+02,6.28000e+02,6.12000e+02,1.60000e+01,2.02386e-12,3.01808e-02,2.53402e-12,3.01808e-02,3.89968e-12,3.01808e-02
7.68951e+02,6.17000e+02,6.28000e+02,-1.10000e+01,1.24366e-12,3.77260e-02,1.90416e-13,3.77260e-02,1.06380e-12,3.77260e-02
7.69202e+02,6.28000e+02,6.25000e+02,3.00000e+00,6.62012e-12,4.52712e-02,5.33639e-12,4.52712e-02,1.54542e-12,4.52712e-02
7.69453e+02,6.18000e+02,6.29000e+02,-1.10000e+01,9.84319e-12,5.28164e-02,8.98905e-12,5.28164e-02,1.62230e-12,5.28164e-02
7.69703e+02,6.15000e+02,6.43000e+02,-2.80000e+01,7.87149e-12,6.03616e-02,6.27911e-12,6.03616e-02,2.09826e-12,6.03616e-02
7.69954e+02,6.28000e+02,6.55000e+02,-2.70000e+01,3.70123e-12,6.79068e-02,9.54713e-13,6.79068e-02,2.93810e-12,6.79068e-02
7.70205e+02,6.28000e+02,6.57000e+02,-2.90000e+01,3.97984e-13,7.54520e-02,2.94517e-12,7.54520e-02,3.28372e-12,7.54520e-02
7.70455e+02,6.53000e+02,7.06000e+02,-5.30000e+01,7.89656e-13,8.29972e-02,2.04499e-12,8.29972e-02,2.76068e-12,8.29972e-02
7.70706e+02,6.13000e+02,6.56000e+02,-4.30000e+01,1.71361e-12,9.05424e-02,2.03374e-12,9.05424e-02,1.28642e-12,9.05424e-02
7.70957e+02,6.60000e+02,6.58000e+02,2.00000e+00,2.93947e-12,9.80876e-02,2.62711e-12,9.80876e-02,2.59971e-12,9.80876e-02
7.71207e+02,6.71000e+02,6.50000e+02,2.10000e+01,4.25781e-12,1.05633e-01,1.52295e-12,1.05633e-01,5.77837e-12,1.05633e-01
7.71458e+02,6.77000e+02,6.36000e+02,4.10000e+01,4.22336e-12,1.13178e-01,3.56154e-12,1.13178e-01,5.45587e-12,1.13178e-01
7.71708e+02,6.86000e+02,6.15000e+02,7.10000e+01,4.45756e-12,1.20723e-01,1.87921e-12,1.20723e-01,2.61858e-12,1.20723e-01
7.71959e+02,6.88000e+02,6.21000e+02,6.70000e+01,5.04563e-12,1.28268e-01,6.76760e-12,1.28268e-01,1.14902e-11,1.28268e-01
7.72210e+02,6.57000e+02,6.14000e+02,4.30000e+01,1.07823e-11,1.35814e-01,1.34053e-11,1.35814e-01,2.40260e-11,1.35814e-01
7.72460e+02,6.44000e+02,6.42000e+02,2.00000e+00,1.28374e-11,1.43359e-01,1.75916e-11,1.43359e-01,2.95740e-11,1.43359e-01
7.72711e+02,6.25000e+02,6.44000e+02,-1.90000e+01,2.80548e-11,1.50904e-01,2.74891e-11,1.50904e-01,5.51504e-11,1.50904e-01
7.72961e+02,6.51000e+02,7.37000e+02,-8.60000e+01,7.30455e-11,1.58449e-01,6.93855e-11,1.58449e-01,1.37300e-10,1.58449e-01
7.73212e+02,6.23000e+02,6.97000e+02,-7.40000e+01,1.08954e-10,1.65994e-01,1.14035e-10,1.65994e-01,2.11310e-10,1.65994e-01
7.73462e+02,6.20000e+02,7.45000e+02,-1.25000e+02,1.09068e-10,1.73540e-01,1.19568e-10,1.73540e-01,2.13962e-10,1.73540e-01
7.73713e+02,6.41000e+02,7.24000e+02,-8.30000e+01,7.38667e-11,1.81085e-01,7.71041e-11,1.81085e-01,1.38323e-10,1.81085e-01
7.73963e+02,6.62000e+02,7.12000e+02,-5.00000e+01,3.70728e-11,1.88630e-01,3.37959e-11,1.88630e-01,6.52551e-11,1.88630e-01
7.74214e+02,6.81000e+02,6.96000e+02,-1.50000e+01,1.00771e-11,1.96175e-01,9.01247e-12,1.96175e-01,1.80216e-11,1.96175e-01
7.74465e+02,7.46000e+02,6.83000e+02,6.30000e+01,5.07124e-12,2.03720e-01,6.61678e-12,2.03720e-01,1.01482e-11,2.03720e-01
7.74715e+02,7.57000e+02,6.40000e+02,1.17000e+02,7.07407e-12,2.11266e-01,5.44855e-12,2.11266e-01,9.02818e-12,2.11266e-01
7.74965e+02,7.83000e+02,6.27000e+02,1.56000e+02,7.26784e-13,2.18811e-01,2.74350e-12,2.18811e-01,2.08588e-12,2.18811e-01
7.75216e+02,7.16000e+02,6.24000e+02,9.20000e+01,5.68020e-12,2.26356e-01,3.69607e-12,2.26356e-01,6.24628e-12,2.26356e-01
7.75466e+02,7.44000e+02,6.61000e+02,8.30000e+01,4.84589e-12,2.33901e-01,1.95441e-12,2.33901e-01,2.89538e-12,2.33901e-01
7.75717e+02,6.58000e+02,6.32000e+02,2.60000e+01,3.93870e-12,2.41446e-01,3.92794e-12,2.41446e-01,5.36562e-13,2.41446e-01
7.75967e+02,6.42000e+02,6.87000e+02,-4.50000e+01,4.77130e-12,2.48992e-01,3.92817e-12,2.48992e-01,1.02556e-12,2.48992e-01
7.76218e+02,6.32000e+02,7.52000e+02,-1.20000e+02,1.49391e-12,2.56537e-01,1.40748e-12,2.56537e-01,1.00254e-12,2.56537e-01
7.76468e+02,6.18000e+02,8.45000e+02,-2.27000e+02,2.96383e-12,2.64082e-01,9.67456e-13,2.64082e-01,2.05755e-12,2.64082e-01
7.76719e+02,6.24000e+02,8.78000e+02,-2.54000e+02,3.53111e-12,2.71627e-01,2.36130e-12,2.71627e-01,2.12566e-12,2.71627e-01
7.76969e+02,6.68000e+02,9.37000e+02,-2.69000e+02,1.24519e-12,2.79172e-01,3.04279e-12,2.79172e-01,2.45003e-12,2.79172e-01
7.77219e+02,7.28000e+02,8.55000e+02,-1.27000e+02,1.40474e-12,2.86718e-01,3.96341e-12,2.86718e-01,3.16075e-12,2.86718e-01
7.77470e+02,8.88000e+02,8.99000e+02,-1.10000e+01,2.27174e-12,2.94263e-01,3.94719e-12,2.94263e-01,3.18012e-12,2.94263e-01
7.77720e+02,9.71000e+02,7.59000e+02,2.12000e+02,2.64135e-12,3.01808e-01,4.28737e-12,3.01808e-01,1.72176e-12,3.01808e-01
7.77971e+02,1.16500e+03,7.33000e+02,4.32000e+02,5.53573e-12,3.09353e-01,6.32025e-12,3.09353e-01,5.09836e-12,3.09353e-01
7.78221e+02,1.10600e+03,6.31000e+02,4.75000e+02,7.45094e-12,3.16898e-01,6.36724e-12,3.16898e-01,7.56031e-12,3.16898e-01
7.78471e+02,1.11400e+03,6.30000e+02,4.84000e+02,7.85778e-12,3.24444e-01,5.82255e-12,3.24444e-01,7.72382e-12,3.24444e-01
7.78722e+02,9.65000e+02,6.46000e+02,3.19000e+02,6.86765e-12,3.31989e-01,5.82887e-12,3.31989e-01,5.24770e-12,3.31989e-01
7.78972e+02,9.01000e+02,7.17000e+02,1.84000e+02,6.42915e-12,3.39534e-01,5.64389e-12,3.39534e-01,2.33924e-12,3.39534e-01
7.79222e+02,7.43000e+02,8.06000e+02,-6.30000e+01,5.86194e-12,3.47079e-01,5.19408e-12,3.47079e-01,3.91736e-12,3.47079e-01
7.79473e+02,6.84000e+02,1.02200e+03,-3.38000e+02,4.61595e-12,3.54624e-01,4.91156e-12,3.54624e-01,7.02450e-12,3.54624e-01
7.79723e+02,6.28000e+02,1.21100e+03,-5.83000e+02,2.81619e-12,3.62169e-01,4.06262e-12,3.62169e-01,6.53800e-12,3.62169e-01
7.79973e+02,6.60000e+02,1.49800e+03,-8.38000e+02,1.29039e-12,3.69715e-01,3.55400e-12,3.69715e-01,3.69461e-12,3.69715e-01
7.80224e+02,7.00000e+02,1.56600e+03,-8.66000e+02,1.85306e-12,3.77260e-01,2.87273e-12,3.77260e-01,1.44908e-12,3.77260e-01
7.80474e+02,9.12000e+02,1.68200e+03,-7.70000e+02,1.67530e-12,3.84805e-01,3.10318e-12,3.84805e-01,1.63111e-12,3.84805e-01
7.80724e+02,1.00700e+03,1.36600e+03,-3.59000e+02,1.78992e-12,3.92350e-01,1.85489e-12,3.92350e-01,2.01791e-12,3.92350e-01
7.80974e+02,1.35500e+03,1.19300e+03,1.62000e+02,1.81350e-12,3.99895e-01,1.52694e-12,3.99895e-01,3.33478e-12,3.99895e-01
7.81225e+02,1.64800e+03,9.80000e+02,6.68000e+02,2.06932e-12,4.07441e-01,2.75153e-12,4.07441e-01,4.57230e-12,4.07441e-01
7.81475e+02,1.91000e+03,8.25000e+02,1.08500e+03,3.15676e-12,4.14986e-01,1.62140e-12,4.14986e-01,3.71025e-12,4.14986e-01
7.81725e+02,1.82900e+03,6.93000e+02,1.13600e+03,2.40589e-12,4.22531e-01,6.93502e-13,4.22531e-01,1.83589e-12,4.22531e-01
7.81975e+02,1.82900e+03,6.51000e+02,1.17800e+03,1.36616e-12,4.30076e-01,4.77925e-13,4.30076e-01,1.67257e-12,4.30076e-01
7.82226e+02,1.58800e+03,6.82000e+02,9.06000e+02,1.59555e-12,4.37621e-01,1.27600e-12,4.37621e-01,2.58125e-12,4.37621e-01
7.82476e+02,1.24200e+03,8.26000e+02,4.16000e+02,1.16987e-12,4.45167e-01,7.63623e-13,4.45167e-01,1.58960e-12,4.45167e-01
7.82726e+02,9.25000e+02,1.13800e+03,-2.13000e+02,1.95972e-13,4.52712e-01,3.06584e-13,4.52712e-01,1.29199e-13,4.52712e-01
7.82976e+02,7.60000e+02,1.49700e+03,-7.37000e+02,9.43835e-13,4.60257e-01,8.21931e-13,4.60257e-01,2.59473e-13,4.60257e-01
7.83226e+02,6.44000e+02,1.70400e+03,-1.06000e+03,5.32787e-13,4.67802e-01,5.96605e-13,4.67802e-01,3.44981e-13,4.67802e-01
7.83477e+02,6.98000e+02,2.16500e+03,-1.46700e+03,7.03348e-13,4.75347e-01,6.60492e-13,4.75347e-01,6.95664e-13,4.75347e-01
7.83727e+02,8.14000e+02,2.21000e+03,-1.39600e+03,2.45913e-12,4.82893e-01,5.97168e-13,4.82893e-01,1.87196e-12,4.82893e-01
7.83977e+02,1.25100e+03,2.24400e+03,-9.93000e+02,3.47693e-12,4.90438e-01,1.43773e-12,4.90438e-01,2.80954e-12,4.90438e-01
7.84227e+02,1.71600e+03,2.06000e+03,-3.44000e+02,2.40414e-12,4.97983e-01,2.11609e-12,4.97983e-01,2.87681e-12,4.97983e-01
7.84477e+02,2.28100e+03,1.87300e+03,4.08000e+02,1.10477e-12,5.05528e-01,2.32926e-12,5.05528e-01,2.54977e-12,5.05528e-01
7.84727e+02,2.46200e+03,1.33200e+03,1.13000e+03,8.96593e-13,5.13073e-01,2.37075e-12,5.13073e-01,2.21836e-12,5.13073e-01
7.84978e+02,2.94800e+03,1.01000e+03,1.93800e+03,2.12765e-12,5.20619e-01,2.64791e-12,5.20619e-01,2.17638e-12,5.20619e-01
7.85228e+02,3.17400e+03,7.44000e+02,2.43000e+03,3.46492e-12,5.28164e-01,3.06846e-12,5.28164e-01,2.20452e-12,5.28164e-01
7.85478e+02,3.03600e+03,7.34000e+02,2.30200e+03,3.10401e-12,5.35709e-01,3.17478e-12,5.35709e-01,1.56943e-12,5.35709e-01
7.85728e+02,2.63700e+03,8.33000e+02,1.80400e+03,1.37344e-12,5.43254e-01,2.72672e-12,5.43254e-01,1.37769e-12,5.43254e-01
7.85978e+02,1.99600e+03,1.39800e+03,5.98000e+02,1.65749e-13,5.50799e-01,1.90928e-12,5.50799e-01,2.06317e-12,5.50799e-01
7.86228e+02,1.24600e+03,2.02700e+03,-7.81000e+02,4.99543e-13,5.58345e-01,9.52525e-13,5.58345e-01,1.44869e-12,5.58345e-01
7.86478e+02,8.42000e+02,2.63100e+03,-1.78900e+03,9.81955e-13,5.65890e-01,1.17308e-12,5.65890e-01,2.00591e-12,5.65890e-01
7.86728e+02,7.10000e+02,3.14700e+03,-2.43700e+03,1.15814e-12,5.73435e-01,9.77756e-13,5.73435e-01,1.50098e-12,5.73435e-01
7.86978e+02,8.42000e+02,3.31300e+03,-2.47100e+03,1.39757e-12,5.80980e-01,6.52044e-13,5.80980e-01,7.47919e-13,5.80980e-01
7.87228e+02,1.24400e+03,3.55700e+03,-2.31300e+03,1.40469e-12,5.88525e-01,1.20476e-12,5.88525e-01,1.30288e-12,5.88525e-01
7.87478e+02,1.99900e+03,3.40300e+03,-1.40400e+03,1.28494e-12,5.96071e-01,1.20071e-12,5.96071e-01,1.03475e-12,5.96071e-01
7.87728e+02,2.72000e+03,2.85700e+03,-1.37000e+02,9.86656e-13,6.03616e-01,7.44058e-13,6.03616e-01,2.98169e-13,6.03616e-01
7.87978e+02,3.65700e+03,2.51900e+03,1.13800e+03,7.72305e-13,6.11161e-01,2.77466e-13,6.11161e-01,7.10074e-13,6.11161e-01
7.88228e+02,3.98500e+03,1.68200e+03,2.30300e+03,8.16842e-13,6.18706e-01,7.06896e-13,6.18706e-01,7.84343e-13,6.18706e-01
7.88478e+02,4.58000e+03,1.15400e+03,3.42600e+03,1.30128e-12,6.26251e-01,2.04522e-12,6.26251e-01,7.58329e-13,6.26251e-01
7.88728e+02,4.42800e+03,7.97000e+02,3.63100e+03,1.93897e-12,6.33797e-01,3.06189e-12,6.33797e-01,1.12460e-12,6.33797e-01
7.88978e+02,3.79200e+03,8.23000e+02,2.96900e+03,2.31883e-12,6.41342e-01,3.03800e-12,6.41342e-01,7.61465e-13,6.41342e-01
7.89228e+02,3.25500e+03,1.17100e+03,2.08400e+03,1.94582e-12,6.48887e-01,2.91200e-12,6.48887e-01,1.20159e-12,6.48887e-01
7.89478e+02,2.42800e+03,2.04500e+03,3.83000e+02,9.42181e-13,6.56432e-01,2.49751e-12,6.56432e-01,1.83177e-12,6.56432e-01
7.89728e+02,1.52500e+03,3.04700e+03,-1.52200e+03,8.18619e-13,6.63977e-01,1.88711e-12,6.63977e-01,1.20885e-12,6.63977e-01
7.89978e+02,1.01700e+03,4.11000e+03,-3.09300e+03,1.31089e-12,6.71523e-01,1.05686e-12,6.71523e-01,3.07519e-13,6.71523e-01
7.90228e+02,8.38000e+02,4.59600e+03,-3.75800e+03,1.58602e-12,6.79068e-01,5.77123e-13,6.79068e-01,1.55400e-12,6.79068e-01
7.90478e+02,1.24200e+03,5.12500e+03,-3.88300e+03,1.14523e-12,6.86613e-01,3.12290e-13,6.86613e-01,1.42399e-12,6.86613e-01
7.90728e+02,1.96400e+03,5.38300e+03,-3.41900e+03,1.23242e-12,6.94158e-01,8.84411e-13,6.94158e-01,1.21639e-12,6.94158e-01
7.90978e+02,3.28200e+03,5.56700e+03,-2.28500e+03,1.39612e-12,7.01703e-01,1.47319e-12,7.01703e-01,1.32795e-12,7.01703e-01
7.91228e+02,4.52200e+03,4.66100e+03,-1.39000e+02,8.27930e-14,7.09249e-01,9.63786e-13,7.09249e-01,9.33238e-13,7.09249e-01
7.91478e+02,5.38500e+03,3.49300e+03,1.89200e+03,1.08461e-12,7.16794e-01,5.71704e-13,7.16794e-01,6.85213e-13,7.16794e-01
7.91728e+02,5.66800e+03,2.18700e+03,3.48100e+03,1.04799e-12,7.24339e-01,4.66619e-13,7.24339e-01,9.88423e-13,7.24339e-01
7.91977e+02,5.64600e+03,1.40400e+03,4.24200e+03,2.50343e-13,7.31884e-01,1.12298e-12,7.31884e-01,1.36941e-12,7.31884e-01
7.92227e+02,5.06100e+03,8.77000e+02,4.18400e+03,4.98310e-13,7.39429e-01,1.96606e-12,7.39429e-01,1.47484e-12,7.39429e-01
7.92477e+02,5.14500e+03,1.00100e+03,4.14400e+03,9.38172e-13,7.46975e-01,1.73974e-12,7.46975e-01,8.04814e-13,7.46975e-01
7.92727e+02,4.60000e+03,1.58800e+03,3.01200e+03,1.01219e-12,7.54520e-01,5.01629e-13,7.54520e-01,7.61086e-13,7.54520e-01
7.92977e+02,3.39400e+03,2.58000e+03,8.14000e+02,3.36372e-13,7.62065e-01,9.21069e-13,7.62065e-01,1.25680e-12,7.62065e-01
7.93227e+02,1.94000e+03,3.55300e+03,-1.61300e+03,6.27780e-13,7.69610e-01,1.55814e-12,7.69610e-01,1.60801e-12,7.69610e-01
7.93476e+02,1.23600e+03,4.71400e+03,-3.47800e+03,5.32058e-13,7.77155e-01,1.09335e-12,7.77155e-01,1.32764e-12,7.77155e-01
7.93726e+02,9.80000e+02,5.95400e+03,-4.97400e+03,3.86126e-13,7.84701e-01,8.82735e-13,7.84701e-01,6.55123e-13,7.84701e-01
7.93976e+02,1.36500e+03,6.80400e+03,-5.43900e+03,8.69996e-13,7.92246e-01,1.73892e-12,7.92246e-01,1.83108e-12,7.92246e-01
7.94226e+02,2.27800e+03,7.03700e+03,-4.75900e+03,1.07969e-12,7.99791e-01,1.12516e-12,7.99791e-01,2.12189e-12,7.99791e-01
7.94476e+02,3.71700e+03,7.28400e+03,-3.56700e+03,5.27010e-13,8.07336e-01,9.46343e-13,8.07336e-01,1.39400e-12,8.07336e-01
7.94725e+02,4.74000e+03,5.73400e+03,-9.94000e+02,2.05225e-13,8.14881e-01,1.09995e-12,8.14881e-01,9.27716e-13,8.14881e-01
7.94975e+02,6.06500e+03,4.57100e+03,1.49400e+03,7.06485e-13,8.22427e-01,1.33959e-12,8.22427e-01,8.84665e-13,8.22427e-01
7.95225e+02,7.18700e+03,3.38300e+03,3.80400e+03,1.29812e-12,8.29972e-01,1.01493e-12,8.29972e-01,6.04768e-13,8.29972e-01
7.95475e+02,7.54400e+03,2.18000e+03,5.36400e+03,1.14461e-12,8.37517e-01,5.12738e-13,8.37517e-01,6.35970e-13,8.37517e-01
7.95724e+02,7.33300e+03,1.21800e+03,6.11500e+03,6.42472e-13,8.45062e-01,3.89817e-13,8.45062e-01,2.53000e-13,8.45062e-01
7.95974e+02,7.07900e+03,1.05100e+03,6.02800e+03,5.84724e-13,8.52607e-01,5.72525e-13,8.52607e-01,3.70477e-13,8.52607e-01
7.96224e+02,6.36500e+03,1.46800e+03,4.89700e+03,7.04291e-13,8.60153e-01,2.21744e-13,8.60153e-01,6.76296e-13,8.60153e-01
7.96474e+02,5.33000e+03,2.53400e+03,2.79600e+03,1.17796e-12,8.67698e-01,6.34502e-13,8.67698e-01,1.07787e-12,8.67698e-01
7.96723e+02,3.48900e+03,3.69700e+03,-2.08000e+02,1.51083e-12,8.75243e-01,4.94772e-13,8.75243e-01,1.18928e-12,8.75243e-01
7.96973e+02,2.15300e+03,5.35400e+03,-3.20100e+03,1.22860e-12,8.82788e-01,4.17259e-13,8.82788e-01,8.34033e-13,8.82788e-01
7.97223e+02,1.31600e+03,7.50500e+03,-6.18900e+03,1.03853e-12,8.90333e-01,8.38791e-13,8.90333e-01,2.23879e-13,8.90333e-01
7.97472e+02,1.25900e+03,8.51800e+03,-7.25900e+03,9.22092e-13,8.97879e-01,1.17059e-12,8.97879e-01,3.74780e-13,8.97879e-01
7.97722e+02,1.96500e+03,1.02570e+04,-8.29200e+03,6.69934e-13,9.05424e-01,1.44006e-12,9.05424e-01,7.88210e-13,9.05424e-01
7.97972e+02,3.68900e+03,1.08970e+04,-7.20800e+03,1.28329e-12,9.12969e-01,1.95997e-12,9.12969e-01,6.79891e-13,9.12969e-01
7.98221e+02,5.69900e+03,9.95900e+03,-4.26000e+03,1.26794e-12,9.20514e-01,1.52260e-12,9.20514e-01,3.83349e-13,9.20514e-01
7.98471e+02,7.84800e+03,8.10700e+03,-2.59000e+02,9.39922e-13,9.28059e-01,8.12087e-13,9.28059e-01,3.06213e-13,9.28059e-01
7.98721e+02,1.01870e+04,6.48200e+03,3.70500e+03,9.05389e-13,9.35605e-01,1.60548e-12,9.35605e-01,8.03657e-13,9.35605e-01
7.98970e+02,1.20120e+04,4.95500e+03,7.05700e+03,7.98004e-13,9.43150e-01,1.10811e-12,9.43150e-01,5.83544e-13,9.43150e-01
7.99220e+02,1.25850e+04,3.22500e+03,9.36000e+03,8.59005e-13,9.50695e-01,7.31440e-13,9.50695e-01,3.63087e-13,9.50695e-01
7.99469e+02,1.17190e+04,1.84200e+03,9.87700e+03,3.82193e-13,9.58240e-01,9.72885e-13,9.58240e-01,5.91226e-13,9.58240e-01
7.99719e+02,1.05580e+04,1.30200e+03,9.25600e+03,6.96822e-13,9.65785e-01,5.55533e-13,9.65785e-01,9.64268e-13,9.65785e-01
7.99969e+02,8.69600e+03,1.86500e+03,6.83100e+03,6.64650e-13,9.73331e-01,3.81531e-13,9.73331e-01,1.04397e-12,9.73331e-01
8.00218e+02,7.16500e+03,3.20500e+03,3.96000e+03,6.83755e-13,9.80876e-01,5.61300e-13,9.80876e-01,7.04059e-13,9.80876e-01
8.00468e+02,5.09200e+03,5.24300e+03,-1.51000e+02,9.86946e-13,9.88421e-01,9.69406e-13,9.88421e-01,3.68802e-13,9.88421e-01
8.00717e+02,2.92600e+03,7.57600e+03,-4.65000e+03,8.00261e-13,9.95966e-01,9.72235e-13,9.95966e-01,5.27346e-13,9.95966e-01
8.00967e+02,1.83800e+03,9.97100e+03,-8.13300e+03,2.17288e-13,1.00351e+00,2.54783e-13,1.00351e+00,1.40339e-13,1.00351e+00
8.01216e+02,1.40400e+03,1.24640e+04,-1.10600e+04,6.56118e-13,1.01106e+00,3.69973e-13,1.01106e+00,4.35557e-13,1.01106e+00
8.01466e+02,2.22700e+03,1.40000e+04,-1.17730e+04,1.10705e-12,1.01860e+00,5.10276e-13,1.01860e+00,5.96782e-13,1.01860e+00
8.01715e+02,3.86400e+03,1.39630e+04,-1.00990e+04,9.54644e-13,1.02615e+00,5.51385e-13,1.02615e+00,7.34600e-13,1.02615e+00
8.01965e+02,6.03900e+03,1.28050e+04,-6.76600e+03,5.65918e-13,1.03369e+00,2.46514e-13,1.03369e+00,7.89737e-13,1.03369e+00
8.02215e+02,8.58600e+03,1.11330e+04,-2.54700e+03,4.27828e-13,1.04124e+00,4.76522e-13,1.04124e+00,6.30159e-13,1.04124e+00
8.02464e+02,1.14400e+04,8.94800e+03,2.49200e+03,4.93006e-13,1.04878e+00,4.93688e-13,1.04878e+00,5.17477e-13,1.04878e+00
8.02713e+02,1.35030e+04,6.54400e+03,6.95900e+03,2.71091e-13,1.05633e+00,7.68124e-13,1.05633e+00,5.93941e-13,1.05633e+00
8.02963e+02,1.45980e+04,3.96800e+03,1.06300e+04,4.55539e-13,1.06387e+00,3.74487e-13,1.06387e+00,7.81730e-13,1.06387e+00
8.03212e+02,1.50570e+04,2.32200e+03,1.27350e+04,6.45739e-13,1.07142e+00,7.41804e-13,1.07142e+00,1.27940e-12,1.07142e+00
8.03462e+02,1.49200e+04,1.59700e+03,1.33230e+04,6.35663e-13,1.07896e+00,3.85657e-13,1.07896e+00,1.01561e-12,1.07896e+00
8.03711e+02,1.31650e+04,1.87200e+03,1.12930e+04,7.07789e-13,1.08651e+00,3.84684e-13,1.08651e+00,7.46370e-13,1.08651e+00
8.03961e+02,9.80800e+03,3.19700e+03,6.61100e+03,8.96544e-13,1.09405e+00,6.61022e-13,1.09405e+00,8.97941e-13,1.09405e+00
8.04210e+02,6.49800e+03,5.24000e+03,1.25800e+03,7.21074e-13,1.10160e+00,9.22804e-13,1.10160e+00,9.34379e-13,1.10160e+00
8.04460e+02,3.99700e+03,7.87600e+03,-3.87900e+03,7.50918e-13,1.10914e+00,9.25992e-13,1.10914e+00,9.76312e-13,1.10914e+00
8.04709e+02,2.27300e+03,1.09310e+04,-8.65800e+03,1.73381e-13,1.11669e+00,6.67110e-13,1.11669e+00,5.82193e-13,1.11669e+00
8.04958e+02,1.52100e+03,1.31870e+04,-1.16660e+04,5.98534e-13,1.12423e+00,1.84079e-13,1.12423e+00,7.81917e-13,1.12423e+00
8.05208e+02,1.93800e+03,1.45500e+04,-1.26120e+04,3.79571e-13,1.13178e+00,2.87077e-13,1.13178e+00,5.94867e-13,1.13178e+00
8.05457e+02,3.61500e+03,1.45980e+04,-1.09830e+04,4.94356e-13,1.13932e+00,3.19102e-13,1.13932e+00,3.24469e-13,1.13932e+00
8.05707e+02,6.11800e+03,1.46120e+04,-8.49400e+03,5.47458e-13,1.14687e+00,7.81459e-13,1.14687e+00,5.70715e-13,1.14687e+00
8.05956e+02,9.38200e+03,1.35160e+04,-4.13400e+03,5.15253e-13,1.15442e+00,8.04495e-13,1.15442e+00,1.05067e-12,1.15442e+00
8.06205e+02,1.17530e+04,1.05640e+04,1.18900e+03,6.00298e-13,1.16196e+00,5.94341e-13,1.16196e+00,1.00190e-12,1.16196e+00
8.06455e+02,1.38010e+04,7.65800e+03,6.14300e+03,6.59319e-13,1.16951e+00,4.31266e-13,1.16951e+00,5.63821e-13,1.16951e+00
8.06704e+02,1.50740e+04,5.12200e+03,9.95200e+03,5.31083e-13,1.17705e+00,4.43336e-13,1.17705e+00,6.37101e-13,1.17705e+00
8.06953e+02,1.54850e+04,3.05000e+03,1.24350e+04,1.43559e-13,1.18460e+00,5.39073e-13,1.18460e+00,5.59816e-13,1.18460e+00
8.07203e+02,1.43640e+04,1.67900e+03,1.26850e+04,5.03923e-13,1.19214e+00,4.76031e-13,1.19214e+00,9.26891e-13,1.19214e+00
8.07452e+02,1.29910e+04,1.78300e+03,1.12080e+04,6.91999e-13,1.19969e+00,3.70941e-13,1.19969e+00,9.14011e-13,1.19969e+00
8.07701e+02,1.09880e+04,3.02800e+03,7.96000e+03,5.38493e-13,1.20723e+00,4.38501e-13,1.20723e+00,2.04790e-13,1.20723e+00
8.07951e+02,7.95200e+03,5.26200e+03,2.69000e+03,3.63949e-13,1.21478e+00,4.57340e-13,1.21478e+00,5.82702e-13,1.21478e+00
8.08200e+02,4.83900e+03,7.58000e+03,-2.74100e+03,2.42023e-13,1.22232e+00,2.67424e-13,1.22232e+00,5.00905e-13,1.22232e+00
8.08449e+02,2.79700e+03,1.08570e+04,-8.06000e+03,3.16306e-13,1.22987e+00,3.41189e-13,1.22987e+00,5.37608e-13,1.22987e+00
8.08698e+02,1.78600e+03,1.44020e+04,-1.26160e+04,3.53469e-13,1.23741e+00,6.19755e-13,1.23741e+00,7.85746e-13,1.23741e+00
8.08948e+02,2.02000e+03,1.55050e+04,-1.34850e+04,2.77097e-13,1.24496e+00,4.48450e-13,1.24496e+00,6.62014e-13,1.24496e+00
8.09197e+02,3.69000e+03,1.57540e+04,-1.20640e+04,1.75336e-13,1.25250e+00,4.81086e-13,1.25250e+00,5.92903e-13,1.25250e+00
8.09446e+02,6.21000e+03,1.56230e+04,-9.41300e+03,3.43910e-13,1.26005e+00,7.08844e-13,1.26005e+00,9.01193e-13,1.26005e+00
8.09695e+02,9.77600e+03,1.53390e+04,-5.56300e+03,6.38680e-13,1.26759e+00,4.51401e-13,1.26759e+00,8.57548e-13,1.26759e+00
8.09945e+02,1.37430e+04,1.38370e+04,-9.40000e+01,6.62336e-13,1.27514e+00,2.02341e-13,1.27514e+00,7.71112e-13,1.27514e+00
8.10194e+02,1.53810e+04,1.02140e+04,5.16700e+03,2.43641e-13,1.28268e+00,6.01279e-13,1.28268e+00,7.98149e-13,1.28268e+00
8.10443e+02,1.57050e+04,6.60400e+03,9.10100e+03,1.73383e-13,1.29023e+00,5.75499e-13,1.29023e+00,5.88044e-13,1.29023e+00
8.10692e+02,1.57920e+04,3.78300e+03,1.20090e+04,2.79390e-13,1.29777e+00,6.70445e-14,1.29777e+00,2.12449e-13,1.29777e+00
8.10941e+02,1.58390e+04,2.21300e+03,1.36260e+04,2.90594e-13,1.30532e+00,8.34980e-13,1.30532e+00,5.48841e-13,1.30532e+00
8.11191e+02,1.52970e+04,1.96500e+03,1.33320e+04,4.12764e-13,1.31286e+00,4.20881e-13,1.31286e+00,7.16000e-13,1.31286e+00
8.11440e+02,1.40270e+04,3.28100e+03,1.07460e+04,1.72258e-12,-1.32041e+00,1.06840e-12,-1.32041e+00,6.54175e-13,-1.32041e+00
8.11689e+02,1.12920e+04,6.14100e+03,5.15100e+03,4.12764e-13,-1.31286e+00,4.20881e-13,-1.31286e+00,7.16000e-13,-1.31286e+00
8.11938e+02,7.39700e+03,9.13900e+03,-1.74200e+03,2.90594e-13,-1.30532e+00,8.34980e-13,-1.30532e+00,5.48841e-13,-1.30532e+00
8.12187e+02,4.26100e+03,1.24460e+04,-8.18500e+03,2.79390e-13,-1.29777e+00,6.70445e-14,-1.29777e+00,2.12449e-13,-1.29777e+00
8.12436e+02,2.42600e+03,1.43490e+04,-1.19230e+04,1.73383e-13,-1.29023e+00,5.75499e-13,-1.29023e+00,5.88044e-13,-1.29023e+00
8.12685e+02,1.94300e+03,1.51760e+04,-1.32330e+04,2.43641e-13,-1.28268e+00,6.01279e-13,-1.28268e+00,7.98149e-13,-1.28268e+00
8.12935e+02,3.12900e+03,1.56660e+04,-1.25370e+04,6.62336e-13,-1.27514e+00,2.02341e-13,-1.27514e+00,7.71112e-13,-1.27514e+00
8.13184e+02,5.28000e+03,1.57030e+04,-1.04230e+04,6.38680e-13,-1.26759e+00,4.51401e-13,-1.26759e+00,8.57548e-13,-1.26759e+00
8.13433e+02,7.94000e+03,1.53130e+04,-7.37300e+03,3.43910e-13,-1.26005e+00,7.08844e-13,-1.26005e+00,9.01193e-13,-1.26005e+00
8.13682e+02,1.19110e+04,1.47150e+04,-2.80400e+03,1.75336e-13,-1.25250e+00,4.81086e-13,-1.25250e+00,5.92903e-13,-1.25250e+00
8.13931e+02,1.50030e+04,1.27220e+04,2.28100e+03,2.77097e-13,-1.24496e+00,4.48450e-13,-1.24496e+00,6.62014e-13,-1.24496e+00
8.14180e+02,1.53720e+04,8.43200e+03,6.94000e+03,3.53469e-13,-1.23741e+00,6.19755e-13,-1.23741e+00,7.85746e-13,-1.23741e+00
8.14429e+02,1.56320e+04,4.97300e+03,1.06590e+04,3.16306e-13,-1.22987e+00,3.41189e-13,-1.22987e+00,5.37608e-13,-1.22987e+00
8.14678e+02,1.56520e+04,2.77500e+03,1.28770e+04,2.42023e-13,-1.22232e+00,2.67424e-13,-1.22232e+00,5.00905e-13,-1.22232e+00
8.14927e+02,1.47530e+04,1.81900e+03,1.29340e+04,3.63949e-13,-1.21478e+00,4.57340e-13,-1.21478e+00,5.82702e-13,-1.21478e+00
8.15176e+02,1.34690e+04,2.09200e+03,1.13770e+04,5.38493e-13,-1.20723e+00,4.38501e-13,-1.20723e+00,2.04790e-13,-1.20723e+00
8.15425e+02,1.05400e+04,3.58500e+03,6.95500e+03,6.91999e-13,-1.19969e+00,3.70941e-13,-1.19969e+00,9.14011e-13,-1.19969e+00
8.15674e+02,8.02100e+03,6.03900e+03,1.98200e+03,5.03923e-13,-1.19214e+00,4.76031e-13,-1.19214e+00,9.26891e-13,-1.19214e+00
8.15923e+02,5.81300e+03,1.00790e+04,-4.26600e+03,1.43559e-13,-1.18460e+00,5.39073e-13,-1.18460e+00,5.59816e-13,-1.18460e+00
8.16172e+02,3.41200e+03,1.28370e+04,-9.42500e+03,5.31083e-13,-1.17705e+00,4.43336e-13,-1.17705e+00,6.37101e-13,-1.17705e+00
8.16421e+02,1.96600e+03,1.37410e+04,-1.17750e+04,6.59319e-13,-1.16951e+00,4.31266e-13,-1.16951e+00,5.63821e-13,-1.16951e+00
8.16670e+02,1.91800e+03,1.46470e+04,-1.27290e+04,6.00298e-13,-1.16196e+00,5.94341e-13,-1.16196e+00,1.00190e-12,-1.16196e+00
8.16919e+02,3.06800e+03,1.53970e+04,-1.23290e+04,5.15253e-13,-1.15442e+00,8.04495e-13,-1.15442e+00,1.05067e-12,-1.15442e+00
8.17168e+02,4.69700e+03,1.46340e+04,-9.93700e+03,5.47458e-13,-1.14687e+00,7.81459e-13,-1.14687e+00,5.70715e-13,-1.14687e+00
8.17417e+02,6.94500e+03,1.29750e+04,-6.03000e+03,4.94356e-13,-1.13932e+00,3.19102e-13,-1.13932e+00,3.24469e-13,-1.13932e+00
8.17666e+02,9.61400e+03,1.14260e+04,-1.81200e+03,3.79571e-13,-1.13178e+00,2.87077e-13,-1.13178e+00,5.94867e-13,-1.13178e+00
8.17915e+02,1.14910e+04,8.81800e+03,2.67300e+03,5.98534e-13,-1.12423e+00,1.84079e-13,-1.12423e+00,7.81917e-13,-1.12423e+00
8.18164e+02,1.23430e+04,6.11300e+03,6.23000e+03,1.73381e-13,-1.11669e+00,6.67110e-13,-1.11669e+00,5.82193e-13,-1.11669e+00
8.18413e+02,1.26790e+04,3.67900e+03,9.00000e+03,7.50918e-13,-1.10914e+00,9.25992e-13,-1.10914e+00,9.76312e-13,-1.10914e+00
8.18662e+02,1.13530e+04,2.08800e+03,9.26500e+03,7.21074e-13,-1.10160e+00,9.22804e-13,-1.10160e+00,9.34379e-13,-1.10160e+00
8.18911e+02,1.15490e+04,1.52800e+03,1.00210e+04,8.96544e-13,-1.09405e+00,6.61022e-13,-1.09405e+00,8.97941e-13,-1.09405e+00
8.19160e+02,9.99400e+03,1.64900e+03,8.34500e+03,7.07789e-13,-1.08651e+00,3.84684e-13,-1.08651e+00,7.46370e-13,-1.08651e+00
8.19408e+02,8.34900e+03,2.69500e+03,5.65400e+03,6.35663e-13,-1.07896e+00,3.85657e-13,-1.07896e+00,1.01561e-12,-1.07896e+00
8.19657e+02,7.08800e+03,5.12500e+03,1.96300e+03,6.45739e-13,-1.07142e+00,7.41804e-13,-1.07142e+00,1.27940e-12,-1.07142e+00
8.19906e+02,5.26800e+03,7.92500e+03,-2.65700e+03,4.55539e-13,-1.06387e+00,3.74487e-13,-1.06387e+00,7.81730e-13,-1.06387e+00
8.20155e+02,3.36700e+03,1.04360e+04,-7.06900e+03,2.71091e-13,-1.05633e+00,7.68124e-13,-1.05633e+00,5.93941e-13,-1.05633e+00
8.20404e+02,1.96400e+03,1.16650e+04,-9.70100e+03,4.93006e-13,-1.04878e+00,4.93688e-13,-1.04878e+00,5.17477e-13,-1.04878e+00
8.20653e+02,1.42900e+03,1.18110e+04,-1.03820e+04,4.27828e-13,-1.04124e+00,4.76522e-13,-1.04124e+00,6.30159e-13,-1.04124e+00
8.20901e+02,2.03400e+03,1.25150e+04,-1.04810e+04,5.65918e-13,-1.03369e+00,2.46514e-13,-1.03369e+00,7.89737e-13,-1.03369e+00
8.21150e+02,3.25500e+03,1.29810e+04,-9.72600e+03,9.54644e-13,-1.02615e+00,5.51385e-13,-1.02615e+00,7.34600e-13,-1.02615e+00
8.21399e+02,4.31200e+03,1.02450e+04,-5.93300e+03,1.10705e-12,-1.01860e+00,5.10276e-13,-1.01860e+00,5.96782e-13,-1.01860e+00
8.21648e+02,6.10400e+03,8.84600e+03,-2.74200e+03,6.56118e-13,-1.01106e+00,3.69973e-13,-1.01106e+00,4.35557e-13,-1.01106e+00
8.21897e+02,8.05800e+03,7.41000e+03,6.48000e+02,2.17288e-13,-1.00351e+00,2.54783e-13,-1.00351e+00,1.40339e-13,-1.00351e+00
8.22145e+02,8.73100e+03,5.19200e+03,3.53900e+03,8.00261e-13,-9.95966e-01,9.72235e-13,-9.95966e-01,5.27346e-13,-9.95966e-01
8.22394e+02,1.00480e+04,3.49800e+03,6.55000e+03,9.86946e-13,-9.88421e-01,9.69406e-13,-9.88421e-01,3.68802e-13,-9.88421e-01
8.22643e+02,1.05900e+04,2.16700e+03,8.42300e+03,6.83755e-13,-9.80876e-01,5.61300e-13,-9.80876e-01,7.04059e-13,-9.80876e-01
8.22892e+02,9.81500e+03,1.46100e+03,8.35400e+03,6.64650e-13,-9.73331e-01,3.81531e-13,-9.73331e-01,1.04397e-12,-9.73331e-01
8.23140e+02,9.02200e+03,1.30500e+03,7.71700e+03,6.96822e-13,-9.65785e-01,5.55533e-13,-9.65785e-01,9.64268e-13,-9.65785e-01
8.23389e+02,7.81100e+03,2.04300e+03,5.76800e+03,3.82193e-13,-9.58240e-01,9.72885e-13,-9.58240e-01,5.91226e-13,-9.58240e-01
8.23638e+02,6.18300e+03,3.08200e+03,3.10100e+03,8.59005e-13,-9.50695e-01,7.31440e-13,-9.50695e-01,3.63087e-13,-9.50695e-01
8.23887e+02,4.29500e+03,4.55800e+03,-2.63000e+02,7.98004e-13,-9.43150e-01,1.10811e-12,-9.43150e-01,5.83544e-13,-9.43150e-01
8.24135e+02,2.63400e+03,5.96300e+03,-3.32900e+03,9.05389e-13,-9.35605e-01,1.60548e-12,-9.35605e-01,8.03657e-13,-9.35605e-01
8.24384e+02,1.63100e+03,7.62700e+03,-5.99600e+03,9.39922e-13,-9.28059e-01,8.12087e-13,-9.28059e-01,3.06213e-13,-9.28059e-01
8.24633e+02,1.05200e+03,9.26100e+03,-8.20900e+03,1.26794e-12,-9.20514e-01,1.52260e-12,-9.20514e-01,3.83349e-13,-9.20514e-01
8.24881e+02,1.22800e+03,9.84200e+03,-8.61400e+03,1.28329e-12,-9.12969e-01,1.95997e-12,-9.12969e-01,6.79891e-13,-9.12969e-01
8.25130e+02,1.93700e+03,1.02510e+04,-8.31400e+03,6.69934e-13,-9.05424e-01,1.44006e-12,-9.05424e-01,7.88210e-13,-9.05424e-01
8.25379e+02,3.44600e+03,1.03240e+04,-6.87800e+03,9.22092e-13,-8.97879e-01,1.17059e-12,-8.97879e-01,3.74780e-13,-8.97879e-01
8.25627e+02,4.47800e+03,8.24200e+03,-3.76400e+03,1.03853e-12,-8.90333e-01,8.38791e-13,-8.90333e-01,2.23879e-13,-8.90333e-01
8.25876e+02,5.73800e+03,6.67000e+03,-9.32000e+02,1.22860e-12,-8.82788e-01,4.17259e-13,-8.82788e-01,8.34033e-13,-8.82788e-01
8.26125e+02,6.67600e+03,4.85900e+03,1.81700e+03,1.51083e-12,-8.75243e-01,4.94772e-13,-8.75243e-01,1.18928e-12,-8.75243e-01
8.26373e+02,6.55100e+03,3.03900e+03,3.51200e+03,1.17796e-12,-8.67698e-01,6.34502e-13,-8.67698e-01,1.07787e-12,-8.67698e-01
8.26622e+02,6.47200e+03,1.81900e+03,4.65300e+03,7.04291e-13,-8.60153e-01,2.21744e-13,-8.60153e-01,6.76296e-13,-8.60153e-01
8.26870e+02,5.58000e+03,1.13700e+03,4.44300e+03,5.84724e-13,-8.52607e-01,5.72525e-13,-8.52607e-01,3.70477e-13,-8.52607e-01
8.27119e+02,5.45400e+03,8.33000e+02,4.62100e+03,6.42472e-13,-8.45062e-01,3.89817e-13,-8.45062e-01,2.53000e-13,-8.45062e-01
8.27368e+02,5.44700e+03,1.09800e+03,4.34900e+03,1.14461e-12,-8.37517e-01,5.12738e-13,-8.37517e-01,6.35970e-13,-8.37517e-01
8.27616e+02,4.32300e+03,1.50000e+03,2.82300e+03,1.29812e-12,-8.29972e-01,1.01493e-12,-8.29972e-01,6.04768e-13,-8.29972e-01
8.27865e+02,3.17900e+03,2.41200e+03,7.67000e+02,7.06485e-13,-8.22427e-01,1.33959e-12,-8.22427e-01,8.84665e-13,-8.22427e-01
8.28113e+02,2.41500e+03,3.68600e+03,-1.27100e+03,2.05225e-13,-8.14881e-01,1.09995e-12,-8.14881e-01,9.27716e-13,-8.14881e-01
8.28362e+02,1.64800e+03,4.89000e+03,-3.24200e+03,5.27010e-13,-8.07336e-01,9.46343e-13,-8.07336e-01,1.39400e-12,-8.07336e-01
8.28610e+02,9.47000e+02,5.22000e+03,-4.27300e+03,1.07969e-12,-7.99791e-01,1.12516e-12,-7.99791e-01,2.12189e-12,-7.99791e-01
8.28859e+02,7.80000e+02,5.58700e+03,-4.80700e+03,8.69996e-13,-7.92246e-01,1.73892e-12,-7.92246e-01,1.83108e-12,-7.92246e-01
8.29108e+02,8.46000e+02,5.33600e+03,-4.49000e+03,3.86126e-13,-7.84701e-01,8.82735e-13,-7.84701e-01,6.55123e-13,-7.84701e-01
8.29356e+02,1.24100e+03,4.63800e+03,-3.39700e+03,5.32058e-13,-7.77155e-01,1.09335e-12,-7.77155e-01,1.32764e-12,-7.77155e-01
8.29605e+02,1.75500e+03,4.06700e+03,-2.31200e+03,6.27780e-13,-7.69610e-01,1.55814e-12,-7.69610e-01,1.60801e-12,-7.69610e-01
8.29853e+02,2.35800e+03,3.20400e+03,-8.46000e+02,3.36372e-13,-7.62065e-01,9.21069e-13,-7.62065e-01,1.25680e-12,-7.62065e-01
8.30101e+02,3.00900e+03,2.61800e+03,3.91000e+02,1.01219e-12,-7.54520e-01,5.01629e-13,-7.54520e-01,7.61086e-13,-7.54520e-01
8.30350e+02,3.59300e+03,2.06000e+03,1.53300e+03,9.38172e-13,-7.46975e-01,1.73974e-12,-7.46975e-01,8.04814e-13,-7.46975e-01
8.30598e+02,3.45000e+03,1.22000e+03,2.23000e+03,4.98310e-13,-7.39429e-01,1.96606e-12,-7.39429e-01,1.47484e-12,-7.39429e-01
8.30847e+02,3.50100e+03,8.81000e+02,2.62000e+03,2.50343e-13,-7.31884e-01,1.12298e-12,-7.31884e-01,1.36941e-12,-7.31884e-01
8.31095e+02,3.57400e+03,6.99000e+02,2.87500e+03,1.04799e-12,-7.24339e-01,4.66619e-13,-7.24339e-01,9.88423e-13,-7.24339e-01
8.31344e+02,3.09800e+03,7.28000e+02,2.37000e+03,1.08461e-12,-7.16794e-01,5.71704e-13,-7.16794e-01,6.85213e-13,-7.16794e-01
8.31592e+02,2.54700e+03,8.21000e+02,1.72600e+03,8.27930e-14,-7.09249e-01,9.63786e-13,-7.09249e-01,9.33238e-13,-7.09249e-01
8.31841e+02,1.94400e+03,1.21900e+03,7.25000e+02,1.39612e-12,-7.01703e-01,1.47319e-12,-7.01703e-01,1.32795e-12,-7.01703e-01
8.32089e+02,1.47600e+03,1.63600e+03,-1.60000e+02,1.23242e-12,-6.94158e-01,8.84411e-13,-6.94158e-01,1.21639e-12,-6.94158e-01
8.32337e+02,1.08100e+03,2.19100e+03,-1.11000e+03,1.14523e-12,-6.86613e-01,3.12290e-13,-6.86613e-01,1.42399e-12,-6.86613e-01
8.32586e+02,7.50000e+02,2.37300e+03,-1.62300e+03,1.58602e-12,-6.79068e-01,5.77123e-13,-6.79068e-01,1.55400e-12,-6.79068e-01
8.32834e+02,7.08000e+02,2.74500e+03,-2.03700e+03,1.31089e-12,-6.71523e-01,1.05686e-12,-6.71523e-01,3.07519e-13,-6.71523e-01
8.33083e+02,6.60000e+02,2.74400e+03,-2.08400e+03,8.18619e-13,-6.63977e-01,1.88711e-12,-6.63977e-01,1.20885e-12,-6.63977e-01
8.33331e+02,7.92000e+02,2.50700e+03,-1.71500e+03,9.42181e-13,-6.56432e-01,2.49751e-12,-6.56432e-01,1.83177e-12,-6.56432e-01
8.33579e+02,9.71000e+02,2.18900e+03,-1.21800e+03,1.94582e-12,-6.48887e-01,2.91200e-12,-6.48887e-01,1.20159e-12,-6.48887e-01
8.33828e+02,1.24400e+03,1.90200e+03,-6.58000e+02,2.31883e-12,-6.41342e-01,3.03800e-12,-6.41342e-01,7.61465e-13,-6.41342e-01
8.34076e+02,1.40900e+03,1.44400e+03,-3.50000e+01,1.93897e-12,-6.33797e-01,3.06189e-12,-6.33797e-01,1.12460e-12,-6.33797e-01
8.34324e+02,1.69700e+03,1.20000e+03,4.97000e+02,1.30128e-12,-6.26251e-01,2.04522e-12,-6.26251e-01,7.58329e-13,-6.26251e-01
8.34573e+02,1.82900e+03,8.81000e+02,9.48000e+02,8.16842e-13,-6.18706e-01,7.06896e-13,-6.18706e-01,7.84343e-13,-6.18706e-01
8.34821e+02,1.85300e+03,7.27000e+02,1.12600e+03,7.72305e-13,-6.11161e-01,2.77466e-13,-6.11161e-01,7.10074e-13,-6.11161e-01
8.35069e+02,1.77500e+03,6.61000e+02,1.11400e+03,9.86656e-13,-6.03616e-01,7.44058e-13,-6.03616e-01,2.98169e-13,-6.03616e-01
8.35318e+02,1.76100e+03,6.70000e+02,1.09100e+03,1.28494e-12,-5.96071e-01,1.20071e-12,-5.96071e-01,1.03475e-12,-5.96071e-01
8.35566e+02,1.45000e+03,6.53000e+02,7.97000e+02,1.40469e-12,-5.88525e-01,1.20476e-12,-5.88525e-01,1.30288e-12,-5.88525e-01
8.35814e+02,1.21300e+03,7.27000e+02,4.86000e+02,1.39757e-12,-5.80980e-01,6.52044e-13,-5.80980e-01,7.47919e-13,-5.80980e-01
8.36062e+02,8.96000e+02,7.96000e+02,1.00000e+02,1.15814e-12,-5.73435e-01,9.77756e-13,-5.73435e-01,1.50098e-12,-5.73435e-01
8.36311e+02,7.79000e+02,9.60000e+02,-1.81000e+02,9.81955e-13,-5.65890e-01,1.17308e-12,-5.65890e-01,2.00591e-12,-5.65890e-01
8.36559e+02,6.77000e+02,1.12400e+03,-4.47000e+02,4.99543e-13,-5.58345e-01,9.52525e-13,-5.58345e-01,1.44869e-12,-5.58345e-01
8.36807e+02,6.55000e+02,1.28900e+03,-6.34000e+02,1.65749e-13,-5.50799e-01,1.90928e-12,-5.50799e-01,2.06317e-12,-5.50799e-01
8.37055e+02,6.41000e+02,1.26700e+03,-6.26000e+02,1.37344e-12,-5.43254e-01,2.72672e-12,-5.43254e-01,1.37769e-12,-5.43254e-01
8.37304e+02,6.59000e+02,1.26500e+03,-6.06000e+02,3.10401e-12,-5.35709e-01,3.17478e-12,-5.35709e-01,1.56943e-12,-5.35709e-01
8.37552e+02,6.50000e+02,1.15400e+03,-5.04000e+02,3.46492e-12,-5.28164e-01,3.06846e-12,-5.28164e-01,2.20452e-12,-5.28164e-01
8.37800e+02,7.35000e+02,1.11600e+03,-3.81000e+02,2.12765e-12,-5.20619e-01,2.64791e-12,-5.20619e-01,2.17638e-12,-5.20619e-01
8.38048e+02,7.25000e+02,8.69000e+02,-1.44000e+02,8.96593e-13,-5.13073e-01,2.37075e-12,-5.13073e-01,2.21836e-12,-5.13073e-01
8.38296e+02,7.90000e+02,7.64000e+02,2.60000e+01,1.10477e-12,-5.05528e-01,2.32926e-12,-5.05528e-01,2.54977e-12,-5.05528e-01
8.38545e+02,8.49000e+02,7.11000e+02,1.38000e+02,2.40414e-12,-4.97983e-01,2.11609e-12,-4.97983e-01,2.87681e-12,-4.97983e-01
8.38793e+02,9.04000e+02,6.44000e+02,2.60000e+02,3.47693e-12,-4.90438e-01,1.43773e-12,-4.90438e-01,2.80954e-12,-4.90438e-01
8.39041e+02,8.41000e+02,6.27000e+02,2.14000e+02,2.45913e-12,-4.82893e-01,5.97168e-13,-4.82893e-01,1.87196e-12,-4.82893e-01
8.39289e+02,8.41000e+02,6.32000e+02,2.09000e+02,7.03348e-13,-4.75347e-01,6.60492e-13,-4.75347e-01,6.95664e-13,-4.75347e-01
8.39537e+02,7.71000e+02,6.37000e+02,1.34000e+02,5.32787e-13,-4.67802e-01,5.96605e-13,-4.67802e-01,3.44981e-13,-4.67802e-01
8.39785e+02,7.77000e+02,6.35000e+02,1.42000e+02,9.43835e-13,-4.60257e-01,8.21931e-13,-4.60257e-01,2.59473e-13,-4.60257e-01
8.40033e+02,7.00000e+02,6.44000e+02,5.60000e+01,1.95972e-13,-4.52712e-01,3.06584e-13,-4.52712e-01,1.29199e-13,-4.52712e-01
8.40281e+02,7.09000e+02,7.06000e+02,3.00000e+00,1.16987e-12,-4.45167e-01,7.63623e-13,-4.45167e-01,1.58960e-12,-4.45167e-01
8.40530e+02,6.45000e+02,6.69000e+02,-2.40000e+01,1.59555e-12,-4.37621e-01,1.27600e-12,-4.37621e-01,2.58125e-12,-4.37621e-01
8.40778e+02,6.49000e+02,7.16000e+02,-6.70000e+01,1.36616e-12,-4.30076e-01,4.77925e-13,-4.30076e-01,1.67257e-12,-4.30076e-01
8.41026e+02,6.37000e+02,6.89000e+02,-5.20000e+01,2.40589e-12,-4.22531e-01,6.93502e-13,-4.22531e-01,1.83589e-12,-4.22531e-01
8.41274e+02,6.20000e+02,7.06000e+02,-8.60000e+01,3.15676e-12,-4.14986e-01,1.62140e-12,-4.14986e-01,3.71025e-12,-4.14986e-01
8.41522e+02,6.22000e+02,6.89000e+02,-6.70000e+01,2.06932e-12,-4.07441e-01,2.75153e-12,-4.07441e-01,4.57230e-12,-4.07441e-01
8.41770e+02,6.44000e+02,6.93000e+02,-4.90000e+01,1.81350e-12,-3.99895e-01,1.52694e-12,-3.99895e-01,3.33478e-12,-3.99895e-01
8.42018e+02,6.32000e+02,6.69000e+02,-3.70000e+01,1.78992e-12,-3.92350e-01,1.85489e-12,-3.92350e-01,2.01791e-12,-3.92350e-01
8.42266e+02,6.43000e+02,6.81000e+02,-3.80000e+01,1.67530e-12,-3.84805e-01,3.10318e-12,-3.84805e-01,1.63111e-12,-3.84805e-01
8.42514e+02,6.50000e+02,6.48000e+02,2.00000e+00,1.85306e-12,-3.77260e-01,2.87273e-12,-3.77260e-01,1.44908e-12,-3.77260e-01
8.42762e+02,6.92000e+02,6.63000e+02,2.90000e+01,1.29039e-12,-3.69715e-01,3.55400e-12,-3.69715e-01,3.69461e-12,-3.69715e-01
8.43010e+02,6.47000e+02,6.10000e+02,3.70000e+01,2.81619e-12,-3.62169e-01,4.06262e-12,-3.62169e-01,6.53800e-12,-3.62169e-01
8.43258e+02,6.59000e+02,6.33000e+02,2.60000e+01,4.61595e-12,-3.54624e-01,4.91156e-12,-3.54624e-01,7.02450e-12,-3.54624e-01
8.43506e+02,6.57000e+02,6.40000e+02,1.70000e+01,5.86194e-12,-3.47079e-01,5.19408e-12,-3.47079e-01,3.91736e-12,-3.47079e-01
8.43754e+02,6.63000e+02,6.35000e+02,2.80000e+01,6.42915e-12,-3.39534e-01,5.64389e-12,-3.39534e-01,2.33924e-12,-3.39534e-01
8.44002e+02,6.57000e+02,6.27000e+02,3.00000e+01,6.86765e-12,-3.31989e-01,5.82887e-12,-3.31989e-01,5.24770e-12,-3.31989e-01
8.44250e+02,6.33000e+02,6.33000e+02,0.00000e+00,7.85778e-12,-3.24444e-01,5.82255e-12,-3.24444e-01,7.72382e-12,-3.24444e-01
8.44498e+02,6.31000e+02,6.30000e+02,1.00000e+00,7.45094e-12,-3.16898e-01,6.36724e-12,-3.16898e-01,7.56031e-12,-3.16898e-01
8.44746e+02,6.42000e+02,6.38000e+02,4.00000e+00,5.53573e-12,-3.09353e-01,6.32025e-12,-3.09353e-01,5.09836e-12,-3.09353e-01
8.44994e+02,6.37000e+02,6.35000e+02,2.00000e+00,2.64135e-12,-3.01808e-01,4.28737e-12,-3.01808e-01,1.72176e-12,-3.01808e-01
8.45242e+02,6.69000e+02,6.72000e+02,-3.00000e+00,2.27174e-12,-2.94263e-01,3.94719e-12,-2.94263e-01,3.18012e-12,-2.94263e-01
8.45490e+02,6.03000e+02,6.27000e+02,-2.40000e+01,1.40474e-12,-2.86718e-01,3.96341e-12,-2.86718e-01,3.16075e-12,-2.86718e-01
8.45738e+02,6.30000e+02,6.41000e+02,-1.10000e+01,1.24519e-12,-2.79172e-01,3.04279e-12,-2.79172e-01,2.45003e-12,-2.79172e-01
8.45985e+02,6.31000e+02,6.28000e+02,3.00000e+00,3.53111e-12,-2.71627e-01,2.36130e-12,-2.71627e-01,2.12566e-12,-2.71627e-01
8.46233e+02,6.33000e+02,6.35000e+02,-2.00000e+00,2.96383e-12,-2.64082e-01,9.67456e-13,-2.64082e-01,2.05755e-12,-2.64082e-01
8.46481e+02,6.32000e+02,6.28000e+02,4.00000e+00,1.49391e-12,-2.56537e-01,1.40748e-12,-2.56537e-01,1.00254e-12,-2.56537e-01
8.46729e+02,6.34000e+02,6.30000e+02,4.00000e+00,4.77130e-12,-2.48992e-01,3.92817e-12,-2.48992e-01,1.02556e-12,-2.48992e-01
8.46977e+02,6.41000e+02,6.42000e+02,-1.00000e+00,3.93870e-12,-2.41446e-01,3.92794e-12,-2.41446e-01,5.36562e-13,-2.41446e-01
8.47225e+02,6.30000e+02,6.26000e+02,4.00000e+00,4.84589e-12,-2.33901e-01,1.95441e-12,-2.33901e-01,2.89538e-12,-2.33901e-01
8.47473e+02,6.26000e+02,6.26000e+02,0.00000e+00,5.68020e-12,-2.26356e-01,3.69607e-12,-2.26356e-01,6.24628e-12,-2.26356e-01
8.47720e+02,6.60000e+02,6.68000e+02,-8.00000e+00,7.26784e-13,-2.18811e-01,2.74350e-12,-2.18811e-01,2.08588e-12,-2.18811e-01
8.47968e+02,6.25000e+02,6.22000e+02,3.00000e+00,7.07407e-12,-2.11266e-01,5.44855e-12,-2.11266e-01,9.02818e-12,-2.11266e-01
8.48216e+02,6.35000e+02,6.29000e+02,6.00000e+00,5.07124e-12,-2.03720e-01,6.61678e-12,-2.03720e-01,1.01482e-11,-2.03720e-01
8.48464e+02,6.30000e+02,6.26000e+02,4.00000e+00,1.00771e-11,-1.96175e-01,9.01247e-12,-1.96175e-01,1.80216e-11,-1.96175e-01
8.48712e+02,6.27000e+02,6.34000e+02,-7.00000e+00,3.70728e-11,-1.88630e-01,3.37959e-11,-1.88630e-01,6.52551e-11,-1.88630e-01
8.48960e+02,6.28000e+02,6.30000e+02,-2.00000e+00,7.38667e-11,-1.81085e-01,7.71041e-11,-1.81085e-01,1.38323e-10,-1.81085e-01
8.49207e+02,6.36000e+02,6.38000e+02,-2.00000e+00,1.09068e-10,-1.73540e-01,1.19568e-10,-1.73540e-01,2.13962e-10,-1.73540e-01
8.49455e+02,6.12000e+02,6.43000e+02,-3.10000e+01,1.08954e-10,-1.65994e-01,1.14035e-10,-1.65994e-01,2.11310e-10,-1.65994e-01
8.49703e+02,6.26000e+02,6.24000e+02,2.00000e+00,7.30455e-11,-1.58449e-01,6.93855e-11,-1.58449e-01,1.37300e-10,-1.58449e-01
8.49951e+02,6.22000e+02,6.30000e+02,-8.00000e+00,2.80548e-11,-1.50904e-01,2.74891e-11,-1.50904e-01,5.51504e-11,-1.50904e-01
8.50198e+02,6.58000e+02,6.64000e+02,-6.00000e+00,1.28374e-11,-1.43359e-01,1.75916e-11,-1.43359e-01,2.95740e-11,-1.43359e-01
8.50446e+02,6.17000e+02,6.13000e+02,4.00000e+00,1.07823e-11,-1.35814e-01,1.34053e-11,-1.35814e-01,2.40260e-11,-1.35814e-01
8.50694e+02,6.24000e+02,6.32000e+02,-8.00000e+00,5.04563e-12,-1.28268e-01,6.76760e-12,-1.28268e-01,1.14902e-11,-1.28268e-01
8.50941e+02,6.37000e+02,6.22000e+02,1.50000e+01,4.45756e-12,-1.20723e-01,1.87921e-12,-1.20723e-01,2.61858e-12,-1.20723e-01
8.51189e+02,6.26000e+02,6.23000e+02,3.00000e+00,4.22336e-12,-1.13178e-01,3.56154e-12,-1.13178e-01,5.45587e-12,-1.13178e-01
8.51437e+02,6.14000e+02,6.27000e+02,-1.30000e+01,4.25781e-12,-1.05633e-01,1.52295e-12,-1.05633e-01,5.77837e-12,-1.05633e-01
8.51685e+02,6.24000e+02,6.23000e+02,1.00000e+00,2.93947e-12,-9.80876e-02,2.62711e-12,-9.80876e-02,2.59971e-12,-9.80876e-02
8.51932e+02,6.42000e+02,6.32000e+02,1.00000e+01,1.71361e-12,-9.05424e-02,2.03374e-12,-9.05424e-02,1.28642e-12,-9.05424e-02
8.52180e+02,6.22000e+02,6.26000e+02,-4.00000e+00,7.89656e-13,-8.29972e-02,2.04499e-12,-8.29972e-02,2.76068e-12,-8.29972e-02
8.52428e+02,6.28000e+02,6.39000e+02,-1.10000e+01,3.97984e-13,-7.54520e-02,2.94517e-12,-7.54520e-02,3.28372e-12,-7.54520e-02
8.52675e+02,6.60000e+02,6.52000e+02,8.00000e+00,3.70123e-12,-6.79068e-02,9.54713e-13,-6.79068e-02,2.93810e-12,-6.79068e-02
8.52923e+02,6.05000e+02,6.21000e+02,-1.60000e+01,7.87149e-12,-6.03616e-02,6.27911e-12,-6.03616e-02,2.09826e-12,-6.03616e-02
8.53170e+02,6.24000e+02,6.19000e+02,5.00000e+00,9.84319e-12,-5.28164e-02,8.98905e-12,-5.28164e-02,1.62230e-12,-5.28164e-02
8.53418e+02,6.25000e+02,6.28000e+02,-3.00000e+00,6.62012e-12,-4.52712e-02,5.33639e-12,-4.52712e-02,1.54542e-12,-4.52712e-02
8.53666e+02,6.24000e+02,6.37000e+02,-1.30000e+01,1.24366e-12,-3.77260e-02,1.90416e-13,-3.77260e-02,1.06380e-12,-3.77260e-02
8.53913e+02,6.21000e+02,6.30000e+02,-9.00000e+00,2.02386e-12,-3.01808e-02,2.53402e-12,-3.01808e-02,3.89968e-12,-3.01808e-02
8.54161e+02,6.34000e+02,6.43000e+02,-9.00000e+00,1.40455e-11,-2.26356e-02,1.42748e-11,-2.26356e-02,7.50918e-12,-2.26356e-02
8.54409e+02,6.35000e+02,6.24000e+02,1.10000e+01,7.91471e-11,-1.50904e-02,7.83716e-11,-1.50904e-02,1.09431e-11,-1.50904e-02
8.54656e+02,6.31000e+02,6.17000e+02,1.40000e+01,2.26830e-10,-7.54520e-03,2.29618e-10,-7.54520e-03,1.09606e-11,-7.54520e-03
