7.67698e+02,6.34000e+02,6.19000e+02,1.50000e+01,3.87095e-10,0.00000e+00,3.93497e-10,0.00000e+00,6.40268e-12,0.00000e+00
7.67949e+02,6.62000e+02,6.60000e+02,2.00000e+00,2.29160e-10,7.54520e-03,2.34721e-10,7.54520e-03,7.85522e-12,7.54520e-03
7.68199e+02,6.29000e+02,6.24000e+02,5.00000e+00,7.88486e-11,1.50904e-02,8.28522e-11,1.50904e-02,6.82390e-12,1.50904e-02
7.68450e+02,6.35000e+02,6.37000e+02,-2.00000e+00,1.50409e-11,2.26356e-02,1.65307e-11,2.26356e-02,2.27614e-12,2.26356e-02
7.68701e+02,6.24000e+02,6.30000e+02,-6.00000e+00,2.36383e-12,3.01808e-02,1.33911e-12,3.01808e-02,3.49711e-12,3.01808e-02
7.68951e+02,6.20000e+02,6.48000e+02,-2.80000e+01,2.55890e-12,3.77260e-02,2.31826e-12,3.77260e-02,3.98146e-12,3.77260e-02
7.69202e+02,6.22000e+02,6.33000e+02,-1.10000e+01,5.40303e-12,4.52712e-02,6.89452e-12,4.52712e-02,2.97872e-12,4.52712e-02
7.69453e+02,6.21000e+02,6.30000e+02,-9.00000e+00,8.92031e-12,5.28164e-02,1.06661e-11,5.28164e-02,1.75420e-12,5.28164e-02
7.69703e+02,6.24000e+02,6.32000e+02,-8.00000e+00,9.08568e-12,6.03616e-02,8.64757e-12,6.03616e-02,2.63628e-12,6.03616e-02
7.69954e+02,6.57000e+02,6.36000e+02,2.10000e+01,7.30726e-12,6.79068e-02,3.98689e-12,6.79068e-02,4.31178e-12,6.79068e-02
7.70205e+02,6.46000e+02,6.36000e+02,1.00000e+01,4.15758e-12,7.54520e-02,5.63944e-13,7.54520e-02,4.51197e-12,7.54520e-02
7.70455e+02,6.70000e+02,6.84000e+02,-1.40000e+01,2.84113e-12,8.29972e-02,2.00296e-12,8.29972e-02,4.72902e-12,8.29972e-02
7.70706e+02,6.13000e+02,6.40000e+02,-2.70000e+01,7.22966e-13,9.05424e-02,3.20827e-12,9.05424e-02,2.48636e-12,9.05424e-02
7.70957e+02,6.24000e+02,6.90000e+02,-6.60000e+01,3.94574e-12,9.80876e-02,2.91849e-12,9.80876e-02,2.48893e-12,9.80876e-02
7.71207e+02,6.34000e+02,6.70000e+02,-3.60000e+01,4.95146e-12,1.05633e-01,1.41896e-12,1.05633e-01,4.84586e-12,1.05633e-01
7.71458e+02,6.41000e+02,6.68000e+02,-2.70000e+01,3.35732e-12,1.13178e-01,1.06417e-12,1.13178e-01,3.31964e-12,1.13178e-01
7.71708e+02,6.46000e+02,6.42000e+02,4.00000e+00,3.04319e-12,1.20723e-01,1.70307e-12,1.20723e-01,1.37013e-12,1.20723e-01
7.71959e+02,6.69000e+02,6.38000e+02,3.10000e+01,1.79232e-12,1.28268e-01,2.19699e-12,1.28268e-01,2.03215e-12,1.28268e-01
7.72210e+02,6.81000e+02,6.15000e+02,6.60000e+01,1.39668e-13,1.35814e-01,2.66072e-12,1.35814e-01,2.79543e-12,1.35814e-01
7.72460e+02,7.31000e+02,6.41000e+02,9.00000e+01,4.25383e-12,1.43359e-01,3.12149e-12,1.43359e-01,1.61349e-12,1.43359e-01
7.72711e+02,7.00000e+02,6.40000e+02,6.00000e+01,5.51470e-12,1.50904e-01,6.35064e-12,1.50904e-01,1.83235e-12,1.50904e-01
7.72961e+02,7.21000e+02,7.17000e+02,4.00000e+00,1.63261e-12,1.58449e-01,5.19269e-12,1.58449e-01,3.63818e-12,1.58449e-01
7.73212e+02,6.35000e+02,6.95000e+02,-6.00000e+01,3.71488e-12,1.65994e-01,2.28773e-12,1.65994e-01,2.38271e-12,1.65994e-01
7.73462e+02,6.32000e+02,7.38000e+02,-1.06000e+02,4.76259e-12,1.73540e-01,3.14528e-12,1.73540e-01,2.18449e-12,1.73540e-01
7.73713e+02,6.33000e+02,7.11000e+02,-7.80000e+01,3.12853e-12,1.81085e-01,3.24796e-12,1.81085e-01,7.30820e-13,1.81085e-01
7.73963e+02,6.43000e+02,6.96000e+02,-5.30000e+01,3.33065e-12,1.88630e-01,1.68972e-12,1.88630e-01,2.78442e-12,1.88630e-01
7.74214e+02,6.62000e+02,6.61000e+02,1.00000e+00,3.43819e-12,1.96175e-01,4.68383e-13,1.96175e-01,3.87731e-12,1.96175e-01
7.74465e+02,6.98000e+02,6.45000e+02,5.30000e+01,3.72658e-12,2.03720e-01,1.26919e-12,2.03720e-01,3.91149e-12,2.03720e-01
7.74715e+02,7.42000e+02,6.40000e+02,1.02000e+02,2.61789e-12,2.11266e-01,2.99657e-12,2.11266e-01,2.41861e-12,2.11266e-01
7.74965e+02,8.13000e+02,6.50000e+02,1.63000e+02,3.03308e-12,2.18811e-01,2.79334e-12,2.18811e-01,5.48390e-12,2.18811e-01
7.75216e+02,7.46000e+02,6.50000e+02,9.60000e+01,4.29902e-12,2.26356e-01,9.22606e-12,2.26356e-01,1.30688e-11,2.26356e-01
7.75466e+02,7.71000e+02,7.66000e+02,5.00000e+00,2.17044e-11,2.33901e-01,3.05313e-11,2.33901e-01,5.18057e-11,2.33901e-01
7.75717e+02,6.64000e+02,7.49000e+02,-8.50000e+01,5.16406e-11,2.41446e-01,6.33236e-11,2.41446e-01,1.13760e-10,2.41446e-01
7.75967e+02,6.51000e+02,8.33000e+02,-1.82000e+02,9.36709e-11,2.48992e-01,1.01945e-10,2.48992e-01,1.93222e-10,2.48992e-01
7.76218e+02,6.36000e+02,8.23000e+02,-1.87000e+02,9.88914e-11,2.56537e-01,9.63466e-11,2.56537e-01,1.92714e-10,2.56537e-01
7.76468e+02,6.55000e+02,8.08000e+02,-1.53000e+02,5.36334e-11,2.64082e-01,4.62720e-11,2.64082e-01,9.81942e-11,2.64082e-01
7.76719e+02,6.68000e+02,7.17000e+02,-4.90000e+01,1.10105e-11,2.71627e-01,1.11816e-11,2.71627e-01,2.07472e-11,2.71627e-01
7.76969e+02,7.43000e+02,6.71000e+02,7.20000e+01,6.68510e-12,2.79172e-01,7.19305e-12,2.79172e-01,1.38569e-11,2.79172e-01
7.77219e+02,8.37000e+02,6.58000e+02,1.79000e+02,5.50023e-12,2.86718e-01,5.39500e-12,2.86718e-01,1.08778e-11,2.86718e-01
7.77470e+02,1.01400e+03,6.63000e+02,3.51000e+02,3.82657e-12,2.94263e-01,3.93752e-12,2.94263e-01,7.69157e-12,2.94263e-01
7.77720e+02,9.70000e+02,6.99000e+02,2.71000e+02,3.40116e-12,3.01808e-01,5.29386e-12,3.01808e-01,8.01842e-12,3.01808e-01
7.77971e+02,9.41000e+02,9.18000e+02,2.30000e+01,3.19207e-12,3.09353e-01,5.43462e-12,3.09353e-01,5.51168e-12,3.09353e-01
7.78221e+02,7.38000e+02,1.00000e+03,-2.62000e+02,3.43419e-12,3.16898e-01,3.05146e-12,3.16898e-01,2.04862e-12,3.16898e-01
7.78471e+02,6.91000e+02,1.11600e+03,-4.25000e+02,3.12102e-12,3.24444e-01,1.30523e-12,3.24444e-01,2.45078e-12,3.24444e-01
7.78722e+02,6.54000e+02,1.06000e+03,-4.06000e+02,4.27287e-12,3.31989e-01,1.40956e-12,3.31989e-01,5.64684e-12,3.31989e-01
7.78972e+02,6.69000e+02,1.06300e+03,-3.94000e+02,4.06534e-12,3.39534e-01,9.49847e-13,3.39534e-01,4.73988e-12,3.39534e-01
7.79222e+02,7.80000e+02,9.30000e+02,-1.50000e+02,2.47243e-12,3.47079e-01,1.21237e-12,3.47079e-01,2.14362e-12,3.47079e-01
7.79473e+02,1.06000e+03,7.77000e+02,2.83000e+02,1.75439e-12,3.54624e-01,2.32017e-12,3.54624e-01,5.77775e-13,3.54624e-01
7.79723e+02,1.23500e+03,6.66000e+02,5.69000e+02,2.71269e-12,3.62169e-01,4.13770e-12,3.62169e-01,1.52508e-12,3.62169e-01
7.79973e+02,1.45100e+03,7.12000e+02,7.39000e+02,3.25982e-12,3.69715e-01,3.82759e-12,3.69715e-01,3.03747e-12,3.69715e-01
7.80224e+02,1.37100e+03,7.79000e+02,5.92000e+02,2.67568e-12,3.77260e-01,1.59845e-12,3.77260e-01,3.34776e-12,3.77260e-01
7.80474e+02,1.32800e+03,1.12100e+03,2.07000e+02,1.18311e-12,3.84805e-01,2.48549e-12,3.84805e-01,3.51882e-12,3.84805e-01
7.80724e+02,9.49000e+02,1.25700e+03,-3.08000e+02,3.81353e-12,3.92350e-01,2.99544e-12,3.92350e-01,6.16652e-12,3.92350e-01
7.80974e+02,7.61000e+02,1.55700e+03,-7.96000e+02,5.25900e-12,3.99895e-01,3.51152e-12,3.99895e-01,8.75805e-12,3.99895e-01
7.81225e+02,6.88000e+02,1.65400e+03,-9.66000e+02,4.24499e-12,4.07441e-01,3.85817e-12,4.07441e-01,8.09488e-12,4.07441e-01
7.81475e+02,7.37000e+02,1.65000e+03,-9.13000e+02,2.02313e-12,4.14986e-01,1.32358e-12,4.14986e-01,3.27214e-12,4.14986e-01
7.81725e+02,9.62000e+02,1.18800e+03,-2.26000e+02,1.73825e-12,4.22531e-01,1.50573e-12,4.22531e-01,1.92238e-12,4.22531e-01
7.81975e+02,1.45300e+03,9.18000e+02,5.35000e+02,1.62238e-12,4.30076e-01,2.09322e-12,4.30076e-01,1.69765e-12,4.30076e-01
7.82226e+02,1.73300e+03,7.33000e+02,1.00000e+03,1.50333e-12,4.37621e-01,2.32984e-12,4.37621e-01,8.54933e-13,4.37621e-01
7.82476e+02,1.89400e+03,7.57000e+02,1.13700e+03,2.08000e-12,4.45167e-01,2.93412e-12,4.45167e-01,2.42843e-12,4.45167e-01
7.82726e+02,1.80100e+03,9.74000e+02,8.27000e+02,2.22253e-12,4.52712e-01,2.15239e-12,4.52712e-01,3.80927e-12,4.52712e-01
7.82976e+02,1.53800e+03,1.42100e+03,1.17000e+02,1.96000e-12,4.60257e-01,1.50785e-12,4.60257e-01,3.37438e-12,4.60257e-01
7.83226e+02,1.07300e+03,1.63800e+03,-5.65000e+02,1.19797e-12,4.67802e-01,1.02305e-12,4.67802e-01,1.72511e-12,4.67802e-01
7.83477e+02,9.05000e+02,2.09300e+03,-1.18800e+03,9.34510e-13,4.75347e-01,2.31865e-12,4.75347e-01,1.45960e-12,4.75347e-01
7.83727e+02,7.82000e+02,2.01400e+03,-1.23200e+03,2.66329e-12,4.82893e-01,2.13438e-12,4.82893e-01,2.37100e-12,4.82893e-01
7.83977e+02,9.43000e+02,1.90900e+03,-9.66000e+02,4.05058e-12,4.90438e-01,7.29316e-13,4.90438e-01,3.47388e-12,4.90438e-01
7.84227e+02,1.30000e+03,1.51400e+03,-2.14000e+02,3.95252e-12,4.97983e-01,2.68025e-12,4.97983e-01,4.22169e-12,4.97983e-01
7.84477e+02,2.00800e+03,1.18800e+03,8.20000e+02,2.94594e-12,5.05528e-01,3.39891e-12,5.05528e-01,3.02416e-12,5.05528e-01
7.84727e+02,2.32400e+03,8.73000e+02,1.45100e+03,2.19838e-12,5.13073e-01,3.47775e-12,5.13073e-01,1.28016e-12,5.13073e-01
7.84978e+02,2.80000e+03,9.36000e+02,1.86400e+03,2.59230e-12,5.20619e-01,3.42160e-12,5.20619e-01,1.29314e-12,5.20619e-01
7.85228e+02,2.90900e+03,1.34200e+03,1.56700e+03,3.30051e-12,5.28164e-01,3.08482e-12,5.28164e-01,5.40466e-13,5.28164e-01
7.85478e+02,2.62600e+03,2.14600e+03,4.80000e+02,2.88626e-12,5.35709e-01,2.45337e-12,5.35709e-01,4.48188e-13,5.35709e-01
7.85728e+02,1.98500e+03,2.76300e+03,-7.78000e+02,1.85954e-12,5.43254e-01,1.57008e-12,5.43254e-01,3.09830e-13,5.43254e-01
7.85978e+02,1.35500e+03,3.24400e+03,-1.88900e+03,9.75334e-13,5.50799e-01,4.57126e-13,5.50799e-01,5.52592e-13,5.50799e-01
7.86228e+02,9.41000e+02,3.09900e+03,-2.15800e+03,1.64354e-12,5.58345e-01,2.13353e-13,5.58345e-01,1.49882e-12,5.58345e-01
7.86478e+02,1.09000e+03,2.70900e+03,-1.61900e+03,2.04704e-12,5.65890e-01,7.91560e-13,5.65890e-01,1.32536e-12,5.65890e-01
7.86728e+02,1.62000e+03,2.11600e+03,-4.96000e+02,1.74384e-12,5.73435e-01,1.79208e-12,5.73435e-01,1.37924e-12,5.73435e-01
7.86978e+02,2.28200e+03,1.51300e+03,7.69000e+02,1.80186e-12,5.80980e-01,2.45719e-12,5.80980e-01,1.74654e-12,5.80980e-01
7.87228e+02,2.99400e+03,1.05400e+03,1.94000e+03,1.71266e-12,5.88525e-01,2.68056e-12,5.88525e-01,1.53117e-12,5.88525e-01
7.87478e+02,3.34100e+03,1.06900e+03,2.27200e+03,1.49368e-12,5.96071e-01,2.66223e-12,5.96071e-01,1.50193e-12,5.96071e-01
7.87728e+02,3.29500e+03,1.52200e+03,1.77300e+03,1.16019e-12,6.03616e-01,2.51487e-12,6.03616e-01,1.42540e-12,6.03616e-01
7.87978e+02,3.17000e+03,2.40600e+03,7.64000e+02,8.94176e-13,6.11161e-01,2.90085e-12,6.11161e-01,2.12550e-12,6.11161e-01
7.88228e+02,2.39700e+03,3.19300e+03,-7.96000e+02,1.14197e-12,6.18706e-01,2.69047e-12,6.18706e-01,3.04154e-12,6.18706e-01
7.88478e+02,1.71700e+03,4.06900e+03,-2.35200e+03,1.99222e-12,6.26251e-01,9.30256e-13,6.26251e-01,2.15219e-12,6.26251e-01
7.88728e+02,1.19400e+03,4.21000e+03,-3.01600e+03,2.49935e-12,6.33797e-01,1.64705e-12,6.33797e-01,9.01951e-13,6.33797e-01
7.88978e+02,1.18500e+03,3.82500e+03,-2.64000e+03,2.64446e-12,6.41342e-01,1.81452e-12,6.41342e-01,1.24863e-12,6.41342e-01
7.89228e+02,1.76300e+03,3.15800e+03,-1.39500e+03,2.84622e-12,6.48887e-01,1.26567e-12,6.48887e-01,1.62652e-12,6.48887e-01
7.89478e+02,2.96400e+03,2.40400e+03,5.60000e+02,1.98503e-12,6.56432e-01,4.50010e-13,6.56432e-01,1.71748e-12,6.56432e-01
7.89728e+02,4.08700e+03,1.54900e+03,2.53800e+03,1.29891e-12,6.63977e-01,1.85174e-13,6.63977e-01,1.47465e-12,6.63977e-01
7.89978e+02,5.04800e+03,1.22000e+03,3.82800e+03,1.18914e-12,6.71523e-01,1.04696e-12,6.71523e-01,1.39715e-12,6.71523e-01
7.90228e+02,5.17700e+03,1.55900e+03,3.61800e+03,1.07168e-12,6.79068e-01,7.54647e-13,6.79068e-01,8.88900e-13,6.79068e-01
7.90478e+02,4.82800e+03,2.62200e+03,2.20600e+03,1.16169e-12,6.86613e-01,7.98072e-13,6.86613e-01,1.90762e-12,6.86613e-01
7.90728e+02,3.88100e+03,3.81000e+03,7.10000e+01,1.65156e-12,6.94158e-01,2.13165e-12,6.94158e-01,3.36492e-12,6.94158e-01
7.90978e+02,2.87700e+03,5.16400e+03,-2.28700e+03,1.67864e-12,7.01703e-01,2.44178e-12,7.01703e-01,2.92900e-12,7.01703e-01
7.91228e+02,1.82900e+03,5.71300e+03,-3.88400e+03,9.91939e-13,7.09249e-01,1.96230e-12,7.09249e-01,1.90739e-12,7.09249e-01
7.91478e+02,1.50300e+03,5.14000e+03,-3.63700e+03,1.08397e-12,7.16794e-01,1.22172e-12,7.16794e-01,1.55679e-12,7.16794e-01
7.91728e+02,1.81000e+03,3.98000e+03,-2.17000e+03,8.97876e-13,7.24339e-01,1.48321e-13,7.24339e-01,7.50124e-13,7.24339e-01
7.91977e+02,2.70000e+03,2.96400e+03,-2.64000e+02,3.44285e-13,7.31884e-01,3.43060e-13,7.31884e-01,6.18468e-13,7.31884e-01
7.92227e+02,3.83500e+03,1.84500e+03,1.99000e+03,1.51604e-12,7.39429e-01,7.17459e-13,7.39429e-01,1.99257e-12,7.39429e-01
7.92477e+02,5.75600e+03,1.43400e+03,4.32200e+03,1.91566e-12,7.46975e-01,1.53865e-12,7.46975e-01,2.73969e-12,7.46975e-01
7.92727e+02,6.79200e+03,1.63500e+03,5.15700e+03,1.48303e-12,7.54520e-01,1.69285e-12,7.54520e-01,2.58189e-12,7.54520e-01
7.92977e+02,6.48200e+03,2.56900e+03,3.91300e+03,1.11919e-12,7.62065e-01,1.05546e-12,7.62065e-01,2.10031e-12,7.62065e-01
7.93227e+02,4.86900e+03,3.64400e+03,1.22500e+03,1.48583e-12,7.69610e-01,7.48624e-13,7.69610e-01,2.15450e-12,7.69610e-01
7.93476e+02,3.33800e+03,4.71100e+03,-1.37300e+03,1.52540e-12,7.77155e-01,1.11829e-12,7.77155e-01,2.55340e-12,7.77155e-01
7.93726e+02,2.11700e+03,5.77600e+03,-3.65900e+03,1.69353e-12,7.84701e-01,1.02200e-12,7.84701e-01,2.68000e-12,7.84701e-01
7.93976e+02,1.62600e+03,6.54600e+03,-4.92000e+03,1.48287e-12,7.92246e-01,1.02810e-12,7.92246e-01,1.86556e-12,7.92246e-01
7.94226e+02,2.10100e+03,5.62400e+03,-3.52300e+03,1.98144e-13,7.99791e-01,7.23745e-13,7.99791e-01,6.46111e-13,7.99791e-01
7.94476e+02,3.74500e+03,4.43800e+03,-6.93000e+02,9.32177e-13,8.07336e-01,7.39648e-13,8.07336e-01,5.25463e-13,8.07336e-01
7.94725e+02,4.96100e+03,2.88700e+03,2.07400e+03,1.53829e-12,8.14881e-01,7.77622e-13,8.14881e-01,8.17885e-13,8.14881e-01
7.94975e+02,6.35700e+03,2.02700e+03,4.33000e+03,2.00121e-12,8.22427e-01,1.60264e-12,8.22427e-01,5.77945e-13,8.22427e-01
7.95225e+02,7.03400e+03,1.87500e+03,5.15900e+03,1.53168e-12,8.29972e-01,2.76681e-12,8.29972e-01,1.27126e-12,8.29972e-01
7.95475e+02,6.87300e+03,2.75700e+03,4.11600e+03,4.73981e-13,8.37517e-01,2.81088e-12,8.37517e-01,2.47895e-12,8.37517e-01
7.95724e+02,5.76700e+03,4.41600e+03,1.35100e+03,4.11920e-13,8.45062e-01,2.05429e-12,8.45062e-01,2.43544e-12,8.45062e-01
7.95974e+02,4.32000e+03,6.12300e+03,-1.80300e+03,4.38701e-13,8.52607e-01,1.30185e-12,8.52607e-01,1.72614e-12,8.52607e-01
7.96224e+02,2.93000e+03,7.37600e+03,-4.44600e+03,4.40740e-13,8.60153e-01,5.69967e-13,8.60153e-01,9.90051e-13,8.60153e-01
7.96474e+02,2.11800e+03,8.03700e+03,-5.91900e+03,1.70959e-13,8.67698e-01,3.35773e-13,8.67698e-01,3.40407e-13,8.67698e-01
7.96723e+02,2.24300e+03,6.94700e+03,-4.70400e+03,5.55121e-13,8.75243e-01,2.11103e-13,8.75243e-01,7.21734e-13,8.75243e-01
7.96973e+02,3.76500e+03,5.33800e+03,-1.57300e+03,5.54778e-13,8.82788e-01,3.78774e-13,8.82788e-01,9.28966e-13,8.82788e-01
7.97223e+02,6.39300e+03,3.80700e+03,2.58600e+03,1.28272e-13,8.90333e-01,6.01846e-13,8.90333e-01,4.76822e-13,8.90333e-01
7.97472e+02,8.01900e+03,2.42100e+03,5.59800e+03,3.92941e-13,8.97879e-01,8.49747e-13,8.97879e-01,7.00262e-13,8.97879e-01
7.97722e+02,9.99100e+03,2.15200e+03,7.83900e+03,5.78778e-13,9.05424e-01,1.09906e-12,9.05424e-01,1.23129e-12,9.05424e-01
7.97972e+02,1.02500e+04,3.34500e+03,6.90500e+03,4.56391e-13,9.12969e-01,1.49470e-12,9.12969e-01,1.24354e-12,9.12969e-01
7.98221e+02,8.50500e+03,5.66600e+03,2.83900e+03,1.04471e-14,9.20514e-01,1.31755e-12,9.20514e-01,1.30942e-12,9.20514e-01
7.98471e+02,5.98700e+03,7.97200e+03,-1.98500e+03,6.81107e-13,9.28059e-01,8.18610e-13,9.28059e-01,1.32338e-12,9.28059e-01
7.98721e+02,3.77400e+03,9.78000e+03,-6.00600e+03,8.81835e-13,9.35605e-01,3.99828e-13,9.35605e-01,4.86573e-13,9.35605e-01
7.98970e+02,2.51900e+03,1.11550e+04,-8.63600e+03,6.11215e-13,9.43150e-01,1.19383e-12,9.43150e-01,7.93935e-13,9.43150e-01
7.99220e+02,2.65500e+03,1.02290e+04,-7.57400e+03,8.10823e-13,9.50695e-01,1.26717e-12,9.50695e-01,4.60712e-13,9.50695e-01
7.99469e+02,4.18800e+03,7.56500e+03,-3.37700e+03,1.16419e-12,9.58240e-01,1.16829e-12,9.58240e-01,3.10692e-13,9.58240e-01
7.99719e+02,6.57200e+03,4.85600e+03,1.71600e+03,8.23275e-13,9.65785e-01,6.93244e-13,9.65785e-01,1.98773e-13,9.65785e-01
7.99969e+02,9.21300e+03,2.99300e+03,6.22000e+03,4.22854e-13,9.73331e-01,1.71460e-13,9.73331e-01,2.51568e-13,9.73331e-01
8.00218e+02,1.09590e+04,2.59000e+03,8.36900e+03,4.05494e-13,9.80876e-01,1.67426e-13,9.80876e-01,2.64294e-13,9.80876e-01
8.00468e+02,1.08870e+04,3.94900e+03,6.93800e+03,9.33576e-13,9.88421e-01,3.96225e-13,9.88421e-01,6.62613e-13,9.88421e-01
8.00717e+02,9.32000e+03,6.27800e+03,3.04200e+03,1.33186e-12,9.95966e-01,8.32991e-13,9.95966e-01,7.60222e-13,9.95966e-01
8.00967e+02,6.79600e+03,8.97800e+03,-2.18200e+03,8.51751e-13,1.00351e+00,7.18680e-13,1.00351e+00,7.53157e-13,1.00351e+00
8.01216e+02,4.35200e+03,1.18880e+04,-7.53600e+03,3.02403e-13,1.01106e+00,1.33910e-13,1.01106e+00,4.32446e-13,1.01106e+00
8.01466e+02,3.00400e+03,1.28070e+04,-9.80300e+03,9.59596e-14,1.01860e+00,6.57799e-13,1.01860e+00,7.33917e-13,1.01860e+00
8.01715e+02,2.92000e+03,1.20580e+04,-9.13800e+03,4.35911e-13,1.02615e+00,6.13343e-13,1.02615e+00,1.03849e-12,1.02615e+00
8.01965e+02,4.81100e+03,9.52000e+03,-4.70900e+03,5.63996e-13,1.03369e+00,2.66932e-13,1.03369e+00,8.18131e-13,1.03369e+00
8.02215e+02,7.50400e+03,6.57600e+03,9.28000e+02,7.36396e-13,1.04124e+00,2.01024e-13,1.04124e+00,8.99178e-13,1.04124e+00
8.02464e+02,1.08380e+04,3.87000e+03,6.96800e+03,6.50278e-13,1.04878e+00,2.96751e-13,1.04878e+00,7.19517e-13,1.04878e+00
8.02713e+02,1.27850e+04,2.73000e+03,1.00550e+04,3.00957e-13,1.05633e+00,2.24844e-13,1.05633e+00,4.70341e-13,1.05633e+00
8.02963e+02,1.32700e+04,3.93200e+03,9.33800e+03,6.90748e-13,1.06387e+00,5.64936e-13,1.06387e+00,5.52936e-13,1.06387e+00
8.03212e+02,1.28690e+04,6.85400e+03,6.01500e+03,1.04172e-12,1.07142e+00,3.27786e-13,1.07142e+00,1.22123e-12,1.07142e+00
8.03462e+02,1.04170e+04,1.08170e+04,-4.00000e+02,7.59619e-13,1.07896e+00,8.25596e-13,1.07896e+00,1.17189e-12,1.07896e+00
8.03711e+02,6.63300e+03,1.40030e+04,-7.37000e+03,6.32155e-13,1.08651e+00,6.13001e-13,1.08651e+00,4.55311e-13,1.08651e+00
8.03961e+02,3.70500e+03,1.36590e+04,-9.95400e+03,9.34596e-13,1.09405e+00,2.20494e-13,1.09405e+00,7.14351e-13,1.09405e+00
8.04210e+02,2.96500e+03,1.22450e+04,-9.28000e+03,9.39805e-13,1.10160e+00,1.36528e-13,1.10160e+00,1.04507e-12,1.10160e+00
8.04460e+02,4.57900e+03,1.06190e+04,-6.04000e+03,5.66862e-13,1.10914e+00,1.22119e-13,1.10914e+00,6.88219e-13,1.10914e+00
8.04709e+02,7.76500e+03,8.15600e+03,-3.91000e+02,1.48642e-13,1.11669e+00,3.21708e-13,1.11669e+00,4.07407e-13,1.11669e+00
8.04958e+02,1.07760e+04,4.83400e+03,5.94200e+03,2.71637e-13,1.12423e+00,2.18091e-13,1.12423e+00,4.53834e-13,1.12423e+00
8.05208e+02,1.27590e+04,3.04000e+03,9.71900e+03,2.66580e-13,1.13178e+00,8.63889e-14,1.13178e+00,2.74667e-13,1.13178e+00
8.05457e+02,1.27400e+04,3.26700e+03,9.47300e+03,7.93499e-13,1.13932e+00,3.71716e-13,1.13932e+00,4.32815e-13,1.13932e+00
8.05707e+02,1.30170e+04,5.46400e+03,7.55300e+03,1.17688e-12,1.14687e+00,5.38456e-13,1.14687e+00,7.27143e-13,1.14687e+00
8.05956e+02,1.16970e+04,8.86900e+03,2.82800e+03,1.11413e-12,1.15442e+00,2.42803e-13,1.15442e+00,8.77832e-13,1.15442e+00
8.06205e+02,7.63300e+03,1.12130e+04,-3.58000e+03,8.75729e-13,1.16196e+00,1.73980e-13,1.16196e+00,1.03716e-12,1.16196e+00
8.06455e+02,4.50700e+03,1.35370e+04,-9.03000e+03,6.54322e-13,1.16951e+00,6.73064e-13,1.16951e+00,1.29224e-12,1.16951e+00
8.06704e+02,3.16800e+03,1.43950e+04,-1.12270e+04,4.41836e-13,1.17705e+00,9.21550e-13,1.17705e+00,1.32836e-12,1.17705e+00
8.06953e+02,3.80700e+03,1.30490e+04,-9.24200e+03,6.80871e-13,1.18460e+00,7.68534e-13,1.18460e+00,1.33307e-12,1.18460e+00
8.07203e+02,5.54100e+03,9.42300e+03,-3.88200e+03,6.16630e-13,1.19214e+00,5.59940e-13,1.19214e+00,9.75393e-13,1.19214e+00
8.07452e+02,9.24300e+03,6.52800e+03,2.71500e+03,9.25521e-13,1.19969e+00,5.60167e-13,1.19969e+00,8.06944e-13,1.19969e+00
8.07701e+02,1.28570e+04,3.92900e+03,8.92800e+03,1.14229e-12,1.20723e+00,5.92416e-13,1.20723e+00,6.39227e-13,1.20723e+00
8.07951e+02,1.44570e+04,3.20100e+03,1.12560e+04,7.00402e-13,1.21478e+00,6.94797e-13,1.21478e+00,3.65658e-14,1.21478e+00
8.08200e+02,1.35620e+04,3.87700e+03,9.68500e+03,1.67616e-13,1.22232e+00,5.12820e-13,1.22232e+00,4.21829e-13,1.22232e+00
8.08449e+02,1.21210e+04,6.80400e+03,5.31700e+03,5.12912e-13,1.22987e+00,2.63139e-13,1.22987e+00,7.32675e-13,1.22987e+00
8.08698e+02,9.80100e+03,1.10330e+04,-1.23200e+03,8.49839e-13,1.23741e+00,1.02793e-13,1.23741e+00,9.06799e-13,1.23741e+00
8.08948e+02,6.95800e+03,1.44440e+04,-7.48600e+03,7.56369e-13,1.24496e+00,1.99099e-13,1.24496e+00,7.95339e-13,1.24496e+00
8.09197e+02,4.27700e+03,1.54190e+04,-1.11420e+04,2.85893e-13,1.25250e+00,1.72011e-13,1.25250e+00,4.56487e-13,1.25250e+00
8.09446e+02,3.40400e+03,1.45010e+04,-1.10970e+04,1.36920e-13,1.26005e+00,2.47531e-14,1.26005e+00,1.57714e-13,1.26005e+00
8.09695e+02,5.48900e+03,1.24890e+04,-7.00000e+03,2.00936e-13,1.26759e+00,5.58019e-13,1.26759e+00,5.86203e-13,1.26759e+00
8.09945e+02,9.08000e+03,9.67800e+03,-5.98000e+02,3.77760e-13,1.27514e+00,8.35882e-13,1.27514e+00,7.23226e-13,1.27514e+00
8.10194e+02,1.21450e+04,6.35300e+03,5.79200e+03,3.68726e-13,1.28268e+00,8.69755e-13,1.28268e+00,5.18510e-13,1.28268e+00
8.10443e+02,1.46040e+04,4.09600e+03,1.05080e+04,7.83990e-13,1.29023e+00,1.05407e-12,1.29023e+00,2.74582e-13,1.29023e+00
8.10692e+02,1.52460e+04,4.12000e+03,1.11260e+04,5.29670e-13,1.29777e+00,7.50206e-13,1.29777e+00,2.48991e-13,1.29777e+00
8.10941e+02,1.50370e+04,6.62600e+03,8.41100e+03,2.49573e-13,1.30532e+00,1.45346e-13,1.30532e+00,1.82845e-13,1.30532e+00
8.11191e+02,1.23460e+04,1.00070e+04,2.33900e+03,2.05638e-13,1.31286e+00,3.52047e-13,1.31286e+00,2.45252e-13,1.31286e+00
8.11440e+02,9.18600e+03,1.44110e+04,-5.22500e+03,1.63182e-12,-1.32041e+00,1.99478e-12,-1.32041e+00,3.62962e-13,-1.32041e+00
8.11689e+02,5.91200e+03,1.56750e+04,-9.76300e+03,2.05638e-13,-1.31286e+00,3.52047e-13,-1.31286e+00,2.45252e-13,-1.31286e+00
8.11938e+02,3.96000e+03,1.57520e+04,-1.17920e+04,2.49573e-13,-1.30532e+00,1.45346e-13,-1.30532e+00,1.82845e-13,-1.30532e+00
8.12187e+02,4.47600e+03,1.55180e+04,-1.10420e+04,5.29670e-13,-1.29777e+00,7.50206e-13,-1.29777e+00,2.48991e-13,-1.29777e+00
8.12436e+02,7.19200e+03,1.34000e+04,-6.20800e+03,7.83990e-13,-1.29023e+00,1.05407e-12,-1.29023e+00,2.74582e-13,-1.29023e+00
8.12685e+02,1.14130e+04,8.13600e+03,3.27700e+03,3.68726e-13,-1.28268e+00,8.69755e-13,-1.28268e+00,5.18510e-13,-1.28268e+00
8.12935e+02,1.42310e+04,5.13000e+03,9.10100e+03,3.77760e-13,-1.27514e+00,8.35882e-13,-1.27514e+00,7.23226e-13,-1.27514e+00
8.13184e+02,1.50600e+04,4.11700e+03,1.09430e+04,2.00936e-13,-1.26759e+00,5.58019e-13,-1.26759e+00,5.86203e-13,-1.26759e+00
8.13433e+02,1.53330e+04,4.94200e+03,1.03910e+04,1.36920e-13,-1.26005e+00,2.47531e-14,-1.26005e+00,1.57714e-13,-1.26005e+00
8.13682e+02,1.46930e+04,7.94800e+03,6.74500e+03,2.85893e-13,-1.25250e+00,1.72011e-13,-1.25250e+00,4.56487e-13,-1.25250e+00
8.13931e+02,1.20750e+04,1.18790e+04,1.96000e+02,7.56369e-13,-1.24496e+00,1.99099e-13,-1.24496e+00,7.95339e-13,-1.24496e+00
8.14180e+02,7.66700e+03,1.40530e+04,-6.38600e+03,8.49839e-13,-1.23741e+00,1.02793e-13,-1.23741e+00,9.06799e-13,-1.23741e+00
8.14429e+02,4.74000e+03,1.52630e+04,-1.05230e+04,5.12912e-13,-1.22987e+00,2.63139e-13,-1.22987e+00,7.32675e-13,-1.22987e+00
8.14678e+02,3.57400e+03,1.53620e+04,-1.17880e+04,1.67616e-13,-1.22232e+00,5.12820e-13,-1.22232e+00,4.21829e-13,-1.22232e+00
8.14927e+02,4.65200e+03,1.30520e+04,-8.40000e+03,7.00402e-13,-1.21478e+00,6.94797e-13,-1.21478e+00,3.65658e-14,-1.21478e+00
8.15176e+02,7.26000e+03,9.67900e+03,-2.41900e+03,1.14229e-12,-1.20723e+00,5.92416e-13,-1.20723e+00,6.39227e-13,-1.20723e+00
8.15425e+02,1.05150e+04,6.08200e+03,4.43300e+03,9.25521e-13,-1.19969e+00,5.60167e-13,-1.19969e+00,8.06944e-13,-1.19969e+00
8.15674e+02,1.40380e+04,3.88000e+03,1.01580e+04,6.16630e-13,-1.19214e+00,5.59940e-13,-1.19214e+00,9.75393e-13,-1.19214e+00
8.15923e+02,1.54360e+04,3.76000e+03,1.16760e+04,6.80871e-13,-1.18460e+00,7.68534e-13,-1.18460e+00,1.33307e-12,-1.18460e+00
8.16172e+02,1.55040e+04,6.04000e+03,9.46400e+03,4.41836e-13,-1.17705e+00,9.21550e-13,-1.17705e+00,1.32836e-12,-1.17705e+00
8.16421e+02,1.19820e+04,9.08200e+03,2.90000e+03,6.54322e-13,-1.16951e+00,6.73064e-13,-1.16951e+00,1.29224e-12,-1.16951e+00
8.16670e+02,7.20000e+03,1.16740e+04,-4.47400e+03,8.75729e-13,-1.16196e+00,1.73980e-13,-1.16196e+00,1.03716e-12,-1.16196e+00
8.16919e+02,4.36400e+03,1.43380e+04,-9.97400e+03,1.11413e-12,-1.15442e+00,2.42803e-13,-1.15442e+00,8.77832e-13,-1.15442e+00
8.17168e+02,3.07400e+03,1.43360e+04,-1.12620e+04,1.17688e-12,-1.14687e+00,5.38456e-13,-1.14687e+00,7.27143e-13,-1.14687e+00
8.17417e+02,3.33000e+03,1.25420e+04,-9.21200e+03,7.93499e-13,-1.13932e+00,3.71716e-13,-1.13932e+00,4.32815e-13,-1.13932e+00
8.17666e+02,5.46100e+03,1.02960e+04,-4.83500e+03,2.66580e-13,-1.13178e+00,8.63889e-14,-1.13178e+00,2.74667e-13,-1.13178e+00
8.17915e+02,8.48300e+03,7.05000e+03,1.43300e+03,2.71637e-13,-1.12423e+00,2.18091e-13,-1.12423e+00,4.53834e-13,-1.12423e+00
8.18164e+02,1.01350e+04,4.21400e+03,5.92100e+03,1.48642e-13,-1.11669e+00,3.21708e-13,-1.11669e+00,4.07407e-13,-1.11669e+00
8.18413e+02,1.12540e+04,2.91800e+03,8.33600e+03,5.66862e-13,-1.10914e+00,1.22119e-13,-1.10914e+00,6.88219e-13,-1.10914e+00
8.18662e+02,1.07290e+04,3.29100e+03,7.43800e+03,9.39805e-13,-1.10160e+00,1.36528e-13,-1.10160e+00,1.04507e-12,-1.10160e+00
8.18911e+02,9.83500e+03,5.09100e+03,4.74400e+03,9.34596e-13,-1.09405e+00,2.20494e-13,-1.09405e+00,7.14351e-13,-1.09405e+00
8.19160e+02,7.47600e+03,7.34700e+03,1.29000e+02,6.32155e-13,-1.08651e+00,6.13001e-13,-1.08651e+00,4.55311e-13,-1.08651e+00
8.19408e+02,5.08200e+03,9.96500e+03,-4.88300e+03,7.59619e-13,-1.07896e+00,8.25596e-13,-1.07896e+00,1.17189e-12,-1.07896e+00
8.19657e+02,3.30700e+03,1.26830e+04,-9.37600e+03,1.04172e-12,-1.07142e+00,3.27786e-13,-1.07142e+00,1.22123e-12,-1.07142e+00
8.19906e+02,2.72100e+03,1.33020e+04,-1.05810e+04,6.90748e-13,-1.06387e+00,5.64936e-13,-1.06387e+00,5.52936e-13,-1.06387e+00
8.20155e+02,3.79400e+03,1.19720e+04,-8.17800e+03,3.00957e-13,-1.05633e+00,2.24844e-13,-1.05633e+00,4.70341e-13,-1.05633e+00
8.20404e+02,5.82100e+03,8.39000e+03,-2.56900e+03,6.50278e-13,-1.04878e+00,2.96751e-13,-1.04878e+00,7.19517e-13,-1.04878e+00
8.20653e+02,8.10600e+03,4.77100e+03,3.33500e+03,7.36396e-13,-1.04124e+00,2.01024e-13,-1.04124e+00,8.99178e-13,-1.04124e+00
8.20901e+02,1.00780e+04,2.99300e+03,7.08500e+03,5.63996e-13,-1.03369e+00,2.66932e-13,-1.03369e+00,8.18131e-13,-1.03369e+00
8.21150e+02,1.17200e+04,2.72100e+03,8.99900e+03,4.35911e-13,-1.02615e+00,6.13343e-13,-1.02615e+00,1.03849e-12,-1.02615e+00
8.21399e+02,9.53400e+03,3.51200e+03,6.02200e+03,9.59596e-14,-1.01860e+00,6.57799e-13,-1.01860e+00,7.33917e-13,-1.01860e+00
8.21648e+02,7.85000e+03,5.60200e+03,2.24800e+03,3.02403e-13,-1.01106e+00,1.33910e-13,-1.01106e+00,4.32446e-13,-1.01106e+00
8.21897e+02,6.14500e+03,7.69500e+03,-1.55000e+03,8.51751e-13,-1.00351e+00,7.18680e-13,-1.00351e+00,7.53157e-13,-1.00351e+00
8.22145e+02,3.89600e+03,8.65900e+03,-4.76300e+03,1.33186e-12,-9.95966e-01,8.32991e-13,-9.95966e-01,7.60222e-13,-9.95966e-01
8.22394e+02,2.63300e+03,9.96500e+03,-7.33200e+03,9.33576e-13,-9.88421e-01,3.96225e-13,-9.88421e-01,6.62613e-13,-9.88421e-01
8.22643e+02,2.40800e+03,9.94900e+03,-7.54100e+03,4.05494e-13,-9.80876e-01,1.67426e-13,-9.80876e-01,2.64294e-13,-9.80876e-01
8.22892e+02,3.64400e+03,7.77400e+03,-4.13000e+03,4.22854e-13,-9.73331e-01,1.71460e-13,-9.73331e-01,2.51568e-13,-9.73331e-01
8.23140e+02,5.36300e+03,5.68600e+03,-3.23000e+02,8.23275e-13,-9.65785e-01,6.93244e-13,-9.65785e-01,1.98773e-13,-9.65785e-01
8.23389e+02,7.69800e+03,3.72500e+03,3.97300e+03,1.16419e-12,-9.58240e-01,1.16829e-12,-9.58240e-01,3.10692e-13,-9.58240e-01
8.23638e+02,9.28200e+03,2.47700e+03,6.80500e+03,8.10823e-13,-9.50695e-01,1.26717e-12,-9.50695e-01,4.60712e-13,-9.50695e-01
8.23887e+02,9.26800e+03,2.55800e+03,6.71000e+03,6.11215e-13,-9.43150e-01,1.19383e-12,-9.43150e-01,7.93935e-13,-9.43150e-01
8.24135e+02,8.41500e+03,3.69800e+03,4.71700e+03,8.81835e-13,-9.35605e-01,3.99828e-13,-9.35605e-01,4.86573e-13,-9.35605e-01
8.24384e+02,6.72900e+03,5.42900e+03,1.30000e+03,6.81107e-13,-9.28059e-01,8.18610e-13,-9.28059e-01,1.32338e-12,-9.28059e-01
8.24633e+02,4.45500e+03,7.40500e+03,-2.95000e+03,1.04471e-14,-9.20514e-01,1.31755e-12,-9.20514e-01,1.30942e-12,-9.20514e-01
8.24881e+02,2.78300e+03,8.96200e+03,-6.17900e+03,4.56391e-13,-9.12969e-01,1.49470e-12,-9.12969e-01,1.24354e-12,-9.12969e-01
8.25130e+02,1.98900e+03,9.48600e+03,-7.49700e+03,5.78778e-13,-9.05424e-01,1.09906e-12,-9.05424e-01,1.23129e-12,-9.05424e-01
8.25379e+02,2.62600e+03,8.67900e+03,-6.05300e+03,3.92941e-13,-8.97879e-01,8.49747e-13,-8.97879e-01,7.00262e-13,-8.97879e-01
8.25627e+02,3.67200e+03,5.88000e+03,-2.20800e+03,1.28272e-13,-8.90333e-01,6.01846e-13,-8.90333e-01,4.76822e-13,-8.90333e-01
8.25876e+02,5.33900e+03,3.63600e+03,1.70300e+03,5.54778e-13,-8.82788e-01,3.78774e-13,-8.82788e-01,9.28966e-13,-8.82788e-01
8.26125e+02,6.60300e+03,2.26100e+03,4.34200e+03,5.55121e-13,-8.75243e-01,2.11103e-13,-8.75243e-01,7.21734e-13,-8.75243e-01
8.26373e+02,6.45300e+03,1.66800e+03,4.78500e+03,1.70959e-13,-8.67698e-01,3.35773e-13,-8.67698e-01,3.40407e-13,-8.67698e-01
8.26622e+02,5.62900e+03,1.87500e+03,3.75400e+03,4.40740e-13,-8.60153e-01,5.69967e-13,-8.60153e-01,9.90051e-13,-8.60153e-01
8.26870e+02,4.30000e+03,2.79700e+03,1.50300e+03,4.38701e-13,-8.52607e-01,1.30185e-12,-8.52607e-01,1.72614e-12,-8.52607e-01
8.27119e+02,3.40800e+03,3.87800e+03,-4.70000e+02,4.11920e-13,-8.45062e-01,2.05429e-12,-8.45062e-01,2.43544e-12,-8.45062e-01
8.27368e+02,2.50500e+03,4.95300e+03,-2.44800e+03,4.73981e-13,-8.37517e-01,2.81088e-12,-8.37517e-01,2.47895e-12,-8.37517e-01
8.27616e+02,1.63700e+03,5.00100e+03,-3.36400e+03,1.53168e-12,-8.29972e-01,2.76681e-12,-8.29972e-01,1.27126e-12,-8.29972e-01
8.27865e+02,1.40600e+03,5.03500e+03,-3.62900e+03,2.00121e-12,-8.22427e-01,1.60264e-12,-8.22427e-01,5.77945e-13,-8.22427e-01
8.28113e+02,1.81200e+03,5.34800e+03,-3.53600e+03,1.53829e-12,-8.14881e-01,7.77622e-13,-8.14881e-01,8.17885e-13,-8.14881e-01
8.28362e+02,2.83800e+03,4.15500e+03,-1.31700e+03,9.32177e-13,-8.07336e-01,7.39648e-13,-8.07336e-01,5.25463e-13,-8.07336e-01
8.28610e+02,3.73600e+03,2.54500e+03,1.19100e+03,1.98144e-13,-7.99791e-01,7.23745e-13,-7.99791e-01,6.46111e-13,-7.99791e-01
8.28859e+02,4.43200e+03,1.58100e+03,2.85100e+03,1.48287e-12,-7.92246e-01,1.02810e-12,-7.92246e-01,1.86556e-12,-7.92246e-01
8.29108e+02,4.56000e+03,1.19400e+03,3.36600e+03,1.69353e-12,-7.84701e-01,1.02200e-12,-7.84701e-01,2.68000e-12,-7.84701e-01
8.29356e+02,4.19900e+03,1.51000e+03,2.68900e+03,1.52540e-12,-7.77155e-01,1.11829e-12,-7.77155e-01,2.55340e-12,-7.77155e-01
8.29605e+02,3.44300e+03,2.02800e+03,1.41500e+03,1.48583e-12,-7.69610e-01,7.48624e-13,-7.69610e-01,2.15450e-12,-7.69610e-01
8.29853e+02,2.54600e+03,2.76300e+03,-2.17000e+02,1.11919e-12,-7.62065e-01,1.05546e-12,-7.62065e-01,2.10031e-12,-7.62065e-01
8.30101e+02,1.66000e+03,3.45700e+03,-1.79700e+03,1.48303e-12,-7.54520e-01,1.69285e-12,-7.54520e-01,2.58189e-12,-7.54520e-01
8.30350e+02,1.19600e+03,3.81300e+03,-2.61700e+03,1.91566e-12,-7.46975e-01,1.53865e-12,-7.46975e-01,2.73969e-12,-7.46975e-01
8.30598e+02,1.01700e+03,3.33700e+03,-2.32000e+03,1.51604e-12,-7.39429e-01,7.17459e-13,-7.39429e-01,1.99257e-12,-7.39429e-01
8.30847e+02,1.35000e+03,2.94000e+03,-1.59000e+03,3.44285e-13,-7.31884e-01,3.43060e-13,-7.31884e-01,6.18468e-13,-7.31884e-01
8.31095e+02,1.85400e+03,2.40100e+03,-5.47000e+02,8.97876e-13,-7.24339e-01,1.48321e-13,-7.24339e-01,7.50124e-13,-7.24339e-01
8.31344e+02,2.63700e+03,1.66700e+03,9.70000e+02,1.08397e-12,-7.16794e-01,1.22172e-12,-7.16794e-01,1.55679e-12,-7.16794e-01
8.31592e+02,2.84500e+03,1.02400e+03,1.82100e+03,9.91939e-13,-7.09249e-01,1.96230e-12,-7.09249e-01,1.90739e-12,-7.09249e-01
8.31841e+02,2.71800e+03,8.94000e+02,1.82400e+03,1.67864e-12,-7.01703e-01,2.44178e-12,-7.01703e-01,2.92900e-12,-7.01703e-01
8.32089e+02,2.68200e+03,1.03300e+03,1.64900e+03,1.65156e-12,-6.94158e-01,2.13165e-12,-6.94158e-01,3.36492e-12,-6.94158e-01
8.32337e+02,2.35400e+03,1.47400e+03,8.80000e+02,1.16169e-12,-6.86613e-01,7.98072e-13,-6.86613e-01,1.90762e-12,-6.86613e-01
8.32586e+02,1.61900e+03,1.78900e+03,-1.70000e+02,1.07168e-12,-6.79068e-01,7.54647e-13,-6.79068e-01,8.88900e-13,-6.79068e-01
8.32834e+02,1.26900e+03,2.33700e+03,-1.06800e+03,1.18914e-12,-6.71523e-01,1.04696e-12,-6.71523e-01,1.39715e-12,-6.71523e-01
8.33083e+02,8.33000e+02,2.42000e+03,-1.58700e+03,1.29891e-12,-6.63977e-01,1.85174e-13,-6.63977e-01,1.47465e-12,-6.63977e-01
8.33331e+02,8.12000e+02,2.35700e+03,-1.54500e+03,1.98503e-12,-6.56432e-01,4.50010e-13,-6.56432e-01,1.71748e-12,-6.56432e-01
8.33579e+02,9.59000e+02,1.96100e+03,-1.00200e+03,2.84622e-12,-6.48887e-01,1.26567e-12,-6.48887e-01,1.62652e-12,-6.48887e-01
8.33828e+02,1.27500e+03,1.58300e+03,-3.08000e+02,2.64446e-12,-6.41342e-01,1.81452e-12,-6.41342e-01,1.24863e-12,-6.41342e-01
8.34076e+02,1.41700e+03,1.07700e+03,3.40000e+02,2.49935e-12,-6.33797e-01,1.64705e-12,-6.33797e-01,9.01951e-13,-6.33797e-01
8.34324e+02,1.72100e+03,8.40000e+02,8.81000e+02,1.99222e-12,-6.26251e-01,9.30256e-13,-6.26251e-01,2.15219e-12,-6.26251e-01
8.34573e+02,1.83200e+03,7.29000e+02,1.10300e+03,1.14197e-12,-6.18706e-01,2.69047e-12,-6.18706e-01,3.04154e-12,-6.18706e-01
8.34821e+02,1.74500e+03,8.00000e+02,9.45000e+02,8.94176e-13,-6.11161e-01,2.90085e-12,-6.11161e-01,2.12550e-12,-6.11161e-01
8.35069e+02,1.40200e+03,8.97000e+02,5.05000e+02,1.16019e-12,-6.03616e-01,2.51487e-12,-6.03616e-01,1.42540e-12,-6.03616e-01
8.35318e+02,1.32400e+03,1.22200e+03,1.02000e+02,1.49368e-12,-5.96071e-01,2.66223e-12,-5.96071e-01,1.50193e-12,-5.96071e-01
8.35566e+02,8.63000e+02,1.29700e+03,-4.34000e+02,1.71266e-12,-5.88525e-01,2.68056e-12,-5.88525e-01,1.53117e-12,-5.88525e-01
8.35814e+02,7.32000e+02,1.45400e+03,-7.22000e+02,1.80186e-12,-5.80980e-01,2.45719e-12,-5.80980e-01,1.74654e-12,-5.80980e-01
8.36062e+02,6.81000e+02,1.30100e+03,-6.20000e+02,1.74384e-12,-5.73435e-01,1.79208e-12,-5.73435e-01,1.37924e-12,-5.73435e-01
8.36311e+02,7.08000e+02,1.18700e+03,-4.79000e+02,2.04704e-12,-5.65890e-01,7.91560e-13,-5.65890e-01,1.32536e-12,-5.65890e-01
8.36559e+02,7.62000e+02,1.00400e+03,-2.42000e+02,1.64354e-12,-5.58345e-01,2.13353e-13,-5.58345e-01,1.49882e-12,-5.58345e-01
8.36807e+02,9.44000e+02,9.04000e+02,4.00000e+01,9.75334e-13,-5.50799e-01,4.57126e-13,-5.50799e-01,5.52592e-13,-5.50799e-01
8.37055e+02,1.09300e+03,7.25000e+02,3.68000e+02,1.85954e-12,-5.43254e-01,1.57008e-12,-5.43254e-01,3.09830e-13,-5.43254e-01
8.37304e+02,1.18400e+03,6.66000e+02,5.18000e+02,2.88626e-12,-5.35709e-01,2.45337e-12,-5.35709e-01,4.48188e-13,-5.35709e-01
8.37552e+02,1.07700e+03,6.58000e+02,4.19000e+02,3.30051e-12,-5.28164e-01,3.08482e-12,-5.28164e-01,5.40466e-13,-5.28164e-01
8.37800e+02,9.94000e+02,7.43000e+02,2.51000e+02,2.59230e-12,-5.20619e-01,3.42160e-12,-5.20619e-01,1.29314e-12,-5.20619e-01
8.38048e+02,7.58000e+02,7.23000e+02,3.50000e+01,2.19838e-12,-5.13073e-01,3.47775e-12,-5.13073e-01,1.28016e-12,-5.13073e-01
8.38296e+02,7.07000e+02,8.33000e+02,-1.26000e+02,2.94594e-12,-5.05528e-01,3.39891e-12,-5.05528e-01,3.02416e-12,-5.05528e-01
8.38545e+02,6.47000e+02,8.68000e+02,-2.21000e+02,3.95252e-12,-4.97983e-01,2.68025e-12,-4.97983e-01,4.22169e-12,-4.97983e-01
8.38793e+02,6.45000e+02,8.87000e+02,-2.42000e+02,4.05058e-12,-4.90438e-01,7.29316e-13,-4.90438e-01,3.47388e-12,-4.90438e-01
8.39041e+02,6.39000e+02,7.66000e+02,-1.27000e+02,2.66329e-12,-4.82893e-01,2.13438e-12,-4.82893e-01,2.37100e-12,-4.82893e-01
8.39289e+02,6.60000e+02,7.34000e+02,-7.40000e+01,9.34510e-13,-4.75347e-01,2.31865e-12,-4.75347e-01,1.45960e-12,-4.75347e-01
8.39537e+02,6.78000e+02,6.58000e+02,2.00000e+01,1.19797e-12,-4.67802e-01,1.02305e-12,-4.67802e-01,1.72511e-12,-4.67802e-01
8.39785e+02,7.41000e+02,6.56000e+02,8.50000e+01,1.96000e-12,-4.60257e-01,1.50785e-12,-4.60257e-01,3.37438e-12,-4.60257e-01
8.40033e+02,7.32000e+02,6.33000e+02,9.90000e+01,2.22253e-12,-4.52712e-01,2.15239e-12,-4.52712e-01,3.80927e-12,-4.52712e-01
8.40281e+02,7.70000e+02,6.65000e+02,1.05000e+02,2.08000e-12,-4.45167e-01,2.93412e-12,-4.45167e-01,2.42843e-12,-4.45167e-01
8.40530e+02,6.89000e+02,6.32000e+02,5.70000e+01,1.50333e-12,-4.37621e-01,2.32984e-12,-4.37621e-01,8.54933e-13,-4.37621e-01
8.40778e+02,6.84000e+02,6.63000e+02,2.10000e+01,1.62238e-12,-4.30076e-01,2.09322e-12,-4.30076e-01,1.69765e-12,-4.30076e-01
8.41026e+02,6.54000e+02,6.78000e+02,-2.40000e+01,1.73825e-12,-4.22531e-01,1.50573e-12,-4.22531e-01,1.92238e-12,-4.22531e-01
8.41274e+02,6.49000e+02,6.82000e+02,-3.30000e+01,2.02313e-12,-4.14986e-01,1.32358e-12,-4.14986e-01,3.27214e-12,-4.14986e-01
8.41522e+02,6.26000e+02,6.96000e+02,-7.00000e+01,4.24499e-12,-4.07441e-01,3.85817e-12,-4.07441e-01,8.09488e-12,-4.07441e-01
8.41770e+02,6.35000e+02,7.00000e+02,-6.50000e+01,5.25900e-12,-3.99895e-01,3.51152e-12,-3.99895e-01,8.75805e-12,-3.99895e-01
8.42018e+02,6.19000e+02,6.55000e+02,-3.60000e+01,3.81353e-12,-3.92350e-01,2.99544e-12,-3.92350e-01,6.16652e-12,-3.92350e-01
8.42266e+02,6.43000e+02,6.47000e+02,-4.00000e+00,1.18311e-12,-3.84805e-01,2.48549e-12,-3.84805e-01,3.51882e-12,-3.84805e-01
8.42514e+02,6.57000e+02,6.29000e+02,2.80000e+01,2.67568e-12,-3.77260e-01,1.59845e-12,-3.77260e-01,3.34776e-12,-3.77260e-01
8.42762e+02,6.90000e+02,6.65000e+02,2.50000e+01,3.25982e-12,-3.69715e-01,3.82759e-12,-3.69715e-01,3.03747e-12,-3.69715e-01
8.43010e+02,6.34000e+02,6.16000e+02,1.80000e+01,2.71269e-12,-3.62169e-01,4.13770e-12,-3.62169e-01,1.52508e-12,-3.62169e-01
8.43258e+02,6.56000e+02,6.39000e+02,1.70000e+01,1.75439e-12,-3.54624e-01,2.32017e-12,-3.54624e-01,5.77775e-13,-3.54624e-01
8.43506e+02,6.37000e+02,6.35000e+02,2.00000e+00,2.47243e-12,-3.47079e-01,1.21237e-12,-3.47079e-01,2.14362e-12,-3.47079e-01
8.43754e+02,6.37000e+02,6.50000e+02,-1.30000e+01,4.06534e-12,-3.39534e-01,9.49847e-13,-3.39534e-01,4.73988e-12,-3.39534e-01
8.44002e+02,6.41000e+02,6.34000e+02,7.00000e+00,4.27287e-12,-3.31989e-01,1.40956e-12,-3.31989e-01,5.64684e-12,-3.31989e-01
8.44250e+02,6.25000e+02,6.45000e+02,-2.00000e+01,3.12102e-12,-3.24444e-01,1.30523e-12,-3.24444e-01,2.45078e-12,-3.24444e-01
8.44498e+02,6.41000e+02,6.40000e+02,1.00000e+00,3.43419e-12,-3.16898e-01,3.05146e-12,-3.16898e-01,2.04862e-12,-3.16898e-01
8.44746e+02,6.37000e+02,6.50000e+02,-1.30000e+01,3.19207e-12,-3.09353e-01,5.43462e-12,-3.09353e-01,5.51168e-12,-3.09353e-01
8.44994e+02,6.26000e+02,6.30000e+02,-4.00000e+00,3.40116e-12,-3.01808e-01,5.29386e-12,-3.01808e-01,8.01842e-12,-3.01808e-01
8.45242e+02,6.79000e+02,6.73000e+02,6.00000e+00,3.82657e-12,-2.94263e-01,3.93752e-12,-2.94263e-01,7.69157e-12,-2.94263e-01
8.45490e+02,6.27000e+02,6.26000e+02,1.00000e+00,5.50023e-12,-2.86718e-01,5.39500e-12,-2.86718e-01,1.08778e-11,-2.86718e-01
8.45738e+02,6.38000e+02,6.22000e+02,1.60000e+01,6.68510e-12,-2.79172e-01,7.19305e-12,-2.79172e-01,1.38569e-11,-2.79172e-01
8.45985e+02,6.40000e+02,6.32000e+02,8.00000e+00,1.10105e-11,-2.71627e-01,1.11816e-11,-2.71627e-01,2.07472e-11,-2.71627e-01
8.46233e+02,6.35000e+02,6.41000e+02,-6.00000e+00,5.36334e-11,-2.64082e-01,4.62720e-11,-2.64082e-01,9.81942e-11,-2.64082e-01
8.46481e+02,6.37000e+02,6.29000e+02,8.00000e+00,9.88914e-11,-2.56537e-01,9.63466e-11,-2.56537e-01,1.92714e-10,-2.56537e-01
8.46729e+02,6.28000e+02,6.32000e+02,-4.00000e+00,9.36709e-11,-2.48992e-01,1.01945e-10,-2.48992e-01,1.93222e-10,-2.48992e-01
8.46977e+02,6.28000e+02,6.29000e+02,-1.00000e+00,5.16406e-11,-2.41446e-01,6.33236e-11,-2.41446e-01,1.13760e-10,-2.41446e-01
8.47225e+02,6.45000e+02,6.36000e+02,9.00000e+00,2.17044e-11,-2.33901e-01,3.05313e-11,-2.33901e-01,5.18057e-11,-2.33901e-01
8.47473e+02,6.24000e+02,6.41000e+02,-1.70000e+01,4.29902e-12,-2.26356e-01,9.22606e-12,-2.26356e-01,1.30688e-11,-2.26356e-01
8.47720e+02,6.46000e+02,6.56000e+02,-1.00000e+01,3.03308e-12,-2.18811e-01,2.79334e-12,-2.18811e-01,5.48390e-12,-2.18811e-01
8.47968e+02,6.18000e+02,6.11000e+02,7.00000e+00,2.61789e-12,-2.11266e-01,2.99657e-12,-2.11266e-01,2.41861e-12,-2.11266e-01
8.48216e+02,6.25000e+02,6.31000e+02,-6.00000e+00,3.72658e-12,-2.03720e-01,1.26919e-12,-2.03720e-01,3.91149e-12,-2.03720e-01
8.48464e+02,6.22000e+02,6.27000e+02,-5.00000e+00,3.43819e-12,-1.96175e-01,4.68383e-13,-1.96175e-01,3.87731e-12,-1.96175e-01
8.48712e+02,6.20000e+02,6.53000e+02,-3.30000e+01,3.33065e-12,-1.88630e-01,1.68972e-12,-1.88630e-01,2.78442e-12,-1.88630e-01
8.48960e+02,6.20000e+02,6.40000e+02,-2.00000e+01,3.12853e-12,-1.81085e-01,3.24796e-12,-1.81085e-01,7.30820e-13,-1.81085e-01
8.49207e+02,6.46000e+02,6.32000e+02,1.40000e+01,4.76259e-12,-1.73540e-01,3.14528e-12,-1.73540e-01,2.18449e-12,-1.73540e-01
8.49455e+02,6.30000e+02,6.26000e+02,4.00000e+00,3.71488e-12,-1.65994e-01,2.28773e-12,-1.65994e-01,2.38271e-12,-1.65994e-01
8.49703e+02,6.35000e+02,6.34000e+02,1.00000e+00,1.63261e-12,-1.58449e-01,5.19269e-12,-1.58449e-01,3.63818e-12,-1.58449e-01
8.49951e+02,6.25000e+02,6.41000e+02,-1.60000e+01,5.51470e-12,-1.50904e-01,6.35064e-12,-1.50904e-01,1.83235e-12,-1.50904e-01
8.50198e+02,6.50000e+02,6.60000e+02,-1.00000e+01,4.25383e-12,-1.43359e-01,3.12149e-12,-1.43359e-01,1.61349e-12,-1.43359e-01
8.50446e+02,6.11000e+02,6.20000e+02,-9.00000e+00,1.39668e-13,-1.35814e-01,2.66072e-12,-1.35814e-01,2.79543e-12,-1.35814e-01
8.50694e+02,6.22000e+02,6.35000e+02,-1.30000e+01,1.79232e-12,-1.28268e-01,2.19699e-12,-1.28268e-01,2.03215e-12,-1.28268e-01
8.50941e+02,6.28000e+02,6.23000e+02,5.00000e+00,3.04319e-12,-1.20723e-01,1.70307e-12,-1.20723e-01,1.37013e-12,-1.20723e-01
8.51189e+02,6.45000e+02,6.24000e+02,2.10000e+01,3.35732e-12,-1.13178e-01,1.06417e-12,-1.13178e-01,3.31964e-12,-1.13178e-01
8.51437e+02,6.18000e+02,6.24000e+02,-6.00000e+00,4.95146e-12,-1.05633e-01,1.41896e-12,-1.05633e-01,4.84586e-12,-1.05633e-01
8.51685e+02,6.26000e+02,6.33000e+02,-7.00000e+00,3.94574e-12,-9.80876e-02,2.91849e-12,-9.80876e-02,2.48893e-12,-9.80876e-02
8.51932e+02,6.29000e+02,6.29000e+02,0.00000e+00,7.22966e-13,-9.05424e-02,3.20827e-12,-9.05424e-02,2.48636e-12,-9.05424e-02
8.52180e+02,6.47000e+02,6.36000e+02,1.10000e+01,2.84113e-12,-8.29972e-02,2.00296e-12,-8.29972e-02,4.72902e-12,-8.29972e-02
8.52428e+02,6.41000e+02,6.26000e+02,1.50000e+01,4.15758e-12,-7.54520e-02,5.63944e-13,-7.54520e-02,4.51197e-12,-7.54520e-02
8.52675e+02,6.64000e+02,6.65000e+02,-1.00000e+00,7.30726e-12,-6.79068e-02,3.98689e-12,-6.79068e-02,4.31178e-12,-6.79068e-02
8.52923e+02,6.13000e+02,6.19000e+02,-6.00000e+00,9.08568e-12,-6.03616e-02,8.64757e-12,-6.03616e-02,2.63628e-12,-6.03616e-02
8.53170e+02,6.48000e+02,6.23000e+02,2.50000e+01,8.92031e-12,-5.28164e-02,1.06661e-11,-5.28164e-02,1.75420e-12,-5.28164e-02
8.53418e+02,6.12000e+02,6.31000e+02,-1.90000e+01,5.40303e-12,-4.52712e-02,6.89452e-12,-4.52712e-02,2.97872e-12,-4.52712e-02
8.53666e+02,6.18000e+02,6.20000e+02,-2.00000e+00,2.55890e-12,-3.77260e-02,2.31826e-12,-3.77260e-02,3.98146e-12,-3.77260e-02
8.53913e+02,6.36000e+02,6.24000e+02,1.20000e+01,2.36383e-12,-3.01808e-02,1.33911e-12,-3.01808e-02,3.49711e-12,-3.01808e-02
8.54161e+02,6.41000e+02,6.36000e+02,5.00000e+00,1.50409e-11,-2.26356e-02,1.65307e-11,-2.26356e-02,2.27614e-12,-2.26356e-02
8.54409e+02,6.26000e+02,6.41000e+02,-1.50000e+01,7.88486e-11,-1.50904e-02,8.28522e-11,-1.50904e-02,6.82390e-12,-1.50904e-02
8.54656e+02,6.49000e+02,6.39000e+02,1.00000e+01,2.29160e-10,-7.54520e-03,2.34721e-10,-7.54520e-03,7.85522e-12,-7.54520e-03
