7.67698e+02,6.17000e+02,6.29000e+02,-1.20000e+01,3.95035e-10,0.00000e+00,3.90007e-10,0.00000e+00,5.02788e-12,0.00000e+00
7.67949e+02,6.53000e+02,6.64000e+02,-1.10000e+01,2.36054e-10,7.54520e-03,2.32710e-10,7.54520e-03,7.45023e-12,7.54520e-03
7.68199e+02,6.14000e+02,6.17000e+02,-3.00000e+00,8.27138e-11,1.50904e-02,8.39910e-11,1.50904e-02,6.84439e-12,1.50904e-02
7.68450e+02,6.18000e+02,6.46000e+02,-2.80000e+01,1.74839e-11,2.26356e-02,1.94269e-11,2.26356e-02,1.97215e-12,2.26356e-02
7.68701e+02,6.35000e+02,6.35000e+02,0.00000e+00,3.92849e-12,3.01808e-02,7.58712e-13,3.01808e-02,3.16978e-12,3.01808e-02
7.68951e+02,6.36000e+02,6.31000e+02,5.00000e+00,3.92157e-12,3.77260e-02,1.88486e-12,3.77260e-02,4.91312e-12,3.77260e-02
7.69202e+02,6.41000e+02,6.19000e+02,2.20000e+01,6.73702e-12,4.52712e-02,4.43254e-12,4.52712e-02,3.40444e-12,4.52712e-02
7.69453e+02,6.38000e+02,6.21000e+02,1.70000e+01,1.02099e-11,5.28164e-02,7.15530e-12,5.28164e-02,3.34978e-12,5.28164e-02
7.69703e+02,6.25000e+02,6.58000e+02,-3.30000e+01,1.05959e-11,6.03616e-02,6.37071e-12,6.03616e-02,5.29304e-12,6.03616e-02
7.69954e+02,6.27000e+02,6.49000e+02,-2.20000e+01,7.86844e-12,6.79068e-02,3.86808e-12,6.79068e-02,4.00922e-12,6.79068e-02
7.70205e+02,6.18000e+02,6.37000e+02,-1.90000e+01,2.36432e-12,7.54520e-02,2.41064e-12,7.54520e-02,2.36104e-12,7.54520e-02
7.70455e+02,6.71000e+02,6.60000e+02,1.10000e+01,4.71836e-13,8.29972e-02,1.90598e-12,8.29972e-02,1.76002e-12,8.29972e-02
7.70706e+02,6.43000e+02,6.22000e+02,2.10000e+01,2.14884e-12,9.05424e-02,1.32059e-12,9.05424e-02,8.79149e-13,9.05424e-02
7.70957e+02,6.69000e+02,6.34000e+02,3.50000e+01,4.46584e-12,9.80876e-02,2.04204e-12,9.80876e-02,2.78003e-12,9.80876e-02
7.71207e+02,6.46000e+02,6.47000e+02,-1.00000e+00,4.02090e-12,1.05633e-01,1.85953e-12,1.05633e-01,3.97240e-12,1.05633e-01
7.71458e+02,6.38000e+02,6.81000e+02,-4.30000e+01,9.05944e-13,1.13178e-01,3.85540e-12,1.13178e-01,4.56733e-12,1.13178e-01
7.71708e+02,6.38000e+02,6.75000e+02,-3.70000e+01,1.17421e-12,1.20723e-01,4.42656e-12,1.20723e-01,5.59160e-12,1.20723e-01
7.71959e+02,6.59000e+02,6.55000e+02,4.00000e+00,2.76053e-12,1.28268e-01,3.57152e-12,1.28268e-01,5.39442e-12,1.28268e-01
7.72210e+02,6.55000e+02,6.38000e+02,1.70000e+01,3.23089e-12,1.35814e-01,2.32952e-12,1.35814e-01,2.93204e-12,1.35814e-01
7.72460e+02,6.92000e+02,6.35000e+02,5.70000e+01,3.54316e-12,1.43359e-01,3.96992e-12,1.43359e-01,1.61785e-12,1.43359e-01
7.72711e+02,6.69000e+02,6.54000e+02,1.50000e+01,3.32712e-12,1.50904e-01,7.35586e-12,1.50904e-01,4.68208e-12,1.50904e-01
7.72961e+02,6.88000e+02,7.30000e+02,-4.20000e+01,1.15386e-12,1.58449e-01,5.39820e-12,1.58449e-01,5.43522e-12,1.58449e-01
7.73212e+02,6.38000e+02,7.05000e+02,-6.70000e+01,5.58569e-12,1.65994e-01,3.04161e-12,1.65994e-01,4.32377e-12,1.65994e-01
7.73462e+02,6.35000e+02,6.91000e+02,-5.60000e+01,6.24191e-12,1.73540e-01,2.95498e-12,1.73540e-01,3.39261e-12,1.73540e-01
7.73713e+02,6.49000e+02,6.43000e+02,6.00000e+00,3.36002e-12,1.81085e-01,1.43048e-12,1.81085e-01,1.95112e-12,1.81085e-01
7.73963e+02,6.98000e+02,6.41000e+02,5.70000e+01,2.18898e-12,1.88630e-01,9.25088e-13,1.88630e-01,2.15900e-12,1.88630e-01
7.74214e+02,7.32000e+02,6.27000e+02,1.05000e+02,3.40654e-12,1.96175e-01,1.66813e-12,1.96175e-01,4.72971e-12,1.96175e-01
7.74465e+02,7.21000e+02,6.94000e+02,2.70000e+01,3.90279e-12,2.03720e-01,3.08766e-12,2.03720e-01,6.23309e-12,2.03720e-01
7.74715e+02,6.56000e+02,7.23000e+02,-6.70000e+01,3.67892e-12,2.11266e-01,3.13156e-12,2.11266e-01,5.22134e-12,2.11266e-01
7.74965e+02,6.34000e+02,7.93000e+02,-1.59000e+02,1.98352e-12,2.18811e-01,3.82052e-13,2.18811e-01,2.27256e-12,2.18811e-01
7.75216e+02,6.48000e+02,7.14000e+02,-6.60000e+01,1.48346e-12,2.26356e-01,2.00907e-12,2.26356e-01,3.15075e-12,2.26356e-01
7.75466e+02,7.62000e+02,7.05000e+02,5.70000e+01,3.91537e-12,2.33901e-01,2.68030e-12,2.33901e-01,3.07864e-12,2.33901e-01
7.75717e+02,7.24000e+02,6.33000e+02,9.10000e+01,4.85318e-12,2.41446e-01,4.08658e-12,2.41446e-01,2.14731e-12,2.41446e-01
7.75967e+02,7.99000e+02,6.76000e+02,1.23000e+02,4.02885e-12,2.48992e-01,3.36646e-12,2.48992e-01,1.19932e-12,2.48992e-01
7.76218e+02,7.17000e+02,7.34000e+02,-1.70000e+01,2.04918e-12,2.56537e-01,1.08452e-12,2.56537e-01,1.48482e-12,2.56537e-01
7.76468e+02,6.82000e+02,8.26000e+02,-1.44000e+02,1.53686e-12,2.64082e-01,1.43052e-12,2.64082e-01,2.96632e-12,2.64082e-01
7.76719e+02,6.36000e+02,7.93000e+02,-1.57000e+02,2.66115e-12,2.71627e-01,2.43464e-12,2.71627e-01,4.13157e-12,2.71627e-01
7.76969e+02,6.80000e+02,7.20000e+02,-4.00000e+01,3.44764e-12,2.79172e-01,3.42818e-12,2.79172e-01,5.34282e-12,2.79172e-01
7.77219e+02,7.99000e+02,6.56000e+02,1.43000e+02,2.39336e-12,2.86718e-01,2.63777e-12,2.86718e-01,3.57145e-12,2.86718e-01
7.77470e+02,9.67000e+02,6.78000e+02,2.89000e+02,1.73074e-12,2.94263e-01,1.37284e-12,2.94263e-01,2.45000e-12,2.94263e-01
7.77720e+02,8.89000e+02,7.64000e+02,1.25000e+02,2.15710e-12,3.01808e-01,6.12638e-13,3.01808e-01,2.67164e-12,3.01808e-01
7.77971e+02,7.96000e+02,9.75000e+02,-1.79000e+02,4.02145e-12,3.09353e-01,1.80263e-12,3.09353e-01,2.21985e-12,3.09353e-01
7.78221e+02,6.67000e+02,1.02800e+03,-3.61000e+02,4.42830e-12,3.16898e-01,2.19748e-12,3.16898e-01,2.62412e-12,3.16898e-01
7.78471e+02,6.73000e+02,9.73000e+02,-3.00000e+02,3.66639e-12,3.24444e-01,2.01137e-12,3.24444e-01,2.64768e-12,3.24444e-01
7.78722e+02,7.63000e+02,7.76000e+02,-1.30000e+01,2.57020e-12,3.31989e-01,2.64032e-12,3.31989e-01,4.07227e-12,3.31989e-01
7.78972e+02,1.06400e+03,7.02000e+02,3.62000e+02,3.00632e-12,3.39534e-01,4.82958e-12,3.39534e-01,7.28077e-12,3.39534e-01
7.79222e+02,1.22800e+03,7.33000e+02,4.95000e+02,8.91869e-12,3.47079e-01,1.26722e-11,3.47079e-01,2.11982e-11,3.47079e-01
7.79473e+02,1.14600e+03,9.88000e+02,1.58000e+02,2.86529e-11,3.54624e-01,3.46647e-11,3.54624e-01,6.24440e-11,3.54624e-01
7.79723e+02,8.49000e+02,1.24500e+03,-3.96000e+02,5.09796e-11,3.62169e-01,5.81268e-11,3.62169e-01,1.06808e-10,3.62169e-01
7.79973e+02,7.32000e+02,1.37400e+03,-6.42000e+02,7.40200e-11,3.69715e-01,7.68023e-11,3.69715e-01,1.47201e-10,3.69715e-01
7.80224e+02,7.64000e+02,1.03400e+03,-2.70000e+02,7.70547e-11,3.77260e-01,7.60211e-11,3.77260e-01,1.49602e-10,3.77260e-01
7.80474e+02,1.12500e+03,9.00000e+02,2.25000e+02,5.09381e-11,3.84805e-01,4.74332e-11,3.84805e-01,9.64921e-11,3.84805e-01
7.80724e+02,1.29700e+03,7.04000e+02,5.93000e+02,2.11324e-11,3.92350e-01,1.71360e-11,3.92350e-01,3.77013e-11,3.92350e-01
7.80974e+02,1.42300e+03,9.39000e+02,4.84000e+02,9.90779e-12,3.99895e-01,6.23777e-12,3.99895e-01,1.57780e-11,3.99895e-01
7.81225e+02,1.23800e+03,1.30100e+03,-6.30000e+01,5.14131e-12,4.07441e-01,2.62935e-12,4.07441e-01,7.41475e-12,4.07441e-01
7.81475e+02,9.54000e+02,1.77100e+03,-8.17000e+02,2.07451e-12,4.14986e-01,3.06758e-12,4.14986e-01,4.82940e-12,4.14986e-01
7.81725e+02,7.77000e+02,1.59500e+03,-8.18000e+02,1.96173e-12,4.22531e-01,5.06839e-12,4.22531e-01,6.80694e-12,4.22531e-01
7.81975e+02,1.00900e+03,1.30700e+03,-2.98000e+02,1.55241e-12,4.30076e-01,4.35130e-12,4.30076e-01,5.63886e-12,4.30076e-01
7.82226e+02,1.43400e+03,8.77000e+02,5.57000e+02,2.14155e-12,4.37621e-01,1.95976e-12,4.37621e-01,2.18043e-12,4.37621e-01
7.82476e+02,1.75800e+03,8.36000e+02,9.22000e+02,2.28341e-12,4.45167e-01,2.69915e-12,4.45167e-01,8.35467e-13,4.45167e-01
7.82726e+02,1.69400e+03,1.14400e+03,5.50000e+02,1.55610e-13,4.52712e-01,4.31538e-12,4.52712e-01,4.26170e-12,4.52712e-01
7.82976e+02,1.31800e+03,1.70900e+03,-3.91000e+02,2.18076e-12,4.60257e-01,3.77125e-12,4.60257e-01,5.68922e-12,4.60257e-01
7.83226e+02,8.69000e+02,1.77200e+03,-9.03000e+02,2.68704e-12,4.67802e-01,2.84306e-12,4.67802e-01,4.84999e-12,4.67802e-01
7.83477e+02,9.53000e+02,1.75900e+03,-8.06000e+02,3.17818e-12,4.75347e-01,2.90243e-12,4.75347e-01,3.79703e-12,4.75347e-01
7.83727e+02,1.35100e+03,1.19600e+03,1.55000e+02,2.61957e-12,4.82893e-01,3.35893e-12,4.82893e-01,3.43740e-12,4.82893e-01
7.83977e+02,1.92300e+03,9.60000e+02,9.63000e+02,1.69839e-12,4.90438e-01,3.47614e-12,4.90438e-01,4.65606e-12,4.90438e-01
7.84227e+02,2.31100e+03,1.03800e+03,1.27300e+03,1.81126e-12,4.97983e-01,2.24265e-12,4.97983e-01,4.04809e-12,4.97983e-01
7.84477e+02,2.30700e+03,1.80600e+03,5.01000e+02,8.15218e-13,5.05528e-01,1.40287e-12,5.05528e-01,1.96372e-12,5.05528e-01
7.84727e+02,1.53200e+03,2.28900e+03,-7.57000e+02,5.23378e-13,5.13073e-01,2.82242e-12,5.13073e-01,3.28238e-12,5.13073e-01
7.84978e+02,1.12200e+03,2.64800e+03,-1.52600e+03,2.75493e-13,5.20619e-01,3.41093e-12,5.20619e-01,3.64293e-12,5.20619e-01
7.85228e+02,1.25700e+03,2.35000e+03,-1.09300e+03,3.81474e-13,5.28164e-01,3.49912e-12,5.28164e-01,3.83118e-12,5.28164e-01
7.85478e+02,2.10400e+03,1.68400e+03,4.20000e+02,8.82192e-13,5.35709e-01,2.41089e-12,5.35709e-01,1.89062e-12,5.35709e-01
7.85728e+02,2.77700e+03,1.08500e+03,1.69200e+03,1.22811e-12,5.43254e-01,5.46816e-13,5.43254e-01,6.88049e-13,5.43254e-01
7.85978e+02,3.07500e+03,1.44600e+03,1.62900e+03,6.94053e-13,5.50799e-01,4.39802e-13,5.50799e-01,1.11542e-12,5.50799e-01
7.86228e+02,2.30200e+03,2.16200e+03,1.40000e+02,2.99849e-13,5.58345e-01,2.64123e-13,5.58345e-01,5.29659e-13,5.58345e-01
7.86478e+02,1.52600e+03,2.88500e+03,-1.35900e+03,1.09764e-12,5.65890e-01,7.45266e-13,5.65890e-01,1.10560e-12,5.65890e-01
7.86728e+02,1.08400e+03,2.92400e+03,-1.84000e+03,2.63220e-12,5.73435e-01,1.14575e-12,5.73435e-01,2.81767e-12,5.73435e-01
7.86978e+02,1.44400e+03,2.37500e+03,-9.31000e+02,3.56069e-12,5.80980e-01,1.11310e-12,5.80980e-01,3.12873e-12,5.80980e-01
7.87228e+02,2.22800e+03,1.54600e+03,6.82000e+02,3.43128e-12,5.88525e-01,1.58870e-12,5.88525e-01,1.84337e-12,5.88525e-01
7.87478e+02,2.87400e+03,1.24100e+03,1.63300e+03,1.67138e-12,5.96071e-01,2.68762e-12,5.96071e-01,1.06287e-12,5.96071e-01
7.87728e+02,3.01000e+03,1.70900e+03,1.30100e+03,1.72406e-12,6.03616e-01,3.14634e-12,6.03616e-01,3.55540e-12,6.03616e-01
7.87978e+02,2.59400e+03,2.86000e+03,-2.66000e+02,2.36586e-12,6.11161e-01,2.39294e-12,6.11161e-01,3.57561e-12,6.11161e-01
7.88228e+02,1.66200e+03,3.52600e+03,-1.86400e+03,1.90867e-12,6.18706e-01,7.68685e-13,6.18706e-01,2.13949e-12,6.18706e-01
7.88478e+02,1.39800e+03,3.63200e+03,-2.23400e+03,1.40265e-12,6.26251e-01,1.02845e-12,6.26251e-01,8.91347e-13,6.26251e-01
7.88728e+02,1.87900e+03,2.72500e+03,-8.46000e+02,2.59526e-12,6.33797e-01,1.79121e-12,6.33797e-01,9.63112e-13,6.33797e-01
7.88978e+02,3.08100e+03,1.81900e+03,1.26200e+03,2.83233e-12,6.41342e-01,1.79501e-12,6.41342e-01,1.59943e-12,6.41342e-01
7.89228e+02,4.10000e+03,1.39600e+03,2.70400e+03,2.18011e-12,6.48887e-01,2.03011e-12,6.48887e-01,1.76619e-12,6.48887e-01
7.89478e+02,4.33600e+03,2.20700e+03,2.12900e+03,6.72179e-13,6.56432e-01,2.23796e-12,6.56432e-01,2.41921e-12,6.56432e-01
7.89728e+02,3.34500e+03,3.51200e+03,-1.67000e+02,1.05037e-12,6.63977e-01,2.02777e-12,6.63977e-01,3.01816e-12,6.63977e-01
7.89978e+02,2.29300e+03,4.71500e+03,-2.42200e+03,1.39460e-12,6.71523e-01,1.56281e-12,6.71523e-01,2.44661e-12,6.71523e-01
7.90228e+02,1.73400e+03,4.50300e+03,-2.76900e+03,7.41918e-13,6.79068e-01,8.13902e-13,6.79068e-01,9.00869e-13,6.79068e-01
7.90478e+02,2.59600e+03,3.53700e+03,-9.41000e+02,2.87134e-13,6.86613e-01,6.91138e-13,6.86613e-01,6.95048e-13,6.86613e-01
7.90728e+02,4.10400e+03,2.17300e+03,1.93100e+03,5.95099e-13,6.94158e-01,1.90508e-12,6.94158e-01,1.43383e-12,6.94158e-01
7.90978e+02,5.53900e+03,1.80600e+03,3.73300e+03,1.51965e-12,7.01703e-01,2.40131e-12,7.01703e-01,8.81690e-13,7.01703e-01
7.91228e+02,5.18600e+03,2.67700e+03,2.50900e+03,2.00720e-12,7.09249e-01,1.53803e-12,7.09249e-01,4.74832e-13,7.09249e-01
7.91478e+02,3.74600e+03,3.95500e+03,-2.09000e+02,1.99029e-12,7.16794e-01,2.18477e-13,7.16794e-01,2.04456e-12,7.16794e-01
7.91728e+02,2.15700e+03,4.57100e+03,-2.41400e+03,1.83596e-12,7.24339e-01,7.43729e-13,7.24339e-01,2.54660e-12,7.24339e-01
7.91977e+02,1.80600e+03,4.29800e+03,-2.49200e+03,2.40099e-12,7.31884e-01,6.80233e-13,7.31884e-01,2.64169e-12,7.31884e-01
7.92227e+02,2.84200e+03,2.87500e+03,-3.30000e+01,2.94480e-12,7.39429e-01,8.50478e-13,7.39429e-01,2.82424e-12,7.39429e-01
7.92477e+02,4.92800e+03,2.07100e+03,2.85700e+03,2.64069e-12,7.46975e-01,1.16737e-12,7.46975e-01,2.37749e-12,7.46975e-01
7.92727e+02,6.33000e+03,1.95000e+03,4.38000e+03,1.82672e-12,7.54520e-01,1.77512e-12,7.54520e-01,1.92698e-12,7.54520e-01
7.92977e+02,5.99600e+03,3.14600e+03,2.85000e+03,1.07681e-12,7.62065e-01,1.41582e-12,7.62065e-01,1.77171e-12,7.62065e-01
7.93227e+02,3.97500e+03,4.62600e+03,-6.51000e+02,7.05754e-13,7.69610e-01,1.23177e-12,7.69610e-01,1.92556e-12,7.69610e-01
7.93476e+02,2.43600e+03,5.13800e+03,-2.70200e+03,8.87310e-13,7.77155e-01,1.33917e-12,7.77155e-01,2.17859e-12,7.77155e-01
7.93726e+02,2.14500e+03,4.76300e+03,-2.61800e+03,5.16629e-13,7.84701e-01,8.72796e-13,7.84701e-01,1.35416e-12,7.84701e-01
7.93976e+02,3.51200e+03,3.60000e+03,-8.80000e+01,3.12731e-13,7.92246e-01,1.22397e-12,7.92246e-01,1.22270e-12,7.92246e-01
7.94226e+02,5.53800e+03,2.26200e+03,3.27600e+03,6.65616e-13,7.99791e-01,1.03146e-12,7.99791e-01,9.63049e-13,7.99791e-01
7.94476e+02,7.14900e+03,2.41700e+03,4.73200e+03,1.02043e-12,8.07336e-01,1.17883e-12,8.07336e-01,6.80441e-13,8.07336e-01
7.94725e+02,5.94100e+03,3.74400e+03,2.19700e+03,1.67852e-12,8.14881e-01,1.67423e-12,8.14881e-01,2.09674e-12,8.14881e-01
7.94975e+02,4.15500e+03,5.42400e+03,-1.26900e+03,1.55686e-12,8.22427e-01,2.48400e-12,8.22427e-01,2.40302e-12,8.22427e-01
7.95225e+02,2.54300e+03,5.98500e+03,-3.44200e+03,1.27284e-12,8.29972e-01,2.60546e-12,8.29972e-01,1.47176e-12,8.29972e-01
7.95475e+02,2.60500e+03,5.40900e+03,-2.80400e+03,1.09852e-12,8.37517e-01,1.80745e-12,8.37517e-01,1.09729e-12,8.37517e-01
7.95724e+02,4.29800e+03,3.70600e+03,5.92000e+02,8.20067e-13,8.45062e-01,1.27369e-12,8.45062e-01,1.52556e-12,8.45062e-01
7.95974e+02,6.39600e+03,2.52300e+03,3.87300e+03,4.46007e-13,8.52607e-01,1.34780e-12,8.52607e-01,1.49600e-12,8.52607e-01
7.96224e+02,7.23700e+03,2.77700e+03,4.46000e+03,1.76839e-13,8.60153e-01,1.11478e-12,8.60153e-01,1.28699e-12,8.60153e-01
7.96474e+02,6.67700e+03,4.64600e+03,2.03100e+03,2.15444e-13,8.67698e-01,8.04624e-13,8.67698e-01,9.98397e-13,8.67698e-01
7.96723e+02,4.32600e+03,6.55500e+03,-2.22900e+03,4.32644e-13,8.75243e-01,6.93268e-13,8.75243e-01,7.10339e-13,8.75243e-01
7.96973e+02,2.78800e+03,7.59100e+03,-4.80300e+03,6.09162e-13,8.82788e-01,1.09789e-13,8.82788e-01,5.42699e-13,8.82788e-01
7.97223e+02,3.47800e+03,7.08500e+03,-3.60700e+03,4.49790e-13,8.90333e-01,8.89097e-13,8.90333e-01,1.27867e-12,8.90333e-01
7.97472e+02,5.87300e+03,4.32800e+03,1.54500e+03,3.58123e-13,8.97879e-01,1.30768e-12,8.97879e-01,1.53436e-12,8.97879e-01
7.97722e+02,8.75300e+03,2.87300e+03,5.88000e+03,4.38583e-13,9.05424e-01,1.11706e-12,9.05424e-01,7.45715e-13,9.05424e-01
7.97972e+02,9.47500e+03,3.68400e+03,5.79100e+03,9.88921e-13,9.12969e-01,9.68261e-13,9.12969e-01,3.02140e-13,9.12969e-01
7.98221e+02,7.51600e+03,6.33400e+03,1.18200e+03,8.35296e-13,9.20514e-01,6.36679e-13,9.20514e-01,2.54789e-13,9.20514e-01
7.98471e+02,4.55300e+03,8.41500e+03,-3.86200e+03,3.17769e-13,9.28059e-01,1.47670e-13,9.28059e-01,2.38905e-13,9.28059e-01
7.98721e+02,3.00800e+03,8.61900e+03,-5.61100e+03,8.15215e-13,9.35605e-01,2.73516e-13,9.35605e-01,7.14142e-13,9.35605e-01
7.98970e+02,4.13700e+03,7.73700e+03,-3.60000e+03,8.03682e-13,9.43150e-01,7.07725e-13,9.43150e-01,1.11178e-13,9.43150e-01
7.99220e+02,6.98100e+03,4.92300e+03,2.05800e+03,1.51294e-12,9.50695e-01,3.87492e-13,9.50695e-01,1.14427e-12,9.50695e-01
7.99469e+02,9.07500e+03,3.13700e+03,5.93800e+03,1.60696e-12,9.58240e-01,2.71325e-13,9.58240e-01,1.59196e-12,9.58240e-01
7.99719e+02,9.26800e+03,4.16600e+03,5.10200e+03,8.47131e-13,9.65785e-01,4.48567e-13,9.65785e-01,1.22530e-12,9.65785e-01
7.99969e+02,7.47900e+03,7.30700e+03,1.72000e+02,4.67550e-13,9.73331e-01,4.02585e-13,9.73331e-01,6.38079e-13,9.73331e-01
8.00218e+02,4.73700e+03,9.77800e+03,-5.04100e+03,8.21752e-13,9.80876e-01,5.54166e-13,9.80876e-01,4.86555e-13,9.80876e-01
8.00468e+02,3.56500e+03,9.75000e+03,-6.18500e+03,6.31990e-13,9.88421e-01,7.31219e-13,9.88421e-01,1.15373e-13,9.88421e-01
8.00717e+02,5.16700e+03,7.28300e+03,-2.11600e+03,9.51452e-13,9.95966e-01,5.79192e-13,9.95966e-01,5.92301e-13,9.95966e-01
8.00967e+02,8.55000e+03,4.42400e+03,4.12600e+03,6.92138e-13,1.00351e+00,4.40701e-13,1.00351e+00,1.13217e-12,1.00351e+00
8.01216e+02,1.18460e+04,3.34800e+03,8.49800e+03,3.39762e-13,1.01106e+00,1.20816e-12,1.01106e+00,1.49213e-12,1.01106e+00
8.01466e+02,1.20280e+04,5.01800e+03,7.01000e+03,1.84139e-14,1.01860e+00,1.19010e-12,1.01860e+00,1.17307e-12,1.01860e+00
8.01715e+02,9.44900e+03,8.55800e+03,8.91000e+02,3.76408e-13,1.02615e+00,5.53053e-13,1.02615e+00,7.54699e-13,1.02615e+00
8.01965e+02,5.48100e+03,1.15760e+04,-6.09500e+03,5.70791e-13,1.03369e+00,5.29846e-13,1.03369e+00,4.58428e-13,1.03369e+00
8.02215e+02,3.81000e+03,1.17330e+04,-7.92300e+03,4.42312e-13,1.04124e+00,8.19742e-13,1.04124e+00,4.43548e-13,1.04124e+00
8.02464e+02,5.81100e+03,8.36800e+03,-2.55700e+03,4.41302e-13,1.04878e+00,8.80094e-13,1.04878e+00,5.28016e-13,1.04878e+00
8.02713e+02,8.93300e+03,4.97300e+03,3.96000e+03,4.67448e-13,1.05633e+00,7.85196e-13,1.05633e+00,5.86286e-13,1.05633e+00
8.02963e+02,1.16080e+04,3.80400e+03,7.80400e+03,5.76034e-13,1.06387e+00,3.40394e-13,1.06387e+00,8.95000e-13,1.06387e+00
8.03212e+02,1.23590e+04,6.22000e+03,6.13900e+03,8.42101e-13,1.07142e+00,1.68403e-13,1.07142e+00,9.97275e-13,1.07142e+00
8.03462e+02,9.52500e+03,1.07140e+04,-1.18900e+03,1.52706e-12,1.07896e+00,2.33700e-13,1.07896e+00,1.33397e-12,1.07896e+00
8.03711e+02,5.41800e+03,1.40820e+04,-8.66400e+03,1.64384e-12,1.08651e+00,7.28488e-13,1.08651e+00,1.34657e-12,1.08651e+00
8.03961e+02,3.96500e+03,1.22270e+04,-8.26200e+03,1.28407e-12,1.09405e+00,1.16792e-12,1.09405e+00,1.11229e-12,1.09405e+00
8.04210e+02,6.18900e+03,8.50900e+03,-2.32000e+03,7.38807e-13,1.10160e+00,1.28819e-12,1.10160e+00,7.80067e-13,1.10160e+00
8.04460e+02,1.10020e+04,4.85400e+03,6.14800e+03,5.09680e-13,1.10914e+00,9.44193e-13,1.10914e+00,6.86189e-13,1.10914e+00
8.04709e+02,1.39610e+04,3.89700e+03,1.00640e+04,5.41142e-13,1.11669e+00,9.35686e-13,1.11669e+00,1.22129e-12,1.11669e+00
8.04958e+02,1.26180e+04,6.18400e+03,6.43400e+03,7.41483e-13,1.12423e+00,9.72752e-13,1.12423e+00,1.65579e-12,1.12423e+00
8.05208e+02,9.00100e+03,9.75200e+03,-7.51000e+02,8.06379e-13,1.13178e+00,6.82653e-13,1.13178e+00,1.39955e-12,1.13178e+00
8.05457e+02,5.17200e+03,1.14760e+04,-6.30400e+03,8.71452e-13,1.13932e+00,5.54425e-13,1.13932e+00,7.15982e-13,1.13932e+00
8.05707e+02,4.12800e+03,1.21450e+04,-8.01700e+03,7.61118e-13,1.14687e+00,8.35245e-13,1.14687e+00,3.67663e-13,1.14687e+00
8.05956e+02,6.31100e+03,1.01980e+04,-3.88700e+03,6.27883e-13,1.15442e+00,3.50138e-13,1.15442e+00,3.67470e-13,1.15442e+00
8.06205e+02,9.74100e+03,5.60700e+03,4.13400e+03,2.17833e-13,1.16196e+00,2.70682e-13,1.16196e+00,4.51331e-13,1.16196e+00
8.06455e+02,1.30540e+04,4.14500e+03,8.90900e+03,3.19499e-13,1.16951e+00,5.36435e-13,1.16951e+00,2.28795e-13,1.16951e+00
8.06704e+02,1.35500e+04,6.36900e+03,7.18100e+03,7.61741e-13,1.17705e+00,7.43032e-13,1.17705e+00,5.42399e-13,1.17705e+00
8.06953e+02,9.99200e+03,1.02060e+04,-2.14000e+02,5.16733e-13,1.18460e+00,6.22702e-13,1.18460e+00,7.31742e-13,1.18460e+00
8.07203e+02,5.38500e+03,1.21280e+04,-6.74300e+03,3.89275e-13,1.19214e+00,8.58955e-13,1.19214e+00,9.51489e-13,1.19214e+00
8.07452e+02,3.97800e+03,1.32460e+04,-9.26800e+03,6.54043e-13,1.19969e+00,1.16644e-12,1.19969e+00,1.13371e-12,1.19969e+00
8.07701e+02,6.05000e+03,1.04420e+04,-4.39200e+03,7.75134e-13,1.20723e+00,1.11397e-12,1.20723e+00,9.68344e-13,1.20723e+00
8.07951e+02,1.00060e+04,6.53100e+03,3.47500e+03,5.90808e-13,1.21478e+00,9.52742e-13,1.21478e+00,6.91200e-13,1.21478e+00
8.08200e+02,1.16030e+04,4.20600e+03,7.39700e+03,4.88832e-13,1.22232e+00,3.32209e-13,1.22232e+00,2.16183e-13,1.22232e+00
8.08449e+02,1.21970e+04,5.75500e+03,6.44200e+03,3.15047e-13,1.22987e+00,3.37944e-13,1.22987e+00,4.72076e-13,1.22987e+00
8.08698e+02,1.04210e+04,1.02410e+04,1.80000e+02,2.83494e-13,1.23741e+00,8.92682e-13,1.23741e+00,9.93467e-13,1.23741e+00
8.08948e+02,6.81000e+03,1.43790e+04,-7.56900e+03,5.89340e-13,1.24496e+00,1.09208e-12,1.24496e+00,1.56448e-12,1.24496e+00
8.09197e+02,4.64100e+03,1.51720e+04,-1.05310e+04,8.10293e-13,1.25250e+00,7.47226e-13,1.25250e+00,1.33394e-12,1.25250e+00
8.09446e+02,6.31200e+03,1.15150e+04,-5.20300e+03,5.50439e-13,1.26005e+00,3.08397e-13,1.26005e+00,7.90415e-13,1.26005e+00
8.09695e+02,1.17490e+04,6.74000e+03,5.00900e+03,3.65489e-13,1.26759e+00,2.21293e-13,1.26759e+00,3.12921e-13,1.26759e+00
8.09945e+02,1.49710e+04,4.46600e+03,1.05050e+04,6.03266e-13,1.27514e+00,4.66843e-13,1.27514e+00,2.44570e-13,1.27514e+00
8.10194e+02,1.49130e+04,5.82200e+03,9.09100e+03,6.20166e-13,1.28268e+00,5.95700e-13,1.28268e+00,9.51218e-14,1.28268e+00
8.10443e+02,1.19920e+04,1.01180e+04,1.87400e+03,8.07234e-13,1.29023e+00,9.62195e-13,1.29023e+00,5.66855e-13,1.29023e+00
8.10692e+02,7.36900e+03,1.40830e+04,-6.71400e+03,4.74941e-13,1.29777e+00,4.68689e-13,1.29777e+00,4.17248e-13,1.29777e+00
8.10941e+02,5.00000e+03,1.50050e+04,-1.00050e+04,2.98085e-13,1.30532e+00,7.77565e-13,1.30532e+00,4.81512e-13,1.30532e+00
8.11191e+02,6.52800e+03,1.22030e+04,-5.67500e+03,4.18477e-13,1.31286e+00,3.09827e-13,1.31286e+00,5.35006e-13,1.31286e+00
8.11440e+02,1.20580e+04,7.80400e+03,4.25400e+03,1.88555e-12,-1.32041e+00,1.56426e-12,-1.32041e+00,3.21295e-13,-1.32041e+00
8.11689e+02,1.53200e+04,4.97600e+03,1.03440e+04,4.18477e-13,-1.31286e+00,3.09827e-13,-1.31286e+00,5.35006e-13,-1.31286e+00
8.11938e+02,1.54910e+04,6.24700e+03,9.24400e+03,2.98085e-13,-1.30532e+00,7.77565e-13,-1.30532e+00,4.81512e-13,-1.30532e+00
8.12187e+02,1.35750e+04,1.10740e+04,2.50100e+03,4.74941e-13,-1.29777e+00,4.68689e-13,-1.29777e+00,4.17248e-13,-1.29777e+00
8.12436e+02,9.01200e+03,1.47720e+04,-5.76000e+03,8.07234e-13,-1.29023e+00,9.62195e-13,-1.29023e+00,5.66855e-13,-1.29023e+00
8.12685e+02,5.36200e+03,1.51460e+04,-9.78400e+03,6.20166e-13,-1.28268e+00,5.95700e-13,-1.28268e+00,9.51218e-14,-1.28268e+00
8.12935e+02,6.32600e+03,1.31440e+04,-6.81800e+03,6.03266e-13,-1.27514e+00,4.66843e-13,-1.27514e+00,2.44570e-13,-1.27514e+00
8.13184e+02,1.00610e+04,8.56400e+03,1.49700e+03,3.65489e-13,-1.26759e+00,2.21293e-13,-1.26759e+00,3.12921e-13,-1.26759e+00
8.13433e+02,1.43320e+04,5.34600e+03,8.98600e+03,5.50439e-13,-1.26005e+00,3.08397e-13,-1.26005e+00,7.90415e-13,-1.26005e+00
8.13682e+02,1.52580e+04,5.72100e+03,9.53700e+03,8.10293e-13,-1.25250e+00,7.47226e-13,-1.25250e+00,1.33394e-12,-1.25250e+00
8.13931e+02,1.40330e+04,9.51600e+03,4.51700e+03,5.89340e-13,-1.24496e+00,1.09208e-12,-1.24496e+00,1.56448e-12,-1.24496e+00
8.14180e+02,8.94400e+03,1.30080e+04,-4.06400e+03,2.83494e-13,-1.23741e+00,8.92682e-13,-1.23741e+00,9.93467e-13,-1.23741e+00
8.14429e+02,5.47300e+03,1.48570e+04,-9.38400e+03,3.15047e-13,-1.22987e+00,3.37944e-13,-1.22987e+00,4.72076e-13,-1.22987e+00
8.14678e+02,5.41500e+03,1.40750e+04,-8.66000e+03,4.88832e-13,-1.22232e+00,3.32209e-13,-1.22232e+00,2.16183e-13,-1.22232e+00
8.14927e+02,8.80400e+03,8.68400e+03,1.20000e+02,5.90808e-13,-1.21478e+00,9.52742e-13,-1.21478e+00,6.91200e-13,-1.21478e+00
8.15176e+02,1.25420e+04,5.09100e+03,7.45100e+03,7.75134e-13,-1.20723e+00,1.11397e-12,-1.20723e+00,9.68344e-13,-1.20723e+00
8.15425e+02,1.38810e+04,4.73200e+03,9.14900e+03,6.54043e-13,-1.19969e+00,1.16644e-12,-1.19969e+00,1.13371e-12,-1.19969e+00
8.15674e+02,1.29490e+04,8.36900e+03,4.58000e+03,3.89275e-13,-1.19214e+00,8.58955e-13,-1.19214e+00,9.51489e-13,-1.19214e+00
8.15923e+02,9.00100e+03,1.36570e+04,-4.65600e+03,5.16733e-13,-1.18460e+00,6.22702e-13,-1.18460e+00,7.31742e-13,-1.18460e+00
8.16172e+02,5.60300e+03,1.53970e+04,-9.79400e+03,7.61741e-13,-1.17705e+00,7.43032e-13,-1.17705e+00,5.42399e-13,-1.17705e+00
8.16421e+02,4.93500e+03,1.29720e+04,-8.03700e+03,3.19499e-13,-1.16951e+00,5.36435e-13,-1.16951e+00,2.28795e-13,-1.16951e+00
8.16670e+02,8.00900e+03,7.74500e+03,2.64000e+02,2.17833e-13,-1.16196e+00,2.70682e-13,-1.16196e+00,4.51331e-13,-1.16196e+00
8.16919e+02,1.23650e+04,4.45400e+03,7.91100e+03,6.27883e-13,-1.15442e+00,3.50138e-13,-1.15442e+00,3.67470e-13,-1.15442e+00
8.17168e+02,1.38240e+04,4.17700e+03,9.64700e+03,7.61118e-13,-1.14687e+00,8.35245e-13,-1.14687e+00,3.67663e-13,-1.14687e+00
8.17417e+02,1.16920e+04,6.69200e+03,5.00000e+03,8.71452e-13,-1.13932e+00,5.54425e-13,-1.13932e+00,7.15982e-13,-1.13932e+00
8.17666e+02,8.28000e+03,1.05660e+04,-2.28600e+03,8.06379e-13,-1.13178e+00,6.82653e-13,-1.13178e+00,1.39955e-12,-1.13178e+00
8.17915e+02,4.80500e+03,1.31030e+04,-8.29800e+03,7.41483e-13,-1.12423e+00,9.72752e-13,-1.12423e+00,1.65579e-12,-1.12423e+00
8.18164e+02,3.87500e+03,1.13580e+04,-7.48300e+03,5.41142e-13,-1.11669e+00,9.35686e-13,-1.11669e+00,1.22129e-12,-1.11669e+00
8.18413e+02,5.91300e+03,7.54100e+03,-1.62800e+03,5.09680e-13,-1.10914e+00,9.44193e-13,-1.10914e+00,6.86189e-13,-1.10914e+00
8.18662e+02,8.76000e+03,4.40000e+03,4.36000e+03,7.38807e-13,-1.10160e+00,1.28819e-12,-1.10160e+00,7.80067e-13,-1.10160e+00
8.18911e+02,1.05440e+04,3.50100e+03,7.04300e+03,1.28407e-12,-1.09405e+00,1.16792e-12,-1.09405e+00,1.11229e-12,-1.09405e+00
8.19160e+02,9.82100e+03,5.28500e+03,4.53600e+03,1.64384e-12,-1.08651e+00,7.28488e-13,-1.08651e+00,1.34657e-12,-1.08651e+00
8.19408e+02,7.31200e+03,8.55600e+03,-1.24400e+03,1.52706e-12,-1.07896e+00,2.33700e-13,-1.07896e+00,1.33397e-12,-1.07896e+00
8.19657e+02,4.54200e+03,1.22890e+04,-7.74700e+03,8.42101e-13,-1.07142e+00,1.68403e-13,-1.07142e+00,9.97275e-13,-1.07142e+00
8.19906e+02,3.61100e+03,1.26360e+04,-9.02500e+03,5.76034e-13,-1.06387e+00,3.40394e-13,-1.06387e+00,8.95000e-13,-1.06387e+00
8.20155e+02,5.88700e+03,9.76900e+03,-3.88200e+03,4.67448e-13,-1.05633e+00,7.85196e-13,-1.05633e+00,5.86286e-13,-1.05633e+00
8.20404e+02,9.01200e+03,5.67300e+03,3.33900e+03,4.41302e-13,-1.04878e+00,8.80094e-13,-1.04878e+00,5.28016e-13,-1.04878e+00
8.20653e+02,1.07160e+04,3.58500e+03,7.13100e+03,4.42312e-13,-1.04124e+00,8.19742e-13,-1.04124e+00,4.43548e-13,-1.04124e+00
8.20901e+02,1.02370e+04,4.61300e+03,5.62400e+03,5.70791e-13,-1.03369e+00,5.29846e-13,-1.03369e+00,4.58428e-13,-1.03369e+00
8.21150e+02,8.00800e+03,8.10900e+03,-1.01000e+02,3.76408e-13,-1.02615e+00,5.53053e-13,-1.02615e+00,7.54699e-13,-1.02615e+00
8.21399e+02,4.50100e+03,9.24400e+03,-4.74300e+03,1.84139e-14,-1.01860e+00,1.19010e-12,-1.01860e+00,1.17307e-12,-1.01860e+00
8.21648e+02,2.93100e+03,9.50700e+03,-6.57600e+03,3.39762e-13,-1.01106e+00,1.20816e-12,-1.01106e+00,1.49213e-12,-1.01106e+00
8.21897e+02,4.03700e+03,8.11800e+03,-4.08100e+03,6.92138e-13,-1.00351e+00,4.40701e-13,-1.00351e+00,1.13217e-12,-1.00351e+00
8.22145e+02,5.92100e+03,5.05200e+03,8.69000e+02,9.51452e-13,-9.95966e-01,5.79192e-13,-9.95966e-01,5.92301e-13,-9.95966e-01
8.22394e+02,8.89800e+03,3.28200e+03,5.61600e+03,6.31990e-13,-9.88421e-01,7.31219e-13,-9.88421e-01,1.15373e-13,-9.88421e-01
8.22643e+02,9.37600e+03,3.53700e+03,5.83900e+03,8.21752e-13,-9.80876e-01,5.54166e-13,-9.80876e-01,4.86555e-13,-9.80876e-01
8.22892e+02,7.22300e+03,5.73100e+03,1.49200e+03,4.67550e-13,-9.73331e-01,4.02585e-13,-9.73331e-01,6.38079e-13,-9.73331e-01
8.23140e+02,4.60800e+03,7.96800e+03,-3.36000e+03,8.47131e-13,-9.65785e-01,4.48567e-13,-9.65785e-01,1.22530e-12,-9.65785e-01
8.23389e+02,3.01600e+03,9.26100e+03,-6.24500e+03,1.60696e-12,-9.58240e-01,2.71325e-13,-9.58240e-01,1.59196e-12,-9.58240e-01
8.23638e+02,3.57300e+03,8.22000e+03,-4.64700e+03,1.51294e-12,-9.50695e-01,3.87492e-13,-9.50695e-01,1.14427e-12,-9.50695e-01
8.23887e+02,6.11600e+03,5.15900e+03,9.57000e+02,8.03682e-13,-9.43150e-01,7.07725e-13,-9.43150e-01,1.11178e-13,-9.43150e-01
8.24135e+02,8.38400e+03,3.10700e+03,5.27700e+03,8.15215e-13,-9.35605e-01,2.73516e-13,-9.35605e-01,7.14142e-13,-9.35605e-01
8.24384e+02,8.62100e+03,2.99800e+03,5.62300e+03,3.17769e-13,-9.28059e-01,1.47670e-13,-9.28059e-01,2.38905e-13,-9.28059e-01
8.24633e+02,6.89400e+03,4.84200e+03,2.05200e+03,8.35296e-13,-9.20514e-01,6.36679e-13,-9.20514e-01,2.54789e-13,-9.20514e-01
8.24881e+02,4.73700e+03,7.25600e+03,-2.51900e+03,9.88921e-13,-9.12969e-01,9.68261e-13,-9.12969e-01,3.02140e-13,-9.12969e-01
8.25130e+02,2.89700e+03,8.47300e+03,-5.57600e+03,4.38583e-13,-9.05424e-01,1.11706e-12,-9.05424e-01,7.45715e-13,-9.05424e-01
8.25379e+02,3.01100e+03,7.94900e+03,-4.93800e+03,3.58123e-13,-8.97879e-01,1.30768e-12,-8.97879e-01,1.53436e-12,-8.97879e-01
8.25627e+02,4.14900e+03,4.90300e+03,-7.54000e+02,4.49790e-13,-8.90333e-01,8.89097e-13,-8.90333e-01,1.27867e-12,-8.90333e-01
8.25876e+02,6.02300e+03,2.74000e+03,3.28300e+03,6.09162e-13,-8.82788e-01,1.09789e-13,-8.82788e-01,5.42699e-13,-8.82788e-01
8.26125e+02,6.83500e+03,2.22500e+03,4.61000e+03,4.32644e-13,-8.75243e-01,6.93268e-13,-8.75243e-01,7.10339e-13,-8.75243e-01
8.26373e+02,5.53300e+03,3.08500e+03,2.44800e+03,2.15444e-13,-8.67698e-01,8.04624e-13,-8.67698e-01,9.98397e-13,-8.67698e-01
8.26622e+02,3.71900e+03,4.11300e+03,-3.94000e+02,1.76839e-13,-8.60153e-01,1.11478e-12,-8.60153e-01,1.28699e-12,-8.60153e-01
8.26870e+02,2.23400e+03,4.92000e+03,-2.68600e+03,4.46007e-13,-8.52607e-01,1.34780e-12,-8.52607e-01,1.49600e-12,-8.52607e-01
8.27119e+02,1.88800e+03,4.80300e+03,-2.91500e+03,8.20067e-13,-8.45062e-01,1.27369e-12,-8.45062e-01,1.52556e-12,-8.45062e-01
8.27368e+02,2.66800e+03,3.86400e+03,-1.19600e+03,1.09852e-12,-8.37517e-01,1.80745e-12,-8.37517e-01,1.09729e-12,-8.37517e-01
8.27616e+02,3.42500e+03,2.55200e+03,8.73000e+02,1.27284e-12,-8.29972e-01,2.60546e-12,-8.29972e-01,1.47176e-12,-8.29972e-01
8.27865e+02,4.61000e+03,1.78000e+03,2.83000e+03,1.55686e-12,-8.22427e-01,2.48400e-12,-8.22427e-01,2.40302e-12,-8.22427e-01
8.28113e+02,5.42500e+03,2.24400e+03,3.18100e+03,1.67852e-12,-8.14881e-01,1.67423e-12,-8.14881e-01,2.09674e-12,-8.14881e-01
8.28362e+02,4.20000e+03,3.58400e+03,6.16000e+02,1.02043e-12,-8.07336e-01,1.17883e-12,-8.07336e-01,6.80441e-13,-8.07336e-01
8.28610e+02,2.41400e+03,4.56900e+03,-2.15500e+03,6.65616e-13,-7.99791e-01,1.03146e-12,-7.99791e-01,9.63049e-13,-7.99791e-01
8.28859e+02,1.53600e+03,4.66600e+03,-3.13000e+03,3.12731e-13,-7.92246e-01,1.22397e-12,-7.92246e-01,1.22270e-12,-7.92246e-01
8.29108e+02,1.81200e+03,3.76400e+03,-1.95200e+03,5.16629e-13,-7.84701e-01,8.72796e-13,-7.84701e-01,1.35416e-12,-7.84701e-01
8.29356e+02,2.71500e+03,2.63000e+03,8.50000e+01,8.87310e-13,-7.77155e-01,1.33917e-12,-7.77155e-01,2.17859e-12,-7.77155e-01
8.29605e+02,3.54400e+03,1.62100e+03,1.92300e+03,7.05754e-13,-7.69610e-01,1.23177e-12,-7.69610e-01,1.92556e-12,-7.69610e-01
8.29853e+02,3.61000e+03,1.54900e+03,2.06100e+03,1.07681e-12,-7.62065e-01,1.41582e-12,-7.62065e-01,1.77171e-12,-7.62065e-01
8.30101e+02,3.10300e+03,2.16800e+03,9.35000e+02,1.82672e-12,-7.54520e-01,1.77512e-12,-7.54520e-01,1.92698e-12,-7.54520e-01
8.30350e+02,2.22200e+03,3.09200e+03,-8.70000e+02,2.64069e-12,-7.46975e-01,1.16737e-12,-7.46975e-01,2.37749e-12,-7.46975e-01
8.30598e+02,1.33300e+03,3.21100e+03,-1.87800e+03,2.94480e-12,-7.39429e-01,8.50478e-13,-7.39429e-01,2.82424e-12,-7.39429e-01
8.30847e+02,1.32700e+03,3.09800e+03,-1.77100e+03,2.40099e-12,-7.31884e-01,6.80233e-13,-7.31884e-01,2.64169e-12,-7.31884e-01
8.31095e+02,1.80500e+03,2.37900e+03,-5.74000e+02,1.83596e-12,-7.24339e-01,7.43729e-13,-7.24339e-01,2.54660e-12,-7.24339e-01
8.31344e+02,2.66100e+03,1.47900e+03,1.18200e+03,1.99029e-12,-7.16794e-01,2.18477e-13,-7.16794e-01,2.04456e-12,-7.16794e-01
8.31592e+02,2.86200e+03,1.06100e+03,1.80100e+03,2.00720e-12,-7.09249e-01,1.53803e-12,-7.09249e-01,4.74832e-13,-7.09249e-01
8.31841e+02,2.46800e+03,1.32200e+03,1.14600e+03,1.51965e-12,-7.01703e-01,2.40131e-12,-7.01703e-01,8.81690e-13,-7.01703e-01
8.32089e+02,1.94500e+03,2.07100e+03,-1.26000e+02,5.95099e-13,-6.94158e-01,1.90508e-12,-6.94158e-01,1.43383e-12,-6.94158e-01
8.32337e+02,1.33200e+03,2.63400e+03,-1.30200e+03,2.87134e-13,-6.86613e-01,6.91138e-13,-6.86613e-01,6.95048e-13,-6.86613e-01
8.32586e+02,9.48000e+02,2.34600e+03,-1.39800e+03,7.41918e-13,-6.79068e-01,8.13902e-13,-6.79068e-01,9.00869e-13,-6.79068e-01
8.32834e+02,1.18300e+03,2.15300e+03,-9.70000e+02,1.39460e-12,-6.71523e-01,1.56281e-12,-6.71523e-01,2.44661e-12,-6.71523e-01
8.33083e+02,1.54900e+03,1.36900e+03,1.80000e+02,1.05037e-12,-6.63977e-01,2.02777e-12,-6.63977e-01,3.01816e-12,-6.63977e-01
8.33331e+02,2.08600e+03,9.73000e+02,1.11300e+03,6.72179e-13,-6.56432e-01,2.23796e-12,-6.56432e-01,2.41921e-12,-6.56432e-01
8.33579e+02,2.06700e+03,9.35000e+02,1.13200e+03,2.18011e-12,-6.48887e-01,2.03011e-12,-6.48887e-01,1.76619e-12,-6.48887e-01
8.33828e+02,1.71200e+03,1.30600e+03,4.06000e+02,2.83233e-12,-6.41342e-01,1.79501e-12,-6.41342e-01,1.59943e-12,-6.41342e-01
8.34076e+02,1.10800e+03,1.50900e+03,-4.01000e+02,2.59526e-12,-6.33797e-01,1.79121e-12,-6.33797e-01,9.63112e-13,-6.33797e-01
8.34324e+02,8.45000e+02,1.71700e+03,-8.72000e+02,1.40265e-12,-6.26251e-01,1.02845e-12,-6.26251e-01,8.91347e-13,-6.26251e-01
8.34573e+02,7.84000e+02,1.71500e+03,-9.31000e+02,1.90867e-12,-6.18706e-01,7.68685e-13,-6.18706e-01,2.13949e-12,-6.18706e-01
8.34821e+02,1.01900e+03,1.36900e+03,-3.50000e+02,2.36586e-12,-6.11161e-01,2.39294e-12,-6.11161e-01,3.57561e-12,-6.11161e-01
8.35069e+02,1.29800e+03,8.61000e+02,4.37000e+02,1.72406e-12,-6.03616e-01,3.14634e-12,-6.03616e-01,3.55540e-12,-6.03616e-01
8.35318e+02,1.64400e+03,7.98000e+02,8.46000e+02,1.67138e-12,-5.96071e-01,2.68762e-12,-5.96071e-01,1.06287e-12,-5.96071e-01
8.35566e+02,1.36500e+03,7.82000e+02,5.83000e+02,3.43128e-12,-5.88525e-01,1.58870e-12,-5.88525e-01,1.84337e-12,-5.88525e-01
8.35814e+02,1.09600e+03,1.06000e+03,3.60000e+01,3.56069e-12,-5.80980e-01,1.11310e-12,-5.80980e-01,3.12873e-12,-5.80980e-01
8.36062e+02,7.82000e+02,1.15600e+03,-3.74000e+02,2.63220e-12,-5.73435e-01,1.14575e-12,-5.73435e-01,2.81767e-12,-5.73435e-01
8.36311e+02,7.04000e+02,1.25000e+03,-5.46000e+02,1.09764e-12,-5.65890e-01,7.45266e-13,-5.65890e-01,1.10560e-12,-5.65890e-01
8.36559e+02,7.08000e+02,1.07800e+03,-3.70000e+02,2.99849e-13,-5.58345e-01,2.64123e-13,-5.58345e-01,5.29659e-13,-5.58345e-01
8.36807e+02,9.17000e+02,9.34000e+02,-1.70000e+01,6.94053e-13,-5.50799e-01,4.39802e-13,-5.50799e-01,1.11542e-12,-5.50799e-01
8.37055e+02,1.09700e+03,7.26000e+02,3.71000e+02,1.22811e-12,-5.43254e-01,5.46816e-13,-5.43254e-01,6.88049e-13,-5.43254e-01
8.37304e+02,1.10900e+03,7.10000e+02,3.99000e+02,8.82192e-13,-5.35709e-01,2.41089e-12,-5.35709e-01,1.89062e-12,-5.35709e-01
8.37552e+02,9.37000e+02,7.27000e+02,2.10000e+02,3.81474e-13,-5.28164e-01,3.49912e-12,-5.28164e-01,3.83118e-12,-5.28164e-01
8.37800e+02,8.28000e+02,9.09000e+02,-8.10000e+01,2.75493e-13,-5.20619e-01,3.41093e-12,-5.20619e-01,3.64293e-12,-5.20619e-01
8.38048e+02,6.54000e+02,9.05000e+02,-2.51000e+02,5.23378e-13,-5.13073e-01,2.82242e-12,-5.13073e-01,3.28238e-12,-5.13073e-01
8.38296e+02,6.66000e+02,9.32000e+02,-2.66000e+02,8.15218e-13,-5.05528e-01,1.40287e-12,-5.05528e-01,1.96372e-12,-5.05528e-01
8.38545e+02,6.88000e+02,7.80000e+02,-9.20000e+01,1.81126e-12,-4.97983e-01,2.24265e-12,-4.97983e-01,4.04809e-12,-4.97983e-01
8.38793e+02,7.66000e+02,7.12000e+02,5.40000e+01,1.69839e-12,-4.90438e-01,3.47614e-12,-4.90438e-01,4.65606e-12,-4.90438e-01
8.39041e+02,7.66000e+02,6.42000e+02,1.24000e+02,2.61957e-12,-4.82893e-01,3.35893e-12,-4.82893e-01,3.43740e-12,-4.82893e-01
8.39289e+02,7.60000e+02,6.50000e+02,1.10000e+02,3.17818e-12,-4.75347e-01,2.90243e-12,-4.75347e-01,3.79703e-12,-4.75347e-01
8.39537e+02,7.03000e+02,6.77000e+02,2.60000e+01,2.68704e-12,-4.67802e-01,2.84306e-12,-4.67802e-01,4.84999e-12,-4.67802e-01
8.39785e+02,6.76000e+02,7.44000e+02,-6.80000e+01,2.18076e-12,-4.60257e-01,3.77125e-12,-4.60257e-01,5.68922e-12,-4.60257e-01
8.40033e+02,6.42000e+02,7.61000e+02,-1.19000e+02,1.55610e-13,-4.52712e-01,4.31538e-12,-4.52712e-01,4.26170e-12,-4.52712e-01
8.40281e+02,6.76000e+02,7.59000e+02,-8.30000e+01,2.28341e-12,-4.45167e-01,2.69915e-12,-4.45167e-01,8.35467e-13,-4.45167e-01
8.40530e+02,6.49000e+02,6.66000e+02,-1.70000e+01,2.14155e-12,-4.37621e-01,1.95976e-12,-4.37621e-01,2.18043e-12,-4.37621e-01
8.40778e+02,7.13000e+02,6.35000e+02,7.80000e+01,1.55241e-12,-4.30076e-01,4.35130e-12,-4.30076e-01,5.63886e-12,-4.30076e-01
8.41026e+02,6.95000e+02,6.35000e+02,6.00000e+01,1.96173e-12,-4.22531e-01,5.06839e-12,-4.22531e-01,6.80694e-12,-4.22531e-01
8.41274e+02,6.86000e+02,6.25000e+02,6.10000e+01,2.07451e-12,-4.14986e-01,3.06758e-12,-4.14986e-01,4.82940e-12,-4.14986e-01
8.41522e+02,6.57000e+02,6.60000e+02,-3.00000e+00,5.14131e-12,-4.07441e-01,2.62935e-12,-4.07441e-01,7.41475e-12,-4.07441e-01
8.41770e+02,6.33000e+02,6.70000e+02,-3.70000e+01,9.90779e-12,-3.99895e-01,6.23777e-12,-3.99895e-01,1.57780e-11,-3.99895e-01
8.42018e+02,6.31000e+02,6.66000e+02,-3.50000e+01,2.11324e-11,-3.92350e-01,1.71360e-11,-3.92350e-01,3.77013e-11,-3.92350e-01
8.42266e+02,6.45000e+02,6.62000e+02,-1.70000e+01,5.09381e-11,-3.84805e-01,4.74332e-11,-3.84805e-01,9.64921e-11,-3.84805e-01
8.42514e+02,6.52000e+02,6.35000e+02,1.70000e+01,7.70547e-11,-3.77260e-01,7.60211e-11,-3.77260e-01,1.49602e-10,-3.77260e-01
8.42762e+02,6.99000e+02,6.63000e+02,3.60000e+01,7.40200e-11,-3.69715e-01,7.68023e-11,-3.69715e-01,1.47201e-10,-3.69715e-01
8.43010e+02,6.36000e+02,6.04000e+02,3.20000e+01,5.09796e-11,-3.62169e-01,5.81268e-11,-3.62169e-01,1.06808e-10,-3.62169e-01
8.43258e+02,6.49000e+02,6.45000e+02,4.00000e+00,2.86529e-11,-3.54624e-01,3.46647e-11,-3.54624e-01,6.24440e-11,-3.54624e-01
8.43506e+02,6.37000e+02,6.43000e+02,-6.00000e+00,8.91869e-12,-3.47079e-01,1.26722e-11,-3.47079e-01,2.11982e-11,-3.47079e-01
8.43754e+02,6.38000e+02,6.44000e+02,-6.00000e+00,3.00632e-12,-3.39534e-01,4.82958e-12,-3.39534e-01,7.28077e-12,-3.39534e-01
8.44002e+02,6.33000e+02,6.37000e+02,-4.00000e+00,2.57020e-12,-3.31989e-01,2.64032e-12,-3.31989e-01,4.07227e-12,-3.31989e-01
8.44250e+02,6.41000e+02,6.53000e+02,-1.20000e+01,3.66639e-12,-3.24444e-01,2.01137e-12,-3.24444e-01,2.64768e-12,-3.24444e-01
8.44498e+02,6.20000e+02,6.37000e+02,-1.70000e+01,4.42830e-12,-3.16898e-01,2.19748e-12,-3.16898e-01,2.62412e-12,-3.16898e-01
8.44746e+02,6.30000e+02,6.39000e+02,-9.00000e+00,4.02145e-12,-3.09353e-01,1.80263e-12,-3.09353e-01,2.21985e-12,-3.09353e-01
8.44994e+02,6.37000e+02,6.22000e+02,1.50000e+01,2.15710e-12,-3.01808e-01,6.12638e-13,-3.01808e-01,2.67164e-12,-3.01808e-01
8.45242e+02,6.61000e+02,6.70000e+02,-9.00000e+00,1.73074e-12,-2.94263e-01,1.37284e-12,-2.94263e-01,2.45000e-12,-2.94263e-01
8.45490e+02,6.14000e+02,6.20000e+02,-6.00000e+00,2.39336e-12,-2.86718e-01,2.63777e-12,-2.86718e-01,3.57145e-12,-2.86718e-01
8.45738e+02,6.33000e+02,6.40000e+02,-7.00000e+00,3.44764e-12,-2.79172e-01,3.42818e-12,-2.79172e-01,5.34282e-12,-2.79172e-01
8.45985e+02,6.29000e+02,6.44000e+02,-1.50000e+01,2.66115e-12,-2.71627e-01,2.43464e-12,-2.71627e-01,4.13157e-12,-2.71627e-01
8.46233e+02,6.40000e+02,6.29000e+02,1.10000e+01,1.53686e-12,-2.64082e-01,1.43052e-12,-2.64082e-01,2.96632e-12,-2.64082e-01
8.46481e+02,6.31000e+02,6.37000e+02,-6.00000e+00,2.04918e-12,-2.56537e-01,1.08452e-12,-2.56537e-01,1.48482e-12,-2.56537e-01
8.46729e+02,6.49000e+02,6.33000e+02,1.60000e+01,4.02885e-12,-2.48992e-01,3.36646e-12,-2.48992e-01,1.19932e-12,-2.48992e-01
8.46977e+02,6.33000e+02,6.28000e+02,5.00000e+00,4.85318e-12,-2.41446e-01,4.08658e-12,-2.41446e-01,2.14731e-12,-2.41446e-01
8.47225e+02,6.37000e+02,6.29000e+02,8.00000e+00,3.91537e-12,-2.33901e-01,2.68030e-12,-2.33901e-01,3.07864e-12,-2.33901e-01
8.47473e+02,6.26000e+02,6.27000e+02,-1.00000e+00,1.48346e-12,-2.26356e-01,2.00907e-12,-2.26356e-01,3.15075e-12,-2.26356e-01
8.47720e+02,6.54000e+02,6.59000e+02,-5.00000e+00,1.98352e-12,-2.18811e-01,3.82052e-13,-2.18811e-01,2.27256e-12,-2.18811e-01
8.47968e+02,6.20000e+02,6.20000e+02,0.00000e+00,3.67892e-12,-2.11266e-01,3.13156e-12,-2.11266e-01,5.22134e-12,-2.11266e-01
8.48216e+02,6.26000e+02,6.35000e+02,-9.00000e+00,3.90279e-12,-2.03720e-01,3.08766e-12,-2.03720e-01,6.23309e-12,-2.03720e-01
8.48464e+02,6.35000e+02,6.23000e+02,1.20000e+01,3.40654e-12,-1.96175e-01,1.66813e-12,-1.96175e-01,4.72971e-12,-1.96175e-01
8.48712e+02,6.30000e+02,6.30000e+02,0.00000e+00,2.18898e-12,-1.88630e-01,9.25088e-13,-1.88630e-01,2.15900e-12,-1.88630e-01
8.48960e+02,6.25000e+02,6.24000e+02,1.00000e+00,3.36002e-12,-1.81085e-01,1.43048e-12,-1.81085e-01,1.95112e-12,-1.81085e-01
8.49207e+02,6.29000e+02,6.39000e+02,-1.00000e+01,6.24191e-12,-1.73540e-01,2.95498e-12,-1.73540e-01,3.39261e-12,-1.73540e-01
8.49455e+02,6.27000e+02,6.39000e+02,-1.20000e+01,5.58569e-12,-1.65994e-01,3.04161e-12,-1.65994e-01,4.32377e-12,-1.65994e-01
8.49703e+02,6.29000e+02,6.30000e+02,-1.00000e+00,1.15386e-12,-1.58449e-01,5.39820e-12,-1.58449e-01,5.43522e-12,-1.58449e-01
8.49951e+02,6.35000e+02,6.28000e+02,7.00000e+00,3.32712e-12,-1.50904e-01,7.35586e-12,-1.50904e-01,4.68208e-12,-1.50904e-01
8.50198e+02,6.58000e+02,6.60000e+02,-2.00000e+00,3.54316e-12,-1.43359e-01,3.96992e-12,-1.43359e-01,1.61785e-12,-1.43359e-01
8.50446e+02,6.23000e+02,6.18000e+02,5.00000e+00,3.23089e-12,-1.35814e-01,2.32952e-12,-1.35814e-01,2.93204e-12,-1.35814e-01
8.50694e+02,6.36000e+02,6.25000e+02,1.10000e+01,2.76053e-12,-1.28268e-01,3.57152e-12,-1.28268e-01,5.39442e-12,-1.28268e-01
8.50941e+02,6.21000e+02,6.48000e+02,-2.70000e+01,1.17421e-12,-1.20723e-01,4.42656e-12,-1.20723e-01,5.59160e-12,-1.20723e-01
8.51189e+02,6.22000e+02,6.30000e+02,-8.00000e+00,9.05944e-13,-1.13178e-01,3.85540e-12,-1.13178e-01,4.56733e-12,-1.13178e-01
8.51437e+02,6.32000e+02,6.27000e+02,5.00000e+00,4.02090e-12,-1.05633e-01,1.85953e-12,-1.05633e-01,3.97240e-12,-1.05633e-01
8.51685e+02,6.25000e+02,6.30000e+02,-5.00000e+00,4.46584e-12,-9.80876e-02,2.04204e-12,-9.80876e-02,2.78003e-12,-9.80876e-02
8.51932e+02,6.25000e+02,6.26000e+02,-1.00000e+00,2.14884e-12,-9.05424e-02,1.32059e-12,-9.05424e-02,8.79149e-13,-9.05424e-02
8.52180e+02,6.28000e+02,6.26000e+02,2.00000e+00,4.71836e-13,-8.29972e-02,1.90598e-12,-8.29972e-02,1.76002e-12,-8.29972e-02
8.52428e+02,6.37000e+02,6.19000e+02,1.80000e+01,2.36432e-12,-7.54520e-02,2.41064e-12,-7.54520e-02,2.36104e-12,-7.54520e-02
8.52675e+02,6.56000e+02,6.56000e+02,0.00000e+00,7.86844e-12,-6.79068e-02,3.86808e-12,-6.79068e-02,4.00922e-12,-6.79068e-02
8.52923e+02,6.25000e+02,6.05000e+02,2.00000e+01,1.05959e-11,-6.03616e-02,6.37071e-12,-6.03616e-02,5.29304e-12,-6.03616e-02
8.53170e+02,6.32000e+02,6.39000e+02,-7.00000e+00,1.02099e-11,-5.28164e-02,7.15530e-12,-5.28164e-02,3.34978e-12,-5.28164e-02
8.53418e+02,6.22000e+02,6.29000e+02,-7.00000e+00,6.73702e-12,-4.52712e-02,4.43254e-12,-4.52712e-02,3.40444e-12,-4.52712e-02
8.53666e+02,6.38000e+02,6.32000e+02,6.00000e+00,3.92157e-12,-3.77260e-02,1.88486e-12,-3.77260e-02,4.91312e-12,-3.77260e-02
8.53913e+02,6.34000e+02,6.27000e+02,7.00000e+00,3.92849e-12,-3.01808e-02,7.58712e-13,-3.01808e-02,3.16978e-12,-3.01808e-02
8.54161e+02,6.34000e+02,6.20000e+02,1.40000e+01,1.74839e-11,-2.26356e-02,1.94269e-11,-2.26356e-02,1.97215e-12,-2.26356e-02
8.54409e+02,6.25000e+02,6.29000e+02,-4.00000e+00,8.27138e-11,-1.50904e-02,8.39910e-11,-1.50904e-02,6.84439e-12,-1.50904e-02
8.54656e+02,6.47000e+02,6.36000e+02,1.10000e+01,2.36054e-10,-7.54520e-03,2.32710e-10,-7.54520e-03,7.45023e-12,-7.54520e-03
