7.67698e+02,6.34000e+02,6.36000e+02,-2.00000e+00,3.87731e-10,0.00000e+00,3.86773e-10,0.00000e+00,9.57169e-13,0.00000e+00
7.67949e+02,6.69000e+02,6.62000e+02,7.00000e+00,2.32740e-10,7.54520e-03,2.31173e-10,7.54520e-03,3.95606e-12,7.54520e-03
7.68199e+02,6.08000e+02,6.21000e+02,-1.30000e+01,8.49973e-11,1.50904e-02,8.33938e-11,1.50904e-02,4.15882e-12,1.50904e-02
7.68450e+02,6.14000e+02,6.40000e+02,-2.60000e+01,1.80495e-11,2.26356e-02,1.75456e-11,2.26356e-02,1.88560e-12,2.26356e-02
7.68701e+02,6.31000e+02,6.32000e+02,-1.00000e+00,5.07128e-12,3.01808e-02,4.83106e-12,3.01808e-02,6.19593e-13,3.01808e-02
7.68951e+02,6.42000e+02,6.29000e+02,1.30000e+01,5.12393e-12,3.77260e-02,5.08612e-12,3.77260e-02,2.55823e-12,3.77260e-02
7.69202e+02,6.29000e+02,6.33000e+02,-4.00000e+00,3.81237e-12,4.52712e-02,5.79942e-12,4.52712e-02,3.75876e-12,4.52712e-02
7.69453e+02,6.47000e+02,6.43000e+02,4.00000e+00,6.53662e-12,5.28164e-02,1.00535e-11,5.28164e-02,4.48041e-12,5.28164e-02
7.69703e+02,6.45000e+02,6.40000e+02,5.00000e+00,7.21682e-12,6.03616e-02,9.82289e-12,6.03616e-02,2.84095e-12,6.03616e-02
7.69954e+02,6.45000e+02,6.42000e+02,3.00000e+00,6.64774e-12,6.79068e-02,6.16502e-12,6.79068e-02,4.83014e-13,6.79068e-02
7.70205e+02,6.33000e+02,6.32000e+02,1.00000e+00,6.34684e-12,7.54520e-02,1.94281e-12,7.54520e-02,4.40800e-12,7.54520e-02
7.70455e+02,6.66000e+02,6.88000e+02,-2.20000e+01,7.32936e-12,8.29972e-02,9.16506e-13,8.29972e-02,6.55519e-12,8.29972e-02
7.70706e+02,6.32000e+02,6.23000e+02,9.00000e+00,6.14863e-12,9.05424e-02,1.53846e-12,9.05424e-02,5.24113e-12,9.05424e-02
7.70957e+02,6.52000e+02,6.35000e+02,1.70000e+01,3.63893e-12,9.80876e-02,3.09375e-12,9.80876e-02,1.62107e-12,9.80876e-02
7.71207e+02,6.42000e+02,6.40000e+02,2.00000e+00,4.37578e-12,1.05633e-01,5.04021e-12,1.05633e-01,1.22066e-12,1.05633e-01
7.71458e+02,6.35000e+02,6.56000e+02,-2.10000e+01,5.75658e-12,1.13178e-01,5.26406e-12,1.13178e-01,9.90867e-13,1.13178e-01
7.71708e+02,6.42000e+02,6.53000e+02,-1.10000e+01,5.07496e-12,1.20723e-01,4.31944e-12,1.20723e-01,8.81653e-13,1.20723e-01
7.71959e+02,6.41000e+02,6.31000e+02,1.00000e+01,2.01319e-12,1.28268e-01,2.13943e-12,1.28268e-01,7.01946e-13,1.28268e-01
7.72210e+02,6.37000e+02,6.68000e+02,-3.10000e+01,1.86616e-12,1.35814e-01,1.09939e-12,1.35814e-01,2.12488e-12,1.35814e-01
7.72460e+02,6.49000e+02,6.78000e+02,-2.90000e+01,5.51776e-12,1.43359e-01,2.97176e-12,1.43359e-01,2.58452e-12,1.43359e-01
7.72711e+02,6.61000e+02,6.55000e+02,6.00000e+00,7.60311e-12,1.50904e-01,6.43109e-12,1.50904e-01,1.19925e-12,1.50904e-01
7.72961e+02,6.85000e+02,6.69000e+02,1.60000e+01,5.58817e-12,1.58449e-01,5.77237e-12,1.58449e-01,3.00289e-13,1.58449e-01
7.73212e+02,6.20000e+02,6.42000e+02,-2.20000e+01,2.40868e-12,1.65994e-01,3.19536e-12,1.65994e-01,1.35394e-12,1.65994e-01
7.73462e+02,6.56000e+02,6.63000e+02,-7.00000e+00,5.20321e-12,1.73540e-01,5.17610e-12,1.73540e-01,2.06667e-12,1.73540e-01
7.73713e+02,6.71000e+02,6.45000e+02,2.60000e+01,5.88780e-12,1.81085e-01,5.56094e-12,1.81085e-01,2.24710e-12,1.81085e-01
7.73963e+02,6.62000e+02,6.38000e+02,2.40000e+01,5.20291e-12,1.88630e-01,4.39528e-12,1.88630e-01,2.29854e-12,1.88630e-01
7.74214e+02,6.35000e+02,6.80000e+02,-4.50000e+01,3.88028e-12,1.96175e-01,2.11746e-12,1.96175e-01,2.13248e-12,1.96175e-01
7.74465e+02,6.64000e+02,6.83000e+02,-1.90000e+01,3.06717e-12,2.03720e-01,1.23898e-12,2.03720e-01,1.83507e-12,2.03720e-01
7.74715e+02,6.73000e+02,6.52000e+02,2.10000e+01,3.23026e-12,2.11266e-01,1.45683e-12,2.11266e-01,2.45292e-12,2.11266e-01
7.74965e+02,6.64000e+02,6.76000e+02,-1.20000e+01,2.92984e-12,2.18811e-01,1.70773e-12,2.18811e-01,4.45246e-12,2.18811e-01
7.75216e+02,6.61000e+02,6.94000e+02,-3.30000e+01,2.75688e-12,2.26356e-01,3.13611e-12,2.26356e-01,5.62544e-12,2.26356e-01
7.75466e+02,7.38000e+02,7.36000e+02,2.00000e+00,3.50347e-12,2.33901e-01,2.69630e-12,2.33901e-01,4.52326e-12,2.33901e-01
7.75717e+02,6.88000e+02,6.57000e+02,3.10000e+01,3.98634e-12,2.41446e-01,3.73306e-12,2.41446e-01,3.31468e-12,2.41446e-01
7.75967e+02,6.85000e+02,6.92000e+02,-7.00000e+00,3.78528e-12,2.48992e-01,4.09991e-12,2.48992e-01,3.68208e-12,2.48992e-01
7.76218e+02,6.53000e+02,7.51000e+02,-9.80000e+01,1.32991e-12,2.56537e-01,4.04779e-12,2.56537e-01,4.59061e-12,2.56537e-01
7.76468e+02,7.38000e+02,7.35000e+02,3.00000e+00,1.53516e-12,2.64082e-01,6.27069e-12,2.64082e-01,5.10271e-12,2.64082e-01
7.76719e+02,7.37000e+02,6.75000e+02,6.20000e+01,3.03787e-12,2.71627e-01,5.63118e-12,2.71627e-01,3.48130e-12,2.71627e-01
7.76969e+02,6.99000e+02,7.93000e+02,-9.40000e+01,2.49286e-12,2.79172e-01,1.58614e-12,2.79172e-01,1.84375e-12,2.79172e-01
7.77219e+02,6.98000e+02,8.23000e+02,-1.25000e+02,1.38393e-12,2.86718e-01,1.71533e-12,2.86718e-01,2.14806e-12,2.86718e-01
7.77470e+02,8.77000e+02,7.70000e+02,1.07000e+02,7.08801e-13,2.94263e-01,2.68462e-12,2.94263e-01,3.33185e-12,2.94263e-01
7.77720e+02,7.94000e+02,7.09000e+02,8.50000e+01,2.70294e-12,3.01808e-01,2.31743e-12,3.01808e-01,3.56281e-12,3.01808e-01
7.77971e+02,7.30000e+02,8.93000e+02,-1.63000e+02,2.76970e-12,3.09353e-01,5.00134e-12,3.09353e-01,3.79732e-12,3.09353e-01
7.78221e+02,7.42000e+02,9.00000e+02,-1.58000e+02,1.28859e-12,3.16898e-01,5.76414e-12,3.16898e-01,4.55694e-12,3.16898e-01
7.78471e+02,9.78000e+02,8.00000e+02,1.78000e+02,1.16537e-12,3.24444e-01,4.03642e-12,3.24444e-01,3.23429e-12,3.24444e-01
7.78722e+02,8.64000e+02,7.64000e+02,1.00000e+02,9.83467e-13,3.31989e-01,1.04609e-12,3.31989e-01,1.74070e-12,3.31989e-01
7.78972e+02,7.64000e+02,1.07000e+03,-3.06000e+02,2.22850e-12,3.39534e-01,2.24982e-12,3.39534e-01,3.07794e-12,3.39534e-01
7.79222e+02,8.45000e+02,1.04300e+03,-1.98000e+02,2.63505e-12,3.47079e-01,3.51478e-12,3.47079e-01,2.34919e-12,3.47079e-01
7.79473e+02,1.03800e+03,8.50000e+02,1.88000e+02,2.36165e-12,3.54624e-01,3.05349e-12,3.54624e-01,2.43601e-12,3.54624e-01
7.79723e+02,9.14000e+02,7.75000e+02,1.39000e+02,5.11158e-12,3.62169e-01,2.21337e-12,3.62169e-01,5.22878e-12,3.62169e-01
7.79973e+02,8.03000e+02,1.11000e+03,-3.07000e+02,4.81941e-12,3.69715e-01,2.50337e-12,3.69715e-01,3.76287e-12,3.69715e-01
7.80224e+02,9.84000e+02,1.08900e+03,-1.05000e+02,1.81539e-12,3.77260e-01,1.74006e-12,3.77260e-01,1.16855e-12,3.77260e-01
7.80474e+02,1.28300e+03,9.61000e+02,3.22000e+02,8.54186e-13,3.84805e-01,9.43052e-13,3.84805e-01,3.12011e-13,3.84805e-01
7.80724e+02,9.50000e+02,8.45000e+02,1.05000e+02,7.13054e-13,3.92350e-01,1.06926e-12,3.92350e-01,3.70543e-13,3.92350e-01
7.80974e+02,8.29000e+02,1.23800e+03,-4.09000e+02,5.78570e-13,3.99895e-01,1.19378e-12,3.99895e-01,1.14570e-12,3.99895e-01
7.81225e+02,1.05600e+03,1.25200e+03,-1.96000e+02,9.33682e-13,4.07441e-01,2.62290e-12,4.07441e-01,1.69634e-12,4.07441e-01
7.81475e+02,1.48000e+03,9.89000e+02,4.91000e+02,2.20765e-12,4.14986e-01,1.69297e-12,4.14986e-01,2.44797e-12,4.14986e-01
7.81725e+02,1.15200e+03,9.85000e+02,1.67000e+02,2.84098e-12,4.22531e-01,9.13545e-13,4.22531e-01,3.75380e-12,4.22531e-01
7.81975e+02,1.00000e+03,1.52800e+03,-5.28000e+02,2.37070e-12,4.30076e-01,1.19887e-12,4.30076e-01,3.55636e-12,4.30076e-01
7.82226e+02,1.20700e+03,1.43600e+03,-2.29000e+02,1.60270e-12,4.37621e-01,1.13348e-12,4.37621e-01,2.61930e-12,4.37621e-01
7.82476e+02,1.55400e+03,1.04400e+03,5.10000e+02,8.99095e-13,4.45167e-01,9.34830e-13,4.45167e-01,1.57250e-12,4.45167e-01
7.82726e+02,1.26900e+03,1.12100e+03,1.48000e+02,8.97482e-13,4.52712e-01,1.62833e-12,4.52712e-01,2.35180e-12,4.52712e-01
7.82976e+02,1.07000e+03,1.50400e+03,-4.34000e+02,1.56706e-12,4.60257e-01,2.31199e-12,4.60257e-01,3.80995e-12,4.60257e-01
7.83226e+02,1.32900e+03,1.28500e+03,4.40000e+01,1.81854e-12,4.67802e-01,1.64936e-12,4.67802e-01,3.46624e-12,4.67802e-01
7.83477e+02,1.72900e+03,1.10100e+03,6.28000e+02,6.66384e-13,4.75347e-01,8.06514e-13,4.75347e-01,1.43567e-12,4.75347e-01
7.83727e+02,1.28300e+03,1.16100e+03,1.22000e+02,1.34381e-12,4.82893e-01,1.31479e-12,4.82893e-01,1.39574e-12,4.82893e-01
7.83977e+02,1.13500e+03,1.67500e+03,-5.40000e+02,2.64126e-12,4.90438e-01,2.52138e-12,4.90438e-01,3.71366e-12,4.90438e-01
7.84227e+02,1.59500e+03,1.53400e+03,6.10000e+01,2.02938e-12,4.97983e-01,1.71400e-12,4.97983e-01,3.60284e-12,4.97983e-01
7.84477e+02,1.90500e+03,1.23500e+03,6.70000e+02,1.66063e-12,5.05528e-01,1.50581e-12,5.05528e-01,6.13360e-13,5.05528e-01
7.84727e+02,1.41000e+03,1.47000e+03,-6.00000e+01,3.26865e-12,5.13073e-01,2.93204e-12,5.13073e-01,3.84278e-12,5.13073e-01
7.84978e+02,1.42400e+03,2.05600e+03,-6.32000e+02,2.83722e-12,5.20619e-01,1.80050e-12,5.20619e-01,3.63043e-12,5.20619e-01
7.85228e+02,2.22400e+03,1.94500e+03,2.79000e+02,2.57846e-12,5.28164e-01,8.34324e-13,5.28164e-01,3.40693e-12,5.28164e-01
7.85478e+02,2.59500e+03,1.52000e+03,1.07500e+03,3.35529e-12,5.35709e-01,6.83889e-13,5.35709e-01,4.03134e-12,5.35709e-01
7.85728e+02,1.82000e+03,1.99000e+03,-1.70000e+02,2.74865e-12,5.43254e-01,1.16783e-12,5.43254e-01,3.23153e-12,5.43254e-01
7.85978e+02,1.67200e+03,2.84700e+03,-1.17500e+03,1.96955e-12,5.50799e-01,2.53953e-12,5.50799e-01,3.21221e-12,5.50799e-01
7.86228e+02,2.37600e+03,2.18700e+03,1.89000e+02,8.56008e-13,5.58345e-01,4.07736e-12,5.58345e-01,4.60624e-12,5.58345e-01
7.86478e+02,2.52800e+03,1.57800e+03,9.50000e+02,4.20914e-12,5.65890e-01,3.73308e-12,5.65890e-01,7.78614e-12,5.65890e-01
7.86728e+02,1.75400e+03,2.01200e+03,-2.58000e+02,9.20280e-12,5.73435e-01,7.30445e-12,5.73435e-01,1.60837e-11,5.73435e-01
7.86978e+02,1.67100e+03,2.47500e+03,-8.04000e+02,1.29355e-11,5.80980e-01,1.28061e-11,5.80980e-01,2.49129e-11,5.80980e-01
7.87228e+02,2.54400e+03,2.24600e+03,2.98000e+02,1.87262e-11,5.88525e-01,1.82225e-11,5.88525e-01,3.59784e-11,5.88525e-01
7.87478e+02,2.82200e+03,1.74200e+03,1.08000e+03,2.60066e-11,5.96071e-01,2.51200e-11,5.96071e-01,4.94359e-11,5.96071e-01
7.87728e+02,1.92900e+03,2.24200e+03,-3.13000e+02,3.31185e-11,6.03616e-01,3.27646e-11,6.03616e-01,6.32681e-11,6.03616e-01
7.87978e+02,1.90100e+03,3.05400e+03,-1.15300e+03,3.62399e-11,6.11161e-01,3.64739e-11,6.11161e-01,6.93910e-11,6.11161e-01
7.88228e+02,2.52300e+03,2.16000e+03,3.63000e+02,3.51767e-11,6.18706e-01,3.64319e-11,6.18706e-01,6.78097e-11,6.18706e-01
7.88478e+02,2.99000e+03,1.72400e+03,1.26600e+03,3.07611e-11,6.26251e-01,3.34638e-11,6.26251e-01,6.03932e-11,6.26251e-01
7.88728e+02,2.14000e+03,2.40600e+03,-2.66000e+02,2.57395e-11,6.33797e-01,2.77838e-11,6.33797e-01,4.93315e-11,6.33797e-01
7.88978e+02,2.15400e+03,3.16100e+03,-1.00700e+03,2.08580e-11,6.41342e-01,1.92471e-11,6.41342e-01,3.63243e-11,6.41342e-01
7.89228e+02,3.51000e+03,2.75600e+03,7.54000e+02,1.35011e-11,6.48887e-01,9.29087e-12,6.48887e-01,2.15142e-11,6.48887e-01
7.89478e+02,3.69700e+03,2.05400e+03,1.64300e+03,6.21920e-12,6.56432e-01,6.70134e-12,6.56432e-01,1.28694e-11,6.56432e-01
7.89728e+02,2.51300e+03,2.99800e+03,-4.85000e+02,5.29517e-12,6.63977e-01,8.34495e-12,6.63977e-01,1.25922e-11,6.63977e-01
7.89978e+02,2.46900e+03,4.13300e+03,-1.66400e+03,4.68303e-12,6.71523e-01,5.16966e-12,6.71523e-01,7.54998e-12,6.71523e-01
7.90228e+02,3.59800e+03,3.12800e+03,4.70000e+02,2.48723e-12,6.79068e-01,1.36191e-12,6.79068e-01,3.23246e-12,6.79068e-01
7.90478e+02,3.66800e+03,2.36600e+03,1.30200e+03,1.32135e-12,6.86613e-01,3.07096e-12,6.86613e-01,4.06018e-12,6.86613e-01
7.90728e+02,2.64400e+03,3.30600e+03,-6.62000e+02,1.42600e-12,6.94158e-01,1.06377e-12,6.94158e-01,2.45795e-12,6.94158e-01
7.90978e+02,2.85100e+03,4.73400e+03,-1.88300e+03,3.40009e-13,7.01703e-01,1.95888e-12,7.01703e-01,1.94115e-12,7.01703e-01
7.91228e+02,4.22800e+03,3.72200e+03,5.06000e+02,7.91241e-13,7.09249e-01,1.18831e-12,7.09249e-01,1.45496e-12,7.09249e-01
7.91478e+02,4.18100e+03,2.69600e+03,1.48500e+03,1.92456e-12,7.16794e-01,5.62174e-13,7.16794e-01,1.99500e-12,7.16794e-01
7.91728e+02,2.72100e+03,3.48500e+03,-7.64000e+02,2.42982e-12,7.24339e-01,7.38159e-13,7.24339e-01,2.54778e-12,7.24339e-01
7.91977e+02,2.54900e+03,4.10900e+03,-1.56000e+03,1.83486e-12,7.31884e-01,2.14808e-12,7.31884e-01,3.58853e-12,7.31884e-01
7.92227e+02,3.65200e+03,2.96500e+03,6.87000e+02,8.75901e-13,7.39429e-01,2.88873e-12,7.39429e-01,3.67657e-12,7.39429e-01
7.92477e+02,4.27400e+03,2.44300e+03,1.83100e+03,6.65241e-13,7.46975e-01,1.78987e-12,7.46975e-01,2.36525e-12,7.46975e-01
7.92727e+02,3.21700e+03,3.83200e+03,-6.15000e+02,1.08154e-12,7.54520e-01,5.15224e-13,7.54520e-01,1.46300e-12,7.54520e-01
7.92977e+02,3.08100e+03,5.42600e+03,-2.34500e+03,1.09092e-12,7.62065e-01,1.82390e-12,7.62065e-01,2.66724e-12,7.62065e-01
7.93227e+02,4.48300e+03,3.84800e+03,6.35000e+02,6.31349e-13,7.69610e-01,2.29329e-12,7.69610e-01,2.86502e-12,7.69610e-01
7.93476e+02,4.91900e+03,2.78800e+03,2.13100e+03,6.77367e-13,7.77155e-01,2.26086e-12,7.77155e-01,2.85710e-12,7.77155e-01
7.93726e+02,3.38800e+03,3.85600e+03,-4.68000e+02,1.22548e-12,7.84701e-01,1.36023e-12,7.84701e-01,2.25815e-12,7.84701e-01
7.93976e+02,3.20900e+03,5.27700e+03,-2.06800e+03,1.27251e-12,7.92246e-01,2.72765e-13,7.92246e-01,1.01404e-12,7.92246e-01
7.94226e+02,5.13300e+03,4.30100e+03,8.32000e+02,1.80295e-12,7.99791e-01,6.32913e-13,7.99791e-01,2.19372e-12,7.99791e-01
7.94476e+02,5.96100e+03,3.00800e+03,2.95300e+03,1.68791e-12,8.07336e-01,1.27426e-12,8.07336e-01,2.92821e-12,8.07336e-01
7.94725e+02,3.72000e+03,3.58900e+03,1.31000e+02,1.33020e-12,8.14881e-01,9.82751e-13,8.14881e-01,2.28231e-12,8.14881e-01
7.94975e+02,2.94300e+03,5.10500e+03,-2.16200e+03,1.47860e-12,8.22427e-01,6.81988e-13,8.22427e-01,9.13108e-13,8.22427e-01
7.95225e+02,4.59500e+03,4.68200e+03,-8.70000e+01,1.57590e-12,8.29972e-01,1.19947e-12,8.29972e-01,4.04444e-13,8.29972e-01
7.95475e+02,5.53500e+03,3.11100e+03,2.42400e+03,1.21016e-12,8.37517e-01,8.72919e-13,8.37517e-01,7.71984e-13,8.37517e-01
7.95724e+02,3.90000e+03,3.62500e+03,2.75000e+02,7.98512e-13,8.45062e-01,5.02709e-13,8.45062e-01,6.44468e-13,8.45062e-01
7.95974e+02,3.06900e+03,5.43600e+03,-2.36700e+03,8.94726e-13,8.52607e-01,7.82447e-13,8.52607e-01,3.62989e-13,8.52607e-01
7.96224e+02,5.14500e+03,5.16400e+03,-1.90000e+01,1.05713e-12,8.60153e-01,1.15176e-12,8.60153e-01,2.98449e-13,8.60153e-01
7.96474e+02,6.83700e+03,3.73000e+03,3.10700e+03,1.30479e-12,8.67698e-01,2.14462e-12,8.67698e-01,8.59433e-13,8.67698e-01
7.96723e+02,4.97000e+03,3.78100e+03,1.18900e+03,1.31132e-12,8.75243e-01,2.11819e-12,8.75243e-01,8.30121e-13,8.75243e-01
7.96973e+02,3.39800e+03,5.71200e+03,-2.31400e+03,1.31312e-12,8.82788e-01,1.57751e-12,8.82788e-01,3.53075e-13,8.82788e-01
7.97223e+02,5.10600e+03,6.15100e+03,-1.04500e+03,1.30440e-12,8.90333e-01,1.67055e-12,8.90333e-01,6.73567e-13,8.90333e-01
7.97472e+02,6.67800e+03,3.85300e+03,2.82500e+03,1.22506e-12,8.97879e-01,1.58630e-12,8.97879e-01,4.03742e-13,8.97879e-01
7.97722e+02,6.17300e+03,4.07700e+03,2.09600e+03,1.25060e-12,9.05424e-01,1.30788e-12,9.05424e-01,7.96070e-13,9.05424e-01
7.97972e+02,4.62100e+03,7.16300e+03,-2.54200e+03,1.22099e-12,9.12969e-01,2.29307e-12,9.12969e-01,1.72447e-12,9.12969e-01
7.98221e+02,6.49800e+03,7.52300e+03,-1.02500e+03,5.18709e-13,9.20514e-01,2.24991e-12,9.20514e-01,1.73155e-12,9.20514e-01
7.98471e+02,8.70500e+03,4.77400e+03,3.93100e+03,7.57912e-13,9.28059e-01,1.27384e-12,9.28059e-01,1.18145e-12,9.28059e-01
7.98721e+02,6.89600e+03,5.28800e+03,1.60800e+03,5.15374e-13,9.35605e-01,8.81730e-13,9.35605e-01,5.66472e-13,9.35605e-01
7.98970e+02,4.34100e+03,8.68900e+03,-4.34800e+03,6.61652e-13,9.43150e-01,4.42872e-13,9.43150e-01,1.09948e-12,9.43150e-01
7.99220e+02,5.38200e+03,9.03500e+03,-3.65300e+03,1.54686e-12,9.50695e-01,4.97319e-13,9.50695e-01,1.29940e-12,9.50695e-01
7.99469e+02,7.85200e+03,5.57200e+03,2.28000e+03,1.78137e-12,9.58240e-01,5.85708e-13,9.58240e-01,1.24878e-12,9.58240e-01
7.99719e+02,7.30600e+03,3.94800e+03,3.35800e+03,1.55155e-12,9.65785e-01,4.40999e-13,9.65785e-01,1.15144e-12,9.65785e-01
7.99969e+02,4.24400e+03,6.00200e+03,-1.75800e+03,1.36923e-12,9.73331e-01,5.59974e-13,9.73331e-01,8.51599e-13,9.73331e-01
8.00218e+02,4.53300e+03,7.84500e+03,-3.31200e+03,1.31793e-12,9.80876e-01,2.19603e-13,9.80876e-01,1.10297e-12,9.80876e-01
8.00468e+02,7.43700e+03,6.11300e+03,1.32400e+03,1.40923e-12,9.88421e-01,7.77576e-13,9.88421e-01,1.15751e-12,9.88421e-01
8.00717e+02,7.68400e+03,4.50000e+03,3.18400e+03,1.25446e-12,9.95966e-01,8.07829e-13,9.95966e-01,1.04454e-12,9.95966e-01
8.00967e+02,5.47700e+03,7.00100e+03,-1.52400e+03,4.40553e-13,1.00351e+00,5.49034e-13,1.00351e+00,8.92975e-13,1.00351e+00
8.01216e+02,5.13600e+03,9.70600e+03,-4.57000e+03,7.17725e-13,1.01106e+00,8.73075e-13,1.01106e+00,6.37562e-13,1.01106e+00
8.01466e+02,8.18300e+03,8.07600e+03,1.07000e+02,1.36247e-12,1.01860e+00,5.57017e-13,1.01860e+00,8.21702e-13,1.01860e+00
8.01715e+02,9.20700e+03,4.94500e+03,4.26200e+03,1.34362e-12,1.02615e+00,4.76955e-13,1.02615e+00,1.08889e-12,1.02615e+00
8.01965e+02,6.53700e+03,6.35200e+03,1.85000e+02,5.50913e-13,1.03369e+00,4.15271e-13,1.03369e+00,4.86840e-13,1.03369e+00
8.02215e+02,5.39800e+03,9.52400e+03,-4.12600e+03,2.19337e-13,1.04124e+00,5.44199e-13,1.04124e+00,3.68221e-13,1.04124e+00
8.02464e+02,9.30900e+03,8.78000e+03,5.29000e+02,4.02476e-13,1.04878e+00,2.59517e-13,1.04878e+00,5.15608e-13,1.04878e+00
8.02713e+02,1.20000e+04,5.99100e+03,6.00900e+03,4.00831e-13,1.05633e+00,1.16738e-12,1.05633e+00,1.38599e-12,1.05633e+00
8.02963e+02,8.58800e+03,7.97400e+03,6.14000e+02,9.83436e-13,1.06387e+00,4.49794e-13,1.06387e+00,1.17984e-12,1.06387e+00
8.03212e+02,6.12300e+03,1.22620e+04,-6.13900e+03,6.12530e-13,1.07142e+00,2.52461e-13,1.07142e+00,7.75252e-13,1.07142e+00
8.03462e+02,9.90400e+03,1.15950e+04,-1.69100e+03,2.64222e-13,1.07896e+00,4.54603e-13,1.07896e+00,6.95095e-13,1.07896e+00
8.03711e+02,1.26980e+04,6.84900e+03,5.84900e+03,1.34915e-13,1.08651e+00,7.30747e-13,1.08651e+00,6.56759e-13,1.08651e+00
8.03961e+02,9.88800e+03,6.12200e+03,3.76600e+03,5.68807e-13,1.09405e+00,9.44254e-13,1.09405e+00,4.62591e-13,1.09405e+00
8.04210e+02,5.86500e+03,9.33100e+03,-3.46600e+03,8.16977e-13,1.10160e+00,7.84135e-13,1.10160e+00,3.62184e-13,1.10160e+00
8.04460e+02,7.20900e+03,9.99700e+03,-2.78800e+03,8.07481e-13,1.10914e+00,5.87371e-13,1.10914e+00,5.03970e-13,1.10914e+00
8.04709e+02,1.06490e+04,7.02400e+03,3.62500e+03,7.39970e-13,1.11669e+00,7.46388e-13,1.11669e+00,8.17863e-13,1.11669e+00
8.04958e+02,9.82100e+03,5.31200e+03,4.50900e+03,6.37283e-13,1.12423e+00,6.17127e-13,1.12423e+00,7.54325e-13,1.12423e+00
8.05208e+02,5.99900e+03,8.76200e+03,-2.76300e+03,5.84447e-13,1.13178e+00,3.03929e-13,1.13178e+00,5.27535e-13,1.13178e+00
8.05457e+02,6.49400e+03,1.10210e+04,-4.52700e+03,8.49402e-13,1.13932e+00,2.76100e-13,1.13932e+00,1.12550e-12,1.13932e+00
8.05707e+02,1.09040e+04,8.69400e+03,2.21000e+03,7.60120e-13,1.14687e+00,6.19138e-13,1.14687e+00,1.13665e-12,1.14687e+00
8.05956e+02,1.19570e+04,6.08600e+03,5.87100e+03,5.47750e-13,1.15442e+00,8.28383e-13,1.15442e+00,8.66319e-13,1.15442e+00
8.06205e+02,7.77000e+03,8.89000e+03,-1.12000e+03,3.24694e-13,1.16196e+00,8.01738e-13,1.16196e+00,7.02828e-13,1.16196e+00
8.06455e+02,6.45200e+03,1.12510e+04,-4.79900e+03,3.70663e-13,1.16951e+00,8.24375e-13,1.16951e+00,5.25044e-13,1.16951e+00
8.06704e+02,1.05560e+04,9.59200e+03,9.64000e+02,5.01076e-13,1.17705e+00,4.24967e-13,1.17705e+00,3.72135e-13,1.17705e+00
8.06953e+02,1.30440e+04,6.32100e+03,6.72300e+03,2.15235e-13,1.18460e+00,4.22374e-13,1.18460e+00,5.58618e-13,1.18460e+00
8.07203e+02,8.77000e+03,7.56900e+03,1.20100e+03,3.03463e-13,1.19214e+00,6.89301e-13,1.19214e+00,4.21497e-13,1.19214e+00
8.07452e+02,5.88100e+03,1.11560e+04,-5.27500e+03,7.74874e-13,1.19969e+00,8.50255e-13,1.19969e+00,4.28092e-13,1.19969e+00
8.07701e+02,8.30900e+03,1.04800e+04,-2.17100e+03,1.04701e-12,1.20723e+00,1.02683e-12,1.20723e+00,1.09493e-12,1.20723e+00
8.07951e+02,1.09080e+04,6.60900e+03,4.29900e+03,7.51756e-13,1.21478e+00,1.17803e-12,1.21478e+00,1.31594e-12,1.21478e+00
8.08200e+02,8.85500e+03,6.43200e+03,2.42300e+03,4.29964e-13,1.22232e+00,1.21808e-12,1.22232e+00,8.43776e-13,1.22232e+00
8.08449e+02,6.00400e+03,1.07840e+04,-4.78000e+03,6.24941e-13,1.22987e+00,1.16374e-12,1.22987e+00,5.57457e-13,1.22987e+00
8.08698e+02,8.74700e+03,1.25720e+04,-3.82500e+03,3.97635e-13,1.23741e+00,9.74226e-13,1.23741e+00,5.78600e-13,1.23741e+00
8.08948e+02,1.26460e+04,8.42900e+03,4.21700e+03,8.85296e-14,1.24496e+00,9.94518e-13,1.24496e+00,1.01592e-12,1.24496e+00
8.09197e+02,1.20910e+04,6.85800e+03,5.23300e+03,4.55611e-13,1.25250e+00,8.27267e-13,1.25250e+00,1.20765e-12,1.25250e+00
8.09446e+02,7.71800e+03,1.08290e+04,-3.11100e+03,5.92045e-13,1.26005e+00,2.19088e-13,1.26005e+00,7.24045e-13,1.26005e+00
8.09695e+02,8.27500e+03,1.33190e+04,-5.04400e+03,5.55559e-13,1.26759e+00,4.43023e-13,1.26759e+00,1.21456e-13,1.26759e+00
8.09945e+02,1.36060e+04,1.04920e+04,3.11400e+03,3.87574e-13,1.27514e+00,2.36098e-13,1.27514e+00,4.51707e-13,1.27514e+00
8.10194e+02,1.38440e+04,7.08000e+03,6.76400e+03,3.13140e-13,1.28268e+00,7.37842e-13,1.28268e+00,9.03462e-13,1.28268e+00
8.10443e+02,8.84900e+03,1.04590e+04,-1.61000e+03,8.66942e-14,1.29023e+00,8.18046e-13,1.29023e+00,7.36470e-13,1.29023e+00
8.10692e+02,8.01800e+03,1.46800e+04,-6.66200e+03,4.98005e-13,1.29777e+00,4.85673e-13,1.29777e+00,2.07096e-13,1.29777e+00
8.10941e+02,1.29960e+04,1.29400e+04,5.60000e+01,3.88599e-13,1.30532e+00,6.23140e-13,1.30532e+00,5.53991e-13,1.30532e+00
8.11191e+02,1.34920e+04,7.12900e+03,6.36300e+03,4.34175e-13,1.31286e+00,2.67670e-13,1.31286e+00,6.65320e-13,1.31286e+00
8.11440e+02,9.69200e+03,8.93000e+03,7.62000e+02,1.97690e-12,-1.32041e+00,1.26466e-12,-1.32041e+00,7.12242e-13,-1.32041e+00
8.11689e+02,7.46800e+03,1.41690e+04,-6.70100e+03,4.34175e-13,-1.31286e+00,2.67670e-13,-1.31286e+00,6.65320e-13,-1.31286e+00
8.11938e+02,1.06250e+04,1.28580e+04,-2.23300e+03,3.88599e-13,-1.30532e+00,6.23140e-13,-1.30532e+00,5.53991e-13,-1.30532e+00
8.12187e+02,1.43820e+04,7.70400e+03,6.67800e+03,4.98005e-13,-1.29777e+00,4.85673e-13,-1.29777e+00,2.07096e-13,-1.29777e+00
8.12436e+02,1.18180e+04,7.09400e+03,4.72400e+03,8.66942e-14,-1.29023e+00,8.18046e-13,-1.29023e+00,7.36470e-13,-1.29023e+00
8.12685e+02,7.28400e+03,1.09640e+04,-3.68000e+03,3.13140e-13,-1.28268e+00,7.37842e-13,-1.28268e+00,9.03462e-13,-1.28268e+00
8.12935e+02,8.86800e+03,1.27430e+04,-3.87500e+03,3.87574e-13,-1.27514e+00,2.36098e-13,-1.27514e+00,4.51707e-13,-1.27514e+00
8.13184e+02,1.31530e+04,9.52700e+03,3.62600e+03,5.55559e-13,-1.26759e+00,4.43023e-13,-1.26759e+00,1.21456e-13,-1.26759e+00
8.13433e+02,1.18970e+04,6.72500e+03,5.17200e+03,5.92045e-13,-1.26005e+00,2.19088e-13,-1.26005e+00,7.24045e-13,-1.26005e+00
8.13682e+02,8.03100e+03,1.09770e+04,-2.94600e+03,4.55611e-13,-1.25250e+00,8.27267e-13,-1.25250e+00,1.20765e-12,-1.25250e+00
8.13931e+02,7.25200e+03,1.45190e+04,-7.26700e+03,8.85296e-14,-1.24496e+00,9.94518e-13,-1.24496e+00,1.01592e-12,-1.24496e+00
8.14180e+02,1.02300e+04,1.12850e+04,-1.05500e+03,3.97635e-13,-1.23741e+00,9.74226e-13,-1.23741e+00,5.78600e-13,-1.23741e+00
8.14429e+02,1.26060e+04,6.80600e+03,5.80000e+03,6.24941e-13,-1.22987e+00,1.16374e-12,-1.22987e+00,5.57457e-13,-1.22987e+00
8.14678e+02,8.84200e+03,8.29400e+03,5.48000e+02,4.29964e-13,-1.22232e+00,1.21808e-12,-1.22232e+00,8.43776e-13,-1.22232e+00
8.14927e+02,6.15600e+03,1.15040e+04,-5.34800e+03,7.51756e-13,-1.21478e+00,1.17803e-12,-1.21478e+00,1.31594e-12,-1.21478e+00
8.15176e+02,8.96500e+03,1.10770e+04,-2.11200e+03,1.04701e-12,-1.20723e+00,1.02683e-12,-1.20723e+00,1.09493e-12,-1.20723e+00
8.15425e+02,1.17040e+04,6.93600e+03,4.76800e+03,7.74874e-13,-1.19969e+00,8.50255e-13,-1.19969e+00,4.28092e-13,-1.19969e+00
8.15674e+02,1.01560e+04,6.81700e+03,3.33900e+03,3.03463e-13,-1.19214e+00,6.89301e-13,-1.19214e+00,4.21497e-13,-1.19214e+00
8.15923e+02,6.68600e+03,1.22860e+04,-5.60000e+03,2.15235e-13,-1.18460e+00,4.22374e-13,-1.18460e+00,5.58618e-13,-1.18460e+00
8.16172e+02,7.65900e+03,1.18650e+04,-4.20600e+03,5.01076e-13,-1.17705e+00,4.24967e-13,-1.17705e+00,3.72135e-13,-1.17705e+00
8.16421e+02,1.10740e+04,7.53100e+03,3.54300e+03,3.70663e-13,-1.16951e+00,8.24375e-13,-1.16951e+00,5.25044e-13,-1.16951e+00
8.16670e+02,9.47200e+03,5.88000e+03,3.59200e+03,3.24694e-13,-1.16196e+00,8.01738e-13,-1.16196e+00,7.02828e-13,-1.16196e+00
8.16919e+02,6.56900e+03,9.38900e+03,-2.82000e+03,5.47750e-13,-1.15442e+00,8.28383e-13,-1.15442e+00,8.66319e-13,-1.15442e+00
8.17168e+02,5.74800e+03,1.06610e+04,-4.91300e+03,7.60120e-13,-1.14687e+00,6.19138e-13,-1.14687e+00,1.13665e-12,-1.14687e+00
8.17417e+02,8.94000e+03,8.27700e+03,6.63000e+02,8.49402e-13,-1.13932e+00,2.76100e-13,-1.13932e+00,1.12550e-12,-1.13932e+00
8.17666e+02,1.05930e+04,5.67600e+03,4.91700e+03,5.84447e-13,-1.13178e+00,3.03929e-13,-1.13178e+00,5.27535e-13,-1.13178e+00
8.17915e+02,7.88400e+03,6.65700e+03,1.22700e+03,6.37283e-13,-1.12423e+00,6.17127e-13,-1.12423e+00,7.54325e-13,-1.12423e+00
8.18164e+02,5.32000e+03,9.56100e+03,-4.24100e+03,7.39970e-13,-1.11669e+00,7.46388e-13,-1.11669e+00,8.17863e-13,-1.11669e+00
8.18413e+02,6.92800e+03,8.87200e+03,-1.94400e+03,8.07481e-13,-1.10914e+00,5.87371e-13,-1.10914e+00,5.03970e-13,-1.10914e+00
8.18662e+02,8.59200e+03,5.29100e+03,3.30100e+03,8.16977e-13,-1.10160e+00,7.84135e-13,-1.10160e+00,3.62184e-13,-1.10160e+00
8.18911e+02,7.90000e+03,4.86800e+03,3.03200e+03,5.68807e-13,-1.09405e+00,9.44254e-13,-1.09405e+00,4.62591e-13,-1.09405e+00
8.19160e+02,4.90000e+03,7.89600e+03,-2.99600e+03,1.34915e-13,-1.08651e+00,7.30747e-13,-1.08651e+00,6.56759e-13,-1.08651e+00
8.19408e+02,5.30000e+03,9.45600e+03,-4.15600e+03,2.64222e-13,-1.07896e+00,4.54603e-13,-1.07896e+00,6.95095e-13,-1.07896e+00
8.19657e+02,9.98600e+03,7.32600e+03,2.66000e+03,6.12530e-13,-1.07142e+00,2.52461e-13,-1.07142e+00,7.75252e-13,-1.07142e+00
8.19906e+02,1.12030e+04,5.14600e+03,6.05700e+03,9.83436e-13,-1.06387e+00,4.49794e-13,-1.06387e+00,1.17984e-12,-1.06387e+00
8.20155e+02,7.55600e+03,7.16300e+03,3.93000e+02,4.00831e-13,-1.05633e+00,1.16738e-12,-1.05633e+00,1.38599e-12,-1.05633e+00
8.20404e+02,5.23600e+03,9.83400e+03,-4.59800e+03,4.02476e-13,-1.04878e+00,2.59517e-13,-1.04878e+00,5.15608e-13,-1.04878e+00
8.20653e+02,7.24300e+03,8.25300e+03,-1.01000e+03,2.19337e-13,-1.04124e+00,5.44199e-13,-1.04124e+00,3.68221e-13,-1.04124e+00
8.20901e+02,9.87700e+03,5.15000e+03,4.72700e+03,5.50913e-13,-1.03369e+00,4.15271e-13,-1.03369e+00,4.86840e-13,-1.03369e+00
8.21150e+02,8.49800e+03,5.35400e+03,3.14400e+03,1.34362e-12,-1.02615e+00,4.76955e-13,-1.02615e+00,1.08889e-12,-1.02615e+00
8.21399e+02,4.75800e+03,7.65800e+03,-2.90000e+03,1.36247e-12,-1.01860e+00,5.57017e-13,-1.01860e+00,8.21702e-13,-1.01860e+00
8.21648e+02,5.21700e+03,8.94500e+03,-3.72800e+03,7.17725e-13,-1.01106e+00,8.73075e-13,-1.01106e+00,6.37562e-13,-1.01106e+00
8.21897e+02,8.00900e+03,6.31200e+03,1.69700e+03,4.40553e-13,-1.00351e+00,5.49034e-13,-1.00351e+00,8.92975e-13,-1.00351e+00
8.22145e+02,7.87700e+03,4.07400e+03,3.80300e+03,1.25446e-12,-9.95966e-01,8.07829e-13,-9.95966e-01,1.04454e-12,-9.95966e-01
8.22394e+02,5.38700e+03,5.99800e+03,-6.11000e+02,1.40923e-12,-9.88421e-01,7.77576e-13,-9.88421e-01,1.15751e-12,-9.88421e-01
8.22643e+02,3.75200e+03,8.03400e+03,-4.28200e+03,1.31793e-12,-9.80876e-01,2.19603e-13,-9.80876e-01,1.10297e-12,-9.80876e-01
8.22892e+02,5.68900e+03,6.79400e+03,-1.10500e+03,1.36923e-12,-9.73331e-01,5.59974e-13,-9.73331e-01,8.51599e-13,-9.73331e-01
8.23140e+02,7.49400e+03,4.33600e+03,3.15800e+03,1.55155e-12,-9.65785e-01,4.40999e-13,-9.65785e-01,1.15144e-12,-9.65785e-01
8.23389e+02,6.25200e+03,5.02100e+03,1.23100e+03,1.78137e-12,-9.58240e-01,5.85708e-13,-9.58240e-01,1.24878e-12,-9.58240e-01
8.23638e+02,4.02400e+03,7.44800e+03,-3.42400e+03,1.54686e-12,-9.50695e-01,4.97319e-13,-9.50695e-01,1.29940e-12,-9.50695e-01
8.23887e+02,4.79000e+03,7.61200e+03,-2.82200e+03,6.61652e-13,-9.43150e-01,4.42872e-13,-9.43150e-01,1.09948e-12,-9.43150e-01
8.24135e+02,6.52100e+03,4.72400e+03,1.79700e+03,5.15374e-13,-9.35605e-01,8.81730e-13,-9.35605e-01,5.66472e-13,-9.35605e-01
8.24384e+02,6.62700e+03,3.64800e+03,2.97900e+03,7.57912e-13,-9.28059e-01,1.27384e-12,-9.28059e-01,1.18145e-12,-9.28059e-01
8.24633e+02,4.38400e+03,6.02400e+03,-1.64000e+03,5.18709e-13,-9.20514e-01,2.24991e-12,-9.20514e-01,1.73155e-12,-9.20514e-01
8.24881e+02,3.62300e+03,7.23900e+03,-3.61600e+03,1.22099e-12,-9.12969e-01,2.29307e-12,-9.12969e-01,1.72447e-12,-9.12969e-01
8.25130e+02,5.69200e+03,6.17000e+03,-4.78000e+02,1.25060e-12,-9.05424e-01,1.30788e-12,-9.05424e-01,7.96070e-13,-9.05424e-01
8.25379e+02,6.97000e+03,3.75800e+03,3.21200e+03,1.22506e-12,-8.97879e-01,1.58630e-12,-8.97879e-01,4.03742e-13,-8.97879e-01
8.25627e+02,4.90700e+03,4.14000e+03,7.67000e+02,1.30440e-12,-8.90333e-01,1.67055e-12,-8.90333e-01,6.73567e-13,-8.90333e-01
8.25876e+02,2.96100e+03,6.07800e+03,-3.11700e+03,1.31312e-12,-8.82788e-01,1.57751e-12,-8.82788e-01,3.53075e-13,-8.82788e-01
8.26125e+02,3.70100e+03,6.00300e+03,-2.30200e+03,1.31132e-12,-8.75243e-01,2.11819e-12,-8.75243e-01,8.30121e-13,-8.75243e-01
8.26373e+02,5.20900e+03,3.61000e+03,1.59900e+03,1.30479e-12,-8.67698e-01,2.14462e-12,-8.67698e-01,8.59433e-13,-8.67698e-01
8.26622e+02,5.09700e+03,2.62100e+03,2.47600e+03,1.05713e-12,-8.60153e-01,1.15176e-12,-8.60153e-01,2.98449e-13,-8.60153e-01
8.26870e+02,3.07600e+03,3.42600e+03,-3.50000e+02,8.94726e-13,-8.52607e-01,7.82447e-13,-8.52607e-01,3.62989e-13,-8.52607e-01
8.27119e+02,2.59800e+03,4.53600e+03,-1.93800e+03,7.98512e-13,-8.45062e-01,5.02709e-13,-8.45062e-01,6.44468e-13,-8.45062e-01
8.27368e+02,4.13000e+03,4.17600e+03,-4.60000e+01,1.21016e-12,-8.37517e-01,8.72919e-13,-8.37517e-01,7.71984e-13,-8.37517e-01
8.27616e+02,4.87100e+03,2.66400e+03,2.20700e+03,1.57590e-12,-8.29972e-01,1.19947e-12,-8.29972e-01,4.04444e-13,-8.29972e-01
8.27865e+02,3.64900e+03,2.98000e+03,6.69000e+02,1.47860e-12,-8.22427e-01,6.81988e-13,-8.22427e-01,9.13108e-13,-8.22427e-01
8.28113e+02,2.39200e+03,4.65100e+03,-2.25900e+03,1.33020e-12,-8.14881e-01,9.82751e-13,-8.14881e-01,2.28231e-12,-8.14881e-01
8.28362e+02,2.81200e+03,5.24700e+03,-2.43500e+03,1.68791e-12,-8.07336e-01,1.27426e-12,-8.07336e-01,2.92821e-12,-8.07336e-01
8.28610e+02,3.86000e+03,3.01600e+03,8.44000e+02,1.80295e-12,-7.99791e-01,6.32913e-13,-7.99791e-01,2.19372e-12,-7.99791e-01
8.28859e+02,3.85700e+03,2.07300e+03,1.78400e+03,1.27251e-12,-7.92246e-01,2.72765e-13,-7.92246e-01,1.01404e-12,-7.92246e-01
8.29108e+02,2.42500e+03,2.78000e+03,-3.55000e+02,1.22548e-12,-7.84701e-01,1.36023e-12,-7.84701e-01,2.25815e-12,-7.84701e-01
8.29356e+02,1.72400e+03,3.21200e+03,-1.48800e+03,6.77367e-13,-7.77155e-01,2.26086e-12,-7.77155e-01,2.85710e-12,-7.77155e-01
8.29605e+02,2.25400e+03,2.63300e+03,-3.79000e+02,6.31349e-13,-7.69610e-01,2.29329e-12,-7.69610e-01,2.86502e-12,-7.69610e-01
8.29853e+02,2.80900e+03,1.78500e+03,1.02400e+03,1.09092e-12,-7.62065e-01,1.82390e-12,-7.62065e-01,2.66724e-12,-7.62065e-01
8.30101e+02,2.35200e+03,2.09100e+03,2.61000e+02,1.08154e-12,-7.54520e-01,5.15224e-13,-7.54520e-01,1.46300e-12,-7.54520e-01
8.30350e+02,1.76400e+03,3.15000e+03,-1.38600e+03,6.65241e-13,-7.46975e-01,1.78987e-12,-7.46975e-01,2.36525e-12,-7.46975e-01
8.30598e+02,1.85500e+03,2.78200e+03,-9.27000e+02,8.75901e-13,-7.39429e-01,2.88873e-12,-7.39429e-01,3.67657e-12,-7.39429e-01
8.30847e+02,2.53600e+03,1.86900e+03,6.67000e+02,1.83486e-12,-7.31884e-01,2.14808e-12,-7.31884e-01,3.58853e-12,-7.31884e-01
8.31095e+02,2.53800e+03,1.52700e+03,1.01100e+03,2.42982e-12,-7.24339e-01,7.38159e-13,-7.24339e-01,2.54778e-12,-7.24339e-01
8.31344e+02,1.62900e+03,2.19400e+03,-5.65000e+02,1.92456e-12,-7.16794e-01,5.62174e-13,-7.16794e-01,1.99500e-12,-7.16794e-01
8.31592e+02,1.31600e+03,2.57100e+03,-1.25500e+03,7.91241e-13,-7.09249e-01,1.18831e-12,-7.09249e-01,1.45496e-12,-7.09249e-01
8.31841e+02,1.93300e+03,2.09200e+03,-1.59000e+02,3.40009e-13,-7.01703e-01,1.95888e-12,-7.01703e-01,1.94115e-12,-7.01703e-01
8.32089e+02,2.27200e+03,1.34600e+03,9.26000e+02,1.42600e-12,-6.94158e-01,1.06377e-12,-6.94158e-01,2.45795e-12,-6.94158e-01
8.32337e+02,1.90900e+03,1.49600e+03,4.13000e+02,1.32135e-12,-6.86613e-01,3.07096e-12,-6.86613e-01,4.06018e-12,-6.86613e-01
8.32586e+02,1.24100e+03,1.99400e+03,-7.53000e+02,2.48723e-12,-6.79068e-01,1.36191e-12,-6.79068e-01,3.23246e-12,-6.79068e-01
8.32834e+02,1.43500e+03,2.23500e+03,-8.00000e+02,4.68303e-12,-6.71523e-01,5.16966e-12,-6.71523e-01,7.54998e-12,-6.71523e-01
8.33083e+02,1.89700e+03,1.47200e+03,4.25000e+02,5.29517e-12,-6.63977e-01,8.34495e-12,-6.63977e-01,1.25922e-11,-6.63977e-01
8.33331e+02,1.69700e+03,1.09200e+03,6.05000e+02,6.21920e-12,-6.56432e-01,6.70134e-12,-6.56432e-01,1.28694e-11,-6.56432e-01
8.33579e+02,1.14600e+03,1.38400e+03,-2.38000e+02,1.35011e-11,-6.48887e-01,9.29087e-12,-6.48887e-01,2.15142e-11,-6.48887e-01
8.33828e+02,1.00500e+03,1.64100e+03,-6.36000e+02,2.08580e-11,-6.41342e-01,1.92471e-11,-6.41342e-01,3.63243e-11,-6.41342e-01
8.34076e+02,1.20000e+03,1.29000e+03,-9.00000e+01,2.57395e-11,-6.33797e-01,2.77838e-11,-6.33797e-01,4.93315e-11,-6.33797e-01
8.34324e+02,1.63700e+03,1.01400e+03,6.23000e+02,3.07611e-11,-6.26251e-01,3.34638e-11,-6.26251e-01,6.03932e-11,-6.26251e-01
8.34573e+02,1.40000e+03,9.93000e+02,4.07000e+02,3.51767e-11,-6.18706e-01,3.64319e-11,-6.18706e-01,6.78097e-11,-6.18706e-01
8.34821e+02,1.00700e+03,1.35800e+03,-3.51000e+02,3.62399e-11,-6.11161e-01,3.64739e-11,-6.11161e-01,6.93910e-11,-6.11161e-01
8.35069e+02,9.30000e+02,1.48800e+03,-5.58000e+02,3.31185e-11,-6.03616e-01,3.27646e-11,-6.03616e-01,6.32681e-11,-6.03616e-01
8.35318e+02,1.37700e+03,1.12600e+03,2.51000e+02,2.60066e-11,-5.96071e-01,2.51200e-11,-5.96071e-01,4.94359e-11,-5.96071e-01
8.35566e+02,1.37900e+03,7.79000e+02,6.00000e+02,1.87262e-11,-5.88525e-01,1.82225e-11,-5.88525e-01,3.59784e-11,-5.88525e-01
8.35814e+02,9.89000e+02,9.39000e+02,5.00000e+01,1.29355e-11,-5.80980e-01,1.28061e-11,-5.80980e-01,2.49129e-11,-5.80980e-01
8.36062e+02,7.67000e+02,1.15100e+03,-3.84000e+02,9.20280e-12,-5.73435e-01,7.30445e-12,-5.73435e-01,1.60837e-11,-5.73435e-01
8.36311e+02,9.22000e+02,1.10800e+03,-1.86000e+02,4.20914e-12,-5.65890e-01,3.73308e-12,-5.65890e-01,7.78614e-12,-5.65890e-01
8.36559e+02,1.10900e+03,7.99000e+02,3.10000e+02,8.56008e-13,-5.58345e-01,4.07736e-12,-5.58345e-01,4.60624e-12,-5.58345e-01
8.36807e+02,1.06900e+03,7.52000e+02,3.17000e+02,1.96955e-12,-5.50799e-01,2.53953e-12,-5.50799e-01,3.21221e-12,-5.50799e-01
8.37055e+02,7.82000e+02,8.85000e+02,-1.03000e+02,2.74865e-12,-5.43254e-01,1.16783e-12,-5.43254e-01,3.23153e-12,-5.43254e-01
8.37304e+02,7.40000e+02,1.00600e+03,-2.66000e+02,3.35529e-12,-5.35709e-01,6.83889e-13,-5.35709e-01,4.03134e-12,-5.35709e-01
8.37552e+02,7.97000e+02,7.95000e+02,2.00000e+00,2.57846e-12,-5.28164e-01,8.34324e-13,-5.28164e-01,3.40693e-12,-5.28164e-01
8.37800e+02,9.39000e+02,7.37000e+02,2.02000e+02,2.83722e-12,-5.20619e-01,1.80050e-12,-5.20619e-01,3.63043e-12,-5.20619e-01
8.38048e+02,7.34000e+02,6.98000e+02,3.60000e+01,3.26865e-12,-5.13073e-01,2.93204e-12,-5.13073e-01,3.84278e-12,-5.13073e-01
8.38296e+02,6.62000e+02,8.04000e+02,-1.42000e+02,1.66063e-12,-5.05528e-01,1.50581e-12,-5.05528e-01,6.13360e-13,-5.05528e-01
8.38545e+02,6.74000e+02,7.89000e+02,-1.15000e+02,2.02938e-12,-4.97983e-01,1.71400e-12,-4.97983e-01,3.60284e-12,-4.97983e-01
8.38793e+02,7.83000e+02,7.21000e+02,6.20000e+01,2.64126e-12,-4.90438e-01,2.52138e-12,-4.90438e-01,3.71366e-12,-4.90438e-01
8.39041e+02,7.22000e+02,6.65000e+02,5.70000e+01,1.34381e-12,-4.82893e-01,1.31479e-12,-4.82893e-01,1.39574e-12,-4.82893e-01
8.39289e+02,6.85000e+02,7.17000e+02,-3.20000e+01,6.66384e-13,-4.75347e-01,8.06514e-13,-4.75347e-01,1.43567e-12,-4.75347e-01
8.39537e+02,6.46000e+02,7.40000e+02,-9.40000e+01,1.81854e-12,-4.67802e-01,1.64936e-12,-4.67802e-01,3.46624e-12,-4.67802e-01
8.39785e+02,6.98000e+02,6.99000e+02,-1.00000e+00,1.56706e-12,-4.60257e-01,2.31199e-12,-4.60257e-01,3.80995e-12,-4.60257e-01
8.40033e+02,7.07000e+02,6.51000e+02,5.60000e+01,8.97482e-13,-4.52712e-01,1.62833e-12,-4.52712e-01,2.35180e-12,-4.52712e-01
8.40281e+02,7.30000e+02,6.81000e+02,4.90000e+01,8.99095e-13,-4.45167e-01,9.34830e-13,-4.45167e-01,1.57250e-12,-4.45167e-01
8.40530e+02,6.58000e+02,6.71000e+02,-1.30000e+01,1.60270e-12,-4.37621e-01,1.13348e-12,-4.37621e-01,2.61930e-12,-4.37621e-01
8.40778e+02,6.51000e+02,6.97000e+02,-4.60000e+01,2.37070e-12,-4.30076e-01,1.19887e-12,-4.30076e-01,3.55636e-12,-4.30076e-01
8.41026e+02,6.65000e+02,6.90000e+02,-2.50000e+01,2.84098e-12,-4.22531e-01,9.13545e-13,-4.22531e-01,3.75380e-12,-4.22531e-01
8.41274e+02,6.91000e+02,6.57000e+02,3.40000e+01,2.20765e-12,-4.14986e-01,1.69297e-12,-4.14986e-01,2.44797e-12,-4.14986e-01
8.41522e+02,6.57000e+02,6.43000e+02,1.40000e+01,9.33682e-13,-4.07441e-01,2.62290e-12,-4.07441e-01,1.69634e-12,-4.07441e-01
8.41770e+02,6.50000e+02,6.81000e+02,-3.10000e+01,5.78570e-13,-3.99895e-01,1.19378e-12,-3.99895e-01,1.14570e-12,-3.99895e-01
8.42018e+02,6.34000e+02,6.65000e+02,-3.10000e+01,7.13054e-13,-3.92350e-01,1.06926e-12,-3.92350e-01,3.70543e-13,-3.92350e-01
8.42266e+02,6.74000e+02,6.53000e+02,2.10000e+01,8.54186e-13,-3.84805e-01,9.43052e-13,-3.84805e-01,3.12011e-13,-3.84805e-01
8.42514e+02,6.47000e+02,6.28000e+02,1.90000e+01,1.81539e-12,-3.77260e-01,1.74006e-12,-3.77260e-01,1.16855e-12,-3.77260e-01
8.42762e+02,6.74000e+02,6.77000e+02,-3.00000e+00,4.81941e-12,-3.69715e-01,2.50337e-12,-3.69715e-01,3.76287e-12,-3.69715e-01
8.43010e+02,6.14000e+02,6.43000e+02,-2.90000e+01,5.11158e-12,-3.62169e-01,2.21337e-12,-3.62169e-01,5.22878e-12,-3.62169e-01
8.43258e+02,6.57000e+02,6.47000e+02,1.00000e+01,2.36165e-12,-3.54624e-01,3.05349e-12,-3.54624e-01,2.43601e-12,-3.54624e-01
8.43506e+02,6.35000e+02,6.41000e+02,-6.00000e+00,2.63505e-12,-3.47079e-01,3.51478e-12,-3.47079e-01,2.34919e-12,-3.47079e-01
8.43754e+02,6.60000e+02,6.35000e+02,2.50000e+01,2.22850e-12,-3.39534e-01,2.24982e-12,-3.39534e-01,3.07794e-12,-3.39534e-01
8.44002e+02,6.30000e+02,6.46000e+02,-1.60000e+01,9.83467e-13,-3.31989e-01,1.04609e-12,-3.31989e-01,1.74070e-12,-3.31989e-01
8.44250e+02,6.31000e+02,6.38000e+02,-7.00000e+00,1.16537e-12,-3.24444e-01,4.03642e-12,-3.24444e-01,3.23429e-12,-3.24444e-01
8.44498e+02,6.33000e+02,6.53000e+02,-2.00000e+01,1.28859e-12,-3.16898e-01,5.76414e-12,-3.16898e-01,4.55694e-12,-3.16898e-01
8.44746e+02,6.40000e+02,6.31000e+02,9.00000e+00,2.76970e-12,-3.09353e-01,5.00134e-12,-3.09353e-01,3.79732e-12,-3.09353e-01
8.44994e+02,6.40000e+02,6.30000e+02,1.00000e+01,2.70294e-12,-3.01808e-01,2.31743e-12,-3.01808e-01,3.56281e-12,-3.01808e-01
8.45242e+02,6.64000e+02,6.75000e+02,-1.10000e+01,7.08801e-13,-2.94263e-01,2.68462e-12,-2.94263e-01,3.33185e-12,-2.94263e-01
8.45490e+02,6.28000e+02,6.18000e+02,1.00000e+01,1.38393e-12,-2.86718e-01,1.71533e-12,-2.86718e-01,2.14806e-12,-2.86718e-01
8.45738e+02,6.29000e+02,6.39000e+02,-1.00000e+01,2.49286e-12,-2.79172e-01,1.58614e-12,-2.79172e-01,1.84375e-12,-2.79172e-01
8.45985e+02,6.28000e+02,6.29000e+02,-1.00000e+00,3.03787e-12,-2.71627e-01,5.63118e-12,-2.71627e-01,3.48130e-12,-2.71627e-01
8.46233e+02,6.35000e+02,6.30000e+02,5.00000e+00,1.53516e-12,-2.64082e-01,6.27069e-12,-2.64082e-01,5.10271e-12,-2.64082e-01
8.46481e+02,6.34000e+02,6.21000e+02,1.30000e+01,1.32991e-12,-2.56537e-01,4.04779e-12,-2.56537e-01,4.59061e-12,-2.56537e-01
8.46729e+02,6.38000e+02,6.28000e+02,1.00000e+01,3.78528e-12,-2.48992e-01,4.09991e-12,-2.48992e-01,3.68208e-12,-2.48992e-01
8.46977e+02,6.20000e+02,6.32000e+02,-1.20000e+01,3.98634e-12,-2.41446e-01,3.73306e-12,-2.41446e-01,3.31468e-12,-2.41446e-01
8.47225e+02,6.34000e+02,6.25000e+02,9.00000e+00,3.50347e-12,-2.33901e-01,2.69630e-12,-2.33901e-01,4.52326e-12,-2.33901e-01
8.47473e+02,6.32000e+02,6.24000e+02,8.00000e+00,2.75688e-12,-2.26356e-01,3.13611e-12,-2.26356e-01,5.62544e-12,-2.26356e-01
8.47720e+02,6.62000e+02,6.60000e+02,2.00000e+00,2.92984e-12,-2.18811e-01,1.70773e-12,-2.18811e-01,4.45246e-12,-2.18811e-01
8.47968e+02,6.17000e+02,6.23000e+02,-6.00000e+00,3.23026e-12,-2.11266e-01,1.45683e-12,-2.11266e-01,2.45292e-12,-2.11266e-01
8.48216e+02,6.33000e+02,6.38000e+02,-5.00000e+00,3.06717e-12,-2.03720e-01,1.23898e-12,-2.03720e-01,1.83507e-12,-2.03720e-01
8.48464e+02,6.26000e+02,6.31000e+02,-5.00000e+00,3.88028e-12,-1.96175e-01,2.11746e-12,-1.96175e-01,2.13248e-12,-1.96175e-01
8.48712e+02,6.32000e+02,6.27000e+02,5.00000e+00,5.20291e-12,-1.88630e-01,4.39528e-12,-1.88630e-01,2.29854e-12,-1.88630e-01
8.48960e+02,6.32000e+02,6.19000e+02,1.30000e+01,5.88780e-12,-1.81085e-01,5.56094e-12,-1.81085e-01,2.24710e-12,-1.81085e-01
8.49207e+02,6.39000e+02,6.24000e+02,1.50000e+01,5.20321e-12,-1.73540e-01,5.17610e-12,-1.73540e-01,2.06667e-12,-1.73540e-01
8.49455e+02,6.34000e+02,6.25000e+02,9.00000e+00,2.40868e-12,-1.65994e-01,3.19536e-12,-1.65994e-01,1.35394e-12,-1.65994e-01
8.49703e+02,6.30000e+02,6.40000e+02,-1.00000e+01,5.58817e-12,-1.58449e-01,5.77237e-12,-1.58449e-01,3.00289e-13,-1.58449e-01
8.49951e+02,6.21000e+02,6.30000e+02,-9.00000e+00,7.60311e-12,-1.50904e-01,6.43109e-12,-1.50904e-01,1.19925e-12,-1.50904e-01
8.50198e+02,6.60000e+02,6.60000e+02,0.00000e+00,5.51776e-12,-1.43359e-01,2.97176e-12,-1.43359e-01,2.58452e-12,-1.43359e-01
8.50446e+02,6.17000e+02,6.19000e+02,-2.00000e+00,1.86616e-12,-1.35814e-01,1.09939e-12,-1.35814e-01,2.12488e-12,-1.35814e-01
8.50694e+02,6.31000e+02,6.23000e+02,8.00000e+00,2.01319e-12,-1.28268e-01,2.13943e-12,-1.28268e-01,7.01946e-13,-1.28268e-01
8.50941e+02,6.19000e+02,6.30000e+02,-1.10000e+01,5.07496e-12,-1.20723e-01,4.31944e-12,-1.20723e-01,8.81653e-13,-1.20723e-01
8.51189e+02,6.19000e+02,6.39000e+02,-2.00000e+01,5.75658e-12,-1.13178e-01,5.26406e-12,-1.13178e-01,9.90867e-13,-1.13178e-01
8.51437e+02,6.37000e+02,6.27000e+02,1.00000e+01,4.37578e-12,-1.05633e-01,5.04021e-12,-1.05633e-01,1.22066e-12,-1.05633e-01
8.51685e+02,6.22000e+02,6.34000e+02,-1.20000e+01,3.63893e-12,-9.80876e-02,3.09375e-12,-9.80876e-02,1.62107e-12,-9.80876e-02
8.51932e+02,6.21000e+02,6.28000e+02,-7.00000e+00,6.14863e-12,-9.05424e-02,1.53846e-12,-9.05424e-02,5.24113e-12,-9.05424e-02
8.52180e+02,6.36000e+02,6.48000e+02,-1.20000e+01,7.32936e-12,-8.29972e-02,9.16506e-13,-8.29972e-02,6.55519e-12,-8.29972e-02
8.52428e+02,6.42000e+02,6.24000e+02,1.80000e+01,6.34684e-12,-7.54520e-02,1.94281e-12,-7.54520e-02,4.40800e-12,-7.54520e-02
8.52675e+02,6.62000e+02,6.62000e+02,0.00000e+00,6.64774e-12,-6.79068e-02,6.16502e-12,-6.79068e-02,4.83014e-13,-6.79068e-02
8.52923e+02,6.11000e+02,6.13000e+02,-2.00000e+00,7.21682e-12,-6.03616e-02,9.82289e-12,-6.03616e-02,2.84095e-12,-6.03616e-02
8.53170e+02,6.37000e+02,6.32000e+02,5.00000e+00,6.53662e-12,-5.28164e-02,1.00535e-11,-5.28164e-02,4.48041e-12,-5.28164e-02
8.53418e+02,6.35000e+02,6.25000e+02,1.00000e+01,3.81237e-12,-4.52712e-02,5.79942e-12,-4.52712e-02,3.75876e-12,-4.52712e-02
8.53666e+02,6.37000e+02,6.41000e+02,-4.00000e+00,5.12393e-12,-3.77260e-02,5.08612e-12,-3.77260e-02,2.55823e-12,-3.77260e-02
8.53913e+02,6.32000e+02,6.30000e+02,2.00000e+00,5.07128e-12,-3.01808e-02,4.83106e-12,-3.01808e-02,6.19593e-13,-3.01808e-02
8.54161e+02,6.36000e+02,6.13000e+02,2.30000e+01,1.80495e-11,-2.26356e-02,1.75456e-11,-2.26356e-02,1.88560e-12,-2.26356e-02
8.54409e+02,6.36000e+02,6.21000e+02,1.50000e+01,8.49973e-11,-1.50904e-02,8.33938e-11,-1.50904e-02,4.15882e-12,-1.50904e-02
8.54656e+02,6.29000e+02,6.43000e+02,-1.40000e+01,2.32740e-10,-7.54520e-03,2.31173e-10,-7.54520e-03,3.95606e-12,-7.54520e-03
